version 1
nodes
  0 "Bip01" -1
  1 "Bip01 Pelvis" 0
  2 "Bip01 L Thigh" 1
  3 "Bip01 L Calf" 2
  4 "Bip01 L Foot" 3
  5 "Bip01 L Toe0" 4
  6 "Bip01 R Thigh" 1
  7 "Bip01 R Calf" 6
  8 "Bip01 R Foot" 7
  9 "Bip01 R Toe0" 8
 10 "Bip01 Spine" 1
 11 "Bip01 Spine1" 10
 12 "Bip01 Spine2" 11
 13 "Bip01 Spine3" 12
 14 "Bip01 Neck" 13
 15 "Bip01 L Clavicle" 14
 16 "Bip01 L UpperArm" 15
 17 "Bip01 L Forearm" 16
 18 "Bip01 L Hand" 17
 19 "Bip01 R Clavicle" 14
 20 "Bip01 R UpperArm" 19
 21 "Bip01 R Forearm" 20
 22 "Bip01 R Hand" 21
 23 "Bip01 Head" 14
 24 "Bone05" 23
 25 "m4" 22
 26 "SHOTGUN" 22
end
skeleton
time 0
  0   -0.001480 -0.281535 -2.578513 0.000000 1.596143 -1.570844
  1   -9.725540 0.000001 -0.770627 -1.570795 -1.570451 0.000000
  2   -0.000008 0.000010 5.615750 0.000001 3.141591 -0.259802
  3   15.693467 0.000000 0.000000 0.000000 0.000000 -0.226179
  4   22.146629 -0.000001 0.000000 0.000000 0.000000 -0.923308
  5   3.310129 5.734393 0.000000 0.000000 0.000000 1.570796
  6   0.000008 -0.000006 -5.615750 1.230386 2.617641 -0.278418
  7   15.693467 0.000000 0.000000 0.000000 0.000000 -1.357200
  8   22.146629 0.000000 0.000000 0.089183 -0.319281 -0.779100
  9   3.310129 5.734393 0.000000 0.000000 0.000000 1.570796
 10   1.384163 -0.004728 0.000002 -0.205865 -0.019697 0.009701
 11   5.939814 -0.004730 0.000000 0.000000 0.000000 0.000000
 12   5.939809 -0.003975 0.000000 0.000000 0.000000 0.000000
 13   4.991439 -0.003975 0.000000 0.000000 0.000000 0.000000
 14   4.991436 -0.001575 0.000000 0.000000 0.000000 0.000000
 15   0.000005 0.001564 3.638375 -0.000010 -1.283555 3.140806
 16   8.842831 0.000000 -0.000002 -1.626330 0.837737 -0.078831
 17   9.341934 0.000000 -0.000001 0.000000 0.000000 -1.870159
 18   11.168404 -0.000001 0.000002 -1.446950 -0.186812 0.081460
 19   0.000005 0.001585 -3.638375 -0.823080 1.160914 2.360860
 20   8.842831 0.000000 0.000001 1.353539 -0.584946 -0.076823
 21   9.341937 0.000000 -0.000001 0.000000 0.000000 -0.742602
 22   11.168404 -0.000001 0.000001 1.108274 0.330791 0.040854
 23   1.977383 0.000000 0.000000 -0.866519 0.041222 0.011429
 24   3.723980 2.768054 -0.049087 0.000001 -3.141591 -1.570794
 25   12.421014 0.304721 4.492689 -0.091859 -0.075839 1.616818
 26   19.916998 1.704573 4.956909 2.262592 1.451744 0.734330
time 1
  0   -0.001480 -0.281535 -2.578513 0.000000 1.596143 -1.570844
  1   -9.725540 0.000001 -0.770627 -1.570795 -1.570451 0.000000
  2   -0.000008 0.000010 5.615750 0.000001 3.141591 -0.259802
  3   15.693467 0.000000 0.000000 0.000000 0.000000 -0.226179
  4   22.146629 -0.000001 0.000000 0.000000 0.000000 -0.923308
  5   3.310129 5.734393 0.000000 0.000000 0.000000 1.570796
  6   0.000008 -0.000006 -5.615750 1.230386 2.617641 -0.278418
  7   15.693467 0.000000 0.000000 0.000000 0.000000 -1.357200
  8   22.146629 0.000000 0.000000 0.089183 -0.319281 -0.779100
  9   3.310129 5.734393 0.000000 0.000000 0.000000 1.570796
 10   1.384163 -0.004728 0.000002 -0.205865 -0.019697 0.009701
 11   5.939814 -0.004730 0.000000 0.000000 0.000000 0.000000
 12   5.939809 -0.003975 0.000000 0.000000 0.000000 0.000000
 13   4.991439 -0.003975 0.000000 0.000000 0.000000 0.000000
 14   4.991436 -0.001575 0.000000 0.000000 0.000000 0.000000
 15   0.000005 0.001564 3.638375 -0.000010 -1.283555 3.140806
 16   8.842831 0.000000 -0.000002 -1.626330 0.837737 -0.078831
 17   9.341934 0.000000 -0.000001 0.000000 0.000000 -1.870159
 18   11.168404 -0.000001 0.000002 -1.446950 -0.186812 0.081460
 19   0.000005 0.001585 -3.638375 -0.823080 1.160914 2.360860
 20   8.842831 0.000000 0.000001 1.353539 -0.584946 -0.076823
 21   9.341937 0.000000 -0.000001 0.000000 0.000000 -0.742602
 22   11.168404 -0.000001 0.000001 1.108274 0.330791 0.040854
 23   1.977383 0.000000 0.000000 -0.866519 0.041222 0.011429
 24   3.723980 2.768054 -0.049087 0.000001 -3.141591 -1.570794
 25   12.421014 0.304721 4.492689 -0.091859 -0.075839 1.616818
 26   19.916998 1.704573 4.956909 2.262592 1.451744 0.734330
end
