version 1
nodes
  0 "Bip01" -1
  1 "Bip01 Pelvis" 0
  2 "Bip01 L Thigh" 1
  3 "Bip01 L Calf" 2
  4 "Bip01 L Foot" 3
  5 "Bip01 L Toe0" 4
  6 "Bip01 R Thigh" 1
  7 "Bip01 R Calf" 6
  8 "Bip01 R Foot" 7
  9 "Bip01 R Toe0" 8
 10 "Bip01 Spine" 1
 11 "Bip01 Spine1" 10
 12 "Bip01 Spine2" 11
 13 "Bip01 Spine3" 12
 14 "Bip01 Neck" 13
 15 "Bip01 L Clavicle" 14
 16 "Bip01 L UpperArm" 15
 17 "Bip01 L Forearm" 16
 18 "Bip01 L Hand" 17
 19 "Bip01 R Clavicle" 14
 20 "Bip01 R UpperArm" 19
 21 "Bip01 R Forearm" 20
 22 "Bip01 R Hand" 21
 23 "Bip01 Head" 14
 24 "Bone05" 23
 25 "m4" 22
 26 "SHOTGUN" 22
end
skeleton
time 0
  0   -0.061767 -0.647824 26.767767 0.000000 0.000000 -2.033353
  1   -1.373723 -0.035156 9.745319 -1.570795 -1.570451 0.000000
  2   -0.000008 0.000010 5.615750 -0.187899 3.502484 -0.692566
  3   15.693467 0.000000 0.000000 0.000000 0.000000 -0.680247
  4   22.146629 -0.000001 0.000000 0.116515 -0.148174 -0.075079
  5   3.310129 5.734393 0.000000 0.000000 0.000000 1.570796
  6   0.000008 -0.000006 -5.615750 -0.038158 3.050032 0.030307
  7   15.693467 0.000000 0.000000 0.000000 0.000000 -0.630145
  8   22.146629 0.000000 0.000000 0.088055 0.048752 0.647401
  9   3.310129 5.734393 0.000000 0.000000 0.000000 1.570796
 10   1.384163 -0.004728 0.000002 -0.372579 -0.003463 0.086548
 11   5.939814 -0.004730 0.000000 0.000000 0.000000 0.000000
 12   5.939809 -0.003975 0.000000 0.000000 0.000000 0.000000
 13   4.991439 -0.003975 0.000000 0.000000 0.000000 0.000000
 14   4.991436 -0.001575 0.000000 0.000000 0.000000 0.000000
 15   0.000005 0.001564 3.638375 -0.000010 -1.284244 3.140806
 16   8.842831 0.000000 -0.000002 -0.414972 -0.110832 -0.914689
 17   9.341934 0.000000 -0.000001 0.000000 0.000000 -0.853073
 18   11.168404 -0.000001 0.000002 -4.515872 0.471532 -0.520821
 19   0.000005 0.001585 -3.638375 -0.000010 1.284244 3.140787
 20   8.842831 0.000000 0.000001 0.953960 -0.539089 -2.198116
 21   9.341937 0.000000 -0.000001 0.000000 0.000000 -0.994883
 22   11.168404 -0.000001 0.000001 1.806863 0.075089 0.649563
 23   1.977383 0.000000 0.000000 0.835700 0.294324 0.196082
 24   3.723980 2.768054 -0.049087 0.000001 -3.141591 -1.570794
 25   12.421014 0.304721 4.492689 -0.091859 -0.075839 1.616818
 26   19.916998 1.704573 4.956909 2.262592 1.451744 0.734330
time 1
  0   -0.061767 -0.640780 26.258080 0.000000 -0.049694 -2.033353
  1   -1.143247 -0.105471 9.745319 -1.570795 -1.570451 0.000000
  2   -0.000008 0.000010 5.615750 -0.178121 3.518871 -0.699447
  3   15.693467 0.000000 0.000000 0.000000 0.000000 -0.750602
  4   22.146629 -0.000001 0.000000 0.127845 -0.145945 -0.054818
  5   3.310129 5.734393 0.000000 0.000000 0.000000 1.570796
  6   0.000008 -0.000006 -5.615750 -0.039021 3.050703 0.017122
  7   15.693467 0.000000 0.000000 0.000000 0.000000 -0.734648
  8   22.146629 0.000000 0.000000 0.083204 0.050440 0.688973
  9   3.310129 5.734393 0.000000 0.000000 0.000000 1.570796
 10   1.384163 -0.004728 0.000002 -0.288869 -0.017819 0.039041
 11   5.939814 -0.004730 0.000000 0.000000 0.000000 0.031016
 12   5.939809 -0.003975 0.000000 0.000000 0.000000 0.028633
 13   4.991439 -0.003975 0.000000 0.000000 0.000000 0.000000
 14   4.991436 -0.001575 0.000000 0.000000 0.000000 0.000000
 15   0.000005 0.001564 3.638375 -0.000010 -1.284244 3.140806
 16   8.842831 0.000000 -0.000002 -0.444326 0.071589 -0.853700
 17   9.341934 0.000000 -0.000001 0.000000 0.000000 -0.911050
 18   11.168404 -0.000001 0.000002 -4.233754 0.477466 -0.416060
 19   0.000005 0.001585 -3.638375 -0.000010 1.284244 3.140787
 20   8.842831 0.000000 0.000001 0.896554 -0.628590 -1.953351
 21   9.341937 0.000000 -0.000001 0.000000 0.000000 -1.012870
 22   11.168404 -0.000001 0.000001 1.856363 0.076565 0.646461
 23   1.977383 0.000000 0.000000 0.763807 0.265873 0.208956
 24   3.723980 2.768054 -0.049087 0.000001 -3.141591 -1.570794
 25   12.421014 0.304721 4.492689 -0.091859 -0.075839 1.616818
 26   19.916998 1.704573 4.956909 2.262592 1.451744 0.734330
time 2
  0   -0.061767 -0.633736 25.571960 0.000000 -0.103594 -2.033353
  1   -0.901052 -0.179692 9.745319 -1.570795 -1.570451 0.000000
  2   -0.000008 0.000010 5.615750 -0.163932 3.538612 -0.715312
  3   15.693467 0.000000 0.000000 0.000000 0.000000 -0.835896
  4   22.146629 -0.000001 0.000000 0.140895 -0.143939 -0.027239
  5   3.310129 5.734393 0.000000 0.000000 0.000000 1.570796
  6   0.000008 -0.000006 -5.615750 -0.040267 3.050894 0.002394
  7   15.693467 0.000000 0.000000 0.000000 0.000000 -0.850390
  8   22.146629 0.000000 0.000000 0.078014 0.052589 0.736183
  9   3.310129 5.734393 0.000000 0.000000 0.000000 1.570796
 10   1.384163 -0.004728 0.000002 -0.200715 -0.028768 -0.012773
 11   5.939814 -0.004730 0.000000 0.000000 0.000000 0.063811
 12   5.939809 -0.003975 0.000000 0.000000 0.000000 0.058903
 13   4.991439 -0.003975 0.000000 0.000000 0.000000 0.000000
 14   4.991436 -0.001575 0.000000 0.000000 0.000000 0.000000
 15   0.000005 0.001564 3.638375 -0.000010 -1.284244 3.140806
 16   8.842831 0.000000 -0.000002 -0.444600 0.258196 -0.788829
 17   9.341934 0.000000 -0.000001 0.000000 0.000000 -0.980096
 18   11.168404 -0.000001 0.000002 -3.939507 0.455550 -0.309087
 19   0.000005 0.001585 -3.638375 -0.000010 1.284244 3.140787
 20   8.842831 0.000000 0.000001 0.829555 -0.707379 -1.687713
 21   9.341937 0.000000 -0.000001 0.000000 0.000000 -1.036186
 22   11.168404 -0.000001 0.000001 1.908380 0.078294 0.643358
 23   1.977383 0.000000 0.000000 0.691545 0.243149 0.232317
 24   3.723980 2.768054 -0.049087 0.000001 -3.141591 -1.570794
 25   12.421014 0.304721 4.492689 -0.091859 -0.075839 1.616818
 26   19.916998 1.704573 4.956909 2.262592 1.451744 0.734330
time 3
  0   -0.061767 -0.626692 24.866238 0.000000 -0.149274 -2.033353
  1   -0.686202 -0.246100 9.745319 -1.570795 -1.570451 0.000000
  2   -0.000008 0.000010 5.615750 -0.148689 3.556916 -0.735288
  3   15.693467 0.000000 0.000000 0.000000 0.000000 -0.914360
  4   22.146629 -0.000001 0.000000 0.152487 -0.142998 0.001850
  5   3.310129 5.734393 0.000000 0.000000 0.000000 1.570796
  6   0.000008 -0.000006 -5.615750 -0.041609 3.050607 -0.010300
  7   15.693467 0.000000 0.000000 0.000000 0.000000 -0.950576
  8   22.146629 0.000000 0.000000 0.073671 0.054677 0.778107
  9   3.310129 5.734393 0.000000 0.000000 0.000000 1.570796
 10   1.384163 -0.004728 0.000002 -0.119798 -0.034269 -0.058790
 11   5.939814 -0.004730 0.000000 0.000000 0.000000 0.093048
 12   5.939809 -0.003975 0.000000 0.000000 0.000000 0.085900
 13   4.991439 -0.003975 0.000000 0.000000 0.000000 0.000000
 14   4.991436 -0.001575 0.000000 0.000000 0.000000 0.000000
 15   0.000005 0.001564 3.638375 -0.000010 -1.284244 3.140806
 16   8.842831 0.000000 -0.000002 -0.412869 0.439407 -0.700294
 17   9.341934 0.000000 -0.000001 0.000000 0.000000 -1.053489
 18   11.168404 -0.000001 0.000002 -3.648793 0.406071 -0.213514
 19   0.000005 0.001585 -3.638375 -0.000010 1.284244 3.140787
 20   8.842831 0.000000 0.000001 0.753364 -0.779528 -1.416070
 21   9.341937 0.000000 -0.000001 0.000000 0.000000 -1.061568
 22   11.168404 -0.000001 0.000001 1.961329 0.080233 0.640256
 23   1.977383 0.000000 0.000000 0.626101 0.237353 0.250012
 24   3.723980 2.768054 -0.049087 0.000001 -3.141591 -1.570794
 25   12.421014 0.304721 4.492689 -0.091859 -0.075839 1.616818
 26   19.916998 1.704573 4.956909 2.262592 1.451744 0.734330
time 4
  0   -0.061767 -0.612604 24.317343 0.000000 -0.174503 -2.033353
  1   -0.561198 -0.289070 9.745319 -1.570795 -1.570451 0.000000
  2   -0.000008 0.000010 5.615750 -0.135747 3.569757 -0.757843
  3   15.693467 0.000000 0.000000 0.000000 0.000000 -0.971412
  4   22.146629 -0.000001 0.000000 0.159442 -0.143964 0.029932
  5   3.310129 5.734393 0.000000 0.000000 0.000000 1.570796
  6   0.000008 -0.000006 -5.615750 -0.042952 3.050319 -0.022994
  7   15.693467 0.000000 0.000000 0.000000 0.000000 -1.018161
  8   22.146629 0.000000 0.000000 0.071245 0.056120 0.807789
  9   3.310129 5.734393 0.000000 0.000000 0.000000 1.570796
 10   1.384163 -0.004728 0.000002 -0.058100 -0.034859 -0.088615
 11   5.939814 -0.004730 0.000000 0.000000 0.000000 0.113433
 12   5.939809 -0.003975 0.000000 0.000000 0.000000 0.104714
 13   4.991439 -0.003975 0.000000 0.000000 0.000000 0.000000
 14   4.991436 -0.001575 0.000000 0.000000 0.000000 0.000000
 15   0.000005 0.001564 3.638375 -0.000010 -1.284244 3.140806
 16   8.842831 0.000000 -0.000002 -0.346572 0.607316 -0.569731
 17   9.341934 0.000000 -0.000001 0.000000 0.000000 -1.124750
 18   11.168404 -0.000001 0.000002 -3.373550 0.334963 -0.139611
 19   0.000005 0.001585 -3.638375 -0.000010 1.284244 3.140787
 20   8.842831 0.000000 0.000001 0.657984 -0.847428 -1.144999
 21   9.341937 0.000000 -0.000001 0.000000 0.000000 -1.085883
 22   11.168404 -0.000001 0.000001 2.013905 0.082341 0.637248
 23   1.977383 0.000000 0.000000 0.572446 0.251417 0.242010
 24   3.723980 2.768054 -0.049087 0.000001 -3.141591 -1.570794
 25   12.421014 0.304721 4.492689 -0.091859 -0.075839 1.616818
 26   19.916998 1.704573 4.956909 2.262592 1.451744 0.734330
time 5
  0   -0.061767 -0.605560 23.984085 0.000000 -0.168196 -2.033353
  1   -0.529947 -0.308602 9.745319 -1.570795 -1.570451 0.000000
  2   -0.000008 0.000010 5.615750 -0.125106 3.575985 -0.788236
  3   15.693467 0.000000 0.000000 0.000000 0.000000 -1.005558
  4   22.146629 -0.000001 0.000000 0.159292 -0.148843 0.059706
  5   3.310129 5.734393 0.000000 0.000000 0.000000 1.570796
  6   0.000008 -0.000006 -5.615750 -0.044294 3.050894 -0.040177
  7   15.693467 0.000000 0.000000 0.000000 0.000000 -1.045849
  8   22.146629 0.000000 0.000000 0.071640 0.056058 0.824700
  9   3.310129 5.734393 0.000000 0.000000 0.000000 1.570796
 10   1.384163 -0.004728 0.000002 -0.022758 -0.034027 -0.098751
 11   5.939814 -0.004730 0.000000 0.000000 0.000000 0.121407
 12   5.939809 -0.003975 0.000000 0.000000 0.000000 0.112073
 13   4.991439 -0.003975 0.000000 0.000000 0.000000 0.000000
 14   4.991436 -0.001575 0.000000 0.000000 0.000000 0.000000
 15   0.000005 0.001564 3.638375 -0.000010 -1.284244 3.140806
 16   8.842831 0.000000 -0.000002 -0.236474 0.756062 -0.380567
 17   9.341934 0.000000 -0.000001 0.000000 0.000000 -1.187155
 18   11.168404 -0.000001 0.000002 -3.120656 0.251701 -0.091407
 19   0.000005 0.001585 -3.638375 -0.000010 1.284244 3.140787
 20   8.842831 0.000000 0.000001 0.528177 -0.908601 -0.870687
 21   9.341937 0.000000 -0.000001 0.000000 0.000000 -1.106002
 22   11.168404 -0.000001 0.000001 2.064336 0.084449 0.634521
 23   1.977383 0.000000 0.000000 0.529204 0.287257 0.190764
 24   3.723980 2.768054 -0.049087 0.000001 -3.141591 -1.570794
 25   12.421014 0.304721 4.492689 -0.091859 -0.075839 1.616818
 26   19.916998 1.704573 4.956909 2.262592 1.451744 0.734330
time 6
  0   -0.061767 -0.598516 23.788052 0.000000 -0.139622 -2.033353
  1   -0.561198 -0.316415 9.745319 -1.570795 -1.570451 0.000000
  2   -0.000008 0.000010 5.615750 -0.114944 3.577710 -0.827231
  3   15.693467 0.000000 0.000000 0.000000 0.000000 -1.028037
  4   22.146629 -0.000001 0.000000 0.153646 -0.156372 0.091676
  5   3.310129 5.734393 0.000000 0.000000 0.000000 1.570796
  6   0.000008 -0.000006 -5.615750 -0.045828 3.052237 -0.063110
  7   15.693467 0.000000 0.000000 0.000000 0.000000 -1.050166
  8   22.146629 0.000000 0.000000 0.073953 0.054984 0.834741
  9   3.310129 5.734393 0.000000 0.000000 0.000000 1.570796
 10   1.384163 -0.004728 0.000002 -0.006298 -0.033061 -0.094606
 11   5.939814 -0.004730 0.000000 0.000000 0.000000 0.120527
 12   5.939809 -0.003975 0.000000 0.000000 0.000000 0.111261
 13   4.991439 -0.003975 0.000000 0.000000 0.000000 0.000000
 14   4.991436 -0.001575 0.000000 0.000000 0.000000 0.000000
 15   0.000005 0.001564 3.638375 -0.000010 -1.284244 3.140806
 16   8.842831 0.000000 -0.000002 -0.072424 0.874947 -0.131384
 17   9.341934 0.000000 -0.000001 0.000000 0.000000 -1.234224
 18   11.168404 -0.000001 0.000002 -2.893166 0.166047 -0.067624
 19   0.000005 0.001585 -3.638375 -0.000010 1.284244 3.140787
 20   8.842831 0.000000 0.000001 0.363540 -0.950120 -0.587988
 21   9.341937 0.000000 -0.000001 0.000000 0.000000 -1.118726
 22   11.168404 -0.000001 0.000001 2.111412 0.086557 0.632077
 23   1.977383 0.000000 0.000000 0.488923 0.333837 0.105719
 24   3.723980 2.768054 -0.049087 0.000001 -3.141591 -1.570794
 25   12.421014 0.304721 4.492689 -0.091859 -0.075839 1.616818
 26   19.916998 1.704573 4.956909 2.262592 1.451744 0.734330
time 7
  0   -0.061767 -0.591472 23.650827 0.000000 -0.106556 -2.033353
  1   -0.678389 -0.292977 9.745319 -1.570795 -1.570451 0.000000
  2   -0.000008 0.000010 5.615750 -0.105932 3.576752 -0.866990
  3   15.693467 0.000000 0.000000 0.000000 0.000000 -1.044612
  4   22.146629 -0.000001 0.000000 0.145943 -0.162638 0.120581
  5   3.310129 5.734393 0.000000 0.000000 0.000000 1.570796
  6   0.000008 -0.000006 -5.615750 -0.048225 3.053100 -0.089550
  7   15.693467 0.000000 0.000000 0.000000 0.000000 -1.050464
  8   22.146629 0.000000 0.000000 0.077112 0.054401 0.841699
  9   3.310129 5.734393 0.000000 0.000000 0.000000 1.570796
 10   1.384163 -0.004728 0.000002 0.001410 -0.029895 -0.079353
 11   5.939814 -0.004730 0.000000 0.000000 0.000000 0.116091
 12   5.939809 -0.003975 0.000000 0.000000 0.000000 0.107163
 13   4.991439 -0.003975 0.000000 0.000000 0.000000 0.000000
 14   4.991436 -0.001575 0.000000 0.000000 0.000000 0.000000
 15   0.000005 0.001564 3.638375 -0.000010 -1.284244 3.140806
 16   8.842831 0.000000 -0.000002 0.137440 0.954389 0.157587
 17   9.341934 0.000000 -0.000001 0.000000 0.000000 -1.259317
 18   11.168404 -0.000001 0.000002 -2.693754 0.086995 -0.063448
 19   0.000005 0.001585 -3.638375 -0.000010 1.284244 3.140787
 20   8.842831 0.000000 0.000001 0.192695 -0.960743 -0.316440
 21   9.341937 0.000000 -0.000001 0.000000 0.000000 -1.120857
 22   11.168404 -0.000001 0.000001 2.153455 0.088581 0.629915
 23   1.977383 0.000000 0.000000 0.449488 0.374365 0.009143
 24   3.723980 2.768054 -0.049087 0.000001 -3.141591 -1.570794
 25   12.421014 0.304721 4.492689 -0.091859 -0.075839 1.616818
 26   19.916998 1.704573 4.956909 2.262592 1.451744 0.734330
time 8
  0   -0.061767 -0.584428 23.494001 0.000000 -0.087252 -2.033353
  1   -0.885427 -0.226568 9.745319 -1.570795 -1.570451 0.000000
  2   -0.000008 0.000010 5.615750 -0.099030 3.575315 -0.899581
  3   15.693467 0.000000 0.000000 0.000000 0.000000 -1.060903
  4   22.146629 -0.000001 0.000000 0.140634 -0.163925 0.140660
  5   3.310129 5.734393 0.000000 0.000000 0.000000 1.570796
  6   0.000008 -0.000006 -5.615750 -0.051964 3.052716 -0.117183
  7   15.693467 0.000000 0.000000 0.000000 0.000000 -1.066021
  8   22.146629 0.000000 0.000000 0.079876 0.055843 0.849098
  9   3.310129 5.734393 0.000000 0.000000 0.000000 1.570796
 10   1.384163 -0.004728 0.000002 0.010767 -0.022193 -0.056102
 11   5.939814 -0.004730 0.000000 0.000000 0.000000 0.113433
 12   5.939809 -0.003975 0.000000 0.000000 0.000000 0.104714
 13   4.991439 -0.003975 0.000000 0.000000 0.000000 0.000000
 14   4.991436 -0.001575 0.000000 0.000000 0.000000 0.000000
 15   0.000005 0.001564 3.638375 -0.000010 -1.284244 3.140806
 16   8.842831 0.000000 -0.000002 0.362118 0.993646 0.441705
 17   9.341934 0.000000 -0.000001 0.000000 0.000000 -1.255873
 18   11.168404 -0.000001 0.000002 -2.525953 0.020386 -0.072243
 19   0.000005 0.001585 -3.638375 -0.000010 1.284244 3.140787
 20   8.842831 0.000000 0.000001 0.058131 -0.944720 -0.087879
 21   9.341937 0.000000 -0.000001 0.000000 0.000000 -1.109333
 22   11.168404 -0.000001 0.000001 2.189065 0.090309 0.628223
 23   1.977383 0.000000 0.000000 0.414705 0.394341 -0.073864
 24   3.723980 2.768054 -0.049087 0.000001 -3.141591 -1.570794
 25   12.421014 0.304721 4.492689 -0.091859 -0.075839 1.616818
 26   19.916998 1.704573 4.956909 2.262592 1.451744 0.734330
time 9
  0   -0.061767 -0.549208 23.376381 0.008298 -0.095279 -2.031435
  1   -1.244813 -0.078126 9.745319 -1.570795 -1.570451 0.000000
  2   -0.000008 0.000010 5.615750 -0.107083 3.567169 -0.902066
  3   15.693467 0.000000 0.000000 0.000000 0.000000 -1.057559
  4   22.146629 -0.000001 0.000000 0.141344 -0.157759 0.137001
  5   3.310129 5.734393 0.000000 0.000000 0.000000 1.570796
  6   0.000008 -0.000006 -5.615750 -0.059730 3.047060 -0.143482
  7   15.693467 0.000000 0.000000 0.000000 0.000000 -1.105693
  8   22.146629 0.000000 0.000000 0.085122 0.061983 0.858610
  9   3.310129 5.734393 0.000000 0.000000 0.000000 1.570796
 10   1.384163 -0.004728 0.000002 0.024197 -0.006092 -0.018602
 11   5.939814 -0.004730 0.000000 0.000000 0.000000 0.111941
 12   5.939809 -0.003975 0.000000 0.000000 0.000000 0.104714
 13   4.991439 -0.003975 0.000000 0.000000 0.000000 0.000000
 14   4.991436 -0.001575 0.000000 0.000000 0.000000 0.000000
 15   0.000005 0.001564 3.638375 -0.000010 -1.284244 3.140806
 16   8.842831 0.000000 -0.000002 0.531198 1.003227 0.620941
 17   9.341934 0.000000 -0.000001 0.000000 0.000000 -1.160504
 18   11.168404 -0.000001 0.000002 -2.447736 -0.010526 -0.081235
 19   0.000005 0.001585 -3.638375 -0.000010 1.284244 3.140787
 20   8.842831 0.000000 0.000001 -0.004999 -0.917719 0.053090
 21   9.341937 0.000000 -0.000001 0.000000 0.000000 -1.060901
 22   11.168404 -0.000001 0.000001 2.211903 0.093134 0.630573
 23   1.977383 0.000000 0.000000 0.387216 0.390646 -0.136144
 24   3.723980 2.768054 -0.049087 0.000001 -3.141591 -1.570794
 25   12.421014 0.304721 4.492689 -0.091859 -0.075839 1.616818
 26   19.916998 1.704573 4.956909 2.262592 1.451744 0.734330
time 10
  0   -0.069303 -0.492856 23.337173 0.022097 -0.118120 -2.028559
  1   -1.733109 0.121098 9.745319 -1.570795 -1.570451 0.000000
  2   -0.000008 0.000010 5.615750 -0.125585 3.553274 -0.884480
  3   15.693467 0.000000 0.000000 0.000000 0.000000 -1.037072
  4   22.146629 -0.000001 0.000000 0.145195 -0.146614 0.114681
  5   3.310129 5.734393 0.000000 0.000000 0.000000 1.570796
  6   0.000008 -0.000006 -5.615750 -0.070660 3.038143 -0.169221
  7   15.693467 0.000000 0.000000 0.000000 0.000000 -1.155712
  8   22.146629 0.000000 0.000000 0.092060 0.071439 0.866889
  9   3.310129 5.734393 0.000000 0.000000 0.000000 1.570796
 10   1.384163 -0.004728 0.000002 0.037190 0.015697 0.032500
 11   5.939814 -0.004730 0.000000 0.000000 0.000000 0.109474
 12   5.939809 -0.003975 0.000000 0.000000 0.000000 0.104714
 13   4.991439 -0.003975 0.000000 0.000000 0.000000 0.000000
 14   4.991436 -0.001575 0.000000 0.000000 0.000000 0.000000
 15   0.000005 0.001564 3.638375 -0.000010 -1.284244 3.140806
 16   8.842831 0.000000 -0.000002 0.619532 1.006111 0.672151
 17   9.341934 0.000000 -0.000001 0.000000 0.000000 -0.968124
 18   11.168404 -0.000001 0.000002 -2.467887 -0.003827 -0.080941
 19   0.000005 0.001585 -3.638375 -0.000010 1.284244 3.140787
 20   8.842831 0.000000 0.000001 -0.007579 -0.895853 0.105988
 21   9.341937 0.000000 -0.000001 0.000000 0.000000 -0.970634
 22   11.168404 -0.000001 0.000001 2.218149 0.096170 0.636025
 23   1.977383 0.000000 0.000000 0.367974 0.373280 -0.188582
 24   3.723980 2.768054 -0.049087 0.000001 -3.141591 -1.570794
 25   12.421014 0.304721 4.492689 -0.091859 -0.075839 1.616818
 26   19.916998 1.704573 4.956909 2.262592 1.451744 0.734330
time 11
  0   -0.069303 -0.485812 23.180346 0.024801 -0.134270 -2.028175
  1   -2.233124 0.308604 9.745319 -1.570795 -1.570451 0.000000
  2   -0.000008 0.000010 5.615750 -0.129899 3.547620 -0.890310
  3   15.693467 0.000000 0.000000 0.000000 0.000000 -1.039633
  4   22.146629 -0.000001 0.000000 0.147102 -0.134008 0.097896
  5   3.310129 5.734393 0.000000 0.000000 0.000000 1.570796
  6   0.000008 -0.000006 -5.615750 -0.079481 3.033637 -0.198747
  7   15.693467 0.000000 0.000000 0.000000 0.000000 -1.203274
  8   22.146629 0.000000 0.000000 0.094486 0.079544 0.870765
  9   3.310129 5.734393 0.000000 0.000000 0.000000 1.570796
 10   1.384163 -0.004728 0.000002 0.048735 0.035930 0.084119
 11   5.939814 -0.004730 0.000000 0.000000 0.000000 0.108977
 12   5.939809 -0.003975 0.000000 0.000000 0.000000 0.104714
 13   4.991439 -0.003975 0.000000 0.000000 0.000000 0.000000
 14   4.991436 -0.001575 0.000000 0.000000 0.000000 0.000000
 15   0.000005 0.001564 3.638375 -0.000010 -1.284244 3.140806
 16   8.842831 0.000000 -0.000002 0.664340 1.011599 0.666850
 17   9.341934 0.000000 -0.000001 0.000000 0.000000 -0.759098
 18   11.168404 -0.000001 0.000002 -2.517071 0.015026 -0.076469
 19   0.000005 0.001585 -3.638375 -0.000010 1.284244 3.140787
 20   8.842831 0.000000 0.000001 0.020559 -0.884875 0.107418
 21   9.341937 0.000000 -0.000001 0.000000 0.000000 -0.862714
 22   11.168404 -0.000001 0.000001 2.209852 0.096338 0.637530
 23   1.977383 0.000000 0.000000 0.359728 0.348201 -0.232024
 24   3.723980 2.768054 -0.049087 0.000001 -3.141591 -1.570794
 25   12.421014 0.304721 4.492689 -0.091859 -0.075839 1.616818
 26   19.916998 1.704573 4.956909 2.262592 1.451744 0.734330
time 12
  0   -0.061767 -0.584428 22.709866 0.000000 -0.122133 -2.033353
  1   -2.627668 0.414076 9.745319 -1.570795 -1.570451 0.000000
  2   -0.000008 0.000010 5.615750 -0.094237 3.562474 -0.964955
  3   15.693467 0.000000 0.000000 0.000000 0.000000 -1.106644
  4   22.146629 -0.000001 0.000000 0.142279 -0.123062 0.110154
  5   3.310129 5.734393 0.000000 0.000000 0.000000 1.570796
  6   0.000008 -0.000006 -5.615750 -0.081015 3.040828 -0.237531
  7   15.693467 0.000000 0.000000 0.000000 0.000000 -1.238704
  8   22.146629 0.000000 0.000000 0.087152 0.081110 0.868827
  9   3.310129 5.734393 0.000000 0.000000 0.000000 1.570796
 10   1.384163 -0.004728 0.000002 0.056746 0.047711 0.122720
 11   5.939814 -0.004730 0.000000 0.000000 0.000000 0.113433
 12   5.939809 -0.003975 0.000000 0.000000 0.000000 0.104714
 13   4.991439 -0.003975 0.000000 0.000000 0.000000 0.000000
 14   4.991436 -0.001575 0.000000 0.000000 0.000000 0.000000
 15   0.000005 0.001564 3.638375 -0.000010 -1.284244 3.140806
 16   8.842831 0.000000 -0.000002 0.711434 1.017832 0.683348
 17   9.341934 0.000000 -0.000001 0.000000 0.000000 -0.613870
 18   11.168404 -0.000001 0.000002 -2.525953 0.020386 -0.072243
 19   0.000005 0.001585 -3.638375 -0.000010 1.284244 3.140787
 20   8.842831 0.000000 0.000001 0.055793 -0.887266 0.088070
 21   9.341937 0.000000 -0.000001 0.000000 0.000000 -0.761321
 22   11.168404 -0.000001 0.000001 2.189065 0.090309 0.628223
 23   1.977383 0.000000 0.000000 0.364538 0.320812 -0.267961
 24   3.723980 2.768054 -0.049087 0.000001 -3.141591 -1.570794
 25   12.421014 0.304721 4.492689 -0.091859 -0.075839 1.616818
 26   19.916998 1.704573 4.956909 2.262592 1.451744 0.734330
time 13
  0   -0.024087 -0.781661 21.906126 -0.050814 -0.078555 -2.048310
  1   -2.936271 0.437514 9.745319 -1.570795 -1.570451 0.000000
  2   -0.000008 0.000010 5.615750 -0.016584 3.588060 -1.105928
  3   15.693467 0.000000 0.000000 0.000000 0.000000 -1.226297
  4   22.146629 -0.000001 0.000000 0.127920 -0.114864 0.146285
  5   3.310129 5.734393 0.000000 0.000000 0.000000 1.570796
  6   0.000008 -0.000006 -5.615750 -0.081590 3.050128 -0.281083
  7   15.693467 0.000000 0.000000 0.000000 0.000000 -1.262150
  8   22.146629 0.000000 0.000000 0.073163 0.089153 0.872174
  9   3.310129 5.734393 0.000000 0.000000 0.000000 1.570796
 10   1.384163 -0.004728 0.000002 0.060953 0.051226 0.149016
 11   5.939814 -0.004730 0.000000 0.000000 -0.000431 0.123606
 12   5.939809 -0.003975 0.000000 0.000000 -0.000384 0.104714
 13   4.991439 -0.003975 0.000000 0.000000 -0.000336 0.000000
 14   4.991436 -0.001575 0.000000 0.000000 0.000000 0.000000
 15   0.000005 0.001564 3.638375 -0.000010 -1.284244 3.140806
 16   8.842831 0.000000 -0.000002 0.775902 1.023506 0.739784
 17   9.341934 0.000000 -0.000001 0.000000 0.000000 -0.532441
 18   11.168404 -0.000001 0.000002 -2.486988 0.008901 -0.068754
 19   0.000005 0.001585 -3.638375 -0.000010 1.284244 3.140787
 20   8.842831 0.000000 0.000001 0.094493 -0.899128 0.057188
 21   9.341937 0.000000 -0.000001 0.000000 0.000000 -0.657797
 22   11.168404 -0.000001 0.000001 2.159234 0.078294 0.609139
 23   1.977383 0.000000 0.000000 0.377490 0.295871 -0.302158
 24   3.723980 2.768054 -0.049087 0.000001 -3.141591 -1.570794
 25   12.421014 0.304721 4.492689 -0.091859 -0.075839 1.616818
 26   19.916998 1.704573 4.956909 2.262592 1.451744 0.734330
time 14
  0   0.028664 -1.021157 21.004370 -0.113656 -0.020069 -2.073046
  1   -3.233155 0.425795 9.745319 -1.570795 -1.570451 0.000000
  2   -0.000008 0.000010 5.615750 0.082735 3.604926 -1.273758
  3   15.693467 0.000000 0.000000 0.000000 0.000000 -1.357972
  4   22.146629 -0.000001 0.000000 0.107205 -0.107633 0.182692
  5   3.310129 5.734393 0.000000 0.000000 0.000000 1.570796
  6   0.000008 -0.000006 -5.615750 -0.080439 3.060098 -0.324636
  7   15.693467 0.000000 0.000000 0.000000 0.000000 -1.270040
  8   22.146629 0.000000 0.000000 0.055450 0.102968 0.872174
  9   3.310129 5.734393 0.000000 0.000000 0.000000 1.570796
 10   1.384163 -0.004728 0.000002 0.063276 0.051763 0.172753
 11   5.939814 -0.004730 0.000000 0.000036 -0.001450 0.137221
 12   5.939809 -0.003975 0.000000 0.000000 -0.001294 0.104714
 13   4.991439 -0.003975 0.000000 0.000000 -0.001127 0.000000
 14   4.991436 -0.001575 0.000000 0.000000 0.000000 0.000000
 15   0.000005 0.001564 3.638375 -0.000010 -1.284244 3.140806
 16   8.842831 0.000000 -0.000002 0.838906 1.029739 0.799131
 17   9.341934 0.000000 -0.000001 0.000000 0.000000 -0.461754
 18   11.168404 -0.000001 0.000002 -2.439904 -0.005167 -0.065216
 19   0.000005 0.001585 -3.638375 -0.000010 1.284244 3.140787
 20   8.842831 0.000000 0.000001 0.145126 -0.913204 0.007625
 21   9.341937 0.000000 -0.000001 0.000000 0.000000 -0.536220
 22   11.168404 -0.000001 0.000001 2.123624 0.063074 0.586577
 23   1.977383 0.000000 0.000000 0.392080 0.273448 -0.337995
 24   3.723980 2.768054 -0.049087 0.000001 -3.141591 -1.570794
 25   12.421014 0.304721 4.492689 -0.091859 -0.075839 1.616818
 26   19.916998 1.704573 4.956909 2.262592 1.451744 0.734330
time 15
  0   0.096488 -1.281786 20.083010 -0.186754 0.045298 -2.105644
  1   -3.514413 0.394544 9.745319 -1.570795 -1.570790 0.000000
  2   -0.000008 0.000010 5.615750 0.196433 3.605788 -1.455637
  3   15.693467 0.000000 0.000000 0.000000 0.000000 -1.493773
  4   22.146629 -0.000001 0.000000 0.084694 -0.100153 0.212100
  5   3.310129 5.734393 0.000000 0.000000 0.000000 1.570796
  6   0.000008 -0.000006 -5.615750 -0.076700 3.070453 -0.359211
  7   15.693467 0.000000 0.000000 0.000000 0.000000 -1.261852
  8   22.146629 0.000000 0.000000 0.038358 0.120037 0.868034
  9   3.310129 5.734393 0.000000 0.000000 0.000000 1.570796
 10   1.384163 -0.004728 0.000002 0.064083 0.050179 0.193673
 11   5.939814 -0.004730 0.000000 0.000053 -0.002613 0.152633
 12   5.939809 -0.003975 0.000000 0.000000 -0.002325 0.104714
 13   4.991439 -0.003975 0.000000 0.000000 -0.002037 0.000000
 14   4.991436 -0.001575 0.000000 0.000000 0.000000 0.000000
 15   0.000005 0.001564 3.638375 -0.000010 -1.284244 3.140806
 16   8.842831 0.000000 -0.000002 0.900631 1.035786 0.859896
 17   9.341934 0.000000 -0.000001 0.000000 0.000000 -0.402712
 18   11.168404 -0.000001 0.000002 -2.386613 -0.021245 -0.061973
 19   0.000005 0.001585 -3.638375 -0.000010 1.284244 3.140787
 20   8.842831 0.000000 0.000001 0.204788 -0.927899 -0.056997
 21   9.341937 0.000000 -0.000001 0.000000 0.000000 -0.409713
 22   11.168404 -0.000001 0.000001 2.083726 0.044861 0.561758
 23   1.977383 0.000000 0.000000 0.407991 0.251855 -0.373732
 24   3.723980 2.768054 -0.049087 0.000001 -3.141591 -1.570794
 25   12.421014 0.304721 4.492689 -0.091859 -0.075839 1.616818
 26   19.916998 1.704573 4.956909 2.262592 1.451744 0.734330
time 16
  0   0.164311 -1.570590 19.161650 -0.267684 0.109996 -2.143228
  1   -3.760515 0.351574 9.745319 -1.570795 -1.570451 0.000000
  2   -0.000008 0.000010 5.615750 -2.801148 5.857395 1.479092
  3   15.693467 0.000000 0.000000 0.000000 0.000000 -1.713302
  4   22.146629 -0.000001 0.000000 0.051564 -0.091881 0.220058
  5   3.310129 5.734393 0.000000 0.000000 0.000000 1.553510
  6   0.000008 -0.000006 -5.615750 -0.070277 3.080999 -0.379900
  7   15.693467 0.000000 0.000000 0.000000 0.000000 -1.240788
  8   22.146629 0.000000 0.000000 0.024877 0.137721 0.860372
  9   3.310129 5.734393 0.000000 0.000000 0.000000 1.570796
 10   1.384163 -0.004728 0.000002 0.063881 0.047415 0.211549
 11   5.939814 -0.004730 0.000000 0.000053 -0.003488 0.168294
 12   5.939809 -0.003975 0.000000 0.000000 -0.003104 0.104714
 13   4.991439 -0.003975 0.000000 0.000000 -0.002709 0.000000
 14   4.991436 -0.001575 0.000000 0.000000 0.000000 0.000000
 15   0.000005 0.001564 3.638375 -0.000010 -1.284244 3.140806
 16   8.842831 0.000000 -0.000002 0.960801 1.040716 0.920213
 17   9.341934 0.000000 -0.000001 0.000000 0.000000 -0.356544
 18   11.168404 -0.000001 0.000002 -2.329024 -0.038855 -0.059418
 19   0.000005 0.001585 -3.638375 -0.000010 1.284244 3.140787
 20   8.842831 0.000000 0.000001 0.269934 -0.942152 -0.132867
 21   9.341937 0.000000 -0.000001 0.000000 0.000000 -0.291533
 22   11.168404 -0.000001 0.000001 2.041125 0.024033 0.535812
 23   1.977383 0.000000 0.000000 0.425066 0.229432 -0.407383
 24   3.723980 2.768054 -0.049087 0.000001 -3.141591 -1.570794
 25   12.421014 0.304721 4.492689 -0.091859 -0.075839 1.616818
 26   19.916998 1.704573 4.956909 2.262592 1.451744 0.734330
time 17
  0   0.232135 -1.859395 18.299101 -0.353182 0.167049 -2.181386
  1   -3.971459 0.316417 9.745319 -1.570795 -1.570790 0.000000
  2   -0.000008 0.000010 5.615750 -2.664537 5.930992 1.302756
  3   15.693467 0.000000 0.000000 0.000000 0.000000 -1.981845
  4   22.146629 -0.000001 0.000000 0.020304 -0.092451 0.176060
  5   3.310129 5.734393 0.000000 0.000000 0.000000 1.524685
  6   0.000008 -0.000006 -5.615750 -0.062031 3.091641 -0.386563
  7   15.693467 0.000000 0.000000 0.000000 0.000000 -1.212652
  8   22.146629 0.000000 0.000000 0.015851 0.153961 0.850507
  9   3.310129 5.734393 0.000000 0.000000 0.000000 1.570796
 10   1.384163 -0.004728 0.000002 0.063141 0.044329 0.226154
 11   5.939814 -0.004730 0.000000 0.000018 -0.003643 0.182598
 12   5.939809 -0.003975 0.000000 0.000000 -0.003236 0.104714
 13   4.991439 -0.003975 0.000000 0.000000 -0.002828 0.000000
 14   4.991436 -0.001575 0.000000 0.000000 0.000000 0.000000
 15   0.000005 0.001564 3.638375 -0.000010 -1.284244 3.140806
 16   8.842831 0.000000 -0.000002 1.018137 1.043693 0.977769
 17   9.341934 0.000000 -0.000001 0.000000 0.000000 -0.324235
 18   11.168404 -0.000001 0.000002 -2.269048 -0.057230 -0.057846
 19   0.000005 0.001585 -3.638375 -0.000010 1.284244 3.140787
 20   8.842831 0.000000 0.000001 0.336611 -0.955520 -0.215503
 21   9.341937 0.000000 -0.000001 0.000000 0.000000 -0.194870
 22   11.168404 -0.000001 0.000001 1.997311 0.001225 0.509677
 23   1.977383 0.000000 0.000000 0.443462 0.204560 -0.437156
 24   3.723980 2.768054 -0.049087 0.000001 -3.141591 -1.570794
 25   12.421014 0.304721 4.492689 -0.091859 -0.075839 1.616818
 26   19.916998 1.704573 4.956909 2.262592 1.451744 0.734330
time 18
  0   0.284887 -2.141155 17.514965 -0.438494 0.210723 -2.213984
  1   -4.131620 0.296885 9.745319 -1.570795 -1.570790 0.000000
  2   -0.000008 0.000010 5.615750 -2.557741 5.995964 1.177743
  3   15.693467 0.000000 0.000000 0.000000 0.000000 -2.249748
  4   22.146629 -0.000001 0.000000 0.026997 -0.102159 0.125933
  5   3.310129 5.734393 0.000000 0.000000 0.000000 1.518915
  6   0.000008 -0.000006 -5.615750 -0.052827 3.102666 -0.382846
  7   15.693467 0.000000 0.000000 0.000000 0.000000 -1.184219
  8   22.146629 0.000000 0.000000 0.010774 0.167592 0.840114
  9   3.310129 5.734393 0.000000 0.000000 0.000000 1.570796
 10   1.384163 -0.004728 0.000002 0.062367 0.041727 0.237326
 11   5.939814 -0.004730 0.000000 0.000000 -0.002613 0.193918
 12   5.939809 -0.003975 0.000000 0.000000 -0.002325 0.104714
 13   4.991439 -0.003975 0.000000 0.000000 -0.002037 0.000000
 14   4.991436 -0.001575 0.000000 0.000000 0.000000 0.000000
 15   0.000005 0.001564 3.638375 -0.000010 -1.284244 3.140806
 16   8.842831 0.000000 -0.000002 1.070900 1.043879 1.029725
 17   9.341934 0.000000 -0.000001 0.000000 0.000000 -0.306768
 18   11.168404 -0.000001 0.000002 -2.208403 -0.075988 -0.057404
 19   0.000005 0.001585 -3.638375 -0.000010 1.284244 3.140787
 20   8.842831 0.000000 0.000001 0.400144 -0.968622 -0.300142
 21   9.341937 0.000000 -0.000001 0.000000 0.000000 -0.132783
 22   11.168404 -0.000001 0.000001 1.953778 -0.022933 0.484295
 23   1.977383 0.000000 0.000000 0.463285 0.175671 -0.461113
 24   3.723980 2.768054 -0.049087 0.000001 -3.141591 -1.570794
 25   12.421014 0.304721 4.492689 -0.091859 -0.075839 1.616818
 26   19.916998 1.704573 4.956909 2.262592 1.451744 0.734330
time 19
  0   0.322567 -2.415872 16.770037 -0.517746 0.236526 -2.233543
  1   -4.233185 0.304698 9.745319 -1.570795 -1.570451 0.000000
  2   -0.000008 0.000010 5.615750 -2.520928 5.941246 1.226009
  3   15.693467 0.000000 0.000000 0.000000 0.000000 -2.452987
  4   22.146629 -0.000001 0.000000 0.079871 -0.109837 0.223443
  5   3.310129 5.734393 0.000000 0.000000 0.000000 1.570796
  6   0.000008 -0.000006 -5.615750 -0.043335 3.114171 -0.373799
  7   15.693467 0.000000 0.000000 0.000000 0.000000 -1.160326
  8   22.146629 0.000000 0.000000 0.008067 0.177999 0.830690
  9   3.310129 5.734393 0.000000 0.000000 0.000000 1.570796
 10   1.384163 -0.004728 0.000002 0.062131 0.040439 0.244774
 11   5.939814 -0.004730 0.000000 0.000000 0.000000 0.200706
 12   5.939809 -0.003975 0.000000 0.000000 0.000000 0.104714
 13   4.991439 -0.003975 0.000000 0.000000 0.000000 0.000000
 14   4.991436 -0.001575 0.000000 0.000000 0.000000 0.000000
 15   0.000005 0.001564 3.638375 -0.000010 -1.284244 3.140806
 16   8.842831 0.000000 -0.000002 1.117079 1.040530 1.072798
 17   9.341934 0.000000 -0.000001 0.000000 0.000000 -0.305292
 18   11.168404 -0.000001 0.000002 -2.148999 -0.094171 -0.058042
 19   0.000005 0.001585 -3.638375 -0.000010 1.284244 3.140787
 20   8.842831 0.000000 0.000001 0.456178 -0.982786 -0.382016
 21   9.341937 0.000000 -0.000001 0.000000 0.000000 -0.118526
 22   11.168404 -0.000001 0.000001 1.911736 -0.047597 0.460605
 23   1.977383 0.000000 0.000000 0.484800 0.141146 -0.477267
 24   3.723980 2.768054 -0.049087 0.000001 -3.141591 -1.570794
 25   12.421014 0.304721 4.492689 -0.091859 -0.075839 1.616818
 26   19.916998 1.704573 4.956909 2.262592 1.451744 0.734330
time 20
  0   0.330103 -2.662413 15.691850 -0.591590 0.250478 -2.242460
  1   -4.299593 0.332042 9.745319 -1.570795 -1.570790 0.000000
  2   -0.000008 0.000010 5.615750 -2.696174 5.740195 1.529173
  3   15.693467 0.000000 0.000000 0.000000 0.000000 -2.469349
  4   22.146629 -0.000001 0.000000 0.166135 -0.088266 0.393171
  5   3.310129 5.734393 0.000000 0.000000 0.000000 1.758707
  6   0.000008 -0.000006 -5.615750 -0.035090 3.125580 -0.369451
  7   15.693467 0.000000 0.000000 0.000000 0.000000 -1.149162
  8   22.146629 0.000000 0.000000 0.005697 0.187516 0.827783
  9   3.310129 5.734393 0.000000 0.000000 0.000000 1.570796
 10   1.384163 -0.004728 0.000002 0.062333 0.040143 0.249599
 11   5.939814 -0.004730 0.000000 0.000000 0.003775 0.204167
 12   5.939809 -0.003975 0.000000 0.000000 0.003356 0.104714
 13   4.991439 -0.003975 0.000000 0.000000 0.002936 0.000000
 14   4.991436 -0.001575 0.000000 0.000000 0.000000 0.000000
 15   0.000005 0.001564 3.638375 -0.000010 -1.284244 3.140806
 16   8.842831 0.000000 -0.000002 1.157588 1.034762 1.108780
 17   9.341934 0.000000 -0.000001 0.000000 0.000000 -0.315214
 18   11.168404 -0.000001 0.000002 -2.090647 -0.112068 -0.059762
 19   0.000005 0.001585 -3.638375 -0.000010 1.284244 3.140787
 20   8.842831 0.000000 0.000001 0.508666 -0.998101 -0.464271
 21   9.341937 0.000000 -0.000001 0.000000 0.000000 -0.139045
 22   11.168404 -0.000001 0.000001 1.870439 -0.073019 0.438042
 23   1.977383 0.000000 0.000000 0.507690 0.102650 -0.488103
 24   3.723980 2.768054 -0.049087 0.000001 -3.141591 -1.570794
 25   12.421014 0.304721 4.492689 -0.091859 -0.075839 1.616818
 26   19.916998 1.704573 4.956909 2.262592 1.451744 0.734330
time 21
  0   0.299959 -2.866689 14.437233 -0.664967 0.261086 -2.248692
  1   -4.342564 0.367200 9.745319 -1.570795 -1.570451 0.000000
  2   -0.000008 0.000010 5.615750 0.165468 3.820350 -1.249864
  3   15.693467 0.000000 0.000000 0.000000 0.000000 -2.282827
  4   22.146629 -0.000001 0.000000 0.295888 -0.055822 0.331061
  5   3.310129 5.734393 0.000000 0.000000 0.000000 2.028641
  6   0.000008 -0.000006 -5.615750 -0.026461 3.138715 -0.368048
  7   15.693467 0.000000 0.000000 0.000000 0.000000 -1.138741
  8   22.146629 0.000000 0.000000 0.002031 0.194178 0.825317
  9   3.310129 5.734393 0.000000 0.000000 0.000000 1.570796
 10   1.384163 -0.004728 0.000002 0.062468 0.039929 0.253129
 11   5.939814 -0.004730 0.000000 0.000018 0.007958 0.206653
 12   5.939809 -0.003975 0.000000 0.000000 0.007083 0.104714
 13   4.991439 -0.003975 0.000000 0.000000 0.006196 0.000000
 14   4.991436 -0.001575 0.000000 0.000000 0.000000 0.000000
 15   0.000005 0.001564 3.638375 -0.000010 -1.284244 3.140806
 16   8.842831 0.000000 -0.000002 1.195355 1.028064 1.141775
 17   9.341934 0.000000 -0.000001 0.000000 0.000000 -0.330795
 18   11.168404 -0.000001 0.000002 -2.031530 -0.129964 -0.062563
 19   0.000005 0.001585 -3.638375 -0.000010 1.284244 3.140787
 20   8.842831 0.000000 0.000001 0.564539 -1.012708 -0.553008
 21   9.341937 0.000000 -0.000001 0.000000 0.000000 -0.171621
 22   11.168404 -0.000001 0.000001 1.828677 -0.100086 0.415950
 23   1.977383 0.000000 0.000000 0.531425 0.063183 -0.497298
 24   3.723980 2.768054 -0.049087 0.000001 -3.141591 -1.570794
 25   12.421014 0.304721 4.492689 -0.091859 -0.075839 1.616818
 26   19.916998 1.704573 4.956909 2.262592 1.451744 0.734330
time 22
  0   0.224599 -3.035745 13.751114 -0.737785 0.269018 -2.252335
  1   -4.373815 0.402357 9.745319 -1.570795 -1.570451 0.000000
  2   -0.000008 0.000010 5.615750 -0.140061 3.853507 -0.823790
  3   15.693467 0.000000 0.000000 0.000000 0.000000 -2.110248
  4   22.146629 -0.000001 0.000000 0.382564 -0.026078 0.362939
  5   3.310129 5.734393 0.000000 0.000000 0.000000 2.216552
  6   0.000008 -0.000006 -5.615750 -0.014476 3.157123 -0.361876
  7   15.693467 0.000000 0.000000 0.000000 0.000000 -1.115072
  8   22.146629 0.000000 0.000000 -0.003723 0.192398 0.814395
  9   3.310129 5.734393 0.000000 0.000000 0.000000 1.570796
 10   1.384163 -0.004728 0.000002 0.062569 0.039768 0.255428
 11   5.939814 -0.004730 0.000000 0.000053 0.012500 0.208317
 12   5.939809 -0.003975 0.000000 0.000000 0.011110 0.104714
 13   4.991439 -0.003975 0.000000 0.000000 0.009720 0.000000
 14   4.991436 -0.001575 0.000000 0.000000 0.000000 0.000000
 15   0.000005 0.001564 3.638375 -0.000010 -1.284244 3.140806
 16   8.842831 0.000000 -0.000002 1.230469 1.020623 1.172083
 17   9.341934 0.000000 -0.000001 0.000000 0.000000 -0.351460
 18   11.168404 -0.000001 0.000002 -1.971840 -0.147765 -0.066445
 19   0.000005 0.001585 -3.638375 -0.000010 1.284244 3.140787
 20   8.842831 0.000000 0.000001 0.623637 -1.026253 -0.647654
 21   9.341937 0.000000 -0.000001 0.000000 0.000000 -0.214856
 22   11.168404 -0.000001 0.000001 1.786541 -0.128544 0.394516
 23   1.977383 0.000000 0.000000 0.555900 0.023116 -0.505152
 24   3.723980 2.768054 -0.049087 0.000001 -3.141591 -1.570794
 25   12.421014 0.304721 4.492689 -0.091859 -0.075839 1.616818
 26   19.916998 1.704573 4.956909 2.262592 1.451744 0.734330
time 23
  0   -0.212487 -3.021657 14.103975 -0.809951 0.274752 -2.253486
  1   -4.393346 0.445327 9.745319 -1.570795 -1.570790 0.000000
  2   -0.000008 0.000010 5.615750 -0.109767 3.884460 -0.805535
  3   15.693467 0.000000 0.000000 0.000000 0.000000 -2.115726
  4   22.146629 -0.000001 0.000000 0.397259 -0.025459 0.361521
  5   3.310129 5.734393 0.000000 0.000000 0.000000 2.278546
  6   0.000008 -0.000006 -5.615750 0.008534 3.194034 -0.348270
  7   15.693467 0.000000 0.000000 0.000000 0.000000 -1.080461
  8   22.146629 0.000000 0.000000 -0.014666 0.165658 0.798629
  9   3.310129 5.734393 0.000000 0.000000 0.000000 1.570796
 10   1.384163 -0.004728 0.000002 0.062602 0.039687 0.256724
 11   5.939814 -0.004730 0.000000 0.000071 0.017354 0.209235
 12   5.939809 -0.003975 0.000000 0.000000 0.015424 0.104714
 13   4.991439 -0.003975 0.000000 0.000000 0.013495 0.000000
 14   4.991436 -0.001575 0.000000 0.000000 0.000000 0.000000
 15   0.000005 0.001564 3.638375 -0.000010 -1.284244 3.140806
 16   8.842831 0.000000 -0.000002 1.263206 1.012529 1.199778
 17   9.341934 0.000000 -0.000001 0.000000 0.000000 -0.376635
 18   11.168404 -0.000001 0.000002 -1.911577 -0.165375 -0.071408
 19   0.000005 0.001585 -3.638375 -0.000010 1.284244 3.140787
 20   8.842831 0.000000 0.000001 0.685880 -1.038204 -0.747447
 21   9.341937 0.000000 -0.000001 0.000000 0.000000 -0.267417
 22   11.168404 -0.000001 0.000001 1.744220 -0.158352 0.373928
 23   1.977383 0.000000 0.000000 0.581010 -0.017158 -0.511812
 24   3.723980 2.768054 -0.049087 0.000001 -3.141591 -1.570794
 25   12.421014 0.304721 4.492689 -0.091859 -0.075839 1.616818
 26   19.916998 1.704573 4.956909 2.262592 1.451744 0.734330
time 24
  0   -0.973618 -2.831469 15.025334 -0.881557 0.278861 -2.252143
  1   -4.397253 0.488297 9.745319 -1.570795 -1.570451 0.000000
  2   -0.000008 0.000010 5.615750 0.039978 3.925571 -0.915733
  3   15.693467 0.000000 0.000000 0.000000 0.000000 -2.154567
  4   22.146629 -0.000001 0.000000 0.383723 -0.036777 0.353837
  5   3.310129 5.734393 0.000000 0.000000 0.000000 2.289602
  6   0.000008 -0.000006 -5.615750 0.040173 3.247532 -0.331158
  7   15.693467 0.000000 0.000000 0.000000 0.000000 -1.044956
  8   22.146629 0.000000 0.000000 -0.029276 0.112700 0.784977
  9   3.310129 5.734393 0.000000 0.000000 0.000000 1.570796
 10   1.384163 -0.004728 0.000002 0.062636 0.039660 0.257112
 11   5.939814 -0.004730 0.000000 0.000107 0.022471 0.209522
 12   5.939809 -0.003975 0.000000 0.000013 0.019978 0.104714
 13   4.991439 -0.003975 0.000000 0.000000 0.017474 0.000000
 14   4.991436 -0.001575 0.000000 0.000000 0.000000 0.000000
 15   0.000005 0.001564 3.638375 -0.000010 -1.284244 3.140806
 16   8.842831 0.000000 -0.000002 1.293840 1.003971 1.225309
 17   9.341934 0.000000 -0.000001 0.000000 0.000000 -0.405500
 18   11.168404 -0.000001 0.000002 -1.850741 -0.182793 -0.077501
 19   0.000005 0.001585 -3.638375 -0.000010 1.284244 3.140787
 20   8.842831 0.000000 0.000001 0.750622 -1.048296 -0.851434
 21   9.341937 0.000000 -0.000001 0.000000 0.000000 -0.327973
 22   11.168404 -0.000001 0.000001 1.701991 -0.189255 0.354468
 23   1.977383 0.000000 0.000000 0.606595 -0.057341 -0.517329
 24   3.723980 2.768054 -0.049087 0.000001 -3.141591 -1.570794
 25   12.421014 0.304721 4.492689 -0.091859 -0.075839 1.616818
 26   19.916998 1.704573 4.956909 2.262592 1.451744 0.734330
time 25
  0   -1.553887 -2.599016 15.848677 -0.952604 0.281920 -2.248883
  1   -4.397253 0.535174 9.745319 -1.570795 -1.570790 0.000000
  2   -0.000008 0.000010 5.615750 0.210909 3.933141 -1.060243
  3   15.693467 0.000000 0.000000 0.000000 0.000000 -2.193336
  4   22.146629 -0.000001 0.000000 0.348125 -0.056120 0.360012
  5   3.310129 5.734393 0.000000 0.000000 0.000000 2.264133
  6   0.000008 -0.000006 -5.615750 0.070183 3.300933 -0.313625
  7   15.693467 0.000000 0.000000 0.000000 0.000000 -1.005954
  8   22.146629 0.000000 0.000000 -0.041912 0.048721 0.766129
  9   3.310129 5.734393 0.000000 0.000000 0.000000 1.570796
 10   1.384163 -0.004728 0.000002 0.062602 0.039687 0.256756
 11   5.939814 -0.004730 0.000000 0.000124 0.027816 0.209273
 12   5.939809 -0.003975 0.000000 0.000013 0.024724 0.104714
 13   4.991439 -0.003975 0.000000 0.000014 0.021632 0.000000
 14   4.991436 -0.001575 0.000000 0.000000 0.000000 0.000000
 15   0.000005 0.001564 3.638375 -0.000010 -1.284244 3.140806
 16   8.842831 0.000000 -0.000002 1.322553 0.995041 1.248749
 17   9.341934 0.000000 -0.000001 0.000000 0.000000 -0.437645
 18   11.168404 -0.000001 0.000002 -1.789236 -0.199828 -0.084724
 19   0.000005 0.001585 -3.638375 -0.000010 1.284244 3.140787
 20   8.842831 0.000000 0.000001 0.817219 -1.056352 -0.958280
 21   9.341937 0.000000 -0.000001 0.000000 0.000000 -0.395123
 22   11.168404 -0.000001 0.000001 1.659949 -0.221086 0.336043
 23   1.977383 0.000000 0.000000 0.632656 -0.097061 -0.521952
 24   3.723980 2.768054 -0.049087 0.000001 -3.141591 -1.570794
 25   12.421014 0.304721 4.492689 -0.091859 -0.075839 1.616818
 26   19.916998 1.704573 4.956909 2.262592 1.451744 0.734330
time 26
  0   -1.418240 -2.493356 15.985901 -1.023184 0.284213 -2.243802
  1   -4.385534 0.582050 9.745319 -1.570795 -1.570790 0.000000
  2   -0.000008 0.000010 5.615750 0.277921 3.897205 -1.118161
  3   15.693467 0.000000 0.000000 0.000000 0.000000 -2.199312
  4   22.146629 -0.000001 0.000000 0.287175 -0.082842 0.404879
  5   3.310129 5.734393 0.000000 0.000000 0.000000 2.216552
  6   0.000008 -0.000006 -5.615750 0.089933 3.340146 -0.295390
  7   15.693467 0.000000 0.000000 0.000000 0.000000 -0.953851
  8   22.146629 0.000000 0.000000 -0.047215 -0.011727 0.730281
  9   3.310129 5.734393 0.000000 0.000000 0.000000 1.570796
 10   1.384163 -0.004728 0.000002 0.062569 0.039741 0.255817
 11   5.939814 -0.004730 0.000000 0.000142 0.033329 0.208604
 12   5.939809 -0.003975 0.000000 0.000013 0.029626 0.104714
 13   4.991439 -0.003975 0.000000 0.000014 0.025923 0.000000
 14   4.991436 -0.001575 0.000000 0.000000 0.000000 0.000000
 15   0.000005 0.001564 3.638375 -0.000010 -1.284244 3.140806
 16   8.842831 0.000000 -0.000002 1.349712 0.985738 1.270398
 17   9.341934 0.000000 -0.000001 0.000000 0.000000 -0.472251
 18   11.168404 -0.000001 0.000002 -1.727254 -0.216480 -0.093078
 19   0.000005 0.001585 -3.638375 -0.000010 1.284244 3.140787
 20   8.842831 0.000000 0.000001 0.884783 -1.062018 -1.066747
 21   9.341937 0.000000 -0.000001 0.000000 0.000000 -0.467470
 22   11.168404 -0.000001 0.000001 1.618186 -0.253634 0.318933
 23   1.977383 0.000000 0.000000 0.658876 -0.135996 -0.525630
 24   3.723980 2.768054 -0.049087 0.000001 -3.141591 -1.570794
 25   12.421014 0.304721 4.492689 -0.091859 -0.075839 1.616818
 26   19.916998 1.704573 4.956909 2.262592 1.451744 0.734330
time 27
  0   -0.604356 -2.500400 15.397799 -1.093485 0.286220 -2.237378
  1   -4.369908 0.632833 9.745319 -1.570795 -1.570451 0.000000
  2   -0.000008 0.000010 5.615750 0.008246 3.743016 -0.922710
  3   15.693467 0.000000 0.000000 0.000000 0.000000 -2.073897
  4   22.146629 -0.000001 0.000000 0.138801 -0.059116 0.606120
  5   3.310129 5.734393 0.000000 0.000000 0.000000 2.082013
  6   0.000008 -0.000006 -5.615750 0.074401 3.339762 -0.256116
  7   15.693467 0.000000 0.000000 0.000000 0.000000 -0.820692
  8   22.146629 0.000000 0.000000 -0.022846 -0.083596 0.642909
  9   3.310129 5.734393 0.000000 0.000000 0.000000 1.570796
 10   1.384163 -0.004728 0.000002 0.062501 0.039848 0.254457
 11   5.939814 -0.004730 0.000000 0.000160 0.038974 0.207628
 12   5.939809 -0.003975 0.000000 0.000026 0.034647 0.104714
 13   4.991439 -0.003975 0.000000 0.000014 0.030321 0.000000
 14   4.991436 -0.001575 0.000000 0.000000 0.000000 0.000000
 15   0.000005 0.001564 3.638375 -0.000010 -1.284244 3.140806
 16   8.842831 0.000000 -0.000002 1.375499 0.976157 1.290478
 17   9.341934 0.000000 -0.000001 0.000000 0.000000 -0.508824
 18   11.168404 -0.000001 0.000002 -1.664699 -0.232654 -0.102561
 19   0.000005 0.001585 -3.638375 -0.000010 1.284244 3.140787
 20   8.842831 0.000000 0.000001 0.952105 -1.065382 -1.175213
 21   9.341937 0.000000 -0.000001 0.000000 0.000000 -0.543681
 22   11.168404 -0.000001 0.000001 1.576890 -0.286603 0.303234
 23   1.977383 0.000000 0.000000 0.685201 -0.173800 -0.528513
 24   3.723980 2.768054 -0.049087 0.000001 -3.141591 -1.570794
 25   12.421014 0.304721 4.492689 -0.091859 -0.075839 1.616818
 26   19.916998 1.704573 4.956909 2.262592 1.451744 0.734330
time 28
  0   0.458214 -2.521532 14.535250 -1.163413 0.288227 -2.230092
  1   -4.350377 0.683616 9.745319 -1.570795 -1.570451 0.000000
  2   -0.000008 0.000010 5.615750 -0.224329 3.498460 -0.767974
  3   15.693467 0.000000 0.000000 0.000000 0.000000 -1.842203
  4   22.146629 -0.000001 0.000000 0.047189 0.033706 0.778546
  5   3.310129 5.734393 0.000000 0.000000 0.000000 1.893663
  6   0.000008 -0.000006 -5.615750 0.066539 3.330462 -0.224275
  7   15.693467 0.000000 0.000000 0.000000 0.000000 -0.698027
  8   22.146629 0.000000 0.000000 0.002820 -0.146992 0.487100
  9   3.310129 5.734393 0.000000 0.000000 0.000000 1.570796
 10   1.384163 -0.004728 0.000002 0.062434 0.039955 0.252773
 11   5.939814 -0.004730 0.000000 0.000160 0.044715 0.206424
 12   5.939809 -0.003975 0.000000 0.000026 0.039753 0.104714
 13   4.991439 -0.003975 0.000000 0.000014 0.034779 0.000000
 14   4.991436 -0.001575 0.000000 0.000000 0.000000 0.000000
 15   0.000005 0.001564 3.638375 -0.000010 -1.284244 3.140806
 16   8.842831 0.000000 -0.000002 1.400189 0.966296 1.309216
 17   9.341934 0.000000 -0.000001 0.000000 0.000000 -0.546628
 18   11.168404 -0.000001 0.000002 -1.601667 -0.248254 -0.113077
 19   0.000005 0.001585 -3.638375 -0.000010 1.284244 3.140787
 20   8.842831 0.000000 0.000001 1.018137 -1.066356 -1.282155
 21   9.341937 0.000000 -0.000001 0.000000 0.000000 -0.622357
 22   11.168404 -0.000001 0.000001 1.536153 -0.319825 0.288944
 23   1.977383 0.000000 0.000000 0.711368 -0.210172 -0.530501
 24   3.723980 2.768054 -0.049087 0.000001 -3.141591 -1.570794
 25   12.421014 0.304721 4.492689 -0.091859 -0.075839 1.616818
 26   19.916998 1.704573 4.956909 2.262592 1.451744 0.734330
time 29
  0   1.709183 -2.556752 13.476666 -1.233248 0.290521 -2.222517
  1   -4.326938 0.738305 9.745319 -1.570795 -1.570451 0.000000
  2   -0.000008 0.000010 5.615750 -0.275234 3.323571 -0.750962
  3   15.693467 0.000000 0.000000 0.000000 0.000000 -1.473712
  4   22.146629 -0.000001 0.000000 0.048498 0.023032 0.690138
  5   3.310129 5.734393 0.000000 0.000000 0.000000 1.705313
  6   0.000008 -0.000006 -5.615750 0.096357 3.344843 -0.220208
  7   15.693467 0.000000 0.000000 0.000000 0.000000 -0.661927
  8   22.146629 0.000000 0.000000 0.005979 -0.184937 0.298879
  9   3.310129 5.734393 0.000000 0.000000 0.000000 1.570796
 10   1.384163 -0.004728 0.000002 0.062367 0.040063 0.250959
 11   5.939814 -0.004730 0.000000 0.000142 0.050503 0.205123
 12   5.939809 -0.003975 0.000000 0.000026 0.044894 0.104714
 13   4.991439 -0.003975 0.000000 0.000029 0.039274 0.000000
 14   4.991436 -0.001575 0.000000 0.000000 0.000000 0.000000
 15   0.000005 0.001564 3.638375 -0.000010 -1.284244 3.140806
 16   8.842831 0.000000 -0.000002 1.424056 0.956250 1.326908
 17   9.341934 0.000000 -0.000001 0.000000 0.000000 -0.585005
 18   11.168404 -0.000001 0.000002 -1.538157 -0.263184 -0.124673
 19   0.000005 0.001585 -3.638375 -0.000010 1.284244 3.140787
 20   8.842831 0.000000 0.000001 1.081670 -1.065293 -1.385856
 21   9.341937 0.000000 -0.000001 0.000000 0.000000 -0.702231
 22   11.168404 -0.000001 0.000001 1.496162 -0.353005 0.276065
 23   1.977383 0.000000 0.000000 0.737218 -0.244812 -0.531694
 24   3.723980 2.768054 -0.049087 0.000001 -3.141591 -1.570794
 25   12.421014 0.304721 4.492689 -0.091859 -0.075839 1.616818
 26   19.916998 1.704573 4.956909 2.262592 1.451744 0.734330
time 30
  0   3.073192 -2.613105 12.339669 -1.303175 0.293388 -2.215039
  1   -4.303500 0.789088 9.745319 -1.570795 -1.570451 0.000000
  2   -0.000008 0.000010 5.615750 -0.251363 3.182798 -0.725826
  3   15.693467 0.000000 0.000000 0.000000 0.000000 -1.139296
  4   22.146629 -0.000001 0.000000 0.041319 -0.066397 0.475405
  5   3.310129 5.734393 0.000000 0.000000 0.000000 1.570796
  6   0.000008 -0.000006 -5.615750 0.132502 3.361717 -0.221681
  7   15.693467 0.000000 0.000000 0.000000 0.000000 -0.639449
  8   22.146629 0.000000 0.000000 0.015625 -0.222361 0.099472
  9   3.310129 5.734393 0.000000 0.000000 0.000000 1.570796
 10   1.384163 -0.004728 0.000002 0.062299 0.040170 0.249114
 11   5.939814 -0.004730 0.000000 0.000124 0.056292 0.203804
 12   5.939809 -0.003975 0.000000 0.000038 0.050036 0.104714
 13   4.991439 -0.003975 0.000000 0.000029 0.043780 0.000000
 14   4.991436 -0.001575 0.000000 0.000000 0.000000 0.000000
 15   0.000005 0.001564 3.638375 -0.000010 -1.284244 3.140806
 16   8.842831 0.000000 -0.000002 1.447283 0.946017 1.343779
 17   9.341934 0.000000 -0.000001 0.000000 0.000000 -0.623465
 18   11.168404 -0.000001 0.000002 -1.474360 -0.277348 -0.137252
 19   0.000005 0.001585 -3.638375 -0.000010 1.284244 3.140787
 20   8.842831 0.000000 0.000001 1.141575 -1.062283 -1.484791
 21   9.341937 0.000000 -0.000001 0.000000 0.000000 -0.781773
 22   11.168404 -0.000001 0.000001 1.456916 -0.385932 0.264784
 23   1.977383 0.000000 0.000000 0.762486 -0.277397 -0.531943
 24   3.723980 2.768054 -0.049087 0.000001 -3.141591 -1.570794
 25   12.421014 0.304721 4.492689 -0.091859 -0.075839 1.616818
 26   19.916998 1.704573 4.956909 2.262592 1.451744 0.734330
time 31
  0   4.467344 -2.690589 11.222276 -1.373290 0.296828 -2.208328
  1   -4.283968 0.839870 9.745319 -1.570795 -1.570790 0.000000
  2   -0.000008 0.000010 5.615750 -0.145334 3.103739 -0.766063
  3   15.693467 0.000000 0.000000 0.000000 0.000000 -1.240169
  4   22.146629 -0.000001 0.000000 -0.089630 -0.091238 0.341855
  5   3.310129 5.734393 0.000000 0.000000 0.000000 1.540545
  6   0.000008 -0.000006 -5.615750 0.173154 3.380125 -0.227151
  7   15.693467 0.000000 0.000000 0.000000 0.000000 -0.625828
  8   22.146629 0.000000 0.000000 0.036384 -0.259477 -0.109184
  9   3.310129 5.734393 0.000000 0.000000 0.000000 1.570796
 10   1.384163 -0.004728 0.000002 0.062232 0.040277 0.247430
 11   5.939814 -0.004730 0.000000 0.000107 0.062020 0.202618
 12   5.939809 -0.003975 0.000000 0.000038 0.055129 0.104714
 13   4.991439 -0.003975 0.000000 0.000029 0.048238 0.000000
 14   4.991436 -0.001575 0.000000 0.000000 0.000000 0.000000
 15   0.000005 0.001564 3.638375 -0.000010 -1.284244 3.140806
 16   8.842831 0.000000 -0.000002 1.469961 0.935505 1.359903
 17   9.341934 0.000000 -0.000001 0.000000 0.000000 -0.661268
 18   11.168404 -0.000001 0.000002 -1.409990 -0.290651 -0.150814
 19   0.000005 0.001585 -3.638375 -0.000010 1.284244 3.140787
 20   8.842831 0.000000 0.000001 1.196884 -1.057857 -1.577817
 21   9.341937 0.000000 -0.000001 0.000000 0.000000 -0.859782
 22   11.168404 -0.000001 0.000001 1.418696 -0.418311 0.255007
 23   1.977383 0.000000 0.000000 0.786961 -0.307672 -0.531147
 24   3.723980 2.768054 -0.049087 0.000001 -3.141591 -1.570794
 25   12.421014 0.304721 4.492689 -0.091859 -0.075839 1.616818
 26   19.916998 1.704573 4.956909 2.262592 1.451744 0.734330
time 32
  0   5.831353 -2.782161 10.222503 -1.443684 0.300937 -2.202863
  1   -4.264436 0.890653 9.745319 -1.570795 -1.570451 0.000000
  2   -0.000008 0.000010 5.615750 -0.012653 3.038479 -0.814710
  3   15.693467 0.000000 0.000000 0.000000 0.000000 -1.457706
  4   22.146629 -0.000001 0.000000 -0.218560 -0.199861 0.216079
  5   3.310129 5.734393 0.000000 0.000000 0.000000 1.543901
  6   0.000008 -0.000006 -5.615750 0.216299 3.399396 -0.235286
  7   15.693467 0.000000 0.000000 0.000000 0.000000 -0.616896
  8   22.146629 0.000000 0.000000 0.072204 -0.293739 -0.324445
  9   3.310129 5.734393 0.000000 0.000000 0.000000 1.570796
 10   1.384163 -0.004728 0.000002 0.062165 0.040358 0.246070
 11   5.939814 -0.004730 0.000000 0.000071 0.067677 0.201624
 12   5.939809 -0.003975 0.000000 0.000038 0.060151 0.104714
 13   4.991439 -0.003975 0.000000 0.000029 0.052636 0.000000
 14   4.991436 -0.001575 0.000000 0.000000 0.000000 0.000000
 15   0.000005 0.001564 3.638375 -0.000010 -1.284244 3.140806
 16   8.842831 0.000000 -0.000002 1.492456 0.924808 1.375580
 17   9.341934 0.000000 -0.000001 0.000000 0.000000 -0.697759
 18   11.168404 -0.000001 0.000002 -1.345334 -0.303092 -0.165261
 19   0.000005 0.001585 -3.638375 -0.000010 1.284244 3.140787
 20   8.842831 0.000000 0.000001 1.246791 -1.052457 -1.663599
 21   9.341937 0.000000 -0.000001 0.000000 0.000000 -0.934794
 22   11.168404 -0.000001 0.000001 1.381501 -0.449889 0.246734
 23   1.977383 0.000000 0.000000 0.810273 -0.335315 -0.529308
 24   3.723980 2.768054 -0.049087 0.000001 -3.141591 -1.570794
 25   12.421014 0.304721 4.492689 -0.091859 -0.075839 1.616818
 26   19.916998 1.704573 4.956909 2.262592 1.451744 0.734330
time 33
  0   7.082322 -2.894866 9.418764 -1.514544 0.305811 -2.199507
  1   -4.252717 0.937530 9.745319 -1.570795 -1.570451 0.000000
  2   -0.000008 0.000010 5.615750 0.129614 2.973794 -0.861638
  3   15.693467 0.000000 0.000000 0.000000 0.000000 -1.721981
  4   22.146629 -0.000001 0.000000 -0.260552 -0.386125 0.087651
  5   3.310129 5.734393 0.000000 0.000000 0.000000 1.560727
  6   0.000008 -0.000006 -5.615750 0.259923 3.418379 -0.244263
  7   15.693467 0.000000 0.000000 0.000000 0.000000 -0.608113
  8   22.146629 0.000000 0.000000 0.124383 -0.320785 -0.543317
  9   3.310129 5.734393 0.000000 0.000000 0.000000 1.570796
 10   1.384163 -0.004728 0.000002 0.062131 0.040412 0.245130
 11   5.939814 -0.004730 0.000000 0.000053 0.073190 0.200955
 12   5.939809 -0.003975 0.000000 0.000051 0.065064 0.104714
 13   4.991439 -0.003975 0.000000 0.000043 0.056927 0.000000
 14   4.991436 -0.001575 0.000000 0.000000 0.000000 0.000000
 15   0.000005 0.001564 3.638375 -0.000010 -1.284244 3.140806
 16   8.842831 0.000000 -0.000002 1.514860 0.913924 1.390958
 17   9.341934 0.000000 -0.000001 0.000000 0.000000 -0.732447
 18   11.168404 -0.000001 0.000002 -1.280392 -0.314672 -0.180543
 19   0.000005 0.001585 -3.638375 -0.000010 1.284244 3.140787
 20   8.842831 0.000000 0.000001 1.290651 -1.046614 -1.741184
 21   9.341937 0.000000 -0.000001 0.000000 0.000000 -1.005409
 22   11.168404 -0.000001 0.000001 1.345518 -0.480455 0.239871
 23   1.977383 0.000000 0.000000 0.832211 -0.360048 -0.526177
 24   3.723980 2.768054 -0.049087 0.000001 -3.141591 -1.570794
 25   12.421014 0.304721 4.492689 -0.091859 -0.075839 1.616818
 26   19.916998 1.704573 4.956909 2.262592 1.451744 0.734330
time 34
  0   8.152429 -3.035746 8.928679 1.555289 2.830186 0.943045
  1   -4.248811 0.984406 9.745319 -1.570795 -1.570451 0.000000
  2   -0.000008 0.000010 5.615750 0.264787 2.900389 -0.895758
  3   15.693467 0.000000 0.000000 0.000000 0.000000 -1.962923
  4   22.146629 -0.000001 0.000000 -0.167781 -0.580413 -0.081848
  5   3.310129 5.734393 0.000000 0.000000 0.000000 1.570796
  6   0.000008 -0.000006 -5.615750 0.301629 3.436403 -0.251768
  7   15.693467 0.000000 0.000000 0.000000 0.000000 -0.593896
  8   22.146629 0.000000 0.000000 0.190664 -0.336749 -0.762013
  9   3.310129 5.734393 0.000000 0.000000 0.000000 1.570796
 10   1.384163 -0.004728 0.000002 0.062131 0.040439 0.244774
 11   5.939814 -0.004730 0.000000 0.000053 0.078535 0.200706
 12   5.939809 -0.003975 0.000000 0.000051 0.069810 0.104714
 13   4.991439 -0.003975 0.000000 0.000043 0.061085 0.000000
 14   4.991436 -0.001575 0.000000 0.000000 0.000000 0.000000
 15   0.000005 0.001564 3.638375 -0.000010 -1.284244 3.140806
 16   8.842831 0.000000 -0.000002 1.537355 0.902761 1.406186
 17   9.341934 0.000000 -0.000001 0.000000 0.000000 -0.764510
 18   11.168404 -0.000001 0.000002 -1.215353 -0.325104 -0.196611
 19   0.000005 0.001585 -3.638375 -0.000010 1.284244 3.140787
 20   8.842831 0.000000 0.000001 1.328061 -1.040771 -1.809905
 21   9.341937 0.000000 -0.000001 0.000000 0.000000 -1.070361
 22   11.168404 -0.000001 0.000001 1.310934 -0.509715 0.234513
 23   1.977383 0.000000 0.000000 0.852457 -0.381594 -0.521703
 24   3.723980 2.768054 -0.049087 0.000001 -3.141591 -1.570794
 25   12.421014 0.304721 4.492689 -0.091859 -0.075839 1.616818
 26   19.916998 1.704573 4.956909 2.262592 1.451744 0.734330
time 35
  0   8.747769 -3.296375 8.889472 1.555289 2.830186 0.943045
  1   -4.248811 0.984406 9.745319 -1.570795 -1.570451 0.000000
  2   -0.000008 0.000010 5.615750 0.264787 2.900389 -0.895758
  3   15.693467 0.000000 0.000000 0.000000 0.000000 -1.962923
  4   22.146629 -0.000001 0.000000 -0.167781 -0.580413 -0.081848
  5   3.310129 5.734393 0.000000 0.000000 0.000000 1.570796
  6   0.000008 -0.000006 -5.615750 0.301629 3.436403 -0.251768
  7   15.693467 0.000000 0.000000 0.000000 0.000000 -0.593896
  8   22.146629 0.000000 0.000000 0.190664 -0.336749 -0.762013
  9   3.310129 5.734393 0.000000 0.000000 0.000000 1.570796
 10   1.384163 -0.004728 0.000002 0.062131 0.040439 0.244774
 11   5.939814 -0.004730 0.000000 0.000053 0.078535 0.200706
 12   5.939809 -0.003975 0.000000 0.000051 0.069810 0.104714
 13   4.991439 -0.003975 0.000000 0.000043 0.061085 0.000000
 14   4.991436 -0.001575 0.000000 0.000000 0.000000 0.000000
 15   0.000005 0.001564 3.638375 -0.000010 -1.284244 3.140806
 16   8.842831 0.000000 -0.000002 1.537355 0.902761 1.406186
 17   9.341934 0.000000 -0.000001 0.000000 0.000000 -0.764510
 18   11.168404 -0.000001 0.000002 -1.215353 -0.325104 -0.196611
 19   0.000005 0.001585 -3.638375 -0.000010 1.284244 3.140787
 20   8.842831 0.000000 0.000001 1.333463 -1.060424 -1.814003
 21   9.341937 0.000000 -0.000001 0.000000 0.000000 -1.141909
 22   11.168404 -0.000001 0.000001 1.295832 -0.522405 0.232445
 23   1.977383 0.000000 0.000000 0.827824 -0.309519 -0.428756
 24   3.723980 2.768054 -0.049087 0.000001 -3.141591 -1.570794
 25   12.421014 0.304721 4.492689 -0.091859 -0.075839 1.616818
 26   19.916998 1.704573 4.956909 2.262592 1.451744 0.734330
time 36
  0   8.906024 -3.704927 9.869641 1.555289 2.830186 0.943045
  1   -4.248811 0.984406 9.745319 -1.570795 -1.570451 0.000000
  2   -0.000008 0.000010 5.615750 0.264787 2.900389 -0.895758
  3   15.693467 0.000000 0.000000 0.000000 0.000000 -1.962923
  4   22.146629 -0.000001 0.000000 -0.167781 -0.580413 -0.081848
  5   3.310129 5.734393 0.000000 0.000000 0.000000 1.570796
  6   0.000008 -0.000006 -5.615750 0.301629 3.436403 -0.251768
  7   15.693467 0.000000 0.000000 0.000000 0.000000 -0.593896
  8   22.146629 0.000000 0.000000 0.190664 -0.336749 -0.762013
  9   3.310129 5.734393 0.000000 0.000000 0.000000 1.570796
 10   1.384163 -0.004728 0.000002 0.062131 0.040439 0.244774
 11   5.939814 -0.004730 0.000000 0.000053 0.078535 0.200706
 12   5.939809 -0.003975 0.000000 0.000051 0.069810 0.104714
 13   4.991439 -0.003975 0.000000 0.000043 0.061085 0.000000
 14   4.991436 -0.001575 0.000000 0.000000 0.000000 0.000000
 15   0.000005 0.001564 3.638375 -0.000010 -1.284244 3.140806
 16   8.842831 0.000000 -0.000002 1.537355 0.902761 1.406186
 17   9.341934 0.000000 -0.000001 0.000000 0.000000 -0.764510
 18   11.168404 -0.000001 0.000002 -1.215353 -0.325104 -0.196611
 19   0.000005 0.001585 -3.638375 -0.000010 1.284244 3.140787
 20   8.842831 0.000000 0.000001 1.272107 -1.103271 -1.723074
 21   9.341937 0.000000 -0.000001 0.000000 0.000000 -1.207461
 22   11.168404 -0.000001 0.000001 1.303383 -0.516039 0.233479
 23   1.977383 0.000000 0.000000 0.788388 -0.157958 -0.270993
 24   3.723980 2.768054 -0.049087 0.000001 -3.141591 -1.570794
 25   12.421014 0.304721 4.492689 -0.091859 -0.075839 1.616818
 26   19.916998 1.704573 4.956909 2.262592 1.451744 0.734330
time 37
  0   9.071815 -4.113480 10.536157 1.555289 2.830186 0.943045
  1   -4.248811 0.984406 9.745319 -1.570795 -1.570451 0.000000
  2   -0.000008 0.000010 5.615750 0.264787 2.900389 -0.895758
  3   15.693467 0.000000 0.000000 0.000000 0.000000 -1.962923
  4   22.146629 -0.000001 0.000000 -0.167781 -0.580413 -0.081848
  5   3.310129 5.734393 0.000000 0.000000 0.000000 1.570796
  6   0.000008 -0.000006 -5.615750 0.301629 3.436403 -0.251768
  7   15.693467 0.000000 0.000000 0.000000 0.000000 -0.593896
  8   22.146629 0.000000 0.000000 0.190664 -0.336749 -0.762013
  9   3.310129 5.734393 0.000000 0.000000 0.000000 1.570796
 10   1.384163 -0.004728 0.000002 0.062131 0.040439 0.244774
 11   5.939814 -0.004730 0.000000 0.000053 0.078535 0.200706
 12   5.939809 -0.003975 0.000000 0.000051 0.069810 0.104714
 13   4.991439 -0.003975 0.000000 0.000043 0.061085 0.000000
 14   4.991436 -0.001575 0.000000 0.000000 0.000000 0.000000
 15   0.000005 0.001564 3.638375 -0.000010 -1.284244 3.140806
 16   8.842831 0.000000 -0.000002 1.537355 0.902761 1.406186
 17   9.341934 0.000000 -0.000001 0.000000 0.000000 -0.764510
 18   11.168404 -0.000001 0.000002 -1.215353 -0.325104 -0.196611
 19   0.000005 0.001585 -3.638375 -0.000010 1.284244 3.140787
 20   8.842831 0.000000 0.000001 1.231311 -1.121596 -1.665791
 21   9.341937 0.000000 -0.000001 0.000000 0.000000 -1.228045
 22   11.168404 -0.000001 0.000001 1.310934 -0.509715 0.234513
 23   1.977383 0.000000 0.000000 0.775437 -0.060782 -0.178443
 24   3.723980 2.768054 -0.049087 0.000001 -3.141591 -1.570794
 25   12.421014 0.304721 4.492689 -0.091859 -0.075839 1.616818
 26   19.916998 1.704573 4.956909 2.262592 1.451744 0.734330
time 38
  0   9.071815 -4.113480 10.065676 1.555289 2.830186 0.943045
  1   -4.248811 0.984406 9.745319 -1.570795 -1.570451 0.000000
  2   -0.000008 0.000010 5.615750 0.264787 2.900389 -0.895758
  3   15.693467 0.000000 0.000000 0.000000 0.000000 -1.962923
  4   22.146629 -0.000001 0.000000 -0.167781 -0.580413 -0.081848
  5   3.310129 5.734393 0.000000 0.000000 0.000000 1.570796
  6   0.000008 -0.000006 -5.615750 0.301629 3.436403 -0.251768
  7   15.693467 0.000000 0.000000 0.000000 0.000000 -0.593896
  8   22.146629 0.000000 0.000000 0.190664 -0.336749 -0.762013
  9   3.310129 5.734393 0.000000 0.000000 0.000000 1.570796
 10   1.384163 -0.004728 0.000002 0.062131 0.040439 0.244774
 11   5.939814 -0.004730 0.000000 0.000053 0.078535 0.200706
 12   5.939809 -0.003975 0.000000 0.000051 0.069810 0.104714
 13   4.991439 -0.003975 0.000000 0.000043 0.061085 0.000000
 14   4.991436 -0.001575 0.000000 0.000000 0.000000 0.000000
 15   0.000005 0.001564 3.638375 -0.000010 -1.284244 3.140806
 16   8.842831 0.000000 -0.000002 1.537355 0.902761 1.406186
 17   9.341934 0.000000 -0.000001 0.000000 0.000000 -0.764510
 18   11.168404 -0.000001 0.000002 -1.215353 -0.325104 -0.196611
 19   0.000005 0.001585 -3.638375 -0.000010 1.284244 3.140787
 20   8.842831 0.000000 0.000001 1.290812 -1.076094 -1.750429
 21   9.341937 0.000000 -0.000001 0.000000 0.000000 -1.137712
 22   11.168404 -0.000001 0.000001 1.310934 -0.509715 0.234513
 23   1.977383 0.000000 0.000000 0.782891 -0.136712 -0.253745
 24   3.723980 2.768054 -0.049087 0.000001 -3.141591 -1.570794
 25   12.421014 0.304721 4.492689 -0.091859 -0.075839 1.616818
 26   19.916998 1.704573 4.956909 2.262592 1.451744 0.734330
time 39
  0   9.071815 -4.113480 9.222730 1.555289 2.830186 0.943045
  1   -4.248811 0.984406 9.745319 -1.570795 -1.570451 0.000000
  2   -0.000008 0.000010 5.615750 0.264787 2.900389 -0.895758
  3   15.693467 0.000000 0.000000 0.000000 0.000000 -1.962923
  4   22.146629 -0.000001 0.000000 -0.167781 -0.580413 -0.081848
  5   3.310129 5.734393 0.000000 0.000000 0.000000 1.570796
  6   0.000008 -0.000006 -5.615750 0.301629 3.436403 -0.251768
  7   15.693467 0.000000 0.000000 0.000000 0.000000 -0.593896
  8   22.146629 0.000000 0.000000 0.190664 -0.336749 -0.762013
  9   3.310129 5.734393 0.000000 0.000000 0.000000 1.570796
 10   1.384163 -0.004728 0.000002 0.062131 0.040439 0.244774
 11   5.939814 -0.004730 0.000000 0.000053 0.078535 0.200706
 12   5.939809 -0.003975 0.000000 0.000051 0.069810 0.104714
 13   4.991439 -0.003975 0.000000 0.000043 0.061085 0.000000
 14   4.991436 -0.001575 0.000000 0.000000 0.000000 0.000000
 15   0.000005 0.001564 3.638375 -0.000010 -1.284244 3.140806
 16   8.842831 0.000000 -0.000002 1.537355 0.902761 1.406186
 17   9.341934 0.000000 -0.000001 0.000000 0.000000 -0.764510
 18   11.168404 -0.000001 0.000002 -1.215353 -0.325104 -0.196611
 19   0.000005 0.001585 -3.638375 -0.000010 1.284244 3.140787
 20   8.842831 0.000000 0.000001 1.360070 -1.001554 -1.859944
 21   9.341937 0.000000 -0.000001 0.000000 0.000000 -0.996882
 22   11.168404 -0.000001 0.000001 1.310934 -0.509715 0.234513
 23   1.977383 0.000000 0.000000 0.812705 -0.275757 -0.398982
 24   3.723980 2.768054 -0.049087 0.000001 -3.141591 -1.570794
 25   12.421014 0.304721 4.492689 -0.091859 -0.075839 1.616818
 26   19.916998 1.704573 4.956909 2.262592 1.451744 0.734330
end
