version 1
nodes
  0 "Bip01" -1
  1 "Bip01 Pelvis" 0
  2 "Bip01 L Thigh" 1
  3 "Bip01 L Calf" 2
  4 "Bip01 L Foot" 3
  5 "Bip01 L Toe0" 4
  6 "Bip01 R Thigh" 1
  7 "Bip01 R Calf" 6
  8 "Bip01 R Foot" 7
  9 "Bip01 R Toe0" 8
 10 "Bip01 Spine" 1
 11 "Bip01 Spine1" 10
 12 "Bip01 Spine2" 11
 13 "Bip01 Spine3" 12
 14 "Bip01 Neck" 13
 15 "Bip01 L Clavicle" 14
 16 "Bip01 L UpperArm" 15
 17 "Bip01 L Forearm" 16
 18 "Bip01 L Hand" 17
 19 "Bip01 R Clavicle" 14
 20 "Bip01 R UpperArm" 19
 21 "Bip01 R Forearm" 20
 22 "Bip01 R Hand" 21
 23 "Bip01 Head" 14
 24 "Bone05" 23
 25 "m4" 22
 26 "SHOTGUN" 22
end
skeleton
time 0
  0   -0.001480 -4.860146 28.041988 0.000000 0.000000 -2.033353
  1   -1.373723 -0.035156 9.745319 -1.570795 -1.570451 0.000000
  2   -0.000008 0.000010 5.615750 -0.233053 3.472298 -0.563921
  3   15.693467 0.000000 0.000000 0.000000 0.000000 -0.487323
  4   22.146629 -0.000001 0.000000 0.114982 -0.144038 -0.143135
  5   3.310129 5.734393 0.000000 0.000000 0.000000 1.570796
  6   0.000008 -0.000006 -5.615750 0.212080 2.899510 0.054433
  7   15.693467 0.000000 0.000000 0.000000 0.000000 -0.482099
  8   22.146629 0.000000 0.000000 0.274883 0.248026 0.484986
  9   3.310129 5.734393 0.000000 0.000000 0.000000 1.570796
 10   1.384163 -0.004728 0.000002 -0.372579 -0.003463 0.086548
 11   5.939814 -0.004730 0.000000 0.000000 0.000000 0.000000
 12   5.939809 -0.003975 0.000000 0.000000 0.000000 0.000000
 13   4.991439 -0.003975 0.000000 0.000000 0.000000 0.000000
 14   4.991436 -0.001575 0.000000 0.000000 0.000000 0.000000
 15   0.000005 0.001564 3.638375 -0.000010 -1.284244 3.140806
 16   8.842831 0.000000 -0.000002 -0.414972 -0.110832 -0.914689
 17   9.341934 0.000000 -0.000001 0.000000 0.000000 -0.853073
 18   11.168404 -0.000001 0.000002 -4.515872 0.471532 -0.520821
 19   0.000005 0.001585 -3.638375 -0.000010 1.284244 3.140787
 20   8.842831 0.000000 0.000001 0.953960 -0.539089 -2.198116
 21   9.341937 0.000000 -0.000001 0.000000 0.000000 -0.994883
 22   11.168404 -0.000001 0.000001 1.806863 0.075089 0.649563
 23   1.977383 0.000000 0.000000 0.835700 0.294324 0.196082
 24   3.723980 2.768054 -0.049087 0.000001 -3.141591 -1.570794
 25   12.421014 0.304721 4.492689 -0.091859 -0.075839 1.616818
 26   19.916998 1.704573 4.956909 2.262592 1.451744 0.734330
time 1
  0   -0.348134 -4.810837 27.532299 -0.019580 -0.010417 -2.002960
  1   -1.643263 -0.046875 9.745319 -0.000032 -1.552100 -1.570770
  2   -0.000008 0.000010 5.615750 -0.221261 3.482456 -0.618973
  3   15.693467 0.000000 0.000000 0.000000 0.000000 -0.556255
  4   22.146629 -0.000001 0.000000 0.124966 -0.133934 -0.137281
  5   3.310129 5.734393 0.000000 0.000000 0.000000 1.570796
  6   0.000008 -0.000006 -5.615750 0.211505 2.895291 0.006392
  7   15.693467 0.000000 0.000000 0.000000 0.000000 -0.595534
  8   22.146629 0.000000 0.000000 0.291523 0.240873 0.538273
  9   3.310129 5.734393 0.000000 0.000000 0.000000 1.567354
 10   1.384163 -0.004728 0.023440 -0.269649 -0.024903 0.108051
 11   5.939814 -0.004730 0.000000 0.031539 -0.000024 0.000000
 12   5.939809 -0.003975 0.000000 0.000000 0.000000 0.021025
 13   4.991439 -0.003975 0.000000 0.000000 0.000000 0.006997
 14   4.991436 -0.001575 0.000000 0.000000 0.000000 0.000000
 15   0.000005 0.001564 3.638375 -0.000010 -1.284244 3.140806
 16   8.842831 0.000000 -0.000002 0.000640 0.148427 -0.287926
 17   9.341934 0.000000 -0.000001 0.000000 0.000000 -1.620377
 18   11.168404 -0.000001 0.000002 -3.232396 0.336112 0.078904
 19   0.000005 0.001585 -3.638375 -0.000010 1.284244 3.140787
 20   8.842831 0.000000 0.000001 0.819638 -0.630892 -1.889778
 21   9.341937 0.000000 -0.000001 0.000000 0.000000 -1.030857
 22   11.168404 -0.000001 0.000001 1.665449 0.076143 0.575202
 23   1.977383 0.000000 0.000000 0.781463 0.184400 0.188378
 24   3.723980 2.768054 -0.049087 0.000001 -3.141591 -1.570794
 25   12.421014 0.304721 4.492689 -0.091859 -0.075839 1.616818
 26   19.916998 1.704573 4.956909 2.262592 1.451744 0.734330
time 2
  0   -0.732468 -4.761529 27.081421 -0.041397 -0.021216 -1.969403
  1   -1.936240 -0.105471 9.745319 -0.000032 -1.531621 -1.570770
  2   -0.000008 0.000010 5.615750 -0.214646 3.489643 -0.660930
  3   15.693467 0.000000 0.000000 0.000000 0.000000 -0.600360
  4   22.146629 -0.000001 0.000000 0.136259 -0.122566 -0.143364
  5   3.310129 5.734393 0.000000 0.000000 0.000000 1.570796
  6   0.000008 -0.000006 -5.615750 0.217066 2.896729 -0.027272
  7   15.693467 0.000000 0.000000 0.000000 0.000000 -0.684852
  8   22.146629 0.000000 0.000000 0.309067 0.230527 0.581431
  9   3.310129 5.734393 0.000000 0.000000 0.000000 1.563854
 10   1.384163 -0.004728 0.054691 -0.157934 -0.050799 0.131172
 11   5.939814 -0.004730 0.000000 0.066098 -0.000048 0.000000
 12   5.939809 -0.003975 0.000000 0.000000 0.000000 0.044062
 13   4.991439 -0.003975 0.000000 0.000000 0.000000 0.014683
 14   4.991436 -0.001575 0.000000 0.000000 0.000000 0.000000
 15   0.000005 0.001564 3.638375 -0.000010 -1.284244 3.140806
 16   8.842831 0.000000 -0.000002 0.377023 0.254289 -0.053375
 17   9.341934 0.000000 -0.000001 0.000000 0.000000 -1.665069
 18   11.168404 -0.000001 0.000002 -2.449168 -0.016747 0.153741
 19   0.000005 0.001585 -3.638375 -0.000010 1.284244 3.140787
 20   8.842831 0.000000 0.000001 0.675076 -0.701271 -1.532352
 21   9.341937 0.000000 -0.000001 0.000000 0.000000 -1.069428
 22   11.168404 -0.000001 0.000001 1.509958 0.065561 0.494448
 23   1.977383 0.000000 0.000000 0.718663 0.072813 0.204135
 24   3.723980 2.768054 -0.049087 0.000001 -3.141591 -1.570794
 25   12.421014 0.304721 4.492689 -0.091859 -0.075839 1.616818
 26   19.916998 1.704573 4.956909 2.262592 1.451744 0.734330
time 3
  0   -1.131874 -4.705177 26.689354 -0.064427 -0.031632 -1.934408
  1   -2.229218 -0.214849 9.745319 -0.000032 -1.510441 -1.570770
  2   -0.000008 0.000010 5.615750 -0.211770 3.495297 -0.692852
  3   15.693467 0.000000 0.000000 0.000000 0.000000 -0.626539
  4   22.146629 -0.000001 0.000000 0.148374 -0.110704 -0.157313
  5   3.310129 5.734393 0.000000 0.000000 0.000000 1.570796
  6   0.000008 -0.000006 -5.615750 0.227708 2.902194 -0.051538
  7   15.693467 0.000000 0.000000 0.000000 0.000000 -0.757350
  8   22.146629 0.000000 0.000000 0.326328 0.217418 0.617630
  9   3.310129 5.734393 0.000000 0.000000 0.000000 1.560324
 10   1.384163 -0.004728 0.082036 -0.043425 -0.080209 0.154456
 11   5.939814 -0.004730 0.000000 0.101846 -0.000072 0.000000
 12   5.939809 -0.003975 0.000000 0.000000 0.000000 0.067898
 13   4.991439 -0.003975 0.000000 0.000000 0.000000 0.022621
 14   4.991436 -0.001575 0.000000 0.000000 0.000000 0.000000
 15   0.000005 0.001564 3.638375 -0.000010 -1.284244 3.140806
 16   8.842831 0.000000 -0.000002 0.447069 0.411128 0.005226
 17   9.341934 0.000000 -0.000001 0.000000 0.000000 -1.630874
 18   11.168404 -0.000001 0.000002 -2.122258 -0.021724 0.003969
 19   0.000005 0.001585 -3.638375 -0.000010 1.284244 3.140787
 20   8.842831 0.000000 0.000001 0.538416 -0.753944 -1.155579
 21   9.341937 0.000000 -0.000001 0.000000 0.000000 -1.109066
 22   11.168404 -0.000001 0.000001 1.349993 0.041741 0.413788
 23   1.977383 0.000000 0.000000 0.648356 -0.028335 0.245886
 24   3.723980 2.768054 -0.049087 0.000001 -3.141591 -1.570794
 25   12.421014 0.304721 4.492689 -0.091859 -0.075839 1.616818
 26   19.916998 1.704573 4.956909 2.262592 1.451744 0.734330
time 4
  0   -1.516208 -4.655869 26.356096 -0.087363 -0.041093 -1.899796
  1   -2.494851 -0.367198 9.745319 -0.000032 -1.489623 -1.570770
  2   -0.000008 0.000010 5.615750 -0.211674 3.499993 -0.716842
  3   15.693467 0.000000 0.000000 0.000000 0.000000 -0.639628
  4   22.146629 -0.000001 0.000000 0.160788 -0.099039 -0.175700
  5   3.310129 5.734393 0.000000 0.000000 0.000000 1.570796
  6   0.000008 -0.000006 -5.615750 0.241994 2.910535 -0.068791
  7   15.693467 0.000000 0.000000 0.000000 0.000000 -0.815853
  8   22.146629 0.000000 0.000000 0.342348 0.202498 0.648193
  9   3.310129 5.734393 0.000000 0.000000 0.000000 1.556767
 10   1.384163 -0.004728 0.109380 0.068055 -0.111552 0.176445
 11   5.939814 -0.004730 0.000000 0.137008 -0.000108 0.000000
 12   5.939809 -0.003975 0.000000 0.000000 0.000000 0.091335
 13   4.991439 -0.003975 0.000000 0.000000 0.000000 0.030442
 14   4.991436 -0.001575 0.000000 0.000000 0.000000 0.000000
 15   0.000005 0.001564 3.638375 -0.000010 -1.284244 3.140806
 16   8.842831 0.000000 -0.000002 0.468193 0.575781 0.080697
 17   9.341934 0.000000 -0.000001 0.000000 0.000000 -1.583968
 18   11.168404 -0.000001 0.000002 -1.877195 0.084124 -0.149635
 19   0.000005 0.001585 -3.638375 -0.000010 1.284244 3.140787
 20   8.842831 0.000000 0.000001 0.416914 -0.800952 -0.785668
 21   9.341937 0.000000 -0.000001 0.000000 0.000000 -1.148237
 22   11.168404 -0.000001 0.000001 1.195435 0.006157 0.339145
 23   1.977383 0.000000 0.000000 0.573926 -0.109139 0.310403
 24   3.723980 2.768054 -0.049087 0.000001 -3.141591 -1.570794
 25   12.421014 0.304721 4.492689 -0.091859 -0.075839 1.616818
 26   19.916998 1.704573 4.956909 2.262592 1.451744 0.734330
time 5
  0   -1.885470 -4.606561 26.062046 -0.108994 -0.049121 -1.867390
  1   -2.721421 -0.546891 9.745319 -0.000032 -1.470208 -1.570770
  2   -0.000008 0.000010 5.615750 -0.213400 3.504018 -0.734619
  3   15.693467 0.000000 0.000000 0.000000 0.000000 -0.644110
  4   22.146629 -0.000001 0.000000 0.172829 -0.088216 -0.195458
  5   3.310129 5.734393 0.000000 0.000000 0.000000 1.570796
  6   0.000008 -0.000006 -5.615750 0.258484 2.920410 -0.080363
  7   15.693467 0.000000 0.000000 0.000000 0.000000 -0.861927
  8   22.146629 0.000000 0.000000 0.356281 0.187086 0.673648
  9   3.310129 5.734393 0.000000 0.000000 0.000000 1.553208
 10   1.380257 -0.004728 0.136725 0.171053 -0.142760 0.195972
 11   5.939814 -0.004730 0.000000 0.169755 -0.000132 0.000000
 12   5.939809 -0.003975 0.000000 0.000000 0.000000 0.113172
 13   4.991439 -0.003975 0.000000 0.000000 0.000000 0.037725
 14   4.991436 -0.001575 0.000000 0.000000 0.000000 0.000000
 15   0.000005 0.001564 3.638375 -0.000010 -1.284244 3.140806
 16   8.842831 0.000000 -0.000002 0.463986 0.730666 0.170352
 17   9.341934 0.000000 -0.000001 0.000000 0.000000 -1.537554
 18   11.168404 -0.000001 0.000002 -1.717895 0.254477 -0.278474
 19   0.000005 0.001585 -3.638375 -0.000010 1.284244 3.140787
 20   8.842831 0.000000 0.000001 0.303555 -0.850615 -0.438251
 21   9.341937 0.000000 -0.000001 0.000000 0.000000 -1.185210
 22   11.168404 -0.000001 0.000001 1.055046 -0.036972 0.275313
 23   1.977383 0.000000 0.000000 0.501980 -0.164470 0.388688
 24   3.723980 2.768054 -0.049087 0.000001 -3.141591 -1.570794
 25   12.421014 0.304721 4.492689 -0.091859 -0.075839 1.616818
 26   19.916998 1.704573 4.956909 2.262592 1.451744 0.734330
time 6
  0   -2.201980 -4.557253 25.826805 -0.128108 -0.055524 -1.838915
  1   -2.893301 -0.730490 9.745319 -0.000032 -1.453283 -1.570770
  2   -0.000008 0.000010 5.615750 -0.215988 3.507468 -0.747617
  3   15.693467 0.000000 0.000000 0.000000 0.000000 -0.643896
  4   22.146629 -0.000001 0.000000 0.183710 -0.078780 -0.213752
  5   3.310129 5.734393 0.000000 0.000000 0.000000 1.570796
  6   0.000008 -0.000006 -5.615750 0.274975 2.930381 -0.087657
  7   15.693467 0.000000 0.000000 0.000000 0.000000 -0.896761
  8   22.146629 0.000000 0.000000 0.367789 0.172657 0.694170
  9   3.310129 5.734393 0.000000 0.000000 0.000000 1.549650
 10   1.376350 -0.004728 0.160163 0.260183 -0.171473 0.212099
 11   5.939814 -0.004730 0.000000 0.198311 -0.000156 0.000000
 12   5.939809 -0.003975 0.000000 0.000000 0.000000 0.132211
 13   4.991439 -0.003975 0.000000 0.000000 0.000000 0.044066
 14   4.991436 -0.001575 0.000000 0.000000 0.000000 0.000000
 15   0.000005 0.001564 3.638375 -0.000010 -1.284244 3.140806
 16   8.842831 0.000000 -0.000002 0.449172 0.861923 0.259036
 17   9.341934 0.000000 -0.000001 0.000000 0.000000 -1.493600
 18   11.168404 -0.000001 0.000002 -1.627357 0.443395 -0.382793
 19   0.000005 0.001585 -3.638375 -0.000010 1.284244 3.140787
 20   8.842831 0.000000 0.000001 0.188422 -0.900633 -0.124098
 21   9.341937 0.000000 -0.000001 0.000000 0.000000 -1.218519
 22   11.168404 -0.000001 0.000001 0.936470 -0.081578 0.224924
 23   1.977383 0.000000 0.000000 0.439973 -0.195462 0.468216
 24   3.723980 2.768054 -0.049087 0.000001 -3.141591 -1.570794
 25   12.421014 0.304721 4.492689 -0.091859 -0.075839 1.616818
 26   19.916998 1.704573 4.956909 2.262592 1.451744 0.734330
time 7
  0   -2.450666 -4.529077 25.630770 -0.143305 -0.060302 -1.816384
  1   -3.014398 -0.890651 9.745319 -0.000032 -1.439913 -1.570770
  2   -0.000008 0.000010 5.615750 -0.218289 3.510438 -0.757365
  3   15.693467 0.000000 0.000000 0.000000 0.000000 -0.642829
  4   22.146629 -0.000001 0.000000 0.192534 -0.071351 -0.228251
  5   3.310129 5.734393 0.000000 0.000000 0.000000 1.570796
  6   0.000008 -0.000006 -5.615750 0.289261 2.939010 -0.092005
  7   15.693467 0.000000 0.000000 0.000000 0.000000 -0.921920
  8   22.146629 0.000000 0.000000 0.376420 0.160807 0.709847
  9   3.310129 5.734393 0.000000 0.000000 0.000000 1.546092
 10   1.376350 -0.004728 0.175789 0.330194 -0.195007 0.224178
 11   5.939814 -0.004730 0.000000 0.220865 -0.000168 0.000000
 12   5.939809 -0.003975 0.000000 0.000000 0.000000 0.147240
 13   4.991439 -0.003975 0.000000 0.000000 0.000000 0.049078
 14   4.991436 -0.001575 0.000000 0.000000 0.000000 0.000000
 15   0.000005 0.001564 3.638375 -0.000010 -1.284244 3.140806
 16   8.842831 0.000000 -0.000002 0.425671 0.961273 0.323161
 17   9.341934 0.000000 -0.000001 0.000000 0.000000 -1.447433
 18   11.168404 -0.000001 0.000002 -1.578173 0.611068 -0.465738
 19   0.000005 0.001585 -3.638375 -0.000010 1.284244 3.140787
 20   8.842831 0.000000 0.000001 0.073853 -0.942064 0.140015
 21   9.341937 0.000000 -0.000001 0.000000 0.000000 -1.246565
 22   11.168404 -0.000001 0.000001 0.846979 -0.120787 0.189013
 23   1.977383 0.000000 0.000000 0.393824 -0.208302 0.536311
 24   3.723980 2.768054 -0.049087 0.000001 -3.141591 -1.570794
 25   12.421014 0.304721 4.492689 -0.091859 -0.075839 1.616818
 26   19.916998 1.704573 4.956909 2.262592 1.451744 0.734330
time 8
  0   -2.616458 -4.507945 25.493547 -0.153375 -0.063169 -1.801619
  1   -3.080806 -1.003936 9.745319 -0.000032 -1.431184 -1.570770
  2   -0.000008 0.000010 5.615750 -0.219439 3.512738 -0.765203
  3   15.693467 0.000000 0.000000 0.000000 0.000000 -0.644039
  4   22.146629 -0.000001 0.000000 0.198405 -0.066472 -0.236986
  5   3.310129 5.734393 0.000000 0.000000 0.000000 1.570796
  6   0.000008 -0.000006 -5.615750 0.299040 2.944571 -0.095091
  7   15.693467 0.000000 0.000000 0.000000 0.000000 -0.938816
  8   22.146629 0.000000 0.000000 0.381891 0.153009 0.720593
  9   3.310129 5.734393 0.000000 0.000000 0.000000 1.542534
 10   1.372444 -0.004728 0.187508 0.375836 -0.210812 0.231756
 11   5.939814 -0.004730 0.000000 0.235605 -0.000180 -0.000019
 12   5.939809 -0.003975 0.000000 0.000000 0.000000 0.157072
 13   4.991439 -0.003975 0.000000 0.000000 0.000000 0.052357
 14   4.991436 -0.001575 0.000000 0.000000 0.000000 0.000000
 15   0.000005 0.001564 3.638375 -0.000010 -1.284244 3.140806
 16   8.842831 0.000000 -0.000002 0.384247 1.025181 0.335030
 17   9.341934 0.000000 -0.000001 0.000000 0.000000 -1.389456
 18   11.168404 -0.000001 0.000002 -1.531185 0.723519 -0.516448
 19   0.000005 0.001585 -3.638375 -0.000010 1.284244 3.140787
 20   8.842831 0.000000 0.000001 -0.018866 -0.967737 0.324351
 21   9.341937 0.000000 -0.000001 0.000000 0.000000 -1.267683
 22   11.168404 -0.000001 0.000001 0.793657 -0.148107 0.167390
 23   1.977383 0.000000 0.000000 0.365966 -0.211304 0.582437
 24   3.723980 2.768054 -0.049087 0.000001 -3.141591 -1.570794
 25   12.421014 0.304721 4.492689 -0.091859 -0.075839 1.616818
 26   19.916998 1.704573 4.956909 2.262592 1.451744 0.734330
time 9
  0   -2.714425 -4.493857 25.434736 -0.158969 -0.065272 -1.792606
  1   -3.115964 -1.074251 9.745319 -0.000032 -1.425889 -1.570770
  2   -0.000008 0.000010 5.615750 -0.221740 3.513121 -0.765680
  3   15.693467 0.000000 0.000000 0.000000 0.000000 -0.639486
  4   22.146629 -0.000001 0.000000 0.201733 -0.063525 -0.243984
  5   3.310129 5.734393 0.000000 0.000000 0.000000 1.570796
  6   0.000008 -0.000006 -5.615750 0.305272 2.948310 -0.094880
  7   15.693467 0.000000 0.000000 0.000000 0.000000 -0.945589
  8   22.146629 0.000000 0.000000 0.385332 0.147974 0.725525
  9   3.310129 5.734393 0.000000 0.000000 0.000000 1.538976
 10   1.372444 -0.004728 0.195320 0.403403 -0.220526 0.236160
 11   5.939814 -0.004730 0.000000 0.244537 -0.000192 -0.000019
 12   5.939809 -0.003975 0.000000 0.000000 0.000000 0.162431
 13   4.991439 -0.003975 0.000000 0.000000 0.000000 0.054342
 14   4.991436 -0.001575 0.000000 0.000000 0.000000 0.000000
 15   0.000005 0.001564 3.638375 -0.000010 -1.284244 3.140806
 16   8.842831 0.000000 -0.000002 0.329838 1.064995 0.301512
 17   9.341934 0.000000 -0.000001 0.000000 0.000000 -1.327790
 18   11.168404 -0.000001 0.000002 -1.478371 0.787736 -0.537037
 19   0.000005 0.001585 -3.638375 -0.000010 1.284244 3.140787
 20   8.842831 0.000000 0.000001 -0.085463 -0.981281 0.441587
 21   9.341937 0.000000 -0.000001 0.000000 0.000000 -1.283804
 22   11.168404 -0.000001 0.000001 0.766996 -0.164633 0.155545
 23   1.977383 0.000000 0.000000 0.350266 -0.211142 0.611415
 24   3.723980 2.768054 -0.049087 0.000001 -3.141591 -1.570794
 25   12.421014 0.304721 4.492689 -0.091859 -0.075839 1.616818
 26   19.916998 1.704573 4.956909 2.262592 1.451744 0.734330
time 10
  0   -2.789785 -4.479769 25.493547 -0.162139 -0.067565 -1.785991
  1   -3.139402 -1.121127 9.745319 -0.000032 -1.422069 -1.570770
  2   -0.000008 0.000010 5.615750 -0.227780 3.510342 -0.754594
  3   15.693467 0.000000 0.000000 0.000000 0.000000 -0.621132
  4   22.146629 -0.000001 0.000000 0.203565 -0.061345 -0.254046
  5   3.310129 5.734393 0.000000 0.000000 0.000000 1.570796
  6   0.000008 -0.000006 -5.615750 0.310545 2.952432 -0.089550
  7   15.693467 0.000000 0.000000 0.000000 0.000000 -0.941272
  8   22.146629 0.000000 0.000000 0.388153 0.143646 0.724556
  9   3.310129 5.734393 0.000000 0.000000 0.000000 1.535418
 10   1.372444 -0.004728 0.203133 0.423363 -0.227557 0.239204
 11   5.939814 -0.004730 0.000000 0.251001 -0.000192 -0.000019
 12   5.939809 -0.003975 0.000000 0.000000 0.000000 0.165142
 13   4.991439 -0.003975 0.000000 0.000000 0.000000 0.055772
 14   4.991436 -0.001575 0.000000 0.000000 0.000000 0.000000
 15   0.000005 0.001564 3.638375 -0.000010 -1.284244 3.140806
 16   8.842831 0.000000 -0.000002 0.282287 1.095042 0.257693
 17   9.341934 0.000000 -0.000001 0.000000 0.000000 -1.280638
 18   11.168404 -0.000001 0.000002 -1.442271 0.833004 -0.548093
 19   0.000005 0.001585 -3.638375 -0.000010 1.284244 3.140787
 20   8.842831 0.000000 0.000001 -0.140369 -0.989249 0.529847
 21   9.341937 0.000000 -0.000001 0.000000 0.000000 -1.297927
 22   11.168404 -0.000001 0.000001 0.751988 -0.175806 0.148307
 23   1.977383 0.000000 0.000000 0.339482 -0.210103 0.633732
 24   3.723980 2.768054 -0.049087 0.000001 -3.141591 -1.570794
 25   12.421014 0.304721 4.492689 -0.091859 -0.075839 1.616818
 26   19.916998 1.704573 4.956909 2.262592 1.451744 0.734330
time 11
  0   -2.835001 -4.472724 25.630770 -0.163351 -0.069954 -1.781581
  1   -3.147215 -1.152378 9.745319 -0.000032 -1.419530 -1.570770
  2   -0.000008 0.000010 5.615750 -0.236791 3.504976 -0.733950
  3   15.693467 0.000000 0.000000 0.000000 0.000000 -0.591326
  4   22.146629 -0.000001 0.000000 0.204201 -0.059859 -0.266669
  5   3.310129 5.734393 0.000000 0.000000 0.000000 1.570796
  6   0.000008 -0.000006 -5.615750 0.314668 2.956555 -0.080293
  7   15.693467 0.000000 0.000000 0.000000 0.000000 -0.928023
  8   22.146629 0.000000 0.000000 0.390409 0.140023 0.718919
  9   3.310129 5.734393 0.000000 0.000000 0.000000 1.531918
 10   1.372444 -0.004728 0.203133 0.436592 -0.232226 0.241082
 11   5.939814 -0.004730 0.000000 0.255281 -0.000192 -0.000019
 12   5.939809 -0.003975 0.000000 0.000000 0.000000 0.165642
 13   4.991439 -0.003975 0.000000 0.000000 0.000000 0.056730
 14   4.991436 -0.001575 0.000000 0.000000 0.000000 0.000000
 15   0.000005 0.001564 3.638375 -0.000010 -1.284244 3.140806
 16   8.842831 0.000000 -0.000002 0.246990 1.117461 0.213350
 17   9.341934 0.000000 -0.000001 0.000000 0.000000 -1.247427
 18   11.168404 -0.000001 0.000002 -1.420496 0.862002 -0.552908
 19   0.000005 0.001585 -3.638375 -0.000010 1.284244 3.140787
 20   8.842831 0.000000 0.000001 -0.181810 -0.992878 0.590180
 21   9.341937 0.000000 -0.000001 0.000000 0.000000 -1.310252
 22   11.168404 -0.000001 0.000001 0.747141 -0.182130 0.144828
 23   1.977383 0.000000 0.000000 0.332715 -0.208994 0.649936
 24   3.723980 2.768054 -0.049087 0.000001 -3.141591 -1.570794
 25   12.421014 0.304721 4.492689 -0.091859 -0.075839 1.616818
 26   19.916998 1.704573 4.956909 2.262592 1.451744 0.734330
time 12
  0   -2.857608 -4.472724 25.826805 -0.162792 -0.072343 -1.779088
  1   -3.151121 -1.164097 9.745319 -0.000032 -1.418128 -1.570770
  2   -0.000008 0.000010 5.615750 -0.247912 3.497310 -0.705755
  3   15.693467 0.000000 0.000000 0.000000 0.000000 -0.551987
  4   22.146629 -0.000001 0.000000 0.203827 -0.058992 -0.281579
  5   3.310129 5.734393 0.000000 0.000000 0.000000 1.570796
  6   0.000008 -0.000006 -5.615750 0.317928 2.960677 -0.068160
  7   15.693467 0.000000 0.000000 0.000000 0.000000 -0.908150
  8   22.146629 0.000000 0.000000 0.392045 0.137229 0.709583
  9   3.310129 5.734393 0.000000 0.000000 0.000000 1.528418
 10   1.372444 -0.004728 0.207040 0.443929 -0.234749 0.242022
 11   5.939814 -0.004730 0.000000 0.257643 -0.000192 -0.000019
 12   5.939809 -0.003975 0.000000 0.000000 0.000000 0.164368
 13   4.991439 -0.003975 0.000000 0.000000 0.000000 0.057252
 14   4.991436 -0.001575 0.000000 0.000000 0.000000 0.000000
 15   0.000005 0.001564 3.638375 -0.000010 -1.284244 3.140806
 16   8.842831 0.000000 -0.000002 0.224403 1.133833 0.173263
 17   9.341934 0.000000 -0.000001 0.000000 0.000000 -1.226024
 18   11.168404 -0.000001 0.000002 -1.410754 0.877793 -0.553743
 19   0.000005 0.001585 -3.638375 -0.000010 1.284244 3.140787
 20   8.842831 0.000000 0.000001 -0.209707 -0.993498 0.624684
 21   9.341937 0.000000 -0.000001 0.000000 0.000000 -1.321044
 22   11.168404 -0.000001 0.000001 0.751056 -0.184280 0.144358
 23   1.977383 0.000000 0.000000 0.329068 -0.208209 0.660623
 24   3.723980 2.768054 -0.049087 0.000001 -3.141591 -1.570794
 25   12.421014 0.304721 4.492689 -0.091859 -0.075839 1.616818
 26   19.916998 1.704573 4.956909 2.262592 1.451744 0.734330
time 13
  0   -2.872680 -4.472724 26.062046 -0.160927 -0.074733 -1.778225
  1   -3.147215 -1.164097 9.745319 -0.000032 -1.417693 -1.570770
  2   -0.000008 0.000010 5.615750 -0.260279 3.487727 -0.671921
  3   15.693467 0.000000 0.000000 0.000000 0.000000 -0.504965
  4   22.146629 -0.000001 0.000000 0.202668 -0.058646 -0.298456
  5   3.310129 5.734393 0.000000 0.000000 0.000000 1.570796
  6   0.000008 -0.000006 -5.615750 0.320229 2.964512 -0.054063
  7   15.693467 0.000000 0.000000 0.000000 0.000000 -0.883587
  8   22.146629 0.000000 0.000000 0.393060 0.135203 0.697781
  9   3.310129 5.734393 0.000000 0.000000 0.000000 1.524976
 10   1.372444 -0.004728 0.207040 0.446252 -0.235473 0.242119
 11   5.939814 -0.004730 0.000000 0.258371 -0.000192 -0.000019
 12   5.939809 -0.003975 0.000000 0.000000 0.000000 0.161744
 13   4.991439 -0.003975 0.000000 0.000000 0.000000 0.057403
 14   4.991436 -0.001575 0.000000 0.000000 0.000000 0.000000
 15   0.000005 0.001564 3.638375 -0.000010 -1.284244 3.140806
 16   8.842831 0.000000 -0.000002 0.212150 1.145833 0.139223
 17   9.341934 0.000000 -0.000001 0.000000 0.000000 -1.213396
 18   11.168404 -0.000001 0.000002 -1.410086 0.883344 -0.552269
 19   0.000005 0.001585 -3.638375 -0.000010 1.284244 3.140787
 20   8.842831 0.000000 0.000001 -0.225187 -0.992170 0.636502
 21   9.341937 0.000000 -0.000001 0.000000 0.000000 -1.330370
 22   11.168404 -0.000001 0.000001 0.762429 -0.183015 0.146332
 23   1.977383 0.000000 0.000000 0.328011 -0.207932 0.666239
 24   3.723980 2.768054 -0.049087 0.000001 -3.141591 -1.570794
 25   12.421014 0.304721 4.492689 -0.091859 -0.075839 1.616818
 26   19.916998 1.704573 4.956909 2.262592 1.451744 0.734330
time 14
  0   -2.865144 -4.472724 26.297285 -0.158130 -0.076739 -1.778704
  1   -3.135496 -1.152378 9.745319 -0.000032 -1.418080 -1.570770
  2   -0.000008 0.000010 5.615750 -0.273221 3.476610 -0.634456
  3   15.693467 0.000000 0.000000 0.000000 0.000000 -0.452466
  4   22.146629 -0.000001 0.000000 0.200985 -0.058745 -0.316797
  5   3.310129 5.734393 0.000000 0.000000 0.000000 1.570796
  6   0.000008 -0.000006 -5.615750 0.321763 2.967868 -0.039125
  7   15.693467 0.000000 0.000000 0.000000 0.000000 -0.856494
  8   22.146629 0.000000 0.000000 0.393512 0.133975 0.684481
  9   3.310129 5.734393 0.000000 0.000000 0.000000 1.521562
 10   1.372444 -0.004728 0.207040 0.444333 -0.234668 0.241601
 11   5.939814 -0.004730 0.000000 0.257732 -0.000192 -0.000019
 12   5.939809 -0.003975 0.000000 0.000000 0.000000 0.158209
 13   4.991439 -0.003975 0.000000 0.000000 0.000000 0.057268
 14   4.991436 -0.001575 0.000000 0.000000 0.000000 0.000000
 15   0.000005 0.001564 3.638375 -0.000010 -1.284244 3.140806
 16   8.842831 0.000000 -0.000002 0.206938 1.154392 0.112274
 17   9.341934 0.000000 -0.000001 0.000000 0.000000 -1.206671
 18   11.168404 -0.000001 0.000002 -1.415243 0.882196 -0.549419
 19   0.000005 0.001585 -3.638375 -0.000010 1.284244 3.140787
 20   8.842831 0.000000 0.000001 -0.230105 -0.989514 0.629354
 21   9.341937 0.000000 -0.000001 0.000000 0.000000 -1.338564
 22   11.168404 -0.000001 0.000001 0.779861 -0.179094 0.150093
 23   1.977383 0.000000 0.000000 0.329068 -0.208094 0.667532
 24   3.723980 2.768054 -0.049087 0.000001 -3.141591 -1.570794
 25   12.421014 0.304721 4.492689 -0.091859 -0.075839 1.616818
 26   19.916998 1.704573 4.956909 2.262592 1.451744 0.734330
time 15
  0   -2.842536 -4.472724 26.552130 -0.154774 -0.078460 -1.780334
  1   -3.123776 -1.132846 9.745319 -0.000032 -1.419095 -1.570770
  2   -0.000008 0.000010 5.615750 -0.285684 3.464823 -0.595939
  3   15.693467 0.000000 0.000000 0.000000 0.000000 -0.397548
  4   22.146629 -0.000001 0.000000 0.199003 -0.059215 -0.335823
  5   3.310129 5.734393 0.000000 0.000000 0.000000 1.570796
  6   0.000008 -0.000006 -5.615750 0.322626 2.970648 -0.024607
  7   15.693467 0.000000 0.000000 0.000000 0.000000 -0.829251
  8   22.146629 0.000000 0.000000 0.393399 0.133545 0.671005
  9   3.310129 5.734393 0.000000 0.000000 0.000000 1.518207
 10   1.372444 -0.004728 0.207040 0.439049 -0.232656 0.240564
 11   5.939814 -0.004730 0.000000 0.256009 -0.000192 -0.000019
 12   5.939809 -0.003975 0.000000 0.000000 0.000000 0.154198
 13   4.991439 -0.003975 0.000000 0.000000 0.000000 0.056882
 14   4.991436 -0.001575 0.000000 0.000000 0.000000 0.000000
 15   0.000005 0.001564 3.638375 -0.000010 -1.284244 3.140806
 16   8.842831 0.000000 -0.000002 0.206023 1.160345 0.094209
 17   9.341934 0.000000 -0.000001 0.000000 0.000000 -1.203637
 18   11.168404 -0.000001 0.000002 -1.422979 0.877315 -0.546225
 19   0.000005 0.001585 -3.638375 -0.000010 1.284244 3.140787
 20   8.842831 0.000000 0.000001 -0.226638 -0.986062 0.607146
 21   9.341937 0.000000 -0.000001 0.000000 0.000000 -1.345692
 22   11.168404 -0.000001 0.000001 0.802233 -0.173361 0.155169
 23   1.977383 0.000000 0.000000 0.331764 -0.208602 0.665046
 24   3.723980 2.768054 -0.049087 0.000001 -3.141591 -1.570794
 25   12.421014 0.304721 4.492689 -0.091859 -0.075839 1.616818
 26   19.916998 1.704573 4.956909 2.262592 1.451744 0.734330
time 16
  0   -2.812392 -4.479769 26.748163 -0.151231 -0.079606 -1.782827
  1   -3.108151 -1.109408 9.745319 -0.000032 -1.420594 -1.570770
  2   -0.000008 0.000010 5.615750 -0.296709 3.453324 -0.559621
  3   15.693467 0.000000 0.000000 0.000000 0.000000 -0.345120
  4   22.146629 -0.000001 0.000000 0.196872 -0.059958 -0.353797
  5   3.310129 5.734393 0.000000 0.000000 0.000000 1.570796
  6   0.000008 -0.000006 -5.615750 0.322818 2.972470 -0.011773
  7   15.693467 0.000000 0.000000 0.000000 0.000000 -0.804540
  8   22.146629 0.000000 0.000000 0.392665 0.133883 0.658674
  9   3.310129 5.734393 0.000000 0.000000 0.000000 1.514880
 10   1.372444 -0.004728 0.203133 0.431240 -0.229784 0.239172
 11   5.939814 -0.004730 0.000000 0.253452 -0.000192 -0.000019
 12   5.939809 -0.003975 0.000000 0.000000 0.000000 0.150151
 13   4.991439 -0.003975 0.000000 0.000000 0.000000 0.056310
 14   4.991436 -0.001575 0.000000 0.000000 0.000000 0.000000
 15   0.000005 0.001564 3.638375 -0.000010 -1.284244 3.140806
 16   8.842831 0.000000 -0.000002 0.208218 1.164531 0.088386
 17   9.341934 0.000000 -0.000001 0.000000 0.000000 -1.202653
 18   11.168404 -0.000001 0.000002 -1.430046 0.872051 -0.543572
 19   0.000005 0.001585 -3.638375 -0.000010 1.284244 3.140787
 20   8.842831 0.000000 0.000001 -0.217044 -0.982255 0.573691
 21   9.341937 0.000000 -0.000001 0.000000 0.000000 -1.352021
 22   11.168404 -0.000001 0.000001 0.827962 -0.166573 0.160998
 23   1.977383 0.000000 0.000000 0.335834 -0.209295 0.659430
 24   3.723980 2.768054 -0.049087 0.000001 -3.141591 -1.570794
 25   12.421014 0.304721 4.492689 -0.091859 -0.075839 1.616818
 26   19.916998 1.704573 4.956909 2.262592 1.451744 0.734330
time 17
  0   -2.782249 -4.479769 26.924595 -0.147874 -0.080180 -1.785895
  1   -3.092525 -1.082063 9.745319 -0.000032 -1.422432 -1.570770
  2   -0.000008 0.000010 5.615750 -0.304761 3.444028 -0.530948
  3   15.693467 0.000000 0.000000 0.000000 0.000000 -0.303291
  4   22.146629 -0.000001 0.000000 0.194890 -0.060899 -0.367793
  5   3.310129 5.734393 0.000000 0.000000 0.000000 1.570796
  6   0.000008 -0.000006 -5.615750 0.322434 2.973237 -0.002165
  7   15.693467 0.000000 0.000000 0.000000 0.000000 -0.785262
  8   22.146629 0.000000 0.000000 0.391481 0.134958 0.648986
  9   3.310129 5.734393 0.000000 0.000000 0.000000 1.511612
 10   1.372444 -0.004728 0.199227 0.421714 -0.226323 0.237553
 11   5.939814 -0.004730 0.000000 0.250362 -0.000192 -0.000019
 12   5.939809 -0.003975 0.000000 0.000000 0.000000 0.146490
 13   4.991439 -0.003975 0.000000 0.000000 0.000000 0.055637
 14   4.991436 -0.001575 0.000000 0.000000 0.000000 0.000000
 15   0.000005 0.001564 3.638375 -0.000010 -1.284244 3.140806
 16   8.842831 0.000000 -0.000002 0.213156 1.167787 0.099434
 17   9.341934 0.000000 -0.000001 0.000000 0.000000 -1.202653
 18   11.168404 -0.000001 0.000002 -1.433102 0.869563 -0.542491
 19   0.000005 0.001585 -3.638375 -0.000010 1.284244 3.140787
 20   8.842831 0.000000 0.000001 -0.203337 -0.978271 0.532897
 21   9.341937 0.000000 -0.000001 0.000000 0.000000 -1.357750
 22   11.168404 -0.000001 0.000001 0.855928 -0.159532 0.167014
 23   1.977383 0.000000 0.000000 0.340803 -0.209987 0.651228
 24   3.723980 2.768054 -0.049087 0.000001 -3.141591 -1.570794
 25   12.421014 0.304721 4.492689 -0.091859 -0.075839 1.616818
 26   19.916998 1.704573 4.956909 2.262592 1.451744 0.734330
time 18
  0   -2.744569 -4.486813 27.003008 -0.145077 -0.079893 -1.789251
  1   -3.076900 -1.054719 9.745319 -0.000032 -1.424438 -1.570770
  2   -0.000008 0.000010 5.615750 -0.308021 3.439620 -0.517376
  3   15.693467 0.000000 0.000000 0.000000 0.000000 -0.284511
  4   22.146629 -0.000001 0.000000 0.193245 -0.061964 -0.373007
  5   3.310129 5.734393 0.000000 0.000000 0.000000 1.570796
  6   0.000008 -0.000006 -5.615750 0.321379 2.972566 0.002464
  7   15.693467 0.000000 0.000000 0.000000 0.000000 -0.774767
  8   22.146629 0.000000 0.000000 0.389789 0.136769 0.643437
  9   3.310129 5.734393 0.000000 0.000000 0.000000 1.508430
 10   1.372444 -0.004728 0.199227 0.411313 -0.222593 0.235869
 11   5.939814 -0.004730 0.000000 0.246988 -0.000192 -0.000019
 12   5.939809 -0.003975 0.000000 0.000000 0.000000 0.143654
 13   4.991439 -0.003975 0.000000 0.000000 0.000000 0.054880
 14   4.991436 -0.001575 0.000000 0.000000 0.000000 0.000000
 15   0.000005 0.001564 3.638375 -0.010556 -1.284244 3.150873
 16   8.842831 0.000000 -0.000002 0.247904 1.160066 0.146912
 17   9.341934 0.000000 -0.000001 0.000000 0.000000 -1.223646
 18   11.168404 -0.000001 0.000002 -1.440934 0.870329 -0.546569
 19   0.000005 0.001585 -3.638375 -0.000010 1.284244 3.140787
 20   8.842831 0.000000 0.000001 -0.187454 -0.974465 0.488386
 21   9.341937 0.000000 -0.000001 0.000000 0.000000 -1.363013
 22   11.168404 -0.000001 0.000001 0.884733 -0.152913 0.172467
 23   1.977383 0.000000 0.000000 0.346407 -0.210565 0.641089
 24   3.723980 2.768054 -0.049087 0.000001 -3.141591 -1.570794
 25   12.421014 0.304721 4.492689 -0.091859 -0.075839 1.616818
 26   19.916998 1.704573 4.956909 2.262592 1.451744 0.734330
time 19
  0   -2.706889 -4.493857 26.983404 -0.143305 -0.078842 -1.792702
  1   -3.065181 -1.027374 9.745319 -0.000032 -1.426421 -1.570770
  2   -0.000008 0.000010 5.615750 -0.304378 3.442591 -0.526169
  3   15.693467 0.000000 0.000000 0.000000 0.000000 -0.300161
  4   22.146629 -0.000001 0.000000 0.192161 -0.063103 -0.365049
  5   3.310129 5.734393 0.000000 0.000000 0.000000 1.570796
  6   0.000008 -0.000006 -5.615750 0.319462 2.970169 0.000430
  7   15.693467 0.000000 0.000000 0.000000 0.000000 -0.776032
  8   22.146629 0.000000 0.000000 0.387871 0.139256 0.643525
  9   3.310129 5.734393 0.000000 0.000000 0.000000 1.505306
 10   1.372444 -0.004728 0.195320 0.400913 -0.218943 0.234250
 11   5.939814 -0.004730 0.000000 0.243632 -0.000192 -0.000019
 12   5.939809 -0.003975 0.000000 0.000000 0.000000 0.142080
 13   4.991439 -0.003975 0.000000 0.000000 0.000000 0.054140
 14   4.991436 -0.001575 0.000000 0.000000 0.000000 0.000000
 15   0.000005 0.001564 3.638375 -0.033757 -1.284099 3.173212
 16   8.842831 0.000000 -0.000002 0.313561 1.134391 0.222756
 17   9.341934 0.000000 -0.000001 0.000000 0.000000 -1.272930
 18   11.168404 -0.000001 0.000002 -1.460512 0.868606 -0.555218
 19   0.000005 0.001585 -3.638375 -0.000010 1.284244 3.140787
 20   8.842831 0.000000 0.000001 -0.170926 -0.971012 0.443493
 21   9.341937 0.000000 -0.000001 0.000000 0.000000 -1.368076
 22   11.168404 -0.000001 0.000001 0.913072 -0.147390 0.176885
 23   1.977383 0.000000 0.000000 0.352116 -0.210957 0.629657
 24   3.723980 2.768054 -0.049087 0.000001 -3.141591 -1.570794
 25   12.421014 0.304721 4.492689 -0.091859 -0.075839 1.616818
 26   19.916998 1.704573 4.956909 2.262592 1.451744 0.734330
time 20
  0   -2.669209 -4.493857 26.846180 -0.142839 -0.076644 -1.795866
  1   -3.057368 -1.007842 9.745319 -0.000032 -1.428259 -1.570770
  2   -0.000008 0.000010 5.615750 -0.293449 3.453132 -0.558665
  3   15.693467 0.000000 0.000000 0.000000 0.000000 -0.351736
  4   22.146629 -0.000001 0.000000 0.191899 -0.064193 -0.343690
  5   3.310129 5.734393 0.000000 0.000000 0.000000 1.570796
  6   0.000008 -0.000006 -5.615750 0.316490 2.966046 -0.009669
  7   15.693467 0.000000 0.000000 0.000000 0.000000 -0.791737
  8   22.146629 0.000000 0.000000 0.384825 0.142541 0.655416
  9   3.310129 5.734393 0.000000 0.000000 0.000000 1.500793
 10   1.372444 -0.004728 0.191414 0.391320 -0.215643 0.232889
 11   5.939814 -0.004730 0.000000 0.240524 -0.000180 -0.000019
 12   5.939809 -0.003975 0.000000 0.000000 0.000000 0.142205
 13   4.991439 -0.003975 0.000000 0.000000 0.000000 0.053451
 14   4.991436 -0.001575 0.000000 0.000000 0.000000 0.000000
 15   0.000005 0.001564 3.638375 -0.057054 -1.283809 3.195455
 16   8.842831 0.000000 -0.000002 0.375286 1.097554 0.293525
 17   9.341934 0.000000 -0.000001 0.000000 0.000000 -1.330250
 18   11.168404 -0.000001 0.000002 -1.485343 0.858653 -0.562343
 19   0.000005 0.001585 -3.638375 -0.000010 1.284244 3.140787
 20   8.842831 0.000000 0.000001 -0.155123 -0.968268 0.401460
 21   9.341937 0.000000 -0.000001 0.000000 0.000000 -1.373072
 22   11.168404 -0.000001 0.000001 0.939453 -0.143596 0.179330
 23   1.977383 0.000000 0.000000 0.357455 -0.211165 0.617479
 24   3.723980 2.768054 -0.049087 0.000001 -3.141591 -1.570794
 25   12.421014 0.304721 4.492689 -0.091859 -0.075839 1.616818
 26   19.916998 1.704573 4.956909 2.262592 1.451744 0.734330
time 21
  0   -2.639066 -4.500901 26.571733 -0.144145 -0.073490 -1.798647
  1   -3.053462 -0.996123 9.745319 -0.000032 -1.429782 -1.570770
  2   -0.000008 0.000010 5.615750 -0.275522 3.469711 -0.611518
  3   15.693467 0.000000 0.000000 0.000000 0.000000 -0.431481
  4   22.146629 -0.000001 0.000000 0.192647 -0.065209 -0.312680
  5   3.310129 5.734393 0.000000 0.000000 0.000000 1.570796
  6   0.000008 -0.000006 -5.615750 0.311888 2.960294 -0.028885
  7   15.693467 0.000000 0.000000 0.000000 0.000000 -0.823743
  8   22.146629 0.000000 0.000000 0.382117 0.145918 0.675585
  9   3.310129 5.734393 0.000000 0.000000 0.000000 1.506000
 10   1.372444 -0.004728 0.191414 0.383376 -0.212986 0.231918
 11   5.939814 -0.004730 0.000000 0.237984 -0.000180 -0.000019
 12   5.939809 -0.003975 0.000000 0.000000 0.000000 0.144454
 13   4.991439 -0.003975 0.000000 0.000000 0.000000 0.052879
 14   4.991436 -0.001575 0.000000 0.000000 0.000000 0.000000
 15   0.000005 0.001564 3.638375 -0.067600 -1.283627 3.205618
 16   8.842831 0.000000 -0.000002 0.413326 1.059321 0.340853
 17   9.341934 0.000000 -0.000001 0.000000 0.000000 -1.378386
 18   11.168404 -0.000001 0.000002 -1.508932 0.834727 -0.561753
 19   0.000005 0.001585 -3.638375 -0.000010 1.284244 3.140787
 20   8.842831 0.000000 0.000001 -0.141175 -0.966586 0.365622
 21   9.341937 0.000000 -0.000001 0.000000 0.000000 -1.378268
 22   11.168404 -0.000001 0.000001 0.962758 -0.142078 0.179048
 23   1.977383 0.000000 0.000000 0.361895 -0.211211 0.605152
 24   3.723980 2.768054 -0.049087 0.000001 -3.141591 -1.570794
 25   12.421014 0.304721 4.492689 -0.091859 -0.075839 1.616818
 26   19.916998 1.704573 4.956909 2.262592 1.451744 0.734330
time 22
  0   -2.623994 -4.500901 26.120855 -0.147501 -0.068999 -1.800564
  1   -3.061275 -0.996123 9.745319 -0.000032 -1.430797 -1.570770
  2   -0.000008 0.000010 5.615750 -0.250884 3.490122 -0.681001
  3   15.693467 0.000000 0.000000 0.000000 0.000000 -0.530788
  4   22.146629 -0.000001 0.000000 0.194703 -0.066001 -0.276137
  5   3.310129 5.734393 0.000000 0.000000 0.000000 1.570796
  6   0.000008 -0.000006 -5.615750 0.306039 2.953774 -0.061217
  7   15.693467 0.000000 0.000000 0.000000 0.000000 -0.869742
  8   22.146629 0.000000 0.000000 0.382568 0.139685 0.713635
  9   3.310129 5.734393 0.000000 0.000000 0.000000 1.523587
 10   1.372444 -0.004728 0.191414 0.377923 -0.211269 0.231465
 11   5.939814 -0.004730 0.000000 0.236244 -0.000180 -0.000019
 12   5.939809 -0.003975 0.000000 0.000000 0.000000 0.149264
 13   4.991439 -0.003975 0.000000 0.000000 0.000000 0.052492
 14   4.991436 -0.001575 0.000000 0.000000 0.000000 0.000000
 15   0.000005 0.001564 3.638375 -0.052836 -1.283881 3.191428
 16   8.842831 0.000000 -0.000002 0.418996 1.031506 0.357127
 17   9.341934 0.000000 -0.000001 0.000000 0.000000 -1.402741
 18   11.168404 -0.000001 0.000002 -1.525359 0.791565 -0.547700
 19   0.000005 0.001585 -3.638375 -0.000010 1.284244 3.140787
 20   8.842831 0.000000 0.000001 -0.130291 -0.966232 0.338839
 21   9.341937 0.000000 -0.000001 0.000000 0.000000 -1.383798
 22   11.168404 -0.000001 0.000001 0.981495 -0.143385 0.175381
 23   1.977383 0.000000 0.000000 0.364908 -0.211234 0.593273
 24   3.723980 2.768054 -0.049087 0.000001 -3.141591 -1.570794
 25   12.421014 0.304721 4.492689 -0.091859 -0.075839 1.616818
 26   19.916998 1.704573 4.956909 2.262592 1.451744 0.734330
time 23
  0   -2.616458 -4.507945 25.493547 -0.153375 -0.063169 -1.801619
  1   -3.080806 -1.003936 9.745319 -0.000032 -1.431184 -1.570770
  2   -0.000008 0.000010 5.615750 -0.219439 3.512738 -0.765203
  3   15.693467 0.000000 0.000000 0.000000 0.000000 -0.644039
  4   22.146629 -0.000001 0.000000 0.198405 -0.066472 -0.236986
  5   3.310129 5.734393 0.000000 0.000000 0.000000 1.570796
  6   0.000008 -0.000006 -5.615750 0.297602 2.945338 -0.095301
  7   15.693467 0.000000 0.000000 0.000000 0.000000 -0.938816
  8   22.146629 0.000000 0.000000 0.382173 0.151259 0.723323
  9   3.310129 5.734393 0.000000 0.000000 0.000000 1.570796
 10   1.372444 -0.004728 0.187508 0.375836 -0.210812 0.231756
 11   5.939814 -0.004730 0.000000 0.235605 -0.000180 -0.000019
 12   5.939809 -0.003975 0.000000 0.000000 0.000000 0.157072
 13   4.991439 -0.003975 0.000000 0.000000 0.000000 0.052357
 14   4.991436 -0.001575 0.000000 0.000000 0.000000 0.000000
 15   0.000005 0.001564 3.638375 -0.000010 -1.284244 3.140806
 16   8.842831 0.000000 -0.000002 0.384247 1.025181 0.335030
 17   9.341934 0.000000 -0.000001 0.000000 0.000000 -1.389456
 18   11.168404 -0.000001 0.000002 -1.531185 0.723519 -0.516448
 19   0.000005 0.001585 -3.638375 -0.000010 1.284244 3.140787
 20   8.842831 0.000000 0.000001 -0.123599 -0.967737 0.324351
 21   9.341937 0.000000 -0.000001 0.000000 0.000000 -1.389860
 22   11.168404 -0.000001 0.000001 0.994359 -0.148107 0.167390
 23   1.977383 0.000000 0.000000 0.365966 -0.211304 0.582437
 24   3.723980 2.768054 -0.049087 0.000001 -3.141591 -1.570794
 25   12.421014 0.304721 4.492689 -0.091859 -0.075839 1.616818
 26   19.916998 1.704573 4.956909 2.262592 1.451744 0.734330
time 24
  0   -2.623994 -4.500901 24.454567 -0.165496 -0.052752 -1.801619
  1   -3.115964 -1.031281 9.745319 -0.000032 -1.430749 -1.570770
  2   -0.000008 0.000010 5.615750 -0.170164 3.541870 -0.888208
  3   15.693467 0.000000 0.000000 0.000000 0.000000 -0.796272
  4   22.146629 -0.000001 0.000000 0.204425 -0.066174 -0.188094
  5   3.310129 5.734393 0.000000 0.000000 0.000000 1.570796
  6   0.000008 -0.000006 -5.615750 0.287056 2.933641 -0.130718
  7   15.693467 0.000000 0.000000 0.000000 0.000000 -1.045105
  8   22.146629 0.000000 0.000000 0.372302 0.196296 0.688885
  9   3.310129 5.734393 0.000000 0.000000 0.000000 1.652717
 10   1.372444 -0.004728 0.191414 0.375803 -0.211671 0.232825
 11   5.939814 -0.004730 0.000000 0.235693 -0.000180 -0.000019
 12   5.939809 -0.003975 0.000000 0.000000 0.000000 0.171151
 13   4.991439 -0.003975 0.000000 0.000000 0.000000 0.052374
 14   4.991436 -0.001575 0.000000 0.000000 0.000000 0.000000
 15   0.000005 0.001564 3.638375 0.088864 -1.283192 3.055572
 16   8.842831 0.000000 -0.000002 0.302771 1.037460 0.268815
 17   9.341934 0.000000 -0.000001 0.000000 0.000000 -1.341156
 18   11.168404 -0.000001 0.000002 -1.531758 0.630974 -0.470455
 19   0.000005 0.001585 -3.638375 -0.000010 1.284244 3.140787
 20   8.842831 0.000000 0.000001 -0.114407 -0.971632 0.313676
 21   9.341937 0.000000 -0.000001 0.000000 0.000000 -1.396055
 22   11.168404 -0.000001 0.000001 1.003029 -0.157255 0.152913
 23   1.977383 0.000000 0.000000 0.365966 -0.212458 0.568917
 24   3.723980 2.768054 -0.049087 0.000001 -3.141591 -1.570794
 25   12.421014 0.304721 4.492689 -0.091859 -0.075839 1.616818
 26   19.916998 1.704573 4.956909 2.262592 1.451744 0.734330
time 25
  0   -2.646601 -4.500901 22.905899 -0.185728 -0.035933 -1.801331
  1   -3.174559 -1.070344 9.745319 -0.000032 -1.429661 -1.570770
  2   -0.000008 0.000010 5.615750 -0.097688 3.572727 -1.055846
  3   15.693467 0.000000 0.000000 0.000000 0.000000 -0.983719
  4   22.146629 -0.000001 0.000000 0.213175 -0.064689 -0.133988
  5   3.310129 5.734393 0.000000 0.000000 0.000000 1.570796
  6   0.000008 -0.000006 -5.615750 0.276797 2.919835 -0.174130
  7   15.693467 0.000000 0.000000 0.000000 0.000000 -1.176925
  8   22.146629 0.000000 0.000000 0.348553 0.251311 0.655856
  9   3.310129 5.734393 0.000000 0.000000 0.000000 1.744531
 10   1.372444 -0.004728 0.191414 0.375904 -0.213442 0.234573
 11   5.939814 -0.004730 0.000000 0.235907 -0.000180 -0.000019
 12   5.939809 -0.003975 0.000000 0.000000 0.000000 0.193051
 13   4.991439 -0.003975 0.000000 0.000000 0.000000 0.052425
 14   4.991436 -0.001575 0.000000 0.000000 0.000000 0.000000
 15   0.000005 0.001564 3.638375 0.197968 -1.278875 2.951068
 16   8.842831 0.000000 -0.000002 0.177950 1.053553 0.161692
 17   9.341934 0.000000 -0.000001 0.000000 0.000000 -1.271864
 18   11.168404 -0.000001 0.000002 -1.535291 0.520915 -0.416453
 19   0.000005 0.001585 -3.638375 -0.000010 1.284244 3.140787
 20   8.842831 0.000000 0.000001 -0.096670 -0.977652 0.297187
 21   9.341937 0.000000 -0.000001 0.000000 0.000000 -1.401984
 22   11.168404 -0.000001 0.000001 1.010393 -0.170620 0.131479
 23   1.977383 0.000000 0.000000 0.366283 -0.215530 0.549781
 24   3.723980 2.768054 -0.049087 0.000001 -3.141591 -1.570794
 25   12.421014 0.304721 4.492689 -0.091859 -0.075839 1.616818
 26   19.916998 1.704573 4.956909 2.262592 1.451744 0.734330
time 26
  0   -2.669209 -4.500901 20.945559 -0.211182 -0.014717 -1.801331
  1   -3.240968 -1.121127 9.745319 -0.000032 -1.428283 -1.570770
  2   -0.000008 0.000010 5.615750 -0.008052 3.594385 -1.250342
  3   15.693467 0.000000 0.000000 0.000000 0.000000 -1.178706
  4   22.146629 -0.000001 0.000000 0.224505 -0.061890 -0.086788
  5   3.310129 5.734393 0.000000 0.000000 0.000000 1.570796
  6   0.000008 -0.000006 -5.615750 0.267209 2.904399 -0.212704
  7   15.693467 0.000000 0.000000 0.000000 0.000000 -1.314401
  8   22.146629 0.000000 0.000000 0.306980 0.312281 0.618952
  9   3.310129 5.734393 0.000000 0.000000 0.000000 1.842391
 10   1.372444 -0.004728 0.191414 0.376038 -0.215723 0.236808
 11   5.939814 -0.004730 0.000000 0.236191 -0.000180 -0.000019
 12   5.939809 -0.003975 0.000000 0.000000 0.000000 0.220610
 13   4.991439 -0.003975 0.000000 0.000000 0.000000 0.052475
 14   4.991436 -0.001575 0.000000 0.000000 0.000000 0.000000
 15   0.000005 0.001564 3.638375 0.318192 -1.269987 2.836016
 16   8.842831 0.000000 -0.000002 0.011979 1.063414 0.015229
 17   9.341934 0.000000 -0.000001 0.000000 0.000000 -1.183300
 18   11.168404 -0.000001 0.000002 -1.544651 0.398128 -0.357930
 19   0.000005 0.001585 -3.638375 -0.000010 1.284244 3.140787
 20   8.842831 0.000000 0.000001 -0.072160 -0.985088 0.276027
 21   9.341937 0.000000 -0.000001 0.000000 0.000000 -1.407380
 22   11.168404 -0.000001 0.000001 1.016732 -0.187231 0.104592
 23   1.977383 0.000000 0.000000 0.366970 -0.220218 0.526768
 24   3.723980 2.768054 -0.049087 0.000001 -3.141591 -1.570794
 25   12.421014 0.304721 4.492689 -0.091859 -0.075839 1.616818
 26   19.916998 1.704573 4.956909 2.262592 1.451744 0.734330
time 27
  0   -2.699353 -4.493857 18.730375 -0.239433 0.008792 -1.802194
  1   -3.319095 -1.179723 9.745319 -0.000032 -1.426880 -1.570770
  2   -0.000008 0.000010 5.615750 0.091267 3.600230 -1.459460
  3   15.693467 0.000000 0.000000 0.000000 0.000000 -1.367931
  4   22.146629 -0.000001 0.000000 0.238041 -0.057581 -0.052714
  5   3.310129 5.734393 0.000000 0.000000 0.000000 1.570796
  6   0.000008 -0.000006 -5.615750 0.257621 2.887046 -0.237811
  7   15.693467 0.000000 0.000000 0.000000 0.000000 -1.444435
  8   22.146629 0.000000 0.000000 0.245268 0.374265 0.575441
  9   3.310129 5.734393 0.000000 0.000000 0.000000 1.942362
 10   1.372444 -0.004728 0.195320 0.376139 -0.218111 0.239269
 11   5.939814 -0.004730 0.000000 0.236475 -0.000180 -0.000019
 12   5.939809 -0.003975 0.000000 0.000000 0.000000 0.251667
 13   4.991439 -0.003975 0.000000 0.000000 0.000000 0.052542
 14   4.991436 -0.001575 0.000000 0.000000 0.000000 0.000000
 15   0.000005 0.001564 3.638375 0.439759 -1.255983 2.720103
 16   8.842831 0.000000 -0.000002 -0.183254 1.056995 -0.160050
 17   9.341934 0.000000 -0.000001 0.000000 0.000000 -1.076532
 18   11.168404 -0.000001 0.000002 -1.560982 0.267301 -0.296753
 19   0.000005 0.001585 -3.638375 -0.000010 1.284244 3.140787
 20   8.842831 0.000000 0.000001 -0.043135 -0.993232 0.251437
 21   9.341937 0.000000 -0.000001 0.000000 0.000000 -1.412377
 22   11.168404 -0.000001 0.000001 1.022512 -0.205993 0.073757
 23   1.977383 0.000000 0.000000 0.368027 -0.226291 0.501717
 24   3.723980 2.768054 -0.049087 0.000001 -3.141591 -1.570794
 25   12.421014 0.304721 4.492689 -0.091859 -0.075839 1.616818
 26   19.916998 1.704573 4.956909 2.262592 1.451744 0.734330
time 28
  0   -2.714425 -4.493857 16.377968 -0.267684 0.032875 -1.804399
  1   -3.397222 -1.238318 9.745319 -0.000032 -1.425792 -1.570770
  2   -0.000008 0.000010 5.615750 -2.949647 5.837558 1.469152
  3   15.693467 0.000000 0.000000 0.000000 0.000000 -1.543996
  4   22.146629 -0.000001 0.000000 0.253223 -0.051736 -0.035289
  5   3.310129 5.734393 0.000000 0.000000 0.000000 1.570796
  6   0.000008 -0.000006 -5.615750 0.246212 2.867584 -0.244824
  7   15.693467 0.000000 0.000000 0.000000 0.000000 -1.558614
  8   22.146629 0.000000 0.000000 0.163756 0.432165 0.524797
  9   3.310129 5.734393 0.000000 0.000000 0.000000 2.040598
 10   1.372444 -0.004728 0.195320 0.376038 -0.220178 0.241795
 11   5.939814 -0.004730 0.000000 0.236688 -0.000180 -0.000019
 12   5.939809 -0.003975 0.000000 0.000000 0.000000 0.284073
 13   4.991439 -0.003975 0.000000 0.000000 0.000000 0.052593
 14   4.991436 -0.001575 0.000000 0.000000 0.000000 0.000000
 15   0.000005 0.001564 3.638375 0.554327 -1.237191 2.611475
 16   8.842831 0.000000 -0.000002 -0.385162 1.026855 -0.342868
 17   9.341934 0.000000 -0.000001 0.000000 0.000000 -0.951641
 18   11.168404 -0.000001 0.000002 -1.584762 0.133412 -0.234054
 19   0.000005 0.001585 -3.638375 -0.000010 1.284244 3.140787
 20   8.842831 0.000000 0.000001 -0.011691 -1.001377 0.224844
 21   9.341937 0.000000 -0.000001 0.000000 0.000000 -1.416707
 22   11.168404 -0.000001 0.000001 1.028105 -0.225892 0.040666
 23   1.977383 0.000000 0.000000 0.369507 -0.233473 0.476367
 24   3.723980 2.768054 -0.049087 0.000001 -3.141591 -1.570794
 25   12.421014 0.304721 4.492689 -0.091859 -0.075839 1.616818
 26   19.916998 1.704573 4.956909 2.262592 1.451744 0.734330
time 29
  0   -2.721961 -4.493857 14.005958 -0.293417 0.055142 -1.807947
  1   -3.471443 -1.293007 9.745319 -0.000032 -1.425357 -1.570770
  2   -0.000008 0.000010 5.615750 -2.856848 5.868702 1.263379
  3   15.693467 0.000000 0.000000 0.000000 0.000000 -1.701707
  4   22.146629 -0.000001 0.000000 0.268965 -0.044579 -0.036020
  5   3.310129 5.734393 0.000000 0.000000 0.000000 1.570796
  6   0.000008 -0.000006 -5.615750 0.231447 2.846779 -0.233112
  7   15.693467 0.000000 0.000000 0.000000 0.000000 -1.652250
  8   22.146629 0.000000 0.000000 0.067240 0.481654 0.469132
  9   3.310129 5.734393 0.000000 0.000000 0.000000 2.133222
 10   1.372444 -0.004728 0.195320 0.375702 -0.221519 0.244159
 11   5.939814 -0.004730 0.000000 0.236777 -0.000180 -0.000019
 12   5.939809 -0.003975 0.000000 0.000000 0.000000 0.315655
 13   4.991439 -0.003975 0.000000 0.000000 0.000000 0.052610
 14   4.991436 -0.001575 0.000000 0.000000 0.000000 0.000000
 15   0.000005 0.001564 3.638375 0.656336 -1.214735 2.515503
 16   8.842831 0.000000 -0.000002 -0.569878 0.971134 -0.510757
 17   9.341934 0.000000 -0.000001 0.000000 0.000000 -0.807480
 18   11.168404 -0.000001 0.000002 -1.615801 0.001532 -0.170813
 19   0.000005 0.001585 -3.638375 -0.000010 1.284244 3.140787
 20   8.842831 0.000000 0.000001 0.019673 -1.008813 0.197870
 21   9.341937 0.000000 -0.000001 0.000000 0.000000 -1.420504
 22   11.168404 -0.000001 0.000001 1.033698 -0.245876 0.006917
 23   1.977383 0.000000 0.000000 0.371463 -0.241533 0.452459
 24   3.723980 2.768054 -0.049087 0.000001 -3.141591 -1.570794
 25   12.421014 0.304721 4.492689 -0.091859 -0.075839 1.616818
 26   19.916998 1.704573 4.956909 2.262592 1.451744 0.734330
time 30
  0   -2.714425 -4.493857 11.731964 -0.313836 0.073777 -1.812836
  1   -3.537852 -1.339884 9.745319 -0.000032 -1.425889 -1.570770
  2   -0.000008 0.000010 5.615750 -2.779003 5.913359 1.075191
  3   15.693467 0.000000 0.000000 0.000000 0.000000 -1.837010
  4   22.146629 -0.000001 0.000000 0.283885 -0.036926 -0.054178
  5   3.310129 5.734393 0.000000 0.000000 0.000000 1.570796
  6   0.000008 -0.000006 -5.615750 0.212080 2.825975 -0.205971
  7   15.693467 0.000000 0.000000 0.000000 0.000000 -1.724301
  8   22.146629 0.000000 0.000000 -0.034861 0.520582 0.413996
  9   3.310129 5.734393 0.000000 0.000000 0.000000 2.216358
 10   1.372444 -0.004728 0.195320 0.375029 -0.221734 0.246199
 11   5.939814 -0.004730 0.000000 0.236670 -0.000180 -0.000019
 12   5.939809 -0.003975 0.000000 0.000000 0.000000 0.344276
 13   4.991439 -0.003975 0.000000 0.000000 0.000000 0.052593
 14   4.991436 -0.001575 0.000000 0.000000 0.000000 0.000000
 15   0.000005 0.001564 3.638375 0.743005 -1.190175 2.434584
 16   8.842831 0.000000 -0.000002 -0.724419 0.891319 -0.652667
 17   9.341934 0.000000 -0.000001 0.000000 0.000000 -0.639783
 18   11.168404 -0.000001 0.000002 -1.653143 -0.123935 -0.108114
 19   0.000005 0.001585 -3.638375 -0.000010 1.284244 3.140787
 20   8.842831 0.000000 0.000001 0.048617 -1.014833 0.172422
 21   9.341937 0.000000 -0.000001 0.000000 0.000000 -1.423502
 22   11.168404 -0.000001 0.000001 1.039291 -0.265017 -0.025892
 23   1.977383 0.000000 0.000000 0.373948 -0.250193 0.431782
 24   3.723980 2.768054 -0.049087 0.000001 -3.141591 -1.570794
 25   12.421014 0.304721 4.492689 -0.091859 -0.075839 1.616818
 26   19.916998 1.704573 4.956909 2.262592 1.451744 0.734330
time 31
  0   -2.684281 -4.500901 9.693212 -0.326330 0.086678 -1.818781
  1   -3.592541 -1.375041 9.745319 -0.000032 -1.427727 -1.570770
  2   -0.000008 0.000010 5.615750 -2.719757 5.963765 0.914434
  3   15.693467 0.000000 0.000000 0.000000 0.000000 -1.946419
  4   22.146629 -0.000001 0.000000 0.296336 -0.030437 -0.086102
  5   3.310129 5.734393 0.000000 0.000000 0.000000 1.570796
  6   0.000008 -0.000006 -5.615750 0.188303 2.806512 -0.170273
  7   15.693467 0.000000 0.000000 0.000000 0.000000 -1.777296
  8   22.146629 0.000000 0.000000 -0.130024 0.549931 0.367050
  9   3.310129 5.734393 0.000000 0.000000 0.000000 2.286159
 10   1.372444 -0.004728 0.195320 0.373918 -0.220446 0.247656
 11   5.939814 -0.004730 0.000000 0.236297 -0.000180 -0.000019
 12   5.939809 -0.003975 0.000000 0.000000 0.000000 0.367763
 13   4.991439 -0.003975 0.000000 0.000000 0.000000 0.052509
 14   4.991436 -0.001575 0.000000 0.000000 0.000000 0.000000
 15   0.000005 0.001564 3.638375 0.813855 -1.165469 2.369197
 16   8.842831 0.000000 -0.000002 -0.849605 0.787039 -0.773078
 17   9.341934 0.000000 -0.000001 0.000000 0.000000 -0.434119
 18   11.168404 -0.000001 0.000002 -1.694878 -0.238396 -0.048117
 19   0.000005 0.001585 -3.638375 -0.000010 1.284244 3.140787
 20   8.842831 0.000000 0.000001 0.072321 -1.018994 0.150500
 21   9.341937 0.000000 -0.000001 0.000000 0.000000 -1.425767
 22   11.168404 -0.000001 0.000001 1.044978 -0.282218 -0.055881
 23   1.977383 0.000000 0.000000 0.377014 -0.259245 0.416075
 24   3.723980 2.768054 -0.049087 0.000001 -3.141591 -1.570794
 25   12.421014 0.304721 4.492689 -0.091859 -0.075839 1.616818
 26   19.916998 1.704573 4.956909 2.262592 1.451744 0.734330
time 32
  0   -2.616458 -4.507945 7.987716 -0.328195 0.092030 -1.825588
  1   -3.627698 -1.398479 9.745319 -0.000032 -1.431184 -1.570770
  2   -0.000008 0.000010 5.615750 -2.679685 6.010242 0.791524
  3   15.693467 0.000000 0.000000 0.000000 0.000000 -2.026947
  4   22.146629 -0.000001 0.000000 0.304824 -0.027837 -0.124703
  5   3.310129 5.734393 0.000000 0.000000 0.000000 1.570796
  6   0.000008 -0.000006 -5.615750 0.160498 2.789734 -0.135066
  7   15.693467 0.000000 0.000000 0.000000 0.000000 -1.817192
  8   22.146629 0.000000 0.000000 -0.204653 0.573601 0.337016
  9   3.310129 5.734393 0.000000 0.000000 0.000000 2.338719
 10   1.372444 -0.004728 0.187508 0.372302 -0.217199 0.248369
 11   5.939814 -0.004730 0.000000 0.235605 -0.000180 -0.000019
 12   5.939809 -0.003975 0.000000 0.000000 0.000000 0.383966
 13   4.991439 -0.003975 0.000000 0.000000 0.000000 0.052357
 14   4.991436 -0.001575 0.000000 0.000000 0.000000 0.000000
 15   0.000005 0.001564 3.638375 0.869270 -1.142469 2.318478
 16   8.842831 0.000000 -0.000002 -0.986131 0.578943 -0.944251
 17   9.341934 0.000000 -0.000001 0.000000 0.000000 -0.002536
 18   11.168404 -0.000001 0.000002 -1.738142 -0.338024 0.005935
 19   0.000005 0.001585 -3.638375 -0.000010 1.284244 3.140787
 20   8.842831 0.000000 0.000001 0.088043 -1.020676 0.134392
 21   9.341937 0.000000 -0.000001 0.000000 0.000000 -1.427166
 22   11.168404 -0.000001 0.000001 1.050385 -0.296595 -0.081357
 23   1.977383 0.000000 0.000000 0.380714 -0.268413 0.407079
 24   3.723980 2.768054 -0.049087 0.000001 -3.141591 -1.570794
 25   12.421014 0.304721 4.492689 -0.091859 -0.075839 1.616818
 26   19.916998 1.704573 4.956909 2.262592 1.451744 0.734330
time 33
  0   -2.533562 -4.522033 7.183977 -0.322973 0.092317 -1.832875
  1   -3.651136 -1.414105 9.745319 -0.000032 -1.435681 -1.570770
  2   -0.000008 0.000010 5.615750 -2.661566 6.032763 0.738958
  3   15.693467 0.000000 0.000000 0.000000 0.000000 -2.061804
  4   22.146629 -0.000001 0.000000 0.308339 -0.030586 -0.145559
  5   3.310129 5.734393 0.000000 0.000000 0.000000 1.570796
  6   0.000008 -0.000006 -5.615750 0.140652 2.780818 -0.111993
  7   15.693467 0.000000 0.000000 0.000000 0.000000 -1.831632
  8   22.146629 0.000000 0.000000 -0.254745 0.585267 0.301345
  9   3.310129 5.734393 0.000000 0.000000 0.000000 2.375745
 10   1.376350 -0.004728 0.183601 0.372571 -0.213013 0.248822
 11   5.939814 -0.004730 0.000000 0.235392 -0.000180 -0.000019
 12   5.939809 -0.003975 0.000000 0.000000 0.000000 0.394497
 13   4.991439 -0.003975 0.000000 0.000000 0.000000 0.052307
 14   4.991436 -0.001575 0.000000 0.000000 0.000000 0.000000
 15   0.000005 0.001564 3.638375 0.881158 -1.137064 2.307644
 16   8.842831 0.000000 -0.000002 -0.992166 0.567222 -0.943504
 17   9.341934 0.000000 -0.000001 0.000000 0.000000 -0.002372
 18   11.168404 -0.000001 0.000002 -1.726395 -0.370946 -0.046790
 19   0.000005 0.001585 -3.638375 -0.000010 1.284244 3.140787
 20   8.842831 0.000000 0.000001 0.103039 -1.021827 0.119332
 21   9.341937 0.000000 -0.000001 0.000000 0.000000 -1.427632
 22   11.168404 -0.000001 0.000001 1.055418 -0.307135 -0.100535
 23   1.977383 0.000000 0.000000 0.382670 -0.274602 0.402407
 24   3.723980 2.768054 -0.049087 0.000001 -3.141591 -1.570794
 25   12.421014 0.304721 4.492689 -0.091859 -0.075839 1.616818
 26   19.916998 1.704573 4.956909 2.262592 1.451744 0.734330
time 34
  0   -2.443130 -4.529077 7.242787 -0.316260 0.091743 -1.840353
  1   -3.666762 -1.433637 9.745319 -0.000032 -1.440469 -1.570770
  2   -0.000008 0.000010 5.615750 -2.658689 6.030846 0.746509
  3   15.693467 0.000000 0.000000 0.000000 0.000000 -2.060025
  4   22.146629 -0.000001 0.000000 0.308152 -0.036876 -0.141443
  5   3.310129 5.734393 0.000000 0.000000 0.000000 1.570796
  6   0.000008 -0.000006 -5.615750 0.131831 2.779188 -0.105190
  7   15.693467 0.000000 0.000000 0.000000 0.000000 -1.824263
  8   22.146629 0.000000 0.000000 -0.288308 0.585420 0.250612
  9   3.310129 5.734393 0.000000 0.000000 0.000000 2.401895
 10   1.376350 -0.004728 0.175789 0.376005 -0.208961 0.249437
 11   5.939814 -0.004730 0.000000 0.236120 -0.000180 -0.000019
 12   5.939809 -0.003975 0.000000 0.000000 0.000000 0.402330
 13   4.991439 -0.003975 0.000000 0.000000 0.000000 0.052458
 14   4.991436 -0.001575 0.000000 0.000000 0.000000 0.000000
 15   0.000005 0.001564 3.638375 0.869270 -1.142469 2.318478
 16   8.842831 0.000000 -0.000002 -0.991435 0.560618 -0.954403
 17   9.341934 0.000000 -0.000001 0.000000 0.000000 -0.002700
 18   11.168404 -0.000001 0.000002 -1.691154 -0.357069 -0.131798
 19   0.000005 0.001585 -3.638375 -0.000010 1.284244 3.140787
 20   8.842831 0.000000 0.000001 0.115214 -1.024836 0.110754
 21   9.341937 0.000000 -0.000001 0.000000 0.000000 -1.428165
 22   11.168404 -0.000001 0.000001 1.055978 -0.316663 -0.115483
 23   1.977383 0.000000 0.000000 0.381560 -0.275803 0.398331
 24   3.723980 2.768054 -0.049087 0.000001 -3.141591 -1.570794
 25   12.421014 0.304721 4.492689 -0.091859 -0.075839 1.616818
 26   19.916998 1.704573 4.956909 2.262592 1.451744 0.734330
time 35
  0   -2.345163 -4.543165 7.380011 -0.308055 0.090214 -1.848023
  1   -3.678481 -1.449262 9.745319 -0.000032 -1.445522 -1.570770
  2   -0.000008 0.000010 5.615750 -2.657731 6.026150 0.761705
  3   15.693467 0.000000 0.000000 0.000000 0.000000 -2.054334
  4   22.146629 -0.000001 0.000000 0.307143 -0.044281 -0.134811
  5   3.310129 5.734393 0.000000 0.000000 0.000000 1.570796
  6   0.000008 -0.000006 -5.615750 0.121573 2.778805 -0.107013
  7   15.693467 0.000000 0.000000 0.000000 0.000000 -1.820244
  8   22.146629 0.000000 0.000000 -0.312282 0.589933 0.211330
  9   3.310129 5.734393 0.000000 0.000000 0.000000 2.417863
 10   1.376350 -0.004728 0.167976 0.380751 -0.204775 0.249988
 11   5.939814 -0.004730 0.000000 0.237221 -0.000180 -0.000019
 12   5.939809 -0.003975 0.000000 0.000000 0.000000 0.407327
 13   4.991439 -0.003975 0.000000 0.000000 0.000000 0.052711
 14   4.991436 -0.001575 0.000000 0.000000 0.000000 0.000000
 15   0.000005 0.001564 3.638375 0.871187 -1.141598 2.316753
 16   8.842831 0.000000 -0.000002 -0.992258 0.557362 -0.956344
 17   9.341934 0.000000 -0.000001 0.000000 0.000000 -0.002372
 18   11.168404 -0.000001 0.000002 -1.684182 -0.362045 -0.145655
 19   0.000005 0.001585 -3.638375 -0.000010 1.284244 3.140787
 20   8.842831 0.000000 0.000001 0.117149 -1.028997 0.115139
 21   9.341937 0.000000 -0.000001 0.000000 0.000000 -1.429098
 22   11.168404 -0.000001 0.000001 1.050571 -0.327372 -0.128456
 23   1.977383 0.000000 0.000000 0.378758 -0.273425 0.394504
 24   3.723980 2.768054 -0.049087 0.000001 -3.141591 -1.570794
 25   12.421014 0.304721 4.492689 -0.091859 -0.075839 1.616818
 26   19.916998 1.704573 4.956909 2.262592 1.451744 0.734330
time 36
  0   -2.247196 -4.557253 7.183977 -0.298545 0.087921 -1.855885
  1   -3.686294 -1.460981 9.745319 -0.000032 -1.450793 -1.570770
  2   -0.000008 0.000010 5.615750 -2.651212 6.030463 0.755493
  3   15.693467 0.000000 0.000000 0.000000 0.000000 -2.062444
  4   22.146629 -0.000001 0.000000 0.307330 -0.051464 -0.138241
  5   3.310129 5.734393 0.000000 0.000000 0.000000 1.570796
  6   0.000008 -0.000006 -5.615750 0.103548 2.775928 -0.111993
  7   15.693467 0.000000 0.000000 0.000000 0.000000 -1.831855
  8   22.146629 0.000000 0.000000 -0.332195 0.606419 0.196797
  9   3.310129 5.734393 0.000000 0.000000 0.000000 2.424371
 10   1.376350 -0.004728 0.160163 0.384992 -0.200186 0.250215
 11   5.939814 -0.004730 0.000000 0.238109 -0.000180 -0.000019
 12   5.939809 -0.003975 0.000000 0.000000 0.000000 0.409351
 13   4.991439 -0.003975 0.000000 0.000000 0.000000 0.052912
 14   4.991436 -0.001575 0.000000 0.000000 0.000000 0.000000
 15   0.000005 0.001564 3.638375 0.875693 -1.139603 2.312630
 16   8.842831 0.000000 -0.000002 -0.995367 0.560245 -0.952313
 17   9.341934 0.000000 -0.000001 0.000000 0.000000 -0.002372
 18   11.168404 -0.000001 0.000002 -1.675587 -0.371041 -0.156170
 19   0.000005 0.001585 -3.638375 -0.000010 1.284244 3.140787
 20   8.842831 0.000000 0.000001 0.114327 -1.032361 0.123621
 21   9.341937 0.000000 -0.000001 0.000000 0.000000 -1.429497
 22   11.168404 -0.000001 0.000001 1.041902 -0.337364 -0.138139
 23   1.977383 0.000000 0.000000 0.375798 -0.268991 0.390477
 24   3.723980 2.768054 -0.049087 0.000001 -3.141591 -1.570794
 25   12.421014 0.304721 4.492689 -0.091859 -0.075839 1.616818
 26   19.916998 1.704573 4.956909 2.262592 1.451744 0.734330
time 37
  0   -2.141692 -4.571341 6.850719 -0.287730 0.084958 -1.863843
  1   -3.682387 -1.460981 9.745319 -0.000032 -1.456306 -1.570770
  2   -0.000008 0.000010 5.615750 -2.642871 6.038512 0.741443
  3   15.693467 0.000000 0.000000 0.000000 0.000000 -2.076102
  4   22.146629 -0.000001 0.000000 0.307853 -0.058869 -0.145788
  5   3.310129 5.734393 0.000000 0.000000 0.000000 1.570796
  6   0.000008 -0.000006 -5.615750 0.081208 2.772190 -0.121250
  7   15.693467 0.000000 0.000000 0.000000 0.000000 -1.851803
  8   22.146629 0.000000 0.000000 -0.345676 0.630212 0.199880
  9   3.310129 5.734393 0.000000 0.000000 0.000000 2.422086
 10   1.380257 -0.004728 0.156257 0.386843 -0.194900 0.249923
 11   5.939814 -0.004730 0.000000 0.238251 -0.000180 -0.000019
 12   5.939809 -0.003975 0.000000 0.000000 0.000000 0.408264
 13   4.991439 -0.003975 0.000000 0.000000 0.000000 0.052946
 14   4.991436 -0.001575 0.000000 0.000000 0.000000 0.000000
 15   0.000005 0.001564 3.638375 0.880775 -1.137281 2.308124
 16   8.842831 0.000000 -0.000002 -1.000122 0.567222 -0.944101
 17   9.341934 0.000000 -0.000001 0.000000 0.000000 -0.002372
 18   11.168404 -0.000001 0.000002 -1.667564 -0.380803 -0.162558
 19   0.000005 0.001585 -3.638375 -0.000010 1.284244 3.140787
 20   8.842831 0.000000 0.000001 0.112634 -1.032715 0.127053
 21   9.341937 0.000000 -0.000001 0.000000 0.000000 -1.428432
 22   11.168404 -0.000001 0.000001 1.033046 -0.344657 -0.143591
 23   1.977383 0.000000 0.000000 0.374106 -0.263933 0.385905
 24   3.723980 2.768054 -0.049087 0.000001 -3.141591 -1.570794
 25   12.421014 0.304721 4.492689 -0.091859 -0.075839 1.616818
 26   19.916998 1.704573 4.956909 2.262592 1.451744 0.734330
time 38
  0   -2.036189 -4.585429 6.556668 -0.275795 0.081327 -1.872088
  1   -3.670668 -1.441449 9.745319 -0.000032 -1.462012 -1.570770
  2   -0.000008 0.000010 5.615750 -2.635681 6.045891 0.730261
  3   15.693467 0.000000 0.000000 0.000000 0.000000 -2.088836
  4   22.146629 -0.000001 0.000000 0.307704 -0.066744 -0.152511
  5   3.310129 5.734393 0.000000 0.000000 0.000000 1.570796
  6   0.000008 -0.000006 -5.615750 0.057143 2.768834 -0.135908
  7   15.693467 0.000000 0.000000 0.000000 0.000000 -1.874579
  8   22.146629 0.000000 0.000000 -0.349794 0.657289 0.215557
  9   3.310129 5.734393 0.000000 0.000000 0.000000 2.411701
 10   1.380257 -0.004728 0.148444 0.384487 -0.188647 0.248887
 11   5.939814 -0.004730 0.000000 0.237079 -0.000180 -0.000019
 12   5.939809 -0.003975 0.000000 0.000000 0.000000 0.403942
 13   4.991439 -0.003975 0.000000 0.000000 0.000000 0.052677
 14   4.991436 -0.001575 0.000000 0.000000 0.000000 0.000000
 15   0.000005 0.001564 3.638375 0.884514 -1.135540 2.304672
 16   8.842831 0.000000 -0.000002 -1.005974 0.576618 -0.933501
 17   9.341934 0.000000 -0.000001 0.000000 0.000000 -0.002372
 18   11.168404 -0.000001 0.000002 -1.662789 -0.387694 -0.164082
 19   0.000005 0.001585 -3.638375 -0.000010 1.284244 3.140787
 20   8.842831 0.000000 0.000001 0.117955 -1.028112 0.116378
 21   9.341937 0.000000 -0.000001 0.000000 0.000000 -1.424834
 22   11.168404 -0.000001 0.000001 1.026893 -0.347229 -0.143591
 23   1.977383 0.000000 0.000000 0.375058 -0.259730 0.380487
 24   3.723980 2.768054 -0.049087 0.000001 -3.141591 -1.570794
 25   12.421014 0.304721 4.492689 -0.091859 -0.075839 1.616818
 26   19.916998 1.704573 4.956909 2.262592 1.451744 0.734330
time 39
  0   -1.930685 -4.599517 6.439048 -0.262835 0.077122 -1.880525
  1   -3.651136 -1.402386 9.745319 -0.000032 -1.467887 -1.570770
  2   -0.000008 0.000010 5.615750 -2.632710 6.047999 0.732555
  3   15.693467 0.000000 0.000000 0.000000 0.000000 -2.094669
  4   22.146629 -0.000001 0.000000 0.305610 -0.075412 -0.152831
  5   3.310129 5.734393 0.000000 0.000000 0.000000 1.570796
  6   0.000008 -0.000006 -5.615750 0.033941 2.767012 -0.157509
  7   15.693467 0.000000 0.000000 0.000000 0.000000 -1.894751
  8   22.146629 0.000000 0.000000 -0.340938 0.683108 0.239074
  9   3.310129 5.734393 0.000000 0.000000 0.000000 2.393882
 10   1.380257 -0.004728 0.136725 0.376072 -0.181133 0.246782
 11   5.939814 -0.004730 0.000000 0.234006 -0.000180 -0.000019
 12   5.939809 -0.003975 0.000000 0.000000 0.000000 0.396259
 13   4.991439 -0.003975 0.000000 0.000000 0.000000 0.051987
 14   4.991436 -0.001575 0.000000 0.000000 0.000000 0.000000
 15   0.000005 0.001564 3.638375 0.885089 -1.135250 2.304097
 16   8.842831 0.000000 -0.000002 -1.012375 0.586664 -0.922080
 17   9.341934 0.000000 -0.000001 0.000000 0.000000 -0.002372
 18   11.168404 -0.000001 0.000002 -1.663649 -0.388364 -0.159856
 19   0.000005 0.001585 -3.638375 -0.000010 1.284244 3.140787
 20   8.842831 0.000000 0.000001 0.135048 -1.016515 0.083304
 21   9.341937 0.000000 -0.000001 0.000000 0.000000 -1.417906
 22   11.168404 -0.000001 0.000001 1.026520 -0.343055 -0.137199
 23   1.977383 0.000000 0.000000 0.380344 -0.257629 0.373876
 24   3.723980 2.768054 -0.049087 0.000001 -3.141591 -1.570794
 25   12.421014 0.304721 4.492689 -0.091859 -0.075839 1.616818
 26   19.916998 1.704573 4.956909 2.262592 1.451744 0.734330
time 40
  0   -1.817646 -4.613605 6.674289 -0.248943 0.072535 -1.889154
  1   -3.623792 -1.335977 9.745319 -0.000032 -1.473931 -1.570770
  2   -0.000008 0.000010 5.615750 -2.637215 6.040237 0.759316
  3   15.693467 0.000000 0.000000 0.000000 0.000000 -2.087413
  4   22.146629 -0.000001 0.000000 0.300076 -0.085021 -0.141168
  5   3.310129 5.734393 0.000000 0.000000 0.000000 1.570796
  6   0.000008 -0.000006 -5.615750 0.014478 2.767971 -0.187386
  7   15.693467 0.000000 0.000000 0.000000 0.000000 -1.906809
  8   22.146629 0.000000 0.000000 -0.316005 0.702480 0.265673
  9   3.310129 5.734393 0.000000 0.000000 0.000000 2.369323
 10   1.380257 -0.004728 0.128912 0.359714 -0.172144 0.243446
 11   5.939814 -0.004730 0.000000 0.228466 -0.000180 -0.000019
 12   5.939809 -0.003975 0.000000 0.000000 0.000000 0.385053
 13   4.991439 -0.003975 0.000000 0.000000 0.000000 0.050760
 14   4.991436 -0.001575 0.000000 0.000000 0.000000 0.000000
 15   0.000005 0.001564 3.638375 0.880775 -1.137281 2.308124
 16   8.842831 0.000000 -0.000002 -1.018594 0.595595 -0.911181
 17   9.341934 0.000000 -0.000001 0.000000 0.000000 -0.002372
 18   11.168404 -0.000001 0.000002 -1.672435 -0.379463 -0.149193
 19   0.000005 0.001585 -3.638375 -0.000010 1.284244 3.140787
 20   8.842831 0.000000 0.000001 0.167056 -0.995888 0.020874
 21   9.341937 0.000000 -0.000001 0.000000 0.000000 -1.406514
 22   11.168404 -0.000001 0.000001 1.034910 -0.330281 -0.123285
 23   1.977383 0.000000 0.000000 0.391551 -0.258714 0.365824
 24   3.723980 2.768054 -0.049087 0.000001 -3.141591 -1.570794
 25   12.421014 0.304721 4.492689 -0.091859 -0.075839 1.616818
 26   19.916998 1.704573 4.956909 2.262592 1.451744 0.734330
time 41
  0   -1.697071 -4.634737 7.419218 -0.234212 0.067565 -1.897879
  1   -3.576915 -1.242224 9.745319 -0.000032 -1.480121 -1.570770
  2   -0.000008 0.000010 5.615750 -2.653609 6.018867 0.821439
  3   15.693467 0.000000 0.000000 0.000000 0.000000 -2.060025
  4   22.146629 -0.000001 0.000000 0.289568 -0.095151 -0.113315
  5   3.310129 5.734393 0.000000 0.000000 0.000000 1.570796
  6   0.000008 -0.000006 -5.615750 0.002302 2.772573 -0.224837
  7   15.693467 0.000000 0.000000 0.000000 0.000000 -1.903310
  8   22.146629 0.000000 0.000000 -0.273078 0.709541 0.289719
  9   3.310129 5.734393 0.000000 0.000000 0.000000 2.338719
 10   1.380257 -0.004728 0.121099 0.333560 -0.161464 0.238492
 11   5.939814 -0.004730 0.000000 0.219924 -0.000168 0.000000
 12   5.939809 -0.003975 0.000000 0.000000 0.000000 0.370224
 13   4.991439 -0.003975 0.000000 0.000000 0.000000 0.048859
 14   4.991436 -0.001575 0.000000 0.000000 0.000000 0.000000
 15   0.000005 0.001564 3.638375 0.869270 -1.142469 2.318478
 16   8.842831 0.000000 -0.000002 -1.023257 0.601176 -0.901924
 17   9.341934 0.000000 -0.000001 0.000000 0.000000 -0.002700
 18   11.168404 -0.000001 0.000002 -1.691154 -0.357069 -0.131798
 19   0.000005 0.001585 -3.638375 -0.000010 1.284244 3.140787
 20   8.842831 0.000000 0.000001 0.213657 -0.964373 -0.075583
 21   9.341937 0.000000 -0.000001 0.000000 0.000000 -1.389860
 22   11.168404 -0.000001 0.000001 1.055418 -0.307135 -0.100535
 23   1.977383 0.000000 0.000000 0.410899 -0.263702 0.355883
 24   3.723980 2.768054 -0.049087 0.000001 -3.141591 -1.570794
 25   12.421014 0.304721 4.492689 -0.091859 -0.075839 1.616818
 26   19.916998 1.704573 4.956909 2.262592 1.451744 0.734330
time 42
  0   -1.576495 -4.648825 8.517008 -0.218734 0.062213 -1.906891
  1   -3.514413 -1.125033 9.745319 -0.000032 -1.486432 -1.570770
  2   -0.000008 0.000010 5.615750 -2.680835 5.989352 0.909273
  3   15.693467 0.000000 0.000000 0.000000 0.000000 -2.015849
  4   22.146629 -0.000001 0.000000 0.275359 -0.104661 -0.076771
  5   3.310129 5.734393 0.000000 0.000000 0.000000 1.570796
  6   0.000008 -0.000006 -5.615750 -0.003834 2.779572 -0.264532
  7   15.693467 0.000000 0.000000 0.000000 0.000000 -1.885149
  8   22.146629 0.000000 0.000000 -0.216838 0.706348 0.313588
  9   3.310129 5.734393 0.000000 0.000000 0.000000 2.302387
 10   1.384163 -0.004728 0.113287 0.299430 -0.149496 0.232112
 11   5.939814 -0.004730 0.000000 0.208931 -0.000156 0.000000
 12   5.939809 -0.003975 0.000000 0.000000 0.000000 0.352184
 13   4.991439 -0.003975 0.000000 0.000000 0.000000 0.046420
 14   4.991436 -0.001575 0.000000 0.000000 0.000000 0.000000
 15   0.000005 0.001564 3.638375 0.847986 -1.151720 2.337941
 16   8.842831 0.000000 -0.000002 -0.910873 0.787132 -0.722092
 17   9.341934 0.000000 -0.000001 0.000000 0.000000 -0.430429
 18   11.168404 -0.000001 0.000002 -1.702041 -0.315342 -0.109342
 19   0.000005 0.001585 -3.638375 -0.000010 1.284244 3.140787
 20   8.842831 0.000000 0.000001 0.263645 -0.925067 -0.193009
 21   9.341937 0.000000 -0.000001 0.000000 0.000000 -1.369009
 22   11.168404 -0.000001 0.000001 1.085622 -0.276653 -0.070546
 23   1.977383 0.000000 0.000000 0.436590 -0.267697 0.341270
 24   3.723980 2.768054 -0.049087 0.000001 -3.141591 -1.570794
 25   12.421014 0.304721 4.492689 -0.091859 -0.075839 1.616818
 26   19.916998 1.704573 4.956909 2.262592 1.451744 0.734330
time 43
  0   -1.455920 -4.662913 9.732418 -0.202604 0.056766 -1.916000
  1   -3.432380 -0.996123 9.745319 -0.000032 -1.492839 -1.570770
  2   -0.000008 0.000010 5.615750 -2.714197 5.959836 1.005613
  3   15.693467 0.000000 0.000000 0.000000 0.000000 -1.963705
  4   22.146629 -0.000001 0.000000 0.259991 -0.112908 -0.041371
  5   3.310129 5.734393 0.000000 0.000000 0.000000 1.570796
  6   0.000008 -0.000006 -5.615750 -0.007477 2.787242 -0.301422
  7   15.693467 0.000000 0.000000 0.000000 0.000000 -1.858577
  8   22.146629 0.000000 0.000000 -0.153885 0.698059 0.342917
  9   3.310129 5.734393 0.000000 0.000000 0.000000 2.260558
 10   1.384163 -0.004728 0.105474 0.260688 -0.136964 0.224761
 11   5.939814 -0.004730 0.000000 0.196535 -0.000156 0.000000
 12   5.939809 -0.003975 0.000000 0.000000 0.000000 0.331671
 13   4.991439 -0.003975 0.000000 0.000000 0.000000 0.043662
 14   4.991436 -0.001575 0.000000 0.000000 0.000000 0.000000
 15   0.000005 0.001564 3.638375 0.816252 -1.164526 2.366992
 16   8.842831 0.000000 -0.000002 -0.816503 0.854760 -0.600262
 17   9.341934 0.000000 -0.000001 0.000000 0.000000 -0.649788
 18   11.168404 -0.000001 0.000002 -1.699845 -0.255336 -0.081628
 19   0.000005 0.001585 -3.638375 -0.000010 1.284244 3.140787
 20   8.842831 0.000000 0.000001 0.307183 -0.883636 -0.315964
 21   9.341937 0.000000 -0.000001 0.000000 0.000000 -1.345959
 22   11.168404 -0.000001 0.000001 1.120766 -0.243094 -0.035387
 23   1.977383 0.000000 0.000000 0.465400 -0.265065 0.320543
 24   3.723980 2.768054 -0.049087 0.000001 -3.141591 -1.570794
 25   12.421014 0.304721 4.492689 -0.091859 -0.075839 1.616818
 26   19.916998 1.704573 4.956909 2.262592 1.451744 0.734330
time 44
  0   -1.335345 -4.677001 11.065449 -0.185915 0.051128 -1.925396
  1   -3.334720 -0.859400 9.745319 -0.000032 -1.499343 -1.570770
  2   -0.000008 0.000010 5.615750 -2.753407 5.931567 1.109312
  3   15.693467 0.000000 0.000000 0.000000 0.000000 -1.903523
  4   22.146629 -0.000001 0.000000 0.244024 -0.119743 -0.008624
  5   3.310129 5.734393 0.000000 0.000000 0.000000 1.570796
  6   0.000008 -0.000006 -5.615750 -0.008340 2.795007 -0.333122
  7   15.693467 0.000000 0.000000 0.000000 0.000000 -1.822253
  8   22.146629 0.000000 0.000000 -0.087378 0.683568 0.375946
  9   3.310129 5.734393 0.000000 0.000000 0.000000 2.213928
 10   1.384163 -0.004728 0.097661 0.217873 -0.124030 0.216439
 11   5.939814 -0.004730 0.000000 0.182915 -0.000144 0.000000
 12   5.939809 -0.003975 0.000000 0.000000 0.000000 0.308946
 13   4.991439 -0.003975 0.000000 0.000000 0.000000 0.040635
 14   4.991436 -0.001575 0.000000 0.000000 0.000000 0.000000
 15   0.000005 0.001564 3.638375 0.775410 -1.179436 2.404575
 16   8.842831 0.000000 -0.000002 -0.714908 0.883784 -0.485749
 17   9.341934 0.000000 -0.000001 0.000000 0.000000 -0.826832
 18   11.168404 -0.000001 0.000002 -1.704047 -0.183175 -0.047232
 19   0.000005 0.001585 -3.638375 -0.000010 1.284244 3.140787
 20   8.842831 0.000000 0.000001 0.344674 -0.842559 -0.444255
 21   9.341937 0.000000 -0.000001 0.000000 0.000000 -1.321044
 22   11.168404 -0.000001 0.000001 1.160757 -0.207426 0.004379
 23   1.977383 0.000000 0.000000 0.497117 -0.255065 0.295343
 24   3.723980 2.768054 -0.049087 0.000001 -3.141591 -1.570794
 25   12.421014 0.304721 4.492689 -0.091859 -0.075839 1.616818
 26   19.916998 1.704573 4.956909 2.262592 1.451744 0.734330
time 45
  0   -1.214769 -4.698133 12.457290 -0.168852 0.045489 -1.934887
  1   -3.217529 -0.726584 9.745319 -0.000032 -1.505895 -1.570770
  2   -0.000008 0.000010 5.615750 -2.797985 5.905884 1.219319
  3   15.693467 0.000000 0.000000 0.000000 0.000000 -1.835089
  4   22.146629 -0.000001 0.000000 0.227983 -0.125192 0.019961
  5   3.310129 5.734393 0.000000 0.000000 0.000000 1.570796
  6   0.000008 -0.000006 -5.615750 -0.006039 2.802390 -0.357668
  7   15.693467 0.000000 0.000000 0.000000 0.000000 -1.775138
  8   22.146629 0.000000 0.000000 -0.020759 0.662232 0.410473
  9   3.310129 5.734393 0.000000 0.000000 0.000000 2.163132
 10   1.384163 -0.004728 0.085942 0.171490 -0.110908 0.207209
 11   5.939814 -0.004730 0.000000 0.168246 -0.000132 0.000000
 12   5.939809 -0.003975 0.000000 0.000000 0.000000 0.284348
 13   4.991439 -0.003975 0.000000 0.000000 0.000000 0.037388
 14   4.991436 -0.001575 0.000000 0.000000 0.000000 0.000000
 15   0.000005 0.001564 3.638375 0.727090 -1.195145 2.449445
 16   8.842831 0.000000 -0.000002 -0.614503 0.884807 -0.383851
 17   9.341934 0.000000 -0.000001 0.000000 0.000000 -0.973618
 18   11.168404 -0.000001 0.000002 -1.733557 -0.103550 -0.007185
 19   0.000005 0.001585 -3.638375 -0.000010 1.284244 3.140787
 20   8.842831 0.000000 0.000001 0.377730 -0.804139 -0.578552
 21   9.341937 0.000000 -0.000001 0.000000 0.000000 -1.294463
 22   11.168404 -0.000001 0.000001 1.205223 -0.170705 0.048751
 23   1.977383 0.000000 0.000000 0.531107 -0.237053 0.267508
 24   3.723980 2.768054 -0.049087 0.000001 -3.141591 -1.570794
 25   12.421014 0.304721 4.492689 -0.091859 -0.075839 1.616818
 26   19.916998 1.704573 4.956909 2.262592 1.451744 0.734330
time 46
  0   -1.086658 -4.712221 13.927545 -0.151510 0.039755 -1.944475
  1   -3.080806 -0.589861 9.745319 -0.000032 -1.512520 -1.570770
  2   -0.000008 0.000010 5.615750 -2.847261 5.883748 1.334869
  3   15.693467 0.000000 0.000000 0.000000 0.000000 -1.758048
  4   22.146629 -0.000001 0.000000 0.212315 -0.129402 0.043241
  5   3.310129 5.734393 0.000000 0.000000 0.000000 1.570796
  6   0.000008 -0.000006 -5.615750 -0.000383 2.809101 -0.373238
  7   15.693467 0.000000 0.000000 0.000000 0.000000 -1.716560
  8   22.146629 0.000000 0.000000 0.042758 0.633988 0.444470
  9   3.310129 5.734393 0.000000 0.000000 0.000000 2.108808
 10   1.384163 -0.004728 0.078129 0.122045 -0.097759 0.197106
 11   5.939814 -0.004730 0.000000 0.152672 -0.000120 0.000000
 12   5.939809 -0.003975 0.000000 0.000000 0.000000 0.258151
 13   4.991439 -0.003975 0.000000 0.000000 0.000000 0.033924
 14   4.991436 -0.001575 0.000000 0.000000 0.000000 0.000000
 15   0.000005 0.001564 3.638375 0.673306 -1.210345 2.499588
 16   8.842831 0.000000 -0.000002 -0.523151 0.868528 -0.301064
 17   9.341934 0.000000 -0.000001 0.000000 0.000000 -1.096787
 18   11.168404 -0.000001 0.000002 -1.807096 -0.019523 0.034189
 19   0.000005 0.001585 -3.638375 -0.000010 1.284244 3.140787
 20   8.842831 0.000000 0.000001 0.408771 -0.770056 -0.719425
 21   9.341937 0.000000 -0.000001 0.000000 0.000000 -1.266417
 22   11.168404 -0.000001 0.000001 1.253977 -0.133814 0.097448
 23   1.977383 0.000000 0.000000 0.566525 -0.210634 0.239176
 24   3.723980 2.768054 -0.049087 0.000001 -3.141591 -1.570794
 25   12.421014 0.304721 4.492689 -0.091859 -0.075839 1.616818
 26   19.916998 1.704573 4.956909 2.262592 1.451744 0.734330
time 47
  0   -0.966083 -4.726309 15.456609 -0.133982 0.034213 -1.954255
  1   -2.928458 -0.464857 9.745319 -0.000032 -1.519145 -1.570770
  2   -0.000008 0.000010 5.615750 -2.900563 5.866019 1.454911
  3   15.693467 0.000000 0.000000 0.000000 0.000000 -1.672256
  4   22.146629 -0.000001 0.000000 0.197395 -0.132547 0.060255
  5   3.310129 5.734393 0.000000 0.000000 0.000000 1.570796
  6   0.000008 -0.000006 -5.615750 0.008534 2.814853 -0.378778
  7   15.693467 0.000000 0.000000 0.000000 0.000000 -1.646072
  8   22.146629 0.000000 0.000000 0.100634 0.599327 0.476090
  9   3.310129 5.734393 0.000000 0.000000 0.000000 2.051648
 10   1.384163 -0.004728 0.070317 0.070108 -0.084825 0.186257
 11   5.939814 -0.004730 0.000000 0.136369 -0.000108 0.000000
 12   5.939809 -0.003975 0.000000 0.000000 0.000000 0.230654
 13   4.991439 -0.003975 0.000000 0.000000 0.000000 0.030308
 14   4.991436 -0.001575 0.000000 0.000000 0.000000 0.000000
 15   0.000005 0.001564 3.638375 0.617507 -1.224022 2.552032
 16   8.842831 0.000000 -0.000002 -0.442954 0.847039 -0.240747
 17   9.341934 0.000000 -0.000001 0.000000 0.000000 -1.202325
 18   11.168404 -0.000001 0.000002 -1.944526 0.066898 0.069175
 19   0.000005 0.001585 -3.638375 -0.000010 1.284244 3.140787
 20   8.842831 0.000000 0.000001 0.440698 -0.741550 -0.867637
 21   9.341937 0.000000 -0.000001 0.000000 0.000000 -1.237305
 22   11.168404 -0.000001 0.000001 1.306832 -0.097767 0.150187
 23   1.977383 0.000000 0.000000 0.602366 -0.175763 0.212286
 24   3.723980 2.768054 -0.049087 0.000001 -3.141591 -1.570794
 25   12.421014 0.304721 4.492689 -0.091859 -0.075839 1.616818
 26   19.916998 1.704573 4.956909 2.262592 1.451744 0.734330
time 48
  0   -0.837971 -4.747441 17.024881 -0.116360 0.028765 -1.964034
  1   -2.756578 -0.351572 9.745319 -0.000032 -1.525794 -1.570770
  2   -0.000008 0.000010 5.615750 0.184833 3.571194 -1.562872
  3   15.693467 0.000000 0.000000 0.000000 0.000000 -1.577359
  4   22.146629 -0.000001 0.000000 0.183448 -0.134925 0.070271
  5   3.310129 5.734393 0.000000 0.000000 0.000000 1.570796
  6   0.000008 -0.000006 -5.615750 0.021094 2.819839 -0.373448
  7   15.693467 0.000000 0.000000 0.000000 0.000000 -1.563303
  8   22.146629 0.000000 0.000000 0.150895 0.559233 0.504011
  9   3.310129 5.734393 0.000000 0.000000 0.000000 1.992319
 10   1.384163 -0.004728 0.058598 0.016119 -0.072212 0.174696
 11   5.939814 -0.004730 0.000000 0.119516 -0.000084 0.000000
 12   5.939809 -0.003975 0.000000 0.000000 0.000000 0.202171
 13   4.991439 -0.003975 0.000000 0.000000 0.000000 0.026557
 14   4.991436 -0.001575 0.000000 0.000000 0.000000 0.000000
 15   0.000005 0.001564 3.638375 0.557683 -1.236538 2.608311
 16   8.842831 0.000000 -0.000002 -0.369891 0.821644 -0.223801
 17   9.341934 0.000000 -0.000001 0.000000 0.000000 -1.281868
 18   11.168404 -0.000001 0.000002 -2.191594 0.163175 0.088093
 19   0.000005 0.001585 -3.638375 -0.000010 1.284244 3.140787
 20   8.842831 0.000000 0.000001 0.476738 -0.718445 -1.023284
 21   9.341937 0.000000 -0.000001 0.000000 0.000000 -1.207327
 22   11.168404 -0.000001 0.000001 1.363323 -0.063449 0.206592
 23   1.977383 0.000000 0.000000 0.637731 -0.132740 0.188726
 24   3.723980 2.768054 -0.049087 0.000001 -3.141591 -1.570794
 25   12.421014 0.304721 4.492689 -0.091859 -0.075839 1.616818
 26   19.916998 1.704573 4.956909 2.262592 1.451744 0.734330
time 49
  0   -0.717396 -4.761529 18.632359 -0.098738 0.023509 -1.974005
  1   -2.572978 -0.250007 9.745319 -0.000032 -1.532419 -1.570770
  2   -0.000008 0.000010 5.615750 0.126642 3.578094 -1.436044
  3   15.693467 0.000000 0.000000 0.000000 0.000000 -1.472859
  4   22.146629 -0.000001 0.000000 0.170585 -0.136733 0.072604
  5   3.310129 5.734393 0.000000 0.000000 0.000000 1.570796
  6   0.000008 -0.000006 -5.615750 0.037201 2.824345 -0.356827
  7   15.693467 0.000000 0.000000 0.000000 0.000000 -1.467881
  8   22.146629 0.000000 0.000000 0.192525 0.515055 0.527175
  9   3.310129 5.734393 0.000000 0.000000 0.000000 1.931428
 10   1.384163 -0.004728 0.050785 -0.039284 -0.060137 0.162617
 11   5.939814 -0.004730 0.000000 0.102272 -0.000072 0.000000
 12   5.939809 -0.003975 0.000000 0.000000 0.000000 0.172988
 13   4.991439 -0.003975 0.000000 0.000000 0.000000 0.022722
 14   4.991436 -0.001575 0.000000 0.000000 0.000000 0.000000
 15   0.000005 0.001564 3.638375 0.489901 -1.248510 2.672548
 16   8.842831 0.000000 -0.000002 -0.314841 0.782108 -0.269338
 17   9.341934 0.000000 -0.000001 0.000000 0.000000 -1.322460
 18   11.168404 -0.000001 0.000002 -2.549256 0.269406 0.072025
 19   0.000005 0.001585 -3.638375 -0.000010 1.284244 3.140787
 20   8.842831 0.000000 0.000001 0.519792 -0.699854 -1.186175
 21   9.341937 0.000000 -0.000001 0.000000 0.000000 -1.176683
 22   11.168404 -0.000001 0.000001 1.422984 -0.031660 0.266194
 23   1.977383 0.000000 0.000000 0.671721 -0.082328 0.169938
 24   3.723980 2.768054 -0.049087 0.000001 -3.141591 -1.570794
 25   12.421014 0.304721 4.492689 -0.091859 -0.075839 1.616818
 26   19.916998 1.704573 4.956909 2.262592 1.451744 0.734330
time 50
  0   -0.589285 -4.782661 20.239838 -0.081210 0.018635 -1.983976
  1   -2.377660 -0.167973 9.745319 -0.000032 -1.538995 -1.570770
  2   -0.000008 0.000010 5.615750 0.067300 3.579052 -1.306635
  3   15.693467 0.000000 0.000000 0.000000 0.000000 -1.357759
  4   22.146629 -0.000001 0.000000 0.158844 -0.138169 0.066704
  5   3.310129 5.734393 0.000000 0.000000 0.000000 1.570796
  6   0.000008 -0.000006 -5.615750 0.056760 2.829043 -0.328493
  7   15.693467 0.000000 0.000000 0.000000 0.000000 -1.359210
  8   22.146629 0.000000 0.000000 0.225186 0.468330 0.544879
  9   3.310129 5.734393 0.000000 0.000000 0.000000 1.869698
 10   1.384163 -0.004728 0.042972 -0.095698 -0.048679 0.150084
 11   5.939814 -0.004730 0.000000 0.084816 -0.000060 0.000000
 12   5.939809 -0.003975 0.000000 0.000000 0.000000 0.143417
 13   4.991439 -0.003975 0.000000 0.000000 0.000000 0.018837
 14   4.991436 -0.001575 0.000000 0.000000 0.000000 0.000000
 15   0.000005 0.001564 3.638375 0.415311 -1.259248 2.743400
 16   8.842831 0.000000 -0.000002 -0.289694 0.722294 -0.366383
 17   9.341934 0.000000 -0.000001 0.000000 0.000000 -1.322952
 18   11.168404 -0.000001 0.000002 -2.972912 0.363770 0.008441
 19   0.000005 0.001585 -3.638375 -0.000010 1.284244 3.140787
 20   8.842831 0.000000 0.000001 0.572118 -0.683742 -1.355546
 21   9.341937 0.000000 -0.000001 0.000000 0.000000 -1.145772
 22   11.168404 -0.000001 0.000001 1.485255 -0.003202 0.328334
 23   1.977383 0.000000 0.000000 0.703809 -0.025657 0.157164
 24   3.723980 2.768054 -0.049087 0.000001 -3.141591 -1.570794
 25   12.421014 0.304721 4.492689 -0.091859 -0.075839 1.616818
 26   19.916998 1.704573 4.956909 2.262592 1.451744 0.734330
time 51
  0   -0.468709 -4.796749 21.847315 -0.063961 0.013953 -1.993948
  1   -2.174529 -0.101565 9.745319 -0.000032 -1.545547 -1.570770
  2   -0.000008 0.000010 5.615750 0.007766 3.573781 -1.174360
  3   15.693467 0.000000 0.000000 0.000000 0.000000 -1.230636
  4   22.146629 -0.000001 0.000000 0.148187 -0.139407 0.051839
  5   3.310129 5.734393 0.000000 0.000000 0.000000 1.570796
  6   0.000008 -0.000006 -5.615750 0.079866 2.834699 -0.287956
  7   15.693467 0.000000 0.000000 0.000000 0.000000 -1.236024
  8   22.146629 0.000000 0.000000 0.249104 0.420622 0.556329
  9   3.310129 5.734393 0.000000 0.000000 0.000000 1.807707
 10   1.384163 -0.004728 0.035159 -0.152515 -0.037945 0.137261
 11   5.939814 -0.004730 0.000000 0.067288 -0.000048 0.000000
 12   5.939809 -0.003975 0.000000 0.000000 0.000000 0.113734
 13   4.991439 -0.003975 0.000000 0.000000 0.000000 0.014952
 14   4.991436 -0.001575 0.000000 0.000000 0.000000 0.000000
 15   0.000005 0.001564 3.638375 0.335641 -1.268318 2.819334
 16   8.842831 0.000000 -0.000002 -0.290060 0.636898 -0.486122
 17   9.341934 0.000000 -0.000001 0.000000 0.000000 -1.291873
 18   11.168404 -0.000001 0.000002 -3.410128 0.425499 -0.093225
 19   0.000005 0.001585 -3.638375 -0.000010 1.284244 3.140787
 20   8.842831 0.000000 0.000001 0.634764 -0.667188 -1.529398
 21   9.341937 0.000000 -0.000001 0.000000 0.000000 -1.114729
 22   11.168404 -0.000001 0.000001 1.549297 0.021335 0.392448
 23   1.977383 0.000000 0.000000 0.733729 0.035795 0.151100
 24   3.723980 2.768054 -0.049087 0.000001 -3.141591 -1.570794
 25   12.421014 0.304721 4.492689 -0.091859 -0.075839 1.616818
 26   19.916998 1.704573 4.956909 2.262592 1.451744 0.734330
time 52
  0   -0.348134 -4.810837 23.435190 -0.047085 0.009748 -2.003919
  1   -1.967491 -0.058595 9.745319 -0.000032 -1.552003 -1.570770
  2   -0.000008 0.000010 5.615750 -0.051480 3.561898 -1.038643
  3   15.693467 0.000000 0.000000 0.000000 0.000000 -1.089002
  4   22.146629 -0.000001 0.000000 0.138577 -0.140571 0.027050
  5   3.310129 5.734393 0.000000 0.000000 0.000000 1.570796
  6   0.000008 -0.000006 -5.615750 0.106424 2.842465 -0.234234
  7   15.693467 0.000000 0.000000 0.000000 0.000000 -1.096091
  8   22.146629 0.000000 0.000000 0.265011 0.373467 0.560292
  9   3.310129 5.734393 0.000000 0.000000 0.000000 1.746180
 10   1.384163 -0.004728 0.023440 -0.209163 -0.028043 0.124340
 11   5.939814 -0.004730 0.000000 0.049884 -0.000036 0.000000
 12   5.939809 -0.003975 0.000000 0.000000 0.000000 0.084251
 13   4.991439 -0.003975 0.000000 0.000000 0.000000 0.011084
 14   4.991436 -0.001575 0.000000 0.000000 0.000000 0.000000
 15   0.000005 0.001564 3.638375 0.253382 -1.275356 2.897952
 16   8.842831 0.000000 -0.000002 -0.305331 0.523873 -0.593171
 17   9.341934 0.000000 -0.000001 0.000000 0.000000 -1.247755
 18   11.168404 -0.000001 0.000002 -3.796251 0.453444 -0.206684
 19   0.000005 0.001585 -3.638375 -0.000010 1.284244 3.140787
 20   8.842831 0.000000 0.000001 0.707165 -0.646915 -1.704965
 21   9.341937 0.000000 -0.000001 0.000000 0.000000 -1.083818
 22   11.168404 -0.000001 0.000001 1.614551 0.041572 0.457502
 23   1.977383 0.000000 0.000000 0.761534 0.100410 0.152143
 24   3.723980 2.768054 -0.049087 0.000001 -3.141591 -1.570794
 25   12.421014 0.304721 4.492689 -0.091859 -0.075839 1.616818
 26   19.916998 1.704573 4.956909 2.262592 1.451744 0.734330
time 53
  0   -0.235094 -4.824925 25.003462 -0.030768 0.006021 -2.013890
  1   -1.764360 -0.031250 9.745319 -0.000032 -1.558386 -1.570770
  2   -0.000008 0.000010 5.615750 -0.110438 3.542637 -0.897192
  3   15.693467 0.000000 0.000000 0.000000 0.000000 -0.928090
  4   22.146629 -0.000001 0.000000 0.129902 -0.141710 -0.009630
  5   3.310129 5.734393 0.000000 0.000000 0.000000 1.570796
  6   0.000008 -0.000006 -5.615750 0.136529 2.853682 -0.165083
  7   15.693467 0.000000 0.000000 0.000000 0.000000 -0.934573
  8   22.146629 0.000000 0.000000 0.273811 0.328245 0.554567
  9   3.310129 5.734393 0.000000 0.000000 0.000000 1.685752
 10   1.384163 -0.004728 0.015627 -0.265105 -0.019000 0.111451
 11   5.939814 -0.004730 0.000000 0.032747 -0.000024 0.000000
 12   5.939809 -0.003975 0.000000 0.000000 0.000000 0.055268
 13   4.991439 -0.003975 0.000000 0.000000 0.000000 0.007266
 14   4.991436 -0.001575 0.000000 0.000000 0.000000 0.000000
 15   0.000005 0.001564 3.638375 0.170164 -1.280290 2.977625
 16   8.842831 0.000000 -0.000002 -0.341269 0.364057 -0.665955
 17   9.341934 0.000000 -0.000001 0.000000 0.000000 -1.229960
 18   11.168404 -0.000001 0.000002 -4.079038 0.469235 -0.313067
 19   0.000005 0.001585 -3.638375 -0.000010 1.284244 3.140787
 20   8.842831 0.000000 0.000001 0.786904 -0.620003 -1.877959
 21   9.341937 0.000000 -0.000001 0.000000 0.000000 -1.053374
 22   11.168404 -0.000001 0.000001 1.679805 0.057213 0.522745
 23   1.977383 0.000000 0.000000 0.787490 0.166295 0.160245
 24   3.723980 2.768054 -0.049087 0.000001 -3.141591 -1.570794
 25   12.421014 0.304721 4.492689 -0.091859 -0.075839 1.616818
 26   19.916998 1.704573 4.956909 2.262592 1.451744 0.734330
time 54
  0   -0.122055 -4.846057 26.552130 -0.015011 0.002676 -2.023669
  1   -1.565135 -0.023437 9.745319 -0.000032 -1.564672 -1.570770
  2   -0.000008 0.000010 5.615750 -0.169876 3.514559 -0.744654
  3   15.693467 0.000000 0.000000 0.000000 0.000000 -0.737655
  4   22.146629 -0.000001 0.000000 0.122087 -0.142874 -0.062182
  5   3.310129 5.734393 0.000000 0.000000 0.000000 1.570796
  6   0.000008 -0.000006 -5.615750 0.170853 2.870748 -0.074963
  7   15.693467 0.000000 0.000000 0.000000 0.000000 -0.740900
  8   22.146629 0.000000 0.000000 0.276688 0.286125 0.534221
  9   3.310129 5.734393 0.000000 0.000000 0.000000 1.627059
 10   1.384163 -0.004728 0.007815 -0.319768 -0.010815 0.098821
 11   5.939814 -0.004730 0.000000 0.016072 -0.000012 0.000000
 12   5.939809 -0.003975 0.000000 0.000000 0.000000 0.027084
 13   4.991439 -0.003975 0.000000 0.000000 0.000000 0.003566
 14   4.991436 -0.001575 0.000000 0.000000 0.000000 0.000000
 15   0.000005 0.001564 3.638375 0.085605 -1.283264 3.058736
 16   8.842831 0.000000 -0.000002 -0.399610 0.142380 -0.754714
 17   9.341934 0.000000 -0.000001 0.000000 0.000000 -1.142463
 18   11.168404 -0.000001 0.000002 -4.297359 0.480528 -0.416797
 19   0.000005 0.001585 -3.638375 -0.000010 1.284244 3.140787
 20   8.842831 0.000000 0.000001 0.870512 -0.584326 -2.043804
 21   9.341937 0.000000 -0.000001 0.000000 0.000000 -1.023662
 22   11.168404 -0.000001 0.000001 1.744313 0.068344 0.587141
 23   1.977383 0.000000 0.000000 0.812018 0.231580 0.175057
 24   3.723980 2.768054 -0.049087 0.000001 -3.141591 -1.570794
 25   12.421014 0.304721 4.492689 -0.091859 -0.075839 1.616818
 26   19.916998 1.704573 4.956909 2.262592 1.451744 0.734330
time 55
  0   -0.001480 -4.860146 28.041988 0.000000 0.000000 -2.033353
  1   -1.373723 -0.035156 9.745319 -1.570795 -1.570451 0.000000
  2   -0.000008 0.000010 5.615750 -0.233053 3.472298 -0.563921
  3   15.693467 0.000000 0.000000 0.000000 0.000000 -0.487323
  4   22.146629 -0.000001 0.000000 0.114982 -0.144038 -0.143135
  5   3.310129 5.734393 0.000000 0.000000 0.000000 1.570796
  6   0.000008 -0.000006 -5.615750 0.212080 2.899510 0.054433
  7   15.693467 0.000000 0.000000 0.000000 0.000000 -0.482099
  8   22.146629 0.000000 0.000000 0.274883 0.248026 0.484986
  9   3.310129 5.734393 0.000000 0.000000 0.000000 1.570796
 10   1.384163 -0.004728 0.000002 -0.372579 -0.003463 0.086548
 11   5.939814 -0.004730 0.000000 0.000000 0.000000 0.000000
 12   5.939809 -0.003975 0.000000 0.000000 0.000000 0.000000
 13   4.991439 -0.003975 0.000000 0.000000 0.000000 0.000000
 14   4.991436 -0.001575 0.000000 0.000000 0.000000 0.000000
 15   0.000005 0.001564 3.638375 -0.000010 -1.284244 3.140806
 16   8.842831 0.000000 -0.000002 -0.414972 -0.110832 -0.914689
 17   9.341934 0.000000 -0.000001 0.000000 0.000000 -0.853073
 18   11.168404 -0.000001 0.000002 -4.515872 0.471532 -0.520821
 19   0.000005 0.001585 -3.638375 -0.000010 1.284244 3.140787
 20   8.842831 0.000000 0.000001 0.953960 -0.539089 -2.198116
 21   9.341937 0.000000 -0.000001 0.000000 0.000000 -0.994883
 22   11.168404 -0.000001 0.000001 1.806863 0.075089 0.649563
 23   1.977383 0.000000 0.000000 0.835700 0.294324 0.196082
 24   3.723980 2.768054 -0.049087 0.000001 -3.141591 -1.570794
 25   12.421014 0.304721 4.492689 -0.091859 -0.075839 1.616818
 26   19.916998 1.704573 4.956909 2.262592 1.451744 0.734330
end
