version 1
nodes
  0 "Bip01" -1
  1 "Bip01 Pelvis" 0
  2 "Bip01 L Thigh" 1
  3 "Bip01 L Calf" 2
  4 "Bip01 L Foot" 3
  5 "Bip01 L Toe0" 4
  6 "Bip01 R Thigh" 1
  7 "Bip01 R Calf" 6
  8 "Bip01 R Foot" 7
  9 "Bip01 R Toe0" 8
 10 "Bip01 Spine" 1
 11 "Bip01 Spine1" 10
 12 "Bip01 Spine2" 11
 13 "Bip01 Spine3" 12
 14 "Bip01 Neck" 13
 15 "Bip01 L Clavicle" 14
 16 "Bip01 L UpperArm" 15
 17 "Bip01 L Forearm" 16
 18 "Bip01 L Hand" 17
 19 "Bip01 R Clavicle" 14
 20 "Bip01 R UpperArm" 19
 21 "Bip01 R Forearm" 20
 22 "Bip01 R Hand" 21
 23 "Bip01 Head" 14
 24 "Bone05" 23
 25 "m4" 22
 26 "SHOTGUN" 22
end
skeleton
time 0
  0   1.792078 -4.212096 21.592472 -0.164843 -0.428996 -0.096740
  1   0.059914 0.617207 9.745319 -1.570795 -1.570451 0.000000
  2   -0.000008 0.000010 5.615750 0.000001 3.141591 -0.794162
  3   15.693467 0.000000 0.000000 0.000000 0.000000 -0.746903
  4   22.146629 -0.000001 0.000000 0.000000 0.000000 -0.588014
  5   3.310129 5.734393 0.000000 0.000000 0.000000 1.570796
  6   0.000008 -0.000006 -5.615750 0.000001 3.141591 -1.087471
  7   15.693467 0.000000 0.000000 0.000000 0.000000 -0.758168
  8   22.146629 0.000000 0.000000 0.000000 0.000000 -0.678163
  9   3.310129 5.734393 0.000000 0.000000 0.000000 1.570796
 10   1.384163 -0.004728 0.000002 -0.299909 0.007513 -0.099172
 11   5.939814 -0.004730 0.000000 -0.097797 0.068851 0.074902
 12   5.939809 -0.003975 0.000000 0.094026 0.003260 0.007995
 13   4.991439 -0.003975 0.000000 0.008714 0.000000 0.104664
 14   4.991436 -0.001575 0.000000 0.000000 0.000000 0.000000
 15   0.000005 0.001564 3.638375 0.909057 -1.122661 2.282717
 16   8.842831 0.000000 -0.000002 -0.918463 -0.408788 -1.485316
 17   9.341934 0.000000 -0.000001 0.000000 0.000000 -0.787963
 18   11.168404 -0.000001 0.000002 -2.107837 0.186431 0.769093
 19   0.000005 0.001585 -3.638375 0.448005 1.337526 3.578160
 20   8.842831 0.000000 0.000001 0.864062 -0.556263 -0.047752
 21   9.341937 0.000000 -0.000001 0.000000 0.000000 -0.766251
 22   11.168404 -0.000001 0.000001 1.664423 0.078757 0.082406
 23   1.977383 0.000000 0.000000 -1.280166 0.064430 0.277847
 24   3.723980 2.768054 -0.049087 0.000001 -3.141591 -1.570794
 25   12.421014 0.304721 4.492689 -0.091859 -0.075839 1.616818
 26   19.916998 1.704573 4.956909 2.262592 1.451744 0.734330
time 1
  0   1.792078 -4.212096 21.572868 -0.164843 -0.428996 -0.096740
  1   -0.010400 0.347668 9.745319 -1.570795 -1.570451 0.000000
  2   -0.000008 0.000010 5.615750 0.000001 3.141591 -0.843670
  3   15.693467 0.000000 0.000000 0.000000 0.000000 -0.758356
  4   22.146629 -0.000001 0.000000 0.000000 0.000000 -0.626067
  5   3.310129 5.734393 0.000000 0.000000 0.000000 1.570796
  6   0.000008 -0.000006 -5.615750 0.000001 3.141591 -1.122748
  7   15.693467 0.000000 0.000000 0.000000 0.000000 -0.758392
  8   22.146629 0.000000 0.000000 0.000000 0.000000 -0.713218
  9   3.310129 5.734393 0.000000 0.000000 0.000000 1.570796
 10   1.384163 -0.004728 0.000002 -0.422261 -0.024206 -0.084891
 11   5.939814 -0.004730 0.000000 -0.097797 0.068851 0.074902
 12   5.939809 -0.003975 0.000000 0.094026 0.003260 0.007995
 13   4.991439 -0.003975 0.000000 0.008714 0.000000 0.104664
 14   4.991436 -0.001575 0.000000 0.000000 0.000000 0.000000
 15   0.000005 0.001564 3.638375 0.909057 -1.122661 2.282717
 16   8.842831 0.000000 -0.000002 -0.937849 -0.397811 -1.317726
 17   9.341934 0.000000 -0.000001 0.000000 0.000000 -0.993053
 18   11.168404 -0.000001 0.000002 -2.102203 0.197342 0.920093
 19   0.000005 0.001585 -3.638375 0.448005 1.337526 3.578160
 20   8.842831 0.000000 0.000001 0.649276 -0.776607 0.119142
 21   9.341937 0.000000 -0.000001 0.000000 0.000000 -1.263486
 22   11.168404 -0.000001 0.000001 1.664423 0.078757 0.082406
 23   1.977383 0.000000 0.000000 -1.188239 0.039928 0.291317
 24   3.723980 2.768054 -0.049087 0.000001 -3.141591 -1.570794
 25   12.421014 0.304721 4.492689 -0.091859 -0.075839 1.616818
 26   19.916998 1.704573 4.956909 2.262592 1.451744 0.734330
time 2
  0   1.792078 -4.212096 21.592472 -0.164843 -0.428996 -0.096740
  1   0.059914 0.617207 9.745319 -1.570795 -1.570451 0.000000
  2   -0.000008 0.000010 5.615750 0.000001 3.141591 -0.892031
  3   15.693467 0.000000 0.000000 0.000000 0.000000 -0.827004
  4   22.146629 -0.000001 0.000000 0.000000 0.000000 -0.605760
  5   3.310129 5.734393 0.000000 0.000000 0.000000 1.570796
  6   0.000008 -0.000006 -5.615750 0.000001 3.141591 -1.127236
  7   15.693467 0.000000 0.000000 0.000000 0.000000 -0.759657
  8   22.146629 0.000000 0.000000 0.000000 0.000000 -0.716389
  9   3.310129 5.734393 0.000000 0.000000 0.000000 1.570796
 10   1.384163 -0.004728 0.000002 -0.299943 0.007513 -0.099172
 11   5.939814 -0.004730 0.000000 -0.097797 0.068851 0.074902
 12   5.939809 -0.003975 0.000000 0.094026 0.003260 0.007995
 13   4.991439 -0.003975 0.000000 0.008714 0.000000 0.104664
 14   4.991436 -0.001575 0.000000 0.000000 0.000000 0.000000
 15   0.000005 0.001564 3.638375 0.909057 -1.122661 2.282717
 16   8.842831 0.000000 -0.000002 -0.918463 -0.408788 -1.485316
 17   9.341934 0.000000 -0.000001 0.000000 0.000000 -0.787963
 18   11.168404 -0.000001 0.000002 -2.107837 0.186431 0.769093
 19   0.000005 0.001585 -3.638375 0.448005 1.337526 3.578160
 20   8.842831 0.000000 0.000001 0.779406 -0.687814 0.091882
 21   9.341937 0.000000 -0.000001 0.000000 0.000000 -0.998747
 22   11.168404 -0.000001 0.000001 1.664423 0.076607 0.082124
 23   1.977383 0.000000 0.000000 -1.264730 0.064430 0.277847
 24   3.723980 2.768054 -0.049087 0.000001 -3.141591 -1.570794
 25   12.421014 0.304721 4.492689 -0.091859 -0.075839 1.616818
 26   19.916998 1.704573 4.956909 2.262592 1.451744 0.734330
time 3
  0   1.792078 -4.212096 21.533661 -0.164843 -0.428996 -0.096740
  1   -0.119779 -0.226568 9.745319 -1.570795 -1.570451 0.000000
  2   -0.000008 0.000010 5.615750 0.000001 3.141591 -0.943355
  3   15.693467 0.000000 0.000000 0.000000 0.000000 -0.918486
  4   22.146629 -0.000001 0.000000 0.000000 0.000000 -0.565649
  5   3.310129 5.734393 0.000000 0.000000 0.000000 1.570796
  6   0.000008 -0.000006 -5.615750 0.000001 3.141591 -1.122257
  7   15.693467 0.000000 0.000000 0.000000 0.000000 -0.761369
  8   22.146629 0.000000 0.000000 0.000000 0.000000 -0.709783
  9   3.310129 5.734393 0.000000 0.000000 0.000000 1.570796
 10   1.384163 -0.004728 0.000002 -0.466893 -0.084020 -0.070804
 11   5.939814 -0.004730 0.000000 -0.097797 0.068851 0.074902
 12   5.939809 -0.003975 0.000000 0.094026 0.003260 0.007995
 13   4.991439 -0.003975 0.000000 0.008714 0.000000 0.104664
 14   4.991436 -0.001575 0.000000 0.000000 0.000000 0.000000
 15   0.000005 0.001564 3.638375 0.909057 -1.122661 2.282717
 16   8.842831 0.000000 -0.000002 -0.865974 -0.443486 -1.327654
 17   9.341934 0.000000 -0.000001 0.000000 0.000000 -0.950657
 18   11.168404 -0.000001 0.000002 -2.104017 0.193035 0.945693
 19   0.000005 0.001585 -3.638375 0.448005 1.337526 3.578160
 20   8.842831 0.000000 0.000001 0.773036 -0.658778 -0.139443
 21   9.341937 0.000000 -0.000001 0.000000 0.000000 -0.742269
 22   11.168404 -0.000001 0.000001 1.664423 0.078757 0.082406
 23   1.977383 0.000000 0.000000 -1.034938 0.072906 0.311298
 24   3.723980 2.768054 -0.049087 0.000001 -3.141591 -1.570794
 25   12.421014 0.304721 4.492689 -0.091859 -0.075839 1.616818
 26   19.916998 1.704573 4.956909 2.262592 1.451744 0.734330
time 4
  0   1.792078 -4.212096 21.416040 -0.164843 -0.428996 -0.096740
  1   0.138042 -0.339853 9.745319 -1.570795 -1.570451 0.000000
  2   -0.000008 0.000010 5.615750 0.000001 3.141591 -0.980151
  3   15.693467 0.000000 0.000000 0.000000 0.000000 -0.998587
  4   22.146629 -0.000001 0.000000 0.000000 0.000000 -0.522382
  5   3.310129 5.734393 0.000000 0.000000 0.000000 1.570796
  6   0.000008 -0.000006 -5.615750 0.000001 3.141591 -1.111106
  7   15.693467 0.000000 0.000000 0.000000 0.000000 -0.762858
  8   22.146629 0.000000 0.000000 0.000000 0.000000 -0.697100
  9   3.310129 5.734393 0.000000 0.000000 0.000000 1.570796
 10   1.384163 -0.004728 0.000002 -0.525932 -0.097169 -0.093537
 11   5.939814 -0.004730 0.000000 -0.097797 0.068851 0.074902
 12   5.939809 -0.003975 0.000000 0.094026 0.003260 0.007995
 13   4.991439 -0.003975 0.000000 0.008714 0.000000 0.104664
 14   4.991436 -0.001575 0.000000 0.000000 0.000000 0.000000
 15   0.000005 0.001564 3.638375 0.909057 -1.122661 2.282717
 16   8.842831 0.000000 -0.000002 -0.903649 -0.416602 -1.228295
 17   9.341934 0.000000 -0.000001 0.000000 0.000000 -1.013800
 18   11.168404 -0.000001 0.000002 -2.097045 0.204711 0.983038
 19   0.000005 0.001585 -3.638375 0.448005 1.337526 3.578160
 20   8.842831 0.000000 0.000001 0.632425 -0.737212 -0.026974
 21   9.341937 0.000000 -0.000001 0.000000 0.000000 -1.020598
 22   11.168404 -0.000001 0.000001 1.664610 0.098320 0.084286
 23   1.977383 0.000000 0.000000 -1.030815 0.044478 0.344948
 24   3.723980 2.768054 -0.049087 0.000001 -3.141591 -1.570794
 25   12.421014 0.304721 4.492689 -0.091859 -0.075839 1.616818
 26   19.916998 1.704573 4.956909 2.262592 1.451744 0.734330
time 5
  0   1.792078 -4.212096 21.592472 -0.164843 -0.428996 -0.096740
  1   0.059914 0.617207 9.745319 -1.570795 -1.570451 0.000000
  2   -0.000008 0.000010 5.615750 0.000001 3.141591 -0.984739
  3   15.693467 0.000000 0.000000 0.000000 0.000000 -1.032875
  4   22.146629 -0.000001 0.000000 0.000000 0.000000 -0.492608
  5   3.310129 5.734393 0.000000 0.000000 0.000000 1.570796
  6   0.000008 -0.000006 -5.615750 0.000001 3.141591 -1.097009
  7   15.693467 0.000000 0.000000 0.000000 0.000000 -0.763527
  8   22.146629 0.000000 0.000000 0.000000 0.000000 -0.682391
  9   3.310129 5.734393 0.000000 0.000000 0.000000 1.570796
 10   1.384163 -0.004728 0.000002 -0.299909 0.007513 -0.099172
 11   5.939814 -0.004730 0.000000 -0.097797 0.068851 0.074902
 12   5.939809 -0.003975 0.000000 0.094026 0.003260 0.007995
 13   4.991439 -0.003975 0.000000 0.008714 0.000000 0.104664
 14   4.991436 -0.001575 0.000000 0.000000 0.000000 0.000000
 15   0.000005 0.001564 3.638375 0.909057 -1.122661 2.282717
 16   8.842831 0.000000 -0.000002 -0.918463 -0.408788 -1.485316
 17   9.341934 0.000000 -0.000001 0.000000 0.000000 -0.787963
 18   11.168404 -0.000001 0.000002 -2.107837 0.186431 0.769093
 19   0.000005 0.001585 -3.638375 0.448005 1.337526 3.578160
 20   8.842831 0.000000 0.000001 0.691363 -0.777227 0.218935
 21   9.341937 0.000000 -0.000001 0.000000 0.000000 -1.297594
 22   11.168404 -0.000001 0.000001 1.664796 0.113540 0.085697
 23   1.977383 0.000000 0.000000 -1.312888 0.064430 0.277847
 24   3.723980 2.768054 -0.049087 0.000001 -3.141591 -1.570794
 25   12.421014 0.304721 4.492689 -0.091859 -0.075839 1.616818
 26   19.916998 1.704573 4.956909 2.262592 1.451744 0.734330
time 6
  0   1.792078 -4.212096 21.612074 -0.164843 -0.428996 -0.096740
  1   0.044289 0.695335 9.745319 -1.570795 -1.570451 0.000000
  2   -0.000008 0.000010 5.615750 0.000001 3.141591 -0.888208
  3   15.693467 0.000000 0.000000 0.000000 0.000000 -0.929939
  4   22.146629 -0.000001 0.000000 0.000000 0.000000 -0.499056
  5   3.310129 5.734393 0.000000 0.000000 0.000000 1.570796
  6   0.000008 -0.000006 -5.615750 0.000001 3.141591 -1.070359
  7   15.693467 0.000000 0.000000 0.000000 0.000000 -0.761592
  8   22.146629 0.000000 0.000000 0.000000 0.000000 -0.657553
  9   3.310129 5.734393 0.000000 0.000000 0.000000 1.570796
 10   1.384163 -0.004728 0.000002 -0.281127 0.016261 -0.098557
 11   5.939814 -0.004730 0.000000 -0.097797 0.068851 0.074902
 12   5.939809 -0.003975 0.000000 0.094026 0.003260 0.007995
 13   4.991439 -0.003975 0.000000 0.008714 0.000000 0.104664
 14   4.991436 -0.001575 0.000000 0.000000 0.000000 0.000000
 15   0.000005 0.001564 3.638375 0.909057 -1.122661 2.282717
 16   8.842831 0.000000 -0.000002 -0.920474 -0.410370 -1.506740
 17   9.341934 0.000000 -0.000001 0.000000 0.000000 -0.766724
 18   11.168404 -0.000001 0.000002 -2.108028 0.185953 0.750420
 19   0.000005 0.001585 -3.638375 0.448005 1.337526 3.578160
 20   8.842831 0.000000 0.000001 0.782631 -0.693480 0.115139
 21   9.341937 0.000000 -0.000001 0.000000 0.000000 -1.099806
 22   11.168404 -0.000001 0.000001 1.664610 0.100470 0.084474
 23   1.977383 0.000000 0.000000 -1.296501 0.065354 0.272081
 24   3.723980 2.768054 -0.049087 0.000001 -3.141591 -1.570794
 25   12.421014 0.304721 4.492689 -0.091859 -0.075839 1.616818
 26   19.916998 1.704573 4.956909 2.262592 1.451744 0.734330
time 7
  0   1.792078 -4.212096 21.592472 -0.164843 -0.428996 -0.096740
  1   0.059914 0.617207 9.745319 -1.570795 -1.570451 0.000000
  2   -0.000008 0.000010 5.615750 0.000001 3.141591 -0.794162
  3   15.693467 0.000000 0.000000 0.000000 0.000000 -0.746903
  4   22.146629 -0.000001 0.000000 0.000000 0.000000 -0.588014
  5   3.310129 5.734393 0.000000 0.000000 0.000000 1.570796
  6   0.000008 -0.000006 -5.615750 0.000001 3.141591 -1.087471
  7   15.693467 0.000000 0.000000 0.000000 0.000000 -0.758168
  8   22.146629 0.000000 0.000000 0.000000 0.000000 -0.678163
  9   3.310129 5.734393 0.000000 0.000000 0.000000 1.570796
 10   1.384163 -0.004728 0.000002 -0.299909 0.007513 -0.099172
 11   5.939814 -0.004730 0.000000 -0.097797 0.068851 0.074902
 12   5.939809 -0.003975 0.000000 0.094026 0.003260 0.007995
 13   4.991439 -0.003975 0.000000 0.008714 0.000000 0.104664
 14   4.991436 -0.001575 0.000000 0.000000 0.000000 0.000000
 15   0.000005 0.001564 3.638375 0.909057 -1.122661 2.282717
 16   8.842831 0.000000 -0.000002 -0.918463 -0.408788 -1.485316
 17   9.341934 0.000000 -0.000001 0.000000 0.000000 -0.787963
 18   11.168404 -0.000001 0.000002 -2.107837 0.186431 0.769093
 19   0.000005 0.001585 -3.638375 0.448005 1.337526 3.578160
 20   8.842831 0.000000 0.000001 0.864062 -0.556263 -0.047752
 21   9.341937 0.000000 -0.000001 0.000000 0.000000 -0.766251
 22   11.168404 -0.000001 0.000001 1.664423 0.078757 0.082406
 23   1.977383 0.000000 0.000000 -1.280166 0.064430 0.277847
 24   3.723980 2.768054 -0.049087 0.000001 -3.141591 -1.570794
 25   12.421014 0.304721 4.492689 -0.091859 -0.075839 1.616818
 26   19.916998 1.704573 4.956909 2.262592 1.451744 0.734330
end
