version 1
nodes
  0 "Bip01" -1
  1 "Bip01 Pelvis" 0
  2 "Bip01 L Thigh" 1
  3 "Bip01 L Calf" 2
  4 "Bip01 L Foot" 3
  5 "Bip01 L Toe0" 4
  6 "Bip01 R Thigh" 1
  7 "Bip01 R Calf" 6
  8 "Bip01 R Foot" 7
  9 "Bip01 R Toe0" 8
 10 "Bip01 Spine" 1
 11 "Bip01 Spine1" 10
 12 "Bip01 Spine2" 11
 13 "Bip01 Spine3" 12
 14 "Bip01 Neck" 13
 15 "Bip01 L Clavicle" 14
 16 "Bip01 L UpperArm" 15
 17 "Bip01 L Forearm" 16
 18 "Bip01 L Hand" 17
 19 "Bip01 R Clavicle" 14
 20 "Bip01 R UpperArm" 19
 21 "Bip01 R Forearm" 20
 22 "Bip01 R Hand" 21
 23 "Bip01 Head" 14
 24 "Bone05" 23
 25 "m4" 22
 26 "SHOTGUN" 22
end
skeleton
time 0
  0   0.073880 -0.077259 27.610714 0.000000 0.000000 -1.570844
  1   -0.229157 0.000001 9.745319 -1.570795 -1.570451 0.000000
  2   -0.000008 0.000010 5.615750 0.000001 3.141591 -0.727259
  3   15.693467 0.000000 0.000000 0.000000 0.000000 -0.797553
  4   22.146629 -0.000001 0.000000 0.052312 0.000000 0.070363
  5   3.310129 5.734393 0.000000 0.000000 0.000000 1.570796
  6   0.000008 -0.000006 -5.615750 0.000001 3.141591 -0.463990
  7   15.693467 0.000000 0.000000 0.000000 0.000000 -0.001861
  8   22.146629 0.000000 0.000000 0.000000 0.000000 -0.462110
  9   3.310129 5.734393 0.000000 0.000000 0.000000 1.570796
 10   1.384163 -0.004728 0.000002 -0.000004 -0.000001 0.000796
 11   5.939814 -0.004730 0.000000 0.000000 0.000000 -0.052318
 12   5.939809 -0.003975 0.000000 0.000000 0.000000 0.000000
 13   4.991439 -0.003975 0.000000 0.000000 0.000000 0.000000
 14   4.991436 -0.001575 0.000000 0.000000 0.000000 0.000000
 15   0.000005 0.001564 3.638375 -0.000010 -1.283555 3.140806
 16   8.842831 0.000000 -0.000002 0.103789 0.666758 -1.312426
 17   9.341934 0.000000 -0.000001 0.000000 0.000000 -1.168868
 18   11.168404 -0.000001 0.000002 -1.628599 0.172363 0.140818
 19   0.000005 0.001585 -3.638375 -0.000010 1.283575 3.140787
 20   8.842831 0.000000 0.000001 -0.191969 -0.778554 -1.193799
 21   9.341937 0.000000 -0.000001 0.000000 0.000000 -1.213256
 22   11.168404 -0.000001 0.000001 1.668525 -0.507227 0.563827
 23   1.977383 0.000000 0.000000 0.000000 0.000000 0.226054
 24   3.723980 2.768054 -0.049087 0.000001 -3.141591 -1.570794
 25   12.421014 0.304721 4.492689 -0.091859 -0.075839 1.616818
 26   19.916998 1.704573 4.956909 2.262592 1.451744 0.734330
time 1
  0   0.073880 -0.020907 29.884706 0.000000 0.000000 -1.787141
  1   0.013038 0.039065 9.745319 -1.570795 -1.570451 0.000000
  2   -0.000008 0.000010 5.615750 -0.135939 3.223142 -0.451143
  3   15.693467 0.000000 0.000000 0.000000 0.000000 -0.466480
  4   22.146629 -0.000001 0.000000 -0.006020 -0.013522 0.008664
  5   3.310129 5.734393 0.000000 0.000000 0.000000 1.570796
  6   0.000008 -0.000006 -5.615750 -0.002012 3.127785 -0.593806
  7   15.693467 0.000000 0.000000 0.000000 0.000000 -0.663193
  8   22.146629 0.000000 0.000000 0.092399 0.057440 -0.076771
  9   3.310129 5.734393 0.000000 0.000000 0.000000 1.570796
 10   1.384163 -0.004728 0.000002 0.074215 -0.000055 0.000796
 11   5.939814 -0.004730 0.000000 0.000000 0.000000 -0.094463
 12   5.939809 -0.003975 0.000000 0.000000 0.000000 0.000000
 13   4.991439 -0.003975 0.000000 0.000000 0.000000 0.000000
 14   4.991436 -0.001575 0.000000 0.000000 0.000000 0.000000
 15   0.000005 0.001564 3.638375 0.018589 -1.283518 3.122973
 16   8.842831 0.000000 -0.000002 0.162679 0.700154 -0.863479
 17   9.341934 0.000000 -0.000001 0.000000 0.000000 -1.180922
 18   11.168404 -0.000001 0.000002 -1.615706 0.189590 0.112416
 19   0.000005 0.001585 -3.638375 -0.000010 1.283575 3.140787
 20   8.842831 0.000000 0.000001 -0.395548 -0.835389 -0.786621
 21   9.341937 0.000000 -0.000001 0.000000 0.000000 -1.211724
 22   11.168404 -0.000001 0.000001 1.464933 -0.429273 0.505447
 23   1.977383 0.000000 0.000000 -0.123381 -0.005612 0.244992
 24   3.723980 2.768054 -0.049087 0.000001 -3.141591 -1.570794
 25   12.421014 0.304721 4.492689 -0.091859 -0.075839 1.616818
 26   19.916998 1.704573 4.956909 2.262592 1.451744 0.734330
time 2
  0   0.073880 0.401734 28.904537 0.000000 0.000000 -2.003439
  1   -0.436194 0.015626 9.745319 -1.570795 -1.570451 0.000000
  2   -0.000008 0.000010 5.615750 -0.255773 3.326446 -0.522155
  3   15.693467 0.000000 0.000000 0.000000 0.000000 -0.667016
  4   22.146629 -0.000001 0.000000 -0.067008 -0.027961 0.116557
  5   3.310129 5.734393 0.000000 0.000000 0.000000 1.570796
  6   0.000008 -0.000006 -5.615750 -0.011504 3.101228 -0.665972
  7   15.693467 0.000000 0.000000 0.000000 0.000000 -1.099515
  8   22.146629 0.000000 0.000000 0.142152 0.115463 0.200584
  9   3.310129 5.734393 0.000000 0.000000 0.000000 1.570796
 10   1.384163 -0.004728 0.000002 0.202962 -0.000135 0.000796
 11   5.939814 -0.004730 0.000000 0.000000 0.000000 -0.016311
 12   5.939809 -0.003975 0.000000 0.000000 0.000000 0.000000
 13   4.991439 -0.003975 0.000000 0.000000 0.000000 0.000000
 14   4.991436 -0.001575 0.000000 0.000000 0.000000 0.000000
 15   0.000005 0.001564 3.638375 0.037189 -1.283373 3.105044
 16   8.842831 0.000000 -0.000002 0.139452 0.647967 -0.552934
 17   9.341934 0.000000 -0.000001 0.000000 0.000000 -1.192977
 18   11.168404 -0.000001 0.000002 -1.603290 0.207103 0.084162
 19   0.000005 0.001585 -3.638375 -0.000010 1.283575 3.140787
 20   8.842831 0.000000 0.000001 -0.365394 -0.611593 -0.251437
 21   9.341937 0.000000 -0.000001 0.000000 0.000000 -1.211724
 22   11.168404 -0.000001 0.000001 1.464933 -0.429273 0.505447
 23   1.977383 0.000000 0.000000 -0.337579 -0.025333 0.133951
 24   3.723980 2.768054 -0.049087 0.000001 -3.141591 -1.570794
 25   12.421014 0.304721 4.492689 -0.091859 -0.075839 1.616818
 26   19.916998 1.704573 4.956909 2.262592 1.451744 0.734330
time 3
  0   1.392673 1.430160 28.747709 0.000000 0.000000 -2.219737
  1   -0.830738 -0.101565 9.745319 -1.570795 -1.570790 0.000000
  2   -0.000008 0.000010 5.615750 -0.395740 3.385189 -0.498644
  3   15.693467 0.000000 0.000000 0.000000 0.000000 -0.680745
  4   22.146629 -0.000001 0.000000 -0.135361 -0.011120 0.130415
  5   3.310129 5.734393 0.000000 0.000000 0.000000 1.570796
  6   0.000008 -0.000006 -5.615750 -0.032309 3.044567 -0.609726
  7   15.693467 0.000000 0.000000 0.000000 0.000000 -1.031410
  8   22.146629 0.000000 0.000000 0.123311 0.157307 0.230178
  9   3.310129 5.734393 0.000000 0.000000 0.000000 1.570796
 10   1.384163 -0.004728 0.000002 0.322082 -0.000243 0.000764
 11   5.939814 -0.004730 0.000000 0.000000 0.000000 0.055990
 12   5.939809 -0.003975 0.000000 0.000000 0.000000 0.000000
 13   4.991439 -0.003975 0.000000 0.000000 0.000000 0.000000
 14   4.991436 -0.001575 0.000000 0.000000 0.000000 0.000000
 15   0.000005 0.001564 3.638375 0.055884 -1.283119 3.087211
 16   8.842831 0.000000 -0.000002 0.094187 0.612618 -0.242912
 17   9.341934 0.000000 -0.000001 0.000000 0.000000 -1.205031
 18   11.168404 -0.000001 0.000002 -1.591257 0.225000 0.056006
 19   0.000005 0.001585 -3.638375 -0.000010 1.283575 3.140787
 20   8.842831 0.000000 0.000001 -0.240586 -0.492258 0.211119
 21   9.341937 0.000000 -0.000001 0.000000 0.000000 -1.211724
 22   11.168404 -0.000001 0.000001 1.464933 -0.429273 0.505447
 23   1.977383 0.000000 0.000000 -0.535759 -0.052583 0.041650
 24   3.723980 2.768054 -0.049087 0.000001 -3.141591 -1.570794
 25   12.421014 0.304721 4.492689 -0.091859 -0.075839 1.616818
 26   19.916998 1.704573 4.956909 2.262592 1.451744 0.734330
time 4
  0   2.967688 2.529027 28.845728 0.000000 0.000000 -2.436131
  1   -1.131528 -0.269538 9.745319 -1.570795 -1.570790 0.000000
  2   -0.000008 0.000010 5.615750 -0.542513 3.426779 -0.450283
  3   15.693467 0.000000 0.000000 0.000000 0.000000 -0.647382
  4   22.146629 -0.000001 0.000000 -0.206669 0.007801 0.119621
  5   3.310129 5.734393 0.000000 0.000000 0.000000 1.570796
  6   0.000008 -0.000006 -5.615750 -0.050814 2.973908 -0.502984
  7   15.693467 0.000000 0.000000 0.000000 0.000000 -0.763155
  8   22.146629 0.000000 0.000000 0.094881 0.199274 0.164032
  9   3.310129 5.734393 0.000000 0.000000 0.000000 1.570796
 10   1.384163 -0.004728 0.000002 0.420671 -0.000323 0.000731
 11   5.939814 -0.004730 0.000000 0.000000 0.000000 0.115861
 12   5.939809 -0.003975 0.000000 0.000000 0.000000 0.000000
 13   4.991439 -0.003975 0.000000 0.000000 0.000000 0.000000
 14   4.991436 -0.001575 0.000000 0.000000 0.000000 0.000000
 15   0.000005 0.001564 3.638375 0.074387 -1.282793 3.069378
 16   8.842831 0.000000 -0.000002 0.040144 0.601734 0.086520
 17   9.341934 0.000000 -0.000001 0.000000 0.000000 -1.217086
 18   11.168404 -0.000001 0.000002 -1.579796 0.243184 0.027949
 19   0.000005 0.001585 -3.638375 -0.000010 1.283575 3.140787
 20   8.842831 0.000000 0.000001 -0.130452 -0.472251 0.604096
 21   9.341937 0.000000 -0.000001 0.000000 0.000000 -1.211724
 22   11.168404 -0.000001 0.000001 1.464933 -0.429273 0.505447
 23   1.977383 0.000000 0.000000 -0.699950 -0.079603 -0.025700
 24   3.723980 2.768054 -0.049087 0.000001 -3.141591 -1.570794
 25   12.421014 0.304721 4.492689 -0.091859 -0.075839 1.616818
 26   19.916998 1.704573 4.956909 2.262592 1.451744 0.734330
time 5
  0   -1.742286 3.078460 28.904537 0.000000 0.000000 -2.652429
  1   -1.315128 -0.417980 9.745319 -1.570795 -1.570451 0.000000
  2   -0.000008 0.000010 5.615750 -0.695709 3.533437 -0.234283
  3   15.693467 0.000000 0.000000 0.000000 0.000000 -0.603775
  4   22.146629 -0.000001 0.000000 -0.256551 -0.136683 0.170068
  5   3.310129 5.734393 0.000000 0.000000 0.000000 1.570796
  6   0.000008 -0.000006 -5.615750 -0.061648 2.901619 -0.396031
  7   15.693467 0.000000 0.000000 0.000000 0.000000 -0.494975
  8   22.146629 0.000000 0.000000 0.086024 0.245110 0.101938
  9   3.310129 5.734393 0.000000 0.000000 0.000000 1.570796
 10   1.384163 -0.004728 0.000002 0.488427 -0.000350 0.000731
 11   5.939814 -0.004730 0.000000 0.000000 0.000000 0.156993
 12   5.939809 -0.003975 0.000000 0.000000 0.000000 0.000000
 13   4.991439 -0.003975 0.000000 0.000000 0.000000 0.000000
 14   4.991436 -0.001575 0.000000 0.000000 0.000000 0.000000
 15   0.000005 0.001564 3.638375 0.092987 -1.282357 3.051641
 16   8.842831 0.000000 -0.000002 -0.004847 0.617921 0.455889
 17   9.341934 0.000000 -0.000001 0.000000 0.000000 -1.229140
 18   11.168404 -0.000001 0.000002 -1.568718 0.261750 -0.000011
 19   0.000005 0.001585 -3.638375 -0.000010 1.283575 3.140787
 20   8.842831 0.000000 0.000001 0.054180 -0.497039 0.616773
 21   9.341937 0.000000 -0.000001 0.000000 0.000000 -1.211724
 22   11.168404 -0.000001 0.000001 1.531958 -0.190351 0.150751
 23   1.977383 0.000000 0.000000 -0.812969 -0.099509 -0.066856
 24   3.723980 2.768054 -0.049087 0.000001 -3.141591 -1.570794
 25   12.421014 0.304721 4.492689 -0.091859 -0.075839 1.616818
 26   19.916998 1.704573 4.956909 2.262592 1.451744 0.734330
end
