version 1
nodes
  0 "Bip01" -1
  1 "Bip01 Pelvis" 0
  2 "Bip01 L Thigh" 1
  3 "Bip01 L Calf" 2
  4 "Bip01 L Foot" 3
  5 "Bip01 L Toe0" 4
  6 "Bip01 L Toe01" 5
  7 "Bip01 L Toe02" 6
  8 "Bone10" 4
  9 "Bone11" 8
 10 "Bone13" 4
 11 "Bone14" 10
 12 "Bip01 R Thigh" 1
 13 "Bip01 R Calf" 12
 14 "Bip01 R Foot" 13
 15 "Bip01 R Toe0" 14
 16 "Bip01 R Toe01" 15
 17 "Bip01 R Toe02" 16
 18 "Bone16" 14
 19 "Bone17" 18
 20 "Bone19" 14
 21 "Bone20" 20
 22 "Bip01 Spine" 1
 23 "Bip01 Spine1" 22
 24 "Bip01 Spine2" 23
 25 "Bip01 Spine3" 24
 26 "Bip01 Neck" 25
 27 "Bip01 L Clavicle" 26
 28 "Bip01 L UpperArm" 27
 29 "Bip01 L Forearm" 28
 30 "Bip01 L Hand" 29
 31 "Bip01 L Finger0" 30
 32 "Bip01 L Finger01" 31
 33 "Bip01 L Finger02" 32
 34 "Bip01 L Finger1" 30
 35 "Bip01 L Finger11" 34
 36 "Bip01 L Finger12" 35
 37 "Bip01 R Clavicle" 26
 38 "Bip01 R UpperArm" 37
 39 "Bip01 R Forearm" 38
 40 "Bip01 R Hand" 39
 41 "Bip01 R Finger0" 40
 42 "Bip01 R Finger01" 41
 43 "Bip01 R Finger02" 42
 44 "Bip01 R Finger1" 40
 45 "Bip01 R Finger11" 44
 46 "Bip01 R Finger12" 45
 47 "Bip01 Neck1" 26
 48 "Bip01 Head" 47
 49 "Bone05" 24
 50 "Bone06" 49
 51 "Bone07" 50
 52 "Bone08" 51
 53 "Bone09" 52
 54 "Bone22" 53
 55 "Bone23" 54
 56 "Bone26" 53
 57 "Bone27" 56
 58 "Bone30" 52
 59 "Bone31" 58
end
skeleton
time 0
  0   -0.018562 -0.040179 35.359627 0.000000 -0.244215 -1.570836
  1   -0.851108 -2.078188 0.000000 -0.000017 -1.562086 -1.570801
  2   -0.000009 0.000010 6.353377 -0.040784 -0.034202 -2.090038
  3   18.507666 -0.000001 0.000000 0.000000 0.000000 -0.798000
  4   13.411350 -0.000001 0.000000 2.895801 0.048804 0.011006
  5   8.701365 6.675649 0.000000 0.000000 0.000000 1.614392
  6   2.657023 0.000000 0.000000 0.000000 0.000000 -0.043611
  7   2.657024 0.000000 -0.000001 0.000000 0.000000 -0.043611
  8   6.248515 -0.893520 -3.345191 3.141592 0.078501 -1.570796
  9   5.692028 -3.146075 2.191403 0.000000 0.000000 0.000000
 10   6.262098 -1.288316 1.407515 -1.570796 1.492295 1.570796
 11   -0.950702 5.642267 -3.162059 0.000000 0.000000 0.000000
 12   0.000009 -0.000007 -6.353377 -0.001591 -0.018715 -3.083973
 13   18.507666 0.000000 0.000001 0.000000 0.000000 -0.773423
 14   13.411351 0.000000 0.000000 -2.934621 0.031909 0.934848
 15   8.701365 6.675650 0.000000 0.000000 0.000000 1.527185
 16   2.639102 0.000000 0.000001 0.000000 0.000000 -0.043611
 17   2.639103 0.000000 -0.000001 0.000000 0.000000 -0.043611
 18   6.262098 -1.271893 -1.655766 1.570795 1.492298 -1.570797
 19   0.660782 5.698953 -3.162059 0.000000 0.000000 0.000000
 20   6.280027 -0.875930 3.588309 1.570795 1.492298 -1.570797
 21   -1.268985 5.650652 -3.144119 0.000000 0.000000 0.000000
 22   3.416504 -0.970598 0.027351 0.148127 -0.148703 0.740751
 23   6.150888 -0.004769 0.000000 0.000000 -0.000001 0.305267
 24   6.181765 -0.006274 0.000000 0.016479 -0.005682 0.331385
 25   8.035381 -0.006658 0.000000 -0.045760 0.025380 0.505288
 26   9.041865 -0.002307 0.000000 0.000000 -0.000002 0.527171
 27   -5.186878 6.436396 3.525343 -0.000012 -1.370798 2.613622
 28   8.356072 -0.000002 0.000001 -1.093455 0.501594 -0.963115
 29   22.314192 -0.000001 -0.000002 0.000000 0.000000 -2.190916
 30   13.466396 0.000001 0.000001 -0.601406 -0.123836 -0.277171
 31   6.645414 -0.843860 -1.119305 -0.045897 0.131846 -0.334600
 32   3.530614 0.000002 -0.000001 0.000000 0.000000 -0.357609
 33   3.530616 0.000000 0.000001 0.000000 0.000000 0.828573
 34   6.690088 -0.762450 1.047433 0.062281 -0.172366 -0.354159
 35   3.608304 0.000000 0.000000 0.000000 0.000000 -0.357609
 36   3.608303 -0.000001 0.000000 0.000000 0.000000 0.828573
 37   -4.972171 6.347238 -3.100415 -0.000012 1.309458 2.613529
 38   8.356072 -0.000002 0.000000 1.098859 0.396456 -1.163079
 39   22.314194 -0.000001 0.000002 0.000000 0.000000 -1.313179
 40   13.466397 0.000001 0.000000 1.012313 -0.226560 0.603991
 41   6.635591 -0.843576 1.110600 0.070167 -0.169348 -0.389802
 42   3.530613 0.000000 0.000001 0.000000 0.000000 0.113358
 43   3.530613 0.000000 -0.000001 0.000000 0.000000 0.366368
 44   6.681006 -0.762752 -1.054662 0.013910 0.182656 0.071133
 45   3.608304 0.000000 0.000001 0.000000 0.000000 0.113374
 46   3.608303 -0.000002 0.000001 0.000000 0.000000 0.776257
 47   3.408091 -0.002195 0.000000 -0.000028 -0.034890 0.213179
 48   2.848662 -0.000001 0.000000 0.053233 0.219141 -0.848146
 49   4.138183 10.107881 0.022334 -0.000003 0.000000 -2.666067
 50   0.764266 -7.386538 0.000000 0.000000 0.000000 0.000000
 51   -2.209861 -5.858539 0.000000 0.000000 0.000000 0.000000
 52   -2.501887 -2.293673 0.000000 0.000000 0.000000 0.000000
 53   -1.605642 -0.865421 0.000000 0.000000 0.000000 0.000000
 54   -0.368520 -0.410555 -1.764821 0.000000 -1.570451 0.000000
 55   -0.928988 -2.565560 1.783661 0.000000 0.000000 0.000000
 56   -0.361656 -0.396879 1.486638 0.000000 -1.570451 0.000000
 57   1.132204 -2.564809 1.806066 0.000000 0.000000 0.000000
 58   0.498682 -1.366848 -0.110061 0.000000 -1.570451 0.000000
 59   -0.087093 -3.285075 -0.490831 0.000000 0.000000 0.000000
time 1
  0   0.559581 2.194264 34.242405 -0.116363 -0.215142 -1.069830
  1   -0.292497 -3.660268 0.000000 -0.000017 -1.282965 -1.570753
  2   -0.000009 0.000010 6.353377 0.051568 -0.151887 -2.286531
  3   18.507666 -0.000001 0.000000 0.000000 0.000000 -0.916232
  4   13.411350 -0.000001 0.000000 3.294134 0.237563 0.260174
  5   8.701365 6.675649 0.000000 0.000000 0.000000 1.614392
  6   2.657023 0.000000 0.000000 0.000000 0.000000 -0.043611
  7   2.657024 0.000000 -0.000001 0.000000 0.000000 -0.043611
  8   6.248515 -0.893520 -3.345191 3.141592 0.078501 -1.570796
  9   5.692028 -3.146075 2.191403 0.000000 0.000000 0.000000
 10   6.262098 -1.288316 1.407515 -1.570796 1.492295 1.570796
 11   -0.950702 5.642267 -3.162059 0.000000 0.000000 0.000000
 12   0.000009 -0.000007 -6.353377 0.132922 0.330973 -2.820082
 13   18.507666 0.000000 0.000001 0.000000 0.000000 -1.168473
 14   13.411351 0.000000 0.000000 -2.499936 -0.158470 1.066848
 15   8.701365 6.675650 0.000000 0.000000 0.000000 1.527185
 16   2.639102 0.000000 0.000001 0.000000 0.000000 -0.043611
 17   2.639103 0.000000 -0.000001 0.000000 0.000000 -0.043611
 18   6.262098 -1.271893 -1.655766 1.570795 1.492298 -1.570797
 19   0.660782 5.698953 -3.162059 0.000000 0.000000 0.000000
 20   6.280027 -0.875930 3.588309 1.570795 1.492298 -1.570797
 21   -1.268985 5.650652 -3.144119 0.000000 0.000000 0.000000
 22   3.279781 -0.970598 0.968786 -0.051154 -0.350612 0.790399
 23   6.150888 -0.004769 0.000000 -0.000120 -0.156999 0.305282
 24   6.181765 -0.006274 0.000000 0.016754 -0.232430 0.327594
 25   8.035381 -0.006658 0.000000 -0.047057 0.252122 0.494686
 26   9.041865 -0.002307 0.000000 -0.000083 -0.104654 0.466135
 27   -5.171253 6.108260 4.087860 0.906087 -1.400458 1.786153
 28   8.356072 -0.000002 0.000001 -1.037617 0.506638 -0.448600
 29   22.314192 -0.000001 -0.000002 0.000000 0.000000 -2.520365
 30   13.466396 0.000001 0.000001 -0.442348 0.438924 0.630512
 31   6.645414 -0.843860 -1.119305 0.091658 0.105385 0.719905
 32   3.530614 0.000002 -0.000001 0.000000 0.000000 0.689052
 33   3.530616 0.000000 0.000001 0.000000 0.000000 1.875244
 34   6.690088 -0.762450 1.047433 -0.119205 -0.139397 0.706177
 35   3.608304 0.000000 0.000000 0.000000 0.000000 0.689052
 36   3.608303 -0.000001 0.000000 0.000000 0.000000 1.875244
 37   -5.647973 6.030822 -2.526179 0.134402 1.212942 2.802879
 38   8.356072 -0.000002 0.000000 1.414181 0.275541 -1.006822
 39   22.314194 -0.000001 0.000002 0.000000 0.000000 -1.904309
 40   13.466397 0.000001 0.000000 1.025553 -0.092690 0.520809
 41   6.635591 -0.843576 1.110600 0.095921 -0.156299 -0.548366
 42   3.530613 0.000000 0.000001 0.000000 0.000000 -0.043579
 43   3.530613 0.000000 -0.000001 0.000000 0.000000 0.209334
 44   6.681006 -0.762752 -1.054662 -0.015130 0.182554 -0.088496
 45   3.608304 0.000000 0.000001 0.000000 0.000000 -0.043611
 46   3.608303 -0.000002 0.000001 0.000000 0.000000 0.619279
 47   3.408091 -0.002195 0.000000 0.000008 0.017435 0.169580
 48   2.848662 -0.000001 0.000000 0.289999 -0.351243 -0.959343
 49   4.138183 10.107881 0.022334 -0.000003 0.000000 -2.767220
 50   0.764266 -7.386538 0.000000 0.000000 0.000000 -0.248867
 51   -1.787973 -5.405400 0.000000 0.000000 0.000000 0.000000
 52   -2.396415 -1.946006 0.000000 0.000000 0.000000 0.000000
 53   -1.586110 -0.662290 0.000000 0.000000 0.000000 0.000000
 54   -0.345082 -0.363678 -1.764821 -0.086341 -1.570791 0.000000
 55   -0.928988 -2.186643 1.619594 -0.058241 0.000000 0.000000
 56   -0.342124 -0.350002 1.486638 -0.111667 -1.570795 0.000000
 57   1.132204 -2.150734 1.641999 -0.092690 0.000000 0.000000
 58   0.635405 -1.366848 -0.110061 0.000000 -1.570451 0.000000
 59   -0.087093 -3.210854 -0.787715 0.093697 0.000000 0.000000
time 2
  0   2.208068 -0.258936 33.406441 -0.113883 -0.216469 -1.081352
  1   -0.417501 -3.410260 0.000000 -0.000017 -1.266606 -1.570753
  2   -0.000009 0.000010 6.353377 0.069255 -0.127620 -2.182467
  3   18.507666 -0.000001 0.000000 0.000000 0.000000 -0.911478
  4   13.411350 -0.000001 0.000000 3.281968 0.212127 0.152609
  5   8.701365 6.675649 0.000000 0.000000 0.000000 1.614392
  6   2.657023 0.000000 0.000000 0.000000 0.000000 -0.043611
  7   2.657024 0.000000 -0.000001 0.000000 0.000000 -0.043611
  8   6.248515 -0.893520 -3.345191 3.141592 0.078501 -1.570796
  9   5.692028 -3.146075 2.191403 0.000000 0.000000 0.000000
 10   6.262098 -1.288316 1.407515 -1.570796 1.492295 1.570796
 11   -0.950702 5.642267 -3.162059 0.000000 0.000000 0.000000
 12   0.000009 -0.000007 -6.353377 0.218369 0.344920 -2.648310
 13   18.507666 0.000000 0.000001 0.000000 0.000000 -1.360132
 14   13.411351 0.000000 0.000000 -2.528509 -0.186543 1.104804
 15   8.701365 6.675650 0.000000 0.000000 0.000000 1.527185
 16   2.639102 0.000000 0.000001 0.000000 0.000000 -0.043611
 17   2.639103 0.000000 -0.000001 0.000000 0.000000 -0.043611
 18   6.262098 -1.271893 -1.655766 1.570795 1.492298 -1.570797
 19   0.660782 5.698953 -3.162059 0.000000 0.000000 0.000000
 20   6.280027 -0.875930 3.588309 1.570795 1.492298 -1.570797
 21   -1.268985 5.650652 -3.144119 0.000000 0.000000 0.000000
 22   3.264155 -0.970598 1.019568 -0.063585 -0.362102 0.794742
 23   6.150888 -0.004769 0.000000 -0.037620 -0.166539 0.311308
 24   6.181765 -0.006274 0.000000 0.016611 -0.179243 0.328501
 25   8.035381 -0.006658 0.000000 -0.047437 0.282825 0.493175
 26   9.041865 -0.002307 0.000000 0.000099 -0.034960 0.457797
 27   -5.495481 6.061384 3.716755 0.597375 -1.367928 2.098581
 28   8.356072 -0.000002 0.000001 -1.132216 0.518496 -0.536923
 29   22.314192 -0.000001 -0.000002 0.000000 0.000000 -2.557144
 30   13.466396 0.000001 0.000001 -0.389639 0.485781 0.748545
 31   6.645414 -0.843860 -1.119305 0.096765 0.100722 0.769344
 32   3.530614 0.000002 -0.000001 0.000000 0.000000 0.738443
 33   3.530616 0.000000 0.000001 0.000000 0.000000 1.924681
 34   6.690088 -0.762450 1.047433 -0.125926 -0.133352 0.755660
 35   3.608304 0.000000 0.000000 0.000000 0.000000 0.738443
 36   3.608303 -0.000001 0.000000 0.000000 0.000000 1.924681
 37   -5.507343 5.983946 -2.912909 0.053869 1.277754 2.734809
 38   8.356072 -0.000002 0.000000 1.120689 0.379717 -1.187465
 39   22.314194 -0.000001 0.000002 0.000000 0.000000 -1.774768
 40   13.466397 0.000001 0.000000 1.277843 -0.136872 0.258293
 41   6.635591 -0.843576 1.110600 0.085975 -0.151703 -0.473236
 42   3.530613 0.000000 0.000001 0.000000 0.000000 0.029882
 43   3.530613 0.000000 -0.000001 0.000000 0.000000 0.282892
 44   6.681006 -0.762752 -1.054662 -0.017691 0.125414 -0.105233
 45   3.608304 0.000000 0.000001 0.000000 0.000000 -0.061040
 46   3.608303 -0.000002 0.000001 0.000000 0.000000 0.601853
 47   3.408091 -0.002195 0.000000 -0.000256 0.076315 0.163624
 48   2.848662 -0.000001 0.000000 0.402656 -0.200400 -0.891511
 49   4.138183 10.107881 0.022334 -0.000003 0.000000 -2.882368
 50   0.764266 -7.386538 0.000000 0.000000 0.000000 -0.524092
 51   -1.760628 -4.889759 0.000000 0.000000 0.000000 0.000000
 52   -2.501887 -1.621778 0.000000 0.000000 0.000000 0.000000
 53   -1.672050 -0.494316 0.000000 0.000000 0.000000 0.000000
 54   -0.360707 -0.308989 -1.764821 -0.180140 -1.570791 0.000000
 55   -0.928988 -1.874133 1.814912 -0.124087 0.000000 0.000000
 56   -0.353843 -0.295313 1.486638 -0.233915 -1.570795 0.000000
 57   1.132204 -1.846037 1.895913 -0.201435 0.000000 0.000000
 58   0.709626 -1.323878 -0.110061 0.000000 -1.570451 0.000000
 59   -0.087093 -3.050693 -0.920531 0.194072 0.000000 0.000000
time 3
  0   3.903432 -0.215966 32.929863 -0.106968 -0.219949 -1.113443
  1   -0.644070 -2.816492 0.000000 -0.000017 -1.275762 -1.570753
  2   -0.000009 0.000010 6.353377 0.096017 -0.059813 -2.094674
  3   18.507666 -0.000001 0.000000 0.000000 0.000000 -1.018534
  4   13.411350 -0.000001 0.000000 3.279477 0.133334 0.187457
  5   8.701365 6.675649 0.000000 0.000000 0.000000 1.614392
  6   2.657023 0.000000 0.000000 0.000000 0.000000 -0.043611
  7   2.657024 0.000000 -0.000001 0.000000 0.000000 -0.043611
  8   6.248515 -0.893520 -3.345191 3.141592 0.078501 -1.570796
  9   5.692028 -3.146075 2.191403 0.000000 0.000000 0.000000
 10   6.262098 -1.288316 1.407515 -1.570796 1.492295 1.570796
 11   -0.950702 5.642267 -3.162059 0.000000 0.000000 0.000000
 12   0.000009 -0.000007 -6.353377 0.269489 0.405380 -2.633130
 13   18.507666 0.000000 0.000001 0.000000 0.000000 -1.368628
 14   13.411351 0.000000 0.000000 -2.591274 -0.260510 1.124041
 15   8.701365 6.675650 0.000000 0.000000 0.000000 1.527185
 16   2.639102 0.000000 0.000001 0.000000 0.000000 -0.043611
 17   2.639103 0.000000 -0.000001 0.000000 0.000000 -0.043611
 18   6.262098 -1.271893 -1.655766 1.570795 1.492298 -1.570797
 19   0.660782 5.698953 -3.162059 0.000000 0.000000 0.000000
 20   6.280027 -0.875930 3.588309 1.570795 1.492298 -1.570797
 21   -1.268985 5.650652 -3.144119 0.000000 0.000000 0.000000
 22   3.271968 -0.970598 0.992224 -0.056610 -0.355693 0.792299
 23   6.150888 -0.004769 0.000000 -0.080477 -0.147891 0.317464
 24   6.181765 -0.006274 0.000000 0.016479 -0.075672 0.330229
 25   8.035381 -0.006658 0.000000 -0.047345 0.275747 0.493525
 26   9.041865 -0.002307 0.000000 -0.000132 0.065039 0.459666
 27   -5.827523 6.073103 3.154238 0.279267 -1.302520 2.406255
 28   8.356072 -0.000002 0.000001 -1.262323 0.507877 -0.713918
 29   22.314192 -0.000001 -0.000002 0.000000 0.000000 -2.568006
 30   13.466396 0.000001 0.000001 -0.373260 0.498074 0.783196
 31   6.645414 -0.843860 -1.119305 0.091692 0.105349 0.720194
 32   3.530614 0.000002 -0.000001 0.000000 0.000000 0.689318
 33   3.530616 0.000000 0.000001 0.000000 0.000000 1.875554
 34   6.690088 -0.762450 1.047433 -0.119240 -0.139362 0.706464
 35   3.608304 0.000000 0.000000 0.000000 0.000000 0.689318
 36   3.608303 -0.000001 0.000000 0.000000 0.000000 1.875554
 37   -5.175302 5.995665 -3.440269 -0.142863 1.365636 2.542104
 38   8.356072 -0.000002 0.000000 0.681086 0.421098 -1.456900
 39   22.314194 -0.000001 0.000002 0.000000 0.000000 -1.520590
 40   13.466397 0.000001 0.000000 1.579910 -0.130326 -0.042176
 41   6.635591 -0.843576 1.110600 0.070485 -0.147457 -0.358090
 42   3.530613 0.000000 0.000001 0.000000 0.000000 0.143111
 43   3.530613 0.000000 -0.000001 0.000000 0.000000 0.396086
 44   6.681006 -0.762752 -1.054662 -0.016086 0.059574 -0.096467
 45   3.608304 0.000000 0.000001 0.000000 0.000000 -0.053402
 46   3.608303 -0.000002 0.000001 0.000000 0.000000 0.609489
 47   3.408091 -0.002195 0.000000 -0.000268 0.134153 0.164948
 48   2.848662 -0.000001 0.000000 0.478380 0.038588 -0.712661
 49   4.138183 10.107881 0.022334 -0.000003 0.000000 -2.990518
 50   0.764266 -7.386538 0.000000 0.000000 0.000000 -0.782886
 51   -2.120014 -4.553811 0.000000 0.000000 0.000000 0.000000
 52   -2.759708 -1.488961 0.000000 0.000000 0.000000 0.000000
 53   -1.816586 -0.439627 0.000000 0.000000 0.000000 0.000000
 54   -0.399771 -0.285551 -1.764821 -0.279986 -1.570791 0.000000
 55   -0.928988 -1.897571 2.217268 -0.197874 0.000000 0.000000
 56   -0.396813 -0.275781 1.486638 -0.365907 -1.570795 0.000000
 57   1.132204 -1.951509 2.341239 -0.320506 0.000000 0.000000
 58   0.697907 -1.245750 -0.110061 0.000000 -1.570451 0.000000
 59   -0.087093 -2.871000 -0.842404 0.289789 0.000000 0.000000
time 4
  0   4.747208 -0.040179 32.863457 -0.096238 -0.224756 -1.161928
  1   -0.765167 -2.375072 0.000000 -0.000017 -1.301804 -1.570753
  2   -0.000009 0.000010 6.353377 0.109140 -0.010404 -2.048980
  3   18.507666 -0.000001 0.000000 0.000000 0.000000 -1.056816
  4   13.411350 -0.000001 0.000000 3.258976 0.072614 0.195120
  5   8.701365 6.675649 0.000000 0.000000 0.000000 1.614392
  6   2.657023 0.000000 0.000000 0.000000 0.000000 -0.043611
  7   2.657024 0.000000 -0.000001 0.000000 0.000000 -0.043611
  8   6.248515 -0.893520 -3.345191 3.141592 0.078501 -1.570796
  9   5.692028 -3.146075 2.191403 0.000000 0.000000 0.000000
 10   6.262098 -1.288316 1.407515 -1.570796 1.492295 1.570796
 11   -0.950702 5.642267 -3.162059 0.000000 0.000000 0.000000
 12   0.000009 -0.000007 -6.353377 0.269581 0.425284 -2.672783
 13   18.507666 0.000000 0.000001 0.000000 0.000000 -1.323166
 14   13.411351 0.000000 0.000000 -2.658705 -0.288775 1.128757
 15   8.701365 6.675650 0.000000 0.000000 0.000000 1.527185
 16   2.639102 0.000000 0.000001 0.000000 0.000000 -0.043611
 17   2.639103 0.000000 -0.000001 0.000000 0.000000 -0.043611
 18   6.262098 -1.271893 -1.655766 1.570795 1.492298 -1.570797
 19   0.660782 5.698953 -3.162059 0.000000 0.000000 0.000000
 20   6.280027 -0.875930 3.588309 1.570795 1.492298 -1.570797
 21   -1.268985 5.650652 -3.144119 0.000000 0.000000 0.000000
 22   3.295406 -0.970598 0.906284 -0.036967 -0.337340 0.785622
 23   6.150888 -0.004769 0.000000 -0.100695 -0.124725 0.319420
 24   6.181765 -0.006274 0.000000 0.016479 -0.005682 0.331385
 25   8.035381 -0.006658 0.000000 -0.047057 0.251918 0.494686
 26   9.041865 -0.002307 0.000000 0.000083 0.122109 0.466135
 27   -5.956433 6.108260 2.822196 0.149455 -1.258422 2.524343
 28   8.356072 -0.000002 0.000001 -1.336230 0.438855 -0.866643
 29   22.314192 -0.000001 -0.000002 0.000000 0.000000 -2.558502
 30   13.466396 0.000001 0.000001 -0.389096 0.486223 0.749708
 31   6.645414 -0.843860 -1.119305 0.079333 0.114949 0.607704
 32   3.530614 0.000002 -0.000001 0.000000 0.000000 0.577116
 33   3.530616 0.000000 0.000001 0.000000 0.000000 1.763342
 34   6.690088 -0.762450 1.047433 -0.102859 -0.151807 0.593765
 35   3.608304 0.000000 0.000000 0.000000 0.000000 0.577116
 36   3.608303 -0.000001 0.000000 0.000000 0.000000 1.763342
 37   -4.933107 6.030822 -3.729341 -0.347073 1.409148 2.334826
 38   8.356072 -0.000002 0.000000 0.344386 0.329583 -1.641367
 39   22.314194 -0.000001 0.000002 0.000000 0.000000 -1.324440
 40   13.466397 0.000001 0.000000 1.807455 -0.067954 -0.266456
 41   6.635591 -0.843576 1.110600 0.058171 -0.143134 -0.264257
 42   3.530613 0.000000 0.000001 0.000000 0.000000 0.235471
 43   3.530613 0.000000 -0.000001 0.000000 0.000000 0.488473
 44   6.681006 -0.762752 -1.054662 -0.014874 0.008138 -0.085883
 45   3.608304 0.000000 0.000001 0.000000 0.000000 -0.043611
 46   3.608303 -0.000002 0.000001 0.000000 0.000000 0.619279
 47   3.408091 -0.002195 0.000000 0.000116 0.156995 0.169580
 48   2.848662 -0.000001 0.000000 0.501810 0.190237 -0.594709
 49   4.138183 10.107881 0.022334 -0.000003 0.000000 -3.070756
 50   0.764266 -7.386538 0.000000 0.000000 0.000000 -0.979769
 51   -2.541902 -4.475684 0.000000 0.000000 0.000000 0.000000
 52   -2.997996 -1.539744 0.000000 0.000000 0.000000 0.000000
 53   -1.933777 -0.494316 0.000000 0.000000 0.000000 0.000000
 54   -0.438835 -0.289457 -1.764821 -0.362161 -1.570791 0.000000
 55   -0.928988 -2.143672 2.525871 -0.249308 0.000000 0.000000
 56   -0.431971 -0.279688 1.486638 -0.472075 -1.570451 0.000000
 57   1.132204 -2.279644 2.661561 -0.391865 0.000000 0.000000
 58   0.647124 -1.179342 -0.110061 0.000000 -1.570451 0.000000
 59   -0.087093 -2.738183 -0.686149 0.367004 0.000000 0.000000
time 5
  0   2.985436 -1.235528 33.972866 -0.082503 -0.230113 -1.222939
  1   -0.800325 -2.234443 0.000000 -0.000017 -1.336152 -1.570753
  2   -0.000009 0.000010 6.353377 0.079465 -0.046495 -2.106168
  3   18.507666 -0.000001 0.000000 0.000000 0.000000 -0.869202
  4   13.411350 -0.000001 0.000000 3.184348 0.104743 0.067736
  5   8.701365 6.675649 0.000000 0.000000 0.000000 1.614392
  6   2.657023 0.000000 0.000000 0.000000 0.000000 -0.043611
  7   2.657024 0.000000 -0.000001 0.000000 0.000000 -0.043611
  8   6.248515 -0.893520 -3.345191 3.141592 0.078501 -1.570796
  9   5.692028 -3.146075 2.191403 0.000000 0.000000 0.000000
 10   6.262098 -1.288316 1.407515 -1.570796 1.492295 1.570796
 11   -0.950702 5.642267 -3.162059 0.000000 0.000000 0.000000
 12   0.000009 -0.000007 -6.353377 0.190940 0.323128 -2.719766
 13   18.507666 0.000000 0.000001 0.000000 0.000000 -1.260662
 14   13.411351 0.000000 0.000000 -2.684420 -0.190663 1.082694
 15   8.701365 6.675650 0.000000 0.000000 0.000000 1.527185
 16   2.639102 0.000000 0.000001 0.000000 0.000000 -0.043611
 17   2.639103 0.000000 -0.000001 0.000000 0.000000 -0.043611
 18   6.262098 -1.271893 -1.655766 1.570795 1.492298 -1.570797
 19   0.660782 5.698953 -3.162059 0.000000 0.000000 0.000000
 20   6.280027 -0.875930 3.588309 1.570795 1.492298 -1.570797
 21   -1.268985 5.650652 -3.144119 0.000000 0.000000 0.000000
 22   3.326657 -0.970598 0.792999 -0.011416 -0.312949 0.777451
 23   6.150888 -0.004769 0.000000 -0.095337 -0.106292 0.317841
 24   6.181765 -0.006274 0.000000 0.016503 0.011804 0.331678
 25   8.035381 -0.006658 0.000000 -0.046742 0.222886 0.496088
 26   9.041865 -0.002307 0.000000 0.000529 0.123707 0.474012
 27   -5.913463 6.155137 2.814384 0.127691 -1.258117 2.537844
 28   8.356072 -0.000002 0.000001 -1.331171 0.348860 -0.961728
 29   22.314192 -0.000001 -0.000002 0.000000 0.000000 -2.534102
 30   13.466396 0.000001 0.000001 -0.425891 0.454929 0.668653
 31   6.645414 -0.843860 -1.119305 0.062479 0.124879 0.467215
 32   3.530614 0.000002 -0.000001 0.000000 0.000000 0.437276
 33   3.530616 0.000000 0.000001 0.000000 0.000000 1.623483
 34   6.690088 -0.762450 1.047433 -0.080633 -0.164659 0.452738
 35   3.608304 0.000000 0.000000 0.000000 0.000000 0.437276
 36   3.608303 -0.000001 0.000000 0.000000 0.000000 1.623483
 37   -4.882324 6.069886 -3.733247 -0.356565 1.409850 2.317569
 38   8.356072 -0.000002 0.000000 0.206245 0.162954 -1.673655
 39   22.314194 -0.000001 0.000002 0.000000 0.000000 -1.376020
 40   13.466397 0.000001 0.000000 1.865192 -0.033511 -0.327475
 41   6.635591 -0.843576 1.110600 0.056078 -0.141264 -0.245988
 42   3.530613 0.000000 0.000001 0.000000 0.000000 0.253432
 43   3.530613 0.000000 -0.000001 0.000000 0.000000 0.506405
 44   6.681006 -0.762752 -1.054662 -0.015352 -0.006555 -0.091076
 45   3.608304 0.000000 0.000001 0.000000 0.000000 -0.049037
 46   3.608303 -0.000002 0.000001 0.000000 0.000000 0.613836
 47   3.408091 -0.002195 0.000000 0.000607 0.143057 0.175219
 48   2.848662 -0.000001 0.000000 0.468925 0.237933 -0.600242
 49   4.138183 10.107881 0.022334 -0.000003 0.000000 -3.102167
 50   0.764266 -7.386538 0.000000 0.000000 0.000000 -1.058259
 51   -2.725502 -4.495216 0.000000 0.000000 0.000000 0.000000
 52   -3.091749 -1.602246 0.000000 0.000000 0.000000 0.000000
 53   -1.980654 -0.537286 0.000000 0.000000 0.000000 0.000000
 54   -0.454460 -0.297270 -1.764821 -0.393741 -1.570451 0.000000
 55   -0.928988 -2.280396 2.635250 -0.265783 0.000000 0.000000
 56   -0.447596 -0.287500 1.486638 -0.511708 -1.570795 0.000000
 57   1.132204 -2.431993 2.763127 -0.414466 0.000000 0.000000
 58   0.619779 -1.151997 -0.110061 0.000000 -1.570451 0.000000
 59   -0.087093 -2.695213 -0.608022 0.399058 0.000000 0.000000
time 6
  0   0.981468 -2.192588 35.093994 -0.066527 -0.235149 -1.292302
  1   -0.823763 -2.156316 0.000000 -0.000017 -1.370188 -1.570753
  2   -0.000009 0.000010 6.353377 0.058658 -0.080089 -2.191974
  3   18.507666 -0.000001 0.000000 0.000000 0.000000 -0.619135
  4   13.411350 -0.000001 0.000000 3.103494 0.135342 -0.092802
  5   8.701365 6.675649 0.000000 0.000000 0.000000 1.614392
  6   2.657023 0.000000 0.000000 0.000000 0.000000 -0.043611
  7   2.657024 0.000000 -0.000001 0.000000 0.000000 -0.043611
  8   6.248515 -0.893520 -3.345191 3.141592 0.078501 -1.570796
  9   5.692028 -3.146075 2.191403 0.000000 0.000000 0.000000
 10   6.262098 -1.288316 1.407515 -1.570796 1.492295 1.570796
 11   -0.950702 5.642267 -3.162059 0.000000 0.000000 0.000000
 12   0.000009 -0.000007 -6.353377 0.113845 0.217946 -2.775234
 13   18.507666 0.000000 0.000001 0.000000 0.000000 -1.163315
 14   13.411351 0.000000 0.000000 -2.714326 -0.089006 1.021595
 15   8.701365 6.675650 0.000000 0.000000 0.000000 1.527185
 16   2.639102 0.000000 0.000001 0.000000 0.000000 -0.043611
 17   2.639103 0.000000 -0.000001 0.000000 0.000000 -0.043611
 18   6.262098 -1.271893 -1.655766 1.570795 1.492298 -1.570797
 19   0.660782 5.698953 -3.162059 0.000000 0.000000 0.000000
 20   6.280027 -0.875930 3.588309 1.570795 1.492298 -1.570797
 21   -1.268985 5.650652 -3.144119 0.000000 0.000000 0.000000
 22   3.350096 -0.970598 0.679714 0.013446 -0.288608 0.770095
 23   6.150888 -0.004769 0.000000 -0.081675 -0.086230 0.315277
 24   6.181765 -0.006274 0.000000 0.016503 0.016694 0.331766
 25   8.035381 -0.006658 0.000000 -0.046428 0.187578 0.497775
 26   9.041865 -0.002307 0.000000 0.000926 0.109323 0.483557
 27   -5.815804 6.209826 2.904230 0.125007 -1.271381 2.531759
 28   8.356072 -0.000002 0.000001 -1.301264 0.295235 -1.024569
 29   22.314192 -0.000001 -0.000002 0.000000 0.000000 -2.500319
 30   13.466396 0.000001 0.000001 -0.470604 0.408106 0.561850
 31   6.645414 -0.843860 -1.119305 0.045455 0.132011 0.334297
 32   3.530614 0.000002 -0.000001 0.000000 0.000000 0.305259
 33   3.530616 0.000000 0.000001 0.000000 0.000000 1.491496
 34   6.690088 -0.762450 1.047433 -0.058091 -0.173816 0.319134
 35   3.608304 0.000000 0.000000 0.000000 0.000000 0.305259
 36   3.608303 -0.000001 0.000000 0.000000 0.000000 1.491496
 37   -4.874511 6.120668 -3.659026 -0.297219 1.399317 2.366656
 38   8.356072 -0.000002 0.000000 0.215123 0.079851 -1.638648
 39   22.314194 -0.000001 0.000002 0.000000 0.000000 -1.465377
 40   13.466397 0.000001 0.000000 1.807455 -0.067954 -0.266456
 41   6.635591 -0.843576 1.110600 0.058171 -0.143134 -0.264257
 42   3.530613 0.000000 0.000001 0.000000 0.000000 0.235471
 43   3.530613 0.000000 -0.000001 0.000000 0.000000 0.488473
 44   6.681006 -0.762752 -1.054662 -0.014874 0.008138 -0.085883
 45   3.608304 0.000000 0.000001 0.000000 0.000000 -0.043611
 46   3.608303 -0.000002 0.000001 0.000000 0.000000 0.619279
 47   3.408091 -0.002195 0.000000 0.001015 0.116056 0.182049
 48   2.848662 -0.000001 0.000000 0.409255 0.261229 -0.642781
 49   4.138183 10.107881 0.022334 -0.000003 0.000000 -3.070756
 50   0.764266 -7.386538 0.000000 0.000000 0.000000 -0.979769
 51   -2.541902 -4.475684 0.000000 0.000000 0.000000 0.000000
 52   -2.997996 -1.539744 0.000000 0.000000 0.000000 0.000000
 53   -1.933777 -0.494316 0.000000 0.000000 0.000000 0.000000
 54   -0.438835 -0.289457 -1.764821 -0.362161 -1.570791 0.000000
 55   -0.928988 -2.143672 2.525871 -0.249308 0.000000 0.000000
 56   -0.431971 -0.279688 1.486638 -0.472075 -1.570451 0.000000
 57   1.132204 -2.279644 2.661561 -0.391865 0.000000 0.000000
 58   0.647124 -1.179342 -0.110061 0.000000 -1.570451 0.000000
 59   -0.087093 -2.738183 -0.686149 0.367004 0.000000 0.000000
time 7
  0   0.422857 -1.954300 35.359627 -0.049216 -0.239270 -1.365918
  1   -0.835482 -2.125065 0.000000 -0.000017 -1.408623 -1.570753
  2   -0.000009 0.000010 6.353377 0.042854 -0.070399 -2.188332
  3   18.507666 -0.000001 0.000000 0.000000 0.000000 -0.592535
  4   13.411350 -0.000001 0.000000 3.044003 0.118991 -0.113651
  5   8.701365 6.675649 0.000000 0.000000 0.000000 1.614392
  6   2.657023 0.000000 0.000000 0.000000 0.000000 -0.043611
  7   2.657024 0.000000 -0.000001 0.000000 0.000000 -0.043611
  8   6.248515 -0.893520 -3.345191 3.141592 0.078501 -1.570796
  9   5.692028 -3.146075 2.191403 0.000000 0.000000 0.000000
 10   6.262098 -1.288316 1.407515 -1.570796 1.492295 1.570796
 11   -0.950702 5.642267 -3.162059 0.000000 0.000000 0.000000
 12   0.000009 -0.000007 -6.353377 0.071583 0.164628 -2.843747
 13   18.507666 0.000000 0.000001 0.000000 0.000000 -1.083516
 14   13.411351 0.000000 0.000000 -2.770233 -0.049149 1.006634
 15   8.701365 6.675650 0.000000 0.000000 0.000000 1.527185
 16   2.639102 0.000000 0.000001 0.000000 0.000000 -0.043611
 17   2.639103 0.000000 -0.000001 0.000000 0.000000 -0.043611
 18   6.262098 -1.271893 -1.655766 1.570795 1.492298 -1.570797
 19   0.660782 5.698953 -3.162059 0.000000 0.000000 0.000000
 20   6.280027 -0.875930 3.588309 1.570795 1.492298 -1.570797
 21   -1.268985 5.650652 -3.144119 0.000000 0.000000 0.000000
 22   3.373534 -0.970598 0.550804 0.041156 -0.260920 0.762576
 23   6.150888 -0.004769 0.000000 -0.062524 -0.065029 0.312307
 24   6.181765 -0.006274 0.000000 0.016503 0.013194 0.331708
 25   8.035381 -0.006658 0.000000 -0.046153 0.148073 0.499636
 26   9.041865 -0.002307 0.000000 0.001108 0.084399 0.494195
 27   -5.675174 6.264515 3.052672 0.120884 -1.294083 2.526435
 28   8.356072 -0.000002 0.000001 -1.259160 0.304881 -1.046411
 29   22.314192 -0.000001 -0.000002 0.000000 0.000000 -2.445890
 30   13.466396 0.000001 0.000001 -0.528825 0.325187 0.399982
 31   6.645414 -0.843860 -1.119305 0.026762 0.137003 0.195195
 32   3.530614 0.000002 -0.000001 0.000000 0.000000 0.167357
 33   3.530616 0.000000 0.000001 0.000000 0.000000 1.353576
 34   6.690088 -0.762450 1.047433 -0.033415 -0.180144 0.179183
 35   3.608304 0.000000 0.000000 0.000000 0.000000 0.167357
 36   3.608303 -0.000001 0.000000 0.000000 0.000000 1.353576
 37   -4.901856 6.175358 -3.530116 -0.207769 1.380279 2.444026
 38   8.356072 -0.000002 0.000000 0.368843 0.148424 -1.575432
 39   22.314194 -0.000001 0.000002 0.000000 0.000000 -1.447669
 40   13.466397 0.000001 0.000000 1.664344 -0.154126 -0.106860
 41   6.635591 -0.843576 1.110600 0.060336 -0.148567 -0.289682
 42   3.530613 0.000000 0.000001 0.000000 0.000000 0.210693
 43   3.530613 0.000000 -0.000001 0.000000 0.000000 0.463643
 44   6.681006 -0.762752 -1.054662 -0.011272 0.043910 -0.054526
 45   3.608304 0.000000 0.000001 0.000000 0.000000 -0.011693
 46   3.608303 -0.000002 0.000001 0.000000 0.000000 0.651181
 47   3.408091 -0.002195 0.000000 0.001194 0.080378 0.189646
 48   2.848662 -0.000001 0.000000 0.328235 0.263317 -0.704146
 49   4.138183 10.107881 0.022334 -0.000003 0.000000 -2.990518
 50   0.764266 -7.386538 0.000000 0.000000 0.000000 -0.782886
 51   -2.120014 -4.553811 0.000000 0.000000 0.000000 0.000000
 52   -2.759708 -1.488961 0.000000 0.000000 0.000000 0.000000
 53   -1.816586 -0.439627 0.000000 0.000000 0.000000 0.000000
 54   -0.399771 -0.285551 -1.764821 -0.279986 -1.570791 0.000000
 55   -0.928988 -1.897571 2.217268 -0.197874 0.000000 0.000000
 56   -0.396813 -0.275781 1.486638 -0.365907 -1.570795 0.000000
 57   1.132204 -1.951509 2.341239 -0.320506 0.000000 0.000000
 58   0.697907 -1.245750 -0.110061 0.000000 -1.570451 0.000000
 59   -0.087093 -2.871000 -0.842404 0.289789 0.000000 0.000000
time 8
  0   0.208007 -1.383970 35.406502 -0.031618 -0.242200 -1.439688
  1   -0.843295 -2.117252 0.000000 -0.000017 -1.457652 -1.570753
  2   -0.000009 0.000010 6.353377 0.017562 -0.056847 -2.154464
  3   18.507666 -0.000001 0.000000 0.000000 0.000000 -0.649780
  4   13.411350 -0.000001 0.000000 2.990068 0.094320 -0.081456
  5   8.701365 6.675649 0.000000 0.000000 0.000000 1.614392
  6   2.657023 0.000000 0.000000 0.000000 0.000000 -0.043611
  7   2.657024 0.000000 -0.000001 0.000000 0.000000 -0.043611
  8   6.248515 -0.893520 -3.345191 3.141592 0.078501 -1.570796
  9   5.692028 -3.146075 2.191403 0.000000 0.000000 0.000000
 10   6.262098 -1.288316 1.407515 -1.570796 1.492295 1.570796
 11   -0.950702 5.642267 -3.162059 0.000000 0.000000 0.000000
 12   0.000009 -0.000007 -6.353377 0.037141 0.108114 -2.921379
 13   18.507666 0.000000 0.000001 0.000000 0.000000 -0.994210
 14   13.411351 0.000000 0.000000 -2.829283 -0.020117 0.993367
 15   8.701365 6.675650 0.000000 0.000000 0.000000 1.527185
 16   2.639102 0.000000 0.000001 0.000000 0.000000 -0.043611
 17   2.639103 0.000000 -0.000001 0.000000 0.000000 -0.043611
 18   6.262098 -1.271893 -1.655766 1.570795 1.492298 -1.570797
 19   0.660782 5.698953 -3.162059 0.000000 0.000000 0.000000
 20   6.280027 -0.875930 3.588309 1.570795 1.492298 -1.570797
 21   -1.268985 5.650652 -3.144119 0.000000 0.000000 0.000000
 22   3.396972 -0.970598 0.382830 0.075888 -0.225308 0.754215
 23   6.150888 -0.004769 0.000000 -0.040700 -0.043217 0.309439
 24   6.181765 -0.006274 0.000000 0.016491 0.005500 0.331576
 25   8.035381 -0.006658 0.000000 -0.045943 0.106470 0.501564
 26   9.041865 -0.002307 0.000000 0.000976 0.054337 0.505378
 27   -5.511106 6.327017 3.224553 0.097971 -1.321655 2.538700
 28   8.356072 -0.000002 0.000001 -1.208744 0.363284 -1.033843
 29   22.314192 -0.000001 -0.000002 0.000000 0.000000 -2.366023
 30   13.466396 0.000001 0.000001 -0.585570 0.191052 0.178836
 31   6.645414 -0.843860 -1.119305 0.003200 0.139527 0.024799
 32   3.530614 0.000002 -0.000001 0.000000 0.000000 -0.001455
 33   3.530616 0.000000 0.000001 0.000000 0.000000 1.184753
 34   6.690088 -0.762450 1.047433 -0.002333 -0.183167 0.007570
 35   3.608304 0.000000 0.000000 0.000000 0.000000 -0.001455
 36   3.608303 -0.000001 0.000000 0.000000 0.000000 1.184753
 37   -4.933107 6.233953 -3.377767 -0.119758 1.355987 2.519094
 38   8.356072 -0.000002 0.000000 0.588328 0.251069 -1.472110
 39   22.314194 -0.000001 0.000002 0.000000 0.000000 -1.407350
 40   13.466397 0.000001 0.000000 1.465016 -0.226882 0.111837
 41   6.635591 -0.843576 1.110600 0.063252 -0.155326 -0.321671
 42   3.530613 0.000000 0.000001 0.000000 0.000000 0.179519
 43   3.530613 0.000000 -0.000001 0.000000 0.000000 0.432487
 44   6.681006 -0.762752 -1.054662 -0.005160 0.088672 -0.014834
 45   3.608304 0.000000 0.000001 0.000000 0.000000 0.028319
 46   3.608303 -0.000002 0.000001 0.000000 0.000000 0.691210
 47   3.408091 -0.002195 0.000000 0.001063 0.040421 0.197614
 48   2.848662 -0.000001 0.000000 0.234682 0.249715 -0.766230
 49   4.138183 10.107881 0.022334 -0.000003 0.000000 -2.882368
 50   0.764266 -7.386538 0.000000 0.000000 0.000000 -0.524092
 51   -1.760628 -4.889759 0.000000 0.000000 0.000000 0.000000
 52   -2.501887 -1.621778 0.000000 0.000000 0.000000 0.000000
 53   -1.672050 -0.494316 0.000000 0.000000 0.000000 0.000000
 54   -0.360707 -0.308989 -1.764821 -0.180140 -1.570791 0.000000
 55   -0.928988 -1.874133 1.814912 -0.124087 0.000000 0.000000
 56   -0.353843 -0.295313 1.486638 -0.233915 -1.570795 0.000000
 57   1.132204 -1.846037 1.895913 -0.201435 0.000000 0.000000
 58   0.709626 -1.323878 -0.110061 0.000000 -1.570451 0.000000
 59   -0.087093 -3.050693 -0.920531 0.194072 0.000000 0.000000
time 9
  0   0.129880 -0.680823 35.363533 -0.014831 -0.243757 -1.509361
  1   -0.847201 -2.109439 0.000000 -0.000017 -1.510924 -1.570753
  2   -0.000009 0.000010 6.353377 -0.012500 -0.042675 -2.116149
  3   18.507666 -0.000001 0.000000 0.000000 0.000000 -0.733119
  4   13.411350 -0.000001 0.000000 2.941689 0.069076 -0.030473
  5   8.701365 6.675649 0.000000 0.000000 0.000000 1.614392
  6   2.657023 0.000000 0.000000 0.000000 0.000000 -0.043611
  7   2.657024 0.000000 -0.000001 0.000000 0.000000 -0.043611
  8   6.248515 -0.893520 -3.345191 3.141592 0.078501 -1.570796
  9   5.692028 -3.146075 2.191403 0.000000 0.000000 0.000000
 10   6.262098 -1.288316 1.407515 -1.570796 1.492295 1.570796
 11   -0.950702 5.642267 -3.162059 0.000000 0.000000 0.000000
 12   0.000009 -0.000007 -6.353377 0.011973 0.046588 -3.003628
 13   18.507666 0.000000 0.000001 0.000000 0.000000 -0.891402
 14   13.411351 0.000000 0.000000 -2.885571 0.005177 0.972362
 15   8.701365 6.675650 0.000000 0.000000 0.000000 1.527185
 16   2.639102 0.000000 0.000001 0.000000 0.000000 -0.043611
 17   2.639103 0.000000 -0.000001 0.000000 0.000000 -0.043611
 18   6.262098 -1.271893 -1.655766 1.570795 1.492298 -1.570797
 19   0.660782 5.698953 -3.162059 0.000000 0.000000 0.000000
 20   6.280027 -0.875930 3.588309 1.570795 1.492298 -1.570797
 21   -1.268985 5.650652 -3.144119 0.000000 0.000000 0.000000
 22   3.412598 -0.970598 0.203137 0.112992 -0.186350 0.746614
 23   6.150888 -0.004769 0.000000 -0.018936 -0.021346 0.307020
 24   6.181765 -0.006274 0.000000 0.016491 -0.002182 0.331444
 25   8.035381 -0.006658 0.000000 -0.045812 0.064885 0.503492
 26   9.041865 -0.002307 0.000000 0.000562 0.024436 0.516562
 27   -5.339227 6.385612 3.392526 0.056649 -1.348923 2.568650
 28   8.356072 -0.000002 0.000001 -1.151099 0.438058 -0.998999
 29   22.314192 -0.000001 -0.000002 0.000000 0.000000 -2.275934
 30   13.466396 0.000001 0.000001 -0.611808 0.029879 -0.056948
 31   6.645414 -0.843860 -1.119305 -0.022098 0.137826 -0.158108
 32   3.530614 0.000002 -0.000001 0.000000 0.000000 -0.182620
 33   3.530616 0.000000 0.000001 0.000000 0.000000 1.003600
 34   6.690088 -0.762450 1.047433 0.031024 -0.180551 -0.176593
 35   3.608304 0.000000 0.000000 0.000000 0.000000 -0.182620
 36   3.608303 -0.000001 0.000000 0.000000 0.000000 1.003600
 37   -4.964358 6.292549 -3.225419 -0.048812 1.330733 2.577002
 38   8.356072 -0.000002 0.000000 0.845677 0.344198 -1.326219
 39   22.314194 -0.000001 0.000002 0.000000 0.000000 -1.358040
 40   13.466397 0.000001 0.000000 1.234215 -0.254005 0.362736
 41   6.635591 -0.843576 1.110600 0.066645 -0.162531 -0.356389
 42   3.530613 0.000000 0.000001 0.000000 0.000000 0.145825
 43   3.530613 0.000000 -0.000001 0.000000 0.000000 0.398781
 44   6.681006 -0.762752 -1.054662 0.003496 0.136771 0.028596
 45   3.608304 0.000000 0.000001 0.000000 0.000000 0.071665
 46   3.608303 -0.000002 0.000001 0.000000 0.000000 0.734565
 47   3.408091 -0.002195 0.000000 0.000619 0.000548 0.205582
 48   2.848662 -0.000001 0.000000 0.139466 0.230416 -0.815846
 49   4.138183 10.107881 0.022334 -0.000003 0.000000 -2.767220
 50   0.764266 -7.386538 0.000000 0.000000 0.000000 -0.248867
 51   -1.787973 -5.405400 0.000000 0.000000 0.000000 0.000000
 52   -2.396415 -1.946006 0.000000 0.000000 0.000000 0.000000
 53   -1.586110 -0.662290 0.000000 0.000000 0.000000 0.000000
 54   -0.345082 -0.363678 -1.764821 -0.086341 -1.570791 0.000000
 55   -0.928988 -2.186643 1.619594 -0.058241 0.000000 0.000000
 56   -0.342124 -0.350002 1.486638 -0.111667 -1.570795 0.000000
 57   1.132204 -2.150734 1.641999 -0.092690 0.000000 0.000000
 58   0.635405 -1.366848 -0.110061 0.000000 -1.570451 0.000000
 59   -0.087093 -3.210854 -0.787715 0.093697 0.000000 0.000000
time 10
  0   -0.018562 -0.040179 35.359627 0.000000 -0.244215 -1.570836
  1   -0.851108 -2.078188 0.000000 -0.000017 -1.562086 -1.570801
  2   -0.000009 0.000010 6.353377 -0.040784 -0.034202 -2.090038
  3   18.507666 -0.000001 0.000000 0.000000 0.000000 -0.798000
  4   13.411350 -0.000001 0.000000 2.895801 0.048804 0.011006
  5   8.701365 6.675649 0.000000 0.000000 0.000000 1.614392
  6   2.657023 0.000000 0.000000 0.000000 0.000000 -0.043611
  7   2.657024 0.000000 -0.000001 0.000000 0.000000 -0.043611
  8   6.248515 -0.893520 -3.345191 3.141592 0.078501 -1.570796
  9   5.692028 -3.146075 2.191403 0.000000 0.000000 0.000000
 10   6.262098 -1.288316 1.407515 -1.570796 1.492295 1.570796
 11   -0.950702 5.642267 -3.162059 0.000000 0.000000 0.000000
 12   0.000009 -0.000007 -6.353377 -0.001591 -0.018715 -3.083973
 13   18.507666 0.000000 0.000001 0.000000 0.000000 -0.773423
 14   13.411351 0.000000 0.000000 -2.934621 0.031909 0.934848
 15   8.701365 6.675650 0.000000 0.000000 0.000000 1.527185
 16   2.639102 0.000000 0.000001 0.000000 0.000000 -0.043611
 17   2.639103 0.000000 -0.000001 0.000000 0.000000 -0.043611
 18   6.262098 -1.271893 -1.655766 1.570795 1.492298 -1.570797
 19   0.660782 5.698953 -3.162059 0.000000 0.000000 0.000000
 20   6.280027 -0.875930 3.588309 1.570795 1.492298 -1.570797
 21   -1.268985 5.650652 -3.144119 0.000000 0.000000 0.000000
 22   3.416504 -0.970598 0.027351 0.148127 -0.148703 0.740751
 23   6.150888 -0.004769 0.000000 0.000000 -0.000001 0.305267
 24   6.181765 -0.006274 0.000000 0.016479 -0.005682 0.331385
 25   8.035381 -0.006658 0.000000 -0.045760 0.025380 0.505288
 26   9.041865 -0.002307 0.000000 0.000000 -0.000002 0.527171
 27   -5.186878 6.436396 3.525343 -0.000012 -1.370798 2.613622
 28   8.356072 -0.000002 0.000001 -1.093455 0.501594 -0.963115
 29   22.314192 -0.000001 -0.000002 0.000000 0.000000 -2.190916
 30   13.466396 0.000001 0.000001 -0.601406 -0.123836 -0.277171
 31   6.645414 -0.843860 -1.119305 -0.045897 0.131846 -0.334600
 32   3.530614 0.000002 -0.000001 0.000000 0.000000 -0.357609
 33   3.530616 0.000000 0.000001 0.000000 0.000000 0.828573
 34   6.690088 -0.762450 1.047433 0.062281 -0.172366 -0.354159
 35   3.608304 0.000000 0.000000 0.000000 0.000000 -0.357609
 36   3.608303 -0.000001 0.000000 0.000000 0.000000 0.828573
 37   -4.972171 6.347238 -3.100415 -0.000012 1.309458 2.613529
 38   8.356072 -0.000002 0.000000 1.098859 0.396456 -1.163079
 39   22.314194 -0.000001 0.000002 0.000000 0.000000 -1.313179
 40   13.466397 0.000001 0.000000 1.012313 -0.226560 0.603991
 41   6.635591 -0.843576 1.110600 0.070167 -0.169348 -0.389802
 42   3.530613 0.000000 0.000001 0.000000 0.000000 0.113358
 43   3.530613 0.000000 -0.000001 0.000000 0.000000 0.366368
 44   6.681006 -0.762752 -1.054662 0.013910 0.182656 0.071133
 45   3.608304 0.000000 0.000001 0.000000 0.000000 0.113374
 46   3.608303 -0.000002 0.000001 0.000000 0.000000 0.776257
 47   3.408091 -0.002195 0.000000 -0.000028 -0.034890 0.213179
 48   2.848662 -0.000001 0.000000 0.053233 0.219141 -0.848146
 49   4.138183 10.107881 0.022334 -0.000003 0.000000 -2.666067
 50   0.764266 -7.386538 0.000000 0.000000 0.000000 0.000000
 51   -2.209861 -5.858539 0.000000 0.000000 0.000000 0.000000
 52   -2.501887 -2.293673 0.000000 0.000000 0.000000 0.000000
 53   -1.605642 -0.865421 0.000000 0.000000 0.000000 0.000000
 54   -0.368520 -0.410555 -1.764821 0.000000 -1.570451 0.000000
 55   -0.928988 -2.565560 1.783661 0.000000 0.000000 0.000000
 56   -0.361656 -0.396879 1.486638 0.000000 -1.570451 0.000000
 57   1.132204 -2.564809 1.806066 0.000000 0.000000 0.000000
 58   0.498682 -1.366848 -0.110061 0.000000 -1.570451 0.000000
 59   -0.087093 -3.285075 -0.490831 0.000000 0.000000 0.000000
end
