/*
==============================================================================

QC script generated by Half-Life MDL Decompiler 1.2 
2003, Kratisto. Based on code from Valve's HL SDK.

hgrunt.mdl

Original internal name:
"hgrunt.mdl"

==============================================================================
*/

$modelname "hgrunt.mdl"
$cd ".\"
$cdtexture ".\"
$scale 1.0
$cliptotextures


$bbox 0.000000 0.000000 0.000000 0.000000 0.000000 0.000000
$cbox 0.000000 0.000000 0.000000 0.000000 0.000000 0.000000
$eyeposition 0.000000 0.000000 73.000000


//reference mesh(es)
$body "body" "DC_soldier_reference"

$bodygroup "heads"
{
studio "head_refs/DC_soldier_head_mask_reference"
studio "head_refs/DC_soldier_head_cmdr_reference"
studio "head_refs/DC_soldier_head_hood_reference"
studio "head_refs/DC_soldier_head_cmdr_blk_reference"
}

$bodygroup "weapons"
{
studio "weapon_refs/m4"
studio "weapon_refs/shotgun"
blank
studio "weapon_refs/mp5"
}


// 2 skin families
$texturegroup skinfamilies 
{
{ "DC_soldier_skin_wht.BMP" }
{ "dc_soldier_skin_blk.bmp" }
}

// 3 attachment(s)
$attachment 0 "Bip01 R Hand" 35.000000 1.250000 7.250000 // m4 muzzle 
$attachment 1 "Bip01 R Hand" 0.000000 0.000000 0.000000 
$attachment 2 "Bip01 Head" 0.000000 0.000000 0.000000
$attachment 3 "Bip01 R Hand" 10.000000 -1.500000 5.500000

// 1 bone controller(s)
$controller 0 "Bip01 Head" XR -70.000000 70.000000

// 18 hit box(es)
$hbox 3 "Bip01 Pelvis" -3.640000 -6.050000 -8.070000 6.340000 8.410000 8.300000
$hbox 6 "Bip01 L Thigh" 0.000000 -6.350000 -6.050000 16.309999 5.570000 3.840000
$hbox 6 "Bip01 L Calf" 0.000000 -5.190000 -4.440000 22.150000 5.680000 4.780000
$hbox 6 "Bip01 L Foot" -1.080000 -1.900000 -3.240000 3.230000 11.210000 2.860000
$hbox 7 "Bip01 R Thigh" 0.000000 -6.350000 -4.060000 16.309999 5.570000 5.820000
$hbox 7 "Bip01 R Calf" 0.000000 -5.190000 -5.010000 22.150000 5.680000 4.220000
$hbox 7 "Bip01 R Foot" -1.080000 -1.900000 -3.720000 3.230000 11.210000 2.390000
$hbox 3 "Bip01 Spine1" -4.570000 -9.990000 -10.520000 11.490000 8.420000 10.750000
$hbox 2 "Bip01 Spine2" 0.000000 -10.510000 -11.440000 14.050000 9.260000 12.420000
$hbox 4 "Bip01 L UpperArm" -2.810000 -1.990000 -4.740000 12.060000 4.780000 3.500000
$hbox 4 "Bip01 L Forearm" 0.000000 -1.430000 -2.150000 10.210000 4.010000 2.980000
$hbox 4 "Bip01 L Hand" -0.270000 -2.650000 -2.750000 7.580000 1.890000 1.800000
$hbox 5 "Bip01 R UpperArm" -2.830000 -1.990000 -3.460000 12.030000 4.780000 4.780000
$hbox 5 "Bip01 R Forearm" 0.000000 -1.430000 -2.940000 10.190000 4.000000 2.180000
$hbox 5 "Bip01 R Hand" -0.160000 -2.040000 -1.790000 7.500000 2.400000 2.760000
$hbox 11 "Bip01 Head" 9.000000 -5.220000 -4.590000 15.150000 7.560000 6.010000
$hbox 11 "Bip01 Head" 1.700000 -5.220000 -4.590000 9.000000 1.000000 6.010000
$hbox 1 "Bip01 Head" 1.700000 1.000000 -4.590000 9.000000 7.560000 6.010000



// 86 animation sequence(s)
$sequence "walk1" "anims/walk1" LX fps 35 loop ACT_WALK 1 
$sequence "run" "anims/run" LX fps 40 loop ACT_RUN 1 
$sequence "victorydance" "anims/victorydance" fps 21 ACT_VICTORY_DANCE 1 
$sequence "cower" "anims/cower" fps 14 ACT_COWER 1 
$sequence "smflinch" "anims/smflinch" fps 20 ACT_SMALL_FLINCH 5 
$sequence "leftlegsmflinch" "anims/leftlegsmflinch" fps 22 ACT_FLINCH_LEFTLEG 1 
$sequence "rightlegsmflinch" "anims/rightlegsmflinch" fps 22 ACT_FLINCH_RIGHTLEG 1 
$sequence "rightarmflinch" "anims/rightarmflinch" fps 22 ACT_FLINCH_RIGHTARM 1 
$sequence "leftarmflinch" "anims/leftarmflinch" fps 22 ACT_FLINCH_LEFTARM 1 
$sequence "launchgrenade" "anims/launchgrenade" fps 30 ACT_RANGE_ATTACK2 1 { event 8 24 } 
$sequence "throwgrenade" "anims/throwgrenade" fps 30 ACT_RANGE_ATTACK2 1 { event 7 34 } 
$sequence "idle1" "anims/idle1" fps 15 loop ACT_IDLE 1 
$sequence "idle2" "anims/idle2" fps 10 loop ACT_IDLE 1 
$sequence "combatidle" "anims/combatidle" fps 20 loop ACT_IDLE_ANGRY 1 
$sequence "frontkick" "anims/frontkick" fps 35 ACT_MELEE_ATTACK1 1 { event 3 13 } { event 2010 13 } 
$sequence "crouching_idle" "anims/crouching_idle" fps 15 loop 
$sequence "crouching_wait" "anims/crouching_wait" fps 15 ACT_CROUCH 0 
$sequence "crouching_mp5" "anims/crouching_mp5_blend1" "anims/crouching_mp5_blend2" blend XR -45 45 fps 173 loop ACT_RANGE_ATTACK1 1 {
  { event 4 1 } 
  { event 5 5 } 
  { event 6 9 } 
  { event 5001 1 "50" } 
  { event 5001 5 "50" } 
  { event 5001 9 "50" } 
 }
$sequence "standing_mp5" "anims/standing_mp5_blend1" "anims/standing_mp5_blend2" blend XR -45 45 fps 173 loop {
  { event 4 1 } 
  { event 5 5 } 
  { event 6 9 } 
  { event 5001 1 "50" } 
  { event 5001 5 "50" } 
  { event 5001 9 "50" } 
 }
 $sequence "crouching_m4" "anims/crouching_mp5_blend1" "anims/crouching_mp5_blend2" blend XR -45 45 fps 152 loop ACT_RANGE_ATTACK1 1 {
  { event 4 1 } 
  { event 5 5 } 
  { event 6 9 } 
  { event 5001 1 "50" } 
  { event 5001 5 "50" } 
  { event 5001 9 "50" } 
 }
$sequence "standing_m4" "anims/standing_mp5_blend1" "anims/standing_mp5_blend2" blend XR -45 45 fps 152 loop {
  { event 4 1 } 
  { event 5 5 } 
  { event 6 9 } 
  { event 5001 1 "50" } 
  { event 5001 5 "50" } 
  { event 5001 9 "50" } 
 }
$sequence "reload_mp5" "anims/reload_mp5" fps 36 ACT_RELOAD 1 { event 2 41 } 
$sequence "crouching_shotgun" "anims/crouching_shotgun_blend1" "anims/crouching_shotgun_blend2" blend XR -45 45 fps 20 ACT_RANGE_ATTACK1 1 { event 4 1 } { event 5001 1 "51" } 
$sequence "standing_shotgun" "anims/standing_shotgun_blend1" "anims/standing_shotgun_blend2" blend XR -45 45 fps 20 { event 4 1 } { event 5001 1 "51" } 
$sequence "reload_shotgun" "anims/reload_shotgun" fps 36 { event 2 41 } 
$sequence "advance_signal" "anims/advance_signal" fps 25 ACT_SIGNAL1 1 { event 10 7 } 
$sequence "flank_signal" "anims/flank_signal" fps 19 ACT_SIGNAL2 1 
$sequence "retreat_signal" "anims/retreat_signal" fps 25 ACT_SIGNAL3 1 
$sequence "drop_grenade" "anims/drop_grenade" fps 40 ACT_SPECIAL_ATTACK1 1 { event 9 31 } 
$sequence "limpingwalk" "anims/limpingwalk" LX fps 30 loop ACT_WALK_HURT 1 
$sequence "limpingrun" "anims/limpingrun" LX fps 30 loop ACT_RUN_HURT 1 
$sequence "180L" "anims/180L" fps 12 ACT_TURN_LEFT 1 
$sequence "180R" "anims/180R" fps 12 ACT_TURN_RIGHT 1 
$sequence "strafeleft" "anims/strafeleft" LX LY fps 30 loop ACT_STRAFE_LEFT 1 
$sequence "straferight" "anims/straferight" LX LY fps 30 loop ACT_STRAFE_RIGHT 1 
$sequence "dieback1" "anims/dieback1" X fps 25 ACT_DIEBACKWARD 1 { event 11 5 } { event 2001 17 } 
$sequence "dieforward" "anims/dieforward" X fps 30 ACT_DIEFORWARD 1 { event 11 12 } { event 2001 19 } 
$sequence "diesimple" "anims/diesimple" X fps 15 ACT_DIESIMPLE 1 { event 11 3 } { event 2001 10 } 
$sequence "diebackwards" "anims/diebackwards" X fps 30 ACT_DIEBACKWARD 1 { event 11 6 } { event 2001 12 } 
$sequence "dieheadshot" "anims/dieheadshot" X fps 30 ACT_DIE_HEADSHOT 1 { event 11 1 } { event 2001 20 } 
$sequence "diegutshot" "anims/diegutshot" X fps 30 ACT_DIE_GUTSHOT 1 { event 11 0 } { event 2001 29 } 
$sequence "barnacled1" "anims/barnacled1" fps 18 ACT_BARNACLE_HIT 1 
$sequence "barnacled2" "anims/barnacled2" fps 30 loop ACT_BARNACLE_PULL 1 
$sequence "barnacled3" "anims/barnacled3" fps 18 ACT_BARNACLE_CHOMP 1 
$sequence "barnacled4" "anims/barnacled4" fps 15 loop ACT_BARNACLE_CHEW 1 
$sequence "dead_on_stomach" "anims/dead_on_stomach" fps 10 
$sequence "deadstomach" "anims/deadstomach" fps 10 
$sequence "deadside" "anims/deadside" fps 10 
$sequence "deadsitting" "anims/deadsitting" fps 10 
$sequence "repel_jump" "anims/repel_jump" fps 22 ACT_HOVER 1 
$sequence "repel_repel" "anims/repel_repel" fps 18 loop ACT_GLIDE 1 
$sequence "repel_shoot" "anims/repel_shoot_blend1" "anims/repel_shoot_blend2" blend XR -90 45 fps 18 loop ACT_FLY 1 {
  { event 4 0 } 
  { event 5 2 } 
  { event 6 4 } 
  { event 5001 0 } 
  { event 5001 2 } 
  { event 5001 4 } 
 }
 $sequence "repel_shoot_mp5" "anims/repel_shoot_blend1" "anims/repel_shoot_blend2" blend XR -90 45 fps 173 loop ACT_FLY 1 {
  { event 4 0 } 
  { event 5 2 } 
  { event 6 4 } 
  { event 5001 0 } 
  { event 5001 2 } 
  { event 5001 4 } 
 }
 $sequence "repel_shoot_m4" "anims/repel_shoot_blend1" "anims/repel_shoot_blend2" blend XR -90 45 fps 152 loop ACT_FLY 1 {
  { event 4 0 } 
  { event 5 2 } 
  { event 6 4 } 
  { event 5001 0 } 
  { event 5001 2 } 
  { event 5001 4 } 
 }
$sequence "repel_land" "anims/repel_land" fps 20 ACT_LAND 1 
$sequence "repel_die" "anims/repel_die" fps 12 
$sequence "dragholeidle" "anims/dragholeidle" fps 10 loop 
$sequence "draghole" "anims/draghole" fps 5 { event 1000 1 } { event 1004 20 "debris/bustflesh1.wav" } 
$sequence "bustwall" "anims/bustwall" fps 20 { event 1000 1 } 
$sequence "hoprail" "anims/hoprail" fps 22 
$sequence "converse1" "anims/converse1" fps 14 loop 
$sequence "converse2" "anims/converse2" fps 14 loop 
$sequence "startleleft" "anims/startleleft" fps 12 
$sequence "startleright" "anims/startleright" fps 12 
$sequence "divecover" "anims/divecover" fps 22 
$sequence "defuse" "anims/defuse" fps 14 loop 
$sequence "corner1" "anims/corner1" fps 14 loop 
$sequence "corner2" "anims/corner2" fps 10 loop 
$sequence "stone_toss" "anims/stone_toss" fps 15 
$sequence "cliffdie" "anims/cliffdie" AX AY AZR fps 36 { event 1001 0 } { event 1000 0 } 
$sequence "diveaside_idle" "anims/diveaside_idle" fps 30 loop 
$sequence "diveaside" "anims/diveaside" AX AY AZR fps 30 {
  { event 4 0 } 
  { event 5 2 } 
  { event 6 4 } 
  { event 4 14 } 
  { event 5 16 } 
  { event 6 18 } 
 }
$sequence "kneeldive_idle" "anims/kneeldive_idle" fps 30 loop 
$sequence "kneeldive" "anims/kneeldive" AX AY AZR fps 30 {
  { event 4 0 } 
  { event 5 2 } 
  { event 6 4 } 
  { event 4 14 } 
  { event 5 16 } 
  { event 6 18 } 
 }
$sequence "WM_button" "anims/WM_button" AX AY AZR fps 30 
$sequence "WM_moatjump" "anims/WM_moatjump" AX AY AZR fps 30 
$sequence "bustwindow" "anims/bustwindow" fps 24 { event 1003 5 "break" } 
$sequence "dragright" "anims/dragright" LX fps 28 loop 
$sequence "dragleft" "anims/dragleft" LX fps 28 loop 
$sequence "trackwave" "anims/trackwave" fps 24 loop 
$sequence "trackdive" "anims/trackdive" fps 28 { event 1003 38 "switch" } 
$sequence "flyback" "anims/flyback" fps 25 { event 1003 29 "zap" } { event 1008 25 "weapons/electro4.wav" } 
$sequence "impaled" "anims/impaled" fps 10 { event 1000 1 } 
$sequence "jumptracks" "anims/jumptracks" fps 30 
$sequence "pipetoss" "anims/pipetoss" fps 30 
$sequence "plunger" "anims/plunger" fps 22 
$sequence "soldier_dump" "anims/soldier_dump" fps 28 
$sequence "soldier_dump_idle" "anims/soldier_dump_idle" fps 28 loop 
$sequence "soldier_shoot_ahead" "anims/soldier_shoot_ahead" fps 32 loop {
  { event 4 1 } 
  { event 5 6 } 
  { event 6 12 } 
  { event 5001 1 "50" } 
  { event 5001 6 "50" } 
  { event 5001 12 "50" } 
 }
$sequence "soldier_kick" "anims/soldier_kick" fps 35 { event 1003 13 "00xy_frontkick" } 

// End of QC script.
