version 1
nodes
  0 "Bip01" -1
  1 "Bip01 Pelvis" 0
  2 "Bip01 L Thigh" 1
  3 "Bip01 L Calf" 2
  4 "Bip01 L Foot" 3
  5 "Bip01 R Thigh" 1
  6 "Bip01 R Calf" 5
  7 "Bip01 R Foot" 6
  8 "Bip01 Spine" 1
  9 "Bip01 Spine1" 8
 10 "Bip01 Neck" 9
 11 "Bip01 L Clavicle" 10
 12 "Bip01 L UpperArm" 11
 13 "Bip01 L Forearm" 12
 14 "Bip01 L Hand" 13
 15 "Bip01 L Finger0" 14
 16 "Bip01 L Finger01" 15
 17 "Bip01 L Finger02" 16
 18 "Bip01 L Finger1" 14
 19 "Bip01 L Finger11" 18
 20 "Bip01 L Finger12" 19
 21 "Bip01 L Finger2" 14
 22 "Bip01 L Finger21" 21
 23 "Bip01 L Finger22" 22
 24 "Bip01 R Clavicle" 10
 25 "Bip01 R UpperArm" 24
 26 "Bip01 R Forearm" 25
 27 "Bip01 R Hand" 26
 28 "Bip01 R Finger0" 27
 29 "Bip01 R Finger01" 28
 30 "Bip01 R Finger02" 29
 31 "Bip01 R Finger1" 27
 32 "Bip01 R Finger11" 31
 33 "Bip01 R Finger12" 32
 34 "Bip01 R Finger2" 27
 35 "Bip01 R Finger21" 34
 36 "Bip01 R Finger22" 35
 37 "Bip01 Head" 10
 38 "Bone05" 37
 39 "Bone08" 9
 40 "Bone16" 8
 41 "Bone01" 8
 42 "Bone03" 1
 43 "Bip01 R Finger4" 27
end
skeleton
time 0
  0 0.420091 1.059590 39.345757 0.000000 0.000000 -1.570795
  1 -0.245774 0.000000 0.000000 -1.570795 -1.570451 0.000000
  2 -0.000007 0.000008 4.427393 -0.000301 -3.130353 -0.072680
  3 18.465939 0.000000 0.000000 0.000000 0.000000 -0.242123
  4 14.875443 0.000000 0.000000 0.001118 -0.011190 0.169435
  5 0.000006 -0.000004 -4.427393 0.000303 3.130350 -0.072680
  6 18.465939 0.000000 0.000000 0.000000 0.000000 -0.242123
  7 14.875442 0.000000 0.000000 -0.001117 0.011190 0.169435
  8 2.255207 -0.007574 0.000003 -0.000004 -0.000001 0.000796
  9 9.514223 -0.009357 0.000000 0.000000 0.000000 0.000000
 10 11.752194 -0.001492 0.000000 0.000000 -0.000001 0.478772
 11 -1.967256 0.937818 2.649731 0.088021 -1.370041 2.575763
 12 4.640941 0.000000 0.000000 -0.049954 1.052208 -0.032367
 13 10.828045 0.000000 0.000000 0.000000 0.000000 -0.409440
 14 9.393338 -0.000001 0.000000 -1.569611 0.000000 0.165806
 15 1.442243 0.107453 -1.746178 1.585944 0.550080 0.132382
 16 1.063450 0.000000 -0.000001 0.000000 0.000000 0.183260
 17 1.376307 -0.000001 0.000001 0.000000 0.000000 0.148353
 18 4.172845 -0.251366 -1.312745 -0.001190 0.096055 0.052246
 19 1.215373 0.000001 -0.000001 0.000000 0.000000 0.052360
 20 1.215371 -0.000002 0.000000 0.000000 0.000000 0.052360
 21 4.220532 -0.244855 -0.431465 -0.001184 0.026242 0.052329
 22 1.350417 0.000000 0.000001 0.000000 0.000000 0.052360
 23 1.350409 0.000000 -0.000001 0.000000 0.000000 0.052360
 24 -1.967256 0.937831 -2.649724 -0.088044 1.370038 2.575739
 25 4.640942 0.000000 0.000000 0.049954 -1.052208 -0.032367
 26 10.828048 0.000000 0.000001 0.000000 0.000000 -0.409440
 27 9.393336 -0.000001 0.000000 1.569611 0.000000 0.165806
 28 1.442244 0.107454 1.746178 -1.585943 -0.550079 0.132381
 29 1.063451 -0.000001 0.000000 0.000000 0.000000 0.183260
 30 1.376307 -0.000001 0.000000 0.000000 0.000000 0.148353
 31 4.172846 -0.251365 1.312745 0.001190 -0.096055 0.052246
 32 1.215374 0.000001 -0.000001 0.000000 0.000000 0.052360
 33 1.215373 0.000000 0.000001 0.000000 0.000000 0.052360
 34 4.220533 -0.244853 0.431466 0.001184 -0.026242 0.052329
 35 1.350415 -0.000001 -0.000001 0.000000 0.000000 0.052360
 36 1.350410 -0.000001 0.000001 0.000000 0.000000 0.052360
 37 2.110541 -0.000001 0.000000 0.000000 0.000001 -0.322570
 38 0.891923 2.373050 -0.014527 -3.141592 -0.000001 1.413797
 39 7.228119 5.709445 3.726568 3.140796 -1.570796 0.000000
 40 2.450426 5.076127 0.001325 3.140791 -1.570796 0.000000
 41 6.312405 -4.528058 0.001311 3.140791 -1.570796 0.000000
 42 2.233309 1.152535 -7.309138 -1.570796 -1.570796 0.000000
 43 4.262825 -0.232720 -1.392178 0.001188 0.078478 0.052453
end
triangles
w_beretta.bmp
 27 -13.878938 -5.554070 35.640839 0.527012 0.826518 -0.197805 0.531250 0.603175
 27 -14.102833 -5.625912 35.473476 -0.660706 0.621806 -0.420506 0.515625 0.603175
 27 -14.030902 -5.553442 35.690903 -0.464696 0.814393 0.347595 0.531250 0.603175
w_beretta.bmp
 27 -14.030902 -5.553442 35.690903 -0.464696 0.814393 0.347595 0.531250 0.603175
 27 -14.102833 -5.625912 35.473476 -0.660706 0.621806 -0.420506 0.515625 0.603175
 27 -14.007514 -5.981583 35.990982 -0.870703 -0.397501 -0.289602 0.546875 0.666667
w_beretta.bmp
 27 -14.102833 -5.625912 35.473476 -0.660706 0.621806 -0.420506 0.515625 0.603175
 27 -13.950869 -5.626541 35.423412 0.272212 -0.317814 -0.908237 0.515625 0.603175
 27 -14.007514 -5.981583 35.990982 -0.870703 -0.397501 -0.289602 0.546875 0.666667
w_beretta.bmp
 27 -14.007514 -5.981583 35.990982 -0.870703 -0.397501 -0.289602 0.546875 0.666667
 27 -13.950869 -5.626541 35.423412 0.272212 -0.317814 -0.908237 0.515625 0.603175
 27 -13.751074 -5.982644 35.906498 0.506000 -0.259100 -0.822697 0.546875 0.666667
w_beretta.bmp
 27 -13.950869 -5.626541 35.423412 0.272212 -0.317814 -0.908237 0.515625 0.603175
 27 -13.878938 -5.554070 35.640839 0.527012 0.826518 -0.197805 0.531250 0.603175
 27 -13.751074 -5.982644 35.906498 0.506000 -0.259100 -0.822697 0.546875 0.666667
w_beretta.bmp
 27 -13.751074 -5.982644 35.906498 0.506000 -0.259100 -0.822697 0.546875 0.666667
 27 -13.878938 -5.554070 35.640839 0.527012 0.826518 -0.197805 0.531250 0.603175
 27 -13.652556 -5.918188 36.204727 0.811239 0.548526 0.202510 0.578125 0.666667
w_beretta.bmp
 27 -13.878938 -5.554070 35.640839 0.527012 0.826518 -0.197805 0.531250 0.603175
 27 -14.030902 -5.553442 35.690903 -0.464696 0.814393 0.347595 0.531250 0.603175
 27 -13.652556 -5.918188 36.204727 0.811239 0.548526 0.202510 0.578125 0.666667
w_beretta.bmp
 27 -13.652556 -5.918188 36.204727 0.811239 0.548526 0.202510 0.578125 0.666667
 27 -14.030902 -5.553442 35.690903 -0.464696 0.814393 0.347595 0.531250 0.603175
 27 -13.908996 -5.917127 36.289211 -0.515599 0.486099 0.705596 0.578125 0.666667
w_beretta.bmp
 27 -14.030902 -5.553442 35.690903 -0.464696 0.814393 0.347595 0.531250 0.603175
 27 -14.007514 -5.981583 35.990982 -0.870703 -0.397501 -0.289602 0.546875 0.666667
 27 -13.908996 -5.917127 36.289211 -0.515599 0.486099 0.705596 0.578125 0.666667
w_beretta.bmp
 27 -13.908996 -5.917127 36.289211 -0.515599 0.486099 0.705596 0.578125 0.666667
 27 -14.007514 -5.981583 35.990982 -0.870703 -0.397501 -0.289602 0.546875 0.666667
 27 -13.975785 -6.532525 36.094212 -0.829866 -0.459381 -0.316688 0.546875 0.730159
w_beretta.bmp
 27 -14.007514 -5.981583 35.990982 -0.870703 -0.397501 -0.289602 0.546875 0.666667
 27 -13.751074 -5.982644 35.906498 0.506000 -0.259100 -0.822697 0.546875 0.666667
 27 -13.975785 -6.532525 36.094212 -0.829866 -0.459381 -0.316688 0.546875 0.730159
w_beretta.bmp
 27 -13.975785 -6.532525 36.094212 -0.829866 -0.459381 -0.316688 0.546875 0.730159
 27 -13.751074 -5.982644 35.906498 0.506000 -0.259100 -0.822697 0.546875 0.666667
 27 -13.716315 -6.530969 36.018890 0.625795 -0.724194 -0.289696 0.546875 0.730159
w_beretta.bmp
 27 -13.751074 -5.982644 35.906498 0.506000 -0.259100 -0.822697 0.546875 0.666667
 27 -13.652556 -5.918188 36.204727 0.811239 0.548526 0.202510 0.578125 0.666667
 27 -13.716315 -6.530969 36.018890 0.625795 -0.724194 -0.289696 0.546875 0.730159
w_beretta.bmp
 27 -13.716315 -6.530969 36.018890 0.625795 -0.724194 -0.289696 0.546875 0.730159
 27 -13.652556 -5.918188 36.204727 0.811239 0.548526 0.202510 0.578125 0.666667
 27 -13.578241 -6.351799 36.467705 0.686203 0.048301 0.725805 0.609375 0.730159
w_beretta.bmp
 27 -13.652556 -5.918188 36.204727 0.811239 0.548526 0.202510 0.578125 0.666667
 27 -13.908996 -5.917127 36.289211 -0.515599 0.486099 0.705596 0.578125 0.666667
 27 -13.578241 -6.351799 36.467705 0.686203 0.048301 0.725805 0.609375 0.730159
w_beretta.bmp
 27 -13.578241 -6.351799 36.467705 0.686203 0.048301 0.725805 0.609375 0.730159
 27 -13.908996 -5.917127 36.289211 -0.515599 0.486099 0.705596 0.578125 0.666667
 27 -13.838494 -6.343705 36.540527 -0.215601 -0.578599 0.786600 0.609375 0.730159
w_beretta.bmp
 27 -13.908996 -5.917127 36.289211 -0.515599 0.486099 0.705596 0.578125 0.666667
 27 -13.975785 -6.532525 36.094212 -0.829866 -0.459381 -0.316688 0.546875 0.730159
 27 -13.838494 -6.343705 36.540527 -0.215601 -0.578599 0.786600 0.609375 0.730159
w_beretta.bmp
 27 -13.838494 -6.343705 36.540527 -0.215601 -0.578599 0.786600 0.609375 0.730159
 27 -13.975785 -6.532525 36.094212 -0.829866 -0.459381 -0.316688 0.546875 0.730159
 27 -13.716315 -6.530969 36.018890 0.625795 -0.724194 -0.289696 0.546875 0.730159
w_beretta.bmp
 27 -13.183518 -7.914645 36.630829 0.952293 -0.216399 -0.215197 0.093750 0.746032
 27 -13.393183 -8.253217 36.829597 0.388312 -0.889128 0.242209 0.046875 0.746032
 27 -14.878366 -10.184776 32.154034 0.524497 -0.822096 -0.221497 0.046875 0.015873
w_beretta.bmp
 27 -14.878366 -10.184776 32.154034 0.524497 -0.822096 -0.221497 0.046875 0.015873
 27 -13.393183 -8.253217 36.829597 0.388312 -0.889128 0.242209 0.046875 0.746032
 27 -15.366566 -10.175737 32.301952 -0.327178 -0.926439 -0.186187 0.000000 0.015873
w_beretta.bmp
 27 -13.393183 -8.253217 36.829597 0.388312 -0.889128 0.242209 0.046875 0.746032
 27 -13.868072 -8.251252 36.986050 -0.506110 -0.728413 0.461809 0.000000 0.746032
 27 -15.366566 -10.175737 32.301952 -0.327178 -0.926439 -0.186187 0.000000 0.015873
w_beretta.bmp
 27 -15.366566 -10.175737 32.301952 -0.327178 -0.926439 -0.186187 0.000000 0.015873
 27 -13.868072 -8.251252 36.986050 -0.506110 -0.728413 0.461809 0.000000 0.746032
 27 -15.634819 -9.837817 32.250469 -0.888708 -0.379803 -0.256803 0.093750 0.015873
w_beretta.bmp
 27 -13.868072 -8.251252 36.986050 -0.506110 -0.728413 0.461809 0.000000 0.746032
 27 -14.137108 -7.903681 36.932072 -0.952293 0.216399 0.215197 0.093750 0.746032
 27 -15.634819 -9.837817 32.250469 -0.888708 -0.379803 -0.256803 0.093750 0.015873
w_beretta.bmp
 27 -15.634819 -9.837817 32.250469 -0.888708 -0.379803 -0.256803 0.093750 0.015873
 27 -14.137108 -7.903681 36.932072 -0.952293 0.216399 0.215197 0.093750 0.746032
 27 -15.438464 -9.492172 32.043167 -0.702566 0.377282 -0.603373 0.218750 0.015873
w_beretta.bmp
 27 -14.137108 -7.903681 36.932072 -0.952293 0.216399 0.215197 0.093750 0.746032
 27 -13.939970 -7.567687 36.727264 -0.388312 0.889128 -0.242209 0.218750 0.746032
 27 -15.438464 -9.492172 32.043167 -0.702566 0.377282 -0.603373 0.218750 0.015873
w_beretta.bmp
 27 -15.438464 -9.492172 32.043167 -0.702566 0.377282 -0.603373 0.218750 0.015873
 27 -13.939970 -7.567687 36.727264 -0.388312 0.889128 -0.242209 0.218750 0.746032
 27 -14.959763 -9.501171 31.898378 0.086103 0.700318 -0.708619 0.187500 0.015873
w_beretta.bmp
 27 -13.939970 -7.567687 36.727264 -0.388312 0.889128 -0.242209 0.218750 0.746032
 27 -13.465082 -7.569652 36.570816 0.506110 0.728413 -0.461809 0.187500 0.746032
 27 -14.959763 -9.501171 31.898378 0.086103 0.700318 -0.708619 0.187500 0.015873
w_beretta.bmp
 27 -14.959763 -9.501171 31.898378 0.086103 0.700318 -0.708619 0.187500 0.015873
 27 -13.465082 -7.569652 36.570816 0.506110 0.728413 -0.461809 0.187500 0.746032
 27 -14.681229 -9.848782 31.949228 0.247909 -0.203208 -0.947231 0.093750 0.015873
w_beretta.bmp
 27 -13.465082 -7.569652 36.570816 0.506110 0.728413 -0.461809 0.187500 0.746032
 27 -13.183518 -7.914645 36.630829 0.952293 -0.216399 -0.215197 0.093750 0.746032
 27 -14.681229 -9.848782 31.949228 0.247909 -0.203208 -0.947231 0.093750 0.015873
w_beretta.bmp
 27 -14.681229 -9.848782 31.949228 0.247909 -0.203208 -0.947231 0.093750 0.015873
 27 -13.183518 -7.914645 36.630829 0.952293 -0.216399 -0.215197 0.093750 0.746032
 27 -14.878366 -10.184776 32.154034 0.524497 -0.822096 -0.221497 0.046875 0.015873
w_beretta.bmp
 27 -15.650753 -8.967740 32.574680 -0.938155 0.335720 -0.084606 0.078125 0.825397
 27 -14.493897 -8.986564 32.219387 0.686912 0.034700 -0.725911 0.000000 0.825397
 27 -15.547262 -9.997893 32.965668 -0.762775 -0.512784 -0.393988 0.078125 0.968254
w_beretta.bmp
 27 -15.547262 -9.997893 32.965668 -0.762775 -0.512784 -0.393988 0.078125 0.968254
 27 -14.493897 -8.986564 32.219387 0.686912 0.034700 -0.725911 0.000000 0.825397
 27 -14.381692 -10.007106 32.604752 0.458500 -0.714100 -0.528998 0.000000 0.968254
w_beretta.bmp
 27 -14.493897 -8.986564 32.219387 0.686912 0.034700 -0.725911 0.000000 0.825397
 27 -14.268606 -9.083190 32.936401 0.932982 -0.348694 0.089200 0.078125 0.873016
 27 -14.381692 -10.007106 32.604752 0.458500 -0.714100 -0.528998 0.000000 0.968254
w_beretta.bmp
 27 -14.381692 -10.007106 32.604752 0.458500 -0.714100 -0.528998 0.000000 0.968254
 27 -14.268606 -9.083190 32.936401 0.932982 -0.348694 0.089200 0.078125 0.873016
 27 -14.283277 -10.058426 32.936085 0.644832 -0.752838 0.132008 0.031250 0.984127
w_beretta.bmp
 27 -14.268606 -9.083190 32.936401 0.932982 -0.348694 0.089200 0.078125 0.873016
 27 -14.207839 -9.869321 33.162685 0.627608 -0.076000 0.774811 0.078125 0.968254
 27 -14.283277 -10.058426 32.936085 0.644832 -0.752838 0.132008 0.031250 0.984127
w_beretta.bmp
 27 -14.283277 -10.058426 32.936085 0.644832 -0.752838 0.132008 0.031250 0.984127
 27 -14.207839 -9.869321 33.162685 0.627608 -0.076000 0.774811 0.078125 0.968254
 27 -15.360882 -9.857532 33.529636 -0.112700 -0.464093 0.878588 0.078125 0.968254
w_beretta.bmp
 27 -14.207839 -9.869321 33.162685 0.627608 -0.076000 0.774811 0.078125 0.968254
 27 -15.434176 -9.073978 33.297318 -0.679127 -0.065102 0.731128 0.078125 0.873016
 27 -15.360882 -9.857532 33.529636 -0.112700 -0.464093 0.878588 0.078125 0.968254
w_beretta.bmp
 27 -15.360882 -9.857532 33.529636 -0.112700 -0.464093 0.878588 0.078125 0.968254
 27 -15.434176 -9.073978 33.297318 -0.679127 -0.065102 0.731128 0.078125 0.873016
 27 -15.436318 -10.046636 33.303036 -0.535019 -0.800227 0.270909 0.031250 0.984127
w_beretta.bmp
 27 -15.434176 -9.073978 33.297318 -0.679127 -0.065102 0.731128 0.078125 0.873016
 27 -15.547262 -9.997893 32.965668 -0.762775 -0.512784 -0.393988 0.000000 0.968254
 27 -15.436318 -10.046636 33.303036 -0.535019 -0.800227 0.270909 0.031250 0.984127
w_beretta.bmp
 27 -13.220155 -5.025367 36.035908 0.692513 0.424607 -0.583210 0.937500 0.063492
 27 -13.758497 -5.086203 35.489201 0.556694 0.595992 -0.578693 0.843750 0.063492
 27 -14.264909 -5.086737 35.645878 -0.759053 0.648760 -0.054298 0.843750 0.015873
w_beretta.bmp
 27 -14.264909 -5.086737 35.645878 -0.759053 0.648760 -0.054298 0.843750 0.015873
 27 -13.758497 -5.086203 35.489201 0.556694 0.595992 -0.578693 0.843750 0.063492
 27 -14.495611 -5.562811 34.919632 -0.828816 0.510510 -0.229006 0.671875 0.015873
w_beretta.bmp
 27 -13.758497 -5.086203 35.489201 0.556694 0.595992 -0.578693 0.843750 0.063492
 36 -13.986786 -5.563481 34.760174 0.521483 0.395485 -0.756073 0.671875 0.063492
 27 -14.495611 -5.562811 34.919632 -0.828816 0.510510 -0.229006 0.671875 0.015873
w_beretta.bmp
 27 -14.495611 -5.562811 34.919632 -0.828816 0.510510 -0.229006 0.671875 0.015873
 36 -13.986786 -5.563481 34.760174 0.521483 0.395485 -0.756073 0.671875 0.063492
 27 -14.562809 -6.013319 34.721321 -0.798656 0.141692 -0.584869 0.593750 0.015873
w_beretta.bmp
 36 -13.986786 -5.563481 34.760174 0.521483 0.395485 -0.756073 0.671875 0.063492
 33 -14.052965 -6.025158 34.567596 0.311993 -0.098399 -0.944975 0.593750 0.063492
 27 -14.562809 -6.013319 34.721321 -0.798656 0.141692 -0.584869 0.593750 0.015873
w_beretta.bmp
 27 -14.562809 -6.013319 34.721321 -0.798656 0.141692 -0.584869 0.593750 0.015873
 33 -14.052965 -6.025158 34.567596 0.311993 -0.098399 -0.944975 0.593750 0.063492
 27 -14.486110 -6.639015 34.961990 -0.874662 0.229090 -0.427183 0.578125 0.015873
w_beretta.bmp
 33 -14.052965 -6.025158 34.567596 0.311993 -0.098399 -0.944975 0.593750 0.063492
 27 -13.991443 -6.650711 34.801777 0.451694 0.347094 -0.821887 0.578125 0.063492
 27 -14.486110 -6.639015 34.961990 -0.874662 0.229090 -0.427183 0.578125 0.015873
w_beretta.bmp
 27 -14.486110 -6.639015 34.961990 -0.874662 0.229090 -0.427183 0.578125 0.015873
 27 -13.991443 -6.650711 34.801777 0.451694 0.347094 -0.821887 0.578125 0.063492
 27 -14.890632 -7.104793 34.890484 -0.763498 0.494399 -0.415500 0.500000 0.015873
w_beretta.bmp
 27 -13.991443 -6.650711 34.801777 0.451694 0.347094 -0.821887 0.578125 0.063492
 27 -13.717811 -7.126313 34.519772 0.414919 0.545722 -0.728031 0.500000 0.063492
 27 -14.890632 -7.104793 34.890484 -0.763498 0.494399 -0.415500 0.500000 0.015873
w_beretta.bmp
 27 -14.486110 -6.639015 34.961990 -0.874662 0.229090 -0.427183 0.406250 0.698413
 27 -14.461840 -6.019039 35.027870 -0.494495 -0.026099 0.868789 0.437500 0.619048
 27 -14.562809 -6.013319 34.721321 -0.798656 0.141692 -0.584869 0.406250 0.619048
w_beretta.bmp
 27 -14.562809 -6.013319 34.721321 -0.798656 0.141692 -0.584869 0.406250 0.619048
 27 -14.461840 -6.019039 35.027870 -0.494495 -0.026099 0.868789 0.437500 0.619048
 27 -14.495611 -5.562811 34.919632 -0.828816 0.510510 -0.229006 0.437500 0.571429
w_beretta.bmp
 27 -14.461840 -6.019039 35.027870 -0.494495 -0.026099 0.868789 0.437500 0.619048
 27 -14.408020 -5.683366 35.187016 -0.545494 -0.518992 0.658091 0.453125 0.603175
 27 -14.495611 -5.562811 34.919632 -0.828816 0.510510 -0.229006 0.437500 0.571429
w_beretta.bmp
 27 -14.495611 -5.562811 34.919632 -0.828816 0.510510 -0.229006 0.437500 0.571429
 27 -14.408020 -5.683366 35.187016 -0.545494 -0.518992 0.658091 0.453125 0.603175
 27 -14.264909 -5.086737 35.645878 -0.759053 0.648760 -0.054298 0.609375 0.555556
w_beretta.bmp
 27 -14.408020 -5.683366 35.187016 -0.545494 -0.518992 0.658091 0.453125 0.603175
 27 -14.219905 -5.324622 35.753510 -0.794382 -0.592386 0.134297 0.609375 0.587302
 27 -14.264909 -5.086737 35.645878 -0.759053 0.648760 -0.054298 0.609375 0.555556
w_beretta.bmp
 27 -14.264909 -5.086737 35.645878 -0.759053 0.648760 -0.054298 0.609375 0.555556
 27 -14.219905 -5.324622 35.753510 -0.794382 -0.592386 0.134297 0.609375 0.587302
 27 -14.385725 -5.016155 36.396824 -0.917257 0.341721 -0.204614 0.671875 0.571429
w_beretta.bmp
 27 -14.219905 -5.324622 35.753510 -0.794382 -0.592386 0.134297 0.609375 0.587302
 27 -14.386950 -5.283651 36.364510 -0.596187 -0.793782 -0.120297 0.640625 0.603175
 27 -14.385725 -5.016155 36.396824 -0.917257 0.341721 -0.204614 0.671875 0.571429
w_beretta.bmp
 27 -14.385725 -5.016155 36.396824 -0.917257 0.341721 -0.204614 0.671875 0.571429
 27 -14.386950 -5.283651 36.364510 -0.596187 -0.793782 -0.120297 0.640625 0.603175
 27 -14.307870 -5.496264 36.639175 -0.838713 -0.468207 -0.278105 0.656250 0.634921
w_beretta.bmp
 27 -13.491232 -6.236723 39.287064 -0.761983 -0.329192 0.557687 0.890625 0.825397
 27 -14.469114 -9.020870 32.199169 0.608310 -0.749313 -0.261703 0.062500 0.809524
 27 -12.328691 -6.248553 38.916985 0.967172 -0.217394 0.131597 0.890625 0.825397
w_beretta.bmp
 27 -13.491232 -6.236723 39.287064 -0.761983 -0.329192 0.557687 0.890625 0.825397
 27 -15.641153 -9.009002 32.572380 -0.791218 -0.546813 -0.273807 0.062500 0.809524
 27 -14.469114 -9.020870 32.199169 0.608310 -0.749313 -0.261703 0.062500 0.809524
w_beretta.bmp
 27 -13.491232 -6.236723 39.287064 -0.761983 -0.329192 0.557687 0.890625 0.825397
 27 -15.046169 -7.588225 34.392483 -0.797616 0.575711 -0.179905 0.328125 0.761905
 27 -15.641153 -9.009002 32.572380 -0.791218 -0.546813 -0.273807 0.062500 0.809524
w_beretta.bmp
 27 -13.491232 -6.236723 39.287064 -0.761983 -0.329192 0.557687 0.890625 0.825397
 27 -14.890632 -7.104793 34.890484 -0.763498 0.494399 -0.415500 0.375000 0.730159
 27 -15.046169 -7.588225 34.392483 -0.797616 0.575711 -0.179905 0.328125 0.761905
w_beretta.bmp
 27 -13.491232 -6.236723 39.287064 -0.761983 -0.329192 0.557687 0.890625 0.825397
 27 -14.616287 -6.772748 35.687088 -0.524680 0.841269 0.130294 0.453125 0.730159
 27 -14.890632 -7.104793 34.890484 -0.763498 0.494399 -0.415500 0.375000 0.730159
w_beretta.bmp
 27 -13.491232 -6.236723 39.287064 -0.761983 -0.329192 0.557687 0.890625 0.825397
 32 -14.300219 -6.364213 36.689365 -0.974092 0.223299 0.035798 0.640625 0.730159
 27 -14.616287 -6.772748 35.687088 -0.524680 0.841269 0.130294 0.453125 0.730159
w_beretta.bmp
 27 -13.491232 -6.236723 39.287064 -0.761983 -0.329192 0.557687 0.890625 0.825397
 27 -13.471148 -5.764953 39.342102 -0.489302 -0.200299 0.848801 0.921875 0.793651
 32 -14.300219 -6.364213 36.689365 -0.974092 0.223299 0.035798 0.640625 0.730159
w_beretta.bmp
 33 -14.052965 -6.025158 34.567596 0.311993 -0.098399 -0.944975 0.421875 0.619048
 36 -13.986786 -5.563481 34.760174 0.521483 0.395485 -0.756073 0.437500 0.571429
 33 -13.960232 -6.034078 34.869957 0.991993 -0.031500 0.122300 0.421875 0.619048
w_beretta.bmp
 33 -13.960232 -6.034078 34.869957 0.991993 -0.031500 0.122300 0.421875 0.619048
 36 -13.986786 -5.563481 34.760174 0.521483 0.395485 -0.756073 0.437500 0.571429
 27 -13.901608 -5.682832 35.030342 0.847497 -0.430798 0.310100 0.453125 0.587302
w_beretta.bmp
 36 -13.986786 -5.563481 34.760174 0.521483 0.395485 -0.756073 0.437500 0.571429
 27 -13.758497 -5.086203 35.489201 0.556694 0.595992 -0.578693 0.609375 0.555556
 27 -13.901608 -5.682832 35.030342 0.847497 -0.430798 0.310100 0.453125 0.587302
w_beretta.bmp
 27 -13.901608 -5.682832 35.030342 0.847497 -0.430798 0.310100 0.453125 0.587302
 27 -13.758497 -5.086203 35.489201 0.556694 0.595992 -0.578693 0.609375 0.555556
 27 -13.725238 -5.336317 35.593300 0.554115 -0.821923 -0.131902 0.593750 0.571429
w_beretta.bmp
 27 -13.758497 -5.086203 35.489201 0.556694 0.595992 -0.578693 0.609375 0.555556
 27 -13.220155 -5.025367 36.035908 0.692513 0.424607 -0.583210 0.671875 0.571429
 27 -13.725238 -5.336317 35.593300 0.554115 -0.821923 -0.131902 0.593750 0.571429
w_beretta.bmp
 27 -13.725238 -5.336317 35.593300 0.554115 -0.821923 -0.131902 0.593750 0.571429
 27 -13.220155 -5.025367 36.035908 0.692513 0.424607 -0.583210 0.671875 0.571429
 27 -13.233907 -5.295441 35.997555 0.344300 -0.717600 -0.605398 0.640625 0.603175
w_beretta.bmp
 27 -13.220155 -5.025367 36.035908 0.692513 0.424607 -0.583210 0.671875 0.571429
 32 -13.144884 -5.523500 36.274994 0.504407 -0.360505 -0.784608 0.656250 0.634921
 27 -13.233907 -5.295441 35.997555 0.344300 -0.717600 -0.605398 0.640625 0.603175
w_beretta.bmp
 27 -14.525558 -8.447886 31.988686 0.117002 0.077400 -0.990111 0.062500 0.761905
 27 -13.879816 -7.607088 34.034065 0.585007 0.608306 -0.536406 0.328125 0.761905
 27 -14.469114 -9.020870 32.199169 0.608310 -0.749313 -0.261703 0.062500 0.809524
w_beretta.bmp
 27 -14.469114 -9.020870 32.199169 0.608310 -0.749313 -0.261703 0.062500 0.809524
 27 -13.879816 -7.607088 34.034065 0.585007 0.608306 -0.536406 0.328125 0.761905
 27 -12.328691 -6.248553 38.916985 0.967172 -0.217394 0.131597 0.890625 0.825397
w_beretta.bmp
 27 -13.879816 -7.607088 34.034065 0.585007 0.608306 -0.536406 0.328125 0.761905
 27 -13.717811 -7.126313 34.519772 0.414919 0.545722 -0.728031 0.375000 0.730159
 27 -12.328691 -6.248553 38.916985 0.967172 -0.217394 0.131597 0.890625 0.825397
w_beretta.bmp
 27 -12.328691 -6.248553 38.916985 0.967172 -0.217394 0.131597 0.890625 0.825397
 27 -13.717811 -7.126313 34.519772 0.414919 0.545722 -0.728031 0.375000 0.730159
 27 -13.460215 -6.781920 35.329300 0.674086 0.681585 -0.284694 0.453125 0.730159
w_beretta.bmp
 27 -13.717811 -7.126313 34.519772 0.414919 0.545722 -0.728031 0.375000 0.730159
 27 -13.991443 -6.650711 34.801777 0.451694 0.347094 -0.821887 0.421875 0.698413
 27 -13.460215 -6.781920 35.329300 0.674086 0.681585 -0.284694 0.453125 0.730159
w_beretta.bmp
 27 -13.460215 -6.781920 35.329300 0.674086 0.681585 -0.284694 0.453125 0.730159
 27 -13.991443 -6.650711 34.801777 0.451694 0.347094 -0.821887 0.421875 0.698413
 33 -13.899190 -6.582582 35.078804 0.530405 0.718008 0.450705 0.421875 0.698413
w_beretta.bmp
 27 -13.991443 -6.650711 34.801777 0.451694 0.347094 -0.821887 0.421875 0.698413
 33 -13.960232 -6.034078 34.869957 0.991993 -0.031500 0.122300 0.421875 0.619048
 33 -13.899190 -6.582582 35.078804 0.530405 0.718008 0.450705 0.421875 0.698413
w_beretta.bmp
 29 -12.507371 -4.964734 38.300407 0.985569 0.110196 0.128497 0.875000 0.666667
 27 -13.167595 -4.794060 36.192539 0.511812 0.231504 -0.827318 0.687500 0.555556
 27 -12.558554 -2.307710 38.041927 0.967020 0.157703 0.200005 0.968750 0.380952
w_beretta.bmp
 29 -12.507371 -4.964734 38.300407 0.985569 0.110196 0.128497 0.875000 0.666667
 27 -13.220155 -5.025367 36.035908 0.692513 0.424607 -0.583210 0.671875 0.571429
 27 -13.167595 -4.794060 36.192539 0.511812 0.231504 -0.827318 0.687500 0.555556
w_beretta.bmp
 29 -12.507371 -4.964734 38.300407 0.985569 0.110196 0.128497 0.875000 0.666667
 32 -13.144884 -5.523500 36.274994 0.504407 -0.360505 -0.784608 0.656250 0.634921
 27 -13.220155 -5.025367 36.035908 0.692513 0.424607 -0.583210 0.671875 0.571429
w_beretta.bmp
 29 -12.507371 -4.964734 38.300407 0.985569 0.110196 0.128497 0.875000 0.666667
 27 -13.112069 -5.915207 36.407124 0.478088 -0.058299 -0.876375 0.656250 0.682540
 32 -13.144884 -5.523500 36.274994 0.504407 -0.360505 -0.784608 0.656250 0.634921
w_beretta.bmp
 29 -12.507371 -4.964734 38.300407 0.985569 0.110196 0.128497 0.875000 0.666667
 32 -13.140677 -6.370155 36.326557 0.651788 0.359492 -0.667786 0.640625 0.730159
 27 -13.112069 -5.915207 36.407124 0.478088 -0.058299 -0.876375 0.656250 0.682540
w_beretta.bmp
 29 -12.507371 -4.964734 38.300407 0.985569 0.110196 0.128497 0.875000 0.666667
 27 -12.417714 -5.393882 38.604073 0.892765 0.447382 0.053098 0.890625 0.730159
 32 -13.140677 -6.370155 36.326557 0.651788 0.359492 -0.667786 0.640625 0.730159
w_beretta.bmp
 27 -13.680781 -4.942186 38.663490 -0.741617 0.200005 0.640314 0.875000 0.682540
 32 -14.300219 -6.364213 36.689365 -0.974092 0.223299 0.035798 0.640625 0.730159
 27 -13.580255 -5.382053 38.974155 -0.746512 0.546809 0.379104 0.890625 0.730159
w_beretta.bmp
 27 -13.680781 -4.942186 38.663490 -0.741617 0.200005 0.640314 0.875000 0.682540
 27 -14.265112 -5.903417 36.774075 -0.704727 -0.060103 -0.706928 0.656250 0.682540
 32 -14.300219 -6.364213 36.689365 -0.974092 0.223299 0.035798 0.640625 0.730159
w_beretta.bmp
 27 -13.680781 -4.942186 38.663490 -0.741617 0.200005 0.640314 0.875000 0.682540
 27 -14.307870 -5.496264 36.639175 -0.838713 -0.468207 -0.278105 0.656250 0.634921
 27 -14.265112 -5.903417 36.774075 -0.704727 -0.060103 -0.706928 0.656250 0.682540
w_beretta.bmp
 27 -13.680781 -4.942186 38.663490 -0.741617 0.200005 0.640314 0.875000 0.682540
 27 -14.385725 -5.016155 36.396824 -0.917257 0.341721 -0.204614 0.671875 0.571429
 27 -14.307870 -5.496264 36.639175 -0.838713 -0.468207 -0.278105 0.656250 0.634921
w_beretta.bmp
 27 -13.680781 -4.942186 38.663490 -0.741617 0.200005 0.640314 0.875000 0.682540
 27 -14.342663 -4.784809 36.556587 -0.903318 0.053601 -0.425610 0.687500 0.555556
 27 -14.385725 -5.016155 36.396824 -0.917257 0.341721 -0.204614 0.671875 0.571429
w_beretta.bmp
 27 -13.680781 -4.942186 38.663490 -0.741617 0.200005 0.640314 0.875000 0.682540
 27 -13.724125 -2.298498 38.402847 -0.670220 0.118004 0.732721 0.953125 0.380952
 27 -14.342663 -4.784809 36.556587 -0.903318 0.053601 -0.425610 0.687500 0.555556
w_beretta.bmp
 27 -13.531229 -7.256579 39.242390 -0.131494 -0.692061 0.709761 0.875000 0.952381
 27 -13.470193 -6.770083 39.421543 -0.600705 -0.098300 0.793405 0.921875 0.904762
 27 -13.797233 -7.734251 38.440971 -0.594681 -0.636778 0.490784 0.765625 0.968254
w_beretta.bmp
 27 -13.797233 -7.734251 38.440971 -0.594681 -0.636778 0.490784 0.765625 0.968254
 27 -13.470193 -6.770083 39.421543 -0.600705 -0.098300 0.793405 0.921875 0.904762
 27 -14.335166 -7.666019 36.711411 -0.850493 -0.476795 0.222098 0.546875 0.873016
w_beretta.bmp
 27 -13.470193 -6.770083 39.421543 -0.600705 -0.098300 0.793405 0.921875 0.904762
 27 -15.650753 -8.967740 32.574680 -0.938155 0.335720 -0.084606 0.000000 0.825397
 27 -14.335166 -7.666019 36.711411 -0.850493 -0.476795 0.222098 0.546875 0.873016
w_beretta.bmp
 27 -14.335166 -7.666019 36.711411 -0.850493 -0.476795 0.222098 0.546875 0.873016
 27 -15.650753 -8.967740 32.574680 -0.938155 0.335720 -0.084606 0.000000 0.825397
 27 -15.434176 -9.073978 33.297318 -0.679127 -0.065102 0.731128 0.078125 0.873016
w_beretta.bmp
 27 -15.650753 -8.967740 32.574680 -0.938155 0.335720 -0.084606 0.000000 0.825397
 27 -15.547262 -9.997893 32.965668 -0.762775 -0.512784 -0.393988 0.000000 0.968254
 27 -15.434176 -9.073978 33.297318 -0.679127 -0.065102 0.731128 0.078125 0.873016
w_beretta.bmp
 27 -12.417714 -5.393882 38.604073 0.892765 0.447382 0.053098 0.500000 0.253968
 29 -12.507371 -4.964734 38.300407 0.985569 0.110196 0.128497 0.546875 0.253968
 27 -13.680781 -4.942186 38.663490 -0.741617 0.200005 0.640314 0.546875 0.095238
w_beretta.bmp
 27 -13.680781 -4.942186 38.663490 -0.741617 0.200005 0.640314 0.546875 0.095238
 29 -12.507371 -4.964734 38.300407 0.985569 0.110196 0.128497 0.546875 0.253968
 27 -13.724125 -2.298498 38.402847 -0.670220 0.118004 0.732721 0.781250 0.095238
w_beretta.bmp
 29 -12.507371 -4.964734 38.300407 0.985569 0.110196 0.128497 0.546875 0.253968
 27 -12.558554 -2.307710 38.041927 0.967020 0.157703 0.200005 0.781250 0.253968
 27 -13.724125 -2.298498 38.402847 -0.670220 0.118004 0.732721 0.781250 0.095238
w_beretta.bmp
 27 -13.724125 -2.298498 38.402847 -0.670220 0.118004 0.732721 0.781250 0.095238
 27 -12.558554 -2.307710 38.041927 0.967020 0.157703 0.200005 0.781250 0.253968
 27 -13.827615 -1.582342 38.079720 -0.195498 0.718590 0.667389 0.859375 0.095238
w_beretta.bmp
 27 -12.558554 -2.307710 38.041927 0.967020 0.157703 0.200005 0.781250 0.253968
 27 -12.655576 -1.594211 37.706509 0.412399 0.910296 -0.035900 0.859375 0.253968
 27 -13.827615 -1.582342 38.079720 -0.195498 0.718590 0.667389 0.859375 0.095238
w_beretta.bmp
 27 -13.333385 -2.516434 35.596775 0.355196 -0.003301 -0.934786 0.828125 0.253968
 27 -13.241913 -3.284283 35.884075 0.286709 -0.219107 -0.932625 0.750000 0.253968
 27 -14.413951 -3.272414 36.257286 -0.770129 -0.253110 -0.585523 0.750000 0.095238
w_beretta.bmp
 27 -14.413951 -3.272414 36.257286 -0.770129 -0.253110 -0.585523 0.750000 0.095238
 27 -13.241913 -3.284283 35.884075 0.286709 -0.219107 -0.932625 0.750000 0.253968
 27 -14.342663 -4.784809 36.556587 -0.903318 0.053601 -0.425610 0.609375 0.095238
w_beretta.bmp
 27 -13.241913 -3.284283 35.884075 0.286709 -0.219107 -0.932625 0.750000 0.253968
 27 -13.167595 -4.794060 36.192539 0.511812 0.231504 -0.827318 0.609375 0.253968
 27 -14.342663 -4.784809 36.556587 -0.903318 0.053601 -0.425610 0.609375 0.095238
w_beretta.bmp
 27 -14.342663 -4.784809 36.556587 -0.903318 0.053601 -0.425610 0.609375 0.095238
 27 -13.167595 -4.794060 36.192539 0.511812 0.231504 -0.827318 0.609375 0.253968
 27 -14.385725 -5.016155 36.396824 -0.917257 0.341721 -0.204614 0.578125 0.095238
w_beretta.bmp
 27 -13.167595 -4.794060 36.192539 0.511812 0.231504 -0.827318 0.609375 0.253968
 27 -13.220155 -5.025367 36.035908 0.692513 0.424607 -0.583210 0.578125 0.253968
 27 -14.385725 -5.016155 36.396824 -0.917257 0.341721 -0.204614 0.578125 0.095238
w_beretta.bmp
 27 -14.425085 -2.298816 36.179302 -0.641377 0.742373 -0.193695 0.781250 0.285714
 27 -12.655576 -1.594211 37.706509 0.412399 0.910296 -0.035900 0.953125 0.285714
 43 -13.256886 -2.305497 35.817169 0.400506 0.674307 -0.620407 0.781250 0.285714
w_beretta.bmp
 27 -14.425085 -2.298816 36.179302 -0.641377 0.742373 -0.193695 0.781250 0.285714
 27 -13.827615 -1.582342 38.079720 -0.195498 0.718590 0.667389 0.953125 0.285714
 27 -12.655576 -1.594211 37.706509 0.412399 0.910296 -0.035900 0.953125 0.285714
w_beretta.bmp
 27 -14.425085 -2.298816 36.179302 -0.641377 0.742373 -0.193695 0.781250 0.285714
 27 -13.724125 -2.298498 38.402847 -0.670220 0.118004 0.732721 0.953125 0.380952
 27 -13.827615 -1.582342 38.079720 -0.195498 0.718590 0.667389 0.953125 0.285714
w_beretta.bmp
 27 -14.425085 -2.298816 36.179302 -0.641377 0.742373 -0.193695 0.781250 0.285714
 27 -14.495926 -2.504605 35.966858 -0.799219 0.352508 -0.486813 0.750000 0.285714
 27 -13.724125 -2.298498 38.402847 -0.670220 0.118004 0.732721 0.953125 0.380952
w_beretta.bmp
 27 -14.425085 -2.298816 36.179302 -0.641377 0.742373 -0.193695 0.781250 0.285714
 43 -13.256886 -2.305497 35.817169 0.400506 0.674307 -0.620407 0.781250 0.285714
 27 -14.495926 -2.504605 35.966858 -0.799219 0.352508 -0.486813 0.750000 0.285714
w_beretta.bmp
 27 -13.460215 -6.781920 35.329300 0.674086 0.681585 -0.284694 0.453125 0.730159
 32 -13.140677 -6.370155 36.326557 0.651788 0.359492 -0.667786 0.640625 0.730159
 27 -12.328691 -6.248553 38.916985 0.967172 -0.217394 0.131597 0.890625 0.825397
w_beretta.bmp
 27 -12.328691 -6.248553 38.916985 0.967172 -0.217394 0.131597 0.890625 0.825397
 32 -13.140677 -6.370155 36.326557 0.651788 0.359492 -0.667786 0.640625 0.730159
 27 -12.299110 -5.776821 38.968891 0.866800 -0.333300 0.370902 0.921875 0.793651
w_beretta.bmp
 32 -13.140677 -6.370155 36.326557 0.651788 0.359492 -0.667786 0.640625 0.730159
 27 -12.417714 -5.393882 38.604073 0.892765 0.447382 0.053098 0.890625 0.730159
 27 -12.299110 -5.776821 38.968891 0.866800 -0.333300 0.370902 0.921875 0.793651
w_beretta.bmp
 27 -12.299110 -5.776821 38.968891 0.866800 -0.333300 0.370902 0.921875 0.793651
 27 -12.417714 -5.393882 38.604073 0.892765 0.447382 0.053098 0.890625 0.730159
 27 -12.217920 -5.458814 39.211334 0.848619 0.480811 0.220605 0.953125 0.761905
w_beretta.bmp
 27 -12.417714 -5.393882 38.604073 0.892765 0.447382 0.053098 0.890625 0.730159
 27 -12.325153 -5.375883 38.884804 0.323999 0.943696 -0.066800 0.921875 0.746032
 27 -12.217920 -5.458814 39.211334 0.848619 0.480811 0.220605 0.953125 0.761905
w_beretta.bmp
 27 -14.408020 -5.683366 35.187016 -0.545494 -0.518992 0.658091 0.875000 0.015873
 27 -13.725238 -5.336317 35.593300 0.554115 -0.821923 -0.131902 0.687500 0.063492
 27 -14.219905 -5.324622 35.753510 -0.794382 -0.592386 0.134297 0.687500 0.015873
w_beretta.bmp
 27 -14.219905 -5.324622 35.753510 -0.794382 -0.592386 0.134297 0.687500 0.015873
 27 -13.725238 -5.336317 35.593300 0.554115 -0.821923 -0.131902 0.687500 0.063492
 27 -14.386950 -5.283651 36.364510 -0.596187 -0.793782 -0.120297 0.546875 0.015873
w_beretta.bmp
 27 -13.725238 -5.336317 35.593300 0.554115 -0.821923 -0.131902 0.687500 0.063492
 27 -13.233907 -5.295441 35.997555 0.344300 -0.717600 -0.605398 0.546875 0.063492
 27 -14.386950 -5.283651 36.364510 -0.596187 -0.793782 -0.120297 0.546875 0.015873
w_beretta.bmp
 27 -14.386950 -5.283651 36.364510 -0.596187 -0.793782 -0.120297 0.546875 0.015873
 27 -13.233907 -5.295441 35.997555 0.344300 -0.717600 -0.605398 0.546875 0.063492
 27 -14.307870 -5.496264 36.639175 -0.838713 -0.468207 -0.278105 0.500000 0.015873
w_beretta.bmp
 27 -13.233907 -5.295441 35.997555 0.344300 -0.717600 -0.605398 0.546875 0.063492
 32 -13.144884 -5.523500 36.274994 0.504407 -0.360505 -0.784608 0.500000 0.063492
 27 -14.307870 -5.496264 36.639175 -0.838713 -0.468207 -0.278105 0.500000 0.015873
w_beretta.bmp
 27 -12.350445 -6.211628 38.946369 0.455792 0.889584 -0.029900 0.921875 0.825397
 27 -12.317150 -6.781873 39.054592 0.948921 -0.002000 0.315508 0.921875 0.904762
 27 -14.493897 -8.986564 32.219387 0.686912 0.034700 -0.725911 0.000000 0.825397
w_beretta.bmp
 27 -14.493897 -8.986564 32.219387 0.686912 0.034700 -0.725911 0.000000 0.825397
 27 -12.317150 -6.781873 39.054592 0.948921 -0.002000 0.315508 0.921875 0.904762
 27 -13.179093 -7.675191 36.353622 0.730764 -0.371682 -0.572570 0.546875 0.873016
w_beretta.bmp
 27 -12.317150 -6.781873 39.054592 0.948921 -0.002000 0.315508 0.921875 0.904762
 27 -12.630879 -7.753114 38.082550 0.765104 -0.636904 0.094702 0.765625 0.968254
 27 -13.179093 -7.675191 36.353622 0.730764 -0.371682 -0.572570 0.546875 0.873016
w_beretta.bmp
 27 -13.179093 -7.675191 36.353622 0.730764 -0.371682 -0.572570 0.546875 0.873016
 27 -12.630879 -7.753114 38.082550 0.765104 -0.636904 0.094702 0.765625 0.968254
 27 -13.107194 -8.358757 36.612408 0.355716 -0.913443 -0.197708 0.546875 0.968254
w_beretta.bmp
 27 -12.558554 -2.307710 38.041927 0.967020 0.157703 0.200005 0.968750 0.380952
 43 -13.256886 -2.305497 35.817169 0.400506 0.674307 -0.620407 0.765625 0.285714
 27 -12.655576 -1.594211 37.706509 0.412399 0.910296 -0.035900 0.968750 0.285714
w_beretta.bmp
 27 -12.558554 -2.307710 38.041927 0.967020 0.157703 0.200005 0.968750 0.380952
 27 -13.333385 -2.516434 35.596775 0.355196 -0.003301 -0.934786 0.734375 0.285714
 43 -13.256886 -2.305497 35.817169 0.400506 0.674307 -0.620407 0.765625 0.285714
w_beretta.bmp
 27 -12.558554 -2.307710 38.041927 0.967020 0.157703 0.200005 0.968750 0.380952
 27 -13.241913 -3.284283 35.884075 0.286709 -0.219107 -0.932625 0.734375 0.396825
 27 -13.333385 -2.516434 35.596775 0.355196 -0.003301 -0.934786 0.734375 0.285714
w_beretta.bmp
 27 -12.558554 -2.307710 38.041927 0.967020 0.157703 0.200005 0.968750 0.380952
 27 -13.167595 -4.794060 36.192539 0.511812 0.231504 -0.827318 0.687500 0.555556
 27 -13.241913 -3.284283 35.884075 0.286709 -0.219107 -0.932625 0.734375 0.396825
w_beretta.bmp
 27 -14.265112 -5.903417 36.774075 -0.704727 -0.060103 -0.706928 0.906250 0.015873
 32 -13.140677 -6.370155 36.326557 0.651788 0.359492 -0.667786 0.812500 0.063492
 32 -14.300219 -6.364213 36.689365 -0.974092 0.223299 0.035798 0.812500 0.015873
w_beretta.bmp
 32 -14.300219 -6.364213 36.689365 -0.974092 0.223299 0.035798 0.812500 0.015873
 32 -13.140677 -6.370155 36.326557 0.651788 0.359492 -0.667786 0.812500 0.063492
 27 -14.616287 -6.772748 35.687088 -0.524680 0.841269 0.130294 0.640625 0.015873
w_beretta.bmp
 32 -13.140677 -6.370155 36.326557 0.651788 0.359492 -0.667786 0.812500 0.063492
 27 -13.460215 -6.781920 35.329300 0.674086 0.681585 -0.284694 0.640625 0.063492
 27 -14.616287 -6.772748 35.687088 -0.524680 0.841269 0.130294 0.640625 0.015873
w_beretta.bmp
 27 -14.616287 -6.772748 35.687088 -0.524680 0.841269 0.130294 0.640625 0.015873
 27 -13.460215 -6.781920 35.329300 0.674086 0.681585 -0.284694 0.640625 0.063492
 33 -13.899190 -6.582582 35.078804 0.530405 0.718008 0.450705 0.562500 0.063492
w_beretta.bmp
 27 -14.681229 -9.848782 31.949228 0.247909 -0.203208 -0.947231 0.312500 0.587302
 27 -15.438464 -9.492172 32.043167 -0.702566 0.377282 -0.603373 0.375000 0.492063
 27 -14.959763 -9.501171 31.898378 0.086103 0.700318 -0.708619 0.375000 0.555556
w_beretta.bmp
 27 -14.681229 -9.848782 31.949228 0.247909 -0.203208 -0.947231 0.312500 0.587302
 27 -15.634819 -9.837817 32.250469 -0.888708 -0.379803 -0.256803 0.312500 0.460317
 27 -15.438464 -9.492172 32.043167 -0.702566 0.377282 -0.603373 0.375000 0.492063
w_beretta.bmp
 27 -14.681229 -9.848782 31.949228 0.247909 -0.203208 -0.947231 0.312500 0.587302
 27 -15.366566 -10.175737 32.301952 -0.327178 -0.926439 -0.186187 0.265625 0.492063
 27 -15.634819 -9.837817 32.250469 -0.888708 -0.379803 -0.256803 0.312500 0.460317
w_beretta.bmp
 27 -14.681229 -9.848782 31.949228 0.247909 -0.203208 -0.947231 0.312500 0.587302
 27 -14.878366 -10.184776 32.154034 0.524497 -0.822096 -0.221497 0.265625 0.555556
 27 -15.366566 -10.175737 32.301952 -0.327178 -0.926439 -0.186187 0.265625 0.492063
w_beretta.bmp
 27 -13.503488 -6.199839 39.313320 -0.200302 0.580004 0.789604 0.468750 0.015873
 27 -13.470193 -6.770083 39.421543 -0.600705 -0.098300 0.793405 0.468750 0.174603
 27 -12.317150 -6.781873 39.054592 0.948921 -0.002000 0.315508 0.234375 0.174603
w_beretta.bmp
 27 -12.317150 -6.781873 39.054592 0.948921 -0.002000 0.315508 0.234375 0.174603
 27 -13.470193 -6.770083 39.421543 -0.600705 -0.098300 0.793405 0.468750 0.174603
 27 -12.378186 -7.268369 38.875439 0.545707 -0.531307 0.648010 0.234375 0.285714
w_beretta.bmp
 27 -13.470193 -6.770083 39.421543 -0.600705 -0.098300 0.793405 0.468750 0.174603
 27 -13.531229 -7.256579 39.242390 -0.131494 -0.692061 0.709761 0.468750 0.285714
 27 -12.378186 -7.268369 38.875439 0.545707 -0.531307 0.648010 0.234375 0.285714
w_beretta.bmp
 27 -13.107194 -8.358757 36.612408 0.355716 -0.913443 -0.197708 0.546875 0.920635
 27 -12.630879 -7.753114 38.082550 0.765104 -0.636904 0.094702 0.828125 0.920635
 27 -13.797233 -7.734251 38.440971 -0.594681 -0.636778 0.490784 0.828125 1.000000
w_beretta.bmp
 27 -13.797233 -7.734251 38.440971 -0.594681 -0.636778 0.490784 0.828125 1.000000
 27 -12.630879 -7.753114 38.082550 0.765104 -0.636904 0.094702 0.828125 0.920635
 27 -13.531229 -7.256579 39.242390 -0.131494 -0.692061 0.709761 0.875000 1.000000
w_beretta.bmp
 27 -12.630879 -7.753114 38.082550 0.765104 -0.636904 0.094702 0.828125 0.920635
 27 -12.378186 -7.268369 38.875439 0.545707 -0.531307 0.648010 0.875000 0.920635
 27 -13.531229 -7.256579 39.242390 -0.131494 -0.692061 0.709761 0.875000 1.000000
w_beretta.bmp
 27 -12.217920 -5.458814 39.211334 0.848619 0.480811 0.220605 0.890625 0.095238
 27 -12.325153 -5.375883 38.884804 0.323999 0.943696 -0.066800 0.921875 0.095238
 27 -13.501004 -5.356981 39.246353 -0.255805 0.941920 0.217603 0.921875 0.269841
w_beretta.bmp
 27 -13.501004 -5.356981 39.246353 -0.255805 0.941920 0.217603 0.921875 0.269841
 27 -12.325153 -5.375883 38.884804 0.323999 0.943696 -0.066800 0.921875 0.095238
 27 -13.580255 -5.382053 38.974155 -0.746512 0.546809 0.379104 0.968750 0.269841
w_beretta.bmp
 27 -12.325153 -5.375883 38.884804 0.323999 0.943696 -0.066800 0.921875 0.095238
 27 -12.417714 -5.393882 38.604073 0.892765 0.447382 0.053098 0.968750 0.095238
 27 -13.580255 -5.382053 38.974155 -0.746512 0.546809 0.379104 0.968750 0.269841
w_beretta.bmp
 27 -13.717811 -7.126313 34.519772 0.414919 0.545722 -0.728031 0.375000 0.730159
 27 -13.879816 -7.607088 34.034065 0.585007 0.608306 -0.536406 0.328125 0.746032
 27 -15.046169 -7.588225 34.392483 -0.797616 0.575711 -0.179905 0.328125 0.777778
w_beretta.bmp
 27 -15.046169 -7.588225 34.392483 -0.797616 0.575711 -0.179905 0.328125 0.777778
 27 -13.879816 -7.607088 34.034065 0.585007 0.608306 -0.536406 0.328125 0.746032
 27 -15.700626 -8.438635 32.352734 -0.587092 0.615092 -0.526294 0.062500 0.777778
w_beretta.bmp
 27 -13.879816 -7.607088 34.034065 0.585007 0.608306 -0.536406 0.328125 0.746032
 27 -14.525558 -8.447886 31.988686 0.117002 0.077400 -0.990111 0.062500 0.746032
 27 -15.700626 -8.438635 32.352734 -0.587092 0.615092 -0.526294 0.062500 0.777778
w_beretta.bmp
 27 -12.328691 -6.248553 38.916985 0.967172 -0.217394 0.131597 0.968750 0.269841
 27 -12.299110 -5.776821 38.968891 0.866800 -0.333300 0.370902 0.906250 0.269841
 27 -13.471148 -5.764953 39.342102 -0.489302 -0.200299 0.848801 0.906250 0.095238
w_beretta.bmp
 27 -13.471148 -5.764953 39.342102 -0.489302 -0.200299 0.848801 0.906250 0.095238
 27 -12.299110 -5.776821 38.968891 0.866800 -0.333300 0.370902 0.906250 0.269841
 27 -13.389959 -5.446946 39.584545 -0.504294 -0.090398 0.858787 0.875000 0.095238
w_beretta.bmp
 27 -12.299110 -5.776821 38.968891 0.866800 -0.333300 0.370902 0.906250 0.269841
 27 -12.217920 -5.458814 39.211334 0.848619 0.480811 0.220605 0.875000 0.269841
 27 -13.389959 -5.446946 39.584545 -0.504294 -0.090398 0.858787 0.875000 0.095238
w_beretta.bmp
 27 -13.501004 -5.356981 39.246353 -0.255805 0.941920 0.217603 0.921875 0.746032
 27 -13.580255 -5.382053 38.974155 -0.746512 0.546809 0.379104 0.890625 0.730159
 27 -13.389959 -5.446946 39.584545 -0.504294 -0.090398 0.858787 0.953125 0.761905
w_beretta.bmp
 27 -13.389959 -5.446946 39.584545 -0.504294 -0.090398 0.858787 0.953125 0.761905
 27 -13.580255 -5.382053 38.974155 -0.746512 0.546809 0.379104 0.890625 0.730159
 27 -13.471148 -5.764953 39.342102 -0.489302 -0.200299 0.848801 0.921875 0.793651
w_beretta.bmp
 27 -13.580255 -5.382053 38.974155 -0.746512 0.546809 0.379104 0.890625 0.730159
 32 -14.300219 -6.364213 36.689365 -0.974092 0.223299 0.035798 0.640625 0.730159
 27 -13.471148 -5.764953 39.342102 -0.489302 -0.200299 0.848801 0.921875 0.793651
w_beretta.bmp
 27 -14.461840 -6.019039 35.027870 -0.494495 -0.026099 0.868789 0.437500 0.619048
 27 -14.486110 -6.639015 34.961990 -0.874662 0.229090 -0.427183 0.406250 0.698413
 33 -14.400861 -6.568865 35.237038 -0.400986 0.704076 0.586078 0.437500 0.698413
w_beretta.bmp
 33 -14.400861 -6.568865 35.237038 -0.400986 0.704076 0.586078 0.437500 0.698413
 27 -14.486110 -6.639015 34.961990 -0.874662 0.229090 -0.427183 0.406250 0.698413
 27 -14.616287 -6.772748 35.687088 -0.524680 0.841269 0.130294 0.453125 0.730159
w_beretta.bmp
 27 -14.486110 -6.639015 34.961990 -0.874662 0.229090 -0.427183 0.406250 0.698413
 27 -14.890632 -7.104793 34.890484 -0.763498 0.494399 -0.415500 0.375000 0.730159
 27 -14.616287 -6.772748 35.687088 -0.524680 0.841269 0.130294 0.453125 0.730159
w_beretta.bmp
 32 -13.140677 -6.370155 36.326557 0.651788 0.359492 -0.667786 0.812500 0.063492
 27 -14.265112 -5.903417 36.774075 -0.704727 -0.060103 -0.706928 0.906250 0.015873
 27 -13.112069 -5.915207 36.407124 0.478088 -0.058299 -0.876375 0.906250 0.063492
w_beretta.bmp
 27 -13.112069 -5.915207 36.407124 0.478088 -0.058299 -0.876375 0.906250 0.063492
 27 -14.265112 -5.903417 36.774075 -0.704727 -0.060103 -0.706928 0.906250 0.015873
 32 -13.144884 -5.523500 36.274994 0.504407 -0.360505 -0.784608 0.953125 0.063492
w_beretta.bmp
 27 -14.265112 -5.903417 36.774075 -0.704727 -0.060103 -0.706928 0.906250 0.015873
 27 -14.307870 -5.496264 36.639175 -0.838713 -0.468207 -0.278105 0.953125 0.015873
 32 -13.144884 -5.523500 36.274994 0.504407 -0.360505 -0.784608 0.953125 0.063492
w_beretta.bmp
 33 -13.960232 -6.034078 34.869957 0.991993 -0.031500 0.122300 0.953125 0.063492
 27 -13.901608 -5.682832 35.030342 0.847497 -0.430798 0.310100 0.875000 0.063492
 27 -14.461840 -6.019039 35.027870 -0.494495 -0.026099 0.868789 0.953125 0.015873
w_beretta.bmp
 27 -14.461840 -6.019039 35.027870 -0.494495 -0.026099 0.868789 0.953125 0.015873
 27 -13.901608 -5.682832 35.030342 0.847497 -0.430798 0.310100 0.875000 0.063492
 27 -14.408020 -5.683366 35.187016 -0.545494 -0.518992 0.658091 0.875000 0.015873
w_beretta.bmp
 27 -13.901608 -5.682832 35.030342 0.847497 -0.430798 0.310100 0.875000 0.063492
 27 -13.725238 -5.336317 35.593300 0.554115 -0.821923 -0.131902 0.687500 0.063492
 27 -14.408020 -5.683366 35.187016 -0.545494 -0.518992 0.658091 0.875000 0.015873
w_beretta.bmp
 27 -14.616287 -6.772748 35.687088 -0.524680 0.841269 0.130294 0.640625 0.015873
 33 -13.899190 -6.582582 35.078804 0.530405 0.718008 0.450705 0.562500 0.063492
 33 -14.400861 -6.568865 35.237038 -0.400986 0.704076 0.586078 0.562500 0.015873
w_beretta.bmp
 33 -14.400861 -6.568865 35.237038 -0.400986 0.704076 0.586078 0.562500 0.015873
 33 -13.899190 -6.582582 35.078804 0.530405 0.718008 0.450705 0.562500 0.063492
 27 -14.461840 -6.019039 35.027870 -0.494495 -0.026099 0.868789 0.484375 0.015873
w_beretta.bmp
 33 -13.899190 -6.582582 35.078804 0.530405 0.718008 0.450705 0.562500 0.063492
 33 -13.960232 -6.034078 34.869957 0.991993 -0.031500 0.122300 0.484375 0.063492
 27 -14.461840 -6.019039 35.027870 -0.494495 -0.026099 0.868789 0.484375 0.015873
w_beretta.bmp
 27 -13.503488 -6.199839 39.313320 -0.200302 0.580004 0.789604 0.187500 0.730159
 27 -12.350445 -6.211628 38.946369 0.455792 0.889584 -0.029900 0.109375 0.730159
 27 -15.650753 -8.967740 32.574680 -0.938155 0.335720 -0.084606 0.187500 0.031746
w_beretta.bmp
 27 -15.650753 -8.967740 32.574680 -0.938155 0.335720 -0.084606 0.187500 0.031746
 27 -12.350445 -6.211628 38.946369 0.455792 0.889584 -0.029900 0.109375 0.730159
 27 -14.493897 -8.986564 32.219387 0.686912 0.034700 -0.725911 0.109375 0.031746
w_beretta.bmp
 27 -14.335166 -7.666019 36.711411 -0.850493 -0.476795 0.222098 0.250000 0.301587
 27 -13.179093 -7.675191 36.353622 0.730764 -0.371682 -0.572570 0.468750 0.301587
 27 -14.264050 -8.339933 36.967697 -0.579700 -0.674000 -0.457900 0.250000 0.444444
w_beretta.bmp
 27 -14.264050 -8.339933 36.967697 -0.579700 -0.674000 -0.457900 0.250000 0.444444
 27 -13.179093 -7.675191 36.353622 0.730764 -0.371682 -0.572570 0.468750 0.301587
 27 -13.107194 -8.358757 36.612408 0.355716 -0.913443 -0.197708 0.468750 0.444444
w_beretta.bmp
 27 -15.547262 -9.997893 32.965668 -0.762775 -0.512784 -0.393988 0.078125 0.968254
 27 -14.381692 -10.007106 32.604752 0.458500 -0.714100 -0.528998 0.000000 0.968254
 27 -15.436318 -10.046636 33.303036 -0.535019 -0.800227 0.270909 0.078125 0.984127
w_beretta.bmp
 27 -15.436318 -10.046636 33.303036 -0.535019 -0.800227 0.270909 0.078125 0.984127
 27 -14.381692 -10.007106 32.604752 0.458500 -0.714100 -0.528998 0.000000 0.968254
 27 -14.283277 -10.058426 32.936085 0.644832 -0.752838 0.132008 0.000000 0.984127
w_beretta.bmp
 27 -15.434176 -9.073978 33.297318 -0.679127 -0.065102 0.731128 0.109375 1.000000
 27 -14.268606 -9.083190 32.936401 0.932982 -0.348694 0.089200 0.109375 0.904762
 27 -14.335166 -7.666019 36.711411 -0.850493 -0.476795 0.222098 0.546875 1.000000
w_beretta.bmp
 27 -14.335166 -7.666019 36.711411 -0.850493 -0.476795 0.222098 0.546875 1.000000
 27 -14.268606 -9.083190 32.936401 0.932982 -0.348694 0.089200 0.109375 0.904762
 27 -13.179093 -7.675191 36.353622 0.730764 -0.371682 -0.572570 0.546875 0.904762
w_beretta.bmp
 27 -14.469114 -9.020870 32.199169 0.608310 -0.749313 -0.261703 0.093750 0.841270
 27 -15.641153 -9.009002 32.572380 -0.791218 -0.546813 -0.273807 0.000000 0.841270
 27 -14.525558 -8.447886 31.988686 0.117002 0.077400 -0.990111 0.093750 0.777778
w_beretta.bmp
 27 -14.525558 -8.447886 31.988686 0.117002 0.077400 -0.990111 0.093750 0.777778
 27 -15.641153 -9.009002 32.572380 -0.791218 -0.546813 -0.273807 0.000000 0.841270
 27 -15.700626 -8.438635 32.352734 -0.587092 0.615092 -0.526294 0.000000 0.777778
w_beretta.bmp
 27 -14.342663 -4.784809 36.556587 -0.903318 0.053601 -0.425610 0.687500 0.555556
 27 -13.724125 -2.298498 38.402847 -0.670220 0.118004 0.732721 0.953125 0.380952
 27 -14.413951 -3.272414 36.257286 -0.770129 -0.253110 -0.585523 0.750000 0.396825
w_beretta.bmp
 27 -14.413951 -3.272414 36.257286 -0.770129 -0.253110 -0.585523 0.750000 0.396825
 27 -13.724125 -2.298498 38.402847 -0.670220 0.118004 0.732721 0.953125 0.380952
 27 -14.495926 -2.504605 35.966858 -0.799219 0.352508 -0.486813 0.750000 0.285714
w_beretta.bmp
 27 -12.630879 -7.753114 38.082550 0.765104 -0.636904 0.094702 0.765625 0.968254
 27 -12.317150 -6.781873 39.054592 0.948921 -0.002000 0.315508 0.921875 0.904762
 27 -12.378186 -7.268369 38.875439 0.545707 -0.531307 0.648010 0.875000 0.952381
w_beretta.bmp
 27 -14.268606 -9.083190 32.936401 0.932982 -0.348694 0.089200 0.078125 0.873016
 27 -14.493897 -8.986564 32.219387 0.686912 0.034700 -0.725911 0.000000 0.825397
 27 -13.179093 -7.675191 36.353622 0.730764 -0.371682 -0.572570 0.546875 0.873016
w_beretta.bmp
 27 -13.503488 -6.199839 39.313320 -0.200302 0.580004 0.789604 0.468750 0.015873
 27 -12.317150 -6.781873 39.054592 0.948921 -0.002000 0.315508 0.234375 0.174603
 27 -12.350445 -6.211628 38.946369 0.455792 0.889584 -0.029900 0.234375 0.015873
w_beretta.bmp
 27 -13.107194 -8.358757 36.612408 0.355716 -0.913443 -0.197708 0.546875 0.920635
 27 -13.797233 -7.734251 38.440971 -0.594681 -0.636778 0.490784 0.828125 1.000000
 27 -14.264050 -8.339933 36.967697 -0.579700 -0.674000 -0.457900 0.562500 1.000000
w_beretta.bmp
 27 -14.283277 -10.058426 32.936085 0.644832 -0.752838 0.132008 0.031250 0.984127
 27 -15.360882 -9.857532 33.529636 -0.112700 -0.464093 0.878588 0.078125 0.968254
 27 -15.436318 -10.046636 33.303036 -0.535019 -0.800227 0.270909 0.031250 0.984127
w_beretta.bmp
 27 -15.434176 -9.073978 33.297318 -0.679127 -0.065102 0.731128 0.078125 0.873016
 27 -14.207839 -9.869321 33.162685 0.627608 -0.076000 0.774811 0.078125 0.968254
 27 -14.268606 -9.083190 32.936401 0.932982 -0.348694 0.089200 0.078125 0.873016
w_beretta.bmp
 27 -13.470193 -6.770083 39.421543 -0.600705 -0.098300 0.793405 0.921875 0.904762
 27 -13.503488 -6.199839 39.313320 -0.200302 0.580004 0.789604 0.921875 0.825397
 27 -15.650753 -8.967740 32.574680 -0.938155 0.335720 -0.084606 0.000000 0.825397
w_beretta.bmp
 27 -14.335166 -7.666019 36.711411 -0.850493 -0.476795 0.222098 0.546875 0.873016
 27 -14.264050 -8.339933 36.967697 -0.579700 -0.674000 -0.457900 0.546875 0.968254
 27 -13.797233 -7.734251 38.440971 -0.594681 -0.636778 0.490784 0.765625 0.968254
w_beretta.bmp
 27 -14.495926 -2.504605 35.966858 -0.799219 0.352508 -0.486813 0.750000 0.285714
 43 -13.256886 -2.305497 35.817169 0.400506 0.674307 -0.620407 0.781250 0.285714
 27 -13.333385 -2.516434 35.596775 0.355196 -0.003301 -0.934786 0.750000 0.285714
w_beretta.bmp
 27 -13.991443 -6.650711 34.801777 0.451694 0.347094 -0.821887 0.421875 0.698413
 33 -14.052965 -6.025158 34.567596 0.311993 -0.098399 -0.944975 0.421875 0.619048
 33 -13.960232 -6.034078 34.869957 0.991993 -0.031500 0.122300 0.421875 0.619048
w_beretta.bmp
 27 -12.217920 -5.458814 39.211334 0.848619 0.480811 0.220605 0.890625 0.095238
 27 -13.501004 -5.356981 39.246353 -0.255805 0.941920 0.217603 0.921875 0.269841
 27 -13.389959 -5.446946 39.584545 -0.504294 -0.090398 0.858787 0.890625 0.269841
w_beretta.bmp
 27 -13.717811 -7.126313 34.519772 0.414919 0.545722 -0.728031 0.375000 0.730159
 27 -15.046169 -7.588225 34.392483 -0.797616 0.575711 -0.179905 0.328125 0.777778
 27 -14.890632 -7.104793 34.890484 -0.763498 0.494399 -0.415500 0.375000 0.746032
w_beretta.bmp
 27 -12.328691 -6.248553 38.916985 0.967172 -0.217394 0.131597 0.968750 0.269841
 27 -13.471148 -5.764953 39.342102 -0.489302 -0.200299 0.848801 0.906250 0.095238
 27 -13.491232 -6.236723 39.287064 -0.761983 -0.329192 0.557687 0.968750 0.095238
w_beretta.bmp
 27 -12.417714 -5.393882 38.604073 0.892765 0.447382 0.053098 0.500000 0.253968
 27 -13.680781 -4.942186 38.663490 -0.741617 0.200005 0.640314 0.546875 0.095238
 27 -13.580255 -5.382053 38.974155 -0.746512 0.546809 0.379104 0.500000 0.095238
w_beretta.bmp
 27 -13.220155 -5.025367 36.035908 0.692513 0.424607 -0.583210 0.937500 0.063492
 27 -14.264909 -5.086737 35.645878 -0.759053 0.648760 -0.054298 0.843750 0.015873
 27 -14.385725 -5.016155 36.396824 -0.917257 0.341721 -0.204614 0.937500 0.015873
w_beretta.bmp
 27 -13.333385 -2.516434 35.596775 0.355196 -0.003301 -0.934786 0.828125 0.253968
 27 -14.413951 -3.272414 36.257286 -0.770129 -0.253110 -0.585523 0.750000 0.095238
 27 -14.495926 -2.504605 35.966858 -0.799219 0.352508 -0.486813 0.828125 0.095238
w_beretta.bmp
 27 -15.046169 -7.588225 34.392483 -0.797616 0.575711 -0.179905 0.328125 0.761905
 27 -15.700626 -8.438635 32.352734 -0.587092 0.615092 -0.526294 0.062500 0.761905
 27 -15.641153 -9.009002 32.572380 -0.791218 -0.546813 -0.273807 0.062500 0.809524
w_beretta.bmp
 27 -14.102833 -5.625912 35.473476 -0.660706 0.621806 -0.420506 0.515625 0.603175
 27 -13.878938 -5.554070 35.640839 0.527012 0.826518 -0.197805 0.531250 0.603175
 27 -13.950869 -5.626541 35.423412 0.272212 -0.317814 -0.908237 0.515625 0.603175
w_beretta.bmp
 27 -13.838494 -6.343705 36.540527 -0.215601 -0.578599 0.786600 0.609375 0.730159
 27 -13.716315 -6.530969 36.018890 0.625795 -0.724194 -0.289696 0.546875 0.730159
 27 -13.578241 -6.351799 36.467705 0.686203 0.048301 0.725805 0.609375 0.730159
end
