version 1
nodes
  0 "Bip01" -1
  1 "Bip01 Pelvis" 0
  2 "Bip01 L Thigh" 1
  3 "Bip01 L Calf" 2
  4 "Bip01 L Foot" 3
  5 "Bip01 R Thigh" 1
  6 "Bip01 R Calf" 5
  7 "Bip01 R Foot" 6
  8 "Bip01 Spine" 1
  9 "Bip01 Spine1" 8
 10 "Bip01 Neck" 9
 11 "Bip01 L Clavicle" 10
 12 "Bip01 L UpperArm" 11
 13 "Bip01 L Forearm" 12
 14 "Bip01 L Hand" 13
 15 "Bip01 L Finger0" 14
 16 "Bip01 L Finger01" 15
 17 "Bip01 L Finger02" 16
 18 "Bip01 L Finger1" 14
 19 "Bip01 L Finger11" 18
 20 "Bip01 L Finger12" 19
 21 "Bip01 L Finger2" 14
 22 "Bip01 L Finger21" 21
 23 "Bip01 L Finger22" 22
 24 "Bip01 R Clavicle" 10
 25 "Bip01 R UpperArm" 24
 26 "Bip01 R Forearm" 25
 27 "Bip01 R Hand" 26
 28 "Bip01 R Finger0" 27
 29 "Bip01 R Finger01" 28
 30 "Bip01 R Finger02" 29
 31 "Bip01 R Finger1" 27
 32 "Bip01 R Finger11" 31
 33 "Bip01 R Finger12" 32
 34 "Bip01 R Finger2" 27
 35 "Bip01 R Finger21" 34
 36 "Bip01 R Finger22" 35
 37 "Bip01 Head" 10
 38 "Bone05" 37
 39 "Bone08" 9
 40 "Bone16" 8
 41 "Bone01" 8
 42 "Bone03" 1
 43 "Bip01 R Finger4" 27
end
skeleton
time 0
  0   0.399414 -0.597932 13.977362 1.374159 1.543406 2.847540
  1   4.059045 0.085940 0.000000 -1.570795 -1.570451 0.000000
  2   -0.000007 0.000008 4.427393 -0.537323 -3.022316 -0.279704
  3   18.465939 0.000000 0.000000 0.000000 0.000000 -0.434395
  4   14.875443 0.000000 0.000000 0.139380 0.160083 -0.513540
  5   0.000006 -0.000004 -4.427393 0.001070 2.967151 -0.266217
  6   18.465939 0.000000 0.000000 0.000000 0.000000 -0.356068
  7   14.875442 0.000000 0.000000 -0.143608 0.099495 -0.606504
  8   2.255207 -0.007574 0.000003 -0.000004 -0.000001 -0.365517
  9   9.514223 -0.009357 0.000000 0.295262 0.020899 -0.120300
 10   11.752194 -0.001492 0.000000 0.000000 -0.000001 0.239424
 11   -2.131323 0.445615 2.649731 -2.463185 -1.347428 5.376802
 12   4.640941 0.000000 0.000000 -0.331617 0.476896 -0.758119
 13   10.828045 0.000000 0.000000 0.000000 0.000000 -1.237925
 14   9.393338 -0.000001 0.000000 -1.569611 0.000000 0.000037
 15   1.442243 0.107453 -1.746178 1.866923 0.229889 0.676994
 16   1.063450 0.000000 -0.000001 0.000000 0.000000 0.235609
 17   1.376307 -0.000001 0.000001 0.000000 0.000000 0.235614
 18   4.172845 -0.251366 -1.312745 0.081348 0.051149 1.075363
 19   1.215373 0.000001 -0.000001 0.000000 0.000000 1.020980
 20   1.215371 -0.000002 0.000000 0.000000 0.000000 1.020980
 21   4.220532 -0.244855 -0.431465 0.021755 0.014725 1.073521
 22   1.350417 0.000000 0.000001 0.000000 0.000000 1.020996
 23   1.350409 0.000000 -0.000001 0.000000 0.000000 1.020996
 24   -2.131323 0.445628 -2.649724 -0.088044 1.370038 2.815040
 25   4.640942 0.000000 0.000000 0.412001 0.452972 -0.788648
 26   10.828048 0.000000 0.000001 0.000000 0.000000 -1.185572
 27   9.393336 -0.000001 0.000000 1.569611 0.252913 0.000001
 28   1.442244 0.107454 1.746178 -1.866873 -0.229907 0.676989
 29   1.063451 -0.000001 0.000000 0.000000 0.000000 0.235609
 30   1.376307 -0.000001 0.000000 0.000000 0.000000 0.235618
 31   4.172846 -0.251365 1.312745 -0.081348 -0.051149 1.075363
 32   1.215374 0.000001 -0.000001 0.000000 0.000000 1.020982
 33   1.215373 0.000000 0.000001 0.000000 0.000000 1.020982
 34   4.220533 -0.244853 0.431466 -0.021755 -0.014725 1.073521
 35   1.350415 -0.000001 -0.000001 0.000000 0.000000 1.020982
 36   1.350410 -0.000001 0.000001 0.000000 0.000000 1.020980
 37   2.110541 -0.000001 0.000000 -0.307467 -0.014191 -0.269362
 38   0.891923 2.373050 -0.014527 -3.141592 -0.000001 1.413797
 39   7.228119 5.709445 3.726568 3.140796 -1.570796 0.000000
 40   2.450426 5.076127 0.001325 3.140791 -1.570796 0.000000
 41   6.312405 -4.528058 0.001311 3.140791 -1.570796 0.000000
 42   2.233309 1.152535 -7.309138 -1.570796 -1.570796 0.000000
 43   4.262825 -0.232720 -1.392178 0.001188 0.078478 0.052453
time 1
  0   0.399414 -0.597932 13.977362 1.374159 1.543406 2.847540
  1   4.059045 0.085940 0.000000 -1.570795 -1.570451 0.000000
  2   -0.000007 0.000008 4.427393 -0.537323 -3.022316 -0.279704
  3   18.465939 0.000000 0.000000 0.000000 0.000000 -0.434395
  4   14.875443 0.000000 0.000000 0.139380 0.160083 -0.513540
  5   0.000006 -0.000004 -4.427393 0.001070 2.967151 -0.266217
  6   18.465939 0.000000 0.000000 0.000000 0.000000 -0.356068
  7   14.875442 0.000000 0.000000 -0.143608 0.099495 -0.606504
  8   2.255207 -0.007574 0.000003 -0.000004 -0.000001 -0.365517
  9   9.514223 -0.009357 0.000000 0.295262 0.020899 -0.120300
 10   11.752194 -0.001492 0.000000 0.000000 -0.000001 0.239424
 11   -2.131323 0.445615 2.649731 -2.463185 -1.347428 5.376802
 12   4.640941 0.000000 0.000000 -0.331617 0.476896 -0.758119
 13   10.828045 0.000000 0.000000 0.000000 0.000000 -1.237925
 14   9.393338 -0.000001 0.000000 -1.569611 0.000000 0.000037
 15   1.442243 0.107453 -1.746178 1.866923 0.229889 0.676994
 16   1.063450 0.000000 -0.000001 0.000000 0.000000 0.235609
 17   1.376307 -0.000001 0.000001 0.000000 0.000000 0.235614
 18   4.172845 -0.251366 -1.312745 0.081348 0.051149 1.075363
 19   1.215373 0.000001 -0.000001 0.000000 0.000000 1.020980
 20   1.215371 -0.000002 0.000000 0.000000 0.000000 1.020980
 21   4.220532 -0.244855 -0.431465 0.021755 0.014725 1.073521
 22   1.350417 0.000000 0.000001 0.000000 0.000000 1.020996
 23   1.350409 0.000000 -0.000001 0.000000 0.000000 1.020996
 24   -2.131323 0.445628 -2.649724 -0.088044 1.370038 2.815040
 25   4.640942 0.000000 0.000000 0.412001 0.452972 -0.788648
 26   10.828048 0.000000 0.000001 0.000000 0.000000 -1.185572
 27   9.393336 -0.000001 0.000000 1.569611 0.252913 0.000001
 28   1.442244 0.107454 1.746178 -1.866873 -0.229907 0.676989
 29   1.063451 -0.000001 0.000000 0.000000 0.000000 0.235609
 30   1.376307 -0.000001 0.000000 0.000000 0.000000 0.235618
 31   4.172846 -0.251365 1.312745 -0.081348 -0.051149 1.075363
 32   1.215374 0.000001 -0.000001 0.000000 0.000000 1.020982
 33   1.215373 0.000000 0.000001 0.000000 0.000000 1.020982
 34   4.220533 -0.244853 0.431466 -0.021755 -0.014725 1.073521
 35   1.350415 -0.000001 -0.000001 0.000000 0.000000 1.020982
 36   1.350410 -0.000001 0.000001 0.000000 0.000000 1.020980
 37   2.110541 -0.000001 0.000000 -0.307467 -0.014191 -0.269362
 38   0.891923 2.373050 -0.014527 -3.141592 -0.000001 1.413797
 39   7.228119 5.709445 3.726568 3.140796 -1.570796 0.000000
 40   2.450426 5.076127 0.001325 3.140791 -1.570796 0.000000
 41   6.312405 -4.528058 0.001311 3.140791 -1.570796 0.000000
 42   2.233309 1.152535 -7.309138 -1.570796 -1.570796 0.000000
 43   4.262825 -0.232720 -1.392178 0.001188 0.078478 0.052453
end
