version 1
nodes
  0 "Bip01" -1
  1 "Bip01 Pelvis" 0
  2 "Bip01 L Thigh" 1
  3 "Bip01 L Calf" 2
  4 "Bip01 L Foot" 3
  5 "Bip01 R Thigh" 1
  6 "Bip01 R Calf" 5
  7 "Bip01 R Foot" 6
  8 "Bip01 Spine" 1
  9 "Bip01 Spine1" 8
 10 "Bip01 Neck" 9
 11 "Bip01 L Clavicle" 10
 12 "Bip01 L UpperArm" 11
 13 "Bip01 L Forearm" 12
 14 "Bip01 L Hand" 13
 15 "Bip01 L Finger0" 14
 16 "Bip01 L Finger01" 15
 17 "Bip01 L Finger02" 16
 18 "Bip01 L Finger1" 14
 19 "Bip01 L Finger11" 18
 20 "Bip01 L Finger12" 19
 21 "Bip01 L Finger2" 14
 22 "Bip01 L Finger21" 21
 23 "Bip01 L Finger22" 22
 24 "Bip01 R Clavicle" 10
 25 "Bip01 R UpperArm" 24
 26 "Bip01 R Forearm" 25
 27 "Bip01 R Hand" 26
 28 "Bip01 R Finger0" 27
 29 "Bip01 R Finger01" 28
 30 "Bip01 R Finger02" 29
 31 "Bip01 R Finger1" 27
 32 "Bip01 R Finger11" 31
 33 "Bip01 R Finger12" 32
 34 "Bip01 R Finger2" 27
 35 "Bip01 R Finger21" 34
 36 "Bip01 R Finger22" 35
 37 "Bip01 Head" 10
 38 "Bone05" 37
 39 "Bone08" 9
 40 "Bone16" 8
 41 "Bone01" 8
 42 "Bone03" 1
 43 "Bip01 R Finger4" 27
end
skeleton
time 0
  0   1.270535 12.615664 33.988457 0.018216 0.103036 -1.526260
  1   -1.675505 -1.496139 0.000000 -0.000030 -1.618366 -1.570772
  2   -0.000007 0.000008 4.427393 -0.121406 -3.058202 -0.622646
  3   18.465939 0.000000 0.000000 0.000000 0.000000 -1.195516
  4   14.875443 0.000000 0.000000 0.172764 0.026164 0.658093
  5   0.000006 -0.000004 -4.427393 0.101224 3.055925 -0.861802
  6   18.465939 0.000000 0.000000 0.000000 0.000000 -0.913913
  7   14.875442 0.000000 0.000000 0.159343 0.021194 0.147562
  8   2.255207 -0.007574 -0.105469 0.125477 -0.041263 0.104856
  9   9.514223 -0.009357 0.000000 -0.016658 -0.124562 0.095274
 10   11.752194 -0.001492 0.000000 0.000024 0.043599 0.701629
 11   -1.826627 1.347987 2.575510 -0.994600 -1.127391 3.398804
 12   4.640941 0.000000 0.000000 -0.383269 0.467154 -0.950475
 13   10.828045 0.000000 0.000000 0.000000 0.000000 -0.653672
 14   9.393338 -0.000001 0.000000 -1.569611 0.034195 0.000037
 15   1.442243 0.107453 -1.746178 1.686435 0.539209 0.325885
 16   1.063450 0.000000 -0.000001 0.000000 0.000000 0.199056
 17   1.376307 -0.000001 0.000001 0.000000 0.000000 0.199049
 18   4.172845 -0.251366 -1.312745 0.008050 0.095731 0.148659
 19   1.215373 0.000001 -0.000001 0.000000 0.000000 0.645758
 20   1.215371 -0.000002 0.000000 0.000000 0.000000 0.645758
 21   4.220532 -0.244855 -0.431465 0.001333 0.026242 0.148339
 22   1.350417 0.000000 0.000001 0.000000 0.000000 0.863926
 23   1.350409 0.000000 -0.000001 0.000000 0.000000 0.863926
 24   -1.596151 1.348000 -2.720039 1.026198 1.337568 3.445940
 25   4.640942 0.000000 0.000000 0.680938 -0.791662 -0.981341
 26   10.828048 0.000000 0.000001 0.000000 0.000000 -0.848719
 27   9.393336 -0.000001 0.000000 1.569611 -0.034192 0.000001
 28   1.442244 0.107454 1.746178 -1.686405 -0.539236 0.325898
 29   1.063451 -0.000001 0.000000 0.000000 0.000000 0.199056
 30   1.376307 -0.000001 0.000000 0.000000 0.000000 0.199059
 31   4.172846 -0.251365 1.312745 -0.008050 -0.095731 0.148659
 32   1.215374 0.000001 -0.000001 0.000000 0.000000 0.645746
 33   1.215373 0.000000 0.000001 0.000000 0.000000 0.645746
 34   4.220533 -0.244853 0.431466 -0.001333 -0.026242 0.148339
 35   1.350415 -0.000001 -0.000001 0.000000 0.000000 0.863937
 36   1.350410 -0.000001 0.000001 0.000000 0.000000 0.863925
 37   2.110541 -0.000001 0.000000 0.454156 -0.483771 -0.077155
 38   0.891923 2.373050 -0.014527 -3.141592 -0.000001 1.413797
 39   7.228119 5.709445 3.726568 3.140796 -1.570796 0.000000
 40   2.450426 5.076127 0.001325 2.835359 -1.570796 0.000000
 41   6.312405 -4.528058 0.001311 3.140791 -1.570796 0.000000
 42   2.233309 1.152535 -7.309138 -1.192867 -1.605688 -1.241849
 43   4.262825 -0.232720 -1.392178 0.016840 0.076668 0.253759
time 1
  0   0.508792 11.975436 33.941185 0.003643 0.086792 -1.528178
  1   -2.710693 -1.445357 0.000000 -0.000030 -1.636417 -1.570772
  2   -0.000007 0.000008 4.427393 -0.085477 -3.009533 -0.630462
  3   18.465939 0.000000 0.000000 0.000000 0.000000 -1.206628
  4   14.875443 0.000000 0.000000 0.168213 0.001708 0.645136
  5   0.000006 -0.000004 -4.427393 0.131222 3.105191 -0.838125
  6   18.465939 0.000000 0.000000 0.000000 0.000000 -0.874137
  7   14.875442 0.000000 0.000000 0.171697 -0.001724 0.116985
  8   2.255207 -0.007574 -0.148439 0.128810 -0.022448 0.164877
  9   9.514223 -0.009357 0.000000 -0.020897 -0.104993 0.196242
 10   11.752194 -0.001492 0.000000 0.000024 0.043599 0.667110
 11   -1.873503 1.289391 2.571604 -1.091305 -1.039255 3.518474
 12   4.640941 0.000000 0.000000 -0.415614 0.528849 -0.988114
 13   10.828045 0.000000 0.000000 0.000000 0.000000 -0.743177
 14   9.393338 -0.000001 0.000000 -1.573757 0.032017 -0.000159
 15   1.442243 0.107453 -1.746178 1.692643 0.551754 0.343659
 16   1.063450 0.000000 -0.000001 0.000000 0.000000 0.201021
 17   1.376307 -0.000001 0.000001 0.000000 0.000000 0.201022
 18   4.172845 -0.251366 -1.312745 0.008781 0.095671 0.156393
 19   1.215373 0.000001 -0.000001 0.000000 0.000000 0.697412
 20   1.215371 -0.000002 0.000000 0.000000 0.000000 0.697412
 21   4.220532 -0.244855 -0.431465 0.001537 0.026230 0.156026
 22   1.350417 0.000000 0.000001 0.000000 0.000000 0.933027
 23   1.350409 0.000000 -0.000001 0.000000 0.000000 0.933027
 24   -1.643027 1.289404 -2.720039 1.183008 1.185444 3.616100
 25   4.640942 0.000000 0.000000 0.615964 -0.788036 -1.087311
 26   10.828048 0.000000 0.000001 0.000000 0.000000 -1.128090
 27   9.393336 -0.000001 0.000000 1.569997 -0.048995 0.028128
 28   1.442244 0.107454 1.746178 -1.694587 -0.539405 0.324765
 29   1.063451 -0.000001 0.000000 0.000000 0.000000 0.221167
 30   1.376307 -0.000001 0.000000 0.000000 0.000000 0.221162
 31   4.172846 -0.251365 1.312745 -0.009069 -0.095636 0.159358
 32   1.215374 0.000001 -0.000001 0.000000 0.000000 0.717511
 33   1.215373 0.000000 0.000001 0.000000 0.000000 0.717511
 34   4.220533 -0.244853 0.431466 -0.001608 -0.026230 0.158988
 35   1.350415 -0.000001 -0.000001 0.000000 0.000000 0.959918
 36   1.350410 -0.000001 0.000001 0.000000 0.000000 0.959914
 37   2.110541 -0.000001 0.000000 0.359140 -0.417319 -0.164359
 38   0.891923 2.373050 -0.014527 -3.141592 -0.000001 1.413797
 39   7.228119 5.709445 3.726568 0.366056 -1.562730 2.603593
 40   2.450426 5.076127 0.001325 2.763214 -1.570796 0.000000
 41   6.312405 -4.528058 0.001311 3.140791 -1.570796 0.000000
 42   2.233309 1.152535 -7.309138 -1.200728 -1.554457 -1.215328
 43   4.262825 -0.232720 -1.392178 0.018542 0.076273 0.276126
time 2
  0   -0.249043 11.068446 33.799374 -0.027228 0.054210 -1.557420
  1   -3.898229 -1.339885 0.000000 -0.000030 -1.653907 -1.570772
  2   -0.000007 0.000008 4.427393 -0.043033 -2.949408 -0.626459
  3   18.465939 0.000000 0.000000 0.000000 0.000000 -1.240477
  4   14.875443 0.000000 0.000000 0.138563 -0.020108 0.653708
  5   0.000006 -0.000004 -4.427393 0.164767 3.173589 -0.805931
  6   18.465939 0.000000 0.000000 0.000000 0.000000 -0.838431
  7   14.875442 0.000000 0.000000 0.165134 -0.025854 0.085546
  8   2.251301 -0.007574 -0.187503 0.134843 -0.002574 0.234725
  9   9.514223 -0.009357 0.000000 -0.022923 -0.077562 0.321629
 10   11.752194 -0.001492 0.000000 0.000024 0.043599 0.633537
 11   -1.916473 1.226889 2.571604 -1.098356 -1.028351 3.557725
 12   4.640941 0.000000 0.000000 -0.512523 0.581163 -1.012583
 13   10.828045 0.000000 0.000000 0.000000 0.000000 -0.812914
 14   9.393338 -0.000001 0.000000 -1.574310 0.031750 -0.000207
 15   1.442243 0.107453 -1.746178 1.693434 0.553318 0.345896
 16   1.063450 0.000000 -0.000001 0.000000 0.000000 0.201273
 17   1.376307 -0.000001 0.000001 0.000000 0.000000 0.201270
 18   4.172845 -0.251366 -1.312745 0.008877 0.095660 0.157355
 19   1.215373 0.000001 -0.000001 0.000000 0.000000 0.703864
 20   1.215371 -0.000002 0.000000 0.000000 0.000000 0.703864
 21   4.220532 -0.244855 -0.431465 0.001560 0.026230 0.156987
 22   1.350417 0.000000 0.000001 0.000000 0.000000 0.941685
 23   1.350409 0.000000 -0.000001 0.000000 0.000000 0.941685
 24   -1.685997 1.226902 -2.723945 1.078499 1.204872 3.544481
 25   4.640942 0.000000 0.000000 0.622216 -0.751005 -1.079122
 26   10.828048 0.000000 0.000001 0.000000 0.000000 -1.323747
 27   9.393336 -0.000001 0.000000 1.569832 -0.041577 0.014064
 28   1.442244 0.107454 1.746178 -1.690496 -0.539292 0.325332
 29   1.063451 -0.000001 0.000000 0.000000 0.000000 0.210117
 30   1.376307 -0.000001 0.000000 0.000000 0.000000 0.210099
 31   4.172846 -0.251365 1.312745 -0.008553 -0.095683 0.154029
 32   1.215374 0.000001 -0.000001 0.000000 0.000000 0.681628
 33   1.215373 0.000000 0.000001 0.000000 0.000000 0.681628
 34   4.220533 -0.244853 0.431466 -0.001477 -0.026230 0.153663
 35   1.350415 -0.000001 -0.000001 0.000000 0.000000 0.911907
 36   1.350410 -0.000001 0.000001 0.000000 0.000000 0.911919
 37   2.110541 -0.000001 0.000000 0.256668 -0.346147 -0.301616
 38   0.891923 2.373050 -0.014527 -3.141592 -0.000001 1.413797
 39   7.228119 5.709445 3.726568 0.268224 -1.546735 2.505572
 40   2.450426 5.076127 0.001325 2.673428 -1.570796 0.000000
 41   6.312405 -4.528058 0.001311 3.140791 -1.570796 0.000000
 42   2.233309 1.152535 -7.309138 -1.180403 -1.489742 -1.218296
 43   4.262825 -0.232720 -1.392178 0.017691 0.076477 0.264942
time 3
  0   -0.960002 9.779098 33.421211 -0.050142 0.029054 -1.585225
  1   -4.964668 -1.199255 0.000000 -0.000030 -1.669816 -1.570772
  2   -0.000007 0.000008 4.427393 -0.006720 -2.899508 -0.620740
  3   18.465939 0.000000 0.000000 0.000000 0.000000 -1.299182
  4   14.875443 0.000000 0.000000 0.109410 -0.040924 0.697399
  5   0.000006 -0.000004 -4.427393 0.191507 3.226203 -0.801720
  6   18.465939 0.000000 0.000000 0.000000 0.000000 -0.874596
  7   14.875442 0.000000 0.000000 0.155623 -0.044770 0.106293
  8   2.247394 -0.007574 -0.222660 0.142986 0.016260 0.303713
  9   9.518129 -0.009357 0.000000 -0.020672 -0.047497 0.439201
 10   11.752194 -0.001492 0.000000 0.000024 0.043599 0.599689
 11   -1.955537 1.168294 2.567697 -1.058149 -1.068541 3.557247
 12   4.640941 0.000000 0.000000 -0.634637 0.623087 -1.026222
 13   10.828045 0.000000 0.000000 0.000000 0.000000 -0.865995
 14   9.393338 -0.000001 0.000000 -1.572744 0.032552 -0.000110
 15   1.442243 0.107453 -1.746178 1.691061 0.548640 0.339185
 16   1.063450 0.000000 -0.000001 0.000000 0.000000 0.200530
 17   1.376307 -0.000001 0.000001 0.000000 0.000000 0.200525
 18   4.172845 -0.251366 -1.312745 0.008601 0.095683 0.154429
 19   1.215373 0.000001 -0.000001 0.000000 0.000000 0.684509
 20   1.215371 -0.000002 0.000000 0.000000 0.000000 0.684509
 21   4.220532 -0.244855 -0.431465 0.001477 0.026230 0.154104
 22   1.350417 0.000000 0.000001 0.000000 0.000000 0.915752
 23   1.350409 0.000000 -0.000001 0.000000 0.000000 0.915752
 24   -1.725061 1.164400 -2.723945 0.975378 1.242336 3.480211
 25   4.640942 0.000000 0.000000 0.692683 -0.681823 -1.084022
 26   10.828048 0.000000 0.000001 0.000000 0.000000 -1.366247
 27   9.393336 -0.000001 0.000000 1.569611 -0.034192 0.000001
 28   1.442244 0.107454 1.746178 -1.686405 -0.539236 0.325898
 29   1.063451 -0.000001 0.000000 0.000000 0.000000 0.199056
 30   1.376307 -0.000001 0.000000 0.000000 0.000000 0.199059
 31   4.172846 -0.251365 1.312745 -0.008050 -0.095731 0.148659
 32   1.215374 0.000001 -0.000001 0.000000 0.000000 0.645746
 33   1.215373 0.000000 0.000001 0.000000 0.000000 0.645746
 34   4.220533 -0.244853 0.431466 -0.001333 -0.026242 0.148339
 35   1.350415 -0.000001 -0.000001 0.000000 0.000000 0.863937
 36   1.350410 -0.000001 0.000001 0.000000 0.000000 0.863925
 37   2.110541 -0.000001 0.000000 0.157435 -0.271908 -0.448997
 38   0.891923 2.373050 -0.014527 -3.141592 -0.000001 1.413797
 39   7.228119 5.709445 3.726568 0.176470 -1.535062 2.413751
 40   2.450426 5.076127 0.001325 2.571178 -1.570796 0.000000
 41   6.312405 -4.528058 0.001311 3.140791 -1.570796 0.000000
 42   2.233309 1.152535 -7.309138 -1.179636 -1.427997 -1.218967
 43   4.262825 -0.232720 -1.392178 0.016840 0.076668 0.253759
time 4
  0   -1.585022 7.974010 32.523075 -0.043143 0.037409 -1.584745
  1   -5.726410 -1.050813 0.000000 -0.000030 -1.683139 -1.570772
  2   -0.000007 0.000008 4.427393 0.013783 -2.876310 -0.626649
  3   18.465939 0.000000 0.000000 0.000000 0.000000 -1.380624
  4   14.875443 0.000000 0.000000 0.106672 -0.065784 0.782410
  5   0.000006 -0.000004 -4.427393 0.206650 3.233665 -0.852818
  6   18.465939 0.000000 0.000000 0.000000 0.000000 -1.025495
  7   14.875442 0.000000 0.000000 0.160712 -0.057593 0.216407
  8   2.247394 -0.007574 -0.253911 0.151763 0.032443 0.361186
  9   9.518129 -0.009357 0.000000 -0.015120 -0.020106 0.517070
 10   11.752194 -0.001492 0.000000 0.000024 0.043599 0.564341
 11   -1.990694 1.101886 2.567697 -0.988598 -1.131017 3.531877
 12   4.640941 0.000000 0.000000 -0.738189 0.659815 -1.014398
 13   10.828045 0.000000 0.000000 0.000000 0.000000 -0.905409
 14   9.393338 -0.000001 0.000000 -1.570624 0.033660 -0.000012
 15   1.442243 0.107453 -1.746178 1.687957 0.542361 0.330318
 16   1.063450 0.000000 -0.000001 0.000000 0.000000 0.199547
 17   1.376307 -0.000001 0.000001 0.000000 0.000000 0.199545
 18   4.172845 -0.251366 -1.312745 0.008230 0.095719 0.150583
 19   1.215373 0.000001 -0.000001 0.000000 0.000000 0.658661
 20   1.215371 -0.000002 0.000000 0.000000 0.000000 0.658661
 21   4.220532 -0.244855 -0.431465 0.001381 0.026242 0.150260
 22   1.350417 0.000000 0.000001 0.000000 0.000000 0.881201
 23   1.350409 0.000000 -0.000001 0.000000 0.000000 0.881201
 24   -1.764125 1.101898 -2.727851 1.011387 1.267573 3.556531
 25   4.640942 0.000000 0.000000 0.827193 -0.613688 -1.135747
 26   10.828048 0.000000 0.000001 0.000000 0.000000 -1.139921
 27   9.393336 -0.000001 0.000000 1.569611 -0.034192 0.000001
 28   1.442244 0.107454 1.746178 -1.686405 -0.539236 0.325898
 29   1.063451 -0.000001 0.000000 0.000000 0.000000 0.199056
 30   1.376307 -0.000001 0.000000 0.000000 0.000000 0.199059
 31   4.172846 -0.251365 1.312745 -0.008050 -0.095731 0.148659
 32   1.215374 0.000001 -0.000001 0.000000 0.000000 0.645746
 33   1.215373 0.000000 0.000001 0.000000 0.000000 0.645746
 34   4.220533 -0.244853 0.431466 -0.001333 -0.026242 0.148339
 35   1.350415 -0.000001 -0.000001 0.000000 0.000000 0.863937
 36   1.350410 -0.000001 0.000001 0.000000 0.000000 0.863925
 37   2.110541 -0.000001 0.000000 0.067149 -0.193189 -0.562052
 38   0.891923 2.373050 -0.014527 -3.141592 -0.000001 1.413797
 39   7.228119 5.709445 3.726568 0.109317 -1.539439 2.346563
 40   2.450426 5.076127 0.001325 2.461293 -1.570796 0.000000
 41   6.312405 -4.528058 0.001311 3.140791 -1.570796 0.000000
 42   2.233309 1.152535 -7.309138 -1.180882 -1.431288 -1.221264
 43   4.262825 -0.232720 -1.392178 0.016840 0.076668 0.253759
time 5
  0   -2.077224 5.528695 30.789831 0.018216 0.103036 -1.526260
  1   -6.058451 -0.917997 0.000000 -0.000030 -1.692897 -1.570772
  2   -0.000007 0.000008 4.427393 0.014262 -2.890134 -0.654481
  3   18.465939 0.000000 0.000000 0.000000 0.000000 -1.471277
  4   14.875443 0.000000 0.000000 0.155023 -0.110118 0.904910
  5   0.000006 -0.000004 -4.427393 0.197545 3.179233 -0.959039
  6   18.465939 0.000000 0.000000 0.000000 0.000000 -1.282987
  7   14.875442 0.000000 0.000000 0.198194 -0.070537 0.429620
  8   2.243488 -0.007574 -0.273443 0.158766 0.044756 0.396491
  9   9.518129 -0.009357 0.000000 -0.009604 -0.000188 0.523284
 10   11.752194 -0.001492 0.000000 0.000024 0.043599 0.526192
 11   -2.033664 1.027664 2.563791 -0.917998 -1.188506 3.507369
 12   4.640941 0.000000 0.000000 -0.776555 0.707728 -0.952406
 13   10.828045 0.000000 0.000000 0.000000 0.000000 -0.934267
 14   9.393338 -0.000001 0.000000 -1.569611 0.034195 0.000037
 15   1.442243 0.107453 -1.746178 1.686435 0.539209 0.325885
 16   1.063450 0.000000 -0.000001 0.000000 0.000000 0.199056
 17   1.376307 -0.000001 0.000001 0.000000 0.000000 0.199049
 18   4.172845 -0.251366 -1.312745 0.008050 0.095731 0.148659
 19   1.215373 0.000001 -0.000001 0.000000 0.000000 0.645758
 20   1.215371 -0.000002 0.000000 0.000000 0.000000 0.645758
 21   4.220532 -0.244855 -0.431465 0.001333 0.026242 0.148339
 22   1.350417 0.000000 0.000001 0.000000 0.000000 0.863926
 23   1.350409 0.000000 -0.000001 0.000000 0.000000 0.863926
 24   -1.807095 1.027678 -2.727851 1.080258 1.314357 3.671823
 25   4.640942 0.000000 0.000000 0.960014 -0.584049 -1.141836
 26   10.828048 0.000000 0.000001 0.000000 0.000000 -0.760567
 27   9.393336 -0.000001 0.000000 1.569611 -0.034192 0.000001
 28   1.442244 0.107454 1.746178 -1.686405 -0.539236 0.325898
 29   1.063451 -0.000001 0.000000 0.000000 0.000000 0.199056
 30   1.376307 -0.000001 0.000000 0.000000 0.000000 0.199059
 31   4.172846 -0.251365 1.312745 -0.008050 -0.095731 0.148659
 32   1.215374 0.000001 -0.000001 0.000000 0.000000 0.645746
 33   1.215373 0.000000 0.000001 0.000000 0.000000 0.645746
 34   4.220533 -0.244853 0.431466 -0.001333 -0.026242 0.148339
 35   1.350415 -0.000001 -0.000001 0.000000 0.000000 0.863937
 36   1.350410 -0.000001 0.000001 0.000000 0.000000 0.863925
 37   2.110541 -0.000001 0.000000 -0.013779 -0.106592 -0.593223
 38   0.891923 2.373050 -0.014527 -3.141592 -0.000001 1.413797
 39   7.228119 5.709445 3.726568 2.407812 -1.570796 0.000000
 40   2.450426 5.076127 0.001325 2.275577 -1.570796 0.000000
 41   6.312405 -4.528058 0.001311 3.140791 -1.570796 0.000000
 42   2.233309 1.152535 -7.309138 -1.274071 -1.486188 -1.246923
 43   4.262825 -0.232720 -1.392178 0.016840 0.076668 0.253759
time 6
  0   -2.432704 2.220850 28.284506 0.142468 0.211827 -1.401525
  1   -5.249833 -0.769555 0.000000 -0.000030 -1.698746 -1.570772
  2   -0.000007 0.000008 4.427393 0.014933 -2.882938 -0.633417
  3   18.465939 0.000000 0.000000 0.000000 0.000000 -1.567779
  4   14.875443 0.000000 0.000000 0.206005 -0.151601 1.028240
  5   0.000006 -0.000004 -4.427393 0.149816 3.093807 -1.039055
  6   18.465939 0.000000 0.000000 0.000000 0.000000 -1.608216
  7   14.875442 0.000000 0.000000 0.273651 -0.092060 0.784724
  8   2.239582 -0.007574 -0.285162 0.159948 0.056186 0.375314
  9   9.514223 -0.009357 0.000000 -0.008141 0.007755 0.304505
 10   11.752194 -0.001492 0.000000 0.000024 0.043599 0.484098
 11   -2.072728 0.945631 2.563791 -0.768129 -1.286690 3.411633
 12   4.640941 0.000000 0.000000 -0.579633 0.807522 -0.635014
 13   10.828045 0.000000 0.000000 0.000000 0.000000 -0.919746
 14   9.393338 -0.000001 0.000000 -1.569611 0.034195 0.000037
 15   1.442243 0.107453 -1.746178 1.686435 0.539209 0.325885
 16   1.063450 0.000000 -0.000001 0.000000 0.000000 0.199056
 17   1.376307 -0.000001 0.000001 0.000000 0.000000 0.199049
 18   4.172845 -0.251366 -1.312745 0.008050 0.095731 0.148659
 19   1.215373 0.000001 -0.000001 0.000000 0.000000 0.645758
 20   1.215371 -0.000002 0.000000 0.000000 0.000000 0.645758
 21   4.220532 -0.244855 -0.431465 0.001333 0.026242 0.148339
 22   1.350417 0.000000 0.000001 0.000000 0.000000 0.863926
 23   1.350409 0.000000 -0.000001 0.000000 0.000000 0.863926
 24   -1.846159 0.945644 -2.731758 1.113953 1.348068 3.752416
 25   4.640942 0.000000 0.000000 0.860483 -0.724085 -0.939625
 26   10.828048 0.000000 0.000001 0.000000 0.000000 -0.506079
 27   9.393336 -0.000001 0.000000 1.569611 -0.034192 0.000001
 28   1.442244 0.107454 1.746178 -1.686405 -0.539236 0.325898
 29   1.063451 -0.000001 0.000000 0.000000 0.000000 0.199056
 30   1.376307 -0.000001 0.000000 0.000000 0.000000 0.199059
 31   4.172846 -0.251365 1.312745 -0.008050 -0.095731 0.148659
 32   1.215374 0.000001 -0.000001 0.000000 0.000000 0.645746
 33   1.215373 0.000000 0.000001 0.000000 0.000000 0.645746
 34   4.220533 -0.244853 0.431466 -0.001333 -0.026242 0.148339
 35   1.350415 -0.000001 -0.000001 0.000000 0.000000 0.863937
 36   1.350410 -0.000001 0.000001 0.000000 0.000000 0.863925
 37   2.110541 -0.000001 0.000000 -0.094040 -0.010974 -0.349739
 38   0.891923 2.373050 -0.014527 -3.141592 -0.000001 1.413797
 39   7.228119 5.709445 3.726568 3.410928 -1.471275 -0.807868
 40   2.450426 5.076127 0.001325 2.315335 -1.570796 0.000000
 41   6.312405 -4.528058 0.001311 3.140791 -1.570796 0.000000
 42   2.233309 1.152535 -7.309138 -3.044836 -1.566078 0.459554
 43   4.262825 -0.232720 -1.392178 0.016840 0.076668 0.253759
time 7
  0   -2.690525 -1.922848 25.684639 0.319739 0.322475 -1.223674
  1   -3.206802 -0.546892 0.000000 -0.000030 -1.701491 -1.570772
  2   -0.000007 0.000008 4.427393 0.011196 -2.811639 -0.442215
  3   18.465939 0.000000 0.000000 0.000000 0.000000 -1.577210
  4   14.875443 0.000000 0.000000 0.234411 -0.135255 0.831790
  5   0.000006 -0.000004 -4.427393 0.247765 3.250693 -0.911216
  6   18.465939 0.000000 0.000000 0.000000 0.000000 -1.755176
  7   14.875442 0.000000 0.000000 0.179769 -0.276399 1.225030
  8   2.239582 -0.007574 -0.292975 0.155307 0.067675 0.307617
  9   9.514223 -0.009357 0.000000 -0.009342 0.006290 -0.072803
 10   11.752194 -0.001492 0.000000 0.000024 0.043599 0.436796
 11   -2.115698 0.855784 2.559885 -0.310995 -1.401014 3.012510
 12   4.640941 0.000000 0.000000 -0.152078 0.829530 -0.102554
 13   10.828045 0.000000 0.000000 0.000000 0.000000 -0.870265
 14   9.393338 -0.000001 0.000000 -1.569611 0.034195 0.000037
 15   1.442243 0.107453 -1.746178 1.686435 0.539209 0.325885
 16   1.063450 0.000000 -0.000001 0.000000 0.000000 0.199056
 17   1.376307 -0.000001 0.000001 0.000000 0.000000 0.199049
 18   4.172845 -0.251366 -1.312745 0.008050 0.095731 0.148659
 19   1.215373 0.000001 -0.000001 0.000000 0.000000 0.645758
 20   1.215371 -0.000002 0.000000 0.000000 0.000000 0.645758
 21   4.220532 -0.244855 -0.431465 0.001333 0.026242 0.148339
 22   1.350417 0.000000 0.000001 0.000000 0.000000 0.863926
 23   1.350409 0.000000 -0.000001 0.000000 0.000000 0.863926
 24   -1.889129 0.855797 -2.731758 1.005833 1.357207 3.691907
 25   4.640942 0.000000 0.000000 0.438954 -0.817257 -0.377786
 26   10.828048 0.000000 0.000001 0.000000 0.000000 -0.510001
 27   9.393336 -0.000001 0.000000 1.569611 -0.034192 0.000001
 28   1.442244 0.107454 1.746178 -1.686405 -0.539236 0.325898
 29   1.063451 -0.000001 0.000000 0.000000 0.000000 0.199056
 30   1.376307 -0.000001 0.000000 0.000000 0.000000 0.199059
 31   4.172846 -0.251365 1.312745 -0.008050 -0.095731 0.148659
 32   1.215374 0.000001 -0.000001 0.000000 0.000000 0.645746
 33   1.215373 0.000000 0.000001 0.000000 0.000000 0.645746
 34   4.220533 -0.244853 0.431466 -0.001333 -0.026242 0.148339
 35   1.350415 -0.000001 -0.000001 0.000000 0.000000 0.863937
 36   1.350410 -0.000001 0.000001 0.000000 0.000000 0.863925
 37   2.110541 -0.000001 0.000000 -0.175379 0.097152 0.094475
 38   0.891923 2.373050 -0.014527 -3.141592 -0.000001 1.413797
 39   7.228119 5.709445 3.726568 3.575913 -1.321704 -0.603501
 40   2.450426 5.076127 0.001325 2.435753 -1.570796 0.000000
 41   6.312405 -4.528058 0.001311 3.140791 -1.570796 0.000000
 42   2.233309 1.152535 -7.309138 -1.242816 -1.422492 -1.246348
 43   4.262825 -0.232720 -1.392178 0.016840 0.076668 0.253759
time 8
  0   -2.874124 -6.671207 22.879934 0.552041 0.406389 -0.990789
  1   -1.624722 -0.382824 0.000000 -0.000030 -1.701836 -1.570772
  2   -0.000007 0.000008 4.427393 -0.013715 -2.747726 -0.234524
  3   18.465939 0.000000 0.000000 0.000000 0.000000 -1.527131
  4   14.875443 0.000000 0.000000 0.269537 -0.069615 0.440231
  5   0.000006 -0.000004 -4.427393 0.253612 3.330475 -0.697839
  6   18.465939 0.000000 0.000000 0.000000 0.000000 -2.008861
  7   14.875442 0.000000 0.000000 0.151095 -0.030643 1.148832
  8   2.239582 -0.007574 -0.292975 0.149990 0.075217 0.248754
  9   9.514223 -0.009357 0.000000 -0.009492 0.003817 -0.311325
 10   11.752194 -0.001492 0.000000 0.000024 0.043599 0.383025
 11   -2.158668 0.746406 2.559885 0.171102 -1.432995 2.586964
 12   4.640941 0.000000 0.000000 0.048818 0.728798 0.124222
 13   10.828045 0.000000 0.000000 0.000000 0.000000 -0.850375
 14   9.393338 -0.000001 0.000000 -1.569611 0.034195 0.000037
 15   1.442243 0.107453 -1.746178 1.686435 0.539209 0.325885
 16   1.063450 0.000000 -0.000001 0.000000 0.000000 0.199056
 17   1.376307 -0.000001 0.000001 0.000000 0.000000 0.199049
 18   4.172845 -0.251366 -1.312745 0.008050 0.095731 0.148659
 19   1.215373 0.000001 -0.000001 0.000000 0.000000 0.645758
 20   1.215371 -0.000002 0.000000 0.000000 0.000000 0.645758
 21   4.220532 -0.244855 -0.431465 0.001333 0.026242 0.148339
 22   1.350417 0.000000 0.000001 0.000000 0.000000 0.863926
 23   1.350409 0.000000 -0.000001 0.000000 0.000000 0.863926
 24   -1.932099 0.746419 -2.735664 0.838563 1.348462 3.576957
 25   4.640942 0.000000 0.000000 0.254171 -0.642211 -0.018998
 26   10.828048 0.000000 0.000001 0.000000 0.000000 -0.638788
 27   9.393336 -0.000001 0.000000 1.569611 -0.034192 0.000001
 28   1.442244 0.107454 1.746178 -1.686405 -0.539236 0.325898
 29   1.063451 -0.000001 0.000000 0.000000 0.000000 0.199056
 30   1.376307 -0.000001 0.000000 0.000000 0.000000 0.199059
 31   4.172846 -0.251365 1.312745 -0.008050 -0.095731 0.148659
 32   1.215374 0.000001 -0.000001 0.000000 0.000000 0.645746
 33   1.215373 0.000000 0.000001 0.000000 0.000000 0.645746
 34   4.220533 -0.244853 0.431466 -0.001333 -0.026242 0.148339
 35   1.350415 -0.000001 -0.000001 0.000000 0.000000 0.863937
 36   1.350410 -0.000001 0.000001 0.000000 0.000000 0.863925
 37   2.110541 -0.000001 0.000000 -0.241603 0.210360 0.392109
 38   0.891923 2.373050 -0.014527 -3.141592 -0.000001 1.413797
 39   7.228119 5.709445 3.726568 3.627869 -1.195149 -0.417992
 40   2.450426 5.076127 0.001325 2.734251 -1.570796 0.000000
 41   6.312405 -4.528058 0.001311 3.140791 -1.570796 0.000000
 42   2.233309 1.152535 -7.309138 -1.101021 -1.331157 -1.142757
 43   4.262825 -0.232720 -1.392178 0.016840 0.076668 0.253759
time 9
  0   -3.003035 -11.757463 18.688635 0.825282 0.435165 -0.716965
  1   -3.847446 -0.667989 0.000000 -0.000030 -1.700529 -1.570772
  2   -0.000007 0.000008 4.427393 -0.050123 -2.768652 -0.148455
  3   18.465939 0.000000 0.000000 0.000000 0.000000 -1.266357
  4   14.875443 0.000000 0.000000 0.251049 -0.061952 0.284193
  5   0.000006 -0.000004 -4.427393 0.213646 3.363287 -0.493352
  6   18.465939 0.000000 0.000000 0.000000 0.000000 -1.690392
  7   14.875442 0.000000 0.000000 0.055002 0.075698 0.139083
  8   2.239582 -0.007574 -0.289068 0.150075 0.072919 0.253188
  9   9.514223 -0.009357 0.000000 -0.008667 0.001075 0.243327
 10   11.752194 -0.001492 0.000000 0.000024 0.043599 0.300928
 11   -2.213357 0.578432 2.555978 -0.582150 -1.375934 3.417473
 12   4.640941 0.000000 0.000000 -0.759545 0.364186 -0.508807
 13   10.828045 0.000000 0.000000 0.000000 0.000000 -0.896806
 14   9.393338 -0.000001 0.000000 -1.569703 0.037099 -0.000452
 15   1.442243 0.107453 -1.746178 1.686435 0.539209 0.325885
 16   1.063450 0.000000 -0.000001 0.000000 0.000000 0.199056
 17   1.376307 -0.000001 0.000001 0.000000 0.000000 0.199049
 18   4.172845 -0.251366 -1.312745 0.008050 0.095731 0.148659
 19   1.215373 0.000001 -0.000001 0.000000 0.000000 0.645758
 20   1.215371 -0.000002 0.000000 0.000000 0.000000 0.645758
 21   4.220532 -0.244855 -0.431465 0.001333 0.026242 0.148339
 22   1.350417 0.000000 0.000001 0.000000 0.000000 0.863926
 23   1.350409 0.000000 -0.000001 0.000000 0.000000 0.863926
 24   -1.982881 0.578445 -2.735664 0.770247 1.328913 3.588153
 25   4.640942 0.000000 0.000000 0.979786 -0.429647 -0.489496
 26   10.828048 0.000000 0.000001 0.000000 0.000000 -0.770148
 27   9.393336 -0.000001 0.000000 1.569611 -0.034192 0.000001
 28   1.442244 0.107454 1.746178 -1.686405 -0.539236 0.325898
 29   1.063451 -0.000001 0.000000 0.000000 0.000000 0.199056
 30   1.376307 -0.000001 0.000000 0.000000 0.000000 0.199059
 31   4.172846 -0.251365 1.312745 -0.008050 -0.095731 0.148659
 32   1.215374 0.000001 -0.000001 0.000000 0.000000 0.645746
 33   1.215373 0.000000 0.000001 0.000000 0.000000 0.645746
 34   4.220533 -0.244853 0.431466 -0.001333 -0.026242 0.148339
 35   1.350415 -0.000001 -0.000001 0.000000 0.000000 0.863937
 36   1.350410 -0.000001 0.000001 0.000000 0.000000 0.863925
 37   2.110541 -0.000001 0.000000 -0.231114 0.345819 -0.131540
 38   0.891923 2.373050 -0.014527 -3.141592 -0.000001 1.413797
 39   7.228119 5.709445 3.726568 3.532031 -1.060940 -0.298311
 40   2.450426 5.076127 0.001325 2.874416 -1.570796 0.000000
 41   6.312405 -4.528058 0.001311 3.140791 -1.570796 0.000000
 42   2.233309 1.152535 -7.309138 -1.037457 -1.272092 -1.087036
 43   4.262825 -0.232720 -1.392178 0.016840 0.076668 0.253759
time 10
  0   -3.100694 -16.950424 15.537281 1.104274 0.393022 -0.437293
  1   -2.968513 -0.457045 0.000000 -0.000030 -1.698272 -1.570772
  2   -0.000007 0.000008 4.427393 -0.083178 -2.798951 -0.081354
  3   18.465939 0.000000 0.000000 0.000000 0.000000 -0.984675
  4   14.875443 0.000000 0.000000 0.236580 -0.007210 -0.060436
  5   0.000006 -0.000004 -4.427393 0.118092 3.384429 -0.139126
  6   18.465939 0.000000 0.000000 0.000000 0.000000 -1.203567
  7   14.875442 0.000000 0.000000 -0.039267 0.090946 -0.150253
  8   2.239582 -0.007574 -0.285162 0.153281 0.084545 0.205608
  9   9.514223 -0.009357 0.000000 -0.005928 0.010201 0.136493
 10   11.752194 -0.001492 0.000000 0.000024 0.043611 0.187547
 11   -2.264140 0.336237 2.555978 -0.938673 -1.225045 3.874707
 12   4.640941 0.000000 0.000000 -0.674617 0.216984 -0.607033
 13   10.828045 0.000000 0.000000 0.000000 0.000000 -1.016878
 14   9.393338 -0.000001 0.000000 -1.569611 0.034195 0.000037
 15   1.442243 0.107453 -1.746178 1.686435 0.539209 0.325885
 16   1.063450 0.000000 -0.000001 0.000000 0.000000 0.199056
 17   1.376307 -0.000001 0.000001 0.000000 0.000000 0.199049
 18   4.172845 -0.251366 -1.312745 0.008050 0.095731 0.148659
 19   1.215373 0.000001 -0.000001 0.000000 0.000000 0.645758
 20   1.215371 -0.000002 0.000000 0.000000 0.000000 0.645758
 21   4.220532 -0.244855 -0.431465 0.001333 0.026242 0.148339
 22   1.350417 0.000000 0.000001 0.000000 0.000000 0.863926
 23   1.350409 0.000000 -0.000001 0.000000 0.000000 0.863926
 24   -2.033664 0.336250 -2.739571 1.068779 1.272324 3.991119
 25   4.640942 0.000000 0.000000 0.294304 -0.325596 -0.976301
 26   10.828048 0.000000 0.000001 0.000000 0.000000 -0.873152
 27   9.393336 -0.000001 0.000000 1.569611 -0.034192 0.000001
 28   1.442244 0.107454 1.746178 -1.686405 -0.539236 0.325898
 29   1.063451 -0.000001 0.000000 0.000000 0.000000 0.199056
 30   1.376307 -0.000001 0.000000 0.000000 0.000000 0.199059
 31   4.172846 -0.251365 1.312745 -0.008050 -0.095731 0.148659
 32   1.215374 0.000001 -0.000001 0.000000 0.000000 0.645746
 33   1.215373 0.000000 0.000001 0.000000 0.000000 0.645746
 34   4.220533 -0.244853 0.431466 -0.001333 -0.026242 0.148339
 35   1.350415 -0.000001 -0.000001 0.000000 0.000000 0.863937
 36   1.350410 -0.000001 0.000001 0.000000 0.000000 0.863925
 37   2.110541 -0.000001 0.000000 -0.228338 0.488073 0.075076
 38   0.891923 2.373050 -0.014527 -3.141592 -0.000001 1.413797
 39   7.228119 5.709445 3.726568 3.419191 -0.887665 -0.232312
 40   2.450426 5.076127 0.001325 2.938574 -1.570796 0.000000
 41   6.312405 -4.528058 0.001311 3.140791 -1.570796 0.000000
 42   2.233309 1.152535 -7.309138 -0.877062 -1.235278 -0.990530
 43   4.262825 -0.232720 -1.392178 0.016840 0.076668 0.253759
time 11
  0   -3.190541 -21.974436 12.622279 1.351437 0.286644 -0.189547
  1   -2.097393 -0.445326 0.000000 -0.000030 -1.695757 -1.570772
  2   -0.000007 0.000008 4.427393 -0.097454 -2.782287 -0.358434
  3   18.465939 0.000000 0.000000 0.000000 0.000000 -1.027150
  4   14.875443 0.000000 0.000000 0.141016 -0.070849 -0.202885
  5   0.000006 -0.000004 -4.427393 0.092886 3.320526 -0.366542
  6   18.465939 0.000000 0.000000 0.000000 0.000000 -1.432441
  7   14.875442 0.000000 0.000000 -0.034774 0.051871 -0.193548
  8   2.239582 -0.007574 -0.281256 0.143535 0.076375 0.193101
  9   9.514223 -0.009357 0.000000 -0.008254 0.005820 -0.050635
 10   11.752194 -0.001492 0.000000 0.000024 0.043611 0.069904
 11   -2.287578 0.082323 2.555978 -0.758697 -1.266670 3.815255
 12   4.640941 0.000000 0.000000 -0.353780 0.443198 -0.313114
 13   10.828045 0.000000 0.000000 0.000000 0.000000 -1.342012
 14   9.393338 -0.000001 0.000000 -1.568045 -0.000611 0.005507
 15   1.442243 0.107453 -1.746178 1.686435 0.539209 0.325885
 16   1.063450 0.000000 -0.000001 0.000000 0.000000 0.199056
 17   1.376307 -0.000001 0.000001 0.000000 0.000000 0.199049
 18   4.172845 -0.251366 -1.312745 0.008050 0.095731 0.148659
 19   1.215373 0.000001 -0.000001 0.000000 0.000000 0.645758
 20   1.215371 -0.000002 0.000000 0.000000 0.000000 0.645758
 21   4.220532 -0.244855 -0.431465 0.001333 0.026242 0.148339
 22   1.350417 0.000000 0.000001 0.000000 0.000000 0.863926
 23   1.350409 0.000000 -0.000001 0.000000 0.000000 0.863926
 24   -2.057102 0.082336 -2.739571 0.840044 1.159117 3.853777
 25   4.640942 0.000000 0.000000 0.302584 -0.450638 -1.086261
 26   10.828048 0.000000 0.000001 0.000000 0.000000 -1.000975
 27   9.393336 -0.000001 0.000000 1.560559 -0.013859 0.138600
 28   1.442244 0.107454 1.746178 -1.686405 -0.539236 0.325898
 29   1.063451 -0.000001 0.000000 0.000000 0.000000 0.199056
 30   1.376307 -0.000001 0.000000 0.000000 0.000000 0.199059
 31   4.172846 -0.251365 1.312745 -0.008050 -0.095731 0.148659
 32   1.215374 0.000001 -0.000001 0.000000 0.000000 0.645746
 33   1.215373 0.000000 0.000001 0.000000 0.000000 0.645746
 34   4.220533 -0.244853 0.431466 -0.001333 -0.026242 0.148339
 35   1.350415 -0.000001 -0.000001 0.000000 0.000000 0.863937
 36   1.350410 -0.000001 0.000001 0.000000 0.000000 0.863925
 37   2.110541 -0.000001 0.000000 -0.171472 0.634025 0.359196
 38   0.891923 2.373050 -0.014527 -3.141592 -0.000001 1.413797
 39   7.228119 5.709445 3.726568 3.309106 -0.736498 -0.216513
 40   2.450426 5.076127 0.001325 2.878892 -1.570796 0.000000
 41   6.312405 -4.528058 0.001311 3.140791 -1.570796 0.000000
 42   2.233309 1.152535 -7.309138 -0.983002 -1.285110 -1.054006
 43   4.262825 -0.232720 -1.392178 0.016840 0.076668 0.253759
time 12
  0   -3.292106 -26.598305 10.542386 1.548937 0.139516 0.008822
  1   -3.421652 -1.449263 0.000000 -0.000030 -1.693731 -1.570772
  2   -0.000007 0.000008 4.427393 -0.132137 -2.766853 -0.615497
  3   18.465939 0.000000 0.000000 0.000000 0.000000 -1.100988
  4   14.875443 0.000000 0.000000 0.005811 -0.127827 -0.236977
  5   0.000006 -0.000004 -4.427393 0.035573 3.246771 -0.606779
  6   18.465939 0.000000 0.000000 0.000000 0.000000 -1.736141
  7   14.875442 0.000000 0.000000 -0.052252 0.000610 -0.156556
  8   2.243488 -0.007574 -0.273443 0.084550 -0.000315 0.328462
  9   9.514223 -0.009357 0.000000 -0.021047 -0.051502 -0.068993
 10   11.752194 -0.001492 0.000000 0.000024 0.043611 -0.057048
 11   -2.279766 -0.195029 2.555978 -0.311948 -1.328894 3.504592
 12   4.640941 0.000000 0.000000 -0.343475 0.546600 -0.204293
 13   10.828045 0.000000 0.000000 0.000000 0.000000 -1.555494
 14   9.393338 -0.000001 0.000000 -1.551737 -0.053375 0.040966
 15   1.442243 0.107453 -1.746178 1.686435 0.539209 0.325885
 16   1.063450 0.000000 -0.000001 0.000000 0.000000 0.199056
 17   1.376307 -0.000001 0.000001 0.000000 0.000000 0.199049
 18   4.172845 -0.251366 -1.312745 0.008050 0.095731 0.148659
 19   1.215373 0.000001 -0.000001 0.000000 0.000000 0.645758
 20   1.215371 -0.000002 0.000000 0.000000 0.000000 0.645758
 21   4.220532 -0.244855 -0.431465 0.001333 0.026242 0.148339
 22   1.350417 0.000000 0.000001 0.000000 0.000000 0.863926
 23   1.350409 0.000000 -0.000001 0.000000 0.000000 0.863926
 24   -2.049290 -0.195016 -2.739571 0.676754 1.016859 3.782073
 25   4.640942 0.000000 0.000000 0.807929 -0.289262 -1.543040
 26   10.828048 0.000000 0.000001 0.000000 0.000000 -0.799017
 27   9.393336 -0.000001 0.000000 1.565416 -0.069165 0.168910
 28   1.442244 0.107454 1.746178 -1.686405 -0.539236 0.325898
 29   1.063451 -0.000001 0.000000 0.000000 0.000000 0.199056
 30   1.376307 -0.000001 0.000000 0.000000 0.000000 0.199059
 31   4.172846 -0.251365 1.312745 -0.008050 -0.095731 0.148659
 32   1.215374 0.000001 -0.000001 0.000000 0.000000 0.645746
 33   1.215373 0.000000 0.000001 0.000000 0.000000 0.645746
 34   4.220533 -0.244853 0.431466 -0.001333 -0.026242 0.148339
 35   1.350415 -0.000001 -0.000001 0.000000 0.000000 0.863937
 36   1.350410 -0.000001 0.000001 0.000000 0.000000 0.863925
 37   2.110541 -0.000001 0.000000 0.124735 0.844264 0.501444
 38   0.891923 2.373050 -0.014527 -3.141592 -0.000001 1.413797
 39   7.228119 5.709445 3.726568 3.206049 -0.668747 -0.223563
 40   2.450426 5.076127 0.001325 2.733110 -1.570796 0.000000
 41   6.312405 -4.528058 0.001311 3.140791 -1.570796 0.000000
 42   2.233309 1.152535 -7.309138 -2.298277 -1.385999 0.093826
 43   4.262825 -0.232720 -1.392178 0.016840 0.076668 0.253759
time 13
  0   -3.428830 -30.564163 9.187304 1.697637 -0.020979 0.158198
  1   -4.878728 -2.289132 0.000000 -0.000030 -1.692897 -1.570772
  2   -0.000007 0.000008 4.427393 -0.183684 -2.792607 -0.785920
  3   18.465939 0.000000 0.000000 0.000000 0.000000 -1.155015
  4   14.875443 0.000000 0.000000 -0.096899 -0.126869 -0.211576
  5   0.000006 -0.000004 -4.427393 -0.018290 3.201427 -0.783096
  6   18.465939 0.000000 0.000000 0.000000 0.000000 -1.966132
  7   14.875442 0.000000 0.000000 -0.076398 -0.049923 -0.112547
  8   2.243488 -0.007574 -0.273443 0.019489 -0.064574 0.468754
  9   9.514223 -0.009357 0.000000 -0.034291 -0.106378 -0.049813
 10   11.752194 -0.001492 0.000000 0.000024 0.043611 -0.170548
 11   -2.244608 -0.441130 2.555978 0.143662 -1.334132 3.170283
 12   4.640941 0.000000 0.000000 -0.367997 0.608367 -0.270792
 13   10.828045 0.000000 0.000000 0.000000 0.000000 -1.662021
 14   9.393338 -0.000001 0.000000 -1.539022 -0.031559 0.072567
 15   1.442243 0.107453 -1.746178 1.686435 0.539209 0.325885
 16   1.063450 0.000000 -0.000001 0.000000 0.000000 0.199056
 17   1.376307 -0.000001 0.000001 0.000000 0.000000 0.199049
 18   4.172845 -0.251366 -1.312745 0.008050 0.095731 0.148659
 19   1.215373 0.000001 -0.000001 0.000000 0.000000 0.645758
 20   1.215371 -0.000002 0.000000 0.000000 0.000000 0.645758
 21   4.220532 -0.244855 -0.431465 0.001333 0.026242 0.148339
 22   1.350417 0.000000 0.000001 0.000000 0.000000 0.863926
 23   1.350409 0.000000 -0.000001 0.000000 0.000000 0.863926
 24   -2.014132 -0.441117 -2.739571 0.595016 0.880926 3.776261
 25   4.640942 0.000000 0.000000 1.207406 0.000714 -1.889719
 26   10.828048 0.000000 0.000001 0.000000 0.000000 -0.572048
 27   9.393336 -0.000001 0.000000 1.570439 -0.040797 0.178172
 28   1.442244 0.107454 1.746178 -1.686405 -0.539236 0.325898
 29   1.063451 -0.000001 0.000000 0.000000 0.000000 0.199056
 30   1.376307 -0.000001 0.000000 0.000000 0.000000 0.199059
 31   4.172846 -0.251365 1.312745 -0.008050 -0.095731 0.148659
 32   1.215374 0.000001 -0.000001 0.000000 0.000000 0.645746
 33   1.215373 0.000000 0.000001 0.000000 0.000000 0.645746
 34   4.220533 -0.244853 0.431466 -0.001333 -0.026242 0.148339
 35   1.350415 -0.000001 -0.000001 0.000000 0.000000 0.863937
 36   1.350410 -0.000001 0.000001 0.000000 0.000000 0.863925
 37   2.110541 -0.000001 0.000000 0.476265 0.915256 0.653628
 38   0.891923 2.373050 -0.014527 -3.141592 -0.000001 1.413797
 39   7.228119 5.709445 3.726568 3.120754 -0.741784 -0.219486
 40   2.450426 5.076127 0.001325 2.280140 -1.570796 0.000000
 41   6.312405 -4.528058 0.001311 3.140791 -1.570796 0.000000
 42   2.233309 1.152535 -7.309138 -2.485036 -1.402979 0.079369
 43   4.262825 -0.232720 -1.392178 0.016840 0.076668 0.253759
time 14
  0   -3.682744 -32.662689 11.550819 1.697637 -0.020979 0.158198
  1   -5.117016 -2.425855 0.000000 -0.000030 -1.692897 -1.570772
  2   -0.000007 0.000008 4.427393 -0.263782 -2.913522 -0.796786
  3   18.465939 0.000000 0.000000 0.000000 0.000000 -1.154868
  4   14.875443 0.000000 0.000000 -0.084598 -0.042180 -0.160340
  5   0.000006 -0.000004 -4.427393 -0.030175 3.193487 -0.820531
  6   18.465939 0.000000 0.000000 0.000000 0.000000 -2.013587
  7   14.875442 0.000000 0.000000 -0.082330 -0.062291 -0.103956
  8   2.243488 -0.007574 -0.273443 0.006705 -0.075101 0.494099
  9   9.514223 -0.009357 0.000000 -0.036617 -0.116350 -0.049596
 10   11.752194 -0.001492 0.000000 0.000024 0.043611 -0.181278
 11   -2.240702 -0.464569 2.555978 0.229982 -1.329347 3.096279
 12   4.640941 0.000000 0.000000 -0.227072 0.712057 -0.456415
 13   10.828045 0.000000 0.000000 0.000000 0.000000 -1.604365
 14   9.393338 -0.000001 0.000000 -1.535613 0.149617 0.084533
 15   1.442243 0.107453 -1.746178 1.686435 0.539209 0.325885
 16   1.063450 0.000000 -0.000001 0.000000 0.000000 0.199056
 17   1.376307 -0.000001 0.000001 0.000000 0.000000 0.199049
 18   4.172845 -0.251366 -1.312745 0.008050 0.095731 0.148659
 19   1.215373 0.000001 -0.000001 0.000000 0.000000 0.645758
 20   1.215371 -0.000002 0.000000 0.000000 0.000000 0.645758
 21   4.220532 -0.244855 -0.431465 0.001333 0.026242 0.148339
 22   1.350417 0.000000 0.000001 0.000000 0.000000 0.863926
 23   1.350409 0.000000 -0.000001 0.000000 0.000000 0.863926
 24   -2.010226 -0.464556 -2.739571 0.591869 0.840255 3.769253
 25   4.640942 0.000000 0.000000 1.269085 0.006990 -2.003038
 26   10.828048 0.000000 0.000001 0.000000 0.000000 -0.549737
 27   9.393336 -0.000001 0.000000 1.570549 0.482272 0.191848
 28   1.442244 0.107454 1.746178 -1.686405 -0.539236 0.325898
 29   1.063451 -0.000001 0.000000 0.000000 0.000000 0.199056
 30   1.376307 -0.000001 0.000000 0.000000 0.000000 0.199059
 31   4.172846 -0.251365 1.312745 -0.008050 -0.095731 0.148659
 32   1.215374 0.000001 -0.000001 0.000000 0.000000 0.645746
 33   1.215373 0.000000 0.000001 0.000000 0.000000 0.645746
 34   4.220533 -0.244853 0.431466 -0.001333 -0.026242 0.148339
 35   1.350415 -0.000001 -0.000001 0.000000 0.000000 0.863937
 36   1.350410 -0.000001 0.000001 0.000000 0.000000 0.863925
 37   2.110541 -0.000001 0.000000 0.415543 0.415126 0.467353
 38   0.891923 2.373050 -0.014527 -3.141592 -0.000001 1.413797
 39   7.228119 5.709445 3.726568 0.147500 -0.957151 2.783242
 40   2.450426 5.076127 0.001325 2.164199 -1.570796 0.000000
 41   6.312405 -4.528058 0.001311 3.140791 -1.570796 0.000000
 42   2.233309 1.152535 -7.309138 -2.160795 -1.433880 -0.277551
 43   4.262825 -0.232720 -1.392178 0.016840 0.076668 0.253759
time 15
  0   -3.924939 -33.062832 10.479359 1.697637 -0.020979 0.158198
  1   -4.999825 -2.359447 0.000000 -0.000030 -1.692897 -1.570772
  2   -0.000007 0.000008 4.427393 -0.346275 -3.079033 -0.755991
  3   18.465939 0.000000 0.000000 0.000000 0.000000 -1.133887
  4   14.875443 0.000000 0.000000 -0.019040 0.081885 -0.110487
  5   0.000006 -0.000004 -4.427393 -0.024137 3.197409 -0.801813
  6   18.465939 0.000000 0.000000 0.000000 0.000000 -1.989892
  7   14.875442 0.000000 0.000000 -0.079346 -0.056047 -0.108270
  8   2.243488 -0.007574 -0.273443 0.013160 -0.069877 0.481393
  9   9.514223 -0.009357 0.000000 -0.035454 -0.111364 -0.049705
 10   11.752194 -0.001492 0.000000 0.000024 0.043611 -0.177254
 11   -2.240702 -0.452849 2.555978 0.187489 -1.331941 3.133903
 12   4.640941 0.000000 0.000000 -0.065847 0.856156 -0.706782
 13   10.828045 0.000000 0.000000 0.000000 0.000000 -1.476117
 14   9.393338 -0.000001 0.000000 -1.534415 0.394789 0.089857
 15   1.442243 0.107453 -1.746178 1.686435 0.539209 0.325885
 16   1.063450 0.000000 -0.000001 0.000000 0.000000 0.199056
 17   1.376307 -0.000001 0.000001 0.000000 0.000000 0.199049
 18   4.172845 -0.251366 -1.312745 0.008050 0.095731 0.148659
 19   1.215373 0.000001 -0.000001 0.000000 0.000000 0.645758
 20   1.215371 -0.000002 0.000000 0.000000 0.000000 0.645758
 21   4.220532 -0.244855 -0.431465 0.001333 0.026242 0.148339
 22   1.350417 0.000000 0.000001 0.000000 0.000000 0.863926
 23   1.350409 0.000000 -0.000001 0.000000 0.000000 0.863926
 24   -2.010226 -0.452836 -2.739571 0.592887 0.855476 3.771817
 25   4.640942 0.000000 0.000000 1.242808 -0.000681 -1.966012
 26   10.828048 0.000000 0.000001 0.000000 0.000000 -0.558095
 27   9.393336 -0.000001 0.000000 1.569666 0.286097 0.186465
 28   1.442244 0.107454 1.746178 -1.686405 -0.539236 0.325898
 29   1.063451 -0.000001 0.000000 0.000000 0.000000 0.199056
 30   1.376307 -0.000001 0.000000 0.000000 0.000000 0.199059
 31   4.172846 -0.251365 1.312745 -0.008050 -0.095731 0.148659
 32   1.215374 0.000001 -0.000001 0.000000 0.000000 0.645746
 33   1.215373 0.000000 0.000001 0.000000 0.000000 0.645746
 34   4.220533 -0.244853 0.431466 -0.001333 -0.026242 0.148339
 35   1.350415 -0.000001 -0.000001 0.000000 0.000000 0.863937
 36   1.350410 -0.000001 0.000001 0.000000 0.000000 0.863925
 37   2.110541 -0.000001 0.000000 0.421199 0.601100 0.528566
 38   0.891923 2.373050 -0.014527 -3.141592 -0.000001 1.413797
 39   7.228119 5.709445 3.726568 0.325214 -1.119138 2.576242
 40   2.450426 5.076127 0.001325 2.111451 -1.570796 0.000000
 41   6.312405 -4.528058 0.001311 3.140791 -1.570796 0.000000
 42   2.233309 1.152535 -7.309138 -1.627840 -1.436530 -0.811591
 43   4.262825 -0.232720 -1.392178 0.016840 0.076668 0.253759
time 16
  0   -3.846811 -33.525219 9.108521 1.697637 -0.020979 0.158198
  1   -4.878728 -2.289132 0.000000 -0.000030 -1.692897 -1.570772
  2   -0.000007 0.000008 4.427393 -0.422158 -3.247006 -0.728731
  3   18.465939 0.000000 0.000000 0.000000 0.000000 -1.112905
  4   14.875443 0.000000 0.000000 0.051033 0.214251 -0.074222
  5   0.000006 -0.000004 -4.427393 -0.018290 3.201427 -0.783096
  6   18.465939 0.000000 0.000000 0.000000 0.000000 -1.966132
  7   14.875442 0.000000 0.000000 -0.076398 -0.049923 -0.112547
  8   2.243488 -0.007574 -0.273443 0.019489 -0.064574 0.468754
  9   9.514223 -0.009357 0.000000 -0.034291 -0.106378 -0.049813
 10   11.752194 -0.001492 0.000000 0.000024 0.043611 -0.170548
 11   -2.244608 -0.441130 2.555978 0.143662 -1.334132 3.170283
 12   4.640941 0.000000 0.000000 0.050308 1.024211 -0.978339
 13   10.828045 0.000000 0.000000 0.000000 0.000000 -1.347869
 14   9.393338 -0.000001 0.000000 -1.531559 0.639960 0.096304
 15   1.442243 0.107453 -1.746178 1.686435 0.539209 0.325885
 16   1.063450 0.000000 -0.000001 0.000000 0.000000 0.199056
 17   1.376307 -0.000001 0.000001 0.000000 0.000000 0.199049
 18   4.172845 -0.251366 -1.312745 0.008050 0.095731 0.148659
 19   1.215373 0.000001 -0.000001 0.000000 0.000000 0.645758
 20   1.215371 -0.000002 0.000000 0.000000 0.000000 0.645758
 21   4.220532 -0.244855 -0.431465 0.001333 0.026242 0.148339
 22   1.350417 0.000000 0.000001 0.000000 0.000000 0.863926
 23   1.350409 0.000000 -0.000001 0.000000 0.000000 0.863926
 24   -2.014132 -0.441117 -2.739571 0.595016 0.880926 3.776261
 25   4.640942 0.000000 0.000000 1.207491 -0.005493 -1.906027
 26   10.828048 0.000000 0.000001 0.000000 0.000000 -0.572048
 27   9.393336 -0.000001 0.000000 1.570439 -0.040797 0.178172
 28   1.442244 0.107454 1.746178 -1.686405 -0.539236 0.325898
 29   1.063451 -0.000001 0.000000 0.000000 0.000000 0.199056
 30   1.376307 -0.000001 0.000000 0.000000 0.000000 0.199059
 31   4.172846 -0.251365 1.312745 -0.008050 -0.095731 0.148659
 32   1.215374 0.000001 -0.000001 0.000000 0.000000 0.645746
 33   1.215373 0.000000 0.000001 0.000000 0.000000 0.645746
 34   4.220533 -0.244853 0.431466 -0.001333 -0.026242 0.148339
 35   1.350415 -0.000001 -0.000001 0.000000 0.000000 0.863937
 36   1.350410 -0.000001 0.000001 0.000000 0.000000 0.863925
 37   2.110541 -0.000001 0.000000 0.476265 0.915256 0.653628
 38   0.891923 2.373050 -0.014527 -3.141592 -0.000001 1.413797
 39   7.228119 5.709445 3.726568 0.226146 -0.683805 2.693035
 40   2.450426 5.076127 0.001325 2.058702 -1.570796 0.000000
 41   6.312405 -4.528058 0.001311 3.140791 -1.570796 0.000000
 42   2.233309 1.152535 -7.309138 -1.195263 -1.404930 -1.245391
 43   4.262825 -0.232720 -1.392178 0.016840 0.076668 0.253759
end
