version 1
nodes
  0 "Bip01" -1
  1 "Bip01 Pelvis" 0
  2 "Bip01 L Thigh" 1
  3 "Bip01 L Calf" 2
  4 "Bip01 L Foot" 3
  5 "Bip01 R Thigh" 1
  6 "Bip01 R Calf" 5
  7 "Bip01 R Foot" 6
  8 "Bip01 Spine" 1
  9 "Bip01 Spine1" 8
 10 "Bip01 Neck" 9
 11 "Bip01 L Clavicle" 10
 12 "Bip01 L UpperArm" 11
 13 "Bip01 L Forearm" 12
 14 "Bip01 L Hand" 13
 15 "Bip01 L Finger0" 14
 16 "Bip01 L Finger01" 15
 17 "Bip01 L Finger02" 16
 18 "Bip01 L Finger1" 14
 19 "Bip01 L Finger11" 18
 20 "Bip01 L Finger12" 19
 21 "Bip01 L Finger2" 14
 22 "Bip01 L Finger21" 21
 23 "Bip01 L Finger22" 22
 24 "Bip01 R Clavicle" 10
 25 "Bip01 R UpperArm" 24
 26 "Bip01 R Forearm" 25
 27 "Bip01 R Hand" 26
 28 "Bip01 R Finger0" 27
 29 "Bip01 R Finger01" 28
 30 "Bip01 R Finger02" 29
 31 "Bip01 R Finger1" 27
 32 "Bip01 R Finger11" 31
 33 "Bip01 R Finger12" 32
 34 "Bip01 R Finger2" 27
 35 "Bip01 R Finger21" 34
 36 "Bip01 R Finger22" 35
 37 "Bip01 Head" 10
 38 "Bone05" 37
 39 "Bone08" 9
 40 "Bone16" 8
 41 "Bone01" 8
 42 "Bone03" 1
 43 "Bip01 R Finger4" 27
end
skeleton
time 0
  0   1.278347 2.647669 38.416107 -0.032789 0.051704 -1.633642
  1   -1.105175 0.261727 0.000000 -0.000030 -1.518469 -1.570772
  2   -0.000007 0.000008 4.427393 -0.158773 -3.176370 0.060093
  3   18.465939 0.000000 0.000000 0.000000 0.000000 -0.249361
  4   14.875443 0.000000 0.000000 0.046802 0.003730 0.344277
  5   0.000006 -0.000004 -4.427393 0.090490 3.059752 -0.388067
  6   18.465939 0.000000 0.000000 0.000000 0.000000 -0.464631
  7   14.875442 0.000000 0.000000 0.038121 0.027165 0.123363
  8   2.255207 -0.007574 0.117194 -0.065613 0.009936 0.038847
  9   9.514223 -0.009357 0.000000 0.009117 -0.105397 0.104605
 10   11.752194 -0.001492 0.000000 -0.025347 0.102407 0.222105
 11   -2.396956 0.347956 2.427068 -0.087954 -1.222829 3.000639
 12   4.640941 0.000000 0.000000 -0.792013 0.274205 -1.729730
 13   10.828045 0.000000 0.000000 0.000000 0.000000 -0.616638
 14   9.393338 -0.000001 0.000000 -2.045769 -0.447170 0.433411
 15   1.442243 0.107453 -1.746178 1.545041 0.350655 0.094987
 16   1.063450 0.000000 -0.000001 0.000000 0.000000 0.199056
 17   1.376307 -0.000001 0.000001 0.000000 0.000000 0.199049
 18   4.172845 -0.251366 -1.312745 0.008014 -0.043889 0.147537
 19   1.215373 0.000001 -0.000001 0.000000 0.000000 0.645758
 20   1.215371 -0.000002 0.000000 0.000000 0.000000 0.881369
 21   4.220532 -0.244855 -0.431465 0.001333 0.026242 0.148339
 22   1.350417 0.000000 0.000001 0.000000 0.000000 0.733035
 23   1.350409 0.000000 -0.000001 0.000000 0.000000 1.256600
 24   -1.861784 0.480786 -2.841136 0.655185 1.362200 3.547814
 25   4.640942 0.000000 0.000000 0.723269 -0.212130 -1.799777
 26   10.828048 0.000000 0.000001 0.000000 0.000000 -0.570955
 27   9.393336 -0.000001 0.000000 2.186878 0.121479 0.376033
 28   1.442244 0.107454 1.746178 -1.937605 -0.475472 0.678379
 29   1.063451 -0.000001 0.000000 0.000000 0.000000 0.366516
 30   1.376307 -0.000001 0.000000 0.000000 0.000000 0.811565
 31   4.172846 -0.251365 1.312745 0.001190 -0.096055 0.052246
 32   1.215374 0.000001 -0.000001 0.000000 0.000000 0.130882
 33   1.215373 0.000000 0.000001 0.000000 0.000000 1.151880
 34   4.220533 -0.244853 0.431466 0.001184 -0.026242 0.052329
 35   1.350415 -0.000001 -0.000001 0.000000 0.000000 0.977377
 36   1.350410 -0.000001 0.000001 0.000000 0.000000 1.518434
 37   2.110541 -0.000001 0.000000 0.155327 0.123823 -0.054459
 38   0.891923 2.373050 -0.014527 -3.141592 -0.000001 1.413797
 39   7.228119 5.709445 3.726568 3.140796 -1.570796 0.000000
 40   2.450426 5.076127 0.001325 3.140791 -1.570796 0.000000
 41   6.312405 -4.528058 0.001311 3.140791 -1.570796 0.000000
 42   2.233309 1.152535 -7.309138 -1.134959 -1.596979 -0.916906
 43   4.262825 -0.232720 -1.392178 0.001188 0.078478 0.052453
time 1
  0   1.278347 3.447954 38.416107 -0.032789 0.040843 -1.630862
  1   -0.921576 0.343760 0.000000 -0.000030 -1.518038 -1.570772
  2   -0.000007 0.000008 4.427393 -0.167971 -3.171731 0.024922
  3   18.465939 0.000000 0.000000 0.000000 0.000000 -0.312598
  4   14.875443 0.000000 0.000000 0.057610 0.005710 0.361343
  5   0.000006 -0.000004 -4.427393 0.099499 3.056977 -0.387693
  6   18.465939 0.000000 0.000000 0.000000 0.000000 -0.446975
  7   14.875442 0.000000 0.000000 0.031172 0.024953 0.095000
  8   2.255207 -0.007574 0.117194 -0.043209 0.010290 0.035240
  9   9.514223 -0.009357 0.000000 0.010580 -0.083852 0.071981
 10   11.752194 -0.001492 0.000000 -0.010019 0.061887 0.264476
 11   -2.279766 0.472960 2.520821 0.061248 -1.295529 2.815390
 12   4.640941 0.000000 0.000000 -0.851984 0.490461 -1.503364
 13   10.828045 0.000000 0.000000 0.000000 0.000000 -0.614014
 14   9.393338 -0.000001 0.000000 -1.915765 -0.359600 0.311599
 15   1.442243 0.107453 -1.746178 1.571203 0.394792 0.141905
 16   1.063450 0.000000 -0.000001 0.000000 0.000000 0.199056
 17   1.376307 -0.000001 0.000001 0.000000 0.000000 0.199049
 18   4.172845 -0.251366 -1.312745 0.008014 -0.012993 0.147777
 19   1.215373 0.000001 -0.000001 0.000000 0.000000 0.645758
 20   1.215371 -0.000002 0.000000 0.000000 0.000000 0.829224
 21   4.220532 -0.244855 -0.431465 0.001333 0.026242 0.148339
 22   1.350417 0.000000 0.000001 0.000000 0.000000 0.761990
 23   1.350409 0.000000 -0.000001 0.000000 0.000000 1.169693
 24   -1.955537 0.527662 -2.766915 0.521609 1.369584 3.382440
 25   4.640942 0.000000 0.000000 0.714144 -0.437736 -1.558509
 26   10.828048 0.000000 0.000001 0.000000 0.000000 -0.576163
 27   9.393336 -0.000001 0.000000 2.195323 0.124537 0.376906
 28   1.442244 0.107454 1.746178 -1.937332 -0.475584 0.678019
 29   1.063451 -0.000001 0.000000 0.000000 0.000000 0.366097
 30   1.376307 -0.000001 0.000000 0.000000 0.000000 0.810640
 31   4.172846 -0.251365 1.312745 0.001190 -0.096055 0.052246
 32   1.215374 0.000001 -0.000001 0.000000 0.000000 0.130714
 33   1.215373 0.000000 0.000001 0.000000 0.000000 1.150579
 34   4.220533 -0.244853 0.431466 0.001184 -0.026242 0.052329
 35   1.350415 -0.000001 -0.000001 0.000000 0.000000 0.976244
 36   1.350410 -0.000001 0.000001 0.000000 0.000000 1.516669
 37   2.110541 -0.000001 0.000000 0.108436 0.106864 -0.090763
 38   0.891923 2.373050 -0.014527 -3.141592 -0.000001 1.413797
 39   7.228119 5.709445 3.726568 3.140796 -1.570796 0.000000
 40   2.450426 5.076127 0.001325 3.140791 -1.570796 0.000000
 41   6.312405 -4.528058 0.001311 3.140791 -1.570796 0.000000
 42   2.233309 1.152535 -7.309138 -1.134192 -1.598581 -0.910970
 43   4.262825 -0.232720 -1.392178 0.001188 0.078478 0.052453
time 2
  0   1.278347 4.283807 38.431866 -0.032693 0.029518 -1.625685
  1   -0.737977 0.429701 0.000000 -0.000030 -1.517046 -1.570772
  2   -0.000007 0.000008 4.427393 -0.184067 -3.166807 -0.005483
  3   18.465939 0.000000 0.000000 0.000000 0.000000 -0.363408
  4   14.875443 0.000000 0.000000 0.078017 0.006774 0.370271
  5   0.000006 -0.000004 -4.427393 0.117709 3.051716 -0.385353
  6   18.465939 0.000000 0.000000 0.000000 0.000000 -0.425511
  7   14.875442 0.000000 0.000000 0.017168 0.021224 0.063710
  8   2.255207 -0.007574 0.121100 -0.018316 0.009799 0.031567
  9   9.514223 -0.009357 0.000000 0.011705 -0.061676 0.038231
 10   11.752194 -0.001492 0.000000 0.004015 0.019342 0.307990
 11   -2.146949 0.601870 2.606761 0.331546 -1.360396 2.506737
 12   4.640941 0.000000 0.000000 -0.842796 0.745178 -1.240471
 13   10.828045 0.000000 0.000000 0.000000 0.000000 -0.609987
 14   9.393338 -0.000001 0.000000 -1.791290 -0.248839 0.196723
 15   1.442243 0.107453 -1.746178 1.603058 0.441774 0.195864
 16   1.063450 0.000000 -0.000001 0.000000 0.000000 0.199056
 17   1.376307 -0.000001 0.000001 0.000000 0.000000 0.199049
 18   4.172845 -0.251366 -1.312745 0.008014 0.020900 0.148058
 19   1.215373 0.000001 -0.000001 0.000000 0.000000 0.645758
 20   1.215371 -0.000002 0.000000 0.000000 0.000000 0.772057
 21   4.220532 -0.244855 -0.431465 0.001333 0.026242 0.148339
 22   1.350417 0.000000 0.000001 0.000000 0.000000 0.793764
 23   1.350409 0.000000 -0.000001 0.000000 0.000000 1.074414
 24   -2.045383 0.582351 -2.688788 0.399142 1.376393 3.223732
 25   4.640942 0.000000 0.000000 0.665307 -0.661808 -1.291693
 26   10.828048 0.000000 0.000001 0.000000 0.000000 -0.561439
 27   9.393336 -0.000001 0.000000 2.212214 0.130653 0.378749
 28   1.442244 0.107454 1.746178 -1.936605 -0.475865 0.677298
 29   1.063451 -0.000001 0.000000 0.000000 0.000000 0.365258
 30   1.376307 -0.000001 0.000000 0.000000 0.000000 0.808789
 31   4.172846 -0.251365 1.312745 0.001190 -0.096055 0.052246
 32   1.215374 0.000001 -0.000001 0.000000 0.000000 0.130421
 33   1.215373 0.000000 0.000001 0.000000 0.000000 1.147977
 34   4.220533 -0.244853 0.431466 0.001184 -0.026242 0.052329
 35   1.350415 -0.000001 -0.000001 0.000000 0.000000 0.974020
 36   1.350410 -0.000001 0.000001 0.000000 0.000000 1.513234
 37   2.110541 -0.000001 0.000000 0.057637 0.088222 -0.125372
 38   0.891923 2.373050 -0.014527 -3.141592 -0.000001 1.413797
 39   7.228119 5.709445 3.726568 3.140796 -1.570796 0.000000
 40   2.450426 5.076127 0.001325 3.140791 -1.570796 0.000000
 41   6.312405 -4.528058 0.001311 3.140791 -1.570796 0.000000
 42   2.233309 1.152535 -7.309138 -1.133330 -1.600445 -0.905034
 43   4.262825 -0.232720 -1.392178 0.001188 0.078478 0.052453
time 3
  0   1.278347 5.092984 38.416107 -0.032693 0.018472 -1.621754
  1   -0.558284 0.527360 0.000000 -0.000030 -1.515911 -1.570772
  2   -0.000007 0.000008 4.427393 -0.199972 -3.163020 -0.030742
  3   18.465939 0.000000 0.000000 0.000000 0.000000 -0.403252
  4   14.875443 0.000000 0.000000 0.097251 0.009094 0.373628
  5   0.000006 -0.000004 -4.427393 0.136302 3.046741 -0.381235
  6   18.465939 0.000000 0.000000 0.000000 0.000000 -0.399716
  7   14.875442 0.000000 0.000000 0.001936 0.017101 0.030282
  8   2.255207 -0.007574 0.121100 0.005270 0.009445 0.027961
  9   9.514223 -0.009357 0.000000 0.011931 -0.039769 0.005152
 10   11.752194 -0.001492 0.000000 0.015892 -0.022448 0.350044
 11   -2.010226 0.722968 2.680982 0.755525 -1.396633 2.044429
 12   4.640941 0.000000 0.000000 -0.707148 0.987699 -0.904991
 13   10.828045 0.000000 0.000000 0.000000 0.000000 -0.606632
 14   9.393338 -0.000001 0.000000 -1.687453 -0.131698 0.102995
 15   1.442243 0.107453 -1.746178 1.636855 0.485111 0.250191
 16   1.063450 0.000000 -0.000001 0.000000 0.000000 0.199056
 17   1.376307 -0.000001 0.000001 0.000000 0.000000 0.199049
 18   4.172845 -0.251366 -1.312745 0.008014 0.053282 0.148338
 19   1.215373 0.000001 -0.000001 0.000000 0.000000 0.645758
 20   1.215371 -0.000002 0.000000 0.000000 0.000000 0.717380
 21   4.220532 -0.244855 -0.431465 0.001333 0.026242 0.148339
 22   1.350417 0.000000 0.000001 0.000000 0.000000 0.824108
 23   1.350409 0.000000 -0.000001 0.000000 0.000000 0.983301
 24   -2.127417 0.637041 -2.614567 0.273249 1.380115 3.059725
 25   4.640942 0.000000 0.000000 0.525136 -0.873536 -0.957543
 26   10.828048 0.000000 0.000001 0.000000 0.000000 -0.556681
 27   9.393336 -0.000001 0.000000 2.224854 0.135208 0.380203
 28   1.442244 0.107454 1.746178 -1.936059 -0.476033 0.676731
 29   1.063451 -0.000001 0.000000 0.000000 0.000000 0.364635
 30   1.376307 -0.000001 0.000000 0.000000 0.000000 0.807422
 31   4.172846 -0.251365 1.312745 0.001190 -0.096055 0.052246
 32   1.215374 0.000001 -0.000001 0.000000 0.000000 0.130211
 33   1.215373 0.000000 0.000001 0.000000 0.000000 1.146004
 34   4.220533 -0.244853 0.431466 0.001184 -0.026242 0.052329
 35   1.350415 -0.000001 -0.000001 0.000000 0.000000 0.972341
 36   1.350410 -0.000001 0.000001 0.000000 0.000000 1.510658
 37   2.110541 -0.000001 0.000000 0.009718 0.067475 -0.155225
 38   0.891923 2.373050 -0.014527 -3.141592 -0.000001 1.413797
 39   7.228119 5.709445 3.726568 3.140796 -1.570796 0.000000
 40   2.450426 5.076127 0.001325 3.140791 -1.570796 0.000000
 41   6.312405 -4.528058 0.001311 3.140791 -1.570796 0.000000
 42   2.233309 1.152535 -7.309138 -1.132083 -1.602309 -0.899481
 43   4.262825 -0.232720 -1.392178 0.001188 0.078478 0.052453
time 4
  0   1.278347 5.839917 38.416107 -0.032693 0.008261 -1.622617
  1   -0.394216 0.632832 0.000000 -0.000030 -1.515049 -1.570772
  2   -0.000007 0.000008 4.427393 -0.214918 -3.160747 -0.050472
  3   18.465939 0.000000 0.000000 0.000000 0.000000 -0.433299
  4   14.875443 0.000000 0.000000 0.110725 0.012861 0.373826
  5   0.000006 -0.000004 -4.427393 0.154224 3.043202 -0.375246
  6   18.465939 0.000000 0.000000 0.000000 0.000000 -0.370180
  7   14.875442 0.000000 0.000000 -0.016770 0.012281 -0.004084
  8   2.255207 -0.007574 0.125007 0.023919 0.010152 0.024586
  9   9.514223 -0.009357 0.000000 0.010805 -0.019085 -0.025502
 10   11.752194 -0.001492 0.000000 0.025204 -0.060751 0.388154
 11   -1.881316 0.828440 2.747390 1.191412 -1.393913 1.572547
 12   4.640941 0.000000 0.000000 -0.388794 1.155177 -0.446288
 13   10.828045 0.000000 0.000000 0.000000 0.000000 -0.605960
 14   9.393338 -0.000001 0.000000 -1.611901 -0.029763 0.036473
 15   1.442243 0.107453 -1.746178 1.667008 0.519190 0.296699
 16   1.063450 0.000000 -0.000001 0.000000 0.000000 0.199056
 17   1.376307 -0.000001 0.000001 0.000000 0.000000 0.199049
 18   4.172845 -0.251366 -1.312745 0.008038 0.079720 0.148539
 19   1.215373 0.000001 -0.000001 0.000000 0.000000 0.645758
 20   1.215371 -0.000002 0.000000 0.000000 0.000000 0.672790
 21   4.220532 -0.244855 -0.431465 0.001333 0.026242 0.148339
 22   1.350417 0.000000 0.000001 0.000000 0.000000 0.848897
 23   1.350409 0.000000 -0.000001 0.000000 0.000000 0.908932
 24   -2.197732 0.695636 -2.540346 0.134767 1.376575 2.884266
 25   4.640942 0.000000 0.000000 0.201701 -1.032263 -0.469477
 26   10.828048 0.000000 0.000001 0.000000 0.000000 -0.591723
 27   9.393336 -0.000001 0.000000 2.220659 0.133711 0.379719
 28   1.442244 0.107454 1.746178 -1.936241 -0.475977 0.676937
 29   1.063451 -0.000001 0.000000 0.000000 0.000000 0.364851
 30   1.376307 -0.000001 0.000000 0.000000 0.000000 0.807863
 31   4.172846 -0.251365 1.312745 0.001190 -0.096055 0.052246
 32   1.215374 0.000001 -0.000001 0.000000 0.000000 0.130295
 33   1.215373 0.000000 0.000001 0.000000 0.000000 1.146634
 34   4.220533 -0.244853 0.431466 0.001184 -0.026242 0.052329
 35   1.350415 -0.000001 -0.000001 0.000000 0.000000 0.972928
 36   1.350410 -0.000001 0.000001 0.000000 0.000000 1.511517
 37   2.110541 -0.000001 0.000000 -0.028639 0.044983 -0.178579
 38   0.891923 2.373050 -0.014527 -3.141592 -0.000001 1.413797
 39   7.228119 5.709445 3.726568 3.140796 -1.570796 0.000000
 40   2.450426 5.076127 0.001325 3.140791 -1.570796 0.000000
 41   6.312405 -4.528058 0.001311 3.140791 -1.570796 0.000000
 42   2.233309 1.152535 -7.309138 -1.130549 -1.603882 -0.894311
 43   4.262825 -0.232720 -1.392178 0.001188 0.078478 0.052453
time 5
  0   1.278347 6.462361 38.400349 -0.032789 -0.000557 -1.631917
  1   -0.253587 0.742210 0.000000 -0.000030 -1.514905 -1.570772
  2   -0.000007 0.000008 4.427393 -0.228044 -3.160084 -0.063720
  3   18.465939 0.000000 0.000000 0.000000 0.000000 -0.454500
  4   14.875443 0.000000 0.000000 0.114103 0.017714 0.373352
  5   0.000006 -0.000004 -4.427393 0.170805 3.042819 -0.367946
  6   18.465939 0.000000 0.000000 0.000000 0.000000 -0.338543
  7   14.875442 0.000000 0.000000 -0.041513 0.006218 -0.037550
  8   2.255207 -0.007574 0.125007 0.033792 0.012863 0.021509
  9   9.514223 -0.009357 0.000000 0.008066 -0.000578 -0.051999
 10   11.752194 -0.001492 0.000000 0.031879 -0.092786 0.419833
 11   -1.768031 0.910473 2.794267 1.459710 -1.371955 1.273947
 12   4.640941 0.000000 0.000000 -0.017796 1.219325 0.003517
 13   10.828045 0.000000 0.000000 0.000000 0.000000 -0.610048
 14   9.393338 -0.000001 0.000000 -1.569611 0.034195 0.000037
 15   1.442243 0.107453 -1.746178 1.686435 0.539209 0.325885
 16   1.063450 0.000000 -0.000001 0.000000 0.000000 0.199056
 17   1.376307 -0.000001 0.000001 0.000000 0.000000 0.199049
 18   4.172845 -0.251366 -1.312745 0.008050 0.095731 0.148659
 19   1.215373 0.000001 -0.000001 0.000000 0.000000 0.645758
 20   1.215371 -0.000002 0.000000 0.000000 0.000000 0.645758
 21   4.220532 -0.244855 -0.431465 0.001333 0.026242 0.148339
 22   1.350417 0.000000 0.000001 0.000000 0.000000 0.863926
 23   1.350409 0.000000 -0.000001 0.000000 0.000000 0.863926
 24   -2.252421 0.742513 -2.477844 -0.013064 1.360264 2.704107
 25   4.640942 0.000000 0.000000 -0.312853 -1.053603 0.179714
 26   10.828048 0.000000 0.000001 0.000000 0.000000 -0.696527
 27   9.393336 -0.000001 0.000000 2.186878 0.121479 0.376033
 28   1.442244 0.107454 1.746178 -1.937605 -0.475472 0.678379
 29   1.063451 -0.000001 0.000000 0.000000 0.000000 0.366516
 30   1.376307 -0.000001 0.000000 0.000000 0.000000 0.811565
 31   4.172846 -0.251365 1.312745 0.001190 -0.096055 0.052246
 32   1.215374 0.000001 -0.000001 0.000000 0.000000 0.130882
 33   1.215373 0.000000 0.000001 0.000000 0.000000 1.151880
 34   4.220533 -0.244853 0.431466 0.001184 -0.026242 0.052329
 35   1.350415 -0.000001 -0.000001 0.000000 0.000000 0.977377
 36   1.350410 -0.000001 0.000001 0.000000 0.000000 1.518434
 37   2.110541 -0.000001 0.000000 -0.050902 0.021530 -0.194824
 38   0.891923 2.373050 -0.014527 -3.141592 -0.000001 1.413797
 39   7.228119 5.709445 3.726568 3.140796 -1.570796 0.000000
 40   2.450426 5.076127 0.001325 3.140791 -1.570796 0.000000
 41   6.312405 -4.528058 0.001311 3.140791 -1.570796 0.000000
 42   2.233309 1.152535 -7.309138 -1.128632 -1.604872 -0.889715
 43   4.262825 -0.232720 -1.392178 0.001188 0.078478 0.052453
time 6
  0   1.266628 6.604634 38.384594 -0.033556 -0.004084 -1.683978
  1   -0.191085 0.886746 0.000000 -0.000030 -1.515911 -1.570772
  2   -0.000007 0.000008 4.427393 -0.238583 -3.167659 -0.055142
  3   18.465939 0.000000 0.000000 0.000000 0.000000 -0.452745
  4   14.875443 0.000000 0.000000 0.072151 0.025525 0.378606
  5   0.000006 -0.000004 -4.427393 0.184510 3.051811 -0.365606
  6   18.465939 0.000000 0.000000 0.000000 0.000000 -0.319640
  7   14.875442 0.000000 0.000000 -0.102966 -0.005634 -0.056346
  8   2.255207 -0.007574 0.121100 0.004384 0.023389 0.019358
  9   9.514223 -0.009357 0.000000 -0.000750 0.011034 -0.062715
 10   11.752194 -0.001492 0.000000 0.033749 -0.102062 0.426381
 11   -1.736780 0.930005 2.809892 1.541171 -1.361076 1.186157
 12   4.640941 0.000000 0.000000 0.191853 1.238014 0.290001
 13   10.828045 0.000000 0.000000 0.000000 0.000000 -0.619871
 14   9.393338 -0.000001 0.000000 -1.550447 0.064837 -0.016228
 15   1.442243 0.107453 -1.746178 1.695903 0.548467 0.339923
 16   1.063450 0.000000 -0.000001 0.000000 0.000000 0.199056
 17   1.376307 -0.000001 0.000001 0.000000 0.000000 0.199049
 18   4.172845 -0.251366 -1.312745 0.008050 0.103258 0.148739
 19   1.215373 0.000001 -0.000001 0.000000 0.000000 0.645758
 20   1.215371 -0.000002 0.000000 0.000000 0.000000 0.633017
 21   4.220532 -0.244855 -0.431465 0.001333 0.026242 0.148339
 22   1.350417 0.000000 0.000001 0.000000 0.000000 0.870991
 23   1.350409 0.000000 -0.000001 0.000000 0.000000 0.842730
 24   -2.271953 0.754232 -2.458312 -0.207272 1.328126 2.504547
 25   4.640942 0.000000 0.000000 -0.725934 -0.890622 0.671559
 26   10.828048 0.000000 0.000001 0.000000 0.000000 -0.920667
 27   9.393336 -0.000001 0.000000 2.103752 0.090833 0.367837
 28   1.442244 0.107454 1.746178 -1.941878 -0.473898 0.682859
 29   1.063451 -0.000001 0.000000 0.000000 0.000000 0.371646
 30   1.376307 -0.000001 0.000000 0.000000 0.000000 0.822936
 31   4.172846 -0.251365 1.312745 0.001190 -0.096055 0.052246
 32   1.215374 0.000001 -0.000001 0.000000 0.000000 0.132729
 33   1.215373 0.000000 0.000001 0.000000 0.000000 1.168038
 34   4.220533 -0.244853 0.431466 0.001184 -0.026242 0.052329
 35   1.350415 -0.000001 -0.000001 0.000000 0.000000 0.991059
 36   1.350410 -0.000001 0.000001 0.000000 0.000000 1.539665
 37   2.110541 -0.000001 0.000000 -0.003239 -0.004569 -0.192988
 38   0.891923 2.373050 -0.014527 -3.141592 -0.000001 1.413797
 39   7.228119 5.709445 3.726568 3.140796 -1.570796 0.000000
 40   2.450426 5.076127 0.001325 3.140791 -1.570796 0.000000
 41   6.312405 -4.528058 0.001311 3.140791 -1.570796 0.000000
 42   2.233309 1.152535 -7.309138 -1.126427 -1.604989 -0.885790
 43   4.262825 -0.232720 -1.392178 0.001188 0.078478 0.052453
time 7
  0   1.254909 6.462361 38.368835 -0.032501 -0.003991 -1.736518
  1   -0.171553 0.984405 0.000000 -0.000030 -1.518469 -1.570772
  2   -0.000007 0.000008 4.427393 -0.237050 -3.178643 -0.039987
  3   18.465939 0.000000 0.000000 0.000000 0.000000 -0.441267
  4   14.875443 0.000000 0.000000 0.018076 0.033102 0.384452
  5   0.000006 -0.000004 -4.427393 0.181347 3.062430 -0.368788
  6   18.465939 0.000000 0.000000 0.000000 0.000000 -0.320099
  7   14.875442 0.000000 0.000000 -0.148837 -0.013273 -0.057284
  8   2.255207 -0.007574 0.117194 -0.035825 0.034583 0.017869
  9   9.514223 -0.009357 0.000000 -0.008141 0.014569 -0.062499
 10   11.752194 -0.001492 0.000000 0.031879 -0.092786 0.419833
 11   -1.768031 0.910473 2.794267 1.529070 -1.363368 1.204060
 12   4.640941 0.000000 0.000000 0.301799 1.244580 0.469829
 13   10.828045 0.000000 0.000000 0.000000 0.000000 -0.633965
 14   9.393338 -0.000001 0.000000 -1.539575 0.082755 -0.025410
 15   1.442243 0.107453 -1.746178 1.701488 0.553774 0.348133
 16   1.063450 0.000000 -0.000001 0.000000 0.000000 0.199056
 17   1.376307 -0.000001 0.000001 0.000000 0.000000 0.199049
 18   4.172845 -0.251366 -1.312745 0.008050 0.107632 0.148739
 19   1.215373 0.000001 -0.000001 0.000000 0.000000 0.645758
 20   1.215371 -0.000002 0.000000 0.000000 0.000000 0.625627
 21   4.220532 -0.244855 -0.431465 0.001333 0.026242 0.148339
 22   1.350417 0.000000 0.000001 0.000000 0.000000 0.875075
 23   1.350409 0.000000 -0.000001 0.000000 0.000000 0.830397
 24   -2.252421 0.742513 -2.477844 -0.391112 1.276289 2.333276
 25   4.640942 0.000000 0.000000 -0.931671 -0.631332 0.949994
 26   10.828048 0.000000 0.000001 0.000000 0.000000 -1.246397
 27   9.393336 -0.000001 0.000000 1.979062 0.043594 0.360223
 28   1.442244 0.107454 1.746178 -1.948333 -0.471483 0.689759
 29   1.063451 -0.000001 0.000000 0.000000 0.000000 0.379544
 30   1.376307 -0.000001 0.000000 0.000000 0.000000 0.840433
 31   4.172846 -0.251365 1.312745 0.001190 -0.096055 0.052246
 32   1.215374 0.000001 -0.000001 0.000000 0.000000 0.135541
 33   1.215373 0.000000 0.000001 0.000000 0.000000 1.192841
 34   4.220533 -0.244853 0.431466 0.001184 -0.026242 0.052329
 35   1.350415 -0.000001 -0.000001 0.000000 0.000000 1.012127
 36   1.350410 -0.000001 0.000001 0.000000 0.000000 1.572392
 37   2.110541 -0.000001 0.000000 0.062676 -0.026279 -0.184701
 38   0.891923 2.373050 -0.014527 -3.141592 -0.000001 1.413797
 39   7.228119 5.709445 3.726568 3.140796 -1.570796 0.000000
 40   2.450426 5.076127 0.001325 3.140791 -1.570796 0.000000
 41   6.312405 -4.528058 0.001311 3.140791 -1.570796 0.000000
 42   2.233309 1.152535 -7.309138 -1.118661 -1.594009 -0.891822
 43   4.262825 -0.232720 -1.392178 0.001188 0.078478 0.052453
time 8
  0   1.247096 6.462361 38.337322 -0.028570 -0.004548 -1.751091
  1   -0.152021 1.003937 0.000000 -0.000030 -1.529061 -1.570772
  2   -0.000007 0.000008 4.427393 -0.231972 -3.174855 -0.041131
  3   18.465939 0.000000 0.000000 0.000000 0.000000 -0.450040
  4   14.875443 0.000000 0.000000 -0.001442 0.035741 0.391958
  5   0.000006 -0.000004 -4.427393 0.176843 3.073049 -0.366448
  6   18.465939 0.000000 0.000000 0.000000 0.000000 -0.313404
  7   14.875442 0.000000 0.000000 -0.155365 -0.014486 -0.061786
  8   2.255207 -0.007574 0.093756 -0.054812 0.047545 0.016843
  9   9.514223 -0.009357 0.000000 -0.008366 0.015120 -0.064144
 10   11.752194 -0.001492 0.000000 0.029614 -0.083486 0.421371
 11   -1.791469 0.906567 2.782547 1.499821 -1.367296 1.231153
 12   4.640941 0.000000 0.000000 0.356866 1.247394 0.552836
 13   10.828045 0.000000 0.000000 0.000000 0.000000 -0.650926
 14   9.393338 -0.000001 0.000000 -1.535152 0.090015 -0.029073
 15   1.442243 0.107453 -1.746178 1.703765 0.555916 0.351479
 16   1.063450 0.000000 -0.000001 0.000000 0.000000 0.199056
 17   1.376307 -0.000001 0.000001 0.000000 0.000000 0.199049
 18   4.172845 -0.251366 -1.312745 0.008050 0.109406 0.148779
 19   1.215373 0.000001 -0.000001 0.000000 0.000000 0.645758
 20   1.215371 -0.000002 0.000000 0.000000 0.000000 0.622646
 21   4.220532 -0.244855 -0.431465 0.001333 0.026242 0.148339
 22   1.350417 0.000000 0.000001 0.000000 0.000000 0.876750
 23   1.350409 0.000000 -0.000001 0.000000 0.000000 0.825414
 24   -2.228983 0.750325 -2.497375 -0.502656 1.214919 2.229522
 25   4.640942 0.000000 0.000000 -1.032301 -0.359280 1.161445
 26   10.828048 0.000000 0.000001 0.000000 0.000000 -1.602411
 27   9.393336 -0.000001 0.000000 1.841125 -0.009402 0.360126
 28   1.442244 0.107454 1.746178 -1.954333 -0.469236 0.696042
 29   1.063451 -0.000001 0.000000 0.000000 0.000000 0.386794
 30   1.376307 -0.000001 0.000000 0.000000 0.000000 0.856476
 31   4.172846 -0.251365 1.312745 0.001190 -0.096055 0.052246
 32   1.215374 0.000001 -0.000001 0.000000 0.000000 0.138143
 33   1.215373 0.000000 0.000001 0.000000 0.000000 1.215629
 34   4.220533 -0.244853 0.431466 0.001184 -0.026242 0.052329
 35   1.350415 -0.000001 -0.000001 0.000000 0.000000 1.031432
 36   1.350410 -0.000001 0.000001 0.000000 0.000000 1.602449
 37   2.110541 -0.000001 0.000000 0.088281 -0.041193 -0.185077
 38   0.891923 2.373050 -0.014527 -3.141592 -0.000001 1.413797
 39   7.228119 5.709445 3.726568 3.140796 -1.570796 0.000000
 40   2.450426 5.076127 0.001325 3.140791 -1.570796 0.000000
 41   6.312405 -4.528058 0.001311 3.140791 -1.570796 0.000000
 42   2.233309 1.152535 -7.309138 -1.069095 -1.577407 -0.942277
 43   4.262825 -0.232720 -1.392178 0.001188 0.078478 0.052453
time 9
  0   1.235377 6.462361 38.321568 -0.023968 -0.005013 -1.763364
  1   -0.136396 1.031281 0.000000 -0.000030 -1.545085 -1.570772
  2   -0.000007 0.000008 4.427393 -0.226799 -3.165482 -0.044943
  3   18.465939 0.000000 0.000000 0.000000 0.000000 -0.464442
  4   14.875443 0.000000 0.000000 -0.018720 0.038146 0.402347
  5   0.000006 -0.000004 -4.427393 0.174159 3.088259 -0.360178
  6   18.465939 0.000000 0.000000 0.000000 0.000000 -0.298636
  7   14.875442 0.000000 0.000000 -0.159752 -0.015244 -0.070378
  8   2.255207 -0.007574 0.054692 -0.075908 0.066497 0.015917
  9   9.514223 -0.009357 0.000000 -0.007616 0.015012 -0.065226
 10   11.752194 -0.001492 0.000000 0.027265 -0.073814 0.422910
 11   -1.818814 0.902661 2.766922 1.455327 -1.372609 1.273468
 12   4.640941 0.000000 0.000000 0.363632 1.256991 0.578827
 13   10.828045 0.000000 0.000000 0.000000 0.000000 -0.669169
 14   9.393338 -0.000001 0.000000 -1.535889 0.088868 -0.028487
 15   1.442243 0.107453 -1.746178 1.703405 0.555571 0.350945
 16   1.063450 0.000000 -0.000001 0.000000 0.000000 0.199056
 17   1.376307 -0.000001 0.000001 0.000000 0.000000 0.199049
 18   4.172845 -0.251366 -1.312745 0.008050 0.109118 0.148779
 19   1.215373 0.000001 -0.000001 0.000000 0.000000 0.645758
 20   1.215371 -0.000002 0.000000 0.000000 0.000000 0.623136
 21   4.220532 -0.244855 -0.431465 0.001333 0.026242 0.148339
 22   1.350417 0.000000 0.000001 0.000000 0.000000 0.876464
 23   1.350409 0.000000 -0.000001 0.000000 0.000000 0.826231
 24   -2.205544 0.762044 -2.516907 -0.577637 1.165048 2.163372
 25   4.640942 0.000000 0.000000 -1.086882 -0.115541 1.333909
 26   10.828048 0.000000 0.000001 0.000000 0.000000 -1.917532
 27   9.393336 -0.000001 0.000000 1.717373 -0.056217 0.369050
 28   1.442244 0.107454 1.746178 -1.956879 -0.468280 0.698823
 29   1.063451 -0.000001 0.000000 0.000000 0.000000 0.389970
 30   1.376307 -0.000001 0.000000 0.000000 0.000000 0.863506
 31   4.172846 -0.251365 1.312745 0.001190 -0.096055 0.052246
 32   1.215374 0.000001 -0.000001 0.000000 0.000000 0.139276
 33   1.215373 0.000000 0.000001 0.000000 0.000000 1.225618
 34   4.220533 -0.244853 0.431466 0.001184 -0.026242 0.052329
 35   1.350415 -0.000001 -0.000001 0.000000 0.000000 1.039909
 36   1.350410 -0.000001 0.000001 0.000000 0.000000 1.615568
 37   2.110541 -0.000001 0.000000 0.114760 -0.056558 -0.186490
 38   0.891923 2.373050 -0.014527 -3.141592 -0.000001 1.413797
 39   7.228119 5.709445 3.726568 3.140796 -1.570796 0.000000
 40   2.450426 5.076127 0.001325 3.140791 -1.570796 0.000000
 41   6.312405 -4.528058 0.001311 3.140791 -1.570796 0.000000
 42   2.233309 1.152535 -7.309138 -1.182800 -1.560195 -0.829973
 43   4.262825 -0.232720 -1.392178 0.001188 0.078478 0.052453
time 10
  0   1.219751 6.462361 38.305809 -0.018983 -0.005477 -1.773335
  1   -0.124677 1.050813 0.000000 -0.000030 -1.553349 -1.570772
  2   -0.000007 0.000008 4.427393 -0.221816 -3.164535 -0.045229
  3   18.465939 0.000000 0.000000 0.000000 0.000000 -0.469560
  4   14.875443 0.000000 0.000000 -0.033688 0.040147 0.407009
  5   0.000006 -0.000004 -4.427393 0.168409 3.094381 -0.360365
  6   18.465939 0.000000 0.000000 0.000000 0.000000 -0.298045
  7   14.875442 0.000000 0.000000 -0.162138 -0.015608 -0.071165
  8   2.255207 -0.007574 0.039067 -0.097342 0.077652 0.014991
  9   9.514223 -0.009357 0.000000 -0.006265 0.014408 -0.065962
 10   11.752194 -0.001492 0.000000 0.024856 -0.063807 0.424488
 11   -1.842252 0.898754 2.751297 1.397399 -1.378628 1.329282
 12   4.640941 0.000000 0.000000 0.333895 1.270918 0.560738
 13   10.828045 0.000000 0.000000 0.000000 0.000000 -0.687351
 14   9.393338 -0.000001 0.000000 -1.540220 0.081609 -0.024824
 15   1.442243 0.107453 -1.746178 1.701128 0.553429 0.347600
 16   1.063450 0.000000 -0.000001 0.000000 0.000000 0.199056
 17   1.376307 -0.000001 0.000001 0.000000 0.000000 0.199049
 18   4.172845 -0.251366 -1.312745 0.008050 0.107356 0.148739
 19   1.215373 0.000001 -0.000001 0.000000 0.000000 0.645758
 20   1.215371 -0.000002 0.000000 0.000000 0.000000 0.626117
 21   4.220532 -0.244855 -0.431465 0.001333 0.026242 0.148339
 22   1.350417 0.000000 0.000001 0.000000 0.000000 0.874830
 23   1.350409 0.000000 -0.000001 0.000000 0.000000 0.831173
 24   -2.178200 0.769857 -2.536439 -0.566343 1.191981 2.171064
 25   4.640942 0.000000 0.000000 -1.205424 -0.040014 1.395433
 26   10.828048 0.000000 0.000001 0.000000 0.000000 -2.050756
 27   9.393336 -0.000001 0.000000 1.649591 -0.077787 0.397856
 28   1.442244 0.107454 1.746178 -1.937605 -0.475472 0.678379
 29   1.063451 -0.000001 0.000000 0.000000 0.000000 0.366516
 30   1.376307 -0.000001 0.000000 0.000000 0.000000 0.811565
 31   4.172846 -0.251365 1.312745 0.001190 -0.096055 0.052246
 32   1.215374 0.000001 -0.000001 0.000000 0.000000 0.130882
 33   1.215373 0.000000 0.000001 0.000000 0.000000 1.151880
 34   4.220533 -0.244853 0.431466 0.001184 -0.026242 0.052329
 35   1.350415 -0.000001 -0.000001 0.000000 0.000000 0.977377
 36   1.350410 -0.000001 0.000001 0.000000 0.000000 1.518434
 37   2.110541 -0.000001 0.000000 0.140571 -0.071532 -0.188609
 38   0.891923 2.373050 -0.014527 -3.141592 -0.000001 1.413797
 39   7.228119 5.709445 3.726568 3.140796 -1.570796 0.000000
 40   2.450426 5.076127 0.001325 3.140791 -1.570796 0.000000
 41   6.312405 -4.528058 0.001311 3.140791 -1.570796 0.000000
 42   2.233309 1.152535 -7.309138 -1.161900 -1.550642 -0.852377
 43   4.262825 -0.232720 -1.392178 0.001188 0.078478 0.052453
time 11
  0   1.208032 6.462361 38.274296 -0.013902 -0.005848 -1.781005
  1   -0.112957 1.066439 0.000000 -0.000030 -1.549569 -1.570772
  2   -0.000007 0.000008 4.427393 -0.217218 -3.176465 -0.040368
  3   18.465939 0.000000 0.000000 0.000000 0.000000 -0.461006
  4   14.875443 0.000000 0.000000 -0.046344 0.041680 0.403374
  5   0.000006 -0.000004 -4.427393 0.157962 3.087207 -0.370098
  6   18.465939 0.000000 0.000000 0.000000 0.000000 -0.318393
  7   14.875442 0.000000 0.000000 -0.162525 -0.015699 -0.060548
  8   2.255207 -0.007574 0.046879 -0.117257 0.076081 0.014064
  9   9.514223 -0.009357 0.000000 -0.004502 0.013427 -0.066569
 10   11.752194 -0.001492 0.000000 0.022399 -0.053512 0.426066
 11   -1.869597 0.894848 2.731765 1.328229 -1.384596 1.396393
 12   4.640941 0.000000 0.000000 0.278829 1.285638 0.510747
 13   10.828045 0.000000 0.000000 0.000000 0.000000 -0.703824
 14   9.393338 -0.000001 0.000000 -1.546946 0.070529 -0.019207
 15   1.442243 0.107453 -1.746178 1.697676 0.550154 0.342530
 16   1.063450 0.000000 -0.000001 0.000000 0.000000 0.199056
 17   1.376307 -0.000001 0.000001 0.000000 0.000000 0.199049
 18   4.172845 -0.251366 -1.312745 0.008050 0.104660 0.148739
 19   1.215373 0.000001 -0.000001 0.000000 0.000000 0.645758
 20   1.215371 -0.000002 0.000000 0.000000 0.000000 0.630690
 21   4.220532 -0.244855 -0.431465 0.001333 0.026242 0.148339
 22   1.350417 0.000000 0.000001 0.000000 0.000000 0.872298
 23   1.350409 0.000000 -0.000001 0.000000 0.000000 0.838769
 24   -2.150855 0.777670 -2.559877 -0.602815 1.232440 2.129955
 25   4.640942 0.000000 0.000000 -1.274285 -0.146366 1.343708
 26   10.828048 0.000000 0.000001 0.000000 0.000000 -1.970191
 27   9.393336 -0.000001 0.000000 1.704623 -0.024693 0.457117
 28   1.442244 0.107454 1.746178 -1.940878 -0.473898 0.683838
 29   1.063451 -0.000001 0.000000 0.000000 0.000000 0.367835
 30   1.376307 -0.000001 0.000000 0.000000 0.000000 0.820027
 31   4.172846 -0.251365 1.312745 0.001394 -0.096055 0.050042
 32   1.215374 0.000001 -0.000001 0.000000 0.000000 0.118208
 33   1.215373 0.000000 0.000001 0.000000 0.000000 1.155615
 34   4.220533 -0.244853 0.431466 0.001232 -0.026242 0.050167
 35   1.350415 -0.000001 -0.000001 0.000000 0.000000 0.973264
 36   1.350410 -0.000001 0.000001 0.000000 0.000000 1.523014
 37   2.110541 -0.000001 0.000000 0.164222 -0.085393 -0.190916
 38   0.891923 2.373050 -0.014527 -3.141592 -0.000001 1.413797
 39   7.228119 5.709445 3.726568 3.140796 -1.570796 0.000000
 40   2.450426 5.076127 0.001325 3.140791 -1.570796 0.000000
 41   6.312405 -4.528058 0.001311 3.140791 -1.570796 0.000000
 42   2.233309 1.152535 -7.309138 -1.175609 -1.560515 -0.840122
 43   4.262825 -0.232720 -1.392178 0.000828 0.078478 0.047876
time 12
  0   1.200220 6.462361 38.258541 -0.008916 -0.006034 -1.786470
  1   -0.101238 1.066439 0.000000 -0.000030 -1.540616 -1.570772
  2   -0.000007 0.000008 4.427393 -0.212619 -3.193225 -0.033506
  3   18.465939 0.000000 0.000000 0.000000 0.000000 -0.446751
  4   14.875443 0.000000 0.000000 -0.056690 0.042637 0.395987
  5   0.000006 -0.000004 -4.427393 0.145407 3.074866 -0.382920
  6   18.465939 0.000000 0.000000 0.000000 0.000000 -0.345172
  7   14.875442 0.000000 0.000000 -0.160840 -0.015547 -0.046329
  8   2.255207 -0.007574 0.066411 -0.133501 0.068068 0.013237
  9   9.514223 -0.009357 0.000000 -0.002664 0.012230 -0.067261
 10   11.752194 -0.001492 0.000000 0.019906 -0.042990 0.427683
 11   -1.896941 0.890942 2.716139 1.250865 -1.389859 1.471546
 12   4.640941 0.000000 0.000000 0.213457 1.297977 0.445068
 13   10.828045 0.000000 0.000000 0.000000 0.000000 -0.717186
 14   9.393338 -0.000001 0.000000 -1.554685 0.057998 -0.012662
 15   1.442243 0.107453 -1.746178 1.693781 0.546423 0.336783
 16   1.063450 0.000000 -0.000001 0.000000 0.000000 0.199056
 17   1.376307 -0.000001 0.000001 0.000000 0.000000 0.199049
 18   4.172845 -0.251366 -1.312745 0.008050 0.101580 0.148699
 19   1.215373 0.000001 -0.000001 0.000000 0.000000 0.645758
 20   1.215371 -0.000002 0.000000 0.000000 0.000000 0.635876
 21   4.220532 -0.244855 -0.431465 0.001333 0.026242 0.148339
 22   1.350417 0.000000 0.000001 0.000000 0.000000 0.869399
 23   1.350409 0.000000 -0.000001 0.000000 0.000000 0.847427
 24   -2.123511 0.785483 -2.579409 -0.659004 1.276289 2.068677
 25   4.640942 0.000000 0.000000 -1.346694 -0.284450 1.297722
 26   10.828048 0.000000 0.000001 0.000000 0.000000 -1.867701
 27   9.393336 -0.000001 0.000000 1.786590 0.036730 0.538637
 28   1.442244 0.107454 1.746178 -1.951060 -0.469236 0.698771
 29   1.063451 -0.000001 0.000000 0.000000 0.000000 0.375181
 30   1.376307 -0.000001 0.000000 0.000000 0.000000 0.847331
 31   4.172846 -0.251365 1.312745 0.001813 -0.096055 0.045634
 32   1.215374 0.000001 -0.000001 0.000000 0.000000 0.094580
 33   1.215373 0.000000 0.000001 0.000000 0.000000 1.177774
 34   4.220533 -0.244853 0.431466 0.001352 -0.026242 0.045763
 35   1.350415 -0.000001 -0.000001 0.000000 0.000000 0.977629
 36   1.350410 -0.000001 0.000001 0.000000 0.000000 1.551639
 37   2.110541 -0.000001 0.000000 0.184172 -0.097301 -0.192941
 38   0.891923 2.373050 -0.014527 -3.141592 -0.000001 1.413797
 39   7.228119 5.709445 3.726568 3.140796 -1.570796 0.000000
 40   2.450426 5.076127 0.001325 3.140791 -1.570796 0.000000
 41   6.312405 -4.528058 0.001311 3.140791 -1.570796 0.000000
 42   2.233309 1.152535 -7.309138 -1.110224 -1.579155 -0.907044
 43   4.262825 -0.232720 -1.392178 0.000109 0.078478 0.038682
time 13
  0   1.200220 6.462361 38.242783 -0.004314 -0.006034 -1.789538
  1   -0.089519 1.046907 0.000000 -0.000030 -1.530067 -1.570772
  2   -0.000007 0.000008 4.427393 -0.207732 -3.210458 -0.026452
  3   18.465939 0.000000 0.000000 0.000000 0.000000 -0.430886
  4   14.875443 0.000000 0.000000 -0.064725 0.042957 0.387218
  5   0.000006 -0.000004 -4.427393 0.132181 3.061569 -0.395741
  6   18.465939 0.000000 0.000000 0.000000 0.000000 -0.371558
  7   14.875442 0.000000 0.000000 -0.157050 -0.015183 -0.032185
  8   2.255207 -0.007574 0.089849 -0.144134 0.056599 0.012509
  9   9.514223 -0.009357 0.000000 -0.001013 0.010940 -0.068214
 10   11.752194 -0.001492 0.000000 0.017390 -0.032276 0.429301
 11   -1.928192 0.887035 2.696607 1.169880 -1.394014 1.550336
 12   4.640941 0.000000 0.000000 0.159260 1.305770 0.386237
 13   10.828045 0.000000 0.000000 0.000000 0.000000 -0.725910
 14   9.393338 -0.000001 0.000000 -1.562056 0.046230 -0.006459
 15   1.442243 0.107453 -1.746178 1.690150 0.542878 0.331406
 16   1.063450 0.000000 -0.000001 0.000000 0.000000 0.199056
 17   1.376307 -0.000001 0.000001 0.000000 0.000000 0.199049
 18   4.172845 -0.251366 -1.312745 0.008050 0.098704 0.148699
 19   1.215373 0.000001 -0.000001 0.000000 0.000000 0.645758
 20   1.215371 -0.000002 0.000000 0.000000 0.000000 0.640735
 21   4.220532 -0.244855 -0.431465 0.001333 0.026242 0.148339
 22   1.350417 0.000000 0.000001 0.000000 0.000000 0.866703
 23   1.350409 0.000000 -0.000001 0.000000 0.000000 0.855554
 24   -2.092260 0.797202 -2.598941 -0.738335 1.317868 1.984836
 25   4.640942 0.000000 0.000000 -1.411330 -0.436272 1.265385
 26   10.828048 0.000000 0.000001 0.000000 0.000000 -1.752223
 27   9.393336 -0.000001 0.000000 1.874519 0.092199 0.617976
 28   1.442244 0.107454 1.746178 -1.959607 -0.465303 0.710924
 29   1.063451 -0.000001 0.000000 0.000000 0.000000 0.381857
 30   1.376307 -0.000001 0.000000 0.000000 0.000000 0.870403
 31   4.172846 -0.251365 1.312745 0.002137 -0.096043 0.042348
 32   1.215374 0.000001 -0.000001 0.000000 0.000000 0.077247
 33   1.215373 0.000000 0.000001 0.000000 0.000000 1.198045
 34   4.220533 -0.244853 0.431466 0.001436 -0.026230 0.042480
 35   1.350415 -0.000001 -0.000001 0.000000 0.000000 0.984008
 36   1.350410 -0.000001 0.000001 0.000000 0.000000 1.577974
 37   2.110541 -0.000001 0.000000 0.198928 -0.106562 -0.194165
 38   0.891923 2.373050 -0.014527 -3.141592 -0.000001 1.413797
 39   7.228119 5.709445 3.726568 3.140796 -1.570796 0.000000
 40   2.450426 5.076127 0.001325 3.140791 -1.570796 0.000000
 41   6.312405 -4.528058 0.001311 3.140791 -1.570796 0.000000
 42   2.233309 1.152535 -7.309138 -1.132179 -1.594241 -0.887226
 43   4.262825 -0.232720 -1.392178 -0.000430 0.078478 0.031757
time 14
  0   1.211939 6.462361 38.227028 -0.000383 -0.005941 -1.790305
  1   -0.077800 1.003937 0.000000 -0.000030 -1.521487 -1.570772
  2   -0.000007 0.000008 4.427393 -0.202654 -3.223998 -0.021210
  3   18.465939 0.000000 0.000000 0.000000 0.000000 -0.418239
  4   14.875443 0.000000 0.000000 -0.070484 0.042637 0.379830
  5   0.000006 -0.000004 -4.427393 0.120105 3.051046 -0.405942
  6   18.465939 0.000000 0.000000 0.000000 0.000000 -0.392365
  7   14.875442 0.000000 0.000000 -0.151118 -0.014668 -0.020929
  8   2.255207 -0.007574 0.109381 -0.147129 0.044658 0.011913
  9   9.514223 -0.009357 0.000000 0.000113 0.009690 -0.069664
 10   11.752194 -0.001492 0.000000 0.014861 -0.021441 0.430918
 11   -1.955537 0.883129 2.677075 1.090706 -1.396834 1.627212
 12   4.640941 0.000000 0.000000 0.141319 1.308295 0.360480
 13   10.828045 0.000000 0.000000 0.000000 0.000000 -0.728534
 14   9.393338 -0.000001 0.000000 -1.567492 0.037557 -0.001819
 15   1.442243 0.107453 -1.746178 1.687477 0.540243 0.327445
 16   1.063450 0.000000 -0.000001 0.000000 0.000000 0.199056
 17   1.376307 -0.000001 0.000001 0.000000 0.000000 0.199049
 18   4.172845 -0.251366 -1.312745 0.008050 0.096558 0.148659
 19   1.215373 0.000001 -0.000001 0.000000 0.000000 0.645758
 20   1.215371 -0.000002 0.000000 0.000000 0.000000 0.644328
 21   4.220532 -0.244855 -0.431465 0.001333 0.026242 0.148339
 22   1.350417 0.000000 0.000001 0.000000 0.000000 0.864702
 23   1.350409 0.000000 -0.000001 0.000000 0.000000 0.861557
 24   -2.064915 0.805014 -2.618473 -0.838216 1.351700 1.881253
 25   4.640942 0.000000 0.000000 -1.456956 -0.581678 1.246767
 26   10.828048 0.000000 0.000001 0.000000 0.000000 -1.632566
 27   9.393336 -0.000001 0.000000 1.942742 0.135110 0.666374
 28   1.442244 0.107454 1.746178 -1.958061 -0.466146 0.708246
 29   1.063451 -0.000001 0.000000 0.000000 0.000000 0.381197
 30   1.376307 -0.000001 0.000000 0.000000 0.000000 0.866194
 31   4.172846 -0.251365 1.312745 0.002029 -0.096043 0.043430
 32   1.215374 0.000001 -0.000001 0.000000 0.000000 0.083584
 33   1.215373 0.000000 0.000001 0.000000 0.000000 1.196198
 34   4.220533 -0.244853 0.431466 0.001412 -0.026242 0.043561
 35   1.350415 -0.000001 -0.000001 0.000000 0.000000 0.986064
 36   1.350410 -0.000001 0.000001 0.000000 0.000000 1.575684
 37   2.110541 -0.000001 0.000000 0.206846 -0.112395 -0.193930
 38   0.891923 2.373050 -0.014527 -3.141592 -0.000001 1.413797
 39   7.228119 5.709445 3.726568 3.140796 -1.570796 0.000000
 40   2.450426 5.076127 0.001325 3.140791 -1.570796 0.000000
 41   6.312405 -4.528058 0.001311 3.140791 -1.570796 0.000000
 42   2.233309 1.152535 -7.309138 -1.136877 -1.614250 -0.884450
 43   4.262825 -0.232720 -1.392178 -0.000250 0.078478 0.034066
time 15
  0   1.235377 6.462361 38.211269 0.002493 -0.005662 -1.788771
  1   -0.066081 0.933622 0.000000 -0.000030 -1.518469 -1.570772
  2   -0.000007 0.000008 4.427393 -0.197576 -3.229489 -0.019876
  3   18.465939 0.000000 0.000000 0.000000 0.000000 -0.413925
  4   14.875443 0.000000 0.000000 -0.073968 0.041658 0.376749
  5   0.000006 -0.000004 -4.427393 0.111000 3.047124 -0.411370
  6   18.465939 0.000000 0.000000 0.000000 0.000000 -0.403458
  7   14.875442 0.000000 0.000000 -0.142976 -0.014153 -0.014701
  8   2.255207 -0.007574 0.117194 -0.140463 0.035231 0.011483
  9   9.514223 -0.009357 0.000000 0.000525 0.008628 -0.071829
 10   11.752194 -0.001492 0.000000 0.012332 -0.010511 0.432496
 11   -1.978975 0.879222 2.657544 1.019439 -1.398471 1.696142
 12   4.640941 0.000000 0.000000 0.182913 1.304543 0.392325
 13   10.828045 0.000000 0.000000 0.000000 0.000000 -0.723531
 14   9.393338 -0.000001 0.000000 -1.569611 0.034195 0.000037
 15   1.442243 0.107453 -1.746178 1.686435 0.539209 0.325885
 16   1.063450 0.000000 -0.000001 0.000000 0.000000 0.199056
 17   1.376307 -0.000001 0.000001 0.000000 0.000000 0.199049
 18   4.172845 -0.251366 -1.312745 0.008050 0.095731 0.148659
 19   1.215373 0.000001 -0.000001 0.000000 0.000000 0.645758
 20   1.215371 -0.000002 0.000000 0.000000 0.000000 0.645758
 21   4.220532 -0.244855 -0.431465 0.001333 0.026242 0.148339
 22   1.350417 0.000000 0.000001 0.000000 0.000000 0.863926
 23   1.350409 0.000000 -0.000001 0.000000 0.000000 0.863926
 24   -2.033664 0.816734 -2.641911 -0.940689 1.373215 1.776217
 25   4.640942 0.000000 0.000000 -1.468109 -0.699955 1.233328
 26   10.828048 0.000000 0.000001 0.000000 0.000000 -1.517603
 27   9.393336 -0.000001 0.000000 1.962392 0.163512 0.652019
 28   1.442244 0.107454 1.746178 -1.937605 -0.475472 0.678379
 29   1.063451 -0.000001 0.000000 0.000000 0.000000 0.366516
 30   1.376307 -0.000001 0.000000 0.000000 0.000000 0.811565
 31   4.172846 -0.251365 1.312745 0.001190 -0.096055 0.052246
 32   1.215374 0.000001 -0.000001 0.000000 0.000000 0.130882
 33   1.215373 0.000000 0.000001 0.000000 0.000000 1.151880
 34   4.220533 -0.244853 0.431466 0.001184 -0.026242 0.052329
 35   1.350415 -0.000001 -0.000001 0.000000 0.000000 0.977377
 36   1.350410 -0.000001 0.000001 0.000000 0.000000 1.518434
 37   2.110541 -0.000001 0.000000 0.206332 -0.114079 -0.191858
 38   0.891923 2.373050 -0.014527 -3.141592 -0.000001 1.413797
 39   7.228119 5.709445 3.726568 3.140796 -1.570796 0.000000
 40   2.450426 5.076127 0.001325 3.140791 -1.570796 0.000000
 41   6.312405 -4.528058 0.001311 3.140791 -1.570796 0.000000
 42   2.233309 1.152535 -7.309138 -1.137644 -1.613260 -0.885790
 43   4.262825 -0.232720 -1.392178 0.001188 0.078478 0.052453
time 16
  0   1.290066 6.480145 38.227028 0.003931 -0.005013 -1.780813
  1   -0.046549 0.796899 0.000000 -0.000030 -1.559069 -1.570772
  2   -0.000007 0.000008 4.427393 -0.192498 -3.183756 -0.042370
  3   18.465939 0.000000 0.000000 0.000000 0.000000 -0.463638
  4   14.875443 0.000000 0.000000 -0.071195 0.039338 0.403572
  5   0.000006 -0.000004 -4.427393 0.121830 3.088068 -0.384979
  6   18.465939 0.000000 0.000000 0.000000 0.000000 -0.349504
  7   14.875442 0.000000 0.000000 -0.128516 -0.013273 -0.042539
  8   2.255207 -0.007574 0.023441 -0.113375 0.063001 0.011119
  9   9.514223 -0.009357 0.000000 -0.000150 0.007580 -0.075206
 10   11.752194 -0.001492 0.000000 0.009803 0.000430 0.434074
 11   -2.006320 0.875316 2.641918 0.953794 -1.399227 1.759328
 12   4.640941 0.000000 0.000000 0.291742 1.287297 0.478200
 13   10.828045 0.000000 0.000000 0.000000 0.000000 -0.699309
 14   9.393338 -0.000001 0.000000 -1.569611 0.034195 0.000037
 15   1.442243 0.107453 -1.746178 1.686435 0.539209 0.325885
 16   1.063450 0.000000 -0.000001 0.000000 0.000000 0.199056
 17   1.376307 -0.000001 0.000001 0.000000 0.000000 0.199049
 18   4.172845 -0.251366 -1.312745 0.008050 0.095731 0.148659
 19   1.215373 0.000001 -0.000001 0.000000 0.000000 0.645758
 20   1.215371 -0.000002 0.000000 0.000000 0.000000 0.645758
 21   4.220532 -0.244855 -0.431465 0.001333 0.026242 0.148339
 22   1.350417 0.000000 0.000001 0.000000 0.000000 0.863926
 23   1.350409 0.000000 -0.000001 0.000000 0.000000 0.863926
 24   -2.002413 0.824546 -2.657537 -0.931154 1.345647 1.788695
 25   4.640942 0.000000 0.000000 -1.282227 -0.679522 1.162775
 26   10.828048 0.000000 0.000001 0.000000 0.000000 -1.437231
 27   9.393336 -0.000001 0.000000 1.765229 0.109962 0.333115
 28   1.442244 0.107454 1.746178 -1.819960 -0.516090 0.511073
 29   1.063451 -0.000001 0.000000 0.000000 0.000000 0.285177
 30   1.376307 -0.000001 0.000000 0.000000 0.000000 0.514050
 31   4.172846 -0.251365 1.312745 -0.003292 -0.096007 0.099050
 32   1.215374 0.000001 -0.000001 0.000000 0.000000 0.380970
 33   1.215373 0.000000 0.000001 0.000000 0.000000 0.906073
 34   4.220533 -0.244853 0.431466 -0.000038 -0.026266 0.098932
 35   1.350415 -0.000001 -0.000001 0.000000 0.000000 0.922273
 36   1.350410 -0.000001 0.000001 0.000000 0.000000 1.200507
 37   2.110541 -0.000001 0.000000 0.188233 -0.106351 -0.186255
 38   0.891923 2.373050 -0.014527 -3.141592 -0.000001 1.413797
 39   7.228119 5.709445 3.726568 3.140796 -1.570796 0.000000
 40   2.450426 5.076127 0.001325 3.140791 -1.570796 0.000000
 41   6.312405 -4.528058 0.001311 3.140791 -1.570796 0.000000
 42   2.233309 1.152535 -7.309138 -1.152984 -1.564476 -0.873248
 43   4.262825 -0.232720 -1.392178 0.008834 0.077999 0.150200
time 17
  0   1.379912 6.489037 38.242783 0.003643 -0.003991 -1.764610
  1   -0.019205 0.589862 0.000000 -0.000030 -1.566254 -1.570772
  2   -0.000007 0.000008 4.427393 -0.186462 -3.170405 -0.048756
  3   18.465939 0.000000 0.000000 0.000000 0.000000 -0.471899
  4   14.875443 0.000000 0.000000 -0.060494 0.034507 0.405350
  5   0.000006 -0.000004 -4.427393 0.118667 3.096677 -0.377585
  6   18.465939 0.000000 0.000000 0.000000 0.000000 -0.335721
  7   14.875442 0.000000 0.000000 -0.106125 -0.011515 -0.047905
  8   2.255207 -0.007574 0.007816 -0.064137 0.050020 0.010193
  9   9.514223 -0.009357 0.000000 -0.001876 0.006371 -0.079839
 10   11.752194 -0.001492 0.000000 0.007299 0.011372 0.435613
 11   -2.033664 0.871410 2.622386 0.887863 -1.399302 1.822801
 12   4.640941 0.000000 0.000000 0.430246 1.251940 0.574261
 13   10.828045 0.000000 0.000000 0.000000 0.000000 -0.652025
 14   9.393338 -0.000001 0.000000 -1.569611 0.034195 0.000037
 15   1.442243 0.107453 -1.746178 1.686435 0.539209 0.325885
 16   1.063450 0.000000 -0.000001 0.000000 0.000000 0.199056
 17   1.376307 -0.000001 0.000001 0.000000 0.000000 0.199049
 18   4.172845 -0.251366 -1.312745 0.008050 0.095731 0.148659
 19   1.215373 0.000001 -0.000001 0.000000 0.000000 0.645758
 20   1.215371 -0.000002 0.000000 0.000000 0.000000 0.645758
 21   4.220532 -0.244855 -0.431465 0.001333 0.026242 0.148339
 22   1.350417 0.000000 0.000001 0.000000 0.000000 0.863926
 23   1.350409 0.000000 -0.000001 0.000000 0.000000 0.863926
 24   -1.975069 0.836265 -2.677069 -0.888110 1.319441 1.835444
 25   4.640942 0.000000 0.000000 -1.072772 -0.652951 1.083682
 26   10.828048 0.000000 0.000001 0.000000 0.000000 -1.283304
 27   9.393336 -0.000001 0.000000 1.569611 -0.034192 0.000001
 28   1.442244 0.107454 1.746178 -1.686405 -0.539236 0.325898
 29   1.063451 -0.000001 0.000000 0.000000 0.000000 0.199056
 30   1.376307 -0.000001 0.000000 0.000000 0.000000 0.199059
 31   4.172846 -0.251365 1.312745 -0.008050 -0.095731 0.148659
 32   1.215374 0.000001 -0.000001 0.000000 0.000000 0.645746
 33   1.215373 0.000000 0.000001 0.000000 0.000000 0.645746
 34   4.220533 -0.244853 0.431466 -0.001333 -0.026242 0.148339
 35   1.350415 -0.000001 -0.000001 0.000000 0.000000 0.863937
 36   1.350410 -0.000001 0.000001 0.000000 0.000000 0.863925
 37   2.110541 -0.000001 0.000000 0.150031 -0.087528 -0.177449
 38   0.891923 2.373050 -0.014527 -3.141592 -0.000001 1.413797
 39   7.228119 5.709445 3.726568 3.140796 -1.570796 0.000000
 40   2.450426 5.076127 0.001325 3.140791 -1.570796 0.000000
 41   6.312405 -4.528058 0.001311 3.140791 -1.570796 0.000000
 42   2.233309 1.152535 -7.309138 -1.147902 -1.552709 -0.880620
 43   4.262825 -0.232720 -1.392178 0.016840 0.076668 0.253759
time 18
  0   1.485384 6.506821 38.274296 0.002397 -0.002692 -1.743613
  1   0.027672 0.343760 0.000000 -0.000030 -1.568726 -1.570772
  2   -0.000007 0.000008 4.427393 -0.180522 -3.159990 -0.052759
  3   18.465939 0.000000 0.000000 0.000000 0.000000 -0.473581
  4   14.875443 0.000000 0.000000 -0.044993 0.028420 0.403098
  5   0.000006 -0.000004 -4.427393 0.114354 3.101078 -0.371596
  6   18.465939 0.000000 0.000000 0.000000 0.000000 -0.326991
  7   14.875442 0.000000 0.000000 -0.079662 -0.009333 -0.049480
  8   2.255207 -0.007574 0.003909 -0.002071 0.028260 0.007844
  9   9.514223 -0.009357 0.000000 -0.004164 0.005040 -0.085208
 10   11.752194 -0.001492 0.000000 0.004830 0.022254 0.437112
 11   -2.061009 0.871410 2.602854 0.822694 -1.398647 1.885603
 12   4.640941 0.000000 0.000000 0.559437 1.202079 0.650301
 13   10.828045 0.000000 0.000000 0.000000 0.000000 -0.591501
 14   9.393338 -0.000001 0.000000 -1.569611 0.034195 0.000037
 15   1.442243 0.107453 -1.746178 1.686435 0.539209 0.325885
 16   1.063450 0.000000 -0.000001 0.000000 0.000000 0.199056
 17   1.376307 -0.000001 0.000001 0.000000 0.000000 0.199049
 18   4.172845 -0.251366 -1.312745 0.008050 0.095731 0.148659
 19   1.215373 0.000001 -0.000001 0.000000 0.000000 0.645758
 20   1.215371 -0.000002 0.000000 0.000000 0.000000 0.645758
 21   4.220532 -0.244855 -0.431465 0.001333 0.026242 0.148339
 22   1.350417 0.000000 0.000001 0.000000 0.000000 0.863926
 23   1.350409 0.000000 -0.000001 0.000000 0.000000 0.863926
 24   -1.947724 0.844078 -2.696600 -0.890517 1.353576 1.828607
 25   4.640942 0.000000 0.000000 -0.985999 -0.801844 0.981841
 26   10.828048 0.000000 0.000001 0.000000 0.000000 -0.974934
 27   9.393336 -0.000001 0.000000 1.542399 -0.062984 -0.053441
 28   1.442244 0.107454 1.746178 -1.662767 -0.541034 0.293353
 29   1.063451 -0.000001 0.000000 0.000000 0.000000 0.184171
 30   1.376307 -0.000001 0.000000 0.000000 0.000000 0.144629
 31   4.172846 -0.251365 1.312745 -0.008865 -0.095660 0.157234
 32   1.215374 0.000001 -0.000001 0.000000 0.000000 0.691533
 33   1.215373 0.000000 0.000001 0.000000 0.000000 0.600756
 34   4.220533 -0.244853 0.431466 -0.001560 -0.026230 0.156866
 35   1.350415 -0.000001 -0.000001 0.000000 0.000000 0.853823
 36   1.350410 -0.000001 0.000001 0.000000 0.000000 0.805721
 37   2.110541 -0.000001 0.000000 0.100621 -0.062151 -0.167985
 38   0.891923 2.373050 -0.014527 -3.141592 -0.000001 1.413797
 39   7.228119 5.709445 3.726568 3.140796 -1.570796 0.000000
 40   2.450426 5.076127 0.001325 3.140791 -1.570796 0.000000
 41   6.312405 -4.528058 0.001311 3.140791 -1.570796 0.000000
 42   2.233309 1.152535 -7.309138 -1.148861 -1.546127 -0.881865
 43   4.262825 -0.232720 -1.392178 0.018206 0.076357 0.271629
time 19
  0   1.598669 6.524605 38.321568 0.000863 -0.001207 -1.721465
  1   0.090174 0.093753 0.000000 -0.000030 -1.569258 -1.570772
  2   -0.000007 0.000008 4.427393 -0.175061 -3.151279 -0.054761
  3   18.465939 0.000000 0.000000 0.000000 0.000000 -0.471607
  4   14.875443 0.000000 0.000000 -0.027715 0.022034 0.399306
  5   0.000006 -0.000004 -4.427393 0.110329 3.103182 -0.366729
  6   18.465939 0.000000 0.000000 0.000000 0.000000 -0.322200
  7   14.875442 0.000000 0.000000 -0.052954 -0.007089 -0.048017
  8   2.255207 -0.007574 0.000003 0.063158 0.003770 0.003807
  9   9.514223 -0.009357 0.000000 -0.006641 0.003683 -0.090728
 10   11.752194 -0.001492 0.000000 0.002409 0.033005 0.438611
 11   -2.088353 0.867503 2.583323 0.758859 -1.397313 1.947066
 12   4.640941 0.000000 0.000000 0.662803 1.145075 0.698302
 13   10.828045 0.000000 0.000000 0.000000 0.000000 -0.527682
 14   9.393338 -0.000001 0.000000 -1.569611 0.034195 0.000037
 15   1.442243 0.107453 -1.746178 1.686435 0.539209 0.325885
 16   1.063450 0.000000 -0.000001 0.000000 0.000000 0.199056
 17   1.376307 -0.000001 0.000001 0.000000 0.000000 0.199049
 18   4.172845 -0.251366 -1.312745 0.008050 0.095731 0.148659
 19   1.215373 0.000001 -0.000001 0.000000 0.000000 0.645758
 20   1.215371 -0.000002 0.000000 0.000000 0.000000 0.645758
 21   4.220532 -0.244855 -0.431465 0.001333 0.026242 0.148339
 22   1.350417 0.000000 0.000001 0.000000 0.000000 0.863926
 23   1.350409 0.000000 -0.000001 0.000000 0.000000 0.863926
 24   -1.916473 0.851891 -2.716132 -0.907364 1.407501 1.805275
 25   4.640942 0.000000 0.000000 -0.869654 -1.004855 0.816236
 26   10.828048 0.000000 0.000001 0.000000 0.000000 -0.604582
 27   9.393336 -0.000001 0.000000 1.555867 -0.048409 -0.026769
 28   1.442244 0.107454 1.746178 -1.674586 -0.540191 0.309626
 29   1.063451 -0.000001 0.000000 0.000000 0.000000 0.191613
 30   1.376307 -0.000001 0.000000 0.000000 0.000000 0.171822
 31   4.172846 -0.251365 1.312745 -0.008458 -0.095695 0.152947
 32   1.215374 0.000001 -0.000001 0.000000 0.000000 0.668618
 33   1.215373 0.000000 0.000001 0.000000 0.000000 0.623251
 34   4.220533 -0.244853 0.431466 -0.001441 -0.026230 0.152622
 35   1.350415 -0.000001 -0.000001 0.000000 0.000000 0.858859
 36   1.350410 -0.000001 0.000001 0.000000 0.000000 0.834823
 37   2.110541 -0.000001 0.000000 0.048588 -0.034848 -0.159745
 38   0.891923 2.373050 -0.014527 -3.141592 -0.000001 1.413797
 39   7.228119 5.709445 3.726568 3.140796 -1.570796 0.000000
 40   2.450426 5.076127 0.001325 3.140791 -1.570796 0.000000
 41   6.312405 -4.528058 0.001311 3.140791 -1.570796 0.000000
 42   2.233309 1.152535 -7.309138 -1.150299 -1.541671 -0.882535
 43   4.262825 -0.232720 -1.392178 0.017523 0.076513 0.262674
time 20
  0   1.700235 6.542389 38.353081 0.000000 0.000000 -1.701715
  1   0.164395 -0.125004 0.000000 -1.570795 -1.570451 0.000000
  2   -0.000007 0.000008 4.427393 -0.171037 -3.142852 -0.056095
  3   18.465939 0.000000 0.000000 0.000000 0.000000 -0.469779
  4   14.875443 0.000000 0.000000 -0.011361 0.016224 0.396501
  5   0.000006 -0.000004 -4.427393 0.107454 3.105574 -0.362050
  6   18.465939 0.000000 0.000000 0.000000 0.000000 -0.318918
  7   14.875442 0.000000 0.000000 -0.029685 -0.005119 -0.045428
  8   2.255207 -0.007574 0.000003 0.122101 -0.017401 -0.001322
  9   9.514223 -0.009357 0.000000 -0.008779 0.002352 -0.095902
 10   11.752194 -0.001492 0.000000 0.000024 0.043599 0.440031
 11   -2.111792 0.863597 2.563791 0.697216 -1.395374 2.006326
 12   4.640941 0.000000 0.000000 0.738480 1.089874 0.724820
 13   10.828045 0.000000 0.000000 0.000000 0.000000 -0.470452
 14   9.393338 -0.000001 0.000000 -1.569611 0.034195 0.000037
 15   1.442243 0.107453 -1.746178 1.686435 0.539209 0.325885
 16   1.063450 0.000000 -0.000001 0.000000 0.000000 0.199056
 17   1.376307 -0.000001 0.000001 0.000000 0.000000 0.199049
 18   4.172845 -0.251366 -1.312745 0.008050 0.095731 0.148659
 19   1.215373 0.000001 -0.000001 0.000000 0.000000 0.645758
 20   1.215371 -0.000002 0.000000 0.000000 0.000000 0.645758
 21   4.220532 -0.244855 -0.431465 0.001333 0.026242 0.148339
 22   1.350417 0.000000 0.000001 0.000000 0.000000 0.863926
 23   1.350409 0.000000 -0.000001 0.000000 0.000000 0.863926
 24   -1.885222 0.863610 -2.731758 -0.942447 1.461427 1.764337
 25   4.640942 0.000000 0.000000 -0.601477 -1.183875 0.506934
 26   10.828048 0.000000 0.000001 0.000000 0.000000 -0.234230
 27   9.393336 -0.000001 0.000000 1.569611 -0.034192 0.000001
 28   1.442244 0.107454 1.746178 -1.686405 -0.539236 0.325898
 29   1.063451 -0.000001 0.000000 0.000000 0.000000 0.199056
 30   1.376307 -0.000001 0.000000 0.000000 0.000000 0.199059
 31   4.172846 -0.251365 1.312745 -0.008050 -0.095731 0.148659
 32   1.215374 0.000001 -0.000001 0.000000 0.000000 0.645746
 33   1.215373 0.000000 0.000001 0.000000 0.000000 0.645746
 34   4.220533 -0.244853 0.431466 -0.001333 -0.026242 0.148339
 35   1.350415 -0.000001 -0.000001 0.000000 0.000000 0.863937
 36   1.350410 -0.000001 0.000001 0.000000 0.000000 0.863925
 37   2.110541 -0.000001 0.000000 0.002417 -0.010493 -0.153718
 38   0.891923 2.373050 -0.014527 -3.141592 -0.000001 1.413797
 39   7.228119 5.709445 3.726568 3.140796 -1.570796 0.000000
 40   2.450426 5.076127 0.001325 3.140791 -1.570796 0.000000
 41   6.312405 -4.528058 0.001311 3.140791 -1.570796 0.000000
 42   2.233309 1.152535 -7.309138 -1.151450 -1.536137 -0.883588
 43   4.262825 -0.232720 -1.392178 0.016840 0.076668 0.253759
end
