version 1
nodes
  0 "Bip01" -1
  1 "Bip01 Pelvis" 0
  2 "Bip01 L Thigh" 1
  3 "Bip01 L Calf" 2
  4 "Bip01 L Foot" 3
  5 "Bip01 R Thigh" 1
  6 "Bip01 R Calf" 5
  7 "Bip01 R Foot" 6
  8 "Bip01 Spine" 1
  9 "Bip01 Spine1" 8
 10 "Bip01 Neck" 9
 11 "Bip01 L Clavicle" 10
 12 "Bip01 L UpperArm" 11
 13 "Bip01 L Forearm" 12
 14 "Bip01 L Hand" 13
 15 "Bip01 L Finger0" 14
 16 "Bip01 L Finger01" 15
 17 "Bip01 L Finger02" 16
 18 "Bip01 L Finger1" 14
 19 "Bip01 L Finger11" 18
 20 "Bip01 L Finger12" 19
 21 "Bip01 L Finger2" 14
 22 "Bip01 L Finger21" 21
 23 "Bip01 L Finger22" 22
 24 "Bip01 R Clavicle" 10
 25 "Bip01 R UpperArm" 24
 26 "Bip01 R Forearm" 25
 27 "Bip01 R Hand" 26
 28 "Bip01 R Finger0" 27
 29 "Bip01 R Finger01" 28
 30 "Bip01 R Finger02" 29
 31 "Bip01 R Finger1" 27
 32 "Bip01 R Finger11" 31
 33 "Bip01 R Finger12" 32
 34 "Bip01 R Finger2" 27
 35 "Bip01 R Finger21" 34
 36 "Bip01 R Finger22" 35
 37 "Bip01 Head" 10
 38 "Bone05" 37
 39 "Bone08" 9
 40 "Bone16" 8
 41 "Bone01" 8
 42 "Bone03" 1
 43 "Bip01 R Finger4" 27
end
skeleton
time 0
  0   0.000964 0.006728 40.527515 0.000000 -1.081507 -1.570843
  1   -4.288866 2.894619 0.000000 -1.570795 -1.570451 0.000000
  2   -0.000007 0.000008 4.427393 -0.165671 -3.207238 0.591473
  3   18.465939 0.000000 0.000000 0.000000 0.000000 -0.638804
  4   14.875443 0.000000 0.000000 0.107881 0.141928 0.117290
  5   0.000006 -0.000004 -4.427393 -0.027779 3.141351 -1.366421
  6   18.465939 0.000000 0.000000 0.000000 0.000000 -1.013089
  7   14.875442 0.000000 0.000000 0.004428 0.027408 -0.389502
  8   2.255207 -0.007574 0.000003 -0.479817 0.101062 0.302323
  9   9.518129 -0.009357 0.003906 -0.602642 0.280829 0.502090
 10   11.752194 -0.001492 0.000000 -0.000012 -0.026163 -0.010141
 11   -2.103979 -0.093463 2.704420 -0.508693 -1.372509 3.648770
 12   4.640941 0.000000 0.000000 -2.084176 -0.419951 0.375173
 13   10.828045 0.000000 0.000000 0.000000 0.000000 -1.350737
 14   9.393338 -0.000001 0.000000 -1.583431 0.014633 -0.251841
 15   1.442243 0.107453 -1.746178 1.372942 0.516925 -0.281962
 16   1.063450 0.000000 -0.000001 0.000000 0.000000 0.000004
 17   1.376307 -0.000001 0.000001 0.000000 0.000000 0.000006
 18   4.172845 -0.251366 -1.312745 -0.001190 0.096055 0.052246
 19   1.215373 0.000001 -0.000001 0.000000 0.000000 0.000011
 20   1.215371 -0.000002 0.000000 0.000000 0.000000 0.000011
 21   4.220532 -0.244855 -0.431465 -0.001184 0.026242 0.052329
 22   1.350417 0.000000 0.000001 0.000000 0.000000 0.000004
 23   1.350409 0.000000 -0.000001 0.000000 0.000000 0.000004
 24   -2.244608 -0.093450 -2.595035 -0.605962 1.339172 2.554116
 25   4.640942 0.000000 0.000000 -0.580523 -0.367091 -0.110060
 26   10.828048 0.000000 0.000001 0.000000 0.000000 -0.672030
 27   9.393336 -0.000001 0.000000 1.830472 0.002570 -0.262989
 28   1.442244 0.107454 1.746178 -1.373018 -0.516933 -0.281945
 29   1.063451 -0.000001 0.000000 0.000000 0.000000 0.000004
 30   1.376307 -0.000001 0.000000 0.000000 0.000000 0.000003
 31   4.172846 -0.251365 1.312745 0.001190 -0.096055 0.052246
 32   1.215374 0.000001 -0.000001 0.000000 0.000000 0.000026
 33   1.215373 0.000000 0.000001 0.000000 0.000000 0.000026
 34   4.220533 -0.244853 0.431466 0.001184 -0.026242 0.052329
 35   1.350415 -0.000001 -0.000001 0.000000 0.000000 0.000026
 36   1.350410 -0.000001 0.000001 0.000000 0.000000 0.000024
 37   2.110541 -0.000001 0.000000 1.013920 0.583991 -0.962711
 38   0.891923 2.373050 -0.014527 -3.141592 -0.000001 1.413797
 39   7.228119 5.709445 3.726568 3.140796 -1.570796 0.000000
 40   2.450426 5.076127 0.001325 3.140791 -1.570796 0.000000
 41   6.312405 -4.528058 0.001311 3.140791 -1.570796 0.000000
 42   2.233309 1.152535 -7.309138 -1.570796 -1.570796 0.000000
 43   4.262825 -0.232720 -1.392178 0.001188 0.078478 0.052453
time 1
  0   0.000964 0.006728 40.354191 0.000000 -1.081507 -1.570843
  1   -4.081829 2.425855 0.000000 -1.570795 -1.570451 0.000000
  2   -0.000007 0.000008 4.427393 -0.180234 -3.170027 0.479860
  3   18.465939 0.000000 0.000000 0.000000 0.000000 -0.641289
  4   14.875443 0.000000 0.000000 0.061557 0.108852 0.065185
  5   0.000006 -0.000004 -4.427393 -0.038129 3.116766 -1.209009
  6   18.465939 0.000000 0.000000 0.000000 0.000000 -1.012696
  7   14.875442 0.000000 0.000000 0.054546 0.014343 -0.337841
  8   2.255207 -0.007574 0.000003 -0.407373 0.085016 0.273835
  9   9.518129 -0.009357 0.003906 -0.560660 0.240805 0.433378
 10   11.752194 -0.001492 0.000000 -0.000012 -0.026163 -0.010141
 11   -2.103979 -0.093463 2.704420 -0.508693 -1.372509 3.648770
 12   4.640941 0.000000 0.000000 -1.949459 -0.384449 0.158232
 13   10.828045 0.000000 0.000000 0.000000 0.000000 -1.305893
 14   9.393338 -0.000001 0.000000 -1.583431 0.014633 -0.251841
 15   1.442243 0.107453 -1.746178 1.372942 0.516925 -0.281962
 16   1.063450 0.000000 -0.000001 0.000000 0.000000 0.000004
 17   1.376307 -0.000001 0.000001 0.000000 0.000000 0.000006
 18   4.172845 -0.251366 -1.312745 -0.001190 0.096055 0.052246
 19   1.215373 0.000001 -0.000001 0.000000 0.000000 0.000011
 20   1.215371 -0.000002 0.000000 0.000000 0.000000 0.000011
 21   4.220532 -0.244855 -0.431465 -0.001184 0.026242 0.052329
 22   1.350417 0.000000 0.000001 0.000000 0.000000 0.000004
 23   1.350409 0.000000 -0.000001 0.000000 0.000000 0.000004
 24   -2.244608 -0.093450 -2.595035 -0.605962 1.339172 2.554116
 25   4.640942 0.000000 0.000000 -0.566160 -0.433970 -0.011229
 26   10.828048 0.000000 0.000001 0.000000 0.000000 -0.720510
 27   9.393336 -0.000001 0.000000 1.830472 0.002570 -0.262989
 28   1.442244 0.107454 1.746178 -1.373018 -0.516933 -0.281945
 29   1.063451 -0.000001 0.000000 0.000000 0.000000 0.000004
 30   1.376307 -0.000001 0.000000 0.000000 0.000000 0.000003
 31   4.172846 -0.251365 1.312745 0.001190 -0.096055 0.052246
 32   1.215374 0.000001 -0.000001 0.000000 0.000000 0.000026
 33   1.215373 0.000000 0.000001 0.000000 0.000000 0.000026
 34   4.220533 -0.244853 0.431466 0.001184 -0.026242 0.052329
 35   1.350415 -0.000001 -0.000001 0.000000 0.000000 0.000026
 36   1.350410 -0.000001 0.000001 0.000000 0.000000 0.000024
 37   2.110541 -0.000001 0.000000 0.883478 0.544481 -0.953765
 38   0.891923 2.373050 -0.014527 -3.141592 -0.000001 1.413797
 39   7.228119 5.709445 3.726568 3.140796 -1.570796 0.000000
 40   2.450426 5.076127 0.001325 3.140791 -1.570796 0.000000
 41   6.312405 -4.528058 0.001311 3.140791 -1.570796 0.000000
 42   2.233309 1.152535 -7.309138 -1.570796 -1.570796 0.000000
 43   4.262825 -0.232720 -1.392178 0.001188 0.078478 0.052453
time 2
  0   0.000964 0.006728 40.054810 0.000000 -1.081507 -1.570843
  1   -3.741974 1.945372 0.000000 -1.570795 -1.570451 0.000000
  2   -0.000007 0.000008 4.427393 -0.191540 -3.129690 0.371963
  3   18.465939 0.000000 0.000000 0.000000 0.000000 -0.643848
  4   14.875443 0.000000 0.000000 0.006024 0.076202 0.017110
  5   0.000006 -0.000004 -4.427393 -0.045509 3.087685 -1.045606
  6   18.465939 0.000000 0.000000 0.000000 0.000000 -1.012236
  7   14.875442 0.000000 0.000000 0.113964 0.006370 -0.282727
  8   2.255207 -0.007574 0.000003 -0.327249 0.069796 0.241277
  9   9.514223 -0.009357 0.003906 -0.511775 0.200122 0.356570
 10   11.752194 -0.001492 0.000000 -0.000012 -0.026163 -0.010141
 11   -2.103979 -0.093463 2.704420 -0.508693 -1.372509 3.648770
 12   4.640941 0.000000 0.000000 -1.800340 -0.318569 -0.061519
 13   10.828045 0.000000 0.000000 0.000000 0.000000 -1.260683
 14   9.393338 -0.000001 0.000000 -1.583431 0.014633 -0.251841
 15   1.442243 0.107453 -1.746178 1.372942 0.516925 -0.281962
 16   1.063450 0.000000 -0.000001 0.000000 0.000000 0.000004
 17   1.376307 -0.000001 0.000001 0.000000 0.000000 0.000006
 18   4.172845 -0.251366 -1.312745 -0.001190 0.096055 0.052246
 19   1.215373 0.000001 -0.000001 0.000000 0.000000 0.000011
 20   1.215371 -0.000002 0.000000 0.000000 0.000000 0.000011
 21   4.220532 -0.244855 -0.431465 -0.001184 0.026242 0.052329
 22   1.350417 0.000000 0.000001 0.000000 0.000000 0.000004
 23   1.350409 0.000000 -0.000001 0.000000 0.000000 0.000004
 24   -2.244608 -0.093450 -2.595035 -0.605962 1.339172 2.554116
 25   4.640942 0.000000 0.000000 -0.566751 -0.485368 0.127638
 26   10.828048 0.000000 0.000001 0.000000 0.000000 -0.769440
 27   9.393336 -0.000001 0.000000 1.830472 0.002570 -0.262989
 28   1.442244 0.107454 1.746178 -1.373018 -0.516933 -0.281945
 29   1.063451 -0.000001 0.000000 0.000000 0.000000 0.000004
 30   1.376307 -0.000001 0.000000 0.000000 0.000000 0.000003
 31   4.172846 -0.251365 1.312745 0.001190 -0.096055 0.052246
 32   1.215374 0.000001 -0.000001 0.000000 0.000000 0.000026
 33   1.215373 0.000000 0.000001 0.000000 0.000000 0.000026
 34   4.220533 -0.244853 0.431466 0.001184 -0.026242 0.052329
 35   1.350415 -0.000001 -0.000001 0.000000 0.000000 0.000026
 36   1.350410 -0.000001 0.000001 0.000000 0.000000 0.000024
 37   2.110541 -0.000001 0.000000 0.741776 0.493695 -0.949244
 38   0.891923 2.373050 -0.014527 -3.141592 -0.000001 1.413797
 39   7.228119 5.709445 3.726568 3.140796 -1.570796 0.000000
 40   2.450426 5.076127 0.001325 3.140791 -1.570796 0.000000
 41   6.312405 -4.528058 0.001311 3.140791 -1.570796 0.000000
 42   2.233309 1.152535 -7.309138 -1.570796 -1.570796 0.000000
 43   4.262825 -0.232720 -1.392178 0.001188 0.078478 0.052453
time 3
  0   0.000964 0.006728 39.629379 0.000000 -1.081507 -1.570843
  1   -3.265397 1.492233 0.000000 -1.570795 -1.570451 0.000000
  2   -0.000007 0.000008 4.427393 -0.198822 -3.087555 0.265687
  3   18.465939 0.000000 0.000000 0.000000 0.000000 -0.646553
  4   14.875443 0.000000 0.000000 -0.053952 0.046788 -0.028991
  5   0.000006 -0.000004 -4.427393 -0.048384 3.056499 -0.879677
  6   18.465939 0.000000 0.000000 0.000000 0.000000 -1.011777
  7   14.875442 0.000000 0.000000 0.177874 0.005673 -0.227201
  8   2.255207 -0.007574 0.000003 -0.241261 0.056461 0.205277
  9   9.514223 -0.009357 0.003906 -0.456549 0.160877 0.272964
 10   11.752194 -0.001492 0.000000 -0.000012 -0.026163 -0.010141
 11   -2.103979 -0.093463 2.704420 -0.508693 -1.372509 3.648770
 12   4.640941 0.000000 0.000000 -1.650289 -0.213652 -0.267631
 13   10.828045 0.000000 0.000000 0.000000 0.000000 -1.215290
 14   9.393338 -0.000001 0.000000 -1.583431 0.014633 -0.251841
 15   1.442243 0.107453 -1.746178 1.372942 0.516925 -0.281962
 16   1.063450 0.000000 -0.000001 0.000000 0.000000 0.000004
 17   1.376307 -0.000001 0.000001 0.000000 0.000000 0.000006
 18   4.172845 -0.251366 -1.312745 -0.001190 0.096055 0.052246
 19   1.215373 0.000001 -0.000001 0.000000 0.000000 0.000011
 20   1.215371 -0.000002 0.000000 0.000000 0.000000 0.000011
 21   4.220532 -0.244855 -0.431465 -0.001184 0.026242 0.052329
 22   1.350417 0.000000 0.000001 0.000000 0.000000 0.000004
 23   1.350409 0.000000 -0.000001 0.000000 0.000000 0.000004
 24   -2.244608 -0.093450 -2.595035 -0.605962 1.339172 2.554116
 25   4.640942 0.000000 0.000000 -0.574355 -0.518913 0.286734
 26   10.828048 0.000000 0.000001 0.000000 0.000000 -0.818306
 27   9.393336 -0.000001 0.000000 1.830472 0.002570 -0.262989
 28   1.442244 0.107454 1.746178 -1.373018 -0.516933 -0.281945
 29   1.063451 -0.000001 0.000000 0.000000 0.000000 0.000004
 30   1.376307 -0.000001 0.000000 0.000000 0.000000 0.000003
 31   4.172846 -0.251365 1.312745 0.001190 -0.096055 0.052246
 32   1.215374 0.000001 -0.000001 0.000000 0.000000 0.000026
 33   1.215373 0.000000 0.000001 0.000000 0.000000 0.000026
 34   4.220533 -0.244853 0.431466 0.001184 -0.026242 0.052329
 35   1.350415 -0.000001 -0.000001 0.000000 0.000000 0.000026
 36   1.350410 -0.000001 0.000001 0.000000 0.000000 0.000024
 37   2.110541 -0.000001 0.000000 0.597092 0.427034 -0.944913
 38   0.891923 2.373050 -0.014527 -3.141592 -0.000001 1.413797
 39   7.228119 5.709445 3.726568 3.140796 -1.570796 0.000000
 40   2.450426 5.076127 0.001325 3.140791 -1.570796 0.000000
 41   6.312405 -4.528058 0.001311 3.140791 -1.570796 0.000000
 42   2.233309 1.152535 -7.309138 -1.570796 -1.570796 0.000000
 43   4.262825 -0.232720 -1.392178 0.001188 0.078478 0.052453
time 4
  0   0.000964 0.006728 39.093647 0.000000 -1.081507 -1.570843
  1   -2.652097 1.105502 0.000000 -1.570795 -1.570451 0.000000
  2   -0.000007 0.000008 4.427393 -0.201313 -3.045325 0.158744
  3   18.465939 0.000000 0.000000 0.000000 0.000000 -0.649185
  4   14.875443 0.000000 0.000000 -0.113573 0.022779 -0.075368
  5   0.000006 -0.000004 -4.427393 -0.045988 3.025983 -0.714497
  6   18.465939 0.000000 0.000000 0.000000 0.000000 -1.011317
  7   14.875442 0.000000 0.000000 0.241047 0.013100 -0.173776
  8   2.255207 -0.007574 0.000003 -0.151138 0.045915 0.166697
  9   9.514223 -0.009357 0.000000 -0.395996 0.124979 0.184076
 10   11.752194 -0.001492 0.000000 -0.000012 -0.026163 -0.010141
 11   -2.103979 -0.093463 2.704420 -0.508693 -1.372509 3.648770
 12   4.640941 0.000000 0.000000 -1.509675 -0.069481 -0.446054
 13   10.828045 0.000000 0.000000 0.000000 0.000000 -1.169713
 14   9.393338 -0.000001 0.000000 -1.583431 0.014633 -0.251841
 15   1.442243 0.107453 -1.746178 1.372942 0.516925 -0.281962
 16   1.063450 0.000000 -0.000001 0.000000 0.000000 0.000004
 17   1.376307 -0.000001 0.000001 0.000000 0.000000 0.000006
 18   4.172845 -0.251366 -1.312745 -0.001190 0.096055 0.052246
 19   1.215373 0.000001 -0.000001 0.000000 0.000000 0.000011
 20   1.215371 -0.000002 0.000000 0.000000 0.000000 0.000011
 21   4.220532 -0.244855 -0.431465 -0.001184 0.026242 0.052329
 22   1.350417 0.000000 0.000001 0.000000 0.000000 0.000004
 23   1.350409 0.000000 -0.000001 0.000000 0.000000 0.000004
 24   -2.244608 -0.093450 -2.595035 -0.605962 1.339172 2.554116
 25   4.640942 0.000000 0.000000 -0.576045 -0.535790 0.442890
 26   10.828048 0.000000 0.000001 0.000000 0.000000 -0.866786
 27   9.393336 -0.000001 0.000000 1.830472 0.002570 -0.262989
 28   1.442244 0.107454 1.746178 -1.373018 -0.516933 -0.281945
 29   1.063451 -0.000001 0.000000 0.000000 0.000000 0.000004
 30   1.376307 -0.000001 0.000000 0.000000 0.000000 0.000003
 31   4.172846 -0.251365 1.312745 0.001190 -0.096055 0.052246
 32   1.215374 0.000001 -0.000001 0.000000 0.000000 0.000026
 33   1.215373 0.000000 0.000001 0.000000 0.000000 0.000026
 34   4.220533 -0.244853 0.431466 0.001184 -0.026242 0.052329
 35   1.350415 -0.000001 -0.000001 0.000000 0.000000 0.000026
 36   1.350410 -0.000001 0.000001 0.000000 0.000000 0.000024
 37   2.110541 -0.000001 0.000000 0.457498 0.342421 -0.935119
 38   0.891923 2.373050 -0.014527 -3.141592 -0.000001 1.413797
 39   7.228119 5.709445 3.726568 3.140796 -1.570796 0.000000
 40   2.450426 5.076127 0.001325 3.140791 -1.570796 0.000000
 41   6.312405 -4.528058 0.001311 3.140791 -1.570796 0.000000
 42   2.233309 1.152535 -7.309138 -1.570796 -1.570796 0.000000
 43   4.262825 -0.232720 -1.392178 0.001188 0.078478 0.052453
time 5
  0   0.000964 0.006728 38.463379 0.000000 -1.081507 -1.570843
  1   -1.937232 0.820338 0.000000 -1.570795 -1.570451 0.000000
  2   -0.000007 0.000008 4.427393 -0.198726 -3.004515 0.048846
  3   18.465939 0.000000 0.000000 0.000000 0.000000 -0.651670
  4   14.875443 0.000000 0.000000 -0.167683 0.005582 -0.124550
  5   0.000006 -0.000004 -4.427393 -0.038513 2.998815 -0.553528
  6   18.465939 0.000000 0.000000 0.000000 0.000000 -1.010923
  7   14.875442 0.000000 0.000000 0.297938 0.028014 -0.124591
  8   2.255207 -0.007574 0.000003 -0.058905 0.038766 0.126529
  9   9.514223 -0.009357 0.000000 -0.331391 0.094040 0.091637
 10   11.752194 -0.001492 0.000000 -0.000012 -0.026163 -0.010141
 11   -2.103979 -0.093463 2.704420 -0.508693 -1.372509 3.648770
 12   4.640941 0.000000 0.000000 -1.381539 0.107665 -0.587833
 13   10.828045 0.000000 0.000000 0.000000 0.000000 -1.124259
 14   9.393338 -0.000001 0.000000 -1.583431 0.014633 -0.251841
 15   1.442243 0.107453 -1.746178 1.372942 0.516925 -0.281962
 16   1.063450 0.000000 -0.000001 0.000000 0.000000 0.000004
 17   1.376307 -0.000001 0.000001 0.000000 0.000000 0.000006
 18   4.172845 -0.251366 -1.312745 -0.001190 0.096055 0.052246
 19   1.215373 0.000001 -0.000001 0.000000 0.000000 0.000011
 20   1.215371 -0.000002 0.000000 0.000000 0.000000 0.000011
 21   4.220532 -0.244855 -0.431465 -0.001184 0.026242 0.052329
 22   1.350417 0.000000 0.000001 0.000000 0.000000 0.000004
 23   1.350409 0.000000 -0.000001 0.000000 0.000000 0.000004
 24   -2.244608 -0.093450 -2.595035 -0.605962 1.339172 2.554116
 25   4.640942 0.000000 0.000000 -0.557880 -0.541369 0.571958
 26   10.828048 0.000000 0.000001 0.000000 0.000000 -0.914302
 27   9.393336 -0.000001 0.000000 1.830472 0.002570 -0.262989
 28   1.442244 0.107454 1.746178 -1.373018 -0.516933 -0.281945
 29   1.063451 -0.000001 0.000000 0.000000 0.000000 0.000004
 30   1.376307 -0.000001 0.000000 0.000000 0.000000 0.000003
 31   4.172846 -0.251365 1.312745 0.001190 -0.096055 0.052246
 32   1.215374 0.000001 -0.000001 0.000000 0.000000 0.000026
 33   1.215373 0.000000 0.000001 0.000000 0.000000 0.000026
 34   4.220533 -0.244853 0.431466 0.001184 -0.026242 0.052329
 35   1.350415 -0.000001 -0.000001 0.000000 0.000000 0.000026
 36   1.350410 -0.000001 0.000001 0.000000 0.000000 0.000024
 37   2.110541 -0.000001 0.000000 0.329113 0.240940 -0.914212
 38   0.891923 2.373050 -0.014527 -3.141592 -0.000001 1.413797
 39   7.228119 5.709445 3.726568 3.140796 -1.570796 0.000000
 40   2.450426 5.076127 0.001325 3.140791 -1.570796 0.000000
 41   6.312405 -4.528058 0.001311 3.140791 -1.570796 0.000000
 42   2.233309 1.152535 -7.309138 -1.570796 -1.570796 0.000000
 43   4.262825 -0.232720 -1.392178 0.001188 0.078478 0.052453
time 6
  0   0.000964 0.006728 37.785835 0.000000 -1.081507 -1.570843
  1   -1.155958 0.664083 0.000000 -1.570795 -1.570451 0.000000
  2   -0.000007 0.000008 4.427393 -0.190390 -2.966925 -0.066485
  3   18.465939 0.000000 0.000000 0.000000 0.000000 -0.654010
  4   14.875443 0.000000 0.000000 -0.211022 -0.004166 -0.178946
  5   0.000006 -0.000004 -4.427393 -0.027203 2.977482 -0.400327
  6   18.465939 0.000000 0.000000 0.000000 0.000000 -1.010595
  7   14.875442 0.000000 0.000000 0.343037 0.048325 -0.081483
  8   2.255207 -0.007574 0.000003 0.033497 0.035369 0.085864
  9   9.514223 -0.009357 0.000000 -0.264348 0.069230 -0.002381
 10   11.752194 -0.001492 0.000000 -0.000012 -0.026163 -0.010141
 11   -2.103979 -0.093463 2.704420 -0.508693 -1.372509 3.648770
 12   4.640941 0.000000 0.000000 -1.260852 0.307686 -0.687464
 13   10.828045 0.000000 0.000000 0.000000 0.000000 -1.078927
 14   9.393338 -0.000001 0.000000 -1.583431 0.014633 -0.251841
 15   1.442243 0.107453 -1.746178 1.372942 0.516925 -0.281962
 16   1.063450 0.000000 -0.000001 0.000000 0.000000 0.000004
 17   1.376307 -0.000001 0.000001 0.000000 0.000000 0.000006
 18   4.172845 -0.251366 -1.312745 -0.001190 0.096055 0.052246
 19   1.215373 0.000001 -0.000001 0.000000 0.000000 0.000011
 20   1.215371 -0.000002 0.000000 0.000000 0.000000 0.000011
 21   4.220532 -0.244855 -0.431465 -0.001184 0.026242 0.052329
 22   1.350417 0.000000 0.000001 0.000000 0.000000 0.000004
 23   1.350409 0.000000 -0.000001 0.000000 0.000000 0.000004
 24   -2.244608 -0.093450 -2.595035 -0.605962 1.339172 2.554116
 25   4.640942 0.000000 0.000000 -0.508283 -0.542415 0.650981
 26   10.828048 0.000000 0.000001 0.000000 0.000000 -0.960532
 27   9.393336 -0.000001 0.000000 1.830472 0.002570 -0.262989
 28   1.442244 0.107454 1.746178 -1.373018 -0.516933 -0.281945
 29   1.063451 -0.000001 0.000000 0.000000 0.000000 0.000004
 30   1.376307 -0.000001 0.000000 0.000000 0.000000 0.000003
 31   4.172846 -0.251365 1.312745 0.001190 -0.096055 0.052246
 32   1.215374 0.000001 -0.000001 0.000000 0.000000 0.000026
 33   1.215373 0.000000 0.000001 0.000000 0.000000 0.000026
 34   4.220533 -0.244853 0.431466 0.001184 -0.026242 0.052329
 35   1.350415 -0.000001 -0.000001 0.000000 0.000000 0.000026
 36   1.350410 -0.000001 0.000001 0.000000 0.000000 0.000024
 37   2.110541 -0.000001 0.000000 0.214507 0.126499 -0.878097
 38   0.891923 2.373050 -0.014527 -3.141592 -0.000001 1.413797
 39   7.228119 5.709445 3.726568 3.140796 -1.570796 0.000000
 40   2.450426 5.076127 0.001325 3.140791 -1.570796 0.000000
 41   6.312405 -4.528058 0.001311 3.140791 -1.570796 0.000000
 42   2.233309 1.152535 -7.309138 -1.570796 -1.570796 0.000000
 43   4.262825 -0.232720 -1.392178 0.001188 0.078478 0.052453
time 7
  0   0.000964 0.006728 37.076782 0.000000 -1.081507 -1.570843
  1   -0.362965 0.640645 0.000000 -1.570795 -1.570451 0.000000
  2   -0.000007 0.000008 4.427393 -0.176402 -2.934353 -0.189155
  3   18.465939 0.000000 0.000000 0.000000 0.000000 -0.655984
  4   14.875443 0.000000 0.000000 -0.238361 -0.006614 -0.241204
  5   0.000006 -0.000004 -4.427393 -0.013977 2.963994 -0.259011
  6   18.465939 0.000000 0.000000 0.000000 0.000000 -1.010333
  7   14.875442 0.000000 0.000000 0.371324 0.070757 -0.046479
  8   2.255207 -0.007574 0.000003 0.124126 0.035683 0.045894
  9   9.514223 -0.009357 0.000000 -0.196741 0.051139 -0.095816
 10   11.752194 -0.001492 0.000000 -0.000012 -0.026163 -0.010141
 11   -2.103979 -0.093463 2.704420 -0.508693 -1.372509 3.648770
 12   4.640941 0.000000 0.000000 -1.134889 0.518747 -0.737807
 13   10.828045 0.000000 0.000000 0.000000 0.000000 -1.033961
 14   9.393338 -0.000001 0.000000 -1.583431 0.014633 -0.251841
 15   1.442243 0.107453 -1.746178 1.372942 0.516925 -0.281962
 16   1.063450 0.000000 -0.000001 0.000000 0.000000 0.000004
 17   1.376307 -0.000001 0.000001 0.000000 0.000000 0.000006
 18   4.172845 -0.251366 -1.312745 -0.001190 0.096055 0.052246
 19   1.215373 0.000001 -0.000001 0.000000 0.000000 0.000011
 20   1.215371 -0.000002 0.000000 0.000000 0.000000 0.000011
 21   4.220532 -0.244855 -0.431465 -0.001184 0.026242 0.052329
 22   1.350417 0.000000 0.000001 0.000000 0.000000 0.000004
 23   1.350409 0.000000 -0.000001 0.000000 0.000000 0.000004
 24   -2.244608 -0.093450 -2.595035 -0.605962 1.339172 2.554116
 25   4.640942 0.000000 0.000000 -0.403429 -0.541996 0.650561
 26   10.828048 0.000000 0.000001 0.000000 0.000000 -1.010941
 27   9.393336 -0.000001 0.000000 1.830472 0.002570 -0.262989
 28   1.442244 0.107454 1.746178 -1.373018 -0.516933 -0.281945
 29   1.063451 -0.000001 0.000000 0.000000 0.000000 0.000004
 30   1.376307 -0.000001 0.000000 0.000000 0.000000 0.000003
 31   4.172846 -0.251365 1.312745 0.001190 -0.096055 0.052246
 32   1.215374 0.000001 -0.000001 0.000000 0.000000 0.000026
 33   1.215373 0.000000 0.000001 0.000000 0.000000 0.000026
 34   4.220533 -0.244853 0.431466 0.001184 -0.026242 0.052329
 35   1.350415 -0.000001 -0.000001 0.000000 0.000000 0.000026
 36   1.350410 -0.000001 0.000001 0.000000 0.000000 0.000024
 37   2.110541 -0.000001 0.000000 0.112806 0.005143 -0.824230
 38   0.891923 2.373050 -0.014527 -3.141592 -0.000001 1.413797
 39   7.228119 5.709445 3.726568 3.140796 -1.570796 0.000000
 40   2.450426 5.076127 0.001325 3.140791 -1.570796 0.000000
 41   6.312405 -4.528058 0.001311 3.140791 -1.570796 0.000000
 42   2.233309 1.152535 -7.309138 -1.570796 -1.570796 0.000000
 43   4.262825 -0.232720 -1.392178 0.001188 0.078478 0.052453
time 8
  0   0.000964 0.006728 36.414997 0.000000 -1.081507 -1.570843
  1   0.387058 0.738304 0.000000 -1.570795 -1.570451 0.000000
  2   -0.000007 0.000008 4.427393 -0.156665 -2.908882 -0.321451
  3   18.465939 0.000000 0.000000 0.000000 0.000000 -0.657592
  4   14.875443 0.000000 0.000000 -0.244725 -0.002676 -0.313929
  5   0.000006 -0.000004 -4.427393 -0.001039 2.959689 -0.133792
  6   18.465939 0.000000 0.000000 0.000000 0.000000 -1.010201
  7   14.875442 0.000000 0.000000 0.378308 0.091189 -0.021492
  8   2.255207 -0.007574 0.000003 0.211001 0.039375 0.007744
  9   9.514223 -0.009357 0.000000 -0.130636 0.039823 -0.186327
 10   11.752194 -0.001492 0.000000 -0.000012 -0.026163 -0.010141
 11   -2.103979 -0.093463 2.704420 -0.508693 -1.372509 3.648770
 12   4.640941 0.000000 0.000000 -0.980555 0.726705 -0.722996
 13   10.828045 0.000000 0.000000 0.000000 0.000000 -0.989422
 14   9.393338 -0.000001 0.000000 -1.583431 0.014633 -0.251841
 15   1.442243 0.107453 -1.746178 1.372942 0.516925 -0.281962
 16   1.063450 0.000000 -0.000001 0.000000 0.000000 0.000004
 17   1.376307 -0.000001 0.000001 0.000000 0.000000 0.000006
 18   4.172845 -0.251366 -1.312745 -0.001190 0.096055 0.052246
 19   1.215373 0.000001 -0.000001 0.000000 0.000000 0.000011
 20   1.215371 -0.000002 0.000000 0.000000 0.000000 0.000011
 21   4.220532 -0.244855 -0.431465 -0.001184 0.026242 0.052329
 22   1.350417 0.000000 0.000001 0.000000 0.000000 0.000004
 23   1.350409 0.000000 -0.000001 0.000000 0.000000 0.000004
 24   -2.244608 -0.093450 -2.595035 -0.605962 1.339172 2.554116
 25   4.640942 0.000000 0.000000 -0.244753 -0.523446 0.569088
 26   10.828048 0.000000 0.000001 0.000000 0.000000 -1.069001
 27   9.393336 -0.000001 0.000000 1.830472 0.002570 -0.262989
 28   1.442244 0.107454 1.746178 -1.373018 -0.516933 -0.281945
 29   1.063451 -0.000001 0.000000 0.000000 0.000000 0.000004
 30   1.376307 -0.000001 0.000000 0.000000 0.000000 0.000003
 31   4.172846 -0.251365 1.312745 0.001190 -0.096055 0.052246
 32   1.215374 0.000001 -0.000001 0.000000 0.000000 0.000026
 33   1.215373 0.000000 0.000001 0.000000 0.000000 0.000026
 34   4.220533 -0.244853 0.431466 0.001184 -0.026242 0.052329
 35   1.350415 -0.000001 -0.000001 0.000000 0.000000 0.000026
 36   1.350410 -0.000001 0.000001 0.000000 0.000000 0.000024
 37   2.110541 -0.000001 0.000000 0.020309 -0.115943 -0.751057
 38   0.891923 2.373050 -0.014527 -3.141592 -0.000001 1.413797
 39   7.228119 5.709445 3.726568 3.140796 -1.570796 0.000000
 40   2.450426 5.076127 0.001325 3.140791 -1.570796 0.000000
 41   6.312405 -4.528058 0.001311 3.140791 -1.570796 0.000000
 42   2.233309 1.152535 -7.309138 -1.570796 -1.570796 0.000000
 43   4.262825 -0.232720 -1.392178 0.001188 0.078478 0.052453
time 9
  0   0.000964 0.006728 35.816242 0.000000 -1.081507 -1.570843
  1   1.066766 0.941435 0.000000 -1.570795 -1.570451 0.000000
  2   -0.000007 0.000008 4.427393 -0.123418 -2.893164 -0.486537
  3   18.465939 0.000000 0.000000 0.000000 0.000000 -0.658762
  4   14.875443 0.000000 0.000000 -0.223785 0.004198 -0.414268
  5   0.000006 -0.000004 -4.427393 0.011708 2.967533 -0.021675
  6   18.465939 0.000000 0.000000 0.000000 0.000000 -1.010267
  7   14.875442 0.000000 0.000000 0.354513 0.103799 -0.011963
  8   2.255207 -0.007574 0.000003 0.292137 0.045817 -0.027527
  9   9.514223 -0.009357 0.000000 -0.068094 0.034689 -0.271513
 10   11.752194 -0.001492 0.000000 -0.000012 -0.026163 -0.010141
 11   -2.103979 -0.093463 2.704420 -0.508693 -1.372509 3.648770
 12   4.640941 0.000000 0.000000 -0.758489 0.911789 -0.609843
 13   10.828045 0.000000 0.000000 0.000000 0.000000 -0.945494
 14   9.393338 -0.000001 0.000000 -1.583431 0.014633 -0.251841
 15   1.442243 0.107453 -1.746178 1.372942 0.516925 -0.281962
 16   1.063450 0.000000 -0.000001 0.000000 0.000000 0.000004
 17   1.376307 -0.000001 0.000001 0.000000 0.000000 0.000006
 18   4.172845 -0.251366 -1.312745 -0.001190 0.096055 0.052246
 19   1.215373 0.000001 -0.000001 0.000000 0.000000 0.000011
 20   1.215371 -0.000002 0.000000 0.000000 0.000000 0.000011
 21   4.220532 -0.244855 -0.431465 -0.001184 0.026242 0.052329
 22   1.350417 0.000000 0.000001 0.000000 0.000000 0.000004
 23   1.350409 0.000000 -0.000001 0.000000 0.000000 0.000004
 24   -2.244608 -0.093450 -2.595035 -0.605962 1.339172 2.554116
 25   4.640942 0.000000 0.000000 -0.069095 -0.468003 0.434981
 26   10.828048 0.000000 0.000001 0.000000 0.000000 -1.130598
 27   9.393336 -0.000001 0.000000 1.830472 0.002570 -0.262989
 28   1.442244 0.107454 1.746178 -1.373018 -0.516933 -0.281945
 29   1.063451 -0.000001 0.000000 0.000000 0.000000 0.000004
 30   1.376307 -0.000001 0.000000 0.000000 0.000000 0.000003
 31   4.172846 -0.251365 1.312745 0.001190 -0.096055 0.052246
 32   1.215374 0.000001 -0.000001 0.000000 0.000000 0.000026
 33   1.215373 0.000000 0.000001 0.000000 0.000000 0.000026
 34   4.220533 -0.244853 0.431466 0.001184 -0.026242 0.052329
 35   1.350415 -0.000001 -0.000001 0.000000 0.000000 0.000026
 36   1.350410 -0.000001 0.000001 0.000000 0.000000 0.000024
 37   2.110541 -0.000001 0.000000 -0.068126 -0.229181 -0.657355
 38   0.891923 2.373050 -0.014527 -3.141592 -0.000001 1.413797
 39   7.228119 5.709445 3.726568 3.140796 -1.570796 0.000000
 40   2.450426 5.076127 0.001325 3.140791 -1.570796 0.000000
 41   6.312405 -4.528058 0.001311 3.140791 -1.570796 0.000000
 42   2.233309 1.152535 -7.309138 -1.570796 -1.570796 0.000000
 43   4.262825 -0.232720 -1.392178 0.001188 0.078478 0.052453
time 10
  0   0.000964 0.006728 35.312023 0.000000 -1.081507 -1.570843
  1   1.637096 1.207068 0.000000 -1.570795 -1.570451 0.000000
  2   -0.000007 0.000008 4.427393 -0.075513 -2.891933 -0.690415
  3   18.465939 0.000000 0.000000 0.000000 0.000000 -0.659420
  4   14.875443 0.000000 0.000000 -0.177496 0.008923 -0.546565
  5   0.000006 -0.000004 -4.427393 0.023497 2.987431 0.080896
  6   18.465939 0.000000 0.000000 0.000000 0.000000 -1.010530
  7   14.875442 0.000000 0.000000 0.300605 0.103921 -0.018116
  8   2.255207 -0.007574 0.000003 0.365636 0.054124 -0.059093
  9   9.514223 -0.009357 0.000000 -0.011068 0.034648 -0.349058
 10   11.752194 -0.001492 0.000000 -0.000012 -0.026163 -0.010141
 11   -2.103979 -0.093463 2.704420 -0.508693 -1.372509 3.648770
 12   4.640941 0.000000 0.000000 -0.417786 1.041312 -0.351984
 13   10.828045 0.000000 0.000000 0.000000 0.000000 -0.902297
 14   9.393338 -0.000001 0.000000 -1.583431 0.014633 -0.251841
 15   1.442243 0.107453 -1.746178 1.372942 0.516925 -0.281962
 16   1.063450 0.000000 -0.000001 0.000000 0.000000 0.000004
 17   1.376307 -0.000001 0.000001 0.000000 0.000000 0.000006
 18   4.172845 -0.251366 -1.312745 -0.001190 0.096055 0.052246
 19   1.215373 0.000001 -0.000001 0.000000 0.000000 0.000011
 20   1.215371 -0.000002 0.000000 0.000000 0.000000 0.000011
 21   4.220532 -0.244855 -0.431465 -0.001184 0.026242 0.052329
 22   1.350417 0.000000 0.000001 0.000000 0.000000 0.000004
 23   1.350409 0.000000 -0.000001 0.000000 0.000000 0.000004
 24   -2.244608 -0.093450 -2.595035 -0.605962 1.339172 2.554116
 25   4.640942 0.000000 0.000000 0.085356 -0.374343 0.280785
 26   10.828048 0.000000 0.000001 0.000000 0.000000 -1.191809
 27   9.393336 -0.000001 0.000000 1.830472 0.002570 -0.262989
 28   1.442244 0.107454 1.746178 -1.373018 -0.516933 -0.281945
 29   1.063451 -0.000001 0.000000 0.000000 0.000000 0.000004
 30   1.376307 -0.000001 0.000000 0.000000 0.000000 0.000003
 31   4.172846 -0.251365 1.312745 0.001190 -0.096055 0.052246
 32   1.215374 0.000001 -0.000001 0.000000 0.000000 0.000026
 33   1.215373 0.000000 0.000001 0.000000 0.000000 0.000026
 34   4.220533 -0.244853 0.431466 0.001184 -0.026242 0.052329
 35   1.350415 -0.000001 -0.000001 0.000000 0.000000 0.000026
 36   1.350410 -0.000001 0.000001 0.000000 0.000000 0.000024
 37   2.110541 -0.000001 0.000000 -0.158104 -0.326633 -0.542558
 38   0.891923 2.373050 -0.014527 -3.141592 -0.000001 1.413797
 39   7.228119 5.709445 3.726568 3.140796 -1.570796 0.000000
 40   2.450426 5.076127 0.001325 3.140791 -1.570796 0.000000
 41   6.312405 -4.528058 0.001311 3.140791 -1.570796 0.000000
 42   2.233309 1.152535 -7.309138 -1.570796 -1.570796 0.000000
 43   4.262825 -0.232720 -1.392178 0.001188 0.078478 0.052453
time 11
  0   0.000964 0.006728 34.918106 0.000000 -1.081507 -1.570843
  1   2.090235 1.496139 0.000000 -1.570795 -1.570451 0.000000
  2   -0.000007 0.000008 4.427393 -0.026170 -2.906704 -0.907542
  3   18.465939 0.000000 0.000000 0.000000 0.000000 -0.659785
  4   14.875443 0.000000 0.000000 -0.113573 0.008625 -0.693834
  5   0.000006 -0.000004 -4.427393 0.031356 3.015269 0.170364
  6   18.465939 0.000000 0.000000 0.000000 0.000000 -1.010923
  7   14.875442 0.000000 0.000000 0.228658 0.090916 -0.034136
  8   2.255207 -0.007574 0.000003 0.429727 0.063276 -0.086125
  9   9.514223 -0.009357 0.000000 0.038643 0.038250 -0.416795
 10   11.752194 -0.001492 0.000000 -0.000012 -0.026163 -0.010141
 11   -2.103979 -0.093463 2.704420 -0.508693 -1.372509 3.648770
 12   4.640941 0.000000 0.000000 0.019826 1.072340 0.026639
 13   10.828045 0.000000 0.000000 0.000000 0.000000 -0.859954
 14   9.393338 -0.000001 0.000000 -1.583431 0.014633 -0.251841
 15   1.442243 0.107453 -1.746178 1.372942 0.516925 -0.281962
 16   1.063450 0.000000 -0.000001 0.000000 0.000000 0.000004
 17   1.376307 -0.000001 0.000001 0.000000 0.000000 0.000006
 18   4.172845 -0.251366 -1.312745 -0.001190 0.096055 0.052246
 19   1.215373 0.000001 -0.000001 0.000000 0.000000 0.000011
 20   1.215371 -0.000002 0.000000 0.000000 0.000000 0.000011
 21   4.220532 -0.244855 -0.431465 -0.001184 0.026242 0.052329
 22   1.350417 0.000000 0.000001 0.000000 0.000000 0.000004
 23   1.350409 0.000000 -0.000001 0.000000 0.000000 0.000004
 24   -2.244608 -0.093450 -2.595035 -0.605962 1.339172 2.554116
 25   4.640942 0.000000 0.000000 0.196294 -0.259274 0.128758
 26   10.828048 0.000000 0.000001 0.000000 0.000000 -1.248583
 27   9.393336 -0.000001 0.000000 1.830472 0.002570 -0.262989
 28   1.442244 0.107454 1.746178 -1.373018 -0.516933 -0.281945
 29   1.063451 -0.000001 0.000000 0.000000 0.000000 0.000004
 30   1.376307 -0.000001 0.000000 0.000000 0.000000 0.000003
 31   4.172846 -0.251365 1.312745 0.001190 -0.096055 0.052246
 32   1.215374 0.000001 -0.000001 0.000000 0.000000 0.000026
 33   1.215373 0.000000 0.000001 0.000000 0.000000 0.000026
 34   4.220533 -0.244853 0.431466 0.001184 -0.026242 0.052329
 35   1.350415 -0.000001 -0.000001 0.000000 0.000000 0.000026
 36   1.350410 -0.000001 0.000001 0.000000 0.000000 0.000024
 37   2.110541 -0.000001 0.000000 -0.253480 -0.400301 -0.407420
 38   0.891923 2.373050 -0.014527 -3.141592 -0.000001 1.413797
 39   7.228119 5.709445 3.726568 3.140796 -1.570796 0.000000
 40   2.450426 5.076127 0.001325 3.140791 -1.570796 0.000000
 41   6.312405 -4.528058 0.001311 3.140791 -1.570796 0.000000
 42   2.233309 1.152535 -7.309138 -1.570796 -1.570796 0.000000
 43   4.262825 -0.232720 -1.392178 0.001188 0.078478 0.052453
time 12
  0   0.000964 0.006728 34.618725 0.000000 -1.081507 -1.570843
  1   2.426183 1.769585 0.000000 -1.570795 -1.570451 0.000000
  2   -0.000007 0.000008 4.427393 0.012825 -2.932175 -1.113231
  3   18.465939 0.000000 0.000000 0.000000 0.000000 -0.659858
  4   14.875443 0.000000 0.000000 -0.039305 0.003581 -0.838970
  5   0.000006 -0.000004 -4.427393 0.033656 3.046263 0.244111
  6   18.465939 0.000000 0.000000 0.000000 0.000000 -1.011383
  7   14.875442 0.000000 0.000000 0.150464 0.067635 -0.054283
  8   2.255207 -0.007574 0.000003 0.482594 0.072153 -0.108029
  9   9.510317 -0.009357 0.000000 0.079574 0.043747 -0.472670
 10   11.752194 -0.001492 0.000000 -0.000012 -0.026163 -0.010141
 11   -2.103979 -0.093463 2.704420 -0.508693 -1.372509 3.648770
 12   4.640941 0.000000 0.000000 0.385671 0.922396 0.417672
 13   10.828045 0.000000 0.000000 0.000000 0.000000 -0.811755
 14   9.393338 -0.000001 0.000000 -1.583431 0.014633 -0.251841
 15   1.442243 0.107453 -1.746178 1.372942 0.516925 -0.281962
 16   1.063450 0.000000 -0.000001 0.000000 0.000000 0.000004
 17   1.376307 -0.000001 0.000001 0.000000 0.000000 0.000006
 18   4.172845 -0.251366 -1.312745 -0.001190 0.096055 0.052246
 19   1.215373 0.000001 -0.000001 0.000000 0.000000 0.000011
 20   1.215371 -0.000002 0.000000 0.000000 0.000000 0.000011
 21   4.220532 -0.244855 -0.431465 -0.001184 0.026242 0.052329
 22   1.350417 0.000000 0.000001 0.000000 0.000000 0.000004
 23   1.350409 0.000000 -0.000001 0.000000 0.000000 0.000004
 24   -2.244608 -0.093450 -2.595035 -0.605962 1.339172 2.554116
 25   4.640942 0.000000 0.000000 0.261014 -0.147273 -0.009829
 26   10.828048 0.000000 0.000001 0.000000 0.000000 -1.297063
 27   9.393336 -0.000001 0.000000 1.830472 0.002570 -0.262989
 28   1.442244 0.107454 1.746178 -1.373018 -0.516933 -0.281945
 29   1.063451 -0.000001 0.000000 0.000000 0.000000 0.000004
 30   1.376307 -0.000001 0.000000 0.000000 0.000000 0.000003
 31   4.172846 -0.251365 1.312745 0.001190 -0.096055 0.052246
 32   1.215374 0.000001 -0.000001 0.000000 0.000000 0.000026
 33   1.215373 0.000000 0.000001 0.000000 0.000000 0.000026
 34   4.220533 -0.244853 0.431466 0.001184 -0.026242 0.052329
 35   1.350415 -0.000001 -0.000001 0.000000 0.000000 0.000026
 36   1.350410 -0.000001 0.000001 0.000000 0.000000 0.000024
 37   2.110541 -0.000001 0.000000 -0.353484 -0.443148 -0.257496
 38   0.891923 2.373050 -0.014527 -3.141592 -0.000001 1.413797
 39   7.228119 5.709445 3.726568 3.140796 -1.570796 0.000000
 40   2.450426 5.076127 0.001325 3.140791 -1.570796 0.000000
 41   6.312405 -4.528058 0.001311 3.140791 -1.570796 0.000000
 42   2.233309 1.152535 -7.309138 -1.570796 -1.570796 0.000000
 43   4.262825 -0.232720 -1.392178 0.001188 0.078478 0.052453
time 13
  0   0.000964 0.006728 34.413887 0.000000 -1.081507 -1.570843
  1   2.652752 2.000061 0.000000 -1.570795 -1.570451 0.000000
  2   -0.000007 0.000008 4.427393 0.034095 -2.958024 -1.284893
  3   18.465939 0.000000 0.000000 0.000000 0.000000 -0.659712
  4   14.875443 0.000000 0.000000 0.038234 -0.001995 -0.964512
  5   0.000006 -0.000004 -4.427393 0.029726 3.076014 0.299327
  6   18.465939 0.000000 0.000000 0.000000 0.000000 -1.011777
  7   14.875442 0.000000 0.000000 0.076200 0.040382 -0.073229
  8   2.255207 -0.007574 0.000003 0.522508 0.079616 -0.124308
  9   9.510317 -0.009357 0.000000 0.110339 0.049432 -0.514819
 10   11.752194 -0.001492 0.000000 -0.000012 -0.026163 -0.010141
 11   -2.103979 -0.093463 2.704420 -0.508693 -1.372509 3.648770
 12   4.640941 0.000000 0.000000 0.495742 0.623520 0.636311
 13   10.828045 0.000000 0.000000 0.000000 0.000000 -0.761786
 14   9.393338 -0.000001 0.000000 -1.583431 0.014633 -0.251841
 15   1.442243 0.107453 -1.746178 1.372942 0.516925 -0.281962
 16   1.063450 0.000000 -0.000001 0.000000 0.000000 0.000004
 17   1.376307 -0.000001 0.000001 0.000000 0.000000 0.000006
 18   4.172845 -0.251366 -1.312745 -0.001190 0.096055 0.052246
 19   1.215373 0.000001 -0.000001 0.000000 0.000000 0.000011
 20   1.215371 -0.000002 0.000000 0.000000 0.000000 0.000011
 21   4.220532 -0.244855 -0.431465 -0.001184 0.026242 0.052329
 22   1.350417 0.000000 0.000001 0.000000 0.000000 0.000004
 23   1.350409 0.000000 -0.000001 0.000000 0.000000 0.000004
 24   -2.244608 -0.093450 -2.595035 -0.605962 1.339172 2.554116
 25   4.640942 0.000000 0.000000 0.288981 -0.060029 -0.125249
 26   10.828048 0.000000 0.000001 0.000000 0.000000 -1.333134
 27   9.393336 -0.000001 0.000000 1.830472 0.002570 -0.262989
 28   1.442244 0.107454 1.746178 -1.373018 -0.516933 -0.281945
 29   1.063451 -0.000001 0.000000 0.000000 0.000000 0.000004
 30   1.376307 -0.000001 0.000000 0.000000 0.000000 0.000003
 31   4.172846 -0.251365 1.312745 0.001190 -0.096055 0.052246
 32   1.215374 0.000001 -0.000001 0.000000 0.000000 0.000026
 33   1.215373 0.000000 0.000001 0.000000 0.000000 0.000026
 34   4.220533 -0.244853 0.431466 0.001184 -0.026242 0.052329
 35   1.350415 -0.000001 -0.000001 0.000000 0.000000 0.000026
 36   1.350410 -0.000001 0.000001 0.000000 0.000000 0.000024
 37   2.110541 -0.000001 0.000000 -0.449323 -0.452439 -0.107243
 38   0.891923 2.373050 -0.014527 -3.141592 -0.000001 1.413797
 39   7.228119 5.709445 3.726568 3.140796 -1.570796 0.000000
 40   2.450426 5.076127 0.001325 3.140791 -1.570796 0.000000
 41   6.312405 -4.528058 0.001311 3.140791 -1.570796 0.000000
 42   2.233309 1.152535 -7.309138 -1.570796 -1.570796 0.000000
 43   4.262825 -0.232720 -1.392178 0.001188 0.078478 0.052453
time 14
  0   0.000964 0.006728 34.303593 0.000000 -1.081507 -1.570843
  1   2.781662 2.148503 0.000000 -1.570795 -1.570451 0.000000
  2   -0.000007 0.000008 4.427393 0.035245 -2.972038 -1.401272
  3   18.465939 0.000000 0.000000 0.000000 0.000000 -0.659566
  4   14.875443 0.000000 0.000000 0.112574 -0.000761 -1.052565
  5   0.000006 -0.000004 -4.427393 0.019759 3.100025 0.333579
  6   18.465939 0.000000 0.000000 0.000000 0.000000 -1.012039
  7   14.875442 0.000000 0.000000 0.014536 0.017677 -0.086510
  8   2.255207 -0.007574 -0.003903 0.547782 0.084683 -0.134466
  9   9.510317 -0.009357 0.000000 0.129660 0.053706 -0.541425
 10   11.752194 -0.001492 0.000000 -0.000012 -0.026163 -0.010141
 11   -2.103979 -0.093463 2.704420 -0.508693 -1.372509 3.648770
 12   4.640941 0.000000 0.000000 0.479663 0.342322 0.727044
 13   10.828045 0.000000 0.000000 0.000000 0.000000 -0.726643
 14   9.393338 -0.000001 0.000000 -1.583431 0.014633 -0.251841
 15   1.442243 0.107453 -1.746178 1.372942 0.516925 -0.281962
 16   1.063450 0.000000 -0.000001 0.000000 0.000000 0.000004
 17   1.376307 -0.000001 0.000001 0.000000 0.000000 0.000006
 18   4.172845 -0.251366 -1.312745 -0.001190 0.096055 0.052246
 19   1.215373 0.000001 -0.000001 0.000000 0.000000 0.000011
 20   1.215371 -0.000002 0.000000 0.000000 0.000000 0.000011
 21   4.220532 -0.244855 -0.431465 -0.001184 0.026242 0.052329
 22   1.350417 0.000000 0.000001 0.000000 0.000000 0.000004
 23   1.350409 0.000000 -0.000001 0.000000 0.000000 0.000004
 24   -2.244608 -0.093450 -2.595035 -0.605962 1.339172 2.554116
 25   4.640942 0.000000 0.000000 0.294051 -0.011630 -0.202592
 26   10.828048 0.000000 0.000001 0.000000 0.000000 -1.352938
 27   9.393336 -0.000001 0.000000 1.830472 0.002570 -0.262989
 28   1.442244 0.107454 1.746178 -1.373018 -0.516933 -0.281945
 29   1.063451 -0.000001 0.000000 0.000000 0.000000 0.000004
 30   1.376307 -0.000001 0.000000 0.000000 0.000000 0.000003
 31   4.172846 -0.251365 1.312745 0.001190 -0.096055 0.052246
 32   1.215374 0.000001 -0.000001 0.000000 0.000000 0.000026
 33   1.215373 0.000000 0.000001 0.000000 0.000000 0.000026
 34   4.220533 -0.244853 0.431466 0.001184 -0.026242 0.052329
 35   1.350415 -0.000001 -0.000001 0.000000 0.000000 0.000026
 36   1.350410 -0.000001 0.000001 0.000000 0.000000 0.000024
 37   2.110541 -0.000001 0.000000 -0.528349 -0.430850 0.027189
 38   0.891923 2.373050 -0.014527 -3.141592 -0.000001 1.413797
 39   7.228119 5.709445 3.726568 3.140796 -1.570796 0.000000
 40   2.450426 5.076127 0.001325 3.140791 -1.570796 0.000000
 41   6.312405 -4.528058 0.001311 3.140791 -1.570796 0.000000
 42   2.233309 1.152535 -7.309138 -1.570796 -1.570796 0.000000
 43   4.262825 -0.232720 -1.392178 0.001188 0.078478 0.052453
time 15
  0   0.000964 0.006728 34.272076 0.000000 -1.081507 -1.570843
  1   2.824632 2.203192 0.000000 -1.570795 -1.570451 0.000000
  2   -0.000007 0.000008 4.427393 0.015412 -2.964179 -1.441209
  3   18.465939 0.000000 0.000000 0.000000 0.000000 -0.659420
  4   14.875443 0.000000 0.000000 0.177457 0.015585 -1.084207
  5   0.000006 -0.000004 -4.427393 0.003945 3.114088 0.344342
  6   18.465939 0.000000 0.000000 0.000000 0.000000 -1.012171
  7   14.875442 0.000000 0.000000 -0.026562 0.008977 -0.090299
  8   2.255207 -0.007574 -0.003903 0.556558 0.086509 -0.138006
  9   9.510317 -0.009357 0.000000 0.136413 0.055319 -0.550712
 10   11.752194 -0.001492 0.000000 -0.000012 -0.026163 -0.010141
 11   -2.103979 -0.093463 2.704420 -0.508693 -1.372509 3.648770
 12   4.640941 0.000000 0.000000 0.475317 0.210418 0.713991
 13   10.828045 0.000000 0.000000 0.000000 0.000000 -0.722738
 14   9.393338 -0.000001 0.000000 -1.583431 0.014633 -0.251841
 15   1.442243 0.107453 -1.746178 1.372942 0.516925 -0.281962
 16   1.063450 0.000000 -0.000001 0.000000 0.000000 0.000004
 17   1.376307 -0.000001 0.000001 0.000000 0.000000 0.000006
 18   4.172845 -0.251366 -1.312745 -0.001190 0.096055 0.052246
 19   1.215373 0.000001 -0.000001 0.000000 0.000000 0.000011
 20   1.215371 -0.000002 0.000000 0.000000 0.000000 0.000011
 21   4.220532 -0.244855 -0.431465 -0.001184 0.026242 0.052329
 22   1.350417 0.000000 0.000001 0.000000 0.000000 0.000004
 23   1.350409 0.000000 -0.000001 0.000000 0.000000 0.000004
 24   -2.244608 -0.093450 -2.595035 -0.605962 1.339172 2.554116
 25   4.640942 0.000000 0.000000 0.286700 -0.009608 -0.222610
 26   10.828048 0.000000 0.000001 0.000000 0.000000 -1.352359
 27   9.393336 -0.000001 0.000000 1.830472 0.002570 -0.262989
 28   1.442244 0.107454 1.746178 -1.373018 -0.516933 -0.281945
 29   1.063451 -0.000001 0.000000 0.000000 0.000000 0.000004
 30   1.376307 -0.000001 0.000000 0.000000 0.000000 0.000003
 31   4.172846 -0.251365 1.312745 0.001190 -0.096055 0.052246
 32   1.215374 0.000001 -0.000001 0.000000 0.000000 0.000026
 33   1.215373 0.000000 0.000001 0.000000 0.000000 0.000026
 34   4.220533 -0.244853 0.431466 0.001184 -0.026242 0.052329
 35   1.350415 -0.000001 -0.000001 0.000000 0.000000 0.000026
 36   1.350410 -0.000001 0.000001 0.000000 0.000000 0.000024
 37   2.110541 -0.000001 0.000000 -0.579148 -0.385417 0.133463
 38   0.891923 2.373050 -0.014527 -3.141592 -0.000001 1.413797
 39   7.228119 5.709445 3.726568 3.140796 -1.570796 0.000000
 40   2.450426 5.076127 0.001325 3.140791 -1.570796 0.000000
 41   6.312405 -4.528058 0.001311 3.140791 -1.570796 0.000000
 42   2.233309 1.152535 -7.309138 -1.570796 -1.570796 0.000000
 43   4.262825 -0.232720 -1.392178 0.001188 0.078478 0.052453
time 16
  0   0.000964 0.006728 34.303593 0.000000 -1.081507 -1.570843
  1   2.781662 2.148503 0.000000 -1.570795 -1.570451 0.000000
  2   -0.000007 0.000008 4.427393 -0.043895 -2.920339 -1.368293
  3   18.465939 0.000000 0.000000 0.000000 0.000000 -0.659347
  4   14.875443 0.000000 0.000000 0.247068 0.065156 -1.031865
  5   0.000006 -0.000004 -4.427393 -0.023849 3.116288 0.321600
  6   18.465939 0.000000 0.000000 0.000000 0.000000 -1.011908
  7   14.875442 0.000000 0.000000 -0.045444 0.024407 -0.079494
  8   2.255207 -0.007574 -0.003903 0.547782 0.084683 -0.134466
  9   9.510317 -0.009357 0.000000 0.129660 0.053706 -0.541425
 10   11.752194 -0.001492 0.000000 -0.000012 -0.026163 -0.010141
 11   -2.103979 -0.093463 2.704420 -0.508693 -1.372509 3.648770
 12   4.640941 0.000000 0.000000 0.511138 0.214314 0.626242
 13   10.828045 0.000000 0.000000 0.000000 0.000000 -0.744702
 14   9.393338 -0.000001 0.000000 -1.583431 0.014633 -0.251841
 15   1.442243 0.107453 -1.746178 1.372942 0.516925 -0.281962
 16   1.063450 0.000000 -0.000001 0.000000 0.000000 0.000004
 17   1.376307 -0.000001 0.000001 0.000000 0.000000 0.000006
 18   4.172845 -0.251366 -1.312745 -0.001190 0.096055 0.052246
 19   1.215373 0.000001 -0.000001 0.000000 0.000000 0.000011
 20   1.215371 -0.000002 0.000000 0.000000 0.000000 0.000011
 21   4.220532 -0.244855 -0.431465 -0.001184 0.026242 0.052329
 22   1.350417 0.000000 0.000001 0.000000 0.000000 0.000004
 23   1.350409 0.000000 -0.000001 0.000000 0.000000 0.000004
 24   -2.244608 -0.093450 -2.595035 -0.605962 1.339172 2.554116
 25   4.640942 0.000000 0.000000 0.278758 -0.042594 -0.208261
 26   10.828048 0.000000 0.000001 0.000000 0.000000 -1.336092
 27   9.393336 -0.000001 0.000000 1.830472 0.002570 -0.262989
 28   1.442244 0.107454 1.746178 -1.373018 -0.516933 -0.281945
 29   1.063451 -0.000001 0.000000 0.000000 0.000000 0.000004
 30   1.376307 -0.000001 0.000000 0.000000 0.000000 0.000003
 31   4.172846 -0.251365 1.312745 0.001190 -0.096055 0.052246
 32   1.215374 0.000001 -0.000001 0.000000 0.000000 0.000026
 33   1.215373 0.000000 0.000001 0.000000 0.000000 0.000026
 34   4.220533 -0.244853 0.431466 0.001184 -0.026242 0.052329
 35   1.350415 -0.000001 -0.000001 0.000000 0.000000 0.000026
 36   1.350410 -0.000001 0.000001 0.000000 0.000000 0.000024
 37   2.110541 -0.000001 0.000000 -0.594881 -0.325641 0.206588
 38   0.891923 2.373050 -0.014527 -3.141592 -0.000001 1.413797
 39   7.228119 5.709445 3.726568 3.140796 -1.570796 0.000000
 40   2.450426 5.076127 0.001325 3.140791 -1.570796 0.000000
 41   6.312405 -4.528058 0.001311 3.140791 -1.570796 0.000000
 42   2.233309 1.152535 -7.309138 -1.570796 -1.570796 0.000000
 43   4.262825 -0.232720 -1.392178 0.001188 0.078478 0.052453
time 17
  0   0.000964 0.006728 34.413887 0.000000 -1.081507 -1.570843
  1   2.652752 2.000061 0.000000 -1.570795 -1.570451 0.000000
  2   -0.000007 0.000008 4.427393 -0.155036 -2.857467 -1.181762
  3   18.465939 0.000000 0.000000 0.000000 0.000000 -0.659201
  4   14.875443 0.000000 0.000000 0.334739 0.143737 -0.896724
  5   0.000006 -0.000004 -4.427393 -0.065253 3.111218 0.263015
  6   18.465939 0.000000 0.000000 0.000000 0.000000 -1.011449
  7   14.875442 0.000000 0.000000 -0.046461 0.061269 -0.056271
  8   2.255207 -0.007574 0.000003 0.522508 0.079616 -0.124308
  9   9.510317 -0.009357 0.000000 0.110339 0.049432 -0.514819
 10   11.752194 -0.001492 0.000000 -0.000012 -0.026163 -0.010141
 11   -2.103979 -0.093463 2.704420 -0.508693 -1.372509 3.648770
 12   4.640941 0.000000 0.000000 0.540875 0.257248 0.519118
 13   10.828045 0.000000 0.000000 0.000000 0.000000 -0.774842
 14   9.393338 -0.000001 0.000000 -1.583431 0.014633 -0.251841
 15   1.442243 0.107453 -1.746178 1.372942 0.516925 -0.281962
 16   1.063450 0.000000 -0.000001 0.000000 0.000000 0.000004
 17   1.376307 -0.000001 0.000001 0.000000 0.000000 0.000006
 18   4.172845 -0.251366 -1.312745 -0.001190 0.096055 0.052246
 19   1.215373 0.000001 -0.000001 0.000000 0.000000 0.000011
 20   1.215371 -0.000002 0.000000 0.000000 0.000000 0.000011
 21   4.220532 -0.244855 -0.431465 -0.001184 0.026242 0.052329
 22   1.350417 0.000000 0.000001 0.000000 0.000000 0.000004
 23   1.350409 0.000000 -0.000001 0.000000 0.000000 0.000004
 24   -2.244608 -0.093450 -2.595035 -0.605962 1.339172 2.554116
 25   4.640942 0.000000 0.000000 0.277237 -0.094759 -0.197202
 26   10.828048 0.000000 0.000001 0.000000 0.000000 -1.311723
 27   9.393336 -0.000001 0.000000 1.830472 0.002570 -0.262989
 28   1.442244 0.107454 1.746178 -1.373018 -0.516933 -0.281945
 29   1.063451 -0.000001 0.000000 0.000000 0.000000 0.000004
 30   1.376307 -0.000001 0.000000 0.000000 0.000000 0.000003
 31   4.172846 -0.251365 1.312745 0.001190 -0.096055 0.052246
 32   1.215374 0.000001 -0.000001 0.000000 0.000000 0.000026
 33   1.215373 0.000000 0.000001 0.000000 0.000000 0.000026
 34   4.220533 -0.244853 0.431466 0.001184 -0.026242 0.052329
 35   1.350415 -0.000001 -0.000001 0.000000 0.000000 0.000026
 36   1.350410 -0.000001 0.000001 0.000000 0.000000 0.000024
 37   2.110541 -0.000001 0.000000 -0.576217 -0.261054 0.251085
 38   0.891923 2.373050 -0.014527 -3.141592 -0.000001 1.413797
 39   7.228119 5.709445 3.726568 3.140796 -1.570796 0.000000
 40   2.450426 5.076127 0.001325 3.140791 -1.570796 0.000000
 41   6.312405 -4.528058 0.001311 3.140791 -1.570796 0.000000
 42   2.233309 1.152535 -7.309138 -1.570796 -1.570796 0.000000
 43   4.262825 -0.232720 -1.392178 0.001188 0.078478 0.052453
time 18
  0   0.000964 0.006728 34.618725 0.000000 -1.081507 -1.570843
  1   2.426183 1.769585 0.000000 -1.570795 -1.570451 0.000000
  2   -0.000007 0.000008 4.427393 -0.304118 -2.815995 -0.917073
  3   18.465939 0.000000 0.000000 0.000000 0.000000 -0.658835
  4   14.875443 0.000000 0.000000 0.432472 0.223744 -0.703631
  5   0.000006 -0.000004 -4.427393 -0.112694 3.105191 0.176728
  6   18.465939 0.000000 0.000000 0.000000 0.000000 -1.010858
  7   14.875442 0.000000 0.000000 -0.030668 0.107558 -0.028170
  8   2.255207 -0.007574 0.000003 0.482594 0.072153 -0.108029
  9   9.510317 -0.009357 0.000000 0.079574 0.043747 -0.472670
 10   11.752194 -0.001492 0.000000 -0.000012 -0.026163 -0.010141
 11   -2.103979 -0.093463 2.704420 -0.508693 -1.372509 3.648770
 12   4.640941 0.000000 0.000000 0.546276 0.330127 0.393906
 13   10.828045 0.000000 0.000000 0.000000 0.000000 -0.811633
 14   9.393338 -0.000001 0.000000 -1.583431 0.014633 -0.251841
 15   1.442243 0.107453 -1.746178 1.372942 0.516925 -0.281962
 16   1.063450 0.000000 -0.000001 0.000000 0.000000 0.000004
 17   1.376307 -0.000001 0.000001 0.000000 0.000000 0.000006
 18   4.172845 -0.251366 -1.312745 -0.001190 0.096055 0.052246
 19   1.215373 0.000001 -0.000001 0.000000 0.000000 0.000011
 20   1.215371 -0.000002 0.000000 0.000000 0.000000 0.000011
 21   4.220532 -0.244855 -0.431465 -0.001184 0.026242 0.052329
 22   1.350417 0.000000 0.000001 0.000000 0.000000 0.000004
 23   1.350409 0.000000 -0.000001 0.000000 0.000000 0.000004
 24   -2.244608 -0.093450 -2.595035 -0.605962 1.339172 2.554116
 25   4.640942 0.000000 0.000000 0.276983 -0.163382 -0.191253
 26   10.828048 0.000000 0.000001 0.000000 0.000000 -1.280346
 27   9.393336 -0.000001 0.000000 1.830472 0.002570 -0.262989
 28   1.442244 0.107454 1.746178 -1.373018 -0.516933 -0.281945
 29   1.063451 -0.000001 0.000000 0.000000 0.000000 0.000004
 30   1.376307 -0.000001 0.000000 0.000000 0.000000 0.000003
 31   4.172846 -0.251365 1.312745 0.001190 -0.096055 0.052246
 32   1.215374 0.000001 -0.000001 0.000000 0.000000 0.000026
 33   1.215373 0.000000 0.000001 0.000000 0.000000 0.000026
 34   4.220533 -0.244853 0.431466 0.001184 -0.026242 0.052329
 35   1.350415 -0.000001 -0.000001 0.000000 0.000000 0.000026
 36   1.350410 -0.000001 0.000001 0.000000 0.000000 0.000024
 37   2.110541 -0.000001 0.000000 -0.526138 -0.199714 0.273498
 38   0.891923 2.373050 -0.014527 -3.141592 -0.000001 1.413797
 39   7.228119 5.709445 3.726568 3.140796 -1.570796 0.000000
 40   2.450426 5.076127 0.001325 3.140791 -1.570796 0.000000
 41   6.312405 -4.528058 0.001311 3.140791 -1.570796 0.000000
 42   2.233309 1.152535 -7.309138 -1.570796 -1.570796 0.000000
 43   4.262825 -0.232720 -1.392178 0.001188 0.078478 0.052453
time 19
  0   0.000964 0.006728 34.918106 0.000000 -1.081507 -1.570843
  1   2.090235 1.496139 0.000000 -1.570795 -1.570451 0.000000
  2   -0.000007 0.000008 4.427393 -0.457704 -2.821771 -0.625601
  3   18.465939 0.000000 0.000000 0.000000 0.000000 -0.658323
  4   14.875443 0.000000 0.000000 0.525690 0.283339 -0.485335
  5   0.000006 -0.000004 -4.427393 -0.158506 3.103086 0.071350
  6   18.465939 0.000000 0.000000 0.000000 0.000000 -1.010333
  7   14.875442 0.000000 0.000000 -0.002626 0.151120 -0.002883
  8   2.255207 -0.007574 0.000003 0.429727 0.063276 -0.086125
  9   9.514223 -0.009357 0.000000 0.038643 0.038250 -0.416795
 10   11.752194 -0.001492 0.000000 -0.000012 -0.026163 -0.010141
 11   -2.103979 -0.093463 2.704420 -0.508693 -1.372509 3.648770
 12   4.640941 0.000000 0.000000 0.509586 0.416788 0.246683
 13   10.828045 0.000000 0.000000 0.000000 0.000000 -0.853548
 14   9.393338 -0.000001 0.000000 -1.583431 0.014633 -0.251841
 15   1.442243 0.107453 -1.746178 1.372942 0.516925 -0.281962
 16   1.063450 0.000000 -0.000001 0.000000 0.000000 0.000004
 17   1.376307 -0.000001 0.000001 0.000000 0.000000 0.000006
 18   4.172845 -0.251366 -1.312745 -0.001190 0.096055 0.052246
 19   1.215373 0.000001 -0.000001 0.000000 0.000000 0.000011
 20   1.215371 -0.000002 0.000000 0.000000 0.000000 0.000011
 21   4.220532 -0.244855 -0.431465 -0.001184 0.026242 0.052329
 22   1.350417 0.000000 0.000001 0.000000 0.000000 0.000004
 23   1.350409 0.000000 -0.000001 0.000000 0.000000 0.000004
 24   -2.244608 -0.093450 -2.595035 -0.605962 1.339172 2.554116
 25   4.640942 0.000000 0.000000 0.272336 -0.244908 -0.192023
 26   10.828048 0.000000 0.000001 0.000000 0.000000 -1.242668
 27   9.393336 -0.000001 0.000000 1.830472 0.002570 -0.262989
 28   1.442244 0.107454 1.746178 -1.373018 -0.516933 -0.281945
 29   1.063451 -0.000001 0.000000 0.000000 0.000000 0.000004
 30   1.376307 -0.000001 0.000000 0.000000 0.000000 0.000003
 31   4.172846 -0.251365 1.312745 0.001190 -0.096055 0.052246
 32   1.215374 0.000001 -0.000001 0.000000 0.000000 0.000026
 33   1.215373 0.000000 0.000001 0.000000 0.000000 0.000026
 34   4.220533 -0.244853 0.431466 0.001184 -0.026242 0.052329
 35   1.350415 -0.000001 -0.000001 0.000000 0.000000 0.000026
 36   1.350410 -0.000001 0.000001 0.000000 0.000000 0.000024
 37   2.110541 -0.000001 0.000000 -0.447883 -0.148026 0.278725
 38   0.891923 2.373050 -0.014527 -3.141592 -0.000001 1.413797
 39   7.228119 5.709445 3.726568 3.140796 -1.570796 0.000000
 40   2.450426 5.076127 0.001325 3.140791 -1.570796 0.000000
 41   6.312405 -4.528058 0.001311 3.140791 -1.570796 0.000000
 42   2.233309 1.152535 -7.309138 -1.570796 -1.570796 0.000000
 43   4.262825 -0.232720 -1.392178 0.001188 0.078478 0.052453
time 20
  0   0.000964 0.006728 35.312023 0.000000 -1.081507 -1.570843
  1   1.637096 1.207068 0.000000 -1.570795 -1.570451 0.000000
  2   -0.000007 0.000008 4.427393 -0.573539 -2.869682 -0.365773
  3   18.465939 0.000000 0.000000 0.000000 0.000000 -0.657519
  4   14.875443 0.000000 0.000000 0.593701 0.314392 -0.284657
  5   0.000006 -0.000004 -4.427393 -0.194063 3.107296 -0.044042
  6   18.465939 0.000000 0.000000 0.000000 0.000000 -1.009873
  7   14.875442 0.000000 0.000000 0.027978 0.181979 0.011073
  8   2.255207 -0.007574 0.000003 0.365636 0.054124 -0.059093
  9   9.514223 -0.009357 0.000000 -0.011068 0.034648 -0.349058
 10   11.752194 -0.001492 0.000000 -0.000012 -0.026163 -0.010141
 11   -2.103979 -0.093463 2.704420 -0.508693 -1.372509 3.648770
 12   4.640941 0.000000 0.000000 0.417271 0.493997 0.072065
 13   10.828045 0.000000 0.000000 0.000000 0.000000 -0.899002
 14   9.393338 -0.000001 0.000000 -1.583431 0.014633 -0.251841
 15   1.442243 0.107453 -1.746178 1.372942 0.516925 -0.281962
 16   1.063450 0.000000 -0.000001 0.000000 0.000000 0.000004
 17   1.376307 -0.000001 0.000001 0.000000 0.000000 0.000006
 18   4.172845 -0.251366 -1.312745 -0.001190 0.096055 0.052246
 19   1.215373 0.000001 -0.000001 0.000000 0.000000 0.000011
 20   1.215371 -0.000002 0.000000 0.000000 0.000000 0.000011
 21   4.220532 -0.244855 -0.431465 -0.001184 0.026242 0.052329
 22   1.350417 0.000000 0.000001 0.000000 0.000000 0.000004
 23   1.350409 0.000000 -0.000001 0.000000 0.000000 0.000004
 24   -2.244608 -0.093450 -2.595035 -0.605962 1.339172 2.554116
 25   4.640942 0.000000 0.000000 0.257466 -0.334522 -0.199442
 26   10.828048 0.000000 0.000001 0.000000 0.000000 -1.199653
 27   9.393336 -0.000001 0.000000 1.830472 0.002570 -0.262989
 28   1.442244 0.107454 1.746178 -1.373018 -0.516933 -0.281945
 29   1.063451 -0.000001 0.000000 0.000000 0.000000 0.000004
 30   1.376307 -0.000001 0.000000 0.000000 0.000000 0.000003
 31   4.172846 -0.251365 1.312745 0.001190 -0.096055 0.052246
 32   1.215374 0.000001 -0.000001 0.000000 0.000000 0.000026
 33   1.215373 0.000000 0.000001 0.000000 0.000000 0.000026
 34   4.220533 -0.244853 0.431466 0.001184 -0.026242 0.052329
 35   1.350415 -0.000001 -0.000001 0.000000 0.000000 0.000026
 36   1.350410 -0.000001 0.000001 0.000000 0.000000 0.000024
 37   2.110541 -0.000001 0.000000 -0.345000 -0.110651 0.268884
 38   0.891923 2.373050 -0.014527 -3.141592 -0.000001 1.413797
 39   7.228119 5.709445 3.726568 3.140796 -1.570796 0.000000
 40   2.450426 5.076127 0.001325 3.140791 -1.570796 0.000000
 41   6.312405 -4.528058 0.001311 3.140791 -1.570796 0.000000
 42   2.233309 1.152535 -7.309138 -1.570796 -1.570796 0.000000
 43   4.262825 -0.232720 -1.392178 0.001188 0.078478 0.052453
time 21
  0   0.000964 0.006728 35.816242 0.000000 -1.081507 -1.570843
  1   1.066766 0.941435 0.000000 -1.570795 -1.570451 0.000000
  2   -0.000007 0.000008 4.427393 -0.624607 -2.929145 -0.185151
  3   18.465939 0.000000 0.000000 0.000000 0.000000 -0.656349
  4   14.875443 0.000000 0.000000 0.618374 0.323183 -0.148568
  5   0.000006 -0.000004 -4.427393 -0.210644 3.117531 -0.160090
  6   18.465939 0.000000 0.000000 0.000000 0.000000 -1.009808
  7   14.875442 0.000000 0.000000 0.047561 0.193741 0.004545
  8   2.255207 -0.007574 0.000003 0.292137 0.045817 -0.027527
  9   9.514223 -0.009357 0.000000 -0.068094 0.034689 -0.271513
 10   11.752194 -0.001492 0.000000 -0.000012 -0.026163 -0.010141
 11   -2.103979 -0.093463 2.704420 -0.508693 -1.372509 3.648770
 12   4.640941 0.000000 0.000000 0.268275 0.534694 -0.125852
 13   10.828045 0.000000 0.000000 0.000000 0.000000 -0.946409
 14   9.393338 -0.000001 0.000000 -1.583431 0.014633 -0.251841
 15   1.442243 0.107453 -1.746178 1.372942 0.516925 -0.281962
 16   1.063450 0.000000 -0.000001 0.000000 0.000000 0.000004
 17   1.376307 -0.000001 0.000001 0.000000 0.000000 0.000006
 18   4.172845 -0.251366 -1.312745 -0.001190 0.096055 0.052246
 19   1.215373 0.000001 -0.000001 0.000000 0.000000 0.000011
 20   1.215371 -0.000002 0.000000 0.000000 0.000000 0.000011
 21   4.220532 -0.244855 -0.431465 -0.001184 0.026242 0.052329
 22   1.350417 0.000000 0.000001 0.000000 0.000000 0.000004
 23   1.350409 0.000000 -0.000001 0.000000 0.000000 0.000004
 24   -2.244608 -0.093450 -2.595035 -0.605962 1.339172 2.554116
 25   4.640942 0.000000 0.000000 0.226964 -0.425950 -0.211481
 26   10.828048 0.000000 0.000001 0.000000 0.000000 -1.152266
 27   9.393336 -0.000001 0.000000 1.830472 0.002570 -0.262989
 28   1.442244 0.107454 1.746178 -1.373018 -0.516933 -0.281945
 29   1.063451 -0.000001 0.000000 0.000000 0.000000 0.000004
 30   1.376307 -0.000001 0.000000 0.000000 0.000000 0.000003
 31   4.172846 -0.251365 1.312745 0.001190 -0.096055 0.052246
 32   1.215374 0.000001 -0.000001 0.000000 0.000000 0.000026
 33   1.215373 0.000000 0.000001 0.000000 0.000000 0.000026
 34   4.220533 -0.244853 0.431466 0.001184 -0.026242 0.052329
 35   1.350415 -0.000001 -0.000001 0.000000 0.000000 0.000026
 36   1.350410 -0.000001 0.000001 0.000000 0.000000 0.000024
 37   2.110541 -0.000001 0.000000 -0.221705 -0.089814 0.242845
 38   0.891923 2.373050 -0.014527 -3.141592 -0.000001 1.413797
 39   7.228119 5.709445 3.726568 3.140796 -1.570796 0.000000
 40   2.450426 5.076127 0.001325 3.140791 -1.570796 0.000000
 41   6.312405 -4.528058 0.001311 3.140791 -1.570796 0.000000
 42   2.233309 1.152535 -7.309138 -1.570796 -1.570796 0.000000
 43   4.262825 -0.232720 -1.392178 0.001188 0.078478 0.052453
time 22
  0   0.000964 0.006728 36.414997 0.000000 -1.081507 -1.570843
  1   0.387058 0.738304 0.000000 -1.570795 -1.570451 0.000000
  2   -0.000007 0.000008 4.427393 -0.625948 -2.981601 -0.067056
  3   18.465939 0.000000 0.000000 0.000000 0.000000 -0.654887
  4   14.875443 0.000000 0.000000 0.605362 0.321203 -0.071813
  5   0.000006 -0.000004 -4.427393 -0.210069 3.130446 -0.277915
  6   18.465939 0.000000 0.000000 0.000000 0.000000 -1.009873
  7   14.875442 0.000000 0.000000 0.054721 0.190801 -0.020517
  8   2.255207 -0.007574 0.000003 0.211001 0.039375 0.007744
  9   9.514223 -0.009357 0.000000 -0.130636 0.039823 -0.186327
 10   11.752194 -0.001492 0.000000 -0.000012 -0.026163 -0.010141
 11   -2.103979 -0.093463 2.704420 -0.508693 -1.372509 3.648770
 12   4.640941 0.000000 0.000000 0.082217 0.516799 -0.322481
 13   10.828045 0.000000 0.000000 0.000000 0.000000 -0.994181
 14   9.393338 -0.000001 0.000000 -1.583431 0.014633 -0.251841
 15   1.442243 0.107453 -1.746178 1.372942 0.516925 -0.281962
 16   1.063450 0.000000 -0.000001 0.000000 0.000000 0.000004
 17   1.376307 -0.000001 0.000001 0.000000 0.000000 0.000006
 18   4.172845 -0.251366 -1.312745 -0.001190 0.096055 0.052246
 19   1.215373 0.000001 -0.000001 0.000000 0.000000 0.000011
 20   1.215371 -0.000002 0.000000 0.000000 0.000000 0.000011
 21   4.220532 -0.244855 -0.431465 -0.001184 0.026242 0.052329
 22   1.350417 0.000000 0.000001 0.000000 0.000000 0.000004
 23   1.350409 0.000000 -0.000001 0.000000 0.000000 0.000004
 24   -2.244608 -0.093450 -2.595035 -0.605962 1.339172 2.554116
 25   4.640942 0.000000 0.000000 0.176100 -0.511939 -0.223730
 26   10.828048 0.000000 0.000001 0.000000 0.000000 -1.101278
 27   9.393336 -0.000001 0.000000 1.830472 0.002570 -0.262989
 28   1.442244 0.107454 1.746178 -1.373018 -0.516933 -0.281945
 29   1.063451 -0.000001 0.000000 0.000000 0.000000 0.000004
 30   1.376307 -0.000001 0.000000 0.000000 0.000000 0.000003
 31   4.172846 -0.251365 1.312745 0.001190 -0.096055 0.052246
 32   1.215374 0.000001 -0.000001 0.000000 0.000000 0.000026
 33   1.215373 0.000000 0.000001 0.000000 0.000000 0.000026
 34   4.220533 -0.244853 0.431466 0.001184 -0.026242 0.052329
 35   1.350415 -0.000001 -0.000001 0.000000 0.000000 0.000026
 36   1.350410 -0.000001 0.000001 0.000000 0.000000 0.000024
 37   2.110541 -0.000001 0.000000 -0.082163 -0.084371 0.196841
 38   0.891923 2.373050 -0.014527 -3.141592 -0.000001 1.413797
 39   7.228119 5.709445 3.726568 3.140796 -1.570796 0.000000
 40   2.450426 5.076127 0.001325 3.140791 -1.570796 0.000000
 41   6.312405 -4.528058 0.001311 3.140791 -1.570796 0.000000
 42   2.233309 1.152535 -7.309138 -1.570796 -1.570796 0.000000
 43   4.262825 -0.232720 -1.392178 0.001188 0.078478 0.052453
time 23
  0   0.000964 0.006728 37.076782 0.000000 -1.081507 -1.570843
  1   -0.362965 0.640645 0.000000 -1.570795 -1.570451 0.000000
  2   -0.000007 0.000008 4.427393 -0.603241 -3.030270 0.033596
  3   18.465939 0.000000 0.000000 0.000000 0.000000 -0.653133
  4   14.875443 0.000000 0.000000 0.570699 0.313371 -0.016903
  5   0.000006 -0.000004 -4.427393 -0.200485 3.143169 -0.403228
  6   18.465939 0.000000 0.000000 0.000000 0.000000 -1.010136
  7   14.875442 0.000000 0.000000 0.057810 0.181130 -0.054958
  8   2.255207 -0.007574 0.000003 0.124126 0.035683 0.045894
  9   9.514223 -0.009357 0.000000 -0.196741 0.051139 -0.095816
 10   11.752194 -0.001492 0.000000 -0.000012 -0.026163 -0.010141
 11   -2.103979 -0.093463 2.704420 -0.508693 -1.372509 3.648770
 12   4.640941 0.000000 0.000000 -0.109614 0.435044 -0.477547
 13   10.828045 0.000000 0.000000 0.000000 0.000000 -1.040734
 14   9.393338 -0.000001 0.000000 -1.583431 0.014633 -0.251841
 15   1.442243 0.107453 -1.746178 1.372942 0.516925 -0.281962
 16   1.063450 0.000000 -0.000001 0.000000 0.000000 0.000004
 17   1.376307 -0.000001 0.000001 0.000000 0.000000 0.000006
 18   4.172845 -0.251366 -1.312745 -0.001190 0.096055 0.052246
 19   1.215373 0.000001 -0.000001 0.000000 0.000000 0.000011
 20   1.215371 -0.000002 0.000000 0.000000 0.000000 0.000011
 21   4.220532 -0.244855 -0.431465 -0.001184 0.026242 0.052329
 22   1.350417 0.000000 0.000001 0.000000 0.000000 0.000004
 23   1.350409 0.000000 -0.000001 0.000000 0.000000 0.000004
 24   -2.244608 -0.093450 -2.595035 -0.605962 1.339172 2.554116
 25   4.640942 0.000000 0.000000 0.101494 -0.584189 -0.230449
 26   10.828048 0.000000 0.000001 0.000000 0.000000 -1.047590
 27   9.393336 -0.000001 0.000000 1.830472 0.002570 -0.262989
 28   1.442244 0.107454 1.746178 -1.373018 -0.516933 -0.281945
 29   1.063451 -0.000001 0.000000 0.000000 0.000000 0.000004
 30   1.376307 -0.000001 0.000000 0.000000 0.000000 0.000003
 31   4.172846 -0.251365 1.312745 0.001190 -0.096055 0.052246
 32   1.215374 0.000001 -0.000001 0.000000 0.000000 0.000026
 33   1.215373 0.000000 0.000001 0.000000 0.000000 0.000026
 34   4.220533 -0.244853 0.431466 0.001184 -0.026242 0.052329
 35   1.350415 -0.000001 -0.000001 0.000000 0.000000 0.000026
 36   1.350410 -0.000001 0.000001 0.000000 0.000000 0.000024
 37   2.110541 -0.000001 0.000000 0.069668 -0.088912 0.126023
 38   0.891923 2.373050 -0.014527 -3.141592 -0.000001 1.413797
 39   7.228119 5.709445 3.726568 3.140796 -1.570796 0.000000
 40   2.450426 5.076127 0.001325 3.140791 -1.570796 0.000000
 41   6.312405 -4.528058 0.001311 3.140791 -1.570796 0.000000
 42   2.233309 1.152535 -7.309138 -1.570796 -1.570796 0.000000
 43   4.262825 -0.232720 -1.392178 0.001188 0.078478 0.052453
time 24
  0   0.000964 0.006728 37.785835 0.000000 -1.081507 -1.570843
  1   -1.155958 0.664083 0.000000 -1.570795 -1.570451 0.000000
  2   -0.000007 0.000008 4.427393 -0.561850 -3.073163 0.121857
  3   18.465939 0.000000 0.000000 0.000000 0.000000 -0.651305
  4   14.875443 0.000000 0.000000 0.519112 0.300430 0.019835
  5   0.000006 -0.000004 -4.427393 -0.183233 3.153883 -0.534624
  6   18.465939 0.000000 0.000000 0.000000 0.000000 -1.010464
  7   14.875442 0.000000 0.000000 0.056897 0.165792 -0.096677
  8   2.255207 -0.007574 0.000003 0.033497 0.035369 0.085864
  9   9.514223 -0.009357 0.000000 -0.264348 0.069230 -0.002381
 10   11.752194 -0.001492 0.000000 -0.000012 -0.026163 -0.010141
 11   -2.103979 -0.093463 2.704420 -0.508693 -1.372509 3.648770
 12   4.640941 0.000000 0.000000 -0.290520 0.304439 -0.558739
 13   10.828045 0.000000 0.000000 0.000000 0.000000 -1.084479
 14   9.393338 -0.000001 0.000000 -1.583431 0.014633 -0.251841
 15   1.442243 0.107453 -1.746178 1.372942 0.516925 -0.281962
 16   1.063450 0.000000 -0.000001 0.000000 0.000000 0.000004
 17   1.376307 -0.000001 0.000001 0.000000 0.000000 0.000006
 18   4.172845 -0.251366 -1.312745 -0.001190 0.096055 0.052246
 19   1.215373 0.000001 -0.000001 0.000000 0.000000 0.000011
 20   1.215371 -0.000002 0.000000 0.000000 0.000000 0.000011
 21   4.220532 -0.244855 -0.431465 -0.001184 0.026242 0.052329
 22   1.350417 0.000000 0.000001 0.000000 0.000000 0.000004
 23   1.350409 0.000000 -0.000001 0.000000 0.000000 0.000004
 24   -2.244608 -0.093450 -2.595035 -0.605962 1.339172 2.554116
 25   4.640942 0.000000 0.000000 0.003315 -0.634749 -0.226669
 26   10.828048 0.000000 0.000001 0.000000 0.000000 -0.992166
 27   9.393336 -0.000001 0.000000 1.830472 0.002570 -0.262989
 28   1.442244 0.107454 1.746178 -1.373018 -0.516933 -0.281945
 29   1.063451 -0.000001 0.000000 0.000000 0.000000 0.000004
 30   1.376307 -0.000001 0.000000 0.000000 0.000000 0.000003
 31   4.172846 -0.251365 1.312745 0.001190 -0.096055 0.052246
 32   1.215374 0.000001 -0.000001 0.000000 0.000000 0.000026
 33   1.215373 0.000000 0.000001 0.000000 0.000000 0.000026
 34   4.220533 -0.244853 0.431466 0.001184 -0.026242 0.052329
 35   1.350415 -0.000001 -0.000001 0.000000 0.000000 0.000026
 36   1.350410 -0.000001 0.000001 0.000000 0.000000 0.000024
 37   2.110541 -0.000001 0.000000 0.230497 -0.093783 0.026435
 38   0.891923 2.373050 -0.014527 -3.141592 -0.000001 1.413797
 39   7.228119 5.709445 3.726568 3.140796 -1.570796 0.000000
 40   2.450426 5.076127 0.001325 3.140791 -1.570796 0.000000
 41   6.312405 -4.528058 0.001311 3.140791 -1.570796 0.000000
 42   2.233309 1.152535 -7.309138 -1.570796 -1.570796 0.000000
 43   4.262825 -0.232720 -1.392178 0.001188 0.078478 0.052453
time 25
  0   0.000964 0.006728 38.463379 0.000000 -1.081507 -1.570843
  1   -1.937232 0.820338 0.000000 -1.570795 -1.570451 0.000000
  2   -0.000007 0.000008 4.427393 -0.506567 -3.109617 0.201636
  3   18.465939 0.000000 0.000000 0.000000 0.000000 -0.649258
  4   14.875443 0.000000 0.000000 0.455367 0.282509 0.042747
  5   0.000006 -0.000004 -4.427393 -0.160136 3.161440 -0.670792
  6   18.465939 0.000000 0.000000 0.000000 0.000000 -1.010858
  7   14.875442 0.000000 0.000000 0.052545 0.145996 -0.143649
  8   2.255207 -0.007574 0.000003 -0.058905 0.038766 0.126529
  9   9.514223 -0.009357 0.000000 -0.331391 0.094040 0.091637
 10   11.752194 -0.001492 0.000000 -0.000012 -0.026163 -0.010141
 11   -2.103979 -0.093463 2.704420 -0.508693 -1.372509 3.648770
 12   4.640941 0.000000 0.000000 -0.495078 0.142734 -0.563071
 13   10.828045 0.000000 0.000000 0.000000 0.000000 -1.127127
 14   9.393338 -0.000001 0.000000 -1.583431 0.014633 -0.251841
 15   1.442243 0.107453 -1.746178 1.372942 0.516925 -0.281962
 16   1.063450 0.000000 -0.000001 0.000000 0.000000 0.000004
 17   1.376307 -0.000001 0.000001 0.000000 0.000000 0.000006
 18   4.172845 -0.251366 -1.312745 -0.001190 0.096055 0.052246
 19   1.215373 0.000001 -0.000001 0.000000 0.000000 0.000011
 20   1.215371 -0.000002 0.000000 0.000000 0.000000 0.000011
 21   4.220532 -0.244855 -0.431465 -0.001184 0.026242 0.052329
 22   1.350417 0.000000 0.000001 0.000000 0.000000 0.000004
 23   1.350409 0.000000 -0.000001 0.000000 0.000000 0.000004
 24   -2.244608 -0.093450 -2.595035 -0.605962 1.339172 2.554116
 25   4.640942 0.000000 0.000000 -0.112946 -0.657066 -0.211341
 26   10.828048 0.000000 0.000001 0.000000 0.000000 -0.935842
 27   9.393336 -0.000001 0.000000 1.830472 0.002570 -0.262989
 28   1.442244 0.107454 1.746178 -1.373018 -0.516933 -0.281945
 29   1.063451 -0.000001 0.000000 0.000000 0.000000 0.000004
 30   1.376307 -0.000001 0.000000 0.000000 0.000000 0.000003
 31   4.172846 -0.251365 1.312745 0.001190 -0.096055 0.052246
 32   1.215374 0.000001 -0.000001 0.000000 0.000000 0.000026
 33   1.215373 0.000000 0.000001 0.000000 0.000000 0.000026
 34   4.220533 -0.244853 0.431466 0.001184 -0.026242 0.052329
 35   1.350415 -0.000001 -0.000001 0.000000 0.000000 0.000026
 36   1.350410 -0.000001 0.000001 0.000000 0.000000 0.000024
 37   2.110541 -0.000001 0.000000 0.398061 -0.078297 -0.120475
 38   0.891923 2.373050 -0.014527 -3.141592 -0.000001 1.413797
 39   7.228119 5.709445 3.726568 3.140796 -1.570796 0.000000
 40   2.450426 5.076127 0.001325 3.140791 -1.570796 0.000000
 41   6.312405 -4.528058 0.001311 3.140791 -1.570796 0.000000
 42   2.233309 1.152535 -7.309138 -1.570796 -1.570796 0.000000
 43   4.262825 -0.232720 -1.392178 0.001188 0.078478 0.052453
time 26
  0   0.000964 0.006728 39.093647 0.000000 -1.081507 -1.570843
  1   -2.652097 1.105502 0.000000 -1.570795 -1.570451 0.000000
  2   -0.000007 0.000008 4.427393 -0.441799 -3.139538 0.276553
  3   18.465939 0.000000 0.000000 0.000000 0.000000 -0.647211
  4   14.875443 0.000000 0.000000 0.384263 0.259714 0.056692
  5   0.000006 -0.000004 -4.427393 -0.133012 3.164884 -0.810049
  6   18.465939 0.000000 0.000000 0.000000 0.000000 -1.011317
  7   14.875442 0.000000 0.000000 0.045350 0.123018 -0.193811
  8   2.255207 -0.007574 0.000003 -0.151138 0.045915 0.166697
  9   9.514223 -0.009357 0.000000 -0.395996 0.124979 0.184076
 10   11.752194 -0.001492 0.000000 -0.000012 -0.026163 -0.010141
 11   -2.103979 -0.093463 2.704420 -0.508693 -1.372509 3.648770
 12   4.640941 0.000000 0.000000 -0.750853 -0.036072 -0.495518
 13   10.828045 0.000000 0.000000 0.000000 0.000000 -1.170995
 14   9.393338 -0.000001 0.000000 -1.583431 0.014633 -0.251841
 15   1.442243 0.107453 -1.746178 1.372942 0.516925 -0.281962
 16   1.063450 0.000000 -0.000001 0.000000 0.000000 0.000004
 17   1.376307 -0.000001 0.000001 0.000000 0.000000 0.000006
 18   4.172845 -0.251366 -1.312745 -0.001190 0.096055 0.052246
 19   1.215373 0.000001 -0.000001 0.000000 0.000000 0.000011
 20   1.215371 -0.000002 0.000000 0.000000 0.000000 0.000011
 21   4.220532 -0.244855 -0.431465 -0.001184 0.026242 0.052329
 22   1.350417 0.000000 0.000001 0.000000 0.000000 0.000004
 23   1.350409 0.000000 -0.000001 0.000000 0.000000 0.000004
 24   -2.244608 -0.093450 -2.595035 -0.605962 1.339172 2.554116
 25   4.640942 0.000000 0.000000 -0.235966 -0.647442 -0.188243
 26   10.828048 0.000000 0.000001 0.000000 0.000000 -0.879517
 27   9.393336 -0.000001 0.000000 1.830472 0.002570 -0.262989
 28   1.442244 0.107454 1.746178 -1.373018 -0.516933 -0.281945
 29   1.063451 -0.000001 0.000000 0.000000 0.000000 0.000004
 30   1.376307 -0.000001 0.000000 0.000000 0.000000 0.000003
 31   4.172846 -0.251365 1.312745 0.001190 -0.096055 0.052246
 32   1.215374 0.000001 -0.000001 0.000000 0.000000 0.000026
 33   1.215373 0.000000 0.000001 0.000000 0.000000 0.000026
 34   4.220533 -0.244853 0.431466 0.001184 -0.026242 0.052329
 35   1.350415 -0.000001 -0.000001 0.000000 0.000000 0.000026
 36   1.350410 -0.000001 0.000001 0.000000 0.000000 0.000024
 37   2.110541 -0.000001 0.000000 0.563878 -0.016928 -0.309810
 38   0.891923 2.373050 -0.014527 -3.141592 -0.000001 1.413797
 39   7.228119 5.709445 3.726568 3.140796 -1.570796 0.000000
 40   2.450426 5.076127 0.001325 3.140791 -1.570796 0.000000
 41   6.312405 -4.528058 0.001311 3.140791 -1.570796 0.000000
 42   2.233309 1.152535 -7.309138 -1.570796 -1.570796 0.000000
 43   4.262825 -0.232720 -1.392178 0.001188 0.078478 0.052453
time 27
  0   0.000964 0.006728 39.629379 0.000000 -1.081507 -1.570843
  1   -3.265397 1.492233 0.000000 -1.570795 -1.570451 0.000000
  2   -0.000007 0.000008 4.427393 -0.371569 -3.163588 0.350041
  3   18.465939 0.000000 0.000000 0.000000 0.000000 -0.645018
  4   14.875443 0.000000 0.000000 0.310244 0.232598 0.066568
  5   0.000006 -0.000004 -4.427393 -0.104164 3.164023 -0.950803
  6   18.465939 0.000000 0.000000 0.000000 0.000000 -1.011777
  7   14.875442 0.000000 0.000000 0.036120 0.098161 -0.245210
  8   2.255207 -0.007574 0.000003 -0.241261 0.056461 0.205277
  9   9.514223 -0.009357 0.003906 -0.456549 0.160877 0.272964
 10   11.752194 -0.001492 0.000000 -0.000012 -0.026163 -0.010141
 11   -2.103979 -0.093463 2.704420 -0.508693 -1.372509 3.648770
 12   4.640941 0.000000 0.000000 -1.055301 -0.205065 -0.353037
 13   10.828045 0.000000 0.000000 0.000000 0.000000 -1.215717
 14   9.393338 -0.000001 0.000000 -1.583431 0.014633 -0.251841
 15   1.442243 0.107453 -1.746178 1.372942 0.516925 -0.281962
 16   1.063450 0.000000 -0.000001 0.000000 0.000000 0.000004
 17   1.376307 -0.000001 0.000001 0.000000 0.000000 0.000006
 18   4.172845 -0.251366 -1.312745 -0.001190 0.096055 0.052246
 19   1.215373 0.000001 -0.000001 0.000000 0.000000 0.000011
 20   1.215371 -0.000002 0.000000 0.000000 0.000000 0.000011
 21   4.220532 -0.244855 -0.431465 -0.001184 0.026242 0.052329
 22   1.350417 0.000000 0.000001 0.000000 0.000000 0.000004
 23   1.350409 0.000000 -0.000001 0.000000 0.000000 0.000004
 24   -2.244608 -0.093450 -2.595035 -0.605962 1.339172 2.554116
 25   4.640942 0.000000 0.000000 -0.352142 -0.606923 -0.163745
 26   10.828048 0.000000 0.000001 0.000000 0.000000 -0.824093
 27   9.393336 -0.000001 0.000000 1.830472 0.002570 -0.262989
 28   1.442244 0.107454 1.746178 -1.373018 -0.516933 -0.281945
 29   1.063451 -0.000001 0.000000 0.000000 0.000000 0.000004
 30   1.376307 -0.000001 0.000000 0.000000 0.000000 0.000003
 31   4.172846 -0.251365 1.312745 0.001190 -0.096055 0.052246
 32   1.215374 0.000001 -0.000001 0.000000 0.000000 0.000026
 33   1.215373 0.000000 0.000001 0.000000 0.000000 0.000026
 34   4.220533 -0.244853 0.431466 0.001184 -0.026242 0.052329
 35   1.350415 -0.000001 -0.000001 0.000000 0.000000 0.000026
 36   1.350410 -0.000001 0.000001 0.000000 0.000000 0.000024
 37   2.110541 -0.000001 0.000000 0.713292 0.096100 -0.508232
 38   0.891923 2.373050 -0.014527 -3.141592 -0.000001 1.413797
 39   7.228119 5.709445 3.726568 3.140796 -1.570796 0.000000
 40   2.450426 5.076127 0.001325 3.140791 -1.570796 0.000000
 41   6.312405 -4.528058 0.001311 3.140791 -1.570796 0.000000
 42   2.233309 1.152535 -7.309138 -1.570796 -1.570796 0.000000
 43   4.262825 -0.232720 -1.392178 0.001188 0.078478 0.052453
time 28
  0   0.000964 0.006728 40.054810 0.000000 -1.081507 -1.570843
  1   -3.741974 1.945372 0.000000 -1.570795 -1.570451 0.000000
  2   -0.000007 0.000008 4.427393 -0.299807 -3.182430 0.424958
  3   18.465939 0.000000 0.000000 0.000000 0.000000 -0.642898
  4   14.875443 0.000000 0.000000 0.237326 0.202438 0.077115
  5   0.000006 -0.000004 -4.427393 -0.075699 3.159144 -1.091557
  6   18.465939 0.000000 0.000000 0.000000 0.000000 -1.012236
  7   14.875442 0.000000 0.000000 0.025626 0.072909 -0.296046
  8   2.255207 -0.007574 0.000003 -0.327249 0.069796 0.241277
  9   9.514223 -0.009357 0.003906 -0.511775 0.200122 0.356570
 10   11.752194 -0.001492 0.000000 -0.000012 -0.026163 -0.010141
 11   -2.103979 -0.093463 2.704420 -0.508693 -1.372509 3.648770
 12   4.640941 0.000000 0.000000 -1.400535 -0.334372 -0.141540
 13   10.828045 0.000000 0.000000 0.000000 0.000000 -1.260866
 14   9.393338 -0.000001 0.000000 -1.583431 0.014633 -0.251841
 15   1.442243 0.107453 -1.746178 1.372942 0.516925 -0.281962
 16   1.063450 0.000000 -0.000001 0.000000 0.000000 0.000004
 17   1.376307 -0.000001 0.000001 0.000000 0.000000 0.000006
 18   4.172845 -0.251366 -1.312745 -0.001190 0.096055 0.052246
 19   1.215373 0.000001 -0.000001 0.000000 0.000000 0.000011
 20   1.215371 -0.000002 0.000000 0.000000 0.000000 0.000011
 21   4.220532 -0.244855 -0.431465 -0.001184 0.026242 0.052329
 22   1.350417 0.000000 0.000001 0.000000 0.000000 0.000004
 23   1.350409 0.000000 -0.000001 0.000000 0.000000 0.000004
 24   -2.244608 -0.093450 -2.595035 -0.605962 1.339172 2.554116
 25   4.640942 0.000000 0.000000 -0.450660 -0.540950 -0.142537
 26   10.828048 0.000000 0.000001 0.000000 0.000000 -0.770469
 27   9.393336 -0.000001 0.000000 1.830472 0.002570 -0.262989
 28   1.442244 0.107454 1.746178 -1.373018 -0.516933 -0.281945
 29   1.063451 -0.000001 0.000000 0.000000 0.000000 0.000004
 30   1.376307 -0.000001 0.000000 0.000000 0.000000 0.000003
 31   4.172846 -0.251365 1.312745 0.001190 -0.096055 0.052246
 32   1.215374 0.000001 -0.000001 0.000000 0.000000 0.000026
 33   1.215373 0.000000 0.000001 0.000000 0.000000 0.000026
 34   4.220533 -0.244853 0.431466 0.001184 -0.026242 0.052329
 35   1.350415 -0.000001 -0.000001 0.000000 0.000000 0.000026
 36   1.350410 -0.000001 0.000001 0.000000 0.000000 0.000024
 37   2.110541 -0.000001 0.000000 0.836639 0.249419 -0.691163
 38   0.891923 2.373050 -0.014527 -3.141592 -0.000001 1.413797
 39   7.228119 5.709445 3.726568 3.140796 -1.570796 0.000000
 40   2.450426 5.076127 0.001325 3.140791 -1.570796 0.000000
 41   6.312405 -4.528058 0.001311 3.140791 -1.570796 0.000000
 42   2.233309 1.152535 -7.309138 -1.570796 -1.570796 0.000000
 43   4.262825 -0.232720 -1.392178 0.001188 0.078478 0.052453
time 29
  0   0.000964 0.006728 40.354191 0.000000 -1.081507 -1.570843
  1   -4.081829 2.425855 0.000000 -1.570795 -1.570451 0.000000
  2   -0.000007 0.000008 4.427393 -0.229960 -3.196728 0.504355
  3   18.465939 0.000000 0.000000 0.000000 0.000000 -0.640777
  4   14.875443 0.000000 0.000000 0.168888 0.171321 0.092719
  5   0.000006 -0.000004 -4.427393 -0.049630 3.151013 -1.230534
  6   18.465939 0.000000 0.000000 0.000000 0.000000 -1.012696
  7   14.875442 0.000000 0.000000 0.014746 0.048810 -0.344669
  8   2.255207 -0.007574 0.000003 -0.407373 0.085016 0.273835
  9   9.518129 -0.009357 0.003906 -0.560660 0.240805 0.433378
 10   11.752194 -0.001492 0.000000 -0.000012 -0.026163 -0.010141
 11   -2.103979 -0.093463 2.704420 -0.508693 -1.372509 3.648770
 12   4.640941 0.000000 0.000000 -1.758931 -0.404148 0.114270
 13   10.828045 0.000000 0.000000 0.000000 0.000000 -1.306015
 14   9.393338 -0.000001 0.000000 -1.583431 0.014633 -0.251841
 15   1.442243 0.107453 -1.746178 1.372942 0.516925 -0.281962
 16   1.063450 0.000000 -0.000001 0.000000 0.000000 0.000004
 17   1.376307 -0.000001 0.000001 0.000000 0.000000 0.000006
 18   4.172845 -0.251366 -1.312745 -0.001190 0.096055 0.052246
 19   1.215373 0.000001 -0.000001 0.000000 0.000000 0.000011
 20   1.215371 -0.000002 0.000000 0.000000 0.000000 0.000011
 21   4.220532 -0.244855 -0.431465 -0.001184 0.026242 0.052329
 22   1.350417 0.000000 0.000001 0.000000 0.000000 0.000004
 23   1.350409 0.000000 -0.000001 0.000000 0.000000 0.000004
 24   -2.244608 -0.093450 -2.595035 -0.605962 1.339172 2.554116
 25   4.640942 0.000000 0.000000 -0.526702 -0.457821 -0.125319
 26   10.828048 0.000000 0.000001 0.000000 0.000000 -0.719481
 27   9.393336 -0.000001 0.000000 1.830472 0.002570 -0.262989
 28   1.442244 0.107454 1.746178 -1.373018 -0.516933 -0.281945
 29   1.063451 -0.000001 0.000000 0.000000 0.000000 0.000004
 30   1.376307 -0.000001 0.000000 0.000000 0.000000 0.000003
 31   4.172846 -0.251365 1.312745 0.001190 -0.096055 0.052246
 32   1.215374 0.000001 -0.000001 0.000000 0.000000 0.000026
 33   1.215373 0.000000 0.000001 0.000000 0.000000 0.000026
 34   4.220533 -0.244853 0.431466 0.001184 -0.026242 0.052329
 35   1.350415 -0.000001 -0.000001 0.000000 0.000000 0.000026
 36   1.350410 -0.000001 0.000001 0.000000 0.000000 0.000024
 37   2.110541 -0.000001 0.000000 0.934072 0.420779 -0.845089
 38   0.891923 2.373050 -0.014527 -3.141592 -0.000001 1.413797
 39   7.228119 5.709445 3.726568 3.140796 -1.570796 0.000000
 40   2.450426 5.076127 0.001325 3.140791 -1.570796 0.000000
 41   6.312405 -4.528058 0.001311 3.140791 -1.570796 0.000000
 42   2.233309 1.152535 -7.309138 -1.570796 -1.570796 0.000000
 43   4.262825 -0.232720 -1.392178 0.001188 0.078478 0.052453
time 30
  0   0.000964 0.006728 40.527515 0.000000 -1.081507 -1.570843
  1   -4.288866 2.894619 0.000000 -1.570795 -1.570451 0.000000
  2   -0.000007 0.000008 4.427393 -0.165671 -3.207238 0.591473
  3   18.465939 0.000000 0.000000 0.000000 0.000000 -0.638804
  4   14.875443 0.000000 0.000000 0.107881 0.141928 0.117290
  5   0.000006 -0.000004 -4.427393 -0.027779 3.141351 -1.366421
  6   18.465939 0.000000 0.000000 0.000000 0.000000 -1.013089
  7   14.875442 0.000000 0.000000 0.004428 0.027408 -0.389502
  8   2.255207 -0.007574 0.000003 -0.479817 0.101062 0.302323
  9   9.518129 -0.009357 0.003906 -0.602642 0.280829 0.502090
 10   11.752194 -0.001492 0.000000 -0.000012 -0.026163 -0.010141
 11   -2.103979 -0.093463 2.704420 -0.508693 -1.372509 3.648770
 12   4.640941 0.000000 0.000000 -2.084176 -0.419951 0.375173
 13   10.828045 0.000000 0.000000 0.000000 0.000000 -1.350737
 14   9.393338 -0.000001 0.000000 -1.583431 0.014633 -0.251841
 15   1.442243 0.107453 -1.746178 1.372942 0.516925 -0.281962
 16   1.063450 0.000000 -0.000001 0.000000 0.000000 0.000004
 17   1.376307 -0.000001 0.000001 0.000000 0.000000 0.000006
 18   4.172845 -0.251366 -1.312745 -0.001190 0.096055 0.052246
 19   1.215373 0.000001 -0.000001 0.000000 0.000000 0.000011
 20   1.215371 -0.000002 0.000000 0.000000 0.000000 0.000011
 21   4.220532 -0.244855 -0.431465 -0.001184 0.026242 0.052329
 22   1.350417 0.000000 0.000001 0.000000 0.000000 0.000004
 23   1.350409 0.000000 -0.000001 0.000000 0.000000 0.000004
 24   -2.244608 -0.093450 -2.595035 -0.605962 1.339172 2.554116
 25   4.640942 0.000000 0.000000 -0.580523 -0.367091 -0.110060
 26   10.828048 0.000000 0.000001 0.000000 0.000000 -0.672030
 27   9.393336 -0.000001 0.000000 1.830472 0.002570 -0.262989
 28   1.442244 0.107454 1.746178 -1.373018 -0.516933 -0.281945
 29   1.063451 -0.000001 0.000000 0.000000 0.000000 0.000004
 30   1.376307 -0.000001 0.000000 0.000000 0.000000 0.000003
 31   4.172846 -0.251365 1.312745 0.001190 -0.096055 0.052246
 32   1.215374 0.000001 -0.000001 0.000000 0.000000 0.000026
 33   1.215373 0.000000 0.000001 0.000000 0.000000 0.000026
 34   4.220533 -0.244853 0.431466 0.001184 -0.026242 0.052329
 35   1.350415 -0.000001 -0.000001 0.000000 0.000000 0.000026
 36   1.350410 -0.000001 0.000001 0.000000 0.000000 0.000024
 37   2.110541 -0.000001 0.000000 1.013920 0.583991 -0.962711
 38   0.891923 2.373050 -0.014527 -3.141592 -0.000001 1.413797
 39   7.228119 5.709445 3.726568 3.140796 -1.570796 0.000000
 40   2.450426 5.076127 0.001325 3.140791 -1.570796 0.000000
 41   6.312405 -4.528058 0.001311 3.140791 -1.570796 0.000000
 42   2.233309 1.152535 -7.309138 -1.570796 -1.570796 0.000000
 43   4.262825 -0.232720 -1.392178 0.001188 0.078478 0.052453
end
