version 1
nodes
  0 "Bip01" -1
  1 "Bip01 Pelvis" 0
  2 "Bip01 L Thigh" 1
  3 "Bip01 L Calf" 2
  4 "Bip01 L Foot" 3
  5 "Bip01 R Thigh" 1
  6 "Bip01 R Calf" 5
  7 "Bip01 R Foot" 6
  8 "Bip01 Spine" 1
  9 "Bip01 Spine1" 8
 10 "Bip01 Neck" 9
 11 "Bip01 L Clavicle" 10
 12 "Bip01 L UpperArm" 11
 13 "Bip01 L Forearm" 12
 14 "Bip01 L Hand" 13
 15 "Bip01 L Finger0" 14
 16 "Bip01 L Finger01" 15
 17 "Bip01 L Finger02" 16
 18 "Bip01 L Finger1" 14
 19 "Bip01 L Finger11" 18
 20 "Bip01 L Finger12" 19
 21 "Bip01 L Finger2" 14
 22 "Bip01 L Finger21" 21
 23 "Bip01 L Finger22" 22
 24 "Bip01 R Clavicle" 10
 25 "Bip01 R UpperArm" 24
 26 "Bip01 R Forearm" 25
 27 "Bip01 R Hand" 26
 28 "Bip01 R Finger0" 27
 29 "Bip01 R Finger01" 28
 30 "Bip01 R Finger02" 29
 31 "Bip01 R Finger1" 27
 32 "Bip01 R Finger11" 31
 33 "Bip01 R Finger12" 32
 34 "Bip01 R Finger2" 27
 35 "Bip01 R Finger21" 34
 36 "Bip01 R Finger22" 35
 37 "Bip01 Head" 10
 38 "Bone05" 37
 39 "Bone08" 9
 40 "Bone16" 8
 41 "Bone01" 8
 42 "Bone03" 1
 43 "Bip01 R Finger4" 27
end
skeleton
time 0
  0   1.727579 6.791367 38.305809 0.000000 0.000000 -1.701715
  1   0.164395 -0.125004 0.000000 -1.570795 -1.570451 0.000000
  2   -0.000007 0.000008 4.427393 -0.170749 -3.152983 0.000903
  3   18.465939 0.000000 0.000000 0.000000 0.000000 -0.416557
  4   14.875443 0.000000 0.000000 0.018467 0.017437 0.402071
  5   0.000006 -0.000004 -4.427393 0.106016 3.095625 -0.362237
  6   18.465939 0.000000 0.000000 0.000000 0.000000 -0.394334
  7   14.875442 0.000000 0.000000 -0.002065 0.005218 0.029344
  8   2.255207 -0.007574 0.000003 0.122101 -0.017401 -0.001322
  9   9.514223 -0.009357 0.000000 -0.008779 0.002352 -0.095902
 10   11.752194 -0.001492 0.000000 0.000024 0.043599 0.440031
 11   -2.111792 0.863597 2.563791 0.697216 -1.395374 2.006326
 12   4.640941 0.000000 0.000000 0.738480 1.089874 0.724820
 13   10.828045 0.000000 0.000000 0.000000 0.000000 -0.470452
 14   9.393338 -0.000001 0.000000 -1.569611 0.034195 0.000037
 15   1.442243 0.107453 -1.746178 1.686435 0.539209 0.325885
 16   1.063450 0.000000 -0.000001 0.000000 0.000000 0.199056
 17   1.376307 -0.000001 0.000001 0.000000 0.000000 0.199049
 18   4.172845 -0.251366 -1.312745 0.008050 0.095731 0.148659
 19   1.215373 0.000001 -0.000001 0.000000 0.000000 0.645758
 20   1.215371 -0.000002 0.000000 0.000000 0.000000 0.645758
 21   4.220532 -0.244855 -0.431465 0.001333 0.026242 0.148339
 22   1.350417 0.000000 0.000001 0.000000 0.000000 0.863926
 23   1.350409 0.000000 -0.000001 0.000000 0.000000 0.863926
 24   -1.885222 0.863610 -2.731758 -0.942447 1.461427 1.764337
 25   4.640942 0.000000 0.000000 -0.601477 -1.183875 0.506934
 26   10.828048 0.000000 0.000001 0.000000 0.000000 -0.234230
 27   9.393336 -0.000001 0.000000 1.569611 -0.034192 0.000001
 28   1.442244 0.107454 1.746178 -1.686405 -0.539236 0.325898
 29   1.063451 -0.000001 0.000000 0.000000 0.000000 0.199056
 30   1.376307 -0.000001 0.000000 0.000000 0.000000 0.199059
 31   4.172846 -0.251365 1.312745 -0.008050 -0.095731 0.148659
 32   1.215374 0.000001 -0.000001 0.000000 0.000000 0.645746
 33   1.215373 0.000000 0.000001 0.000000 0.000000 0.645746
 34   4.220533 -0.244853 0.431466 -0.001333 -0.026242 0.148339
 35   1.350415 -0.000001 -0.000001 0.000000 0.000000 0.863937
 36   1.350410 -0.000001 0.000001 0.000000 0.000000 0.863925
 37   2.110541 -0.000001 0.000000 0.002417 -0.010493 -0.153718
 38   0.891923 2.373050 -0.014527 -3.141592 -0.000001 1.413797
 39   7.228119 5.709445 3.726568 3.140796 -1.570796 0.000000
 40   2.450426 5.076127 0.001325 3.140791 -1.570796 0.000000
 41   6.312405 -4.528058 0.001311 3.140791 -1.570796 0.000000
 42   2.233309 1.152535 -7.309138 -1.147423 -1.562088 -0.851036
 43   4.262825 -0.232720 -1.392178 0.016840 0.076668 0.253759
time 1
  0   1.891647 6.791367 38.479134 0.012080 0.000000 -1.701715
  1   0.445653 -1.019562 0.000000 -0.000030 -1.672403 -1.570772
  2   -0.000007 0.000008 4.427393 -0.166917 -3.036519 -0.015491
  3   18.465939 0.000000 0.000000 0.000000 0.000000 -0.475335
  4   14.875443 0.000000 0.000000 0.016583 -0.006550 0.440192
  5   0.000006 -0.000004 -4.427393 0.198215 3.207645 -0.263690
  6   18.465939 0.000000 0.000000 0.000000 0.000000 -0.196965
  7   14.875442 0.000000 0.000000 -0.060781 -0.025945 -0.065800
  8   2.243488 -0.007574 -0.226566 0.080077 0.014552 -0.015913
  9   9.514223 -0.009357 0.000000 -0.008742 -0.031584 -0.123439
 10   11.752194 -0.001492 0.000000 -0.000479 0.052012 0.433483
 11   -2.139136 0.847971 2.544259 0.620423 -1.317160 2.094786
 12   4.640941 0.000000 0.000000 0.769769 0.769350 0.928356
 13   10.828045 0.000000 0.000000 0.000000 0.000000 -0.869045
 14   9.393338 -0.000001 0.000000 -1.569611 0.034195 0.000037
 15   1.442243 0.107453 -1.746178 1.686435 0.539209 0.325885
 16   1.063450 0.000000 -0.000001 0.000000 0.000000 0.199056
 17   1.376307 -0.000001 0.000001 0.000000 0.000000 0.199049
 18   4.172845 -0.251366 -1.312745 0.008050 0.095731 0.148659
 19   1.215373 0.000001 -0.000001 0.000000 0.000000 0.645758
 20   1.215371 -0.000002 0.000000 0.000000 0.000000 0.645758
 21   4.220532 -0.244855 -0.431465 0.001333 0.026242 0.148339
 22   1.350417 0.000000 0.000001 0.000000 0.000000 0.863926
 23   1.350409 0.000000 -0.000001 0.000000 0.000000 0.863926
 24   -1.869597 0.851891 -2.747383 -1.309480 1.364561 1.412223
 25   4.640942 0.000000 0.000000 -0.951273 -1.010992 0.969382
 26   10.828048 0.000000 0.000001 0.000000 0.000000 -0.653191
 27   9.393336 -0.000001 0.000000 1.569611 -0.034192 0.000001
 28   1.442244 0.107454 1.746178 -1.686405 -0.539236 0.325898
 29   1.063451 -0.000001 0.000000 0.000000 0.000000 0.199056
 30   1.376307 -0.000001 0.000000 0.000000 0.000000 0.199059
 31   4.172846 -0.251365 1.312745 -0.008050 -0.095731 0.148659
 32   1.215374 0.000001 -0.000001 0.000000 0.000000 0.645746
 33   1.215373 0.000000 0.000001 0.000000 0.000000 0.645746
 34   4.220533 -0.244853 0.431466 -0.001333 -0.026242 0.148339
 35   1.350415 -0.000001 -0.000001 0.000000 0.000000 0.863937
 36   1.350410 -0.000001 0.000001 0.000000 0.000000 0.863925
 37   2.110541 -0.000001 0.000000 -0.069154 0.054696 -0.282217
 38   0.891923 2.373050 -0.014527 -3.141592 -0.000001 1.413797
 39   7.228119 5.709445 3.726568 3.140796 -1.570796 0.000000
 40   2.450426 5.076127 0.001325 3.119025 -1.570796 0.000000
 41   6.312405 -4.528058 0.001311 3.130687 -1.570796 0.000000
 42   2.233309 1.152535 -7.309138 -1.202166 -1.457384 -0.682725
 43   4.262825 -0.232720 -1.392178 0.016840 0.076668 0.253759
time 2
  0   1.727579 6.791367 38.353081 0.025886 0.000000 -1.701715
  1   0.320650 -1.601611 0.000000 -0.000030 -1.727791 -1.570772
  2   -0.000007 0.000008 4.427393 -0.157336 -2.965220 -0.054284
  3   18.465939 0.000000 0.000000 0.000000 0.000000 -0.559482
  4   14.875443 0.000000 0.000000 0.015232 -0.029792 0.481907
  5   0.000006 -0.000004 -4.427393 0.136494 3.274417 -0.337998
  6   18.465939 0.000000 0.000000 0.000000 0.000000 -0.317080
  7   14.875442 0.000000 0.000000 0.028364 -0.039101 -0.015752
  8   2.227862 -0.007574 -0.351570 0.042990 0.026276 -0.005557
  9   9.514223 -0.009357 0.000000 -0.008591 -0.055440 -0.119564
 10   11.752194 -0.001492 0.000000 0.000024 0.043599 0.440031
 11   -2.111792 0.863597 2.563791 0.593365 -1.273369 2.121209
 12   4.640941 0.000000 0.000000 0.721718 0.583400 1.039168
 13   10.828045 0.000000 0.000000 0.000000 0.000000 -1.176364
 14   9.393338 -0.000001 0.000000 -1.569611 0.034195 0.000037
 15   1.442243 0.107453 -1.746178 1.686435 0.539209 0.325885
 16   1.063450 0.000000 -0.000001 0.000000 0.000000 0.199056
 17   1.376307 -0.000001 0.000001 0.000000 0.000000 0.199049
 18   4.172845 -0.251366 -1.312745 0.008050 0.095731 0.148659
 19   1.215373 0.000001 -0.000001 0.000000 0.000000 0.645758
 20   1.215371 -0.000002 0.000000 0.000000 0.000000 0.645758
 21   4.220532 -0.244855 -0.431465 0.001333 0.026242 0.148339
 22   1.350417 0.000000 0.000001 0.000000 0.000000 0.863926
 23   1.350409 0.000000 -0.000001 0.000000 0.000000 0.863926
 24   -1.885222 0.863610 -2.731758 -1.331511 1.309092 1.387267
 25   4.640942 0.000000 0.000000 -1.044129 -0.907360 1.102020
 26   10.828048 0.000000 0.000001 0.000000 0.000000 -0.932305
 27   9.393336 -0.000001 0.000000 1.569611 -0.034192 0.000001
 28   1.442244 0.107454 1.746178 -1.686405 -0.539236 0.325898
 29   1.063451 -0.000001 0.000000 0.000000 0.000000 0.199056
 30   1.376307 -0.000001 0.000000 0.000000 0.000000 0.199059
 31   4.172846 -0.251365 1.312745 -0.008050 -0.095731 0.148659
 32   1.215374 0.000001 -0.000001 0.000000 0.000000 0.645746
 33   1.215373 0.000000 0.000001 0.000000 0.000000 0.645746
 34   4.220533 -0.244853 0.431466 -0.001333 -0.026242 0.148339
 35   1.350415 -0.000001 -0.000001 0.000000 0.000000 0.863937
 36   1.350410 -0.000001 0.000001 0.000000 0.000000 0.863925
 37   2.110541 -0.000001 0.000000 -0.130956 0.112126 -0.366408
 38   0.891923 2.373050 -0.014527 -3.141592 -0.000001 1.413797
 39   7.228119 5.709445 3.726568 3.140796 -1.570796 0.000000
 40   2.450426 5.076127 0.001325 3.100154 -1.570796 0.000000
 41   6.312405 -4.528058 0.001311 3.119154 -1.570796 0.000000
 42   2.233309 1.152535 -7.309138 -1.157681 -1.387659 -0.805655
 43   4.262825 -0.232720 -1.392178 0.016840 0.076668 0.253759
time 3
  0   0.676766 6.791367 37.454945 0.038925 0.000000 -1.701715
  1   -0.894231 -1.406293 0.000000 -0.000030 -1.666669 -1.570772
  2   -0.000007 0.000008 4.427393 -0.146988 -3.003663 -0.148741
  3   18.465939 0.000000 0.000000 0.000000 0.000000 -0.705697
  4   14.875443 0.000000 0.000000 0.014948 -0.050651 0.529351
  5   0.000006 -0.000004 -4.427393 0.034710 3.236439 -0.449273
  6   18.465939 0.000000 0.000000 0.000000 0.000000 -0.512020
  7   14.875442 0.000000 0.000000 0.123194 -0.043557 0.064461
  8   2.247394 -0.007574 -0.214847 0.008941 -0.013847 0.070942
  9   9.514223 -0.009357 0.000000 -0.010542 -0.057174 -0.025199
 10   11.752194 -0.001492 0.000000 0.002229 -0.014634 0.485479
 11   -1.924286 0.953443 2.673169 0.610896 -1.308875 2.062332
 12   4.640941 0.000000 0.000000 0.632073 0.679875 0.968806
 13   10.828045 0.000000 0.000000 0.000000 0.000000 -1.286125
 14   9.393338 -0.000001 0.000000 -1.569611 0.034195 0.000037
 15   1.442243 0.107453 -1.746178 1.686435 0.539209 0.325885
 16   1.063450 0.000000 -0.000001 0.000000 0.000000 0.199056
 17   1.376307 -0.000001 0.000001 0.000000 0.000000 0.199049
 18   4.172845 -0.251366 -1.312745 0.008050 0.095731 0.148659
 19   1.215373 0.000001 -0.000001 0.000000 0.000000 0.645758
 20   1.215371 -0.000002 0.000000 0.000000 0.000000 0.645758
 21   4.220532 -0.244855 -0.431465 0.001333 0.026242 0.148339
 22   1.350417 0.000000 0.000001 0.000000 0.000000 0.863926
 23   1.350409 0.000000 -0.000001 0.000000 0.000000 0.863926
 24   -1.998507 0.941737 -2.626286 -0.923471 1.356178 1.740920
 25   4.640942 0.000000 0.000000 -0.825634 -1.045304 0.793838
 26   10.828048 0.000000 0.000001 0.000000 0.000000 -0.895399
 27   9.393336 -0.000001 0.000000 1.569611 -0.034192 0.000001
 28   1.442244 0.107454 1.746178 -1.686405 -0.539236 0.325898
 29   1.063451 -0.000001 0.000000 0.000000 0.000000 0.199056
 30   1.376307 -0.000001 0.000000 0.000000 0.000000 0.199059
 31   4.172846 -0.251365 1.312745 -0.008050 -0.095731 0.148659
 32   1.215374 0.000001 -0.000001 0.000000 0.000000 0.645746
 33   1.215373 0.000000 0.000001 0.000000 0.000000 0.645746
 34   4.220533 -0.244853 0.431466 -0.001333 -0.026242 0.148339
 35   1.350415 -0.000001 -0.000001 0.000000 0.000000 0.863937
 36   1.350410 -0.000001 0.000001 0.000000 0.000000 0.863925
 37   2.110541 -0.000001 0.000000 -0.120570 0.171812 -0.358591
 38   0.891923 2.373050 -0.014527 -3.141592 -0.000001 1.413797
 39   7.228119 5.709445 3.726568 3.140796 -1.570796 0.000000
 40   2.450426 5.076127 0.001325 3.075404 -1.570796 0.000000
 41   6.312405 -4.528058 0.001311 3.108336 -1.570796 0.000000
 42   2.233309 1.152535 -7.309138 -1.129686 -1.431230 -0.950606
 43   4.262825 -0.232720 -1.392178 0.016840 0.076668 0.253759
time 4
  0   -0.667025 6.791367 36.273186 0.048512 0.000000 -1.701715
  1   -2.405996 -0.843776 0.000000 -0.000030 -1.564472 -1.570772
  2   -0.000007 0.000008 4.427393 -0.153024 -3.080453 -0.245486
  3   18.465939 0.000000 0.000000 0.000000 0.000000 -0.839630
  4   14.875443 0.000000 0.000000 0.012886 -0.069423 0.561270
  5   0.000006 -0.000004 -4.427393 0.019375 3.151396 -0.602474
  6   18.465939 0.000000 0.000000 0.000000 0.000000 -0.763211
  7   14.875442 0.000000 0.000000 0.102943 -0.072810 0.161519
  8   2.255207 -0.007574 0.011722 -0.034264 -0.067383 0.165969
  9   9.514223 -0.009357 0.000000 -0.012306 -0.049661 0.097006
 10   11.752194 -0.001492 0.000000 0.001570 -0.086949 0.542603
 11   -1.666466 1.062822 2.802079 0.661297 -1.370746 1.953959
 12   4.640941 0.000000 0.000000 0.514428 0.867918 0.789563
 13   10.828045 0.000000 0.000000 0.000000 0.000000 -1.314679
 14   9.393338 -0.000001 0.000000 -1.569611 0.034195 0.000037
 15   1.442243 0.107453 -1.746178 1.686435 0.539209 0.325885
 16   1.063450 0.000000 -0.000001 0.000000 0.000000 0.199056
 17   1.376307 -0.000001 0.000001 0.000000 0.000000 0.199049
 18   4.172845 -0.251366 -1.312745 0.008050 0.095731 0.148659
 19   1.215373 0.000001 -0.000001 0.000000 0.000000 0.645758
 20   1.215371 -0.000002 0.000000 0.000000 0.000000 0.645758
 21   4.220532 -0.244855 -0.431465 0.001333 0.026242 0.148339
 22   1.350417 0.000000 0.000001 0.000000 0.000000 0.863926
 23   1.350409 0.000000 -0.000001 0.000000 0.000000 0.863926
 24   -2.123511 1.055022 -2.477844 -0.160617 1.357510 2.436859
 25   4.640942 0.000000 0.000000 -0.264355 -1.160443 0.074933
 26   10.828048 0.000000 0.000001 0.000000 0.000000 -0.734205
 27   9.393336 -0.000001 0.000000 1.569611 -0.034192 0.000001
 28   1.442244 0.107454 1.746178 -1.686405 -0.539236 0.325898
 29   1.063451 -0.000001 0.000000 0.000000 0.000000 0.199056
 30   1.376307 -0.000001 0.000000 0.000000 0.000000 0.199059
 31   4.172846 -0.251365 1.312745 -0.008050 -0.095731 0.148659
 32   1.215374 0.000001 -0.000001 0.000000 0.000000 0.645746
 33   1.215373 0.000000 0.000001 0.000000 0.000000 0.645746
 34   4.220533 -0.244853 0.431466 -0.001333 -0.026242 0.148339
 35   1.350415 -0.000001 -0.000001 0.000000 0.000000 0.863937
 36   1.350410 -0.000001 0.000001 0.000000 0.000000 0.863925
 37   2.110541 -0.000001 0.000000 -0.085967 0.209037 -0.314424
 38   0.891923 2.373050 -0.014527 -3.141592 -0.000001 1.413797
 39   7.228119 5.709445 3.726568 3.140796 -1.570796 0.000000
 40   2.450426 5.076127 0.001325 3.036084 -1.570796 0.000000
 41   6.312405 -4.528058 0.001311 3.100325 -1.570796 0.000000
 42   2.233309 1.152535 -7.309138 -1.132659 -1.501013 -1.079473
 43   4.262825 -0.232720 -1.392178 0.016840 0.076668 0.253759
time 5
  0   -1.549864 6.791367 35.312023 0.052251 0.000000 -1.701715
  1   -3.128675 -0.421888 0.000000 -0.000030 -1.501022 -1.570772
  2   -0.000007 0.000008 4.427393 -0.160497 -3.123820 -0.303914
  3   18.465939 0.000000 0.000000 0.000000 0.000000 -0.934815
  4   14.875443 0.000000 0.000000 0.008477 -0.083322 0.595164
  5   0.000006 -0.000004 -4.427393 0.024551 3.100217 -0.702144
  6   18.465939 0.000000 0.000000 0.000000 0.000000 -0.902295
  7   14.875442 0.000000 0.000000 0.067636 -0.106277 0.204852
  8   2.251301 -0.007574 0.156258 -0.055234 -0.094799 0.212391
  9   9.514223 -0.009357 0.000000 -0.012156 -0.040602 0.159202
 10   11.752194 -0.001492 0.000000 -0.000096 -0.122112 0.570811
 11   -1.537555 1.113605 2.856769 0.697216 -1.427254 1.883976
 12   4.640941 0.000000 0.000000 0.486988 0.992534 0.680800
 13   10.828045 0.000000 0.000000 0.000000 0.000000 -1.322488
 14   9.393338 -0.000001 0.000000 -1.569611 0.034195 0.000037
 15   1.442243 0.107453 -1.746178 1.686435 0.539209 0.325885
 16   1.063450 0.000000 -0.000001 0.000000 0.000000 0.199056
 17   1.376307 -0.000001 0.000001 0.000000 0.000000 0.199049
 18   4.172845 -0.251366 -1.312745 0.008050 0.095731 0.148659
 19   1.215373 0.000001 -0.000001 0.000000 0.000000 0.645758
 20   1.215371 -0.000002 0.000000 0.000000 0.000000 0.645758
 21   4.220532 -0.244855 -0.431465 0.001333 0.026242 0.148339
 22   1.350417 0.000000 0.000001 0.000000 0.000000 0.863926
 23   1.350409 0.000000 -0.000001 0.000000 0.000000 0.863926
 24   -2.178200 1.113618 -2.403623 0.260845 1.311725 2.825894
 25   4.640942 0.000000 0.000000 0.130982 -1.152493 -0.454359
 26   10.828048 0.000000 0.000001 0.000000 0.000000 -0.581114
 27   9.393336 -0.000001 0.000000 1.569611 -0.034192 0.000001
 28   1.442244 0.107454 1.746178 -1.686405 -0.539236 0.325898
 29   1.063451 -0.000001 0.000000 0.000000 0.000000 0.199056
 30   1.376307 -0.000001 0.000000 0.000000 0.000000 0.199059
 31   4.172846 -0.251365 1.312745 -0.008050 -0.095731 0.148659
 32   1.215374 0.000001 -0.000001 0.000000 0.000000 0.645746
 33   1.215373 0.000000 0.000001 0.000000 0.000000 0.645746
 34   4.220533 -0.244853 0.431466 -0.001333 -0.026242 0.148339
 35   1.350415 -0.000001 -0.000001 0.000000 0.000000 0.863937
 36   1.350410 -0.000001 0.000001 0.000000 0.000000 0.863925
 37   2.110541 -0.000001 0.000000 -0.062984 0.208285 -0.272611
 38   0.891923 2.373050 -0.014527 -3.141592 -0.000001 1.413797
 39   7.228119 5.709445 3.726568 3.140796 -1.570796 0.000000
 40   2.450426 5.076127 0.001325 2.893110 -1.570796 0.000000
 41   6.312405 -4.528058 0.001311 3.097161 -1.570796 0.000000
 42   2.233309 1.152535 -7.309138 -2.306426 -1.570796 0.000000
 43   4.262825 -0.232720 -1.392178 0.016840 0.076668 0.253759
time 6
  0   -1.639711 6.791367 34.665997 0.048512 0.000000 -1.701715
  1   -2.902105 -0.320322 0.000000 -0.000030 -1.521832 -1.570772
  2   -0.000007 0.000008 4.427393 -0.149671 -3.093804 -0.333080
  3   18.465939 0.000000 0.000000 0.000000 0.000000 -1.027954
  4   14.875443 0.000000 0.000000 0.007162 -0.086131 0.658725
  5   0.000006 -0.000004 -4.427393 -0.002189 3.138864 -0.733308
  6   18.465939 0.000000 0.000000 0.000000 0.000000 -0.980074
  7   14.875442 0.000000 0.000000 0.113226 -0.094060 0.246759
  8   2.255207 -0.007574 0.109381 -0.031142 -0.066676 0.196542
  9   9.514223 -0.009357 0.000000 -0.010993 -0.032941 0.142684
 10   11.752194 -0.001492 0.000000 0.000551 -0.110355 0.561342
 11   -1.580525 1.097979 2.837237 1.100614 -1.495974 1.483417
 12   4.640941 0.000000 0.000000 0.700486 1.056970 0.821407
 13   10.828045 0.000000 0.000000 0.000000 0.000000 -1.324929
 14   9.393338 -0.000001 0.000000 -1.569611 0.034195 0.000037
 15   1.442243 0.107453 -1.746178 1.686435 0.539209 0.325885
 16   1.063450 0.000000 -0.000001 0.000000 0.000000 0.199056
 17   1.376307 -0.000001 0.000001 0.000000 0.000000 0.199049
 18   4.172845 -0.251366 -1.312745 0.008050 0.095731 0.148659
 19   1.215373 0.000001 -0.000001 0.000000 0.000000 0.645758
 20   1.215371 -0.000002 0.000000 0.000000 0.000000 0.645758
 21   4.220532 -0.244855 -0.431465 0.001333 0.026242 0.148339
 22   1.350417 0.000000 0.000001 0.000000 0.000000 0.863926
 23   1.350409 0.000000 -0.000001 0.000000 0.000000 0.863926
 24   -2.162574 1.094086 -2.427061 0.355635 1.325796 2.930332
 25   4.640942 0.000000 0.000000 0.182353 -1.181016 -0.524282
 26   10.828048 0.000000 0.000001 0.000000 0.000000 -0.485825
 27   9.393336 -0.000001 0.000000 1.569611 -0.034192 0.000001
 28   1.442244 0.107454 1.746178 -1.686405 -0.539236 0.325898
 29   1.063451 -0.000001 0.000000 0.000000 0.000000 0.199056
 30   1.376307 -0.000001 0.000000 0.000000 0.000000 0.199059
 31   4.172846 -0.251365 1.312745 -0.008050 -0.095731 0.148659
 32   1.215374 0.000001 -0.000001 0.000000 0.000000 0.645746
 33   1.215373 0.000000 0.000001 0.000000 0.000000 0.645746
 34   4.220533 -0.244853 0.431466 -0.001333 -0.026242 0.148339
 35   1.350415 -0.000001 -0.000001 0.000000 0.000000 0.863937
 36   1.350410 -0.000001 0.000001 0.000000 0.000000 0.863925
 37   2.110541 -0.000001 0.000000 -0.048999 0.182246 -0.246054
 38   0.891923 2.373050 -0.014527 -3.141592 -0.000001 1.413797
 39   7.228119 5.709445 3.726568 3.140796 -1.570796 0.000000
 40   2.450426 5.076127 0.001325 2.860987 -1.570796 0.000000
 41   6.312405 -4.528058 0.001311 3.100325 -1.570796 0.000000
 42   2.233309 1.152535 -7.309138 -1.158065 -1.527196 -1.173203
 43   4.262825 -0.232720 -1.392178 0.016840 0.076668 0.253759
time 7
  0   -1.264699 6.791367 34.256321 0.038925 0.000000 -1.701715
  1   -2.304430 -0.292978 0.000000 -0.000030 -1.581388 -1.570772
  2   -0.000007 0.000008 4.427393 -0.126772 -3.036614 -0.346138
  3   18.465939 0.000000 0.000000 0.000000 0.000000 -1.107056
  4   14.875443 0.000000 0.000000 0.004744 -0.076851 0.728053
  5   0.000006 -0.000004 -4.427393 0.045253 3.174737 -0.726663
  6   18.465939 0.000000 0.000000 0.000000 0.000000 -1.009020
  7   14.875442 0.000000 0.000000 0.101504 -0.082359 0.283714
  8   2.255207 -0.007574 -0.023435 0.010755 -0.007405 0.157036
  9   9.514223 -0.009357 0.000000 -0.009717 -0.024488 0.095967
 10   11.752194 -0.001492 0.000000 0.001798 -0.080178 0.537199
 11   -1.693810 1.055009 2.790360 1.994684 -1.495295 0.610976
 12   4.640941 0.000000 0.000000 0.953158 1.082081 1.022485
 13   10.828045 0.000000 0.000000 0.000000 0.000000 -1.264344
 14   9.393338 -0.000001 0.000000 -1.569611 0.034195 0.000037
 15   1.442243 0.107453 -1.746178 1.686435 0.539209 0.325885
 16   1.063450 0.000000 -0.000001 0.000000 0.000000 0.199056
 17   1.376307 -0.000001 0.000001 0.000000 0.000000 0.199049
 18   4.172845 -0.251366 -1.312745 0.008050 0.095731 0.148659
 19   1.215373 0.000001 -0.000001 0.000000 0.000000 0.645758
 20   1.215371 -0.000002 0.000000 0.000000 0.000000 0.645758
 21   4.220532 -0.244855 -0.431465 0.001333 0.026242 0.148339
 22   1.350417 0.000000 0.000001 0.000000 0.000000 0.863926
 23   1.350409 0.000000 -0.000001 0.000000 0.000000 0.863926
 24   -2.111792 1.043303 -2.493469 0.314720 1.373246 2.915205
 25   4.640942 0.000000 0.000000 0.092115 -1.223418 -0.390175
 26   10.828048 0.000000 0.000001 0.000000 0.000000 -0.408283
 27   9.393336 -0.000001 0.000000 1.569611 -0.034192 0.000001
 28   1.442244 0.107454 1.746178 -1.686405 -0.539236 0.325898
 29   1.063451 -0.000001 0.000000 0.000000 0.000000 0.199056
 30   1.376307 -0.000001 0.000000 0.000000 0.000000 0.199059
 31   4.172846 -0.251365 1.312745 -0.008050 -0.095731 0.148659
 32   1.215374 0.000001 -0.000001 0.000000 0.000000 0.645746
 33   1.215373 0.000000 0.000001 0.000000 0.000000 0.645746
 34   4.220533 -0.244853 0.431466 -0.001333 -0.026242 0.148339
 35   1.350415 -0.000001 -0.000001 0.000000 0.000000 0.863937
 36   1.350410 -0.000001 0.000001 0.000000 0.000000 0.863925
 37   2.110541 -0.000001 0.000000 -0.034911 0.142826 -0.221287
 38   0.891923 2.373050 -0.014527 -3.141592 -0.000001 1.413797
 39   7.228119 5.709445 3.726568 3.140796 -1.570796 0.000000
 40   2.450426 5.076127 0.001325 2.919528 -1.570796 0.000000
 41   6.312405 -4.528058 0.001311 3.108336 -1.570796 0.000000
 42   2.233309 1.152535 -7.309138 -1.152984 -1.483567 -1.159703
 43   4.262825 -0.232720 -1.392178 0.016840 0.076668 0.253759
time 8
  0   -0.651399 6.791367 34.445400 0.025886 0.000000 -1.701715
  1   -1.484093 -0.281259 0.000000 -0.000030 -1.623123 -1.570772
  2   -0.000007 0.000008 4.427393 -0.117382 -3.005367 -0.319736
  3   18.465939 0.000000 0.000000 0.000000 0.000000 -1.103913
  4   14.875443 0.000000 0.000000 0.003536 -0.059228 0.755627
  5   0.000006 -0.000004 -4.427393 0.097774 3.185930 -0.694844
  6   18.465939 0.000000 0.000000 0.000000 0.000000 -0.993924
  7   14.875442 0.000000 0.000000 0.066443 -0.070233 0.302247
  8   2.255207 -0.007574 -0.117188 0.052188 0.032325 0.104294
  9   9.514223 -0.009357 0.000000 -0.008854 -0.015564 0.031996
 10   11.752194 -0.001492 0.000000 0.002421 -0.039203 0.504770
 11   -1.838346 0.992507 2.720046 1.283163 -1.384948 1.363173
 12   4.640941 0.000000 0.000000 0.808570 1.071618 0.954874
 13   10.828045 0.000000 0.000000 0.000000 0.000000 -0.997049
 14   9.393338 -0.000001 0.000000 -1.569611 0.034195 0.000037
 15   1.442243 0.107453 -1.746178 1.686435 0.539209 0.325885
 16   1.063450 0.000000 -0.000001 0.000000 0.000000 0.199056
 17   1.376307 -0.000001 0.000001 0.000000 0.000000 0.199049
 18   4.172845 -0.251366 -1.312745 0.008050 0.095731 0.148659
 19   1.215373 0.000001 -0.000001 0.000000 0.000000 0.645758
 20   1.215371 -0.000002 0.000000 0.000000 0.000000 0.645758
 21   4.220532 -0.244855 -0.431465 0.001333 0.026242 0.148339
 22   1.350417 0.000000 0.000001 0.000000 0.000000 0.863926
 23   1.350409 0.000000 -0.000001 0.000000 0.000000 0.863926
 24   -2.041477 0.980801 -2.575503 0.114680 1.423510 2.749574
 25   4.640942 0.000000 0.000000 -0.144377 -1.243502 -0.092982
 26   10.828048 0.000000 0.000001 0.000000 0.000000 -0.345207
 27   9.393336 -0.000001 0.000000 1.569611 -0.034192 0.000001
 28   1.442244 0.107454 1.746178 -1.686405 -0.539236 0.325898
 29   1.063451 -0.000001 0.000000 0.000000 0.000000 0.199056
 30   1.376307 -0.000001 0.000000 0.000000 0.000000 0.199059
 31   4.172846 -0.251365 1.312745 -0.008050 -0.095731 0.148659
 32   1.215374 0.000001 -0.000001 0.000000 0.000000 0.645746
 33   1.215373 0.000000 0.000001 0.000000 0.000000 0.645746
 34   4.220533 -0.244853 0.431466 -0.001333 -0.026242 0.148339
 35   1.350415 -0.000001 -0.000001 0.000000 0.000000 0.863937
 36   1.350410 -0.000001 0.000001 0.000000 0.000000 0.863925
 37   2.110541 -0.000001 0.000000 -0.021749 0.094055 -0.198167
 38   0.891923 2.373050 -0.014527 -3.141592 -0.000001 1.413797
 39   7.228119 5.709445 3.726568 3.140796 -1.570796 0.000000
 40   2.450426 5.076127 0.001325 2.990708 -1.570796 0.000000
 41   6.312405 -4.528058 0.001311 3.119154 -1.570796 0.000000
 42   2.233309 1.152535 -7.309138 -1.137548 -1.483567 -1.105993
 43   4.262825 -0.232720 -1.392178 0.016840 0.076668 0.253759
time 9
  0   0.403320 6.791367 36.036835 0.012080 0.000000 -1.701715
  1   -0.601254 -0.230476 0.000000 -0.000030 -1.606984 -1.570772
  2   -0.000007 0.000008 4.427393 -0.144305 -3.055267 -0.209552
  3   18.465939 0.000000 0.000000 0.000000 0.000000 -0.887734
  4   14.875443 0.000000 0.000000 0.007588 -0.023684 0.654024
  5   0.000006 -0.000004 -4.427393 0.158537 3.126715 -0.573368
  6   18.465939 0.000000 0.000000 0.000000 0.000000 -0.807516
  7   14.875442 0.000000 0.000000 -0.027860 -0.049499 0.234753
  8   2.255207 -0.007574 -0.082031 0.087967 0.015769 0.047979
  9   9.514223 -0.009357 0.000000 -0.008554 -0.006492 -0.036261
 10   11.752194 -0.001492 0.000000 0.001762 0.004733 0.470369
 11   -1.986788 0.926099 2.641918 1.003338 -1.386157 1.674123
 12   4.640941 0.000000 0.000000 0.771569 1.070103 0.849330
 13   10.828045 0.000000 0.000000 0.000000 0.000000 -0.733415
 14   9.393338 -0.000001 0.000000 -1.569611 0.034195 0.000037
 15   1.442243 0.107453 -1.746178 1.686435 0.539209 0.325885
 16   1.063450 0.000000 -0.000001 0.000000 0.000000 0.199056
 17   1.376307 -0.000001 0.000001 0.000000 0.000000 0.199049
 18   4.172845 -0.251366 -1.312745 0.008050 0.095731 0.148659
 19   1.215373 0.000001 -0.000001 0.000000 0.000000 0.645758
 20   1.215371 -0.000002 0.000000 0.000000 0.000000 0.645758
 21   4.220532 -0.244855 -0.431465 0.001333 0.026242 0.148339
 22   1.350417 0.000000 0.000001 0.000000 0.000000 0.863926
 23   1.350409 0.000000 -0.000001 0.000000 0.000000 0.863926
 24   -1.963350 0.918299 -2.657537 -0.349549 1.460580 2.323105
 25   4.640942 0.000000 0.000000 -0.416187 -1.225510 0.251877
 26   10.828048 0.000000 0.000001 0.000000 0.000000 -0.289719
 27   9.393336 -0.000001 0.000000 1.569611 -0.034192 0.000001
 28   1.442244 0.107454 1.746178 -1.686405 -0.539236 0.325898
 29   1.063451 -0.000001 0.000000 0.000000 0.000000 0.199056
 30   1.376307 -0.000001 0.000000 0.000000 0.000000 0.199059
 31   4.172846 -0.251365 1.312745 -0.008050 -0.095731 0.148659
 32   1.215374 0.000001 -0.000001 0.000000 0.000000 0.645746
 33   1.215373 0.000000 0.000001 0.000000 0.000000 0.645746
 34   4.220533 -0.244853 0.431466 -0.001333 -0.026242 0.148339
 35   1.350415 -0.000001 -0.000001 0.000000 0.000000 0.863937
 36   1.350410 -0.000001 0.000001 0.000000 0.000000 0.863925
 37   2.110541 -0.000001 0.000000 -0.009563 0.040654 -0.175990
 38   0.891923 2.373050 -0.014527 -3.141592 -0.000001 1.413797
 39   7.228119 5.709445 3.726568 3.140796 -1.570796 0.000000
 40   2.450426 5.076127 0.001325 3.067066 -1.570796 0.000000
 41   6.312405 -4.528058 0.001311 3.130687 -1.570796 0.000000
 42   2.233309 1.152535 -7.309138 -1.127386 -1.535904 -1.015518
 43   4.262825 -0.232720 -1.392178 0.016840 0.076668 0.253759
time 10
  0   1.727579 6.791367 38.305809 0.000000 0.000000 -1.701715
  1   0.164395 -0.125004 0.000000 -1.570795 -1.570451 0.000000
  2   -0.000007 0.000008 4.427393 -0.170749 -3.152983 0.000903
  3   18.465939 0.000000 0.000000 0.000000 0.000000 -0.416557
  4   14.875443 0.000000 0.000000 0.018467 0.017437 0.402071
  5   0.000006 -0.000004 -4.427393 0.106016 3.095625 -0.362237
  6   18.465939 0.000000 0.000000 0.000000 0.000000 -0.394334
  7   14.875442 0.000000 0.000000 -0.002065 0.005218 0.029344
  8   2.255207 -0.007574 0.000003 0.122101 -0.017401 -0.001322
  9   9.514223 -0.009357 0.000000 -0.008779 0.002352 -0.095902
 10   11.752194 -0.001492 0.000000 0.000024 0.043599 0.440031
 11   -2.111792 0.863597 2.563791 0.697216 -1.395374 2.006326
 12   4.640941 0.000000 0.000000 0.738480 1.089874 0.724820
 13   10.828045 0.000000 0.000000 0.000000 0.000000 -0.470452
 14   9.393338 -0.000001 0.000000 -1.569611 0.034195 0.000037
 15   1.442243 0.107453 -1.746178 1.686435 0.539209 0.325885
 16   1.063450 0.000000 -0.000001 0.000000 0.000000 0.199056
 17   1.376307 -0.000001 0.000001 0.000000 0.000000 0.199049
 18   4.172845 -0.251366 -1.312745 0.008050 0.095731 0.148659
 19   1.215373 0.000001 -0.000001 0.000000 0.000000 0.645758
 20   1.215371 -0.000002 0.000000 0.000000 0.000000 0.645758
 21   4.220532 -0.244855 -0.431465 0.001333 0.026242 0.148339
 22   1.350417 0.000000 0.000001 0.000000 0.000000 0.863926
 23   1.350409 0.000000 -0.000001 0.000000 0.000000 0.863926
 24   -1.885222 0.863610 -2.731758 -0.942447 1.461427 1.764337
 25   4.640942 0.000000 0.000000 -0.601477 -1.183875 0.506934
 26   10.828048 0.000000 0.000001 0.000000 0.000000 -0.234230
 27   9.393336 -0.000001 0.000000 1.569611 -0.034192 0.000001
 28   1.442244 0.107454 1.746178 -1.686405 -0.539236 0.325898
 29   1.063451 -0.000001 0.000000 0.000000 0.000000 0.199056
 30   1.376307 -0.000001 0.000000 0.000000 0.000000 0.199059
 31   4.172846 -0.251365 1.312745 -0.008050 -0.095731 0.148659
 32   1.215374 0.000001 -0.000001 0.000000 0.000000 0.645746
 33   1.215373 0.000000 0.000001 0.000000 0.000000 0.645746
 34   4.220533 -0.244853 0.431466 -0.001333 -0.026242 0.148339
 35   1.350415 -0.000001 -0.000001 0.000000 0.000000 0.863937
 36   1.350410 -0.000001 0.000001 0.000000 0.000000 0.863925
 37   2.110541 -0.000001 0.000000 0.002417 -0.010493 -0.153718
 38   0.891923 2.373050 -0.014527 -3.141592 -0.000001 1.413797
 39   7.228119 5.709445 3.726568 3.140796 -1.570796 0.000000
 40   2.450426 5.076127 0.001325 3.140791 -1.570796 0.000000
 41   6.312405 -4.528058 0.001311 3.140791 -1.570796 0.000000
 42   2.233309 1.152535 -7.309138 -1.998387 -1.570796 0.000000
 43   4.262825 -0.232720 -1.392178 0.016840 0.076668 0.253759
end
