version 1
nodes
  0 "Bip01" -1
  1 "Bip01 Pelvis" 0
  2 "Bip01 L Thigh" 1
  3 "Bip01 L Calf" 2
  4 "Bip01 L Foot" 3
  5 "Bip01 R Thigh" 1
  6 "Bip01 R Calf" 5
  7 "Bip01 R Foot" 6
  8 "Bip01 Spine" 1
  9 "Bip01 Spine1" 8
 10 "Bip01 Neck" 9
 11 "Bip01 L Clavicle" 10
 12 "Bip01 L UpperArm" 11
 13 "Bip01 L Forearm" 12
 14 "Bip01 L Hand" 13
 15 "Bip01 L Finger0" 14
 16 "Bip01 L Finger01" 15
 17 "Bip01 L Finger02" 16
 18 "Bip01 L Finger1" 14
 19 "Bip01 L Finger11" 18
 20 "Bip01 L Finger12" 19
 21 "Bip01 L Finger2" 14
 22 "Bip01 L Finger21" 21
 23 "Bip01 L Finger22" 22
 24 "Bip01 R Clavicle" 10
 25 "Bip01 R UpperArm" 24
 26 "Bip01 R Forearm" 25
 27 "Bip01 R Hand" 26
 28 "Bip01 R Finger0" 27
 29 "Bip01 R Finger01" 28
 30 "Bip01 R Finger02" 29
 31 "Bip01 R Finger1" 27
 32 "Bip01 R Finger11" 31
 33 "Bip01 R Finger12" 32
 34 "Bip01 R Finger2" 27
 35 "Bip01 R Finger21" 34
 36 "Bip01 R Finger22" 35
 37 "Bip01 Head" 10
 38 "Bone05" 37
 39 "Bone08" 9
 40 "Bone16" 8
 41 "Bone01" 8
 42 "Bone03" 1
 43 "Bip01 R Finger4" 27
end
skeleton
time 0
  0   1.727579 0.771444 38.778511 0.000000 0.000000 -1.701715
  1   -0.011392 -0.148442 0.000000 -1.570795 -1.570451 0.000000
  2   -0.000007 0.000008 4.427393 -0.172665 -3.054509 -0.042942
  3   18.465939 0.000000 0.000000 0.000000 0.000000 -0.327293
  4   14.875443 0.000000 0.000000 -0.087336 -0.071892 0.252590
  5   0.000006 -0.000004 -4.427393 0.120296 2.981404 -0.049658
  6   18.465939 0.000000 0.000000 0.000000 0.000000 -0.240613
  7   14.875442 0.000000 0.000000 -0.016208 0.152787 0.171311
  8   2.255207 -0.007574 0.000003 0.122101 -0.017401 -0.001322
  9   9.514223 -0.009357 0.000000 -0.008667 0.002742 -0.052281
 10   11.752194 -0.001492 0.000000 0.000024 0.043599 0.440031
 11   -2.111792 0.863597 2.563791 0.666442 -1.215199 2.056492
 12   4.640941 0.000000 0.000000 1.144617 0.692791 1.165493
 13   10.828045 0.000000 0.000000 0.000000 0.000000 -1.268858
 14   9.393338 -0.000001 0.000000 -1.421088 0.028426 -0.447257
 15   1.442243 0.107453 -1.746178 1.710740 0.781590 0.365230
 16   1.063450 0.000000 -0.000001 0.000000 0.000000 0.199056
 17   1.376307 -0.000001 0.000001 0.000000 0.000000 0.600473
 18   4.172845 -0.251366 -1.312745 -0.005361 -0.000073 0.008928
 19   1.215373 0.000001 -0.000001 0.000000 0.000000 0.506106
 20   1.215371 -0.000002 0.000000 0.000000 0.000000 0.506106
 21   4.220532 -0.244855 -0.431465 -0.004372 0.025906 -0.069865
 22   1.350417 0.000000 0.000001 0.000000 0.000000 0.532308
 23   1.350409 0.000000 -0.000001 0.000000 0.000000 0.532308
 24   -1.885222 0.863610 -2.731758 -1.068895 1.168982 1.681693
 25   4.640942 0.000000 0.000000 -1.152955 -0.582794 0.930116
 26   10.828048 0.000000 0.000001 0.000000 0.000000 -1.211227
 27   9.393336 -0.000001 0.000000 1.199681 0.059763 -0.598915
 28   1.442244 0.107454 1.746178 -2.047067 -0.542719 0.863657
 29   1.063451 -0.000001 0.000000 0.000000 0.000000 -0.054011
 30   1.376307 -0.000001 0.000000 0.000000 0.000000 0.600477
 31   4.172846 -0.251365 1.312745 -0.014726 -0.094940 0.218785
 32   1.215374 0.000001 -0.000001 0.000000 0.000000 0.715581
 33   1.215373 0.000000 0.000001 0.000000 0.000000 0.715581
 34   4.220533 -0.244853 0.431466 -0.001333 -0.026242 0.148339
 35   1.350415 -0.000001 -0.000001 0.000000 0.000000 0.863937
 36   1.350410 -0.000001 0.000001 0.000000 0.000000 0.863925
 37   2.110541 -0.000001 0.000000 0.004319 -0.010162 -0.197320
 38   0.891923 2.373050 -0.014527 -3.141592 -0.000001 1.413797
 39   7.228119 5.709445 3.726568 3.140796 -1.570796 0.000000
 40   2.450426 5.076127 0.001325 3.140791 -1.570796 0.000000
 41   6.312405 -4.528058 0.001311 3.140791 -1.570796 0.000000
 42   2.233309 1.152535 -7.309138 -1.319706 -1.649317 -0.434374
 43   4.262825 -0.232720 -1.392178 0.016840 0.076668 0.253759
time 1
  0   1.727579 0.771444 38.778511 0.000000 0.000000 -1.701715
  1   0.039391 -0.140629 0.000000 -1.570795 -1.570451 0.000000
  2   -0.000007 0.000008 4.427393 -0.172857 -3.054888 -0.040368
  3   18.465939 0.000000 0.000000 0.000000 0.000000 -0.325100
  4   14.875443 0.000000 0.000000 -0.087336 -0.071977 0.252985
  5   0.000006 -0.000004 -4.427393 0.120680 2.981404 -0.046944
  6   18.465939 0.000000 0.000000 0.000000 0.000000 -0.238119
  7   14.875442 0.000000 0.000000 -0.016173 0.153181 0.171461
  8   2.255207 -0.007574 0.000003 0.122101 -0.016792 -0.006219
  9   9.514223 -0.009357 0.000000 -0.008667 0.002715 -0.052281
 10   11.752194 -0.001492 0.000000 0.000024 0.043599 0.440031
 11   -2.111792 0.863597 2.563791 0.666442 -1.215199 2.056492
 12   4.640941 0.000000 0.000000 1.143375 0.694884 1.163034
 13   10.828045 0.000000 0.000000 0.000000 0.000000 -1.266479
 14   9.393338 -0.000001 0.000000 -1.421088 0.028426 -0.447159
 15   1.442243 0.107453 -1.746178 1.710740 0.781590 0.365230
 16   1.063450 0.000000 -0.000001 0.000000 0.000000 0.199056
 17   1.376307 -0.000001 0.000001 0.000000 0.000000 0.600473
 18   4.172845 -0.251366 -1.312745 -0.005361 -0.000073 0.008928
 19   1.215373 0.000001 -0.000001 0.000000 0.000000 0.506106
 20   1.215371 -0.000002 0.000000 0.000000 0.000000 0.506106
 21   4.220532 -0.244855 -0.431465 -0.004372 0.025906 -0.069865
 22   1.350417 0.000000 0.000001 0.000000 0.000000 0.532308
 23   1.350409 0.000000 -0.000001 0.000000 0.000000 0.532308
 24   -1.885222 0.863610 -2.731758 -1.068895 1.168982 1.681693
 25   4.640942 0.000000 0.000000 -1.152279 -0.583561 0.927526
 26   10.828048 0.000000 0.000001 0.000000 0.000000 -1.210841
 27   9.393336 -0.000001 0.000000 1.198964 0.060024 -0.599788
 28   1.442244 0.107454 1.746178 -2.047067 -0.542719 0.863657
 29   1.063451 -0.000001 0.000000 0.000000 0.000000 -0.054011
 30   1.376307 -0.000001 0.000000 0.000000 0.000000 0.600477
 31   4.172846 -0.251365 1.312745 -0.014726 -0.094940 0.218785
 32   1.215374 0.000001 -0.000001 0.000000 0.000000 0.715581
 33   1.215373 0.000000 0.000001 0.000000 0.000000 0.715581
 34   4.220533 -0.244853 0.431466 -0.001333 -0.026242 0.148339
 35   1.350415 -0.000001 -0.000001 0.000000 0.000000 0.863937
 36   1.350410 -0.000001 0.000001 0.000000 0.000000 0.863925
 37   2.110541 -0.000001 0.000000 0.004216 -0.010252 -0.194871
 38   0.891923 2.373050 -0.014527 -3.141592 -0.000001 1.413797
 39   7.228119 5.709445 3.726568 3.140796 -1.570796 0.000000
 40   2.450426 5.076127 0.001325 3.140791 -1.570796 0.000000
 41   6.312405 -4.528058 0.001311 3.145690 -1.570796 0.000000
 42   2.233309 1.152535 -7.309138 -1.318172 -1.649346 -0.434661
 43   4.262825 -0.232720 -1.392178 0.016840 0.076668 0.253759
time 2
  0   1.727579 0.771444 38.778511 0.000000 0.000000 -1.701715
  1   0.097986 -0.132817 0.000000 -1.570795 -1.570451 0.000000
  2   -0.000007 0.000008 4.427393 -0.173049 -3.055267 -0.037604
  3   18.465939 0.000000 0.000000 0.000000 0.000000 -0.322760
  4   14.875443 0.000000 0.000000 -0.087371 -0.072084 0.253459
  5   0.000006 -0.000004 -4.427393 0.121063 2.981309 -0.043949
  6   18.465939 0.000000 0.000000 0.000000 0.000000 -0.235362
  7   14.875442 0.000000 0.000000 -0.016173 0.153605 0.171649
  8   2.255207 -0.007574 0.000003 0.122101 -0.016144 -0.011612
  9   9.514223 -0.009357 0.000000 -0.008667 0.002701 -0.052281
 10   11.752194 -0.001492 0.000000 0.000024 0.043599 0.440031
 11   -2.111792 0.863597 2.563791 0.666442 -1.215199 2.056492
 12   4.640941 0.000000 0.000000 1.141947 0.697121 1.160400
 13   10.828045 0.000000 0.000000 0.000000 0.000000 -1.263916
 14   9.393338 -0.000001 0.000000 -1.421180 0.028464 -0.447013
 15   1.442243 0.107453 -1.746178 1.710740 0.781590 0.365230
 16   1.063450 0.000000 -0.000001 0.000000 0.000000 0.199056
 17   1.376307 -0.000001 0.000001 0.000000 0.000000 0.600473
 18   4.172845 -0.251366 -1.312745 -0.005361 -0.000073 0.008928
 19   1.215373 0.000001 -0.000001 0.000000 0.000000 0.506106
 20   1.215371 -0.000002 0.000000 0.000000 0.000000 0.506106
 21   4.220532 -0.244855 -0.431465 -0.004372 0.025906 -0.069865
 22   1.350417 0.000000 0.000001 0.000000 0.000000 0.532308
 23   1.350409 0.000000 -0.000001 0.000000 0.000000 0.532308
 24   -1.885222 0.863610 -2.731758 -1.068895 1.168982 1.681693
 25   4.640942 0.000000 0.000000 -1.151434 -0.584398 0.924726
 26   10.828048 0.000000 0.000001 0.000000 0.000000 -1.210455
 27   9.393336 -0.000001 0.000000 1.198136 0.060251 -0.600807
 28   1.442244 0.107454 1.746178 -2.047067 -0.542719 0.863657
 29   1.063451 -0.000001 0.000000 0.000000 0.000000 -0.054011
 30   1.376307 -0.000001 0.000000 0.000000 0.000000 0.600477
 31   4.172846 -0.251365 1.312745 -0.014726 -0.094940 0.218785
 32   1.215374 0.000001 -0.000001 0.000000 0.000000 0.715581
 33   1.215373 0.000000 0.000001 0.000000 0.000000 0.715581
 34   4.220533 -0.244853 0.431466 -0.001333 -0.026242 0.148339
 35   1.350415 -0.000001 -0.000001 0.000000 0.000000 0.863937
 36   1.350410 -0.000001 0.000001 0.000000 0.000000 0.863925
 37   2.110541 -0.000001 0.000000 0.004062 -0.010312 -0.192140
 38   0.891923 2.373050 -0.014527 -3.141592 -0.000001 1.413797
 39   7.228119 5.709445 3.726568 3.140796 -1.570796 0.000000
 40   2.450426 5.076127 0.001325 3.140791 -1.570796 0.000000
 41   6.312405 -4.528058 0.001311 3.151150 -1.570796 0.000000
 42   2.233309 1.152535 -7.309138 -1.316542 -1.649404 -0.434949
 43   4.262825 -0.232720 -1.392178 0.016840 0.076668 0.253759
time 3
  0   1.727579 0.771444 38.778511 0.000000 0.000000 -1.701715
  1   0.160488 -0.125004 0.000000 -1.570795 -1.570451 0.000000
  2   -0.000007 0.000008 4.427393 -0.173336 -3.055646 -0.034554
  3   18.465939 0.000000 0.000000 0.000000 0.000000 -0.320202
  4   14.875443 0.000000 0.000000 -0.087371 -0.072190 0.253933
  5   0.000006 -0.000004 -4.427393 0.121542 2.981213 -0.040767
  6   18.465939 0.000000 0.000000 0.000000 0.000000 -0.232474
  7   14.875442 0.000000 0.000000 -0.016138 0.154060 0.171874
  8   2.255207 -0.007574 0.000003 0.122059 -0.015437 -0.017369
  9   9.514223 -0.009357 0.000000 -0.008667 0.002688 -0.052281
 10   11.752194 -0.001492 0.000000 0.000024 0.043599 0.440031
 11   -2.111792 0.863597 2.563791 0.666442 -1.215199 2.056492
 12   4.640941 0.000000 0.000000 1.140457 0.699502 1.157532
 13   10.828045 0.000000 0.000000 0.000000 0.000000 -1.261171
 14   9.393338 -0.000001 0.000000 -1.421180 0.028464 -0.446866
 15   1.442243 0.107453 -1.746178 1.710740 0.781590 0.365230
 16   1.063450 0.000000 -0.000001 0.000000 0.000000 0.199056
 17   1.376307 -0.000001 0.000001 0.000000 0.000000 0.600473
 18   4.172845 -0.251366 -1.312745 -0.005361 -0.000073 0.008928
 19   1.215373 0.000001 -0.000001 0.000000 0.000000 0.506106
 20   1.215371 -0.000002 0.000000 0.000000 0.000000 0.506106
 21   4.220532 -0.244855 -0.431465 -0.004372 0.025906 -0.069865
 22   1.350417 0.000000 0.000001 0.000000 0.000000 0.532308
 23   1.350409 0.000000 -0.000001 0.000000 0.000000 0.532308
 24   -1.885222 0.863610 -2.731758 -1.068895 1.168982 1.681693
 25   4.640942 0.000000 0.000000 -1.150674 -0.585374 0.921786
 26   10.828048 0.000000 0.000001 0.000000 0.000000 -1.210005
 27   9.393336 -0.000001 0.000000 1.197308 0.060544 -0.601825
 28   1.442244 0.107454 1.746178 -2.047067 -0.542719 0.863657
 29   1.063451 -0.000001 0.000000 0.000000 0.000000 -0.054011
 30   1.376307 -0.000001 0.000000 0.000000 0.000000 0.600477
 31   4.172846 -0.251365 1.312745 -0.014726 -0.094940 0.218785
 32   1.215374 0.000001 -0.000001 0.000000 0.000000 0.715581
 33   1.215373 0.000000 0.000001 0.000000 0.000000 0.715581
 34   4.220533 -0.244853 0.431466 -0.001333 -0.026242 0.148339
 35   1.350415 -0.000001 -0.000001 0.000000 0.000000 0.863937
 36   1.350410 -0.000001 0.000001 0.000000 0.000000 0.863925
 37   2.110541 -0.000001 0.000000 0.003908 -0.010403 -0.189221
 38   0.891923 2.373050 -0.014527 -3.141592 -0.000001 1.413797
 39   7.228119 5.709445 3.726568 3.140796 -1.570796 0.000000
 40   2.450426 5.076127 0.001325 3.140791 -1.570796 0.000000
 41   6.312405 -4.528058 0.001311 3.156967 -1.570796 0.000000
 42   2.233309 1.152535 -7.309138 -1.314721 -1.649433 -0.435236
 43   4.262825 -0.232720 -1.392178 0.016840 0.076668 0.253759
time 4
  0   1.727579 0.771444 38.778511 0.000000 0.000000 -1.701715
  1   0.222990 -0.117191 0.000000 -1.570795 -1.570451 0.000000
  2   -0.000007 0.000008 4.427393 -0.173623 -3.056119 -0.031409
  3   18.465939 0.000000 0.000000 0.000000 0.000000 -0.317570
  4   14.875443 0.000000 0.000000 -0.087371 -0.072297 0.254407
  5   0.000006 -0.000004 -4.427393 0.122022 2.981117 -0.037491
  6   18.465939 0.000000 0.000000 0.000000 0.000000 -0.229390
  7   14.875442 0.000000 0.000000 -0.016103 0.154545 0.172061
  8   2.255207 -0.007574 0.000003 0.122059 -0.014691 -0.023391
  9   9.514223 -0.009357 0.000000 -0.008667 0.002661 -0.052281
 10   11.752194 -0.001492 0.000000 0.000024 0.043599 0.440031
 11   -2.111792 0.863597 2.563791 0.666442 -1.215199 2.056492
 12   4.640941 0.000000 0.000000 1.138905 0.702027 1.154546
 13   10.828045 0.000000 0.000000 0.000000 0.000000 -1.258303
 14   9.393338 -0.000001 0.000000 -1.421272 0.028464 -0.446720
 15   1.442243 0.107453 -1.746178 1.710740 0.781590 0.365230
 16   1.063450 0.000000 -0.000001 0.000000 0.000000 0.199056
 17   1.376307 -0.000001 0.000001 0.000000 0.000000 0.600473
 18   4.172845 -0.251366 -1.312745 -0.005361 -0.000073 0.008928
 19   1.215373 0.000001 -0.000001 0.000000 0.000000 0.506106
 20   1.215371 -0.000002 0.000000 0.000000 0.000000 0.506106
 21   4.220532 -0.244855 -0.431465 -0.004372 0.025906 -0.069865
 22   1.350417 0.000000 0.000001 0.000000 0.000000 0.532308
 23   1.350409 0.000000 -0.000001 0.000000 0.000000 0.532308
 24   -1.885222 0.863610 -2.731758 -1.068895 1.168982 1.681693
 25   4.640942 0.000000 0.000000 -1.149744 -0.586350 0.918637
 26   10.828048 0.000000 0.000001 0.000000 0.000000 -1.209491
 27   9.393336 -0.000001 0.000000 1.196424 0.060804 -0.602941
 28   1.442244 0.107454 1.746178 -2.047067 -0.542719 0.863657
 29   1.063451 -0.000001 0.000000 0.000000 0.000000 -0.054011
 30   1.376307 -0.000001 0.000000 0.000000 0.000000 0.600477
 31   4.172846 -0.251365 1.312745 -0.014726 -0.094940 0.218785
 32   1.215374 0.000001 -0.000001 0.000000 0.000000 0.715581
 33   1.215373 0.000000 0.000001 0.000000 0.000000 0.715581
 34   4.220533 -0.244853 0.431466 -0.001333 -0.026242 0.148339
 35   1.350415 -0.000001 -0.000001 0.000000 0.000000 0.863937
 36   1.350410 -0.000001 0.000001 0.000000 0.000000 0.863925
 37   2.110541 -0.000001 0.000000 0.003753 -0.010493 -0.186207
 38   0.891923 2.373050 -0.014527 -3.141592 -0.000001 1.413797
 39   7.228119 5.709445 3.726568 3.140796 -1.570796 0.000000
 40   2.450426 5.076127 0.001325 3.140791 -1.570796 0.000000
 41   6.312405 -4.528058 0.001311 3.163040 -1.570796 0.000000
 42   2.233309 1.152535 -7.309138 -1.312899 -1.649462 -0.435619
 43   4.262825 -0.232720 -1.392178 0.016840 0.076668 0.253759
time 5
  0   1.727579 0.771444 38.778511 0.000000 0.000000 -1.701715
  1   0.289399 -0.109378 0.000000 -1.570795 -1.570451 0.000000
  2   -0.000007 0.000008 4.427393 -0.173815 -3.056498 -0.028263
  3   18.465939 0.000000 0.000000 0.000000 0.000000 -0.314865
  4   14.875443 0.000000 0.000000 -0.087371 -0.072403 0.254920
  5   0.000006 -0.000004 -4.427393 0.122501 2.981022 -0.034029
  6   18.465939 0.000000 0.000000 0.000000 0.000000 -0.226305
  7   14.875442 0.000000 0.000000 -0.016103 0.155030 0.172286
  8   2.255207 -0.007574 0.000003 0.122017 -0.013945 -0.029545
  9   9.514223 -0.009357 0.000000 -0.008667 0.002648 -0.052281
 10   11.752194 -0.001492 0.000000 0.000024 0.043599 0.440031
 11   -2.111792 0.863597 2.563791 0.666442 -1.215199 2.056492
 12   4.640941 0.000000 0.000000 1.137291 0.704553 1.151502
 13   10.828045 0.000000 0.000000 0.000000 0.000000 -1.255375
 14   9.393338 -0.000001 0.000000 -1.421272 0.028502 -0.446573
 15   1.442243 0.107453 -1.746178 1.710740 0.781590 0.365230
 16   1.063450 0.000000 -0.000001 0.000000 0.000000 0.199056
 17   1.376307 -0.000001 0.000001 0.000000 0.000000 0.600473
 18   4.172845 -0.251366 -1.312745 -0.005361 -0.000073 0.008928
 19   1.215373 0.000001 -0.000001 0.000000 0.000000 0.506106
 20   1.215371 -0.000002 0.000000 0.000000 0.000000 0.506106
 21   4.220532 -0.244855 -0.431465 -0.004372 0.025906 -0.069865
 22   1.350417 0.000000 0.000001 0.000000 0.000000 0.532308
 23   1.350409 0.000000 -0.000001 0.000000 0.000000 0.532308
 24   -1.885222 0.863610 -2.731758 -1.068895 1.168982 1.681693
 25   4.640942 0.000000 0.000000 -1.148899 -0.587327 0.915487
 26   10.828048 0.000000 0.000001 0.000000 0.000000 -1.209040
 27   9.393336 -0.000001 0.000000 1.195541 0.061097 -0.604056
 28   1.442244 0.107454 1.746178 -2.047067 -0.542719 0.863657
 29   1.063451 -0.000001 0.000000 0.000000 0.000000 -0.054011
 30   1.376307 -0.000001 0.000000 0.000000 0.000000 0.600477
 31   4.172846 -0.251365 1.312745 -0.014726 -0.094940 0.218785
 32   1.215374 0.000001 -0.000001 0.000000 0.000000 0.715581
 33   1.215373 0.000000 0.000001 0.000000 0.000000 0.715581
 34   4.220533 -0.244853 0.431466 -0.001333 -0.026242 0.148339
 35   1.350415 -0.000001 -0.000001 0.000000 0.000000 0.863937
 36   1.350410 -0.000001 0.000001 0.000000 0.000000 0.863925
 37   2.110541 -0.000001 0.000000 0.003599 -0.010583 -0.183147
 38   0.891923 2.373050 -0.014527 -3.141592 -0.000001 1.413797
 39   7.228119 5.709445 3.726568 3.140796 -1.570796 0.000000
 40   2.450426 5.076127 0.001325 3.140791 -1.570796 0.000000
 41   6.312405 -4.528058 0.001311 3.169214 -1.570796 0.000000
 42   2.233309 1.152535 -7.309138 -1.310982 -1.649491 -0.435906
 43   4.262825 -0.232720 -1.392178 0.016840 0.076668 0.253759
time 6
  0   1.727579 0.771444 38.778511 0.000000 0.000000 -1.701715
  1   0.355807 -0.101566 0.000000 -1.570795 -1.570451 0.000000
  2   -0.000007 0.000008 4.427393 -0.174103 -3.056971 -0.025118
  3   18.465939 0.000000 0.000000 0.000000 0.000000 -0.312160
  4   14.875443 0.000000 0.000000 -0.087407 -0.072509 0.255434
  5   0.000006 -0.000004 -4.427393 0.122980 2.981022 -0.030660
  6   18.465939 0.000000 0.000000 0.000000 0.000000 -0.223154
  7   14.875442 0.000000 0.000000 -0.016068 0.155545 0.172511
  8   2.255207 -0.007574 0.000003 0.122017 -0.013179 -0.035667
  9   9.514223 -0.009357 0.000000 -0.008667 0.002621 -0.052281
 10   11.752194 -0.001492 0.000000 0.000024 0.043599 0.440031
 11   -2.111792 0.863597 2.563791 0.666442 -1.215199 2.056492
 12   4.640941 0.000000 0.000000 1.135677 0.707150 1.148458
 13   10.828045 0.000000 0.000000 0.000000 0.000000 -1.252446
 14   9.393338 -0.000001 0.000000 -1.421364 0.028502 -0.446427
 15   1.442243 0.107453 -1.746178 1.710740 0.781590 0.365230
 16   1.063450 0.000000 -0.000001 0.000000 0.000000 0.199056
 17   1.376307 -0.000001 0.000001 0.000000 0.000000 0.600473
 18   4.172845 -0.251366 -1.312745 -0.005361 -0.000073 0.008928
 19   1.215373 0.000001 -0.000001 0.000000 0.000000 0.506106
 20   1.215371 -0.000002 0.000000 0.000000 0.000000 0.506106
 21   4.220532 -0.244855 -0.431465 -0.004372 0.025906 -0.069865
 22   1.350417 0.000000 0.000001 0.000000 0.000000 0.532308
 23   1.350409 0.000000 -0.000001 0.000000 0.000000 0.532308
 24   -1.885222 0.863610 -2.731758 -1.068895 1.168982 1.681693
 25   4.640942 0.000000 0.000000 -1.148054 -0.588373 0.912337
 26   10.828048 0.000000 0.000001 0.000000 0.000000 -1.208526
 27   9.393336 -0.000001 0.000000 1.194658 0.061390 -0.605171
 28   1.442244 0.107454 1.746178 -2.047067 -0.542719 0.863657
 29   1.063451 -0.000001 0.000000 0.000000 0.000000 -0.054011
 30   1.376307 -0.000001 0.000000 0.000000 0.000000 0.600477
 31   4.172846 -0.251365 1.312745 -0.014726 -0.094940 0.218785
 32   1.215374 0.000001 -0.000001 0.000000 0.000000 0.715581
 33   1.215373 0.000000 0.000001 0.000000 0.000000 0.715581
 34   4.220533 -0.244853 0.431466 -0.001333 -0.026242 0.148339
 35   1.350415 -0.000001 -0.000001 0.000000 0.000000 0.863937
 36   1.350410 -0.000001 0.000001 0.000000 0.000000 0.863925
 37   2.110541 -0.000001 0.000000 0.003496 -0.010673 -0.180039
 38   0.891923 2.373050 -0.014527 -3.141592 -0.000001 1.413797
 39   7.228119 5.709445 3.726568 3.140796 -1.570796 0.000000
 40   2.450426 5.076127 0.001325 3.140791 -1.570796 0.000000
 41   6.312405 -4.528058 0.001311 3.175389 -1.570796 0.000000
 42   2.233309 1.152535 -7.309138 -1.309160 -1.649550 -0.436289
 43   4.262825 -0.232720 -1.392178 0.016840 0.076668 0.253759
time 7
  0   1.727579 0.771444 38.778511 0.000000 0.000000 -1.701715
  1   0.422215 -0.093753 0.000000 -1.570795 -1.570451 0.000000
  2   -0.000007 0.000008 4.427393 -0.174390 -3.057445 -0.021973
  3   18.465939 0.000000 0.000000 0.000000 0.000000 -0.309528
  4   14.875443 0.000000 0.000000 -0.087407 -0.072637 0.255948
  5   0.000006 -0.000004 -4.427393 0.123459 2.980926 -0.027290
  6   18.465939 0.000000 0.000000 0.000000 0.000000 -0.220135
  7   14.875442 0.000000 0.000000 -0.016033 0.156000 0.172737
  8   2.255207 -0.007574 0.000003 0.121975 -0.012452 -0.041688
  9   9.514223 -0.009357 0.000000 -0.008667 0.002607 -0.052281
 10   11.752194 -0.001492 0.000000 0.000024 0.043599 0.440031
 11   -2.111792 0.863597 2.563791 0.666442 -1.215199 2.056492
 12   4.640941 0.000000 0.000000 1.134063 0.709676 1.145473
 13   10.828045 0.000000 0.000000 0.000000 0.000000 -1.249578
 14   9.393338 -0.000001 0.000000 -1.421364 0.028502 -0.446231
 15   1.442243 0.107453 -1.746178 1.710740 0.781590 0.365230
 16   1.063450 0.000000 -0.000001 0.000000 0.000000 0.199056
 17   1.376307 -0.000001 0.000001 0.000000 0.000000 0.600473
 18   4.172845 -0.251366 -1.312745 -0.005361 -0.000073 0.008928
 19   1.215373 0.000001 -0.000001 0.000000 0.000000 0.506106
 20   1.215371 -0.000002 0.000000 0.000000 0.000000 0.506106
 21   4.220532 -0.244855 -0.431465 -0.004372 0.025906 -0.069865
 22   1.350417 0.000000 0.000001 0.000000 0.000000 0.532308
 23   1.350409 0.000000 -0.000001 0.000000 0.000000 0.532308
 24   -1.885222 0.863610 -2.731758 -1.068895 1.168982 1.681693
 25   4.640942 0.000000 0.000000 -1.147209 -0.589349 0.909188
 26   10.828048 0.000000 0.000001 0.000000 0.000000 -1.208076
 27   9.393336 -0.000001 0.000000 1.193775 0.061650 -0.606287
 28   1.442244 0.107454 1.746178 -2.047067 -0.542719 0.863657
 29   1.063451 -0.000001 0.000000 0.000000 0.000000 -0.054011
 30   1.376307 -0.000001 0.000000 0.000000 0.000000 0.600477
 31   4.172846 -0.251365 1.312745 -0.014726 -0.094940 0.218785
 32   1.215374 0.000001 -0.000001 0.000000 0.000000 0.715581
 33   1.215373 0.000000 0.000001 0.000000 0.000000 0.715581
 34   4.220533 -0.244853 0.431466 -0.001333 -0.026242 0.148339
 35   1.350415 -0.000001 -0.000001 0.000000 0.000000 0.863937
 36   1.350410 -0.000001 0.000001 0.000000 0.000000 0.863925
 37   2.110541 -0.000001 0.000000 0.003342 -0.010764 -0.177026
 38   0.891923 2.373050 -0.014527 -3.141592 -0.000001 1.413797
 39   7.228119 5.709445 3.726568 3.140796 -1.570796 0.000000
 40   2.450426 5.076127 0.001325 3.140791 -1.570796 0.000000
 41   6.312405 -4.528058 0.001311 3.181461 -1.570796 0.000000
 42   2.233309 1.152535 -7.309138 -1.307242 -1.649579 -0.436576
 43   4.262825 -0.232720 -1.392178 0.016840 0.076668 0.253759
time 8
  0   1.727579 0.771444 38.778511 0.000000 0.000000 -1.701715
  1   0.484717 -0.085940 0.000000 -1.570795 -1.570451 0.000000
  2   -0.000007 0.000008 4.427393 -0.174582 -3.057823 -0.019018
  3   18.465939 0.000000 0.000000 0.000000 0.000000 -0.307042
  4   14.875443 0.000000 0.000000 -0.087407 -0.072722 0.256422
  5   0.000006 -0.000004 -4.427393 0.123938 2.980830 -0.024109
  6   18.465939 0.000000 0.000000 0.000000 0.000000 -0.217181
  7   14.875442 0.000000 0.000000 -0.015998 0.156485 0.172924
  8   2.255207 -0.007574 0.000003 0.121932 -0.011745 -0.047446
  9   9.514223 -0.009357 0.000000 -0.008667 0.002580 -0.052281
 10   11.752194 -0.001492 0.000000 0.000024 0.043599 0.440031
 11   -2.111792 0.863597 2.563791 0.666442 -1.215199 2.056492
 12   4.640941 0.000000 0.000000 1.132511 0.712057 1.142605
 13   10.828045 0.000000 0.000000 0.000000 0.000000 -1.246772
 14   9.393338 -0.000001 0.000000 -1.421456 0.028540 -0.446085
 15   1.442243 0.107453 -1.746178 1.710740 0.781590 0.365230
 16   1.063450 0.000000 -0.000001 0.000000 0.000000 0.199056
 17   1.376307 -0.000001 0.000001 0.000000 0.000000 0.600473
 18   4.172845 -0.251366 -1.312745 -0.005361 -0.000073 0.008928
 19   1.215373 0.000001 -0.000001 0.000000 0.000000 0.506106
 20   1.215371 -0.000002 0.000000 0.000000 0.000000 0.506106
 21   4.220532 -0.244855 -0.431465 -0.004372 0.025906 -0.069865
 22   1.350417 0.000000 0.000001 0.000000 0.000000 0.532308
 23   1.350409 0.000000 -0.000001 0.000000 0.000000 0.532308
 24   -1.885222 0.863610 -2.731758 -1.068895 1.168982 1.681693
 25   4.640942 0.000000 0.000000 -1.146364 -0.590326 0.906248
 26   10.828048 0.000000 0.000001 0.000000 0.000000 -1.207626
 27   9.393336 -0.000001 0.000000 1.192947 0.061911 -0.607354
 28   1.442244 0.107454 1.746178 -2.047067 -0.542719 0.863657
 29   1.063451 -0.000001 0.000000 0.000000 0.000000 -0.054011
 30   1.376307 -0.000001 0.000000 0.000000 0.000000 0.600477
 31   4.172846 -0.251365 1.312745 -0.014726 -0.094940 0.218785
 32   1.215374 0.000001 -0.000001 0.000000 0.000000 0.715581
 33   1.215373 0.000000 0.000001 0.000000 0.000000 0.715581
 34   4.220533 -0.244853 0.431466 -0.001333 -0.026242 0.148339
 35   1.350415 -0.000001 -0.000001 0.000000 0.000000 0.863937
 36   1.350410 -0.000001 0.000001 0.000000 0.000000 0.863925
 37   2.110541 -0.000001 0.000000 0.003188 -0.010854 -0.174106
 38   0.891923 2.373050 -0.014527 -3.141592 -0.000001 1.413797
 39   7.228119 5.709445 3.726568 3.140796 -1.570796 0.000000
 40   2.450426 5.076127 0.001325 3.140791 -1.570796 0.000000
 41   6.312405 -4.528058 0.001311 3.187279 -1.570796 0.000000
 42   2.233309 1.152535 -7.309138 -1.305517 -1.649608 -0.436959
 43   4.262825 -0.232720 -1.392178 0.016840 0.076668 0.253759
time 9
  0   1.727579 0.771444 38.778511 0.000000 0.000000 -1.701715
  1   0.543313 -0.078127 0.000000 -1.570795 -1.570451 0.000000
  2   -0.000007 0.000008 4.427393 -0.174773 -3.058202 -0.016158
  3   18.465939 0.000000 0.000000 0.000000 0.000000 -0.304630
  4   14.875443 0.000000 0.000000 -0.087442 -0.072829 0.256856
  5   0.000006 -0.000004 -4.427393 0.124418 2.980735 -0.021114
  6   18.465939 0.000000 0.000000 0.000000 0.000000 -0.214490
  7   14.875442 0.000000 0.000000 -0.015963 0.156910 0.173112
  8   2.255207 -0.007574 0.000003 0.121932 -0.011077 -0.052839
  9   9.514223 -0.009357 0.000000 -0.008667 0.002567 -0.052281
 10   11.752194 -0.001492 0.000000 0.000024 0.043599 0.440031
 11   -2.111792 0.863597 2.563791 0.666442 -1.215199 2.056492
 12   4.640941 0.000000 0.000000 1.131083 0.714366 1.139912
 13   10.828045 0.000000 0.000000 0.000000 0.000000 -1.244209
 14   9.393338 -0.000001 0.000000 -1.421456 0.028540 -0.445987
 15   1.442243 0.107453 -1.746178 1.710740 0.781590 0.365230
 16   1.063450 0.000000 -0.000001 0.000000 0.000000 0.199056
 17   1.376307 -0.000001 0.000001 0.000000 0.000000 0.600473
 18   4.172845 -0.251366 -1.312745 -0.005361 -0.000073 0.008928
 19   1.215373 0.000001 -0.000001 0.000000 0.000000 0.506106
 20   1.215371 -0.000002 0.000000 0.000000 0.000000 0.506106
 21   4.220532 -0.244855 -0.431465 -0.004372 0.025906 -0.069865
 22   1.350417 0.000000 0.000001 0.000000 0.000000 0.532308
 23   1.350409 0.000000 -0.000001 0.000000 0.000000 0.532308
 24   -1.885222 0.863610 -2.731758 -1.068895 1.168982 1.681693
 25   4.640942 0.000000 0.000000 -1.145604 -0.591232 0.903448
 26   10.828048 0.000000 0.000001 0.000000 0.000000 -1.207176
 27   9.393336 -0.000001 0.000000 1.192174 0.062171 -0.608324
 28   1.442244 0.107454 1.746178 -2.047067 -0.542719 0.863657
 29   1.063451 -0.000001 0.000000 0.000000 0.000000 -0.054011
 30   1.376307 -0.000001 0.000000 0.000000 0.000000 0.600477
 31   4.172846 -0.251365 1.312745 -0.014726 -0.094940 0.218785
 32   1.215374 0.000001 -0.000001 0.000000 0.000000 0.715581
 33   1.215373 0.000000 0.000001 0.000000 0.000000 0.715581
 34   4.220533 -0.244853 0.431466 -0.001333 -0.026242 0.148339
 35   1.350415 -0.000001 -0.000001 0.000000 0.000000 0.863937
 36   1.350410 -0.000001 0.000001 0.000000 0.000000 0.863925
 37   2.110541 -0.000001 0.000000 0.003034 -0.010914 -0.171375
 38   0.891923 2.373050 -0.014527 -3.141592 -0.000001 1.413797
 39   7.228119 5.709445 3.726568 3.140796 -1.570796 0.000000
 40   2.450426 5.076127 0.001325 3.140791 -1.570796 0.000000
 41   6.312405 -4.528058 0.001311 3.192688 -1.570796 0.000000
 42   2.233309 1.152535 -7.309138 -1.303887 -1.649637 -0.437246
 43   4.262825 -0.232720 -1.392178 0.016840 0.076668 0.253759
time 10
  0   1.727579 0.771444 38.778511 0.000000 0.000000 -1.701715
  1   0.594095 -0.074221 0.000000 -1.570795 -1.570451 0.000000
  2   -0.000007 0.000008 4.427393 -0.174965 -3.058581 -0.013585
  3   18.465939 0.000000 0.000000 0.000000 0.000000 -0.302510
  4   14.875443 0.000000 0.000000 -0.087442 -0.072914 0.257251
  5   0.000006 -0.000004 -4.427393 0.124801 2.980735 -0.018400
  6   18.465939 0.000000 0.000000 0.000000 0.000000 -0.211996
  7   14.875442 0.000000 0.000000 -0.015963 0.157304 0.173299
  8   2.255207 -0.007574 0.000003 0.121890 -0.010488 -0.057736
  9   9.514223 -0.009357 0.000000 -0.008667 0.002554 -0.052281
 10   11.752194 -0.001492 0.000000 0.000024 0.043599 0.440031
 11   -2.111792 0.863597 2.563791 0.666442 -1.215199 2.056492
 12   4.640941 0.000000 0.000000 1.129779 0.716387 1.137512
 13   10.828045 0.000000 0.000000 0.000000 0.000000 -1.241891
 14   9.393338 -0.000001 0.000000 -1.421549 0.028540 -0.445841
 15   1.442243 0.107453 -1.746178 1.710740 0.781590 0.365230
 16   1.063450 0.000000 -0.000001 0.000000 0.000000 0.199056
 17   1.376307 -0.000001 0.000001 0.000000 0.000000 0.600473
 18   4.172845 -0.251366 -1.312745 -0.005361 -0.000073 0.008928
 19   1.215373 0.000001 -0.000001 0.000000 0.000000 0.506106
 20   1.215371 -0.000002 0.000000 0.000000 0.000000 0.506106
 21   4.220532 -0.244855 -0.431465 -0.004372 0.025906 -0.069865
 22   1.350417 0.000000 0.000001 0.000000 0.000000 0.532308
 23   1.350409 0.000000 -0.000001 0.000000 0.000000 0.532308
 24   -1.885222 0.863610 -2.731758 -1.068895 1.168982 1.681693
 25   4.640942 0.000000 0.000000 -1.144928 -0.592139 0.900928
 26   10.828048 0.000000 0.000001 0.000000 0.000000 -1.206790
 27   9.393336 -0.000001 0.000000 1.191457 0.062399 -0.609196
 28   1.442244 0.107454 1.746178 -2.047067 -0.542719 0.863657
 29   1.063451 -0.000001 0.000000 0.000000 0.000000 -0.054011
 30   1.376307 -0.000001 0.000000 0.000000 0.000000 0.600477
 31   4.172846 -0.251365 1.312745 -0.014726 -0.094940 0.218785
 32   1.215374 0.000001 -0.000001 0.000000 0.000000 0.715581
 33   1.215373 0.000000 0.000001 0.000000 0.000000 0.715581
 34   4.220533 -0.244853 0.431466 -0.001333 -0.026242 0.148339
 35   1.350415 -0.000001 -0.000001 0.000000 0.000000 0.863937
 36   1.350410 -0.000001 0.000001 0.000000 0.000000 0.863925
 37   2.110541 -0.000001 0.000000 0.002931 -0.010974 -0.168927
 38   0.891923 2.373050 -0.014527 -3.141592 -0.000001 1.413797
 39   7.228119 5.709445 3.726568 3.140796 -1.570796 0.000000
 40   2.450426 5.076127 0.001325 3.140791 -1.570796 0.000000
 41   6.312405 -4.528058 0.001311 3.197638 -1.570796 0.000000
 42   2.233309 1.152535 -7.309138 -1.302353 -1.649666 -0.437534
 43   4.262825 -0.232720 -1.392178 0.016840 0.076668 0.253759
time 11
  0   1.727579 0.771444 38.778511 0.000000 0.000000 -1.701715
  1   0.640972 -0.066408 0.000000 -1.570795 -1.570451 0.000000
  2   -0.000007 0.000008 4.427393 -0.175156 -3.058865 -0.011393
  3   18.465939 0.000000 0.000000 0.000000 0.000000 -0.300609
  4   14.875443 0.000000 0.000000 -0.087442 -0.072999 0.257607
  5   0.000006 -0.000004 -4.427393 0.125089 2.980639 -0.016060
  6   18.465939 0.000000 0.000000 0.000000 0.000000 -0.209830
  7   14.875442 0.000000 0.000000 -0.015928 0.157637 0.173449
  8   2.255207 -0.007574 0.000003 0.121848 -0.009958 -0.062037
  9   9.514223 -0.009357 0.000000 -0.008667 0.002540 -0.052281
 10   11.752194 -0.001492 0.000000 0.000024 0.043599 0.440031
 11   -2.111792 0.863597 2.563791 0.666442 -1.215199 2.056492
 12   4.640941 0.000000 0.000000 1.128600 0.718191 1.135346
 13   10.828045 0.000000 0.000000 0.000000 0.000000 -1.239817
 14   9.393338 -0.000001 0.000000 -1.421549 0.028540 -0.445743
 15   1.442243 0.107453 -1.746178 1.710740 0.781590 0.365230
 16   1.063450 0.000000 -0.000001 0.000000 0.000000 0.199056
 17   1.376307 -0.000001 0.000001 0.000000 0.000000 0.600473
 18   4.172845 -0.251366 -1.312745 -0.005361 -0.000073 0.008928
 19   1.215373 0.000001 -0.000001 0.000000 0.000000 0.506106
 20   1.215371 -0.000002 0.000000 0.000000 0.000000 0.506106
 21   4.220532 -0.244855 -0.431465 -0.004372 0.025906 -0.069865
 22   1.350417 0.000000 0.000001 0.000000 0.000000 0.532308
 23   1.350409 0.000000 -0.000001 0.000000 0.000000 0.532308
 24   -1.885222 0.863610 -2.731758 -1.068895 1.168982 1.681693
 25   4.640942 0.000000 0.000000 -1.144337 -0.592836 0.898759
 26   10.828048 0.000000 0.000001 0.000000 0.000000 -1.206469
 27   9.393336 -0.000001 0.000000 1.190794 0.062594 -0.610021
 28   1.442244 0.107454 1.746178 -2.047067 -0.542719 0.863657
 29   1.063451 -0.000001 0.000000 0.000000 0.000000 -0.054011
 30   1.376307 -0.000001 0.000000 0.000000 0.000000 0.600477
 31   4.172846 -0.251365 1.312745 -0.014726 -0.094940 0.218785
 32   1.215374 0.000001 -0.000001 0.000000 0.000000 0.715581
 33   1.215373 0.000000 0.000001 0.000000 0.000000 0.715581
 34   4.220533 -0.244853 0.431466 -0.001333 -0.026242 0.148339
 35   1.350415 -0.000001 -0.000001 0.000000 0.000000 0.863937
 36   1.350410 -0.000001 0.000001 0.000000 0.000000 0.863925
 37   2.110541 -0.000001 0.000000 0.002828 -0.011034 -0.166761
 38   0.891923 2.373050 -0.014527 -3.141592 -0.000001 1.413797
 39   7.228119 5.709445 3.726568 3.140796 -1.570796 0.000000
 40   2.450426 5.076127 0.001325 3.140791 -1.570796 0.000000
 41   6.312405 -4.528058 0.001311 3.201975 -1.570796 0.000000
 42   2.233309 1.152535 -7.309138 -1.301011 -1.649695 -0.437725
 43   4.262825 -0.232720 -1.392178 0.016840 0.076668 0.253759
time 12
  0   1.727579 0.771444 38.778511 0.000000 0.000000 -1.701715
  1   0.680035 -0.062502 0.000000 -1.570795 -1.570451 0.000000
  2   -0.000007 0.000008 4.427393 -0.175348 -3.059149 -0.009582
  3   18.465939 0.000000 0.000000 0.000000 0.000000 -0.299074
  4   14.875443 0.000000 0.000000 -0.087442 -0.073063 0.257923
  5   0.000006 -0.000004 -4.427393 0.125376 2.980639 -0.014095
  6   18.465939 0.000000 0.000000 0.000000 0.000000 -0.207992
  7   14.875442 0.000000 0.000000 -0.015893 0.157910 0.173562
  8   2.255207 -0.007574 0.000003 0.121806 -0.009526 -0.065578
  9   9.514223 -0.009357 0.000000 -0.008667 0.002527 -0.052281
 10   11.752194 -0.001492 0.000000 0.000024 0.043599 0.440031
 11   -2.111792 0.863597 2.563791 0.666442 -1.215199 2.056492
 12   4.640941 0.000000 0.000000 1.127668 0.719706 1.133590
 13   10.828045 0.000000 0.000000 0.000000 0.000000 -1.238108
 14   9.393338 -0.000001 0.000000 -1.421549 0.028540 -0.445645
 15   1.442243 0.107453 -1.746178 1.710740 0.781590 0.365230
 16   1.063450 0.000000 -0.000001 0.000000 0.000000 0.199056
 17   1.376307 -0.000001 0.000001 0.000000 0.000000 0.600473
 18   4.172845 -0.251366 -1.312745 -0.005361 -0.000073 0.008928
 19   1.215373 0.000001 -0.000001 0.000000 0.000000 0.506106
 20   1.215371 -0.000002 0.000000 0.000000 0.000000 0.506106
 21   4.220532 -0.244855 -0.431465 -0.004372 0.025906 -0.069865
 22   1.350417 0.000000 0.000001 0.000000 0.000000 0.532308
 23   1.350409 0.000000 -0.000001 0.000000 0.000000 0.532308
 24   -1.885222 0.863610 -2.731758 -1.068895 1.168982 1.681693
 25   4.640942 0.000000 0.000000 -1.143830 -0.593464 0.896939
 26   10.828048 0.000000 0.000001 0.000000 0.000000 -1.206211
 27   9.393336 -0.000001 0.000000 1.190298 0.062756 -0.610651
 28   1.442244 0.107454 1.746178 -2.047067 -0.542719 0.863657
 29   1.063451 -0.000001 0.000000 0.000000 0.000000 -0.054011
 30   1.376307 -0.000001 0.000000 0.000000 0.000000 0.600477
 31   4.172846 -0.251365 1.312745 -0.014726 -0.094940 0.218785
 32   1.215374 0.000001 -0.000001 0.000000 0.000000 0.715581
 33   1.215373 0.000000 0.000001 0.000000 0.000000 0.715581
 34   4.220533 -0.244853 0.431466 -0.001333 -0.026242 0.148339
 35   1.350415 -0.000001 -0.000001 0.000000 0.000000 0.863937
 36   1.350410 -0.000001 0.000001 0.000000 0.000000 0.863925
 37   2.110541 -0.000001 0.000000 0.002725 -0.011094 -0.164971
 38   0.891923 2.373050 -0.014527 -3.141592 -0.000001 1.413797
 39   7.228119 5.709445 3.726568 3.140796 -1.570796 0.000000
 40   2.450426 5.076127 0.001325 3.140791 -1.570796 0.000000
 41   6.312405 -4.528058 0.001311 3.205547 -1.570796 0.000000
 42   2.233309 1.152535 -7.309138 -1.299956 -1.649724 -0.437917
 43   4.262825 -0.232720 -1.392178 0.016840 0.076668 0.253759
time 13
  0   1.727579 0.771444 38.778511 0.000000 0.000000 -1.701715
  1   0.707380 -0.058596 0.000000 -1.570795 -1.570451 0.000000
  2   -0.000007 0.000008 4.427393 -0.175444 -3.059338 -0.008152
  3   18.465939 0.000000 0.000000 0.000000 0.000000 -0.297831
  4   14.875443 0.000000 0.000000 -0.087442 -0.073105 0.258120
  5   0.000006 -0.000004 -4.427393 0.125664 2.980639 -0.012597
  6   18.465939 0.000000 0.000000 0.000000 0.000000 -0.206679
  7   14.875442 0.000000 0.000000 -0.015893 0.158152 0.173674
  8   2.255207 -0.007574 0.000003 0.121806 -0.009192 -0.068291
  9   9.514223 -0.009357 0.000000 -0.008667 0.002513 -0.052281
 10   11.752194 -0.001492 0.000000 0.000024 0.043599 0.440031
 11   -2.111792 0.863597 2.563791 0.666442 -1.215199 2.056492
 12   4.640941 0.000000 0.000000 1.126924 0.720788 1.132243
 13   10.828045 0.000000 0.000000 0.000000 0.000000 -1.236827
 14   9.393338 -0.000001 0.000000 -1.421549 0.028579 -0.445596
 15   1.442243 0.107453 -1.746178 1.710740 0.781590 0.365230
 16   1.063450 0.000000 -0.000001 0.000000 0.000000 0.199056
 17   1.376307 -0.000001 0.000001 0.000000 0.000000 0.600473
 18   4.172845 -0.251366 -1.312745 -0.005361 -0.000073 0.008928
 19   1.215373 0.000001 -0.000001 0.000000 0.000000 0.506106
 20   1.215371 -0.000002 0.000000 0.000000 0.000000 0.506106
 21   4.220532 -0.244855 -0.431465 -0.004372 0.025906 -0.069865
 22   1.350417 0.000000 0.000001 0.000000 0.000000 0.532308
 23   1.350409 0.000000 -0.000001 0.000000 0.000000 0.532308
 24   -1.885222 0.863610 -2.731758 -1.068895 1.168982 1.681693
 25   4.640942 0.000000 0.000000 -1.143492 -0.593952 0.895539
 26   10.828048 0.000000 0.000001 0.000000 0.000000 -1.206018
 27   9.393336 -0.000001 0.000000 1.189911 0.062887 -0.611136
 28   1.442244 0.107454 1.746178 -2.047067 -0.542719 0.863657
 29   1.063451 -0.000001 0.000000 0.000000 0.000000 -0.054011
 30   1.376307 -0.000001 0.000000 0.000000 0.000000 0.600477
 31   4.172846 -0.251365 1.312745 -0.014726 -0.094940 0.218785
 32   1.215374 0.000001 -0.000001 0.000000 0.000000 0.715581
 33   1.215373 0.000000 0.000001 0.000000 0.000000 0.715581
 34   4.220533 -0.244853 0.431466 -0.001333 -0.026242 0.148339
 35   1.350415 -0.000001 -0.000001 0.000000 0.000000 0.863937
 36   1.350410 -0.000001 0.000001 0.000000 0.000000 0.863925
 37   2.110541 -0.000001 0.000000 0.002674 -0.011124 -0.163606
 38   0.891923 2.373050 -0.014527 -3.141592 -0.000001 1.413797
 39   7.228119 5.709445 3.726568 3.140796 -1.570796 0.000000
 40   2.450426 5.076127 0.001325 3.140791 -1.570796 0.000000
 41   6.312405 -4.528058 0.001311 3.208252 -1.570796 0.000000
 42   2.233309 1.152535 -7.309138 -1.299093 -1.649753 -0.438108
 43   4.262825 -0.232720 -1.392178 0.016840 0.076668 0.253759
time 14
  0   1.727579 0.771444 38.778511 0.000000 0.000000 -1.701715
  1   0.726912 -0.058596 0.000000 -1.570795 -1.570451 0.000000
  2   -0.000007 0.000008 4.427393 -0.175444 -3.059528 -0.007294
  3   18.465939 0.000000 0.000000 0.000000 0.000000 -0.297100
  4   14.875443 0.000000 0.000000 -0.087442 -0.073148 0.258278
  5   0.000006 -0.000004 -4.427393 0.125759 2.980543 -0.011662
  6   18.465939 0.000000 0.000000 0.000000 0.000000 -0.205826
  7   14.875442 0.000000 0.000000 -0.015893 0.158274 0.173712
  8   2.255207 -0.007574 0.000003 0.121806 -0.008976 -0.069978
  9   9.514223 -0.009357 0.000000 -0.008667 0.002513 -0.052281
 10   11.752194 -0.001492 0.000000 0.000024 0.043599 0.440031
 11   -2.111792 0.863597 2.563791 0.666442 -1.215199 2.056492
 12   4.640941 0.000000 0.000000 1.126489 0.721510 1.131365
 13   10.828045 0.000000 0.000000 0.000000 0.000000 -1.236034
 14   9.393338 -0.000001 0.000000 -1.421641 0.028579 -0.445548
 15   1.442243 0.107453 -1.746178 1.710740 0.781590 0.365230
 16   1.063450 0.000000 -0.000001 0.000000 0.000000 0.199056
 17   1.376307 -0.000001 0.000001 0.000000 0.000000 0.600473
 18   4.172845 -0.251366 -1.312745 -0.005361 -0.000073 0.008928
 19   1.215373 0.000001 -0.000001 0.000000 0.000000 0.506106
 20   1.215371 -0.000002 0.000000 0.000000 0.000000 0.506106
 21   4.220532 -0.244855 -0.431465 -0.004372 0.025906 -0.069865
 22   1.350417 0.000000 0.000001 0.000000 0.000000 0.532308
 23   1.350409 0.000000 -0.000001 0.000000 0.000000 0.532308
 24   -1.885222 0.863610 -2.731758 -1.068895 1.168982 1.681693
 25   4.640942 0.000000 0.000000 -1.143238 -0.594231 0.894699
 26   10.828048 0.000000 0.000001 0.000000 0.000000 -1.205890
 27   9.393336 -0.000001 0.000000 1.189635 0.062952 -0.611427
 28   1.442244 0.107454 1.746178 -2.047067 -0.542719 0.863657
 29   1.063451 -0.000001 0.000000 0.000000 0.000000 -0.054011
 30   1.376307 -0.000001 0.000000 0.000000 0.000000 0.600477
 31   4.172846 -0.251365 1.312745 -0.014726 -0.094940 0.218785
 32   1.215374 0.000001 -0.000001 0.000000 0.000000 0.715581
 33   1.215373 0.000000 0.000001 0.000000 0.000000 0.715581
 34   4.220533 -0.244853 0.431466 -0.001333 -0.026242 0.148339
 35   1.350415 -0.000001 -0.000001 0.000000 0.000000 0.863937
 36   1.350410 -0.000001 0.000001 0.000000 0.000000 0.863925
 37   2.110541 -0.000001 0.000000 0.002622 -0.011154 -0.162758
 38   0.891923 2.373050 -0.014527 -3.141592 -0.000001 1.413797
 39   7.228119 5.709445 3.726568 3.140796 -1.570796 0.000000
 40   2.450426 5.076127 0.001325 3.140791 -1.570796 0.000000
 41   6.312405 -4.528058 0.001311 3.209987 -1.570796 0.000000
 42   2.233309 1.152535 -7.309138 -1.298614 -1.649753 -0.438204
 43   4.262825 -0.232720 -1.392178 0.016840 0.076668 0.253759
time 15
  0   1.727579 0.771444 38.778511 0.000000 0.000000 -1.701715
  1   0.730818 -0.058596 0.000000 -1.570795 -1.570451 0.000000
  2   -0.000007 0.000008 4.427393 -0.175540 -3.059528 -0.007008
  3   18.465939 0.000000 0.000000 0.000000 0.000000 -0.296880
  4   14.875443 0.000000 0.000000 -0.087478 -0.073148 0.258318
  5   0.000006 -0.000004 -4.427393 0.125855 2.980543 -0.011287
  6   18.465939 0.000000 0.000000 0.000000 0.000000 -0.205498
  7   14.875442 0.000000 0.000000 -0.015857 0.158334 0.173750
  8   2.255207 -0.007574 0.000003 0.121806 -0.008917 -0.070574
  9   9.514223 -0.009357 0.000000 -0.008667 0.002513 -0.052281
 10   11.752194 -0.001492 0.000000 0.000024 0.043599 0.440031
 11   -2.111792 0.863597 2.563791 0.666442 -1.215199 2.056492
 12   4.640941 0.000000 0.000000 1.126303 0.721798 1.131073
 13   10.828045 0.000000 0.000000 0.000000 0.000000 -1.235729
 14   9.393338 -0.000001 0.000000 -1.421641 0.028579 -0.445548
 15   1.442243 0.107453 -1.746178 1.710740 0.781590 0.365230
 16   1.063450 0.000000 -0.000001 0.000000 0.000000 0.199056
 17   1.376307 -0.000001 0.000001 0.000000 0.000000 0.600473
 18   4.172845 -0.251366 -1.312745 -0.005361 -0.000073 0.008928
 19   1.215373 0.000001 -0.000001 0.000000 0.000000 0.506106
 20   1.215371 -0.000002 0.000000 0.000000 0.000000 0.506106
 21   4.220532 -0.244855 -0.431465 -0.004372 0.025906 -0.069865
 22   1.350417 0.000000 0.000001 0.000000 0.000000 0.532308
 23   1.350409 0.000000 -0.000001 0.000000 0.000000 0.532308
 24   -1.885222 0.863610 -2.731758 -1.068895 1.168982 1.681693
 25   4.640942 0.000000 0.000000 -1.143154 -0.594370 0.894419
 26   10.828048 0.000000 0.000001 0.000000 0.000000 -1.205826
 27   9.393336 -0.000001 0.000000 1.189580 0.062984 -0.611573
 28   1.442244 0.107454 1.746178 -2.047067 -0.542719 0.863657
 29   1.063451 -0.000001 0.000000 0.000000 0.000000 -0.054011
 30   1.376307 -0.000001 0.000000 0.000000 0.000000 0.600477
 31   4.172846 -0.251365 1.312745 -0.014726 -0.094940 0.218785
 32   1.215374 0.000001 -0.000001 0.000000 0.000000 0.715581
 33   1.215373 0.000000 0.000001 0.000000 0.000000 0.715581
 34   4.220533 -0.244853 0.431466 -0.001333 -0.026242 0.148339
 35   1.350415 -0.000001 -0.000001 0.000000 0.000000 0.863937
 36   1.350410 -0.000001 0.000001 0.000000 0.000000 0.863925
 37   2.110541 -0.000001 0.000000 0.002622 -0.011184 -0.162476
 38   0.891923 2.373050 -0.014527 -3.141592 -0.000001 1.413797
 39   7.228119 5.709445 3.726568 3.140796 -1.570796 0.000000
 40   2.450426 5.076127 0.001325 3.140791 -1.570796 0.000000
 41   6.312405 -4.528058 0.001311 3.210599 -1.570796 0.000000
 42   2.233309 1.152535 -7.309138 -1.298422 -1.649753 -0.438204
 43   4.262825 -0.232720 -1.392178 0.016840 0.076668 0.253759
time 16
  0   1.727579 0.771444 38.778511 0.000000 0.000000 -1.701715
  1   0.726912 -0.058596 0.000000 -1.570795 -1.570451 0.000000
  2   -0.000007 0.000008 4.427393 -0.175444 -3.059528 -0.007294
  3   18.465939 0.000000 0.000000 0.000000 0.000000 -0.297100
  4   14.875443 0.000000 0.000000 -0.087442 -0.073148 0.258278
  5   0.000006 -0.000004 -4.427393 0.125759 2.980543 -0.011662
  6   18.465939 0.000000 0.000000 0.000000 0.000000 -0.205826
  7   14.875442 0.000000 0.000000 -0.015893 0.158274 0.173712
  8   2.255207 -0.007574 0.000003 0.121806 -0.008976 -0.069978
  9   9.514223 -0.009357 0.000000 -0.008667 0.002513 -0.052281
 10   11.752194 -0.001492 0.000000 0.000024 0.043599 0.440031
 11   -2.111792 0.863597 2.563791 0.666442 -1.215199 2.056492
 12   4.640941 0.000000 0.000000 1.126489 0.721510 1.131365
 13   10.828045 0.000000 0.000000 0.000000 0.000000 -1.236034
 14   9.393338 -0.000001 0.000000 -1.421641 0.028579 -0.445548
 15   1.442243 0.107453 -1.746178 1.710740 0.781590 0.365230
 16   1.063450 0.000000 -0.000001 0.000000 0.000000 0.199056
 17   1.376307 -0.000001 0.000001 0.000000 0.000000 0.600473
 18   4.172845 -0.251366 -1.312745 -0.005361 -0.000073 0.008928
 19   1.215373 0.000001 -0.000001 0.000000 0.000000 0.506106
 20   1.215371 -0.000002 0.000000 0.000000 0.000000 0.506106
 21   4.220532 -0.244855 -0.431465 -0.004372 0.025906 -0.069865
 22   1.350417 0.000000 0.000001 0.000000 0.000000 0.532308
 23   1.350409 0.000000 -0.000001 0.000000 0.000000 0.532308
 24   -1.885222 0.863610 -2.731758 -1.068895 1.168982 1.681693
 25   4.640942 0.000000 0.000000 -1.143238 -0.594231 0.894699
 26   10.828048 0.000000 0.000001 0.000000 0.000000 -1.205890
 27   9.393336 -0.000001 0.000000 1.189635 0.062952 -0.611427
 28   1.442244 0.107454 1.746178 -2.047067 -0.542719 0.863657
 29   1.063451 -0.000001 0.000000 0.000000 0.000000 -0.054011
 30   1.376307 -0.000001 0.000000 0.000000 0.000000 0.600477
 31   4.172846 -0.251365 1.312745 -0.014726 -0.094940 0.218785
 32   1.215374 0.000001 -0.000001 0.000000 0.000000 0.715581
 33   1.215373 0.000000 0.000001 0.000000 0.000000 0.715581
 34   4.220533 -0.244853 0.431466 -0.001333 -0.026242 0.148339
 35   1.350415 -0.000001 -0.000001 0.000000 0.000000 0.863937
 36   1.350410 -0.000001 0.000001 0.000000 0.000000 0.863925
 37   2.110541 -0.000001 0.000000 0.002622 -0.011154 -0.162758
 38   0.891923 2.373050 -0.014527 -3.141592 -0.000001 1.413797
 39   7.228119 5.709445 3.726568 3.140796 -1.570796 0.000000
 40   2.450426 5.076127 0.001325 3.140791 -1.570796 0.000000
 41   6.312405 -4.528058 0.001311 3.209987 -1.570796 0.000000
 42   2.233309 1.152535 -7.309138 -1.298614 -1.649753 -0.438204
 43   4.262825 -0.232720 -1.392178 0.016840 0.076668 0.253759
time 17
  0   1.727579 0.771444 38.778511 0.000000 0.000000 -1.701715
  1   0.707380 -0.058596 0.000000 -1.570795 -1.570451 0.000000
  2   -0.000007 0.000008 4.427393 -0.175444 -3.059338 -0.008152
  3   18.465939 0.000000 0.000000 0.000000 0.000000 -0.297831
  4   14.875443 0.000000 0.000000 -0.087442 -0.073105 0.258120
  5   0.000006 -0.000004 -4.427393 0.125664 2.980639 -0.012597
  6   18.465939 0.000000 0.000000 0.000000 0.000000 -0.206679
  7   14.875442 0.000000 0.000000 -0.015893 0.158152 0.173674
  8   2.255207 -0.007574 0.000003 0.121806 -0.009192 -0.068291
  9   9.514223 -0.009357 0.000000 -0.008667 0.002513 -0.052281
 10   11.752194 -0.001492 0.000000 0.000024 0.043599 0.440031
 11   -2.111792 0.863597 2.563791 0.666442 -1.215199 2.056492
 12   4.640941 0.000000 0.000000 1.126924 0.720788 1.132243
 13   10.828045 0.000000 0.000000 0.000000 0.000000 -1.236827
 14   9.393338 -0.000001 0.000000 -1.421549 0.028579 -0.445596
 15   1.442243 0.107453 -1.746178 1.710740 0.781590 0.365230
 16   1.063450 0.000000 -0.000001 0.000000 0.000000 0.199056
 17   1.376307 -0.000001 0.000001 0.000000 0.000000 0.600473
 18   4.172845 -0.251366 -1.312745 -0.005361 -0.000073 0.008928
 19   1.215373 0.000001 -0.000001 0.000000 0.000000 0.506106
 20   1.215371 -0.000002 0.000000 0.000000 0.000000 0.506106
 21   4.220532 -0.244855 -0.431465 -0.004372 0.025906 -0.069865
 22   1.350417 0.000000 0.000001 0.000000 0.000000 0.532308
 23   1.350409 0.000000 -0.000001 0.000000 0.000000 0.532308
 24   -1.885222 0.863610 -2.731758 -1.068895 1.168982 1.681693
 25   4.640942 0.000000 0.000000 -1.143492 -0.593952 0.895539
 26   10.828048 0.000000 0.000001 0.000000 0.000000 -1.206018
 27   9.393336 -0.000001 0.000000 1.189911 0.062887 -0.611136
 28   1.442244 0.107454 1.746178 -2.047067 -0.542719 0.863657
 29   1.063451 -0.000001 0.000000 0.000000 0.000000 -0.054011
 30   1.376307 -0.000001 0.000000 0.000000 0.000000 0.600477
 31   4.172846 -0.251365 1.312745 -0.014726 -0.094940 0.218785
 32   1.215374 0.000001 -0.000001 0.000000 0.000000 0.715581
 33   1.215373 0.000000 0.000001 0.000000 0.000000 0.715581
 34   4.220533 -0.244853 0.431466 -0.001333 -0.026242 0.148339
 35   1.350415 -0.000001 -0.000001 0.000000 0.000000 0.863937
 36   1.350410 -0.000001 0.000001 0.000000 0.000000 0.863925
 37   2.110541 -0.000001 0.000000 0.002674 -0.011124 -0.163606
 38   0.891923 2.373050 -0.014527 -3.141592 -0.000001 1.413797
 39   7.228119 5.709445 3.726568 3.140796 -1.570796 0.000000
 40   2.450426 5.076127 0.001325 3.140791 -1.570796 0.000000
 41   6.312405 -4.528058 0.001311 3.208252 -1.570796 0.000000
 42   2.233309 1.152535 -7.309138 -1.299093 -1.649753 -0.438108
 43   4.262825 -0.232720 -1.392178 0.016840 0.076668 0.253759
time 18
  0   1.727579 0.771444 38.778511 0.000000 0.000000 -1.701715
  1   0.680035 -0.062502 0.000000 -1.570795 -1.570451 0.000000
  2   -0.000007 0.000008 4.427393 -0.175348 -3.059149 -0.009582
  3   18.465939 0.000000 0.000000 0.000000 0.000000 -0.299074
  4   14.875443 0.000000 0.000000 -0.087442 -0.073063 0.257923
  5   0.000006 -0.000004 -4.427393 0.125376 2.980639 -0.014095
  6   18.465939 0.000000 0.000000 0.000000 0.000000 -0.207992
  7   14.875442 0.000000 0.000000 -0.015893 0.157910 0.173562
  8   2.255207 -0.007574 0.000003 0.121806 -0.009526 -0.065578
  9   9.514223 -0.009357 0.000000 -0.008667 0.002527 -0.052281
 10   11.752194 -0.001492 0.000000 0.000024 0.043599 0.440031
 11   -2.111792 0.863597 2.563791 0.666442 -1.215199 2.056492
 12   4.640941 0.000000 0.000000 1.127668 0.719706 1.133590
 13   10.828045 0.000000 0.000000 0.000000 0.000000 -1.238108
 14   9.393338 -0.000001 0.000000 -1.421549 0.028540 -0.445645
 15   1.442243 0.107453 -1.746178 1.710740 0.781590 0.365230
 16   1.063450 0.000000 -0.000001 0.000000 0.000000 0.199056
 17   1.376307 -0.000001 0.000001 0.000000 0.000000 0.600473
 18   4.172845 -0.251366 -1.312745 -0.005361 -0.000073 0.008928
 19   1.215373 0.000001 -0.000001 0.000000 0.000000 0.506106
 20   1.215371 -0.000002 0.000000 0.000000 0.000000 0.506106
 21   4.220532 -0.244855 -0.431465 -0.004372 0.025906 -0.069865
 22   1.350417 0.000000 0.000001 0.000000 0.000000 0.532308
 23   1.350409 0.000000 -0.000001 0.000000 0.000000 0.532308
 24   -1.885222 0.863610 -2.731758 -1.068895 1.168982 1.681693
 25   4.640942 0.000000 0.000000 -1.143830 -0.593464 0.896939
 26   10.828048 0.000000 0.000001 0.000000 0.000000 -1.206211
 27   9.393336 -0.000001 0.000000 1.190298 0.062756 -0.610651
 28   1.442244 0.107454 1.746178 -2.047067 -0.542719 0.863657
 29   1.063451 -0.000001 0.000000 0.000000 0.000000 -0.054011
 30   1.376307 -0.000001 0.000000 0.000000 0.000000 0.600477
 31   4.172846 -0.251365 1.312745 -0.014726 -0.094940 0.218785
 32   1.215374 0.000001 -0.000001 0.000000 0.000000 0.715581
 33   1.215373 0.000000 0.000001 0.000000 0.000000 0.715581
 34   4.220533 -0.244853 0.431466 -0.001333 -0.026242 0.148339
 35   1.350415 -0.000001 -0.000001 0.000000 0.000000 0.863937
 36   1.350410 -0.000001 0.000001 0.000000 0.000000 0.863925
 37   2.110541 -0.000001 0.000000 0.002725 -0.011094 -0.164971
 38   0.891923 2.373050 -0.014527 -3.141592 -0.000001 1.413797
 39   7.228119 5.709445 3.726568 3.140796 -1.570796 0.000000
 40   2.450426 5.076127 0.001325 3.140791 -1.570796 0.000000
 41   6.312405 -4.528058 0.001311 3.205547 -1.570796 0.000000
 42   2.233309 1.152535 -7.309138 -1.299956 -1.649724 -0.437917
 43   4.262825 -0.232720 -1.392178 0.016840 0.076668 0.253759
time 19
  0   1.727579 0.771444 38.778511 0.000000 0.000000 -1.701715
  1   0.640972 -0.066408 0.000000 -1.570795 -1.570451 0.000000
  2   -0.000007 0.000008 4.427393 -0.175156 -3.058865 -0.011393
  3   18.465939 0.000000 0.000000 0.000000 0.000000 -0.300609
  4   14.875443 0.000000 0.000000 -0.087442 -0.072999 0.257607
  5   0.000006 -0.000004 -4.427393 0.125089 2.980639 -0.016060
  6   18.465939 0.000000 0.000000 0.000000 0.000000 -0.209830
  7   14.875442 0.000000 0.000000 -0.015928 0.157637 0.173449
  8   2.255207 -0.007574 0.000003 0.121848 -0.009958 -0.062037
  9   9.514223 -0.009357 0.000000 -0.008667 0.002540 -0.052281
 10   11.752194 -0.001492 0.000000 0.000024 0.043599 0.440031
 11   -2.111792 0.863597 2.563791 0.666442 -1.215199 2.056492
 12   4.640941 0.000000 0.000000 1.128600 0.718191 1.135346
 13   10.828045 0.000000 0.000000 0.000000 0.000000 -1.239817
 14   9.393338 -0.000001 0.000000 -1.421549 0.028540 -0.445743
 15   1.442243 0.107453 -1.746178 1.710740 0.781590 0.365230
 16   1.063450 0.000000 -0.000001 0.000000 0.000000 0.199056
 17   1.376307 -0.000001 0.000001 0.000000 0.000000 0.600473
 18   4.172845 -0.251366 -1.312745 -0.005361 -0.000073 0.008928
 19   1.215373 0.000001 -0.000001 0.000000 0.000000 0.506106
 20   1.215371 -0.000002 0.000000 0.000000 0.000000 0.506106
 21   4.220532 -0.244855 -0.431465 -0.004372 0.025906 -0.069865
 22   1.350417 0.000000 0.000001 0.000000 0.000000 0.532308
 23   1.350409 0.000000 -0.000001 0.000000 0.000000 0.532308
 24   -1.885222 0.863610 -2.731758 -1.068895 1.168982 1.681693
 25   4.640942 0.000000 0.000000 -1.144337 -0.592836 0.898759
 26   10.828048 0.000000 0.000001 0.000000 0.000000 -1.206469
 27   9.393336 -0.000001 0.000000 1.190794 0.062594 -0.610021
 28   1.442244 0.107454 1.746178 -2.047067 -0.542719 0.863657
 29   1.063451 -0.000001 0.000000 0.000000 0.000000 -0.054011
 30   1.376307 -0.000001 0.000000 0.000000 0.000000 0.600477
 31   4.172846 -0.251365 1.312745 -0.014726 -0.094940 0.218785
 32   1.215374 0.000001 -0.000001 0.000000 0.000000 0.715581
 33   1.215373 0.000000 0.000001 0.000000 0.000000 0.715581
 34   4.220533 -0.244853 0.431466 -0.001333 -0.026242 0.148339
 35   1.350415 -0.000001 -0.000001 0.000000 0.000000 0.863937
 36   1.350410 -0.000001 0.000001 0.000000 0.000000 0.863925
 37   2.110541 -0.000001 0.000000 0.002828 -0.011034 -0.166761
 38   0.891923 2.373050 -0.014527 -3.141592 -0.000001 1.413797
 39   7.228119 5.709445 3.726568 3.140796 -1.570796 0.000000
 40   2.450426 5.076127 0.001325 3.140791 -1.570796 0.000000
 41   6.312405 -4.528058 0.001311 3.201975 -1.570796 0.000000
 42   2.233309 1.152535 -7.309138 -1.301011 -1.649695 -0.437725
 43   4.262825 -0.232720 -1.392178 0.016840 0.076668 0.253759
time 20
  0   1.727579 0.771444 38.778511 0.000000 0.000000 -1.701715
  1   0.594095 -0.074221 0.000000 -1.570795 -1.570451 0.000000
  2   -0.000007 0.000008 4.427393 -0.174965 -3.058581 -0.013585
  3   18.465939 0.000000 0.000000 0.000000 0.000000 -0.302510
  4   14.875443 0.000000 0.000000 -0.087442 -0.072914 0.257251
  5   0.000006 -0.000004 -4.427393 0.124801 2.980735 -0.018400
  6   18.465939 0.000000 0.000000 0.000000 0.000000 -0.211996
  7   14.875442 0.000000 0.000000 -0.015963 0.157304 0.173299
  8   2.255207 -0.007574 0.000003 0.121890 -0.010488 -0.057736
  9   9.514223 -0.009357 0.000000 -0.008667 0.002554 -0.052281
 10   11.752194 -0.001492 0.000000 0.000024 0.043599 0.440031
 11   -2.111792 0.863597 2.563791 0.666442 -1.215199 2.056492
 12   4.640941 0.000000 0.000000 1.129779 0.716387 1.137512
 13   10.828045 0.000000 0.000000 0.000000 0.000000 -1.241891
 14   9.393338 -0.000001 0.000000 -1.421549 0.028540 -0.445841
 15   1.442243 0.107453 -1.746178 1.710740 0.781590 0.365230
 16   1.063450 0.000000 -0.000001 0.000000 0.000000 0.199056
 17   1.376307 -0.000001 0.000001 0.000000 0.000000 0.600473
 18   4.172845 -0.251366 -1.312745 -0.005361 -0.000073 0.008928
 19   1.215373 0.000001 -0.000001 0.000000 0.000000 0.506106
 20   1.215371 -0.000002 0.000000 0.000000 0.000000 0.506106
 21   4.220532 -0.244855 -0.431465 -0.004372 0.025906 -0.069865
 22   1.350417 0.000000 0.000001 0.000000 0.000000 0.532308
 23   1.350409 0.000000 -0.000001 0.000000 0.000000 0.532308
 24   -1.885222 0.863610 -2.731758 -1.068895 1.168982 1.681693
 25   4.640942 0.000000 0.000000 -1.144928 -0.592139 0.900928
 26   10.828048 0.000000 0.000001 0.000000 0.000000 -1.206790
 27   9.393336 -0.000001 0.000000 1.191457 0.062399 -0.609196
 28   1.442244 0.107454 1.746178 -2.047067 -0.542719 0.863657
 29   1.063451 -0.000001 0.000000 0.000000 0.000000 -0.054011
 30   1.376307 -0.000001 0.000000 0.000000 0.000000 0.600477
 31   4.172846 -0.251365 1.312745 -0.014726 -0.094940 0.218785
 32   1.215374 0.000001 -0.000001 0.000000 0.000000 0.715581
 33   1.215373 0.000000 0.000001 0.000000 0.000000 0.715581
 34   4.220533 -0.244853 0.431466 -0.001333 -0.026242 0.148339
 35   1.350415 -0.000001 -0.000001 0.000000 0.000000 0.863937
 36   1.350410 -0.000001 0.000001 0.000000 0.000000 0.863925
 37   2.110541 -0.000001 0.000000 0.002931 -0.010974 -0.168927
 38   0.891923 2.373050 -0.014527 -3.141592 -0.000001 1.413797
 39   7.228119 5.709445 3.726568 3.140796 -1.570796 0.000000
 40   2.450426 5.076127 0.001325 3.140791 -1.570796 0.000000
 41   6.312405 -4.528058 0.001311 3.197638 -1.570796 0.000000
 42   2.233309 1.152535 -7.309138 -1.302353 -1.649666 -0.437534
 43   4.262825 -0.232720 -1.392178 0.016840 0.076668 0.253759
time 21
  0   1.727579 0.771444 38.778511 0.000000 0.000000 -1.701715
  1   0.543313 -0.078127 0.000000 -1.570795 -1.570451 0.000000
  2   -0.000007 0.000008 4.427393 -0.174773 -3.058202 -0.016158
  3   18.465939 0.000000 0.000000 0.000000 0.000000 -0.304630
  4   14.875443 0.000000 0.000000 -0.087442 -0.072829 0.256856
  5   0.000006 -0.000004 -4.427393 0.124418 2.980735 -0.021114
  6   18.465939 0.000000 0.000000 0.000000 0.000000 -0.214490
  7   14.875442 0.000000 0.000000 -0.015963 0.156910 0.173112
  8   2.255207 -0.007574 0.000003 0.121932 -0.011077 -0.052839
  9   9.514223 -0.009357 0.000000 -0.008667 0.002567 -0.052281
 10   11.752194 -0.001492 0.000000 0.000024 0.043599 0.440031
 11   -2.111792 0.863597 2.563791 0.666442 -1.215199 2.056492
 12   4.640941 0.000000 0.000000 1.131083 0.714366 1.139912
 13   10.828045 0.000000 0.000000 0.000000 0.000000 -1.244209
 14   9.393338 -0.000001 0.000000 -1.421456 0.028540 -0.445987
 15   1.442243 0.107453 -1.746178 1.710740 0.781590 0.365230
 16   1.063450 0.000000 -0.000001 0.000000 0.000000 0.199056
 17   1.376307 -0.000001 0.000001 0.000000 0.000000 0.600473
 18   4.172845 -0.251366 -1.312745 -0.005361 -0.000073 0.008928
 19   1.215373 0.000001 -0.000001 0.000000 0.000000 0.506106
 20   1.215371 -0.000002 0.000000 0.000000 0.000000 0.506106
 21   4.220532 -0.244855 -0.431465 -0.004372 0.025906 -0.069865
 22   1.350417 0.000000 0.000001 0.000000 0.000000 0.532308
 23   1.350409 0.000000 -0.000001 0.000000 0.000000 0.532308
 24   -1.885222 0.863610 -2.731758 -1.068895 1.168982 1.681693
 25   4.640942 0.000000 0.000000 -1.145604 -0.591232 0.903448
 26   10.828048 0.000000 0.000001 0.000000 0.000000 -1.207176
 27   9.393336 -0.000001 0.000000 1.192174 0.062171 -0.608324
 28   1.442244 0.107454 1.746178 -2.047067 -0.542719 0.863657
 29   1.063451 -0.000001 0.000000 0.000000 0.000000 -0.054011
 30   1.376307 -0.000001 0.000000 0.000000 0.000000 0.600477
 31   4.172846 -0.251365 1.312745 -0.014726 -0.094940 0.218785
 32   1.215374 0.000001 -0.000001 0.000000 0.000000 0.715581
 33   1.215373 0.000000 0.000001 0.000000 0.000000 0.715581
 34   4.220533 -0.244853 0.431466 -0.001333 -0.026242 0.148339
 35   1.350415 -0.000001 -0.000001 0.000000 0.000000 0.863937
 36   1.350410 -0.000001 0.000001 0.000000 0.000000 0.863925
 37   2.110541 -0.000001 0.000000 0.003034 -0.010914 -0.171375
 38   0.891923 2.373050 -0.014527 -3.141592 -0.000001 1.413797
 39   7.228119 5.709445 3.726568 3.140796 -1.570796 0.000000
 40   2.450426 5.076127 0.001325 3.140791 -1.570796 0.000000
 41   6.312405 -4.528058 0.001311 3.192688 -1.570796 0.000000
 42   2.233309 1.152535 -7.309138 -1.303887 -1.649637 -0.437246
 43   4.262825 -0.232720 -1.392178 0.016840 0.076668 0.253759
time 22
  0   1.727579 0.771444 38.778511 0.000000 0.000000 -1.701715
  1   0.484717 -0.085940 0.000000 -1.570795 -1.570451 0.000000
  2   -0.000007 0.000008 4.427393 -0.174582 -3.057823 -0.019018
  3   18.465939 0.000000 0.000000 0.000000 0.000000 -0.307042
  4   14.875443 0.000000 0.000000 -0.087407 -0.072722 0.256422
  5   0.000006 -0.000004 -4.427393 0.123938 2.980830 -0.024109
  6   18.465939 0.000000 0.000000 0.000000 0.000000 -0.217181
  7   14.875442 0.000000 0.000000 -0.015998 0.156485 0.172924
  8   2.255207 -0.007574 0.000003 0.121932 -0.011745 -0.047446
  9   9.514223 -0.009357 0.000000 -0.008667 0.002580 -0.052281
 10   11.752194 -0.001492 0.000000 0.000024 0.043599 0.440031
 11   -2.111792 0.863597 2.563791 0.666442 -1.215199 2.056492
 12   4.640941 0.000000 0.000000 1.132511 0.712057 1.142605
 13   10.828045 0.000000 0.000000 0.000000 0.000000 -1.246772
 14   9.393338 -0.000001 0.000000 -1.421456 0.028540 -0.446085
 15   1.442243 0.107453 -1.746178 1.710740 0.781590 0.365230
 16   1.063450 0.000000 -0.000001 0.000000 0.000000 0.199056
 17   1.376307 -0.000001 0.000001 0.000000 0.000000 0.600473
 18   4.172845 -0.251366 -1.312745 -0.005361 -0.000073 0.008928
 19   1.215373 0.000001 -0.000001 0.000000 0.000000 0.506106
 20   1.215371 -0.000002 0.000000 0.000000 0.000000 0.506106
 21   4.220532 -0.244855 -0.431465 -0.004372 0.025906 -0.069865
 22   1.350417 0.000000 0.000001 0.000000 0.000000 0.532308
 23   1.350409 0.000000 -0.000001 0.000000 0.000000 0.532308
 24   -1.885222 0.863610 -2.731758 -1.068895 1.168982 1.681693
 25   4.640942 0.000000 0.000000 -1.146364 -0.590326 0.906248
 26   10.828048 0.000000 0.000001 0.000000 0.000000 -1.207626
 27   9.393336 -0.000001 0.000000 1.192947 0.061911 -0.607354
 28   1.442244 0.107454 1.746178 -2.047067 -0.542719 0.863657
 29   1.063451 -0.000001 0.000000 0.000000 0.000000 -0.054011
 30   1.376307 -0.000001 0.000000 0.000000 0.000000 0.600477
 31   4.172846 -0.251365 1.312745 -0.014726 -0.094940 0.218785
 32   1.215374 0.000001 -0.000001 0.000000 0.000000 0.715581
 33   1.215373 0.000000 0.000001 0.000000 0.000000 0.715581
 34   4.220533 -0.244853 0.431466 -0.001333 -0.026242 0.148339
 35   1.350415 -0.000001 -0.000001 0.000000 0.000000 0.863937
 36   1.350410 -0.000001 0.000001 0.000000 0.000000 0.863925
 37   2.110541 -0.000001 0.000000 0.003188 -0.010854 -0.174106
 38   0.891923 2.373050 -0.014527 -3.141592 -0.000001 1.413797
 39   7.228119 5.709445 3.726568 3.140796 -1.570796 0.000000
 40   2.450426 5.076127 0.001325 3.140791 -1.570796 0.000000
 41   6.312405 -4.528058 0.001311 3.187279 -1.570796 0.000000
 42   2.233309 1.152535 -7.309138 -1.305517 -1.649608 -0.436959
 43   4.262825 -0.232720 -1.392178 0.016840 0.076668 0.253759
time 23
  0   1.727579 0.771444 38.778511 0.000000 0.000000 -1.701715
  1   0.422215 -0.093753 0.000000 -1.570795 -1.570451 0.000000
  2   -0.000007 0.000008 4.427393 -0.174390 -3.057445 -0.021973
  3   18.465939 0.000000 0.000000 0.000000 0.000000 -0.309528
  4   14.875443 0.000000 0.000000 -0.087407 -0.072637 0.255948
  5   0.000006 -0.000004 -4.427393 0.123459 2.980926 -0.027290
  6   18.465939 0.000000 0.000000 0.000000 0.000000 -0.220135
  7   14.875442 0.000000 0.000000 -0.016033 0.156000 0.172737
  8   2.255207 -0.007574 0.000003 0.121975 -0.012452 -0.041688
  9   9.514223 -0.009357 0.000000 -0.008667 0.002607 -0.052281
 10   11.752194 -0.001492 0.000000 0.000024 0.043599 0.440031
 11   -2.111792 0.863597 2.563791 0.666442 -1.215199 2.056492
 12   4.640941 0.000000 0.000000 1.134063 0.709676 1.145473
 13   10.828045 0.000000 0.000000 0.000000 0.000000 -1.249578
 14   9.393338 -0.000001 0.000000 -1.421364 0.028502 -0.446231
 15   1.442243 0.107453 -1.746178 1.710740 0.781590 0.365230
 16   1.063450 0.000000 -0.000001 0.000000 0.000000 0.199056
 17   1.376307 -0.000001 0.000001 0.000000 0.000000 0.600473
 18   4.172845 -0.251366 -1.312745 -0.005361 -0.000073 0.008928
 19   1.215373 0.000001 -0.000001 0.000000 0.000000 0.506106
 20   1.215371 -0.000002 0.000000 0.000000 0.000000 0.506106
 21   4.220532 -0.244855 -0.431465 -0.004372 0.025906 -0.069865
 22   1.350417 0.000000 0.000001 0.000000 0.000000 0.532308
 23   1.350409 0.000000 -0.000001 0.000000 0.000000 0.532308
 24   -1.885222 0.863610 -2.731758 -1.068895 1.168982 1.681693
 25   4.640942 0.000000 0.000000 -1.147209 -0.589349 0.909188
 26   10.828048 0.000000 0.000001 0.000000 0.000000 -1.208076
 27   9.393336 -0.000001 0.000000 1.193775 0.061650 -0.606287
 28   1.442244 0.107454 1.746178 -2.047067 -0.542719 0.863657
 29   1.063451 -0.000001 0.000000 0.000000 0.000000 -0.054011
 30   1.376307 -0.000001 0.000000 0.000000 0.000000 0.600477
 31   4.172846 -0.251365 1.312745 -0.014726 -0.094940 0.218785
 32   1.215374 0.000001 -0.000001 0.000000 0.000000 0.715581
 33   1.215373 0.000000 0.000001 0.000000 0.000000 0.715581
 34   4.220533 -0.244853 0.431466 -0.001333 -0.026242 0.148339
 35   1.350415 -0.000001 -0.000001 0.000000 0.000000 0.863937
 36   1.350410 -0.000001 0.000001 0.000000 0.000000 0.863925
 37   2.110541 -0.000001 0.000000 0.003342 -0.010764 -0.177026
 38   0.891923 2.373050 -0.014527 -3.141592 -0.000001 1.413797
 39   7.228119 5.709445 3.726568 3.140796 -1.570796 0.000000
 40   2.450426 5.076127 0.001325 3.140791 -1.570796 0.000000
 41   6.312405 -4.528058 0.001311 3.181461 -1.570796 0.000000
 42   2.233309 1.152535 -7.309138 -1.307242 -1.649579 -0.436576
 43   4.262825 -0.232720 -1.392178 0.016840 0.076668 0.253759
time 24
  0   1.727579 0.771444 38.778511 0.000000 0.000000 -1.701715
  1   0.355807 -0.101566 0.000000 -1.570795 -1.570451 0.000000
  2   -0.000007 0.000008 4.427393 -0.174103 -3.056971 -0.025118
  3   18.465939 0.000000 0.000000 0.000000 0.000000 -0.312160
  4   14.875443 0.000000 0.000000 -0.087407 -0.072509 0.255434
  5   0.000006 -0.000004 -4.427393 0.122980 2.981022 -0.030660
  6   18.465939 0.000000 0.000000 0.000000 0.000000 -0.223154
  7   14.875442 0.000000 0.000000 -0.016068 0.155545 0.172511
  8   2.255207 -0.007574 0.000003 0.122017 -0.013179 -0.035667
  9   9.514223 -0.009357 0.000000 -0.008667 0.002621 -0.052281
 10   11.752194 -0.001492 0.000000 0.000024 0.043599 0.440031
 11   -2.111792 0.863597 2.563791 0.666442 -1.215199 2.056492
 12   4.640941 0.000000 0.000000 1.135677 0.707150 1.148458
 13   10.828045 0.000000 0.000000 0.000000 0.000000 -1.252446
 14   9.393338 -0.000001 0.000000 -1.421364 0.028502 -0.446427
 15   1.442243 0.107453 -1.746178 1.710740 0.781590 0.365230
 16   1.063450 0.000000 -0.000001 0.000000 0.000000 0.199056
 17   1.376307 -0.000001 0.000001 0.000000 0.000000 0.600473
 18   4.172845 -0.251366 -1.312745 -0.005361 -0.000073 0.008928
 19   1.215373 0.000001 -0.000001 0.000000 0.000000 0.506106
 20   1.215371 -0.000002 0.000000 0.000000 0.000000 0.506106
 21   4.220532 -0.244855 -0.431465 -0.004372 0.025906 -0.069865
 22   1.350417 0.000000 0.000001 0.000000 0.000000 0.532308
 23   1.350409 0.000000 -0.000001 0.000000 0.000000 0.532308
 24   -1.885222 0.863610 -2.731758 -1.068895 1.168982 1.681693
 25   4.640942 0.000000 0.000000 -1.148054 -0.588373 0.912337
 26   10.828048 0.000000 0.000001 0.000000 0.000000 -1.208526
 27   9.393336 -0.000001 0.000000 1.194658 0.061390 -0.605171
 28   1.442244 0.107454 1.746178 -2.047067 -0.542719 0.863657
 29   1.063451 -0.000001 0.000000 0.000000 0.000000 -0.054011
 30   1.376307 -0.000001 0.000000 0.000000 0.000000 0.600477
 31   4.172846 -0.251365 1.312745 -0.014726 -0.094940 0.218785
 32   1.215374 0.000001 -0.000001 0.000000 0.000000 0.715581
 33   1.215373 0.000000 0.000001 0.000000 0.000000 0.715581
 34   4.220533 -0.244853 0.431466 -0.001333 -0.026242 0.148339
 35   1.350415 -0.000001 -0.000001 0.000000 0.000000 0.863937
 36   1.350410 -0.000001 0.000001 0.000000 0.000000 0.863925
 37   2.110541 -0.000001 0.000000 0.003496 -0.010673 -0.180039
 38   0.891923 2.373050 -0.014527 -3.141592 -0.000001 1.413797
 39   7.228119 5.709445 3.726568 3.140796 -1.570796 0.000000
 40   2.450426 5.076127 0.001325 3.140791 -1.570796 0.000000
 41   6.312405 -4.528058 0.001311 3.175389 -1.570796 0.000000
 42   2.233309 1.152535 -7.309138 -1.309160 -1.649550 -0.436289
 43   4.262825 -0.232720 -1.392178 0.016840 0.076668 0.253759
time 25
  0   1.727579 0.771444 38.778511 0.000000 0.000000 -1.701715
  1   0.289399 -0.109378 0.000000 -1.570795 -1.570451 0.000000
  2   -0.000007 0.000008 4.427393 -0.173815 -3.056498 -0.028263
  3   18.465939 0.000000 0.000000 0.000000 0.000000 -0.314865
  4   14.875443 0.000000 0.000000 -0.087371 -0.072403 0.254920
  5   0.000006 -0.000004 -4.427393 0.122501 2.981022 -0.034029
  6   18.465939 0.000000 0.000000 0.000000 0.000000 -0.226305
  7   14.875442 0.000000 0.000000 -0.016103 0.155030 0.172286
  8   2.255207 -0.007574 0.000003 0.122017 -0.013945 -0.029545
  9   9.514223 -0.009357 0.000000 -0.008667 0.002648 -0.052281
 10   11.752194 -0.001492 0.000000 0.000024 0.043599 0.440031
 11   -2.111792 0.863597 2.563791 0.666442 -1.215199 2.056492
 12   4.640941 0.000000 0.000000 1.137291 0.704553 1.151502
 13   10.828045 0.000000 0.000000 0.000000 0.000000 -1.255375
 14   9.393338 -0.000001 0.000000 -1.421272 0.028502 -0.446573
 15   1.442243 0.107453 -1.746178 1.710740 0.781590 0.365230
 16   1.063450 0.000000 -0.000001 0.000000 0.000000 0.199056
 17   1.376307 -0.000001 0.000001 0.000000 0.000000 0.600473
 18   4.172845 -0.251366 -1.312745 -0.005361 -0.000073 0.008928
 19   1.215373 0.000001 -0.000001 0.000000 0.000000 0.506106
 20   1.215371 -0.000002 0.000000 0.000000 0.000000 0.506106
 21   4.220532 -0.244855 -0.431465 -0.004372 0.025906 -0.069865
 22   1.350417 0.000000 0.000001 0.000000 0.000000 0.532308
 23   1.350409 0.000000 -0.000001 0.000000 0.000000 0.532308
 24   -1.885222 0.863610 -2.731758 -1.068895 1.168982 1.681693
 25   4.640942 0.000000 0.000000 -1.148899 -0.587327 0.915487
 26   10.828048 0.000000 0.000001 0.000000 0.000000 -1.209040
 27   9.393336 -0.000001 0.000000 1.195541 0.061097 -0.604056
 28   1.442244 0.107454 1.746178 -2.047067 -0.542719 0.863657
 29   1.063451 -0.000001 0.000000 0.000000 0.000000 -0.054011
 30   1.376307 -0.000001 0.000000 0.000000 0.000000 0.600477
 31   4.172846 -0.251365 1.312745 -0.014726 -0.094940 0.218785
 32   1.215374 0.000001 -0.000001 0.000000 0.000000 0.715581
 33   1.215373 0.000000 0.000001 0.000000 0.000000 0.715581
 34   4.220533 -0.244853 0.431466 -0.001333 -0.026242 0.148339
 35   1.350415 -0.000001 -0.000001 0.000000 0.000000 0.863937
 36   1.350410 -0.000001 0.000001 0.000000 0.000000 0.863925
 37   2.110541 -0.000001 0.000000 0.003599 -0.010583 -0.183147
 38   0.891923 2.373050 -0.014527 -3.141592 -0.000001 1.413797
 39   7.228119 5.709445 3.726568 3.140796 -1.570796 0.000000
 40   2.450426 5.076127 0.001325 3.140791 -1.570796 0.000000
 41   6.312405 -4.528058 0.001311 3.169214 -1.570796 0.000000
 42   2.233309 1.152535 -7.309138 -1.310982 -1.649491 -0.435906
 43   4.262825 -0.232720 -1.392178 0.016840 0.076668 0.253759
time 26
  0   1.727579 0.771444 38.778511 0.000000 0.000000 -1.701715
  1   0.222990 -0.117191 0.000000 -1.570795 -1.570451 0.000000
  2   -0.000007 0.000008 4.427393 -0.173623 -3.056119 -0.031409
  3   18.465939 0.000000 0.000000 0.000000 0.000000 -0.317570
  4   14.875443 0.000000 0.000000 -0.087371 -0.072297 0.254407
  5   0.000006 -0.000004 -4.427393 0.122022 2.981117 -0.037491
  6   18.465939 0.000000 0.000000 0.000000 0.000000 -0.229390
  7   14.875442 0.000000 0.000000 -0.016103 0.154545 0.172061
  8   2.255207 -0.007574 0.000003 0.122059 -0.014691 -0.023391
  9   9.514223 -0.009357 0.000000 -0.008667 0.002661 -0.052281
 10   11.752194 -0.001492 0.000000 0.000024 0.043599 0.440031
 11   -2.111792 0.863597 2.563791 0.666442 -1.215199 2.056492
 12   4.640941 0.000000 0.000000 1.138905 0.702027 1.154546
 13   10.828045 0.000000 0.000000 0.000000 0.000000 -1.258303
 14   9.393338 -0.000001 0.000000 -1.421272 0.028464 -0.446720
 15   1.442243 0.107453 -1.746178 1.710740 0.781590 0.365230
 16   1.063450 0.000000 -0.000001 0.000000 0.000000 0.199056
 17   1.376307 -0.000001 0.000001 0.000000 0.000000 0.600473
 18   4.172845 -0.251366 -1.312745 -0.005361 -0.000073 0.008928
 19   1.215373 0.000001 -0.000001 0.000000 0.000000 0.506106
 20   1.215371 -0.000002 0.000000 0.000000 0.000000 0.506106
 21   4.220532 -0.244855 -0.431465 -0.004372 0.025906 -0.069865
 22   1.350417 0.000000 0.000001 0.000000 0.000000 0.532308
 23   1.350409 0.000000 -0.000001 0.000000 0.000000 0.532308
 24   -1.885222 0.863610 -2.731758 -1.068895 1.168982 1.681693
 25   4.640942 0.000000 0.000000 -1.149744 -0.586350 0.918637
 26   10.828048 0.000000 0.000001 0.000000 0.000000 -1.209491
 27   9.393336 -0.000001 0.000000 1.196424 0.060804 -0.602941
 28   1.442244 0.107454 1.746178 -2.047067 -0.542719 0.863657
 29   1.063451 -0.000001 0.000000 0.000000 0.000000 -0.054011
 30   1.376307 -0.000001 0.000000 0.000000 0.000000 0.600477
 31   4.172846 -0.251365 1.312745 -0.014726 -0.094940 0.218785
 32   1.215374 0.000001 -0.000001 0.000000 0.000000 0.715581
 33   1.215373 0.000000 0.000001 0.000000 0.000000 0.715581
 34   4.220533 -0.244853 0.431466 -0.001333 -0.026242 0.148339
 35   1.350415 -0.000001 -0.000001 0.000000 0.000000 0.863937
 36   1.350410 -0.000001 0.000001 0.000000 0.000000 0.863925
 37   2.110541 -0.000001 0.000000 0.003753 -0.010493 -0.186207
 38   0.891923 2.373050 -0.014527 -3.141592 -0.000001 1.413797
 39   7.228119 5.709445 3.726568 3.140796 -1.570796 0.000000
 40   2.450426 5.076127 0.001325 3.140791 -1.570796 0.000000
 41   6.312405 -4.528058 0.001311 3.163040 -1.570796 0.000000
 42   2.233309 1.152535 -7.309138 -1.312899 -1.649462 -0.435619
 43   4.262825 -0.232720 -1.392178 0.016840 0.076668 0.253759
time 27
  0   1.727579 0.771444 38.778511 0.000000 0.000000 -1.701715
  1   0.160488 -0.125004 0.000000 -1.570795 -1.570451 0.000000
  2   -0.000007 0.000008 4.427393 -0.173336 -3.055646 -0.034554
  3   18.465939 0.000000 0.000000 0.000000 0.000000 -0.320202
  4   14.875443 0.000000 0.000000 -0.087371 -0.072190 0.253933
  5   0.000006 -0.000004 -4.427393 0.121542 2.981213 -0.040767
  6   18.465939 0.000000 0.000000 0.000000 0.000000 -0.232474
  7   14.875442 0.000000 0.000000 -0.016138 0.154060 0.171874
  8   2.255207 -0.007574 0.000003 0.122059 -0.015437 -0.017369
  9   9.514223 -0.009357 0.000000 -0.008667 0.002688 -0.052281
 10   11.752194 -0.001492 0.000000 0.000024 0.043599 0.440031
 11   -2.111792 0.863597 2.563791 0.666442 -1.215199 2.056492
 12   4.640941 0.000000 0.000000 1.140457 0.699502 1.157532
 13   10.828045 0.000000 0.000000 0.000000 0.000000 -1.261171
 14   9.393338 -0.000001 0.000000 -1.421180 0.028464 -0.446866
 15   1.442243 0.107453 -1.746178 1.710740 0.781590 0.365230
 16   1.063450 0.000000 -0.000001 0.000000 0.000000 0.199056
 17   1.376307 -0.000001 0.000001 0.000000 0.000000 0.600473
 18   4.172845 -0.251366 -1.312745 -0.005361 -0.000073 0.008928
 19   1.215373 0.000001 -0.000001 0.000000 0.000000 0.506106
 20   1.215371 -0.000002 0.000000 0.000000 0.000000 0.506106
 21   4.220532 -0.244855 -0.431465 -0.004372 0.025906 -0.069865
 22   1.350417 0.000000 0.000001 0.000000 0.000000 0.532308
 23   1.350409 0.000000 -0.000001 0.000000 0.000000 0.532308
 24   -1.885222 0.863610 -2.731758 -1.068895 1.168982 1.681693
 25   4.640942 0.000000 0.000000 -1.150674 -0.585374 0.921786
 26   10.828048 0.000000 0.000001 0.000000 0.000000 -1.210005
 27   9.393336 -0.000001 0.000000 1.197308 0.060544 -0.601825
 28   1.442244 0.107454 1.746178 -2.047067 -0.542719 0.863657
 29   1.063451 -0.000001 0.000000 0.000000 0.000000 -0.054011
 30   1.376307 -0.000001 0.000000 0.000000 0.000000 0.600477
 31   4.172846 -0.251365 1.312745 -0.014726 -0.094940 0.218785
 32   1.215374 0.000001 -0.000001 0.000000 0.000000 0.715581
 33   1.215373 0.000000 0.000001 0.000000 0.000000 0.715581
 34   4.220533 -0.244853 0.431466 -0.001333 -0.026242 0.148339
 35   1.350415 -0.000001 -0.000001 0.000000 0.000000 0.863937
 36   1.350410 -0.000001 0.000001 0.000000 0.000000 0.863925
 37   2.110541 -0.000001 0.000000 0.003908 -0.010403 -0.189221
 38   0.891923 2.373050 -0.014527 -3.141592 -0.000001 1.413797
 39   7.228119 5.709445 3.726568 3.140796 -1.570796 0.000000
 40   2.450426 5.076127 0.001325 3.140791 -1.570796 0.000000
 41   6.312405 -4.528058 0.001311 3.156967 -1.570796 0.000000
 42   2.233309 1.152535 -7.309138 -1.314721 -1.649433 -0.435236
 43   4.262825 -0.232720 -1.392178 0.016840 0.076668 0.253759
time 28
  0   1.727579 0.771444 38.778511 0.000000 0.000000 -1.701715
  1   0.097986 -0.132817 0.000000 -1.570795 -1.570451 0.000000
  2   -0.000007 0.000008 4.427393 -0.173049 -3.055267 -0.037604
  3   18.465939 0.000000 0.000000 0.000000 0.000000 -0.322760
  4   14.875443 0.000000 0.000000 -0.087371 -0.072084 0.253459
  5   0.000006 -0.000004 -4.427393 0.121063 2.981309 -0.043949
  6   18.465939 0.000000 0.000000 0.000000 0.000000 -0.235362
  7   14.875442 0.000000 0.000000 -0.016173 0.153605 0.171649
  8   2.255207 -0.007574 0.000003 0.122101 -0.016144 -0.011612
  9   9.514223 -0.009357 0.000000 -0.008667 0.002701 -0.052281
 10   11.752194 -0.001492 0.000000 0.000024 0.043599 0.440031
 11   -2.111792 0.863597 2.563791 0.666442 -1.215199 2.056492
 12   4.640941 0.000000 0.000000 1.141947 0.697121 1.160400
 13   10.828045 0.000000 0.000000 0.000000 0.000000 -1.263916
 14   9.393338 -0.000001 0.000000 -1.421180 0.028464 -0.447013
 15   1.442243 0.107453 -1.746178 1.710740 0.781590 0.365230
 16   1.063450 0.000000 -0.000001 0.000000 0.000000 0.199056
 17   1.376307 -0.000001 0.000001 0.000000 0.000000 0.600473
 18   4.172845 -0.251366 -1.312745 -0.005361 -0.000073 0.008928
 19   1.215373 0.000001 -0.000001 0.000000 0.000000 0.506106
 20   1.215371 -0.000002 0.000000 0.000000 0.000000 0.506106
 21   4.220532 -0.244855 -0.431465 -0.004372 0.025906 -0.069865
 22   1.350417 0.000000 0.000001 0.000000 0.000000 0.532308
 23   1.350409 0.000000 -0.000001 0.000000 0.000000 0.532308
 24   -1.885222 0.863610 -2.731758 -1.068895 1.168982 1.681693
 25   4.640942 0.000000 0.000000 -1.151434 -0.584398 0.924726
 26   10.828048 0.000000 0.000001 0.000000 0.000000 -1.210455
 27   9.393336 -0.000001 0.000000 1.198136 0.060251 -0.600807
 28   1.442244 0.107454 1.746178 -2.047067 -0.542719 0.863657
 29   1.063451 -0.000001 0.000000 0.000000 0.000000 -0.054011
 30   1.376307 -0.000001 0.000000 0.000000 0.000000 0.600477
 31   4.172846 -0.251365 1.312745 -0.014726 -0.094940 0.218785
 32   1.215374 0.000001 -0.000001 0.000000 0.000000 0.715581
 33   1.215373 0.000000 0.000001 0.000000 0.000000 0.715581
 34   4.220533 -0.244853 0.431466 -0.001333 -0.026242 0.148339
 35   1.350415 -0.000001 -0.000001 0.000000 0.000000 0.863937
 36   1.350410 -0.000001 0.000001 0.000000 0.000000 0.863925
 37   2.110541 -0.000001 0.000000 0.004062 -0.010312 -0.192140
 38   0.891923 2.373050 -0.014527 -3.141592 -0.000001 1.413797
 39   7.228119 5.709445 3.726568 3.140796 -1.570796 0.000000
 40   2.450426 5.076127 0.001325 3.140791 -1.570796 0.000000
 41   6.312405 -4.528058 0.001311 3.151150 -1.570796 0.000000
 42   2.233309 1.152535 -7.309138 -1.316542 -1.649404 -0.434949
 43   4.262825 -0.232720 -1.392178 0.016840 0.076668 0.253759
time 29
  0   1.727579 0.771444 38.778511 0.000000 0.000000 -1.701715
  1   0.039391 -0.140629 0.000000 -1.570795 -1.570451 0.000000
  2   -0.000007 0.000008 4.427393 -0.172857 -3.054888 -0.040368
  3   18.465939 0.000000 0.000000 0.000000 0.000000 -0.325173
  4   14.875443 0.000000 0.000000 -0.087336 -0.071977 0.252985
  5   0.000006 -0.000004 -4.427393 0.120680 2.981404 -0.046944
  6   18.465939 0.000000 0.000000 0.000000 0.000000 -0.238119
  7   14.875442 0.000000 0.000000 -0.016173 0.153181 0.171461
  8   2.255207 -0.007574 0.000003 0.122101 -0.016792 -0.006219
  9   9.514223 -0.009357 0.000000 -0.008667 0.002715 -0.052281
 10   11.752194 -0.001492 0.000000 0.000024 0.043599 0.440031
 11   -2.111792 0.863597 2.563791 0.666442 -1.215199 2.056492
 12   4.640941 0.000000 0.000000 1.143375 0.694884 1.163034
 13   10.828045 0.000000 0.000000 0.000000 0.000000 -1.266479
 14   9.393338 -0.000001 0.000000 -1.421088 0.028426 -0.447159
 15   1.442243 0.107453 -1.746178 1.710740 0.781590 0.365230
 16   1.063450 0.000000 -0.000001 0.000000 0.000000 0.199056
 17   1.376307 -0.000001 0.000001 0.000000 0.000000 0.600473
 18   4.172845 -0.251366 -1.312745 -0.005361 -0.000073 0.008928
 19   1.215373 0.000001 -0.000001 0.000000 0.000000 0.506106
 20   1.215371 -0.000002 0.000000 0.000000 0.000000 0.506106
 21   4.220532 -0.244855 -0.431465 -0.004372 0.025906 -0.069865
 22   1.350417 0.000000 0.000001 0.000000 0.000000 0.532308
 23   1.350409 0.000000 -0.000001 0.000000 0.000000 0.532308
 24   -1.885222 0.863610 -2.731758 -1.068895 1.168982 1.681693
 25   4.640942 0.000000 0.000000 -1.152279 -0.583561 0.927526
 26   10.828048 0.000000 0.000001 0.000000 0.000000 -1.210841
 27   9.393336 -0.000001 0.000000 1.198964 0.060024 -0.599788
 28   1.442244 0.107454 1.746178 -2.047067 -0.542719 0.863657
 29   1.063451 -0.000001 0.000000 0.000000 0.000000 -0.054011
 30   1.376307 -0.000001 0.000000 0.000000 0.000000 0.600477
 31   4.172846 -0.251365 1.312745 -0.014726 -0.094940 0.218785
 32   1.215374 0.000001 -0.000001 0.000000 0.000000 0.715581
 33   1.215373 0.000000 0.000001 0.000000 0.000000 0.715581
 34   4.220533 -0.244853 0.431466 -0.001333 -0.026242 0.148339
 35   1.350415 -0.000001 -0.000001 0.000000 0.000000 0.863937
 36   1.350410 -0.000001 0.000001 0.000000 0.000000 0.863925
 37   2.110541 -0.000001 0.000000 0.004216 -0.010252 -0.194871
 38   0.891923 2.373050 -0.014527 -3.141592 -0.000001 1.413797
 39   7.228119 5.709445 3.726568 3.140796 -1.570796 0.000000
 40   2.450426 5.076127 0.001325 3.140791 -1.570796 0.000000
 41   6.312405 -4.528058 0.001311 3.145690 -1.570796 0.000000
 42   2.233309 1.152535 -7.309138 -1.318172 -1.649346 -0.434661
 43   4.262825 -0.232720 -1.392178 0.016840 0.076668 0.253759
time 30
  0   1.727579 0.771444 38.778511 0.000000 0.000000 -1.701715
  1   -0.011392 -0.148442 0.000000 -1.570795 -1.570451 0.000000
  2   -0.000007 0.000008 4.427393 -0.172665 -3.054509 -0.042942
  3   18.465939 0.000000 0.000000 0.000000 0.000000 -0.327293
  4   14.875443 0.000000 0.000000 -0.087336 -0.071892 0.252590
  5   0.000006 -0.000004 -4.427393 0.120296 2.981404 -0.049658
  6   18.465939 0.000000 0.000000 0.000000 0.000000 -0.240613
  7   14.875442 0.000000 0.000000 -0.016208 0.152787 0.171311
  8   2.255207 -0.007574 0.000003 0.122101 -0.017401 -0.001322
  9   9.514223 -0.009357 0.000000 -0.008667 0.002742 -0.052281
 10   11.752194 -0.001492 0.000000 0.000024 0.043599 0.440031
 11   -2.111792 0.863597 2.563791 0.666442 -1.215199 2.056492
 12   4.640941 0.000000 0.000000 1.144617 0.692791 1.165493
 13   10.828045 0.000000 0.000000 0.000000 0.000000 -1.268858
 14   9.393338 -0.000001 0.000000 -1.421088 0.028426 -0.447257
 15   1.442243 0.107453 -1.746178 1.710740 0.781590 0.365230
 16   1.063450 0.000000 -0.000001 0.000000 0.000000 0.199056
 17   1.376307 -0.000001 0.000001 0.000000 0.000000 0.600473
 18   4.172845 -0.251366 -1.312745 -0.005361 -0.000073 0.008928
 19   1.215373 0.000001 -0.000001 0.000000 0.000000 0.506106
 20   1.215371 -0.000002 0.000000 0.000000 0.000000 0.506106
 21   4.220532 -0.244855 -0.431465 -0.004372 0.025906 -0.069865
 22   1.350417 0.000000 0.000001 0.000000 0.000000 0.532308
 23   1.350409 0.000000 -0.000001 0.000000 0.000000 0.532308
 24   -1.885222 0.863610 -2.731758 -1.068895 1.168982 1.681693
 25   4.640942 0.000000 0.000000 -1.152955 -0.582794 0.930116
 26   10.828048 0.000000 0.000001 0.000000 0.000000 -1.211227
 27   9.393336 -0.000001 0.000000 1.199681 0.059763 -0.598915
 28   1.442244 0.107454 1.746178 -2.047067 -0.542719 0.863657
 29   1.063451 -0.000001 0.000000 0.000000 0.000000 -0.054011
 30   1.376307 -0.000001 0.000000 0.000000 0.000000 0.600477
 31   4.172846 -0.251365 1.312745 -0.014726 -0.094940 0.218785
 32   1.215374 0.000001 -0.000001 0.000000 0.000000 0.715581
 33   1.215373 0.000000 0.000001 0.000000 0.000000 0.715581
 34   4.220533 -0.244853 0.431466 -0.001333 -0.026242 0.148339
 35   1.350415 -0.000001 -0.000001 0.000000 0.000000 0.863937
 36   1.350410 -0.000001 0.000001 0.000000 0.000000 0.863925
 37   2.110541 -0.000001 0.000000 0.004319 -0.010162 -0.197320
 38   0.891923 2.373050 -0.014527 -3.141592 -0.000001 1.413797
 39   7.228119 5.709445 3.726568 3.140796 -1.570796 0.000000
 40   2.450426 5.076127 0.001325 3.140791 -1.570796 0.000000
 41   6.312405 -4.528058 0.001311 3.140791 -1.570796 0.000000
 42   2.233309 1.152535 -7.309138 -1.319706 -1.649317 -0.434374
 43   4.262825 -0.232720 -1.392178 0.016840 0.076668 0.253759
end
