version 1
nodes
  0 "Bip01" -1
  1 "Bip01 Pelvis" 0
  2 "Bip01 L Thigh" 1
  3 "Bip01 L Calf" 2
  4 "Bip01 L Foot" 3
  5 "Bip01 R Thigh" 1
  6 "Bip01 R Calf" 5
  7 "Bip01 R Foot" 6
  8 "Bip01 Spine" 1
  9 "Bip01 Spine1" 8
 10 "Bip01 Neck" 9
 11 "Bip01 L Clavicle" 10
 12 "Bip01 L UpperArm" 11
 13 "Bip01 L Forearm" 12
 14 "Bip01 L Hand" 13
 15 "Bip01 L Finger0" 14
 16 "Bip01 L Finger01" 15
 17 "Bip01 L Finger02" 16
 18 "Bip01 L Finger1" 14
 19 "Bip01 L Finger11" 18
 20 "Bip01 L Finger12" 19
 21 "Bip01 L Finger2" 14
 22 "Bip01 L Finger21" 21
 23 "Bip01 L Finger22" 22
 24 "Bip01 R Clavicle" 10
 25 "Bip01 R UpperArm" 24
 26 "Bip01 R Forearm" 25
 27 "Bip01 R Hand" 26
 28 "Bip01 R Finger0" 27
 29 "Bip01 R Finger01" 28
 30 "Bip01 R Finger02" 29
 31 "Bip01 R Finger1" 27
 32 "Bip01 R Finger11" 31
 33 "Bip01 R Finger12" 32
 34 "Bip01 R Finger2" 27
 35 "Bip01 R Finger21" 34
 36 "Bip01 R Finger22" 35
 37 "Bip01 Head" 10
 38 "Bone05" 37
 39 "Bone08" 9
 40 "Bone16" 8
 41 "Bone01" 8
 42 "Bone03" 1
 43 "Bip01 R Finger4" 27
end
skeleton
time 0
  0   1.727579 6.791367 38.384594 0.000000 0.000000 -1.701715
  1   0.164395 -0.125004 0.000000 -1.570795 -1.570451 0.000000
  2   -0.000007 0.000008 4.427393 -0.170749 -3.152983 0.000903
  3   18.465939 0.000000 0.000000 0.000000 0.000000 -0.416557
  4   14.875443 0.000000 0.000000 0.018467 0.017437 0.402071
  5   0.000006 -0.000004 -4.427393 0.106016 3.095625 -0.362237
  6   18.465939 0.000000 0.000000 0.000000 0.000000 -0.394334
  7   14.875442 0.000000 0.000000 -0.002065 0.005218 0.029344
  8   2.255207 -0.007574 0.000003 0.122101 -0.017401 -0.001322
  9   9.514223 -0.009357 0.000000 -0.008779 0.002352 -0.095902
 10   11.752194 -0.001492 0.000000 0.000024 0.043599 0.440031
 11   -2.111792 0.863597 2.563791 0.697216 -1.395374 2.006326
 12   4.640941 0.000000 0.000000 0.738480 1.089874 0.724820
 13   10.828045 0.000000 0.000000 0.000000 0.000000 -0.470452
 14   9.393338 -0.000001 0.000000 -1.569611 0.034195 0.000037
 15   1.442243 0.107453 -1.746178 1.686435 0.539209 0.325885
 16   1.063450 0.000000 -0.000001 0.000000 0.000000 0.199056
 17   1.376307 -0.000001 0.000001 0.000000 0.000000 0.199049
 18   4.172845 -0.251366 -1.312745 0.008050 0.095731 0.148659
 19   1.215373 0.000001 -0.000001 0.000000 0.000000 0.645758
 20   1.215371 -0.000002 0.000000 0.000000 0.000000 0.645758
 21   4.220532 -0.244855 -0.431465 0.001333 0.026242 0.148339
 22   1.350417 0.000000 0.000001 0.000000 0.000000 0.863926
 23   1.350409 0.000000 -0.000001 0.000000 0.000000 0.863926
 24   -1.885222 0.863610 -2.731758 -0.942447 1.461427 1.764337
 25   4.640942 0.000000 0.000000 -0.601477 -1.183875 0.506934
 26   10.828048 0.000000 0.000001 0.000000 0.000000 -0.234230
 27   9.393336 -0.000001 0.000000 1.569611 -0.034192 0.000001
 28   1.442244 0.107454 1.746178 -1.686405 -0.539236 0.325898
 29   1.063451 -0.000001 0.000000 0.000000 0.000000 0.199056
 30   1.376307 -0.000001 0.000000 0.000000 0.000000 0.199059
 31   4.172846 -0.251365 1.312745 -0.008050 -0.095731 0.148659
 32   1.215374 0.000001 -0.000001 0.000000 0.000000 0.645746
 33   1.215373 0.000000 0.000001 0.000000 0.000000 0.645746
 34   4.220533 -0.244853 0.431466 -0.001333 -0.026242 0.148339
 35   1.350415 -0.000001 -0.000001 0.000000 0.000000 0.863937
 36   1.350410 -0.000001 0.000001 0.000000 0.000000 0.863925
 37   2.110541 -0.000001 0.000000 0.002417 -0.010493 -0.153718
 38   0.891923 2.373050 -0.014527 -3.141592 -0.000001 1.413797
 39   7.228119 5.709445 3.726568 3.140796 -1.570796 0.000000
 40   2.450426 5.076127 0.001325 3.132102 -1.570796 0.000000
 41   6.312405 -4.528058 0.001311 3.140791 -1.570796 0.000000
 42   2.233309 1.152535 -7.309138 -1.954765 -1.570796 0.000000
 43   4.262825 -0.232720 -1.392178 0.016840 0.076668 0.253759
time 1
  0   1.012714 5.404206 38.463379 0.005465 -0.001114 -1.779950
  1   -0.214523 -0.140629 0.000000 -0.000030 -1.542829 -1.570772
  2   -0.000007 0.000008 4.427393 -0.170174 -3.195308 0.041793
  3   18.465939 0.000000 0.000000 0.000000 0.000000 -0.354562
  4   14.875443 0.000000 0.000000 -0.031306 0.020332 0.381134
  5   0.000006 -0.000004 -4.427393 0.096432 3.078023 -0.366168
  6   18.465939 0.000000 0.000000 0.000000 0.000000 -0.408183
  7   14.875442 0.000000 0.000000 -0.050743 -0.006938 0.040299
  8   2.255207 -0.007574 0.058599 0.079571 -0.044739 0.021840
  9   9.514223 -0.009357 0.000000 -0.007391 0.004408 -0.063906
 10   11.752194 -0.001492 0.000000 0.000024 0.043599 0.440031
 11   -2.111792 0.863597 2.563791 0.721130 -1.391773 1.982584
 12   4.640941 0.000000 0.000000 0.584270 1.137282 0.590593
 13   10.828045 0.000000 0.000000 0.000000 0.000000 -0.634575
 14   9.393338 -0.000001 0.000000 -1.569611 0.034195 0.000037
 15   1.442243 0.107453 -1.746178 1.686435 0.539209 0.325885
 16   1.063450 0.000000 -0.000001 0.000000 0.000000 0.199056
 17   1.376307 -0.000001 0.000001 0.000000 0.000000 0.199049
 18   4.172845 -0.251366 -1.312745 0.008050 0.095731 0.148659
 19   1.215373 0.000001 -0.000001 0.000000 0.000000 0.645758
 20   1.215371 -0.000002 0.000000 0.000000 0.000000 0.645758
 21   4.220532 -0.244855 -0.431465 0.001333 0.026242 0.148339
 22   1.350417 0.000000 0.000001 0.000000 0.000000 0.863926
 23   1.350409 0.000000 -0.000001 0.000000 0.000000 0.863926
 24   -1.885222 0.863610 -2.731758 -0.612998 1.491900 2.090641
 25   4.640942 0.000000 0.000000 -0.583987 -1.126689 0.534792
 26   10.828048 0.000000 0.000001 0.000000 0.000000 -0.432137
 27   9.393336 -0.000001 0.000000 1.569611 -0.034192 0.000001
 28   1.442244 0.107454 1.746178 -1.686405 -0.539236 0.325898
 29   1.063451 -0.000001 0.000000 0.000000 0.000000 0.199056
 30   1.376307 -0.000001 0.000000 0.000000 0.000000 0.199059
 31   4.172846 -0.251365 1.312745 -0.008050 -0.095731 0.148659
 32   1.215374 0.000001 -0.000001 0.000000 0.000000 0.645746
 33   1.215373 0.000000 0.000001 0.000000 0.000000 0.645746
 34   4.220533 -0.244853 0.431466 -0.001333 -0.026242 0.148339
 35   1.350415 -0.000001 -0.000001 0.000000 0.000000 0.863937
 36   1.350410 -0.000001 0.000001 0.000000 0.000000 0.863925
 37   2.110541 -0.000001 0.000000 0.043498 -0.021648 -0.207585
 38   0.891923 2.373050 -0.014527 -3.141592 -0.000001 1.413797
 39   7.228119 5.709445 3.726568 3.140796 -1.570796 0.000000
 40   2.450426 5.076127 0.001325 3.136051 -1.570796 0.000000
 41   6.312405 -4.528058 0.001311 3.140791 -1.570796 0.000000
 42   2.233309 1.152535 -7.309138 -1.140328 -1.587485 -0.834952
 43   4.262825 -0.232720 -1.392178 0.016840 0.076668 0.253759
time 2
  0   0.188470 3.812528 38.542160 0.011888 -0.001857 -1.869691
  1   -0.644224 -0.125004 0.000000 -0.000030 -1.510795 -1.570772
  2   -0.000007 0.000008 4.427393 -0.159060 -3.253256 0.153407
  3   18.465939 0.000000 0.000000 0.000000 0.000000 -0.175157
  4   14.875443 0.000000 0.000000 -0.104507 0.021204 0.313267
  5   0.000006 -0.000004 -4.427393 0.086464 3.060995 -0.368975
  6   18.465939 0.000000 0.000000 0.000000 0.000000 -0.454260
  7   14.875442 0.000000 0.000000 -0.122725 -0.025005 0.085321
  8   2.255207 -0.007574 0.132820 0.029362 -0.074806 0.048409
  9   9.514223 -0.009357 0.000000 -0.005740 0.006707 -0.027255
 10   11.752194 -0.001492 0.000000 0.000024 0.043599 0.440031
 11   -2.111792 0.863597 2.563791 0.744187 -1.388071 1.959703
 12   4.640941 0.000000 0.000000 0.377228 1.174948 0.410179
 13   10.828045 0.000000 0.000000 0.000000 0.000000 -0.798759
 14   9.393338 -0.000001 0.000000 -1.569611 0.034195 0.000037
 15   1.442243 0.107453 -1.746178 1.686435 0.539209 0.325885
 16   1.063450 0.000000 -0.000001 0.000000 0.000000 0.199056
 17   1.376307 -0.000001 0.000001 0.000000 0.000000 0.199049
 18   4.172845 -0.251366 -1.312745 0.008050 0.095731 0.148659
 19   1.215373 0.000001 -0.000001 0.000000 0.000000 0.645758
 20   1.215371 -0.000002 0.000000 0.000000 0.000000 0.645758
 21   4.220532 -0.244855 -0.431465 0.001333 0.026242 0.148339
 22   1.350417 0.000000 0.000001 0.000000 0.000000 0.863926
 23   1.350409 0.000000 -0.000001 0.000000 0.000000 0.863926
 24   -1.885222 0.863610 -2.731758 -0.035650 1.506153 2.664964
 25   4.640942 0.000000 0.000000 -0.544107 -1.076826 0.538991
 26   10.828048 0.000000 0.000001 0.000000 0.000000 -0.630108
 27   9.393336 -0.000001 0.000000 1.569611 -0.034192 0.000001
 28   1.442244 0.107454 1.746178 -1.686405 -0.539236 0.325898
 29   1.063451 -0.000001 0.000000 0.000000 0.000000 0.199056
 30   1.376307 -0.000001 0.000000 0.000000 0.000000 0.199059
 31   4.172846 -0.251365 1.312745 -0.008050 -0.095731 0.148659
 32   1.215374 0.000001 -0.000001 0.000000 0.000000 0.645746
 33   1.215373 0.000000 0.000001 0.000000 0.000000 0.645746
 34   4.220533 -0.244853 0.431466 -0.001333 -0.026242 0.148339
 35   1.350415 -0.000001 -0.000001 0.000000 0.000000 0.863937
 36   1.350410 -0.000001 0.000001 0.000000 0.000000 0.863925
 37   2.110541 -0.000001 0.000000 0.090903 -0.033315 -0.269786
 38   0.891923 2.373050 -0.014527 -3.141592 -0.000001 1.413797
 39   7.228119 5.709445 3.726568 3.140796 -1.570796 0.000000
 40   2.450426 5.076127 0.001325 3.140001 -1.570796 0.000000
 41   6.312405 -4.528058 0.001311 3.140791 -1.570796 0.000000
 42   2.233309 1.152535 -7.309138 -1.150299 -1.605688 -0.839452
 43   4.262825 -0.232720 -1.392178 0.016840 0.076668 0.253759
time 3
  0   -0.663119 2.176389 38.636703 0.018600 -0.002042 -1.962308
  1   -1.089550 -0.085940 0.000000 -0.000030 -1.477725 -1.570772
  2   -0.000007 0.000008 4.427393 -0.136545 -3.315464 0.275981
  3   18.465939 0.000000 0.000000 0.000000 0.000000 -0.001965
  4   14.875443 0.000000 0.000000 -0.189441 0.014734 0.210282
  5   0.000006 -0.000004 -4.427393 0.077935 3.041193 -0.362986
  6   18.465939 0.000000 0.000000 0.000000 0.000000 -0.511101
  7   14.875442 0.000000 0.000000 -0.209694 -0.042072 0.150264
  8   2.247394 -0.007574 0.207041 -0.024138 -0.104383 0.075872
  9   9.514223 -0.009357 0.000000 -0.003977 0.009005 0.010521
 10   11.752194 -0.001492 0.000000 0.000024 0.043599 0.440031
 11   -2.111792 0.863597 2.563791 0.714937 -1.392730 1.988806
 12   4.640941 0.000000 0.000000 0.138029 1.193709 0.187033
 13   10.828045 0.000000 0.000000 0.000000 0.000000 -0.911388
 14   9.393338 -0.000001 0.000000 -1.569611 0.034195 0.000037
 15   1.442243 0.107453 -1.746178 1.686435 0.539209 0.325885
 16   1.063450 0.000000 -0.000001 0.000000 0.000000 0.199056
 17   1.376307 -0.000001 0.000001 0.000000 0.000000 0.199049
 18   4.172845 -0.251366 -1.312745 0.008050 0.095731 0.148659
 19   1.215373 0.000001 -0.000001 0.000000 0.000000 0.645758
 20   1.215371 -0.000002 0.000000 0.000000 0.000000 0.645758
 21   4.220532 -0.244855 -0.431465 0.001333 0.026242 0.148339
 22   1.350417 0.000000 0.000001 0.000000 0.000000 0.863926
 23   1.350409 0.000000 -0.000001 0.000000 0.000000 0.863926
 24   -1.885222 0.863610 -2.731758 0.470604 1.498346 3.168693
 25   4.640942 0.000000 0.000000 -0.498228 -1.030449 0.553200
 26   10.828048 0.000000 0.000001 0.000000 0.000000 -0.783200
 27   9.393336 -0.000001 0.000000 1.569611 -0.034192 0.000001
 28   1.442244 0.107454 1.746178 -1.686405 -0.539236 0.325898
 29   1.063451 -0.000001 0.000000 0.000000 0.000000 0.199056
 30   1.376307 -0.000001 0.000000 0.000000 0.000000 0.199059
 31   4.172846 -0.251365 1.312745 -0.008050 -0.095731 0.148659
 32   1.215374 0.000001 -0.000001 0.000000 0.000000 0.645746
 33   1.215373 0.000000 0.000001 0.000000 0.000000 0.645746
 34   4.220533 -0.244853 0.431466 -0.001333 -0.026242 0.148339
 35   1.350415 -0.000001 -0.000001 0.000000 0.000000 0.863937
 36   1.350410 -0.000001 0.000001 0.000000 0.000000 0.863925
 37   2.110541 -0.000001 0.000000 0.140262 -0.044109 -0.334436
 38   0.891923 2.373050 -0.014527 -3.141592 -0.000001 1.413797
 39   7.228119 5.709445 3.726568 3.140796 -1.570796 0.000000
 40   2.450426 5.076127 0.001325 3.133067 -1.570796 0.000000
 41   6.312405 -4.528058 0.001311 3.140791 -1.570796 0.000000
 42   2.233309 1.152535 -7.309138 -1.150491 -1.628929 -0.835909
 43   4.262825 -0.232720 -1.392178 0.016840 0.076668 0.253759
time 4
  0   -1.460018 0.646956 38.731243 0.024831 -0.001671 -2.049172
  1   -1.503625 -0.019532 0.000000 -0.000030 -1.446711 -1.570772
  2   -0.000007 0.000008 4.427393 -0.154365 -3.348699 0.166274
  3   18.465939 0.000000 0.000000 0.000000 0.000000 -0.479868
  4   14.875443 0.000000 0.000000 -0.128292 -0.057887 0.260530
  5   0.000006 -0.000004 -4.427393 0.069596 3.016512 -0.350071
  6   18.465939 0.000000 0.000000 0.000000 0.000000 -0.576082
  7   14.875442 0.000000 0.000000 -0.301576 -0.052166 0.230364
  8   2.239582 -0.007574 0.277355 -0.075951 -0.130738 0.101647
  9   9.514223 -0.009357 0.000000 -0.002214 0.011101 0.046024
 10   11.752194 -0.001492 0.000000 0.000024 0.043599 0.440031
 11   -2.111792 0.863597 2.563791 0.605084 -1.407159 2.097945
 12   4.640941 0.000000 0.000000 -0.103096 1.189524 -0.062046
 13   10.828045 0.000000 0.000000 0.000000 0.000000 -0.962577
 14   9.393338 -0.000001 0.000000 -1.569611 0.034195 0.000037
 15   1.442243 0.107453 -1.746178 1.686435 0.539209 0.325885
 16   1.063450 0.000000 -0.000001 0.000000 0.000000 0.199056
 17   1.376307 -0.000001 0.000001 0.000000 0.000000 0.199049
 18   4.172845 -0.251366 -1.312745 0.008050 0.095731 0.148659
 19   1.215373 0.000001 -0.000001 0.000000 0.000000 0.645758
 20   1.215371 -0.000002 0.000000 0.000000 0.000000 0.645758
 21   4.220532 -0.244855 -0.431465 0.001333 0.026242 0.148339
 22   1.350417 0.000000 0.000001 0.000000 0.000000 0.863926
 23   1.350409 0.000000 -0.000001 0.000000 0.000000 0.863926
 24   -1.885222 0.863610 -2.731758 0.686010 1.487452 3.382696
 25   4.640942 0.000000 0.000000 -0.458433 -0.979400 0.615284
 26   10.828048 0.000000 0.000001 0.000000 0.000000 -0.830265
 27   9.393336 -0.000001 0.000000 1.569611 -0.034192 0.000001
 28   1.442244 0.107454 1.746178 -1.686405 -0.539236 0.325898
 29   1.063451 -0.000001 0.000000 0.000000 0.000000 0.199056
 30   1.376307 -0.000001 0.000000 0.000000 0.000000 0.199059
 31   4.172846 -0.251365 1.312745 -0.008050 -0.095731 0.148659
 32   1.215374 0.000001 -0.000001 0.000000 0.000000 0.645746
 33   1.215373 0.000000 0.000001 0.000000 0.000000 0.645746
 34   4.220533 -0.244853 0.431466 -0.001333 -0.026242 0.148339
 35   1.350415 -0.000001 -0.000001 0.000000 0.000000 0.863937
 36   1.350410 -0.000001 0.000001 0.000000 0.000000 0.863925
 37   2.110541 -0.000001 0.000000 0.186897 -0.053010 -0.395507
 38   0.891923 2.373050 -0.014527 -3.141592 -0.000001 1.413797
 39   7.228119 5.709445 3.726568 3.140796 -1.570796 0.000000
 40   2.450426 5.076127 0.001325 3.100857 -1.570796 0.000000
 41   6.312405 -4.528058 0.001311 3.140791 -1.570796 0.000000
 42   2.233309 1.152535 -7.309138 -1.151833 -1.652812 -0.823367
 43   4.262825 -0.232720 -1.392178 0.016840 0.076668 0.253759
time 5
  0   -2.124101 -0.633500 38.794270 0.030008 -0.001021 -2.121751
  1   -1.843479 0.050783 0.000000 -0.000030 -1.420771 -1.570772
  2   -0.000007 0.000008 4.427393 -0.204283 -3.311961 -0.126152
  3   18.465939 0.000000 0.000000 0.000000 0.000000 -0.967202
  4   14.875443 0.000000 0.000000 -0.144503 -0.097199 -0.069363
  5   0.000006 -0.000004 -4.427393 0.065092 2.987909 -0.317877
  6   18.465939 0.000000 0.000000 0.000000 0.000000 -0.612969
  7   14.875442 0.000000 0.000000 -0.389387 -0.052045 0.301384
  8   2.231769 -0.007574 0.335951 -0.120337 -0.151693 0.123220
  9   9.514223 -0.009357 0.000000 -0.000675 0.012808 0.075704
 10   11.752194 -0.001492 0.000000 0.000024 0.043599 0.440031
 11   -2.111792 0.863597 2.563791 0.422916 -1.423074 2.279173
 12   4.640941 0.000000 0.000000 -0.302439 1.165568 -0.289055
 13   10.828045 0.000000 0.000000 0.000000 0.000000 -0.982162
 14   9.393338 -0.000001 0.000000 -1.569611 0.034195 0.000037
 15   1.442243 0.107453 -1.746178 1.686435 0.539209 0.325885
 16   1.063450 0.000000 -0.000001 0.000000 0.000000 0.199056
 17   1.376307 -0.000001 0.000001 0.000000 0.000000 0.199049
 18   4.172845 -0.251366 -1.312745 0.008050 0.095731 0.148659
 19   1.215373 0.000001 -0.000001 0.000000 0.000000 0.645758
 20   1.215371 -0.000002 0.000000 0.000000 0.000000 0.645758
 21   4.220532 -0.244855 -0.431465 0.001333 0.026242 0.148339
 22   1.350417 0.000000 0.000001 0.000000 0.000000 0.863926
 23   1.350409 0.000000 -0.000001 0.000000 0.000000 0.863926
 24   -1.885222 0.863610 -2.731758 0.699062 1.486544 3.395601
 25   4.640942 0.000000 0.000000 -0.423538 -0.934418 0.704666
 26   10.828048 0.000000 0.000001 0.000000 0.000000 -0.812777
 27   9.393336 -0.000001 0.000000 1.569611 -0.034192 0.000001
 28   1.442244 0.107454 1.746178 -1.686405 -0.539236 0.325898
 29   1.063451 -0.000001 0.000000 0.000000 0.000000 0.199056
 30   1.376307 -0.000001 0.000000 0.000000 0.000000 0.199059
 31   4.172846 -0.251365 1.312745 -0.008050 -0.095731 0.148659
 32   1.215374 0.000001 -0.000001 0.000000 0.000000 0.645746
 33   1.215373 0.000000 0.000001 0.000000 0.000000 0.645746
 34   4.220533 -0.244853 0.431466 -0.001333 -0.026242 0.148339
 35   1.350415 -0.000001 -0.000001 0.000000 0.000000 0.863937
 36   1.350410 -0.000001 0.000001 0.000000 0.000000 0.863925
 37   2.110541 -0.000001 0.000000 0.226127 -0.059535 -0.446878
 38   0.891923 2.373050 -0.014527 -3.141592 -0.000001 1.413797
 39   7.228119 5.709445 3.726568 3.140796 -1.570796 0.000000
 40   2.450426 5.076127 0.001325 3.057675 -1.570796 0.000000
 41   6.312405 -4.528058 0.001311 3.140791 -1.570796 0.000000
 42   2.233309 1.152535 -7.309138 -1.158640 -1.674277 -0.805272
 43   4.262825 -0.232720 -1.392178 0.016840 0.076668 0.253759
time 6
  0   -2.581146 -1.513814 38.841541 0.033556 -0.000278 -2.171607
  1   -2.073955 0.113285 0.000000 -0.000030 -1.402964 -1.570772
  2   -0.000007 0.000008 4.427393 -0.213385 -3.255149 -0.299243
  3   18.465939 0.000000 0.000000 0.000000 0.000000 -1.122555
  4   14.875443 0.000000 0.000000 -0.049153 -0.044649 0.107415
  5   0.000006 -0.000004 -4.427393 0.063846 2.959689 -0.273891
  6   18.465939 0.000000 0.000000 0.000000 0.000000 -0.628919
  7   14.875442 0.000000 0.000000 -0.457298 -0.042314 0.362125
  8   2.227862 -0.007574 0.375014 -0.151349 -0.165499 0.138010
  9   9.514223 -0.009357 0.000000 0.000375 0.013951 0.096075
 10   11.752194 -0.001492 0.000000 0.000024 0.043599 0.440031
 11   -2.111792 0.863597 2.563791 0.180058 -1.433801 2.521098
 12   4.640941 0.000000 0.000000 -0.426105 1.137282 -0.450678
 13   10.828045 0.000000 0.000000 0.000000 0.000000 -0.977952
 14   9.393338 -0.000001 0.000000 -1.569611 0.034195 0.000037
 15   1.442243 0.107453 -1.746178 1.686435 0.539209 0.325885
 16   1.063450 0.000000 -0.000001 0.000000 0.000000 0.199056
 17   1.376307 -0.000001 0.000001 0.000000 0.000000 0.199049
 18   4.172845 -0.251366 -1.312745 0.008050 0.095731 0.148659
 19   1.215373 0.000001 -0.000001 0.000000 0.000000 0.645758
 20   1.215371 -0.000002 0.000000 0.000000 0.000000 0.645758
 21   4.220532 -0.244855 -0.431465 0.001333 0.026242 0.148339
 22   1.350417 0.000000 0.000001 0.000000 0.000000 0.863926
 23   1.350409 0.000000 -0.000001 0.000000 0.000000 0.863926
 24   -1.885222 0.863610 -2.731758 0.536328 1.495713 3.233988
 25   4.640942 0.000000 0.000000 -0.400640 -0.890832 0.829465
 26   10.828048 0.000000 0.000001 0.000000 0.000000 -0.785450
 27   9.393336 -0.000001 0.000000 1.569611 -0.034192 0.000001
 28   1.442244 0.107454 1.746178 -1.686405 -0.539236 0.325898
 29   1.063451 -0.000001 0.000000 0.000000 0.000000 0.199056
 30   1.376307 -0.000001 0.000000 0.000000 0.000000 0.199059
 31   4.172846 -0.251365 1.312745 -0.008050 -0.095731 0.148659
 32   1.215374 0.000001 -0.000001 0.000000 0.000000 0.645746
 33   1.215373 0.000000 0.000001 0.000000 0.000000 0.645746
 34   4.220533 -0.244853 0.431466 -0.001333 -0.026242 0.148339
 35   1.350415 -0.000001 -0.000001 0.000000 0.000000 0.863937
 36   1.350410 -0.000001 0.000001 0.000000 0.000000 0.863925
 37   2.110541 -0.000001 0.000000 0.253172 -0.063504 -0.482240
 38   0.891923 2.373050 -0.014527 -3.141592 -0.000001 1.413797
 39   7.228119 5.709445 3.726568 3.140796 -1.570796 0.000000
 40   2.450426 5.076127 0.001325 3.035996 -1.570796 0.000000
 41   6.312405 -4.528058 0.001311 3.140791 -1.570796 0.000000
 42   2.233309 1.152535 -7.309138 -1.167748 -1.692946 -0.778274
 43   4.262825 -0.232720 -1.392178 0.016840 0.076668 0.253759
time 7
  0   -2.753026 -1.842820 38.857296 0.034802 0.000000 -2.190111
  1   -2.159895 0.136723 0.000000 -0.000030 -1.396353 -1.570772
  2   -0.000007 0.000008 4.427393 -0.206103 -3.206575 -0.399514
  3   18.465939 0.000000 0.000000 0.000000 0.000000 -1.152456
  4   14.875443 0.000000 0.000000 0.021987 -0.020640 0.358736
  5   0.000006 -0.000004 -4.427393 0.067871 2.942087 -0.217458
  6   18.465939 0.000000 0.000000 0.000000 0.000000 -0.616842
  7   14.875442 0.000000 0.000000 -0.484216 -0.028612 0.405533
  8   2.223956 -0.007574 0.390640 -0.162994 -0.170488 0.143503
  9   9.514223 -0.009357 0.000000 0.000750 0.014381 0.103631
 10   11.752194 -0.001492 0.000000 0.000024 0.043599 0.440031
 11   -2.111792 0.863597 2.563791 -0.074520 -1.435614 2.774606
 12   4.640941 0.000000 0.000000 -0.467452 1.123355 -0.531285
 13   10.828045 0.000000 0.000000 0.000000 0.000000 -0.957940
 14   9.393338 -0.000001 0.000000 -1.569611 0.034195 0.000037
 15   1.442243 0.107453 -1.746178 1.686435 0.539209 0.325885
 16   1.063450 0.000000 -0.000001 0.000000 0.000000 0.199056
 17   1.376307 -0.000001 0.000001 0.000000 0.000000 0.199049
 18   4.172845 -0.251366 -1.312745 0.008050 0.095731 0.148659
 19   1.215373 0.000001 -0.000001 0.000000 0.000000 0.645758
 20   1.215371 -0.000002 0.000000 0.000000 0.000000 0.645758
 21   4.220532 -0.244855 -0.431465 0.001333 0.026242 0.148339
 22   1.350417 0.000000 0.000001 0.000000 0.000000 0.863926
 23   1.350409 0.000000 -0.000001 0.000000 0.000000 0.863926
 24   -1.885222 0.863610 -2.731758 -0.020099 1.506153 2.680433
 25   4.640942 0.000000 0.000000 -0.388558 -0.873955 0.919057
 26   10.828048 0.000000 0.000001 0.000000 0.000000 -0.729383
 27   9.393336 -0.000001 0.000000 1.569611 -0.034192 0.000001
 28   1.442244 0.107454 1.746178 -1.686405 -0.539236 0.325898
 29   1.063451 -0.000001 0.000000 0.000000 0.000000 0.199056
 30   1.376307 -0.000001 0.000000 0.000000 0.000000 0.199059
 31   4.172846 -0.251365 1.312745 -0.008050 -0.095731 0.148659
 32   1.215374 0.000001 -0.000001 0.000000 0.000000 0.645746
 33   1.215373 0.000000 0.000001 0.000000 0.000000 0.645746
 34   4.220533 -0.244853 0.431466 -0.001333 -0.026242 0.148339
 35   1.350415 -0.000001 -0.000001 0.000000 0.000000 0.863937
 36   1.350410 -0.000001 0.000001 0.000000 0.000000 0.863925
 37   2.110541 -0.000001 0.000000 0.263198 -0.064887 -0.495378
 38   0.891923 2.373050 -0.014527 -3.141592 -0.000001 1.413797
 39   7.228119 5.709445 3.726568 3.140796 -1.570796 0.000000
 40   2.450426 5.076127 0.001325 3.040823 -1.570796 0.000000
 41   6.312405 -4.528058 0.001311 3.140791 -1.570796 0.000000
 42   2.233309 1.152535 -7.309138 -1.191141 -1.701683 -0.711255
 43   4.262825 -0.232720 -1.392178 0.016840 0.076668 0.253759
time 8
  0   -2.428798 -1.220376 38.825783 0.032405 -0.000557 -2.154924
  1   -1.999734 0.089846 0.000000 -0.000030 -1.408914 -1.570772
  2   -0.000007 0.000008 4.427393 -0.192402 -3.238011 -0.256352
  3   18.465939 0.000000 0.000000 0.000000 0.000000 -0.887515
  4   14.875443 0.000000 0.000000 -0.156698 -0.013851 0.425575
  5   0.000006 -0.000004 -4.427393 0.065667 2.967629 -0.276886
  6   18.465939 0.000000 0.000000 0.000000 0.000000 -0.615070
  7   14.875442 0.000000 0.000000 -0.450980 -0.044436 0.345092
  8   2.227862 -0.007574 0.363295 -0.140927 -0.160923 0.133047
  9   9.514223 -0.009357 0.000000 0.000000 0.013574 0.089256
 10   11.752194 -0.001492 0.000000 0.000024 0.043599 0.440031
 11   -2.111792 0.863597 2.563791 -0.401793 -1.424408 3.100587
 12   4.640941 0.000000 0.000000 -0.353656 1.156981 -0.451088
 13   10.828045 0.000000 0.000000 0.000000 0.000000 -0.876794
 14   9.393338 -0.000001 0.000000 -1.569611 0.034195 0.000037
 15   1.442243 0.107453 -1.746178 1.686435 0.539209 0.325885
 16   1.063450 0.000000 -0.000001 0.000000 0.000000 0.199056
 17   1.376307 -0.000001 0.000001 0.000000 0.000000 0.199049
 18   4.172845 -0.251366 -1.312745 0.008050 0.095731 0.148659
 19   1.215373 0.000001 -0.000001 0.000000 0.000000 0.645758
 20   1.215371 -0.000002 0.000000 0.000000 0.000000 0.645758
 21   4.220532 -0.244855 -0.431465 0.001333 0.026242 0.148339
 22   1.350417 0.000000 0.000001 0.000000 0.000000 0.863926
 23   1.350409 0.000000 -0.000001 0.000000 0.000000 0.863926
 24   -1.885222 0.863610 -2.731758 -0.978919 1.455647 1.728357
 25   4.640942 0.000000 0.000000 -0.391177 -0.921377 0.898409
 26   10.828048 0.000000 0.000001 0.000000 0.000000 -0.636602
 27   9.393336 -0.000001 0.000000 1.569611 -0.034192 0.000001
 28   1.442244 0.107454 1.746178 -1.686405 -0.539236 0.325898
 29   1.063451 -0.000001 0.000000 0.000000 0.000000 0.199056
 30   1.376307 -0.000001 0.000000 0.000000 0.000000 0.199059
 31   4.172846 -0.251365 1.312745 -0.008050 -0.095731 0.148659
 32   1.215374 0.000001 -0.000001 0.000000 0.000000 0.645746
 33   1.215373 0.000000 0.000001 0.000000 0.000000 0.645746
 34   4.220533 -0.244853 0.431466 -0.001333 -0.026242 0.148339
 35   1.350415 -0.000001 -0.000001 0.000000 0.000000 0.863937
 36   1.350410 -0.000001 0.000001 0.000000 0.000000 0.863925
 37   2.110541 -0.000001 0.000000 0.244122 -0.062241 -0.470422
 38   0.891923 2.373050 -0.014527 -3.141592 -0.000001 1.413797
 39   7.228119 5.709445 3.726568 3.140796 -1.570796 0.000000
 40   2.450426 5.076127 0.001325 3.053638 -1.570796 0.000000
 41   6.312405 -4.528058 0.001311 3.140791 -1.570796 0.000000
 42   2.233309 1.152535 -7.309138 -1.167748 -1.675500 -0.778274
 43   4.262825 -0.232720 -1.392178 0.016840 0.076668 0.253759
time 9
  0   -1.604554 0.362410 38.746998 0.025982 -0.001578 -2.065088
  1   -1.577846 -0.003906 0.000000 -0.000030 -1.441020 -1.570772
  2   -0.000007 0.000008 4.427393 -0.165959 -3.284786 -0.000050
  3   18.465939 0.000000 0.000000 0.000000 0.000000 -0.473654
  4   14.875443 0.000000 0.000000 -0.230966 0.013351 0.416964
  5   0.000006 -0.000004 -4.427393 0.071417 3.010007 -0.335097
  6   18.465939 0.000000 0.000000 0.000000 0.000000 -0.590325
  7   14.875442 0.000000 0.000000 -0.352185 -0.054076 0.260415
  8   2.239582 -0.007574 0.289074 -0.085570 -0.135412 0.106379
  9   9.514223 -0.009357 0.000000 -0.001876 0.011478 0.052541
 10   11.752194 -0.001492 0.000000 0.000024 0.043599 0.440031
 11   -2.111792 0.863597 2.563791 -0.514314 -1.416123 3.212598
 12   4.640941 0.000000 0.000000 -0.073483 1.194142 -0.184565
 13   10.828045 0.000000 0.000000 0.000000 0.000000 -0.759528
 14   9.393338 -0.000001 0.000000 -1.569611 0.034195 0.000037
 15   1.442243 0.107453 -1.746178 1.686435 0.539209 0.325885
 16   1.063450 0.000000 -0.000001 0.000000 0.000000 0.199056
 17   1.376307 -0.000001 0.000001 0.000000 0.000000 0.199049
 18   4.172845 -0.251366 -1.312745 0.008050 0.095731 0.148659
 19   1.215373 0.000001 -0.000001 0.000000 0.000000 0.645758
 20   1.215371 -0.000002 0.000000 0.000000 0.000000 0.645758
 21   4.220532 -0.244855 -0.431465 0.001333 0.026242 0.148339
 22   1.350417 0.000000 0.000001 0.000000 0.000000 0.863926
 23   1.350409 0.000000 -0.000001 0.000000 0.000000 0.863926
 24   -1.885222 0.863610 -2.731758 -1.214598 1.388951 1.498115
 25   4.640942 0.000000 0.000000 -0.419820 -0.985328 0.829255
 26   10.828048 0.000000 0.000001 0.000000 0.000000 -0.529676
 27   9.393336 -0.000001 0.000000 1.569611 -0.034192 0.000001
 28   1.442244 0.107454 1.746178 -1.686405 -0.539236 0.325898
 29   1.063451 -0.000001 0.000000 0.000000 0.000000 0.199056
 30   1.376307 -0.000001 0.000000 0.000000 0.000000 0.199059
 31   4.172846 -0.251365 1.312745 -0.008050 -0.095731 0.148659
 32   1.215374 0.000001 -0.000001 0.000000 0.000000 0.645746
 33   1.215373 0.000000 0.000001 0.000000 0.000000 0.645746
 34   4.220533 -0.244853 0.431466 -0.001333 -0.026242 0.148339
 35   1.350415 -0.000001 -0.000001 0.000000 0.000000 0.863937
 36   1.350410 -0.000001 0.000001 0.000000 0.000000 0.863925
 37   2.110541 -0.000001 0.000000 0.195483 -0.054513 -0.406761
 38   0.891923 2.373050 -0.014527 -3.141592 -0.000001 1.413797
 39   7.228119 5.709445 3.726568 3.140796 -1.570796 0.000000
 40   2.450426 5.076127 0.001325 3.071893 -1.570796 0.000000
 41   6.312405 -4.528058 0.001311 3.140791 -1.570796 0.000000
 42   2.233309 1.152535 -7.309138 -1.153271 -1.649317 -0.827676
 43   4.262825 -0.232720 -1.392178 0.016840 0.076668 0.253759
time 10
  0   -0.495145 2.505396 38.620945 0.017257 -0.002135 -1.943899
  1   -1.003610 -0.097659 0.000000 -0.000030 -1.484279 -1.570772
  2   -0.000007 0.000008 4.427393 -0.135874 -3.310162 0.276077
  3   18.465939 0.000000 0.000000 0.000000 0.000000 -0.001965
  4   14.875443 0.000000 0.000000 -0.195165 0.012350 0.193651
  5   0.000006 -0.000004 -4.427393 0.083014 3.046837 -0.363266
  6   18.465939 0.000000 0.000000 0.000000 0.000000 -0.512152
  7   14.875442 0.000000 0.000000 -0.215765 -0.042921 0.150939
  8   2.247394 -0.007574 0.191415 -0.013421 -0.098648 0.070412
  9   9.514223 -0.009357 0.000000 -0.004315 0.008561 0.003052
 10   11.752194 -0.001492 0.000000 0.000024 0.043599 0.440031
 11   -2.111792 0.863597 2.563791 -0.220578 -1.432668 2.920221
 12   4.640941 0.000000 0.000000 0.243691 1.188802 0.148983
 13   10.828045 0.000000 0.000000 0.000000 0.000000 -0.662702
 14   9.393338 -0.000001 0.000000 -1.569611 0.034195 0.000037
 15   1.442243 0.107453 -1.746178 1.686435 0.539209 0.325885
 16   1.063450 0.000000 -0.000001 0.000000 0.000000 0.199056
 17   1.376307 -0.000001 0.000001 0.000000 0.000000 0.199049
 18   4.172845 -0.251366 -1.312745 0.008050 0.095731 0.148659
 19   1.215373 0.000001 -0.000001 0.000000 0.000000 0.645758
 20   1.215371 -0.000002 0.000000 0.000000 0.000000 0.645758
 21   4.220532 -0.244855 -0.431465 0.001333 0.026242 0.148339
 22   1.350417 0.000000 0.000001 0.000000 0.000000 0.863926
 23   1.350409 0.000000 -0.000001 0.000000 0.000000 0.863926
 24   -1.885222 0.863610 -2.731758 -1.199231 1.395851 1.512900
 25   4.640942 0.000000 0.000000 -0.485639 -1.038609 0.744772
 26   10.828048 0.000000 0.000001 0.000000 0.000000 -0.430915
 27   9.393336 -0.000001 0.000000 1.569611 -0.034192 0.000001
 28   1.442244 0.107454 1.746178 -1.686405 -0.539236 0.325898
 29   1.063451 -0.000001 0.000000 0.000000 0.000000 0.199056
 30   1.376307 -0.000001 0.000000 0.000000 0.000000 0.199059
 31   4.172846 -0.251365 1.312745 -0.008050 -0.095731 0.148659
 32   1.215374 0.000001 -0.000001 0.000000 0.000000 0.645746
 33   1.215373 0.000000 0.000001 0.000000 0.000000 0.645746
 34   4.220533 -0.244853 0.431466 -0.001333 -0.026242 0.148339
 35   1.350415 -0.000001 -0.000001 0.000000 0.000000 0.863937
 36   1.350410 -0.000001 0.000001 0.000000 0.000000 0.863925
 37   2.110541 -0.000001 0.000000 0.130442 -0.042065 -0.321628
 38   0.891923 2.373050 -0.014527 -3.141592 -0.000001 1.413797
 39   7.228119 5.709445 3.726568 3.140796 -1.570796 0.000000
 40   2.450426 5.076127 0.001325 3.092870 -1.570796 0.000000
 41   6.312405 -4.528058 0.001311 3.140791 -1.570796 0.000000
 42   2.233309 1.152535 -7.309138 -1.146752 -1.611513 -0.830644
 43   4.262825 -0.232720 -1.392178 0.016840 0.076668 0.253759
time 11
  0   0.688485 4.781762 38.494892 0.007958 -0.001485 -1.814945
  1   -0.378591 -0.136723 0.000000 -0.000030 -1.530326 -1.570772
  2   -0.000007 0.000008 4.427393 -0.163947 -3.223145 0.116139
  3   18.465939 0.000000 0.000000 0.000000 0.000000 -0.216755
  4   14.875443 0.000000 0.000000 -0.065080 0.020289 0.317849
  5   0.000006 -0.000004 -4.427393 0.094803 3.071805 -0.371408
  6   18.465939 0.000000 0.000000 0.000000 0.000000 -0.437326
  7   14.875442 0.000000 0.000000 -0.085243 -0.015911 0.064911
  8   2.255207 -0.007574 0.089849 0.060205 -0.056640 0.032196
  9   9.514223 -0.009357 0.000000 -0.006753 0.005309 -0.049618
 10   11.752194 -0.001492 0.000000 0.000024 0.043599 0.440031
 11   -2.111792 0.863597 2.563791 0.296771 -1.429873 2.404875
 12   4.640941 0.000000 0.000000 0.531625 1.148683 0.472990
 13   10.828045 0.000000 0.000000 0.000000 0.000000 -0.566546
 14   9.393338 -0.000001 0.000000 -1.569611 0.034195 0.000037
 15   1.442243 0.107453 -1.746178 1.686435 0.539209 0.325885
 16   1.063450 0.000000 -0.000001 0.000000 0.000000 0.199056
 17   1.376307 -0.000001 0.000001 0.000000 0.000000 0.199049
 18   4.172845 -0.251366 -1.312745 0.008050 0.095731 0.148659
 19   1.215373 0.000001 -0.000001 0.000000 0.000000 0.645758
 20   1.215371 -0.000002 0.000000 0.000000 0.000000 0.645758
 21   4.220532 -0.244855 -0.431465 0.001333 0.026242 0.148339
 22   1.350417 0.000000 0.000001 0.000000 0.000000 0.863926
 23   1.350409 0.000000 -0.000001 0.000000 0.000000 0.863926
 24   -1.885222 0.863610 -2.731758 -1.100276 1.429713 1.609219
 25   4.640942 0.000000 0.000000 -0.558048 -1.103606 0.639292
 26   10.828048 0.000000 0.000001 0.000000 0.000000 -0.332605
 27   9.393336 -0.000001 0.000000 1.569611 -0.034192 0.000001
 28   1.442244 0.107454 1.746178 -1.686405 -0.539236 0.325898
 29   1.063451 -0.000001 0.000000 0.000000 0.000000 0.199056
 30   1.376307 -0.000001 0.000000 0.000000 0.000000 0.199059
 31   4.172846 -0.251365 1.312745 -0.008050 -0.095731 0.148659
 32   1.215374 0.000001 -0.000001 0.000000 0.000000 0.645746
 33   1.215373 0.000000 0.000001 0.000000 0.000000 0.645746
 34   4.220533 -0.244853 0.431466 -0.001333 -0.026242 0.148339
 35   1.350415 -0.000001 -0.000001 0.000000 0.000000 0.863937
 36   1.350410 -0.000001 0.000001 0.000000 0.000000 0.863925
 37   2.110541 -0.000001 0.000000 0.061956 -0.026339 -0.231787
 38   0.891923 2.373050 -0.014527 -3.141592 -0.000001 1.413797
 39   7.228119 5.709445 3.726568 3.140796 -1.570796 0.000000
 40   2.450426 5.076127 0.001325 3.113759 -1.570796 0.000000
 41   6.312405 -4.528058 0.001311 3.140791 -1.570796 0.000000
 42   2.233309 1.152535 -7.309138 -1.139753 -1.589698 -0.826910
 43   4.262825 -0.232720 -1.392178 0.016840 0.076668 0.253759
time 12
  0   1.727579 6.791367 38.384594 0.000000 0.000000 -1.701715
  1   0.164395 -0.125004 0.000000 -1.570795 -1.570451 0.000000
  2   -0.000007 0.000008 4.427393 -0.170749 -3.152983 0.000903
  3   18.465939 0.000000 0.000000 0.000000 0.000000 -0.416557
  4   14.875443 0.000000 0.000000 0.018467 0.017437 0.402071
  5   0.000006 -0.000004 -4.427393 0.106016 3.095625 -0.362237
  6   18.465939 0.000000 0.000000 0.000000 0.000000 -0.394334
  7   14.875442 0.000000 0.000000 -0.002065 0.005218 0.029344
  8   2.255207 -0.007574 0.000003 0.122101 -0.017401 -0.001322
  9   9.514223 -0.009357 0.000000 -0.008779 0.002352 -0.095902
 10   11.752194 -0.001492 0.000000 0.000024 0.043599 0.440031
 11   -2.111792 0.863597 2.563791 0.697216 -1.395374 2.006326
 12   4.640941 0.000000 0.000000 0.738480 1.089874 0.724820
 13   10.828045 0.000000 0.000000 0.000000 0.000000 -0.470452
 14   9.393338 -0.000001 0.000000 -1.569611 0.034195 0.000037
 15   1.442243 0.107453 -1.746178 1.686435 0.539209 0.325885
 16   1.063450 0.000000 -0.000001 0.000000 0.000000 0.199056
 17   1.376307 -0.000001 0.000001 0.000000 0.000000 0.199049
 18   4.172845 -0.251366 -1.312745 0.008050 0.095731 0.148659
 19   1.215373 0.000001 -0.000001 0.000000 0.000000 0.645758
 20   1.215371 -0.000002 0.000000 0.000000 0.000000 0.645758
 21   4.220532 -0.244855 -0.431465 0.001333 0.026242 0.148339
 22   1.350417 0.000000 0.000001 0.000000 0.000000 0.863926
 23   1.350409 0.000000 -0.000001 0.000000 0.000000 0.863926
 24   -1.885222 0.863610 -2.731758 -0.942447 1.461427 1.764337
 25   4.640942 0.000000 0.000000 -0.601477 -1.183875 0.506934
 26   10.828048 0.000000 0.000001 0.000000 0.000000 -0.234230
 27   9.393336 -0.000001 0.000000 1.569611 -0.034192 0.000001
 28   1.442244 0.107454 1.746178 -1.686405 -0.539236 0.325898
 29   1.063451 -0.000001 0.000000 0.000000 0.000000 0.199056
 30   1.376307 -0.000001 0.000000 0.000000 0.000000 0.199059
 31   4.172846 -0.251365 1.312745 -0.008050 -0.095731 0.148659
 32   1.215374 0.000001 -0.000001 0.000000 0.000000 0.645746
 33   1.215373 0.000000 0.000001 0.000000 0.000000 0.645746
 34   4.220533 -0.244853 0.431466 -0.001333 -0.026242 0.148339
 35   1.350415 -0.000001 -0.000001 0.000000 0.000000 0.863937
 36   1.350410 -0.000001 0.000001 0.000000 0.000000 0.863925
 37   2.110541 -0.000001 0.000000 0.002417 -0.010493 -0.153718
 38   0.891923 2.373050 -0.014527 -3.141592 -0.000001 1.413797
 39   7.228119 5.709445 3.726568 3.140796 -1.570796 0.000000
 40   2.450426 5.076127 0.001325 3.132014 -1.570796 0.000000
 41   6.312405 -4.528058 0.001311 3.140791 -1.570796 0.000000
 42   2.233309 1.152535 -7.309138 -1.954670 -1.570796 0.000000
 43   4.262825 -0.232720 -1.392178 0.016840 0.076668 0.253759
end
