version 1
nodes
  0 "Bip01" -1
  1 "Bip01 Pelvis" 0
  2 "Bip01 L Thigh" 1
  3 "Bip01 L Calf" 2
  4 "Bip01 L Foot" 3
  5 "Bip01 R Thigh" 1
  6 "Bip01 R Calf" 5
  7 "Bip01 R Foot" 6
  8 "Bip01 Spine" 1
  9 "Bip01 Spine1" 8
 10 "Bip01 Neck" 9
 11 "Bip01 L Clavicle" 10
 12 "Bip01 L UpperArm" 11
 13 "Bip01 L Forearm" 12
 14 "Bip01 L Hand" 13
 15 "Bip01 L Finger0" 14
 16 "Bip01 L Finger01" 15
 17 "Bip01 L Finger02" 16
 18 "Bip01 L Finger1" 14
 19 "Bip01 L Finger11" 18
 20 "Bip01 L Finger12" 19
 21 "Bip01 L Finger2" 14
 22 "Bip01 L Finger21" 21
 23 "Bip01 L Finger22" 22
 24 "Bip01 R Clavicle" 10
 25 "Bip01 R UpperArm" 24
 26 "Bip01 R Forearm" 25
 27 "Bip01 R Hand" 26
 28 "Bip01 R Finger0" 27
 29 "Bip01 R Finger01" 28
 30 "Bip01 R Finger02" 29
 31 "Bip01 R Finger1" 27
 32 "Bip01 R Finger11" 31
 33 "Bip01 R Finger12" 32
 34 "Bip01 R Finger2" 27
 35 "Bip01 R Finger21" 34
 36 "Bip01 R Finger22" 35
 37 "Bip01 Head" 10
 38 "Bone05" 37
 39 "Bone08" 9
 40 "Bone16" 8
 41 "Bone01" 8
 42 "Bone03" 1
 43 "Bip01 R Finger4" 27
end
skeleton
time 0
  0   1.727579 3.919233 38.037945 0.000000 -0.034809 -1.701715
  1   -3.519311 -0.632832 0.000000 -1.570795 -1.570451 0.000000
  2   -0.000007 0.000008 4.427393 -0.165863 -3.169553 0.149022
  3   18.465939 0.000000 0.000000 0.000000 0.000000 -0.345862
  4   14.875443 0.000000 0.000000 0.015659 0.014926 0.445801
  5   0.000006 -0.000004 -4.427393 0.101703 3.076110 -0.321808
  6   18.465939 0.000000 0.000000 0.000000 0.000000 -0.564136
  7   14.875442 0.000000 0.000000 -0.004872 0.025589 0.202526
  8   2.255207 -0.007574 0.000003 0.115477 -0.058879 0.310099
  9   9.514223 -0.009357 0.000000 -0.008704 0.000000 0.000000
 10   11.752194 -0.001492 0.000000 0.000024 0.043599 0.440031
 11   -2.111792 0.863597 2.563791 0.056961 -1.435790 2.643640
 12   4.640941 0.000000 0.000000 -0.188520 1.143992 -0.268509
 13   10.828045 0.000000 0.000000 0.000000 0.000000 -0.958855
 14   9.393338 -0.000001 0.000000 -1.569611 0.034195 0.000037
 15   1.442243 0.107453 -1.746178 1.686435 0.539209 0.325885
 16   1.063450 0.000000 -0.000001 0.000000 0.000000 0.199056
 17   1.376307 -0.000001 0.000001 0.000000 0.000000 0.199049
 18   4.172845 -0.251366 -1.312745 0.008050 0.095731 0.148659
 19   1.215373 0.000001 -0.000001 0.000000 0.000000 0.645758
 20   1.215371 -0.000002 0.000000 0.000000 0.000000 0.645758
 21   4.220532 -0.244855 -0.431465 0.001333 0.026242 0.148339
 22   1.350417 0.000000 0.000001 0.000000 0.000000 0.863926
 23   1.350409 0.000000 -0.000001 0.000000 0.000000 0.863926
 24   -1.885222 0.863610 -2.731758 -0.510062 1.496802 2.192943
 25   4.640942 0.000000 0.000000 0.213699 -1.011829 -0.451419
 26   10.828048 0.000000 0.000001 0.000000 0.000000 -0.809883
 27   9.393336 -0.000001 0.000000 1.569611 -0.034192 0.000001
 28   1.442244 0.107454 1.746178 -1.686405 -0.539236 0.325898
 29   1.063451 -0.000001 0.000000 0.000000 0.000000 0.199056
 30   1.376307 -0.000001 0.000000 0.000000 0.000000 0.199059
 31   4.172846 -0.251365 1.312745 -0.008050 -0.095731 0.148659
 32   1.215374 0.000001 -0.000001 0.000000 0.000000 0.645746
 33   1.215373 0.000000 0.000001 0.000000 0.000000 0.645746
 34   4.220533 -0.244853 0.431466 -0.001333 -0.026242 0.148339
 35   1.350415 -0.000001 -0.000001 0.000000 0.000000 0.863937
 36   1.350410 -0.000001 0.000001 0.000000 0.000000 0.863925
 37   2.110541 -0.000001 0.000000 0.015682 -0.002254 -0.057332
 38   0.891923 2.373050 -0.014527 -3.141592 -0.000001 1.413797
 39   7.228119 5.709445 3.726568 3.123414 -1.570796 0.000000
 40   2.450426 5.076127 0.001325 2.992463 -1.570796 0.000000
 41   6.312405 -4.528058 0.001311 3.140791 -1.570796 0.000000
 42   2.233309 1.152535 -7.309138 -1.989663 -1.570796 0.000000
 43   4.262825 -0.232720 -1.392178 0.016840 0.076668 0.253759
time 1
  0   1.727579 3.634687 34.634483 0.000000 0.126799 -1.701715
  1   -2.683348 -0.527360 0.000000 -1.570795 -1.570451 0.000000
  2   -0.000007 0.000008 4.427393 -0.173911 -3.139348 -0.171807
  3   18.465939 0.000000 0.000000 0.000000 0.000000 -0.854909
  4   14.875443 0.000000 0.000000 0.021596 0.012073 0.792839
  5   0.000006 -0.000004 -4.427393 0.075443 3.052003 -0.662182
  6   18.465939 0.000000 0.000000 0.000000 0.000000 -1.037375
  7   14.875442 0.000000 0.000000 0.002708 0.038291 0.496514
  8   2.255207 -0.007574 0.000003 0.117755 -0.051789 0.249449
  9   9.514223 -0.009357 0.000000 -0.008704 0.000269 -0.052649
 10   11.752194 -0.001492 0.000000 0.000024 0.043599 0.440031
 11   -2.111792 0.863597 2.563791 0.056961 -1.435790 2.643640
 12   4.640941 0.000000 0.000000 -0.313303 1.036117 -0.207922
 13   10.828045 0.000000 0.000000 0.000000 0.000000 -0.958855
 14   9.393338 -0.000001 0.000000 -1.569611 0.034195 0.000037
 15   1.442243 0.107453 -1.746178 1.686435 0.539209 0.325885
 16   1.063450 0.000000 -0.000001 0.000000 0.000000 0.199056
 17   1.376307 -0.000001 0.000001 0.000000 0.000000 0.199049
 18   4.172845 -0.251366 -1.312745 0.008050 0.095731 0.148659
 19   1.215373 0.000001 -0.000001 0.000000 0.000000 0.645758
 20   1.215371 -0.000002 0.000000 0.000000 0.000000 0.645758
 21   4.220532 -0.244855 -0.431465 0.001333 0.026242 0.148339
 22   1.350417 0.000000 0.000001 0.000000 0.000000 0.863926
 23   1.350409 0.000000 -0.000001 0.000000 0.000000 0.863926
 24   -1.885222 0.863610 -2.731758 -0.002048 1.528365 2.698381
 25   4.640942 0.000000 0.000000 0.240736 -0.919076 -0.351118
 26   10.828048 0.000000 0.000001 0.000000 0.000000 -0.809883
 27   9.393336 -0.000001 0.000000 1.569611 -0.034192 0.000001
 28   1.442244 0.107454 1.746178 -1.686405 -0.539236 0.325898
 29   1.063451 -0.000001 0.000000 0.000000 0.000000 0.199056
 30   1.376307 -0.000001 0.000000 0.000000 0.000000 0.199059
 31   4.172846 -0.251365 1.312745 -0.008050 -0.095731 0.148659
 32   1.215374 0.000001 -0.000001 0.000000 0.000000 0.645746
 33   1.215373 0.000000 0.000001 0.000000 0.000000 0.645746
 34   4.220533 -0.244853 0.431466 -0.001333 -0.026242 0.148339
 35   1.350415 -0.000001 -0.000001 0.000000 0.000000 0.863937
 36   1.350410 -0.000001 0.000001 0.000000 0.000000 0.863925
 37   2.110541 -0.000001 0.000000 0.011774 -0.000570 -0.223735
 38   0.891923 2.373050 -0.014527 -3.141592 -0.000001 1.413797
 39   7.228119 5.709445 3.726568 2.703589 -1.570796 0.000000
 40   2.450426 5.076127 0.001325 2.883368 -1.570796 0.000000
 41   6.312405 -4.528058 0.001311 3.152936 -1.570796 0.000000
 42   2.233309 1.152535 -7.309138 -1.107252 -1.610668 -1.181819
 43   4.262825 -0.232720 -1.392178 0.016840 0.076668 0.253759
time 2
  0   1.727579 3.127840 30.348642 0.000000 0.407224 -1.701715
  1   -1.515344 -0.382824 0.000000 -1.570795 -1.570451 0.000000
  2   -0.000007 0.000008 4.427393 -0.205912 -2.908409 -0.561168
  3   18.465939 0.000000 0.000000 0.000000 0.000000 -1.287558
  4   14.875443 0.000000 0.000000 0.094798 -0.185741 1.068534
  5   0.000006 -0.000004 -4.427393 0.200036 2.918172 -1.050005
  6   18.465939 0.000000 0.000000 0.000000 0.000000 -1.463684
  7   14.875442 0.000000 0.000000 -0.180529 0.054751 0.790276
  8   2.255207 -0.007574 0.000003 0.120160 -0.041891 0.166631
  9   9.514223 -0.009357 0.000000 -0.008779 0.000632 -0.124608
 10   11.752194 -0.001492 0.000000 0.000024 0.043599 0.440031
 11   -2.111792 0.863597 2.563791 0.056961 -1.435790 2.643640
 12   4.640941 0.000000 0.000000 -0.455470 0.864670 -0.108115
 13   10.828045 0.000000 0.000000 0.000000 0.000000 -0.958855
 14   9.393338 -0.000001 0.000000 -1.569611 0.034195 0.000037
 15   1.442243 0.107453 -1.746178 1.686435 0.539209 0.325885
 16   1.063450 0.000000 -0.000001 0.000000 0.000000 0.199056
 17   1.376307 -0.000001 0.000001 0.000000 0.000000 0.199049
 18   4.172845 -0.251366 -1.312745 0.008050 0.095731 0.148659
 19   1.215373 0.000001 -0.000001 0.000000 0.000000 0.645758
 20   1.215371 -0.000002 0.000000 0.000000 0.000000 0.645758
 21   4.220532 -0.244855 -0.431465 0.001333 0.026242 0.148339
 22   1.350417 0.000000 0.000001 0.000000 0.000000 0.863926
 23   1.350409 0.000000 -0.000001 0.000000 0.000000 0.863926
 24   -1.885222 0.863610 -2.731758 0.723038 1.496530 3.420215
 25   4.640942 0.000000 0.000000 0.270900 -0.727572 -0.226529
 26   10.828048 0.000000 0.000001 0.000000 0.000000 -0.809883
 27   9.393336 -0.000001 0.000000 1.569611 -0.034192 0.000001
 28   1.442244 0.107454 1.746178 -1.686405 -0.539236 0.325898
 29   1.063451 -0.000001 0.000000 0.000000 0.000000 0.199056
 30   1.376307 -0.000001 0.000000 0.000000 0.000000 0.199059
 31   4.172846 -0.251365 1.312745 -0.008050 -0.095731 0.148659
 32   1.215374 0.000001 -0.000001 0.000000 0.000000 0.645746
 33   1.215373 0.000000 0.000001 0.000000 0.000000 0.645746
 34   4.220533 -0.244853 0.431466 -0.001333 -0.026242 0.148339
 35   1.350415 -0.000001 -0.000001 0.000000 0.000000 0.863937
 36   1.350410 -0.000001 0.000001 0.000000 0.000000 0.863925
 37   2.110541 -0.000001 0.000000 0.006890 -0.000991 -0.451069
 38   0.891923 2.373050 -0.014527 -3.141592 -0.000001 1.413797
 39   7.228119 5.709445 3.726568 2.303046 -1.570796 0.000000
 40   2.450426 5.076127 0.001325 2.817981 -1.570796 0.000000
 41   6.312405 -4.528058 0.001311 3.166714 -1.570796 0.000000
 42   2.233309 1.152535 -7.309138 -1.281549 -1.766165 -1.335770
 43   4.262825 -0.232720 -1.392178 0.016840 0.076668 0.253759
time 3
  0   1.727579 2.638777 26.992451 0.000000 0.625085 -1.701715
  1   -0.175459 -0.214850 0.000000 -1.570795 -1.570796 0.000000
  2   -0.000007 0.000008 4.427393 -0.193456 -2.955941 -0.332508
  3   18.465939 0.000000 0.000000 0.000000 0.000000 -1.192080
  4   14.875443 0.000000 0.000000 -0.882814 -0.106308 0.455875
  5   0.000006 -0.000004 -4.427393 -0.148059 2.552743 -0.887819
  6   18.465939 0.000000 0.000000 0.000000 0.000000 -1.259029
  7   14.875442 0.000000 0.000000 0.405683 -0.275338 -0.128605
  8   2.255207 -0.007574 0.000003 0.121890 -0.030736 0.074945
  9   9.514223 -0.009357 0.000000 -0.008967 0.000887 -0.213496
 10   11.752194 -0.001492 0.000000 0.000024 0.043599 0.440031
 11   -2.111792 0.863597 2.563791 -0.480777 -1.340654 3.174495
 12   4.640941 0.000000 0.000000 -0.503024 0.283297 -0.057889
 13   10.828045 0.000000 0.000000 0.000000 0.000000 -0.958855
 14   9.393338 -0.000001 0.000000 -1.569611 0.034195 0.000037
 15   1.442243 0.107453 -1.746178 1.686435 0.539209 0.325885
 16   1.063450 0.000000 -0.000001 0.000000 0.000000 0.199056
 17   1.376307 -0.000001 0.000001 0.000000 0.000000 0.199049
 18   4.172845 -0.251366 -1.312745 0.008050 0.095731 0.148659
 19   1.215373 0.000001 -0.000001 0.000000 0.000000 0.645758
 20   1.215371 -0.000002 0.000000 0.000000 0.000000 0.645758
 21   4.220532 -0.244855 -0.431465 0.001333 0.026242 0.148339
 22   1.350417 0.000000 0.000001 0.000000 0.000000 0.863926
 23   1.350409 0.000000 -0.000001 0.000000 0.000000 0.863926
 24   -1.885222 0.863610 -2.731758 -0.463593 1.466844 2.240888
 25   4.640942 0.000000 0.000000 -0.237740 -0.588791 0.129458
 26   10.828048 0.000000 0.000001 0.000000 0.000000 -0.809883
 27   9.393336 -0.000001 0.000000 1.569611 -0.034192 0.000001
 28   1.442244 0.107454 1.746178 -1.686405 -0.539236 0.325898
 29   1.063451 -0.000001 0.000000 0.000000 0.000000 0.199056
 30   1.376307 -0.000001 0.000000 0.000000 0.000000 0.199059
 31   4.172846 -0.251365 1.312745 -0.008050 -0.095731 0.148659
 32   1.215374 0.000001 -0.000001 0.000000 0.000000 0.645746
 33   1.215373 0.000000 0.000001 0.000000 0.000000 0.645746
 34   4.220533 -0.244853 0.431466 -0.001333 -0.026242 0.148339
 35   1.350415 -0.000001 -0.000001 0.000000 0.000000 0.863937
 36   1.350410 -0.000001 0.000001 0.000000 0.000000 0.863925
 37   2.110541 -0.000001 0.000000 0.039333 -0.001021 -0.715413
 38   0.891923 2.373050 -0.014527 -3.141592 -0.000001 1.413797
 39   7.228119 5.709445 3.726568 1.946764 -1.570796 0.000000
 40   2.450426 5.076127 0.001325 2.820702 -1.570796 0.000000
 41   6.312405 -4.528058 0.001311 3.179726 -1.570796 0.000000
 42   2.233309 1.152535 -7.309138 1.249582 -1.049840 2.533004
 43   4.262825 -0.232720 -1.392178 0.016840 0.076668 0.253759
time 4
  0   1.727579 2.158605 24.124720 0.000000 0.830693 -1.701715
  1   1.144893 -0.050783 0.000000 -1.570795 -1.570451 0.000000
  2   -0.000007 0.000008 4.427393 -0.193169 -2.989271 -0.056572
  3   18.465939 0.000000 0.000000 0.000000 0.000000 -0.997907
  4   14.875443 0.000000 0.000000 -0.345729 -0.223328 -0.239307
  5   0.000006 -0.000004 -4.427393 0.037394 2.526244 -0.517029
  6   18.465939 0.000000 0.000000 0.000000 0.000000 -1.062382
  7   14.875442 0.000000 0.000000 -0.061798 -0.048741 -0.291619
  8   2.255207 -0.007574 0.000003 0.122565 -0.019542 -0.016079
  9   9.514223 -0.009357 0.000000 -0.009192 0.001129 -0.301864
 10   11.752194 -0.001492 0.000000 0.000024 0.043599 0.440031
 11   -2.111792 0.863597 2.563791 -0.675235 -1.267124 3.360510
 12   4.640941 0.000000 0.000000 -0.624145 0.294626 -0.313232
 13   10.828045 0.000000 0.000000 0.000000 0.000000 -0.958855
 14   9.393338 -0.000001 0.000000 -1.569611 0.034195 0.000037
 15   1.442243 0.107453 -1.746178 1.686435 0.539209 0.325885
 16   1.063450 0.000000 -0.000001 0.000000 0.000000 0.199056
 17   1.376307 -0.000001 0.000001 0.000000 0.000000 0.199049
 18   4.172845 -0.251366 -1.312745 0.008050 0.095731 0.148659
 19   1.215373 0.000001 -0.000001 0.000000 0.000000 0.645758
 20   1.215371 -0.000002 0.000000 0.000000 0.000000 0.645758
 21   4.220532 -0.244855 -0.431465 0.001333 0.026242 0.148339
 22   1.350417 0.000000 0.000001 0.000000 0.000000 0.863926
 23   1.350409 0.000000 -0.000001 0.000000 0.000000 0.863926
 24   -1.885222 0.863610 -2.731758 -0.905142 1.356027 1.813309
 25   4.640942 0.000000 0.000000 -0.747394 -0.395963 0.413003
 26   10.828048 0.000000 0.000001 0.000000 0.000000 -0.809883
 27   9.393336 -0.000001 0.000000 1.569611 -0.034192 0.000001
 28   1.442244 0.107454 1.746178 -1.686405 -0.539236 0.325898
 29   1.063451 -0.000001 0.000000 0.000000 0.000000 0.199056
 30   1.376307 -0.000001 0.000000 0.000000 0.000000 0.199059
 31   4.172846 -0.251365 1.312745 -0.008050 -0.095731 0.148659
 32   1.215374 0.000001 -0.000001 0.000000 0.000000 0.645746
 33   1.215373 0.000000 0.000001 0.000000 0.000000 0.645746
 34   4.220533 -0.244853 0.431466 -0.001333 -0.026242 0.148339
 35   1.350415 -0.000001 -0.000001 0.000000 0.000000 0.863937
 36   1.350410 -0.000001 0.000001 0.000000 0.000000 0.863925
 37   2.110541 -0.000001 0.000000 0.069823 0.012058 -0.978156
 38   0.891923 2.373050 -0.014527 -3.141592 -0.000001 1.413797
 39   7.228119 5.709445 3.726568 1.607580 -1.570796 0.000000
 40   2.450426 5.076127 0.001325 2.828426 -1.570796 0.000000
 41   6.312405 -4.528058 0.001311 3.189371 -1.570796 0.000000
 42   2.233309 1.152535 -7.309138 -1.564756 -2.119596 -0.571474
 43   4.262825 -0.232720 -1.392178 0.016840 0.076668 0.253759
time 5
  0   1.727579 1.669542 20.957609 0.000000 1.029154 -1.701715
  1   1.832414 0.035157 0.000000 -1.570795 -1.570451 0.000000
  2   -0.000007 0.000008 4.427393 -0.166725 -3.163493 0.112421
  3   18.465939 0.000000 0.000000 0.000000 0.000000 -0.857175
  4   14.875443 0.000000 0.000000 -0.015023 0.015692 -0.650183
  5   0.000006 -0.000004 -4.427393 0.088477 2.662467 -0.391530
  6   18.465939 0.000000 0.000000 0.000000 0.000000 -0.894222
  7   14.875442 0.000000 0.000000 -0.102124 -0.007878 -0.420042
  8   2.255207 -0.007574 0.000003 0.122523 -0.012766 -0.071103
  9   9.514223 -0.009357 0.000000 -0.009342 0.001586 -0.331393
 10   11.752194 -0.001492 0.000000 0.000024 0.043599 0.440031
 11   -2.111792 0.863597 2.563791 -0.795188 -1.195834 3.470319
 12   4.640941 0.000000 0.000000 -0.876382 0.386627 -0.667093
 13   10.828045 0.000000 0.000000 0.000000 0.000000 -0.958855
 14   9.393338 -0.000001 0.000000 -1.569611 0.034195 0.000037
 15   1.442243 0.107453 -1.746178 1.686435 0.539209 0.325885
 16   1.063450 0.000000 -0.000001 0.000000 0.000000 0.199056
 17   1.376307 -0.000001 0.000001 0.000000 0.000000 0.199049
 18   4.172845 -0.251366 -1.312745 0.008050 0.095731 0.148659
 19   1.215373 0.000001 -0.000001 0.000000 0.000000 0.645758
 20   1.215371 -0.000002 0.000000 0.000000 0.000000 0.645758
 21   4.220532 -0.244855 -0.431465 0.001333 0.026242 0.148339
 22   1.350417 0.000000 0.000001 0.000000 0.000000 0.863926
 23   1.350409 0.000000 -0.000001 0.000000 0.000000 0.863926
 24   -1.885222 0.863610 -2.731758 -1.045198 1.245210 1.690325
 25   4.640942 0.000000 0.000000 -1.090008 -0.235493 0.558589
 26   10.828048 0.000000 0.000001 0.000000 0.000000 -0.809883
 27   9.393336 -0.000001 0.000000 1.569611 -0.034192 0.000001
 28   1.442244 0.107454 1.746178 -1.686405 -0.539236 0.325898
 29   1.063451 -0.000001 0.000000 0.000000 0.000000 0.199056
 30   1.376307 -0.000001 0.000000 0.000000 0.000000 0.199059
 31   4.172846 -0.251365 1.312745 -0.008050 -0.095731 0.148659
 32   1.215374 0.000001 -0.000001 0.000000 0.000000 0.645746
 33   1.215373 0.000000 0.000001 0.000000 0.000000 0.645746
 34   4.220533 -0.244853 0.431466 -0.001333 -0.026242 0.148339
 35   1.350415 -0.000001 -0.000001 0.000000 0.000000 0.863937
 36   1.350410 -0.000001 0.000001 0.000000 0.000000 0.863925
 37   2.110541 -0.000001 0.000000 0.005039 -0.012357 -1.104536
 38   0.891923 2.373050 -0.014527 -3.141592 -0.000001 1.413797
 39   7.228119 5.709445 3.726568 1.265261 -1.570796 0.000000
 40   2.450426 5.076127 0.001325 2.840362 -1.570796 0.000000
 41   6.312405 -4.528058 0.001311 3.193147 -1.570796 0.000000
 42   2.233309 1.152535 -7.309138 1.558867 -1.186202 2.674221
 43   4.262825 -0.232720 -1.392178 0.016840 0.076668 0.253759
time 6
  0   1.727579 1.669542 16.262093 0.000000 1.245808 -1.701715
  1   1.519905 0.000000 0.000000 -1.570795 -1.570451 0.000000
  2   -0.000007 0.000008 4.427393 -0.194510 -3.138496 0.009481
  3   18.465939 0.000000 0.000000 0.000000 0.000000 -0.674407
  4   14.875443 0.000000 0.000000 -0.045206 0.044787 -0.606611
  5   0.000006 -0.000004 -4.427393 0.108220 2.835615 -0.311419
  6   18.465939 0.000000 0.000000 0.000000 0.000000 -0.658521
  7   14.875442 0.000000 0.000000 -0.038459 0.015434 -0.525016
  8   2.255207 -0.007574 0.000003 0.122481 -0.012531 -0.072923
  9   9.514223 -0.009357 0.000000 -0.009192 0.002742 -0.244518
 10   11.752194 -0.001492 0.000000 0.000024 0.043599 0.440031
 11   -2.111792 0.863597 2.563791 -0.871789 -1.118527 3.533600
 12   4.640941 0.000000 0.000000 -1.224224 0.342755 -1.065736
 13   10.828045 0.000000 0.000000 0.000000 0.000000 -0.958855
 14   9.393338 -0.000001 0.000000 -1.569611 0.034195 0.000037
 15   1.442243 0.107453 -1.746178 1.686435 0.539209 0.325885
 16   1.063450 0.000000 -0.000001 0.000000 0.000000 0.199056
 17   1.376307 -0.000001 0.000001 0.000000 0.000000 0.199049
 18   4.172845 -0.251366 -1.312745 0.008050 0.095731 0.148659
 19   1.215373 0.000001 -0.000001 0.000000 0.000000 0.645758
 20   1.215371 -0.000002 0.000000 0.000000 0.000000 0.645758
 21   4.220532 -0.244855 -0.431465 0.001333 0.026242 0.148339
 22   1.350417 0.000000 0.000001 0.000000 0.000000 0.863926
 23   1.350409 0.000000 -0.000001 0.000000 0.000000 0.863926
 24   -1.885222 0.863610 -2.731758 -1.120548 1.203147 1.621013
 25   4.640942 0.000000 0.000000 -1.154307 -0.242257 0.610385
 26   10.828048 0.000000 0.000001 0.000000 0.000000 -0.809883
 27   9.393336 -0.000001 0.000000 1.569611 -0.034192 0.000001
 28   1.442244 0.107454 1.746178 -1.686405 -0.539236 0.325898
 29   1.063451 -0.000001 0.000000 0.000000 0.000000 0.199056
 30   1.376307 -0.000001 0.000000 0.000000 0.000000 0.199059
 31   4.172846 -0.251365 1.312745 -0.008050 -0.095731 0.148659
 32   1.215374 0.000001 -0.000001 0.000000 0.000000 0.645746
 33   1.215373 0.000000 0.000001 0.000000 0.000000 0.645746
 34   4.220533 -0.244853 0.431466 -0.001333 -0.026242 0.148339
 35   1.350415 -0.000001 -0.000001 0.000000 0.000000 0.863937
 36   1.350410 -0.000001 0.000001 0.000000 0.000000 0.863925
 37   2.110541 -0.000001 0.000000 -0.236770 -0.080132 -0.947549
 38   0.891923 2.373050 -0.014527 -3.141592 -0.000001 1.413797
 39   7.228119 5.709445 3.726568 0.871651 -1.570796 0.000000
 40   2.450426 5.076127 0.001325 2.855721 -1.570796 0.000000
 41   6.312405 -4.528058 0.001311 3.191616 -1.570796 0.000000
 42   2.233309 1.152535 -7.309138 1.421673 -1.362175 2.892413
 43   4.262825 -0.232720 -1.392178 0.016840 0.076668 0.253759
time 7
  0   1.727579 1.669542 10.747224 0.000000 1.455407 -1.701715
  1   0.578470 -0.109378 0.000000 -1.570795 -1.570451 0.000000
  2   -0.000007 0.000008 4.427393 -0.226799 -3.072026 -0.139782
  3   18.465939 0.000000 0.000000 0.000000 0.000000 -0.487691
  4   14.875443 0.000000 0.000000 -0.129465 0.044106 -0.482767
  5   0.000006 -0.000004 -4.427393 0.111767 3.012781 -0.245722
  6   18.465939 0.000000 0.000000 0.000000 0.000000 -0.413828
  7   14.875442 0.000000 0.000000 0.033383 0.009250 -0.619598
  8   2.255207 -0.007574 0.000003 0.122607 -0.016753 -0.038744
  9   9.514223 -0.009357 0.000000 -0.008704 0.004086 -0.098781
 10   11.752194 -0.001492 0.000000 0.000024 0.043599 0.440031
 11   -2.111792 0.863597 2.563791 -0.895323 -1.021628 3.534749
 12   4.640941 0.000000 0.000000 -1.251726 0.312304 -1.171455
 13   10.828045 0.000000 0.000000 0.000000 0.000000 -0.958855
 14   9.393338 -0.000001 0.000000 -1.569611 0.034195 0.000037
 15   1.442243 0.107453 -1.746178 1.686435 0.539209 0.325885
 16   1.063450 0.000000 -0.000001 0.000000 0.000000 0.199056
 17   1.376307 -0.000001 0.000001 0.000000 0.000000 0.199049
 18   4.172845 -0.251366 -1.312745 0.008050 0.095731 0.148659
 19   1.215373 0.000001 -0.000001 0.000000 0.000000 0.645758
 20   1.215371 -0.000002 0.000000 0.000000 0.000000 0.645758
 21   4.220532 -0.244855 -0.431465 0.001333 0.026242 0.148339
 22   1.350417 0.000000 0.000001 0.000000 0.000000 0.863926
 23   1.350409 0.000000 -0.000001 0.000000 0.000000 0.863926
 24   -1.885222 0.863610 -2.731758 -1.252273 1.191739 1.485552
 25   4.640942 0.000000 0.000000 -1.137155 -0.402867 0.707396
 26   10.828048 0.000000 0.000001 0.000000 0.000000 -0.686368
 27   9.393336 -0.000001 0.000000 1.536051 0.052606 -0.105428
 28   1.442244 0.107454 1.746178 -1.686405 -0.539236 0.325898
 29   1.063451 -0.000001 0.000000 0.000000 0.000000 0.199056
 30   1.376307 -0.000001 0.000000 0.000000 0.000000 0.199059
 31   4.172846 -0.251365 1.312745 -0.008050 -0.095731 0.148659
 32   1.215374 0.000001 -0.000001 0.000000 0.000000 0.645746
 33   1.215373 0.000000 0.000001 0.000000 0.000000 0.645746
 34   4.220533 -0.244853 0.431466 -0.001333 -0.026242 0.148339
 35   1.350415 -0.000001 -0.000001 0.000000 0.000000 0.863937
 36   1.350410 -0.000001 0.000001 0.000000 0.000000 0.863925
 37   2.110541 -0.000001 0.000000 -0.580125 -0.031330 -0.639745
 38   0.891923 2.373050 -0.014527 -3.141592 -0.000001 1.413797
 39   7.228119 5.709445 3.726568 0.550513 -1.570466 0.000000
 40   2.450426 5.076127 0.001325 2.873714 -1.570796 0.000000
 41   6.312405 -4.528058 0.001311 3.187381 -1.570796 0.000000
 42   2.233309 1.152535 -7.309138 0.527854 -1.482810 -2.465124
 43   4.262825 -0.232720 -1.392178 0.016840 0.076668 0.253759
time 8
  0   1.727579 1.669542 6.808032 3.141496 1.554080 1.439974
  1   -0.370778 -0.226569 0.000000 -1.570795 -1.570451 0.000000
  2   -0.000007 0.000008 4.427393 -0.257075 -3.009723 -0.239671
  3   18.465939 0.000000 0.000000 0.000000 0.000000 -0.364285
  4   14.875443 0.000000 0.000000 -0.222860 0.033315 -0.369787
  5   0.000006 -0.000004 -4.427393 0.106591 3.143934 -0.219705
  6   18.465939 0.000000 0.000000 0.000000 0.000000 -0.229915
  7   14.875442 0.000000 0.000000 0.026609 -0.015820 -0.703337
  8   2.255207 -0.007574 0.000003 0.122481 -0.023430 0.015454
  9   9.514223 -0.009357 0.000000 -0.008329 0.004476 -0.008529
 10   11.752194 -0.001492 0.000000 0.000024 0.043599 0.440031
 11   -2.111792 0.863597 2.563791 -0.691813 -1.075240 3.342703
 12   4.640941 0.000000 0.000000 -1.359313 0.320458 -0.702450
 13   10.828045 0.000000 0.000000 0.000000 0.000000 -1.284783
 14   9.393338 -0.000001 0.000000 -1.575968 -0.296674 -0.004750
 15   1.442243 0.107453 -1.746178 1.686435 0.539209 0.325885
 16   1.063450 0.000000 -0.000001 0.000000 0.000000 0.199056
 17   1.376307 -0.000001 0.000001 0.000000 0.000000 0.199049
 18   4.172845 -0.251366 -1.312745 0.008050 0.095731 0.148659
 19   1.215373 0.000001 -0.000001 0.000000 0.000000 0.645758
 20   1.215371 -0.000002 0.000000 0.000000 0.000000 0.645758
 21   4.220532 -0.244855 -0.431465 0.001333 0.026242 0.148339
 22   1.350417 0.000000 0.000001 0.000000 0.000000 0.863926
 23   1.350409 0.000000 -0.000001 0.000000 0.000000 0.863926
 24   -1.885222 0.863610 -2.731758 -1.320958 1.196339 1.412138
 25   4.640942 0.000000 0.000000 -1.155321 -0.513543 0.702426
 26   10.828048 0.000000 0.000001 0.000000 0.000000 -0.592494
 27   9.393336 -0.000001 0.000000 1.499456 0.093338 -0.186463
 28   1.442244 0.107454 1.746178 -1.686405 -0.539236 0.325898
 29   1.063451 -0.000001 0.000000 0.000000 0.000000 0.199056
 30   1.376307 -0.000001 0.000000 0.000000 0.000000 0.199059
 31   4.172846 -0.251365 1.312745 -0.008050 -0.095731 0.148659
 32   1.215374 0.000001 -0.000001 0.000000 0.000000 0.645746
 33   1.215373 0.000000 0.000001 0.000000 0.000000 0.645746
 34   4.220533 -0.244853 0.431466 -0.001333 -0.026242 0.148339
 35   1.350415 -0.000001 -0.000001 0.000000 0.000000 0.863937
 36   1.350410 -0.000001 0.000001 0.000000 0.000000 0.863925
 37   2.110541 -0.000001 0.000000 -0.843631 0.080344 -0.479604
 38   0.891923 2.373050 -0.014527 -3.141592 -0.000001 1.413797
 39   7.228119 5.709445 3.726568 0.648821 -1.570796 0.000000
 40   2.450426 5.076127 0.001325 2.893461 -1.570796 0.000000
 41   6.312405 -4.528058 0.001311 3.181155 -1.570796 0.000000
 42   2.233309 1.152535 -7.309138 -0.600662 -1.438831 -1.314324
 43   4.262825 -0.232720 -1.392178 0.016840 0.076668 0.253759
time 9
  0   1.727579 1.669542 7.611627 -3.141496 1.509431 1.439974
  1   -1.273149 -0.347667 0.000000 -1.570795 -1.570451 0.000000
  2   -0.000007 0.000008 4.427393 -0.291950 -2.968724 -0.267313
  3   18.465939 0.000000 0.000000 0.000000 0.000000 -0.315450
  4   14.875443 0.000000 0.000000 -0.306052 0.004901 -0.293941
  5   0.000006 -0.000004 -4.427393 0.105633 3.155127 -0.309828
  6   18.465939 0.000000 0.000000 0.000000 0.000000 -0.203135
  7   14.875442 0.000000 0.000000 -0.181406 0.005673 -0.779648
  8   2.255207 -0.007574 0.000003 0.120920 -0.037944 0.134106
  9   9.514223 -0.009357 0.000000 -0.008629 0.001935 -0.099323
 10   11.752194 -0.001492 0.000000 0.000024 0.043599 0.440031
 11   -2.111792 0.863597 2.563791 -0.618546 -1.109562 3.278368
 12   4.640941 0.000000 0.000000 -1.316291 0.255300 -0.647424
 13   10.828045 0.000000 0.000000 0.000000 0.000000 -1.031277
 14   9.393338 -0.000001 0.000000 -1.580022 -0.533058 -0.007094
 15   1.442243 0.107453 -1.746178 1.686435 0.539209 0.325885
 16   1.063450 0.000000 -0.000001 0.000000 0.000000 0.199056
 17   1.376307 -0.000001 0.000001 0.000000 0.000000 0.199049
 18   4.172845 -0.251366 -1.312745 0.008050 0.095731 0.148659
 19   1.215373 0.000001 -0.000001 0.000000 0.000000 0.645758
 20   1.215371 -0.000002 0.000000 0.000000 0.000000 0.645758
 21   4.220532 -0.244855 -0.431465 0.001333 0.026242 0.148339
 22   1.350417 0.000000 0.000001 0.000000 0.000000 0.863926
 23   1.350409 0.000000 -0.000001 0.000000 0.000000 0.863926
 24   -1.885222 0.863610 -2.731758 -0.958369 1.259312 1.775619
 25   4.640942 0.000000 0.000000 -1.250374 -0.215896 0.130018
 26   10.828048 0.000000 0.000001 0.000000 0.000000 -0.770469
 27   9.393336 -0.000001 0.000000 1.512482 -0.160551 -0.021725
 28   1.442244 0.107454 1.746178 -1.686405 -0.539236 0.325898
 29   1.063451 -0.000001 0.000000 0.000000 0.000000 0.199056
 30   1.376307 -0.000001 0.000000 0.000000 0.000000 0.199059
 31   4.172846 -0.251365 1.312745 -0.008050 -0.095731 0.148659
 32   1.215374 0.000001 -0.000001 0.000000 0.000000 0.645746
 33   1.215373 0.000000 0.000001 0.000000 0.000000 0.645746
 34   4.220533 -0.244853 0.431466 -0.001333 -0.026242 0.148339
 35   1.350415 -0.000001 -0.000001 0.000000 0.000000 0.863937
 36   1.350410 -0.000001 0.000001 0.000000 0.000000 0.863925
 37   2.110541 -0.000001 0.000000 -1.006774 -0.054934 -0.719368
 38   0.891923 2.373050 -0.014527 -3.141592 -0.000001 1.413797
 39   7.228119 5.709445 3.726568 0.437294 -1.570466 0.000000
 40   2.450426 5.076127 0.001325 2.914350 -1.570796 0.000000
 41   6.312405 -4.528058 0.001311 3.173501 -1.570796 0.000000
 42   2.233309 1.152535 -7.309138 -0.747634 -1.444249 -1.216669
 43   4.262825 -0.232720 -1.392178 0.016840 0.076668 0.253759
time 10
  0   1.727579 1.669542 9.596980 -3.141496 1.503862 1.439974
  1   -1.773164 -0.417982 0.000000 -1.570795 -1.570451 0.000000
  2   -0.000007 0.000008 4.427393 -0.330850 -2.931891 -0.269314
  3   18.465939 0.000000 0.000000 0.000000 0.000000 -0.298489
  4   14.875443 0.000000 0.000000 -0.401474 -0.034794 -0.222202
  5   0.000006 -0.000004 -4.427393 0.104003 3.120497 -0.398549
  6   18.465939 0.000000 0.000000 0.000000 0.000000 -0.241860
  7   14.875442 0.000000 0.000000 -0.413884 -0.014153 -0.810600
  8   2.255207 -0.007574 0.000003 0.118599 -0.048686 0.223343
  9   9.514223 -0.009357 0.000000 -0.008779 -0.000457 -0.209318
 10   11.752194 -0.001492 0.000000 0.000024 0.043599 0.440031
 11   -2.111792 0.863597 2.563791 -0.708010 -1.160127 3.376498
 12   4.640941 0.000000 0.000000 -1.273889 0.308336 -0.470757
 13   10.828045 0.000000 0.000000 0.000000 0.000000 -1.140489
 14   9.393338 -0.000001 0.000000 -1.569611 0.034195 0.000037
 15   1.442243 0.107453 -1.746178 1.686435 0.539209 0.325885
 16   1.063450 0.000000 -0.000001 0.000000 0.000000 0.199056
 17   1.376307 -0.000001 0.000001 0.000000 0.000000 0.199049
 18   4.172845 -0.251366 -1.312745 0.008050 0.095731 0.148659
 19   1.215373 0.000001 -0.000001 0.000000 0.000000 0.645758
 20   1.215371 -0.000002 0.000000 0.000000 0.000000 0.645758
 21   4.220532 -0.244855 -0.431465 0.001333 0.026242 0.148339
 22   1.350417 0.000000 0.000001 0.000000 0.000000 0.863926
 23   1.350409 0.000000 -0.000001 0.000000 0.000000 0.863926
 24   -1.885222 0.863610 -2.731758 -0.685756 1.277287 2.043380
 25   4.640942 0.000000 0.000000 -1.104625 -0.169589 0.142337
 26   10.828048 0.000000 0.000001 0.000000 0.000000 -0.809883
 27   9.393336 -0.000001 0.000000 1.569611 -0.034192 0.000001
 28   1.442244 0.107454 1.746178 -1.686405 -0.539236 0.325898
 29   1.063451 -0.000001 0.000000 0.000000 0.000000 0.199056
 30   1.376307 -0.000001 0.000000 0.000000 0.000000 0.199059
 31   4.172846 -0.251365 1.312745 -0.008050 -0.095731 0.148659
 32   1.215374 0.000001 -0.000001 0.000000 0.000000 0.645746
 33   1.215373 0.000000 0.000001 0.000000 0.000000 0.645746
 34   4.220533 -0.244853 0.431466 -0.001333 -0.026242 0.148339
 35   1.350415 -0.000001 -0.000001 0.000000 0.000000 0.863937
 36   1.350410 -0.000001 0.000001 0.000000 0.000000 0.863925
 37   2.110541 -0.000001 0.000000 -1.057778 -0.260422 -0.920333
 38   0.891923 2.373050 -0.014527 -3.141592 -0.000001 1.413797
 39   7.228119 5.709445 3.726568 0.617476 -1.570796 0.000000
 40   2.450426 5.076127 0.001325 2.935414 -1.570796 0.000000
 41   6.312405 -4.528058 0.001311 3.164979 -1.570796 0.000000
 42   2.233309 1.152535 -7.309138 -0.748689 -1.496236 -1.290485
 43   4.262825 -0.232720 -1.392178 0.016840 0.076668 0.253759
time 11
  0   1.727579 1.669542 9.029737 -3.141496 1.520571 1.439974
  1   -1.437217 -0.375011 0.000000 -1.570795 -1.570451 0.000000
  2   -0.000007 0.000008 4.427393 -0.373198 -2.898182 -0.255780
  3   18.465939 0.000000 0.000000 0.000000 0.000000 -0.299805
  4   14.875443 0.000000 0.000000 -0.505535 -0.081108 -0.152597
  5   0.000006 -0.000004 -4.427393 0.104770 3.124515 -0.365700
  6   18.465939 0.000000 0.000000 0.000000 0.000000 -0.240416
  7   14.875442 0.000000 0.000000 -0.498185 -0.159448 -0.753461
  8   2.255207 -0.007574 0.000003 0.119696 -0.044071 0.184829
  9   9.514223 -0.009357 0.000000 -0.008779 0.000282 -0.191263
 10   11.752194 -0.001492 0.000000 0.000024 0.043599 0.440031
 11   -2.111792 0.863597 2.563791 -0.649415 -1.167631 3.319726
 12   4.640941 0.000000 0.000000 -1.266998 0.300326 -0.480240
 13   10.828045 0.000000 0.000000 0.000000 0.000000 -1.106627
 14   9.393338 -0.000001 0.000000 -1.571730 -0.070835 -0.001722
 15   1.442243 0.107453 -1.746178 1.686435 0.539209 0.325885
 16   1.063450 0.000000 -0.000001 0.000000 0.000000 0.199056
 17   1.376307 -0.000001 0.000001 0.000000 0.000000 0.199049
 18   4.172845 -0.251366 -1.312745 0.008050 0.095731 0.148659
 19   1.215373 0.000001 -0.000001 0.000000 0.000000 0.645758
 20   1.215371 -0.000002 0.000000 0.000000 0.000000 0.645758
 21   4.220532 -0.244855 -0.431465 0.001333 0.026242 0.148339
 22   1.350417 0.000000 0.000001 0.000000 0.000000 0.863926
 23   1.350409 0.000000 -0.000001 0.000000 0.000000 0.863926
 24   -1.885222 0.863610 -2.731758 -0.744815 1.269722 1.986546
 25   4.640942 0.000000 0.000000 -1.154307 -0.175866 0.157456
 26   10.828048 0.000000 0.000001 0.000000 0.000000 -0.802553
 27   9.393336 -0.000001 0.000000 1.558903 -0.057486 -0.004558
 28   1.442244 0.107454 1.746178 -1.686405 -0.539236 0.325898
 29   1.063451 -0.000001 0.000000 0.000000 0.000000 0.199056
 30   1.376307 -0.000001 0.000000 0.000000 0.000000 0.199059
 31   4.172846 -0.251365 1.312745 -0.008050 -0.095731 0.148659
 32   1.215374 0.000001 -0.000001 0.000000 0.000000 0.645746
 33   1.215373 0.000000 0.000001 0.000000 0.000000 0.645746
 34   4.220533 -0.244853 0.431466 -0.001333 -0.026242 0.148339
 35   1.350415 -0.000001 -0.000001 0.000000 0.000000 0.863937
 36   1.350410 -0.000001 0.000001 0.000000 0.000000 0.863925
 37   2.110541 -0.000001 0.000000 -1.125904 -0.274614 -0.734200
 38   0.891923 2.373050 -0.014527 -3.141592 -0.000001 1.413797
 39   7.228119 5.709445 3.726568 0.812667 -1.570796 0.000000
 40   2.450426 5.076127 0.001325 2.956040 -1.570796 0.000000
 41   6.312405 -4.528058 0.001311 3.156304 -1.570796 0.000000
 42   2.233309 1.152535 -7.309138 -0.863928 -1.507653 -1.145630
 43   4.262825 -0.232720 -1.392178 0.016840 0.076668 0.253759
time 12
  0   1.727579 1.669542 7.832222 -3.141496 1.542941 1.439974
  1   -0.761415 -0.285165 0.000000 -1.570795 -1.570451 0.000000
  2   -0.000007 0.000008 4.427393 -0.417176 -2.865895 -0.237098
  3   18.465939 0.000000 0.000000 0.000000 0.000000 -0.305726
  4   14.875443 0.000000 0.000000 -0.614645 -0.126677 -0.082716
  5   0.000006 -0.000004 -4.427393 0.105920 3.133603 -0.293357
  6   18.465939 0.000000 0.000000 0.000000 0.000000 -0.236544
  7   14.875442 0.000000 0.000000 -0.544512 -0.353548 -0.652051
  8   2.255207 -0.007574 0.000003 0.121510 -0.033800 0.100125
  9   9.514223 -0.009357 0.000000 -0.008779 0.002083 -0.134804
 10   11.752194 -0.001492 0.000000 0.000024 0.043599 0.440031
 11   -2.111792 0.863597 2.563791 -0.561094 -1.164584 3.232511
 12   4.640941 0.000000 0.000000 -1.260418 0.285245 -0.520046
 13   10.828045 0.000000 0.000000 0.000000 0.000000 -1.045981
 14   9.393338 -0.000001 0.000000 -1.576060 -0.301947 -0.004799
 15   1.442243 0.107453 -1.746178 1.686435 0.539209 0.325885
 16   1.063450 0.000000 -0.000001 0.000000 0.000000 0.199056
 17   1.376307 -0.000001 0.000001 0.000000 0.000000 0.199049
 18   4.172845 -0.251366 -1.312745 0.008050 0.095731 0.148659
 19   1.215373 0.000001 -0.000001 0.000000 0.000000 0.645758
 20   1.215371 -0.000002 0.000000 0.000000 0.000000 0.645758
 21   4.220532 -0.244855 -0.431465 0.001333 0.026242 0.148339
 22   1.350417 0.000000 0.000001 0.000000 0.000000 0.863926
 23   1.350409 0.000000 -0.000001 0.000000 0.000000 0.863926
 24   -1.885222 0.863610 -2.731758 -0.860247 1.255983 1.874672
 25   4.640942 0.000000 0.000000 -1.249275 -0.193370 0.176424
 26   10.828048 0.000000 0.000001 0.000000 0.000000 -0.786543
 27   9.393336 -0.000001 0.000000 1.535554 -0.108921 -0.013723
 28   1.442244 0.107454 1.746178 -1.686405 -0.539236 0.325898
 29   1.063451 -0.000001 0.000000 0.000000 0.000000 0.199056
 30   1.376307 -0.000001 0.000000 0.000000 0.000000 0.199059
 31   4.172846 -0.251365 1.312745 -0.008050 -0.095731 0.148659
 32   1.215374 0.000001 -0.000001 0.000000 0.000000 0.645746
 33   1.215373 0.000000 0.000001 0.000000 0.000000 0.645746
 34   4.220533 -0.244853 0.431466 -0.001333 -0.026242 0.148339
 35   1.350415 -0.000001 -0.000001 0.000000 0.000000 0.863937
 36   1.350410 -0.000001 0.000001 0.000000 0.000000 0.863925
 37   2.110541 -0.000001 0.000000 -1.180405 -0.216161 -0.426820
 38   0.891923 2.373050 -0.014527 -3.141592 -0.000001 1.413797
 39   7.228119 5.709445 3.726568 0.819980 -1.570796 0.000000
 40   2.450426 5.076127 0.001325 2.975261 -1.570796 0.000000
 41   6.312405 -4.528058 0.001311 3.148037 -1.570796 0.000000
 42   2.233309 1.152535 -7.309138 -1.021830 -1.509750 -0.938543
 43   4.262825 -0.232720 -1.392178 0.016840 0.076668 0.253759
time 13
  0   1.727579 1.669542 6.650465 3.141496 1.554080 1.439974
  1   -0.089519 -0.195318 0.000000 -1.570795 -1.570451 0.000000
  2   -0.000007 0.000008 4.427393 -0.460482 -2.832660 -0.223849
  3   18.465939 0.000000 0.000000 0.000000 0.000000 -0.302437
  4   14.875443 0.000000 0.000000 -0.726350 -0.160625 -0.010385
  5   0.000006 -0.000004 -4.427393 0.106495 3.142786 -0.220921
  6   18.465939 0.000000 0.000000 0.000000 0.000000 -0.232606
  7   14.875442 0.000000 0.000000 -0.602701 -0.545830 -0.537322
  8   2.255207 -0.007574 0.000003 0.122481 -0.023430 0.015454
  9   9.514223 -0.009357 0.000000 -0.008629 0.003871 -0.078345
 10   11.752194 -0.001492 0.000000 0.000024 0.043599 0.440031
 11   -2.111792 0.863597 2.563791 -0.474489 -1.158440 3.147593
 12   4.640941 0.000000 0.000000 -1.253216 0.272401 -0.559734
 13   10.828045 0.000000 0.000000 0.000000 0.000000 -0.985335
 14   9.393338 -0.000001 0.000000 -1.580022 -0.533058 -0.007094
 15   1.442243 0.107453 -1.746178 1.686435 0.539209 0.325885
 16   1.063450 0.000000 -0.000001 0.000000 0.000000 0.199056
 17   1.376307 -0.000001 0.000001 0.000000 0.000000 0.199049
 18   4.172845 -0.251366 -1.312745 0.008050 0.095731 0.148659
 19   1.215373 0.000001 -0.000001 0.000000 0.000000 0.645758
 20   1.215371 -0.000002 0.000000 0.000000 0.000000 0.645758
 21   4.220532 -0.244855 -0.431465 0.001333 0.026242 0.148339
 22   1.350417 0.000000 0.000001 0.000000 0.000000 0.863926
 23   1.350409 0.000000 -0.000001 0.000000 0.000000 0.863926
 24   -1.885222 0.863610 -2.731758 -0.964849 1.238492 1.773140
 25   4.640942 0.000000 0.000000 -1.344751 -0.213525 0.196022
 26   10.828048 0.000000 0.000001 0.000000 0.000000 -0.770469
 27   9.393336 -0.000001 0.000000 1.512482 -0.160551 -0.021725
 28   1.442244 0.107454 1.746178 -1.686405 -0.539236 0.325898
 29   1.063451 -0.000001 0.000000 0.000000 0.000000 0.199056
 30   1.376307 -0.000001 0.000000 0.000000 0.000000 0.199059
 31   4.172846 -0.251365 1.312745 -0.008050 -0.095731 0.148659
 32   1.215374 0.000001 -0.000001 0.000000 0.000000 0.645746
 33   1.215373 0.000000 0.000001 0.000000 0.000000 0.645746
 34   4.220533 -0.244853 0.431466 -0.001333 -0.026242 0.148339
 35   1.350415 -0.000001 -0.000001 0.000000 0.000000 0.863937
 36   1.350410 -0.000001 0.000001 0.000000 0.000000 0.863925
 37   2.110541 -0.000001 0.000000 -1.216807 -0.145500 -0.126313
 38   0.891923 2.373050 -0.014527 -3.141592 -0.000001 1.413797
 39   7.228119 5.709445 3.726568 0.775908 -1.570796 0.000000
 40   2.450426 5.076127 0.001325 2.992463 -1.570796 0.000000
 41   6.312405 -4.528058 0.001311 3.140791 -1.570796 0.000000
 42   2.233309 1.152535 -7.309138 -1.185964 -1.509721 -0.725138
 43   4.262825 -0.232720 -1.392178 0.016840 0.076668 0.253759
end
