version 1
nodes
  0 "Bip01" -1
  1 "Bip01 Pelvis" 0
  2 "Bip01 L Thigh" 1
  3 "Bip01 L Calf" 2
  4 "Bip01 L Foot" 3
  5 "Bip01 R Thigh" 1
  6 "Bip01 R Calf" 5
  7 "Bip01 R Foot" 6
  8 "Bip01 Spine" 1
  9 "Bip01 Spine1" 8
 10 "Bip01 Neck" 9
 11 "Bip01 L Clavicle" 10
 12 "Bip01 L UpperArm" 11
 13 "Bip01 L Forearm" 12
 14 "Bip01 L Hand" 13
 15 "Bip01 L Finger0" 14
 16 "Bip01 L Finger01" 15
 17 "Bip01 L Finger02" 16
 18 "Bip01 L Finger1" 14
 19 "Bip01 L Finger11" 18
 20 "Bip01 L Finger12" 19
 21 "Bip01 L Finger2" 14
 22 "Bip01 L Finger21" 21
 23 "Bip01 L Finger22" 22
 24 "Bip01 R Clavicle" 10
 25 "Bip01 R UpperArm" 24
 26 "Bip01 R Forearm" 25
 27 "Bip01 R Hand" 26
 28 "Bip01 R Finger0" 27
 29 "Bip01 R Finger01" 28
 30 "Bip01 R Finger02" 29
 31 "Bip01 R Finger1" 27
 32 "Bip01 R Finger11" 31
 33 "Bip01 R Finger12" 32
 34 "Bip01 R Finger2" 27
 35 "Bip01 R Finger21" 34
 36 "Bip01 R Finger22" 35
 37 "Bip01 Head" 10
 38 "Bone05" 37
 39 "Bone08" 9
 40 "Bone16" 8
 41 "Bone01" 8
 42 "Bone03" 1
 43 "Bip01 R Finger4" 27
end
skeleton
time 0
  0 0.420091 1.059590 39.345757 0.000000 0.000000 -1.570795
  1 -0.245774 0.000000 0.000000 -1.570795 -1.570451 0.000000
  2 -0.000007 0.000008 4.427393 -0.000301 -3.130353 -0.072680
  3 18.465939 0.000000 0.000000 0.000000 0.000000 -0.242123
  4 14.875443 0.000000 0.000000 0.001118 -0.011190 0.169435
  5 0.000006 -0.000004 -4.427393 0.000303 3.130350 -0.072680
  6 18.465939 0.000000 0.000000 0.000000 0.000000 -0.242123
  7 14.875442 0.000000 0.000000 -0.001117 0.011190 0.169435
  8 2.255207 -0.007574 0.000003 -0.000004 -0.000001 0.000796
  9 9.514223 -0.009357 0.000000 0.000000 0.000000 0.000000
 10 11.752194 -0.001492 0.000000 0.000000 -0.000001 0.478772
 11 -1.967256 0.937818 2.649731 0.088021 -1.370041 2.575763
 12 4.640941 0.000000 0.000000 -0.049954 1.052208 -0.032367
 13 10.828045 0.000000 0.000000 0.000000 0.000000 -0.409440
 14 9.393338 -0.000001 0.000000 -1.569611 0.000000 0.165806
 15 1.442243 0.107453 -1.746178 1.585944 0.550080 0.132382
 16 1.063450 0.000000 -0.000001 0.000000 0.000000 0.183260
 17 1.376307 -0.000001 0.000001 0.000000 0.000000 0.148353
 18 4.172845 -0.251366 -1.312745 -0.001190 0.096055 0.052246
 19 1.215373 0.000001 -0.000001 0.000000 0.000000 0.052360
 20 1.215371 -0.000002 0.000000 0.000000 0.000000 0.052360
 21 4.220532 -0.244855 -0.431465 -0.001184 0.026242 0.052329
 22 1.350417 0.000000 0.000001 0.000000 0.000000 0.052360
 23 1.350409 0.000000 -0.000001 0.000000 0.000000 0.052360
 24 -1.967256 0.937831 -2.649724 -0.088044 1.370038 2.575739
 25 4.640942 0.000000 0.000000 0.049954 -1.052208 -0.032367
 26 10.828048 0.000000 0.000001 0.000000 0.000000 -0.409440
 27 9.393336 -0.000001 0.000000 1.569611 0.000000 0.165806
 28 1.442244 0.107454 1.746178 -1.585943 -0.550079 0.132381
 29 1.063451 -0.000001 0.000000 0.000000 0.000000 0.183260
 30 1.376307 -0.000001 0.000000 0.000000 0.000000 0.148353
 31 4.172846 -0.251365 1.312745 0.001190 -0.096055 0.052246
 32 1.215374 0.000001 -0.000001 0.000000 0.000000 0.052360
 33 1.215373 0.000000 0.000001 0.000000 0.000000 0.052360
 34 4.220533 -0.244853 0.431466 0.001184 -0.026242 0.052329
 35 1.350415 -0.000001 -0.000001 0.000000 0.000000 0.052360
 36 1.350410 -0.000001 0.000001 0.000000 0.000000 0.052360
 37 2.110541 -0.000001 0.000000 0.000000 0.000001 -0.322570
 38 0.891923 2.373050 -0.014527 -3.141592 -0.000001 1.413797
 39 7.228119 5.709445 3.726568 3.140796 -1.570796 0.000000
 40 2.450426 5.076127 0.001325 3.140791 -1.570796 0.000000
 41 6.312405 -4.528058 0.001311 3.140791 -1.570796 0.000000
 42 2.233309 1.152535 -7.309138 -1.570796 -1.570796 0.000000
 43 4.262825 -0.232720 -1.392178 0.001188 0.078478 0.052453
end
triangles
w_beretta.bmp
 42 -7.709041 -1.357903 41.408146 -0.594306 -0.660807 0.458405 0.968750 0.142857
 42 -6.279045 0.001758 42.398617 0.658090 -0.655591 0.370295 0.906250 0.253968
 42 -7.609045 0.001720 42.498615 -0.832402 -0.441301 0.335201 0.906250 0.142857
w_beretta.bmp
 42 -7.609045 0.001720 42.498615 -0.832402 -0.441301 0.335201 0.906250 0.142857
 42 -6.279045 0.001758 42.398617 0.658090 -0.655591 0.370295 0.906250 0.253968
 42 -7.579046 0.151544 43.008667 -0.470027 -0.592934 0.653838 0.890625 0.142857
w_beretta.bmp
 42 -6.279045 0.001758 42.398617 0.658090 -0.655591 0.370295 0.906250 0.253968
 42 -6.239046 0.151585 42.898666 0.576605 0.315602 0.753606 0.875000 0.253968
 42 -7.579046 0.151544 43.008667 -0.470027 -0.592934 0.653838 0.890625 0.142857
w_beretta.bmp
 42 -7.579046 0.151544 43.008667 -0.470027 -0.592934 0.653838 0.890625 0.142857
 42 -6.239046 0.151585 42.898666 0.576605 0.315602 0.753606 0.875000 0.253968
 42 -7.609046 0.491699 42.558784 -0.698521 0.434313 0.568718 0.875000 0.142857
w_beretta.bmp
 42 -6.239046 0.151585 42.898666 0.576605 0.315602 0.753606 0.875000 0.253968
 42 -6.269046 0.501737 42.458786 0.782006 0.298202 0.547304 0.875000 0.253968
 42 -7.609046 0.491699 42.558784 -0.698521 0.434313 0.568718 0.875000 0.142857
w_beretta.bmp
 42 -7.609046 0.491699 42.558784 -0.698521 0.434313 0.568718 0.875000 0.142857
 42 -6.269046 0.501737 42.458786 0.782006 0.298202 0.547304 0.875000 0.253968
 42 -7.619048 1.041737 42.448975 -0.793690 -0.012600 0.608192 0.828125 0.142857
w_beretta.bmp
 42 -6.269046 0.501737 42.458786 0.782006 0.298202 0.547304 0.875000 0.253968
 42 -6.279048 1.041779 42.338974 0.803208 -0.184502 0.566406 0.828125 0.253968
 42 -7.619048 1.041737 42.448975 -0.793690 -0.012600 0.608192 0.828125 0.142857
w_beretta.bmp
 42 -7.619048 1.041737 42.448975 -0.793690 -0.012600 0.608192 0.828125 0.142857
 42 -6.279048 1.041779 42.338974 0.803208 -0.184502 0.566406 0.828125 0.253968
 42 -7.509055 3.521198 44.009830 -0.498679 -0.361585 0.787766 0.546875 0.142857
w_beretta.bmp
 42 -6.279048 1.041779 42.338974 0.803208 -0.184502 0.566406 0.828125 0.253968
 42 -6.169055 3.531236 43.909836 0.771598 -0.228900 0.593499 0.546875 0.238095
 42 -7.509055 3.521198 44.009830 -0.498679 -0.361585 0.787766 0.546875 0.142857
w_beretta.bmp
 42 -7.509055 3.521198 44.009830 -0.498679 -0.361585 0.787766 0.546875 0.142857
 42 -6.169055 3.531236 43.909836 0.771598 -0.228900 0.593499 0.546875 0.238095
 42 -7.499057 4.461125 44.220158 -0.331305 0.212803 0.919213 0.484375 0.126984
w_beretta.bmp
 42 -6.169055 3.531236 43.909836 0.771598 -0.228900 0.593499 0.546875 0.238095
 42 -6.159057 4.461167 44.110157 0.444196 0.688493 0.573295 0.484375 0.238095
 42 -7.499057 4.461125 44.220158 -0.331305 0.212803 0.919213 0.484375 0.126984
w_beretta.bmp
 42 -6.159057 4.461167 44.110157 0.444196 0.688493 0.573295 0.937500 0.460317
 42 -6.169055 3.531236 43.909836 0.771598 -0.228900 0.593499 0.937500 0.523809
 42 -6.359058 5.162041 41.580399 0.768634 0.556124 -0.316114 0.734375 0.444444
w_beretta.bmp
 42 -6.359058 5.162041 41.580399 0.768634 0.556124 -0.316114 0.734375 0.444444
 42 -6.169055 3.531236 43.909836 0.771598 -0.228900 0.593499 0.937500 0.523809
 42 -6.689048 1.632680 39.729179 0.648211 0.441208 -0.620611 0.671875 0.730159
w_beretta.bmp
 42 -6.169055 3.531236 43.909836 0.771598 -0.228900 0.593499 0.937500 0.523809
 42 -6.279048 1.041779 42.338974 0.803208 -0.184502 0.566406 0.859375 0.730159
 42 -6.689048 1.632680 39.729179 0.648211 0.441208 -0.620611 0.671875 0.730159
w_beretta.bmp
 42 -6.689048 1.632680 39.729179 0.648211 0.441208 -0.620611 0.671875 0.730159
 42 -6.279048 1.041779 42.338974 0.803208 -0.184502 0.566406 0.859375 0.730159
 42 -6.729047 1.342849 39.239079 0.888179 0.347192 -0.300993 0.625000 0.761905
w_beretta.bmp
 42 -6.279048 1.041779 42.338974 0.803208 -0.184502 0.566406 0.859375 0.730159
 42 -6.269046 0.501737 42.458786 0.782006 0.298202 0.547304 0.875000 0.777778
 42 -6.729047 1.342849 39.239079 0.888179 0.347192 -0.300993 0.625000 0.761905
w_beretta.bmp
 42 -6.729047 1.342849 39.239079 0.888179 0.347192 -0.300993 0.625000 0.761905
 42 -6.269046 0.501737 42.458786 0.782006 0.298202 0.547304 0.875000 0.777778
 42 -6.279045 0.001758 42.398617 0.658090 -0.655591 0.370295 0.890625 0.825397
w_beretta.bmp
 42 -6.269046 0.501737 42.458786 0.782006 0.298202 0.547304 0.875000 0.777778
 42 -6.239046 0.151585 42.898666 0.576605 0.315602 0.753606 0.906250 0.809524
 42 -6.279045 0.001758 42.398617 0.658090 -0.655591 0.370295 0.890625 0.825397
w_beretta.bmp
 42 -7.579046 0.151544 43.008667 -0.470027 -0.592934 0.653838 0.906250 0.809524
 42 -7.609046 0.491699 42.558784 -0.698521 0.434313 0.568718 0.875000 0.777778
 42 -7.609045 0.001720 42.498615 -0.832402 -0.441301 0.335201 0.890625 0.809524
w_beretta.bmp
 42 -7.609045 0.001720 42.498615 -0.832402 -0.441301 0.335201 0.890625 0.809524
 42 -7.609046 0.491699 42.558784 -0.698521 0.434313 0.568718 0.875000 0.777778
 42 -7.649047 1.332822 39.309074 -0.975609 0.209202 -0.066501 0.625000 0.761905
w_beretta.bmp
 42 -7.609046 0.491699 42.558784 -0.698521 0.434313 0.568718 0.875000 0.777778
 42 -7.619048 1.041737 42.448975 -0.793690 -0.012600 0.608192 0.859375 0.730159
 42 -7.649047 1.332822 39.309074 -0.975609 0.209202 -0.066501 0.625000 0.761905
w_beretta.bmp
 42 -7.649047 1.332822 39.309074 -0.975609 0.209202 -0.066501 0.625000 0.761905
 42 -7.619048 1.041737 42.448975 -0.793690 -0.012600 0.608192 0.859375 0.730159
 42 -7.619048 1.632653 39.799179 -0.590197 0.615697 -0.522097 0.671875 0.730159
w_beretta.bmp
 42 -7.619048 1.041737 42.448975 -0.793690 -0.012600 0.608192 0.859375 0.730159
 42 -7.699058 5.162003 41.680397 -0.714413 0.654413 -0.247705 0.734375 0.444444
 42 -7.619048 1.632653 39.799179 -0.590197 0.615697 -0.522097 0.671875 0.730159
w_beretta.bmp
 42 -7.649047 1.332822 39.309074 -0.975609 0.209202 -0.066501 0.359375 0.349206
 42 -7.619048 1.632653 39.799179 -0.590197 0.615697 -0.522097 0.328125 0.349206
 42 -6.729047 1.342849 39.239079 0.888179 0.347192 -0.300993 0.359375 0.412698
w_beretta.bmp
 42 -6.729047 1.342849 39.239079 0.888179 0.347192 -0.300993 0.359375 0.412698
 42 -7.619048 1.632653 39.799179 -0.590197 0.615697 -0.522097 0.328125 0.349206
 42 -6.689048 1.632680 39.729179 0.648211 0.441208 -0.620611 0.328125 0.412698
w_beretta.bmp
 42 -7.619048 1.632653 39.799179 -0.590197 0.615697 -0.522097 0.328125 0.349206
 42 -7.699058 5.162003 41.680397 -0.714413 0.654413 -0.247705 0.125000 0.349206
 42 -6.689048 1.632680 39.729179 0.648211 0.441208 -0.620611 0.328125 0.412698
w_beretta.bmp
 42 -6.689048 1.632680 39.729179 0.648211 0.441208 -0.620611 0.328125 0.412698
 42 -7.699058 5.162003 41.680397 -0.714413 0.654413 -0.247705 0.125000 0.349206
 42 -6.359058 5.162041 41.580399 0.768634 0.556124 -0.316114 0.125000 0.412698
w_beretta.bmp
 42 -7.499057 4.461125 44.220158 -0.331305 0.212803 0.919213 0.375000 0.285714
 42 -6.159057 4.461167 44.110157 0.444196 0.688493 0.573295 0.468750 0.285714
 42 -7.699058 5.162003 41.680397 -0.714413 0.654413 -0.247705 0.375000 0.015873
w_beretta.bmp
 42 -7.699058 5.162003 41.680397 -0.714413 0.654413 -0.247705 0.375000 0.015873
 42 -6.159057 4.461167 44.110157 0.444196 0.688493 0.573295 0.468750 0.285714
 42 -6.359058 5.162041 41.580399 0.768634 0.556124 -0.316114 0.484375 0.015873
w_beretta.bmp
 42 -7.499057 4.461125 44.220158 -0.331305 0.212803 0.919213 0.937500 0.460317
 42 -7.699058 5.162003 41.680397 -0.714413 0.654413 -0.247705 0.734375 0.444444
 42 -7.509055 3.521198 44.009830 -0.498679 -0.361585 0.787766 0.937500 0.523809
w_beretta.bmp
 42 -7.509055 3.521198 44.009830 -0.498679 -0.361585 0.787766 0.937500 0.523809
 42 -7.699058 5.162003 41.680397 -0.714413 0.654413 -0.247705 0.734375 0.444444
 42 -7.619048 1.041737 42.448975 -0.793690 -0.012600 0.608192 0.859375 0.730159
w_beretta.bmp
 42 -7.929042 -0.686936 38.608376 -0.476587 -0.862476 -0.170295 0.609375 0.920635
 42 -7.709041 -1.357903 41.408146 -0.594306 -0.660807 0.458405 0.828125 0.920635
 42 -7.649047 1.332822 39.309074 -0.975609 0.209202 -0.066501 0.625000 0.761905
w_beretta.bmp
 42 -7.649047 1.332822 39.309074 -0.975609 0.209202 -0.066501 0.625000 0.761905
 42 -7.709041 -1.357903 41.408146 -0.594306 -0.660807 0.458405 0.828125 0.920635
 42 -7.609045 0.001720 42.498615 -0.832402 -0.441301 0.335201 0.890625 0.809524
w_beretta.bmp
 42 -6.609042 -0.676898 38.508381 0.722084 -0.657386 -0.215495 0.609375 0.920635
 42 -6.389041 -1.347866 41.308147 0.632080 -0.774076 0.035799 0.828125 0.920635
 42 -7.929042 -0.686936 38.608376 -0.476587 -0.862476 -0.170295 0.609375 1.000000
w_beretta.bmp
 42 -7.929042 -0.686936 38.608376 -0.476587 -0.862476 -0.170295 0.609375 1.000000
 42 -6.389041 -1.347866 41.308147 0.632080 -0.774076 0.035799 0.828125 0.920635
 42 -7.709041 -1.357903 41.408146 -0.594306 -0.660807 0.458405 0.828125 1.000000
w_beretta.bmp
 42 -6.609042 -0.676898 38.508381 0.722084 -0.657386 -0.215495 0.609375 0.920635
 42 -6.729047 1.342849 39.239079 0.888179 0.347192 -0.300993 0.625000 0.761905
 42 -6.389041 -1.347866 41.308147 0.632080 -0.774076 0.035799 0.828125 0.920635
w_beretta.bmp
 42 -6.389041 -1.347866 41.308147 0.632080 -0.774076 0.035799 0.828125 0.920635
 42 -6.729047 1.342849 39.239079 0.888179 0.347192 -0.300993 0.625000 0.761905
 42 -6.279045 0.001758 42.398617 0.658090 -0.655591 0.370295 0.890625 0.825397
w_beretta.bmp
 42 -6.389041 -1.347866 41.308147 0.632080 -0.774076 0.035799 0.968750 0.253968
 42 -6.279045 0.001758 42.398617 0.658090 -0.655591 0.370295 0.906250 0.253968
 42 -7.709041 -1.357903 41.408146 -0.594306 -0.660807 0.458405 0.968750 0.142857
end
