version 1
nodes
  0 "Bip01" -1
  1 "Bip01 Pelvis" 0
  2 "Bip01 L Thigh" 1
  3 "Bip01 L Calf" 2
  4 "Bip01 L Foot" 3
  5 "Bip01 R Thigh" 1
  6 "Bip01 R Calf" 5
  7 "Bip01 R Foot" 6
  8 "Bip01 Spine" 1
  9 "Bip01 Spine1" 8
 10 "Bip01 Neck" 9
 11 "Bip01 L Clavicle" 10
 12 "Bip01 L UpperArm" 11
 13 "Bip01 L Forearm" 12
 14 "Bip01 L Hand" 13
 15 "Bip01 L Finger0" 14
 16 "Bip01 L Finger01" 15
 17 "Bip01 L Finger02" 16
 18 "Bip01 L Finger1" 14
 19 "Bip01 L Finger11" 18
 20 "Bip01 L Finger12" 19
 21 "Bip01 L Finger2" 14
 22 "Bip01 L Finger21" 21
 23 "Bip01 L Finger22" 22
 24 "Bip01 R Clavicle" 10
 25 "Bip01 R UpperArm" 24
 26 "Bip01 R Forearm" 25
 27 "Bip01 R Hand" 26
 28 "Bip01 R Finger0" 27
 29 "Bip01 R Finger01" 28
 30 "Bip01 R Finger02" 29
 31 "Bip01 R Finger1" 27
 32 "Bip01 R Finger11" 31
 33 "Bip01 R Finger12" 32
 34 "Bip01 R Finger2" 27
 35 "Bip01 R Finger21" 34
 36 "Bip01 R Finger22" 35
 37 "Bip01 Head" 10
 38 "Bone05" 37
 39 "Bone08" 9
 40 "Bone16" 8
 41 "Bone01" 8
 42 "Bone03" 1
 43 "Bip01 R Finger4" 27
end
skeleton
time 0
  0   1.727579 6.791367 38.353081 0.000000 0.000000 -1.701715
  1   0.164395 -0.125004 0.000000 -1.570795 -1.570451 0.000000
  2   -0.000007 0.000008 4.427393 -0.170749 -3.152983 0.000903
  3   18.465939 0.000000 0.000000 0.000000 0.000000 -0.416557
  4   14.875443 0.000000 0.000000 0.018467 0.017437 0.402071
  5   0.000006 -0.000004 -4.427393 0.106016 3.095625 -0.362237
  6   18.465939 0.000000 0.000000 0.000000 0.000000 -0.394334
  7   14.875442 0.000000 0.000000 -0.002065 0.005218 0.029344
  8   2.255207 -0.007574 0.000003 0.122101 -0.017401 -0.001322
  9   9.514223 -0.009357 0.000000 -0.008779 0.002352 -0.095902
 10   11.752194 -0.001492 0.000000 0.000024 0.043599 0.440031
 11   -2.111792 0.863597 2.563791 0.697216 -1.395374 2.006326
 12   4.640941 0.000000 0.000000 0.738480 1.089874 0.724820
 13   10.828045 0.000000 0.000000 0.000000 0.000000 -0.470452
 14   9.393338 -0.000001 0.000000 -1.569611 0.034195 0.000037
 15   1.442243 0.107453 -1.746178 1.686435 0.539209 0.325885
 16   1.063450 0.000000 -0.000001 0.000000 0.000000 0.199056
 17   1.376307 -0.000001 0.000001 0.000000 0.000000 0.199049
 18   4.172845 -0.251366 -1.312745 0.008050 0.095731 0.148659
 19   1.215373 0.000001 -0.000001 0.000000 0.000000 0.645758
 20   1.215371 -0.000002 0.000000 0.000000 0.000000 0.645758
 21   4.220532 -0.244855 -0.431465 0.001333 0.026242 0.148339
 22   1.350417 0.000000 0.000001 0.000000 0.000000 0.863926
 23   1.350409 0.000000 -0.000001 0.000000 0.000000 0.863926
 24   -1.885222 0.863610 -2.731758 -0.942447 1.461427 1.764337
 25   4.640942 0.000000 0.000000 -0.601477 -1.183875 0.506934
 26   10.828048 0.000000 0.000001 0.000000 0.000000 -0.234230
 27   9.393336 -0.000001 0.000000 1.569611 -0.034192 0.000001
 28   1.442244 0.107454 1.746178 -1.686405 -0.539236 0.325898
 29   1.063451 -0.000001 0.000000 0.000000 0.000000 0.199056
 30   1.376307 -0.000001 0.000000 0.000000 0.000000 0.199059
 31   4.172846 -0.251365 1.312745 -0.008050 -0.095731 0.148659
 32   1.215374 0.000001 -0.000001 0.000000 0.000000 0.645746
 33   1.215373 0.000000 0.000001 0.000000 0.000000 0.645746
 34   4.220533 -0.244853 0.431466 -0.001333 -0.026242 0.148339
 35   1.350415 -0.000001 -0.000001 0.000000 0.000000 0.863937
 36   1.350410 -0.000001 0.000001 0.000000 0.000000 0.863925
 37   2.110541 -0.000001 0.000000 0.002417 -0.010493 -0.153718
 38   0.891923 2.373050 -0.014527 -3.141592 -0.000001 1.413797
 39   7.228119 5.709445 3.726568 3.140796 -1.570796 0.000000
 40   2.450426 5.076127 0.001325 3.140791 -1.570796 0.000000
 41   6.312405 -4.528058 0.001311 3.140791 -1.570796 0.000000
 42   2.233309 1.152535 -7.309138 -1.140137 -1.535904 -0.884450
 43   4.262825 -0.232720 -1.392178 0.016840 0.076668 0.253759
time 1
  0   1.727579 6.640202 38.242783 0.000000 0.000000 -1.701715
  1   -0.319995 -0.238289 0.000000 -1.570795 -1.570451 0.000000
  2   -0.000007 0.000008 4.427393 -0.170845 -3.146734 -0.030170
  3   18.465939 0.000000 0.000000 0.000000 0.000000 -0.464808
  4   14.875443 0.000000 0.000000 0.018290 0.016543 0.418741
  5   0.000006 -0.000004 -4.427393 0.105824 3.097825 -0.379176
  6   18.465939 0.000000 0.000000 0.000000 0.000000 -0.407658
  7   14.875442 0.000000 0.000000 -0.001152 0.001338 0.026043
  8   2.255207 -0.007574 0.000003 0.078769 -0.023116 0.031237
  9   9.514223 -0.009357 0.000000 -0.009942 -0.002486 -0.060962
 10   11.752194 -0.001492 0.000000 0.000024 0.043599 0.440031
 11   -2.111792 0.863597 2.563791 0.449689 -1.415469 2.252750
 12   4.640941 0.000000 0.000000 0.493445 1.128767 0.430726
 13   10.828045 0.000000 0.000000 0.000000 0.000000 -0.770083
 14   9.393338 -0.000001 0.000000 -1.293111 0.034883 0.003651
 15   1.442243 0.107453 -1.746178 1.684110 0.504083 0.321226
 16   1.063450 0.000000 -0.000001 0.000000 0.000000 0.199056
 17   1.376307 -0.000001 0.000001 0.000000 0.000000 0.199049
 18   4.172845 -0.251366 -1.312745 -0.001250 0.096055 0.051605
 19   1.215373 0.000001 -0.000001 0.000000 0.000000 0.549104
 20   1.215371 -0.000002 0.000000 0.000000 0.000000 0.549104
 21   4.220532 -0.244855 -0.431465 0.002447 0.026158 0.190778
 22   1.350417 0.000000 0.000001 0.000000 0.000000 0.906359
 23   1.350409 0.000000 -0.000001 0.000000 0.000000 0.906359
 24   -1.885222 0.863610 -2.731758 -0.871263 1.443694 1.837068
 25   4.640942 0.000000 0.000000 -0.517915 -1.174182 0.372126
 26   10.828048 0.000000 0.000001 0.000000 0.000000 -0.241174
 27   9.393336 -0.000001 0.000000 1.569611 -0.034192 0.000001
 28   1.442244 0.107454 1.746178 -1.686405 -0.539236 0.325898
 29   1.063451 -0.000001 0.000000 0.000000 0.000000 0.199056
 30   1.376307 -0.000001 0.000000 0.000000 0.000000 0.199059
 31   4.172846 -0.251365 1.312745 -0.008050 -0.095731 0.148659
 32   1.215374 0.000001 -0.000001 0.000000 0.000000 0.645746
 33   1.215373 0.000000 0.000001 0.000000 0.000000 0.645746
 34   4.220533 -0.244853 0.431466 -0.001333 -0.026242 0.148339
 35   1.350415 -0.000001 -0.000001 0.000000 0.000000 0.863937
 36   1.350410 -0.000001 0.000001 0.000000 0.000000 0.863925
 37   2.110541 -0.000001 0.000000 0.049565 -0.012868 -0.162240
 38   0.891923 2.373050 -0.014527 -3.141592 -0.000001 1.413797
 39   7.228119 5.709445 3.726568 3.140796 -1.570796 0.000000
 40   2.450426 5.076127 0.001325 3.149656 -1.570796 0.000000
 41   6.312405 -4.528058 0.001311 3.140791 -1.570796 0.000000
 42   2.233309 1.152535 -7.309138 -1.152504 -1.536108 -0.886077
 43   4.262825 -0.232720 -1.392178 0.016840 0.076668 0.253759
time 2
  0   1.727579 6.480145 38.116730 0.000000 0.000000 -1.701715
  1   -0.831729 -0.320322 0.000000 -1.570795 -1.570451 0.000000
  2   -0.000007 0.000008 4.427393 -0.170941 -3.141526 -0.060289
  3   18.465939 0.000000 0.000000 0.000000 0.000000 -0.511231
  4   14.875443 0.000000 0.000000 0.018290 0.016564 0.434503
  5   0.000006 -0.000004 -4.427393 0.105441 3.098973 -0.397426
  6   18.465939 0.000000 0.000000 0.000000 0.000000 -0.423542
  7   14.875442 0.000000 0.000000 -0.000415 -0.001633 0.023942
  8   2.255207 -0.007574 0.000003 0.034931 -0.027280 0.064324
  9   9.514223 -0.009357 0.000000 -0.010993 -0.007338 -0.023315
 10   11.752194 -0.001492 0.000000 0.000024 0.043599 0.440031
 11   -2.111792 0.863597 2.563791 0.147473 -1.424912 2.553648
 12   4.640941 0.000000 0.000000 0.224694 1.132736 0.111870
 13   10.828045 0.000000 0.000000 0.000000 0.000000 -1.092594
 14   9.393338 -0.000001 0.000000 -1.002975 0.034959 0.008975
 15   1.442243 0.107453 -1.746178 1.681917 0.467210 0.316526
 16   1.063450 0.000000 -0.000001 0.000000 0.000000 0.199056
 17   1.376307 -0.000001 0.000001 0.000000 0.000000 0.199049
 18   4.172845 -0.251366 -1.312745 -0.010993 0.095444 -0.050258
 19   1.215373 0.000001 -0.000001 0.000000 0.000000 0.447673
 20   1.215371 -0.000002 0.000000 0.000000 0.000000 0.447673
 21   4.220532 -0.244855 -0.431465 0.003610 0.026026 0.235300
 22   1.350417 0.000000 0.000001 0.000000 0.000000 0.950874
 23   1.350409 0.000000 -0.000001 0.000000 0.000000 0.950874
 24   -1.885222 0.863610 -2.731758 -0.809983 1.424387 1.899970
 25   4.640942 0.000000 0.000000 -0.430719 -1.154446 0.233889
 26   10.828048 0.000000 0.000001 0.000000 0.000000 -0.248183
 27   9.393336 -0.000001 0.000000 1.569611 -0.034192 0.000001
 28   1.442244 0.107454 1.746178 -1.686405 -0.539236 0.325898
 29   1.063451 -0.000001 0.000000 0.000000 0.000000 0.199056
 30   1.376307 -0.000001 0.000000 0.000000 0.000000 0.199059
 31   4.172846 -0.251365 1.312745 -0.008050 -0.095731 0.148659
 32   1.215374 0.000001 -0.000001 0.000000 0.000000 0.645746
 33   1.215373 0.000000 0.000001 0.000000 0.000000 0.645746
 34   4.220533 -0.244853 0.431466 -0.001333 -0.026242 0.148339
 35   1.350415 -0.000001 -0.000001 0.000000 0.000000 0.863937
 36   1.350410 -0.000001 0.000001 0.000000 0.000000 0.863925
 37   2.110541 -0.000001 0.000000 0.096250 -0.019002 -0.173824
 38   0.891923 2.373050 -0.014527 -3.141592 -0.000001 1.413797
 39   7.228119 5.709445 3.726568 3.140796 -1.570796 0.000000
 40   2.450426 5.076127 0.001325 3.158520 -1.570796 0.000000
 41   6.312405 -4.528058 0.001311 3.140791 -1.570796 0.000000
 42   2.233309 1.152535 -7.309138 -1.166693 -1.536341 -0.887896
 43   4.262825 -0.232720 -1.392178 0.016840 0.076668 0.253759
time 3
  0   1.727579 6.311196 37.990673 0.000000 0.000000 -1.701715
  1   -1.316119 -0.375011 0.000000 -1.570795 -1.570451 0.000000
  2   -0.000007 0.000008 4.427393 -0.171037 -3.137549 -0.087454
  3   18.465939 0.000000 0.000000 0.000000 0.000000 -0.553049
  4   14.875443 0.000000 0.000000 0.018396 0.017267 0.448882
  5   0.000006 -0.000004 -4.427393 0.104962 3.099164 -0.415581
  6   18.465939 0.000000 0.000000 0.000000 0.000000 -0.441264
  7   14.875442 0.000000 0.000000 0.000217 -0.003634 0.023679
  8   2.255207 -0.007574 0.000003 -0.008274 -0.030265 0.097048
  9   9.514223 -0.009357 0.000000 -0.012756 -0.012056 0.008919
 10   11.752194 -0.001492 0.000000 0.000024 0.043599 0.440031
 11   -2.111792 0.863597 2.563791 -0.150360 -1.418692 2.849951
 12   4.640941 0.000000 0.000000 -0.030088 1.101780 -0.193522
 13   10.828045 0.000000 0.000000 0.000000 0.000000 -1.369285
 14   9.393338 -0.000001 0.000000 -0.740112 0.033278 0.010684
 15   1.442243 0.107453 -1.746178 1.680131 0.433820 0.312421
 16   1.063450 0.000000 -0.000001 0.000000 0.000000 0.199056
 17   1.376307 -0.000001 0.000001 0.000000 0.000000 0.199049
 18   4.172845 -0.251366 -1.312745 -0.019730 0.094030 -0.142504
 19   1.215373 0.000001 -0.000001 0.000000 0.000000 0.355837
 20   1.215371 -0.000002 0.000000 0.000000 0.000000 0.355837
 21   4.220532 -0.244855 -0.431465 0.004652 0.025858 0.275657
 22   1.350417 0.000000 0.000001 0.000000 0.000000 0.991183
 23   1.350409 0.000000 -0.000001 0.000000 0.000000 0.991183
 24   -1.885222 0.863610 -2.731758 -0.776751 1.406957 1.935010
 25   4.640942 0.000000 0.000000 -0.367013 -1.129061 0.119379
 26   10.828048 0.000000 0.000001 0.000000 0.000000 -0.254998
 27   9.393336 -0.000001 0.000000 1.569611 -0.034192 0.000001
 28   1.442244 0.107454 1.746178 -1.686405 -0.539236 0.325898
 29   1.063451 -0.000001 0.000000 0.000000 0.000000 0.199056
 30   1.376307 -0.000001 0.000000 0.000000 0.000000 0.199059
 31   4.172846 -0.251365 1.312745 -0.008050 -0.095731 0.148659
 32   1.215374 0.000001 -0.000001 0.000000 0.000000 0.645746
 33   1.215373 0.000000 0.000001 0.000000 0.000000 0.645746
 34   4.220533 -0.244853 0.431466 -0.001333 -0.026242 0.148339
 35   1.350415 -0.000001 -0.000001 0.000000 0.000000 0.863937
 36   1.350410 -0.000001 0.000001 0.000000 0.000000 0.863925
 37   2.110541 -0.000001 0.000000 0.141753 -0.028534 -0.181216
 38   0.891923 2.373050 -0.014527 -3.141592 -0.000001 1.413797
 39   7.228119 5.709445 3.726568 3.140796 -1.570796 0.000000
 40   2.450426 5.076127 0.001325 3.140791 -1.570796 0.000000
 41   6.312405 -4.528058 0.001311 3.140791 -1.570796 0.000000
 42   2.233309 1.152535 -7.309138 -1.181458 -1.536574 -0.889715
 43   4.262825 -0.232720 -1.392178 0.016840 0.076668 0.253759
time 4
  0   1.727579 6.142247 37.864620 0.000000 0.000000 -1.701715
  1   -1.730194 -0.410169 0.000000 -1.570795 -1.570451 0.000000
  2   -0.000007 0.000008 4.427393 -0.171132 -3.134519 -0.110043
  3   18.465939 0.000000 0.000000 0.000000 0.000000 -0.588725
  4   14.875443 0.000000 0.000000 0.018503 0.018139 0.461761
  5   0.000006 -0.000004 -4.427393 0.104387 3.098782 -0.432333
  6   18.465939 0.000000 0.000000 0.000000 0.000000 -0.460430
  7   14.875442 0.000000 0.000000 0.000638 -0.004937 0.026118
  8   2.255207 -0.007574 0.000003 -0.049833 -0.032543 0.128481
  9   9.514223 -0.009357 0.000000 -0.015945 -0.016504 0.027667
 10   11.752194 -0.001492 0.000000 0.000024 0.043599 0.440031
 11   -2.111792 0.863597 2.563791 -0.369875 -1.398270 3.067750
 12   4.640941 0.000000 0.000000 -0.241972 1.039508 -0.458054
 13   10.828045 0.000000 0.000000 0.000000 0.000000 -1.531638
 14   9.393338 -0.000001 0.000000 -0.545429 0.031291 0.003602
 15   1.442243 0.107453 -1.746178 1.678921 0.409123 0.309486
 16   1.063450 0.000000 -0.000001 0.000000 0.000000 0.199056
 17   1.376307 -0.000001 0.000001 0.000000 0.000000 0.199049
 18   4.172845 -0.251366 -1.312745 -0.026070 0.092472 -0.210666
 19   1.215373 0.000001 -0.000001 0.000000 0.000000 0.287971
 20   1.215371 -0.000002 0.000000 0.000000 0.000000 0.287971
 21   4.220532 -0.244855 -0.431465 0.005420 0.025703 0.305485
 22   1.350417 0.000000 0.000001 0.000000 0.000000 1.020996
 23   1.350409 0.000000 -0.000001 0.000000 0.000000 1.020996
 24   -1.885222 0.863610 -2.731758 -0.780731 1.395155 1.932276
 25   4.640942 0.000000 0.000000 -0.342679 -1.106953 0.044626
 26   10.828048 0.000000 0.000001 0.000000 0.000000 -0.261621
 27   9.393336 -0.000001 0.000000 1.569611 -0.034192 0.000001
 28   1.442244 0.107454 1.746178 -1.686405 -0.539236 0.325898
 29   1.063451 -0.000001 0.000000 0.000000 0.000000 0.199056
 30   1.376307 -0.000001 0.000000 0.000000 0.000000 0.199059
 31   4.172846 -0.251365 1.312745 -0.008050 -0.095731 0.148659
 32   1.215374 0.000001 -0.000001 0.000000 0.000000 0.645746
 33   1.215373 0.000000 0.000001 0.000000 0.000000 0.645746
 34   4.220533 -0.244853 0.431466 -0.001333 -0.026242 0.148339
 35   1.350415 -0.000001 -0.000001 0.000000 0.000000 0.863937
 36   1.350410 -0.000001 0.000001 0.000000 0.000000 0.863925
 37   2.110541 -0.000001 0.000000 0.185663 -0.040892 -0.177167
 38   0.891923 2.373050 -0.014527 -3.141592 -0.000001 1.413797
 39   7.228119 5.709445 3.726568 3.140796 -1.570796 0.000000
 40   2.450426 5.076127 0.001325 3.077335 -1.570796 0.000000
 41   6.312405 -4.528058 0.001311 3.140791 -1.570796 0.000000
 42   2.233309 1.152535 -7.309138 -1.195359 -1.536807 -0.891247
 43   4.262825 -0.232720 -1.392178 0.016840 0.076668 0.253759
time 5
  0   1.727579 5.991082 37.738567 0.000000 0.000000 -1.701715
  1   -2.054423 -0.460952 0.000000 -1.570795 -1.570451 0.000000
  2   -0.000007 0.000008 4.427393 -0.170941 -3.131584 -0.127391
  3   18.465939 0.000000 0.000000 0.000000 0.000000 -0.617602
  4   14.875443 0.000000 0.000000 0.018503 0.018203 0.472980
  5   0.000006 -0.000004 -4.427393 0.103908 3.098782 -0.446933
  6   18.465939 0.000000 0.000000 0.000000 0.000000 -0.479727
  7   14.875442 0.000000 0.000000 0.001094 -0.006392 0.030957
  8   2.255207 -0.007574 0.000003 -0.094557 -0.035489 0.162230
  9   9.514223 -0.009357 0.000000 -0.024124 -0.021061 0.017903
 10   11.752194 -0.001492 0.000000 0.000024 0.043599 0.440031
 11   -2.111792 0.863597 2.563791 -0.492400 -1.364048 3.187802
 12   4.640941 0.000000 0.000000 -0.436721 0.932354 -0.715152
 13   10.828045 0.000000 0.000000 0.000000 0.000000 -1.449272
 14   9.393338 -0.000001 0.000000 -0.478446 0.029534 -0.020721
 15   1.442243 0.107453 -1.746178 1.678537 0.400862 0.308501
 16   1.063450 0.000000 -0.000001 0.000000 0.000000 0.199056
 17   1.376307 -0.000001 0.000001 0.000000 0.000000 0.199049
 18   4.172845 -0.251366 -1.312745 -0.028167 0.091848 -0.233507
 19   1.215373 0.000001 -0.000001 0.000000 0.000000 0.265227
 20   1.215371 -0.000002 0.000000 0.000000 0.000000 0.265227
 21   4.220532 -0.244855 -0.431465 0.005671 0.025655 0.315454
 22   1.350417 0.000000 0.000001 0.000000 0.000000 1.030961
 23   1.350409 0.000000 -0.000001 0.000000 0.000000 1.030961
 24   -1.885222 0.863610 -2.731758 -0.879501 1.392341 1.834248
 25   4.640942 0.000000 0.000000 -0.384333 -1.103118 0.029717
 26   10.828048 0.000000 0.000001 0.000000 0.000000 -0.268629
 27   9.393336 -0.000001 0.000000 1.569611 -0.034192 0.000001
 28   1.442244 0.107454 1.746178 -1.686405 -0.539236 0.325898
 29   1.063451 -0.000001 0.000000 0.000000 0.000000 0.199056
 30   1.376307 -0.000001 0.000000 0.000000 0.000000 0.199059
 31   4.172846 -0.251365 1.312745 -0.008050 -0.095731 0.148659
 32   1.215374 0.000001 -0.000001 0.000000 0.000000 0.645746
 33   1.215373 0.000000 0.000001 0.000000 0.000000 0.645746
 34   4.220533 -0.244853 0.431466 -0.001333 -0.026242 0.148339
 35   1.350415 -0.000001 -0.000001 0.000000 0.000000 0.863937
 36   1.350410 -0.000001 0.000001 0.000000 0.000000 0.863925
 37   2.110541 -0.000001 0.000000 0.235896 -0.058182 -0.144112
 38   0.891923 2.373050 -0.014527 -3.141592 -0.000001 1.413797
 39   7.228119 5.709445 3.726568 3.140796 -1.570796 0.000000
 40   2.450426 5.076127 0.001325 2.988075 -1.570796 0.000000
 41   6.312405 -4.528058 0.001311 3.140791 -1.570796 0.000000
 42   2.233309 1.152535 -7.309138 -1.207056 -1.536982 -0.892492
 43   4.262825 -0.232720 -1.392178 0.016840 0.076668 0.253759
time 6
  0   1.727579 5.866593 37.644024 0.000000 0.000000 -1.701715
  1   -2.280992 -0.519547 0.000000 -1.570795 -1.570451 0.000000
  2   -0.000007 0.000008 4.427393 -0.170557 -3.128743 -0.139686
  3   18.465939 0.000000 0.000000 0.000000 0.000000 -0.639242
  4   14.875443 0.000000 0.000000 0.018396 0.017437 0.482026
  5   0.000006 -0.000004 -4.427393 0.103716 3.099260 -0.458257
  6   18.465939 0.000000 0.000000 0.000000 0.000000 -0.496858
  7   14.875442 0.000000 0.000000 0.001621 -0.008059 0.036810
  8   2.255207 -0.007574 0.000003 -0.136834 -0.038140 0.194193
  9   9.514223 -0.009357 0.000000 -0.034028 -0.025576 -0.010997
 10   11.752194 -0.001492 0.000000 0.000024 0.043599 0.440031
 11   -2.111792 0.863597 2.563791 -0.542992 -1.325797 3.235096
 12   4.640941 0.000000 0.000000 -0.557159 0.798791 -0.910142
 13   10.828045 0.000000 0.000000 0.000000 0.000000 -1.204124
 14   9.393338 -0.000001 0.000000 -0.508390 0.027012 -0.056766
 15   1.442243 0.107453 -1.746178 1.678729 0.404999 0.308993
 16   1.063450 0.000000 -0.000001 0.000000 0.000000 0.199056
 17   1.376307 -0.000001 0.000001 0.000000 0.000000 0.199049
 18   4.172845 -0.251366 -1.312745 -0.027125 0.092172 -0.222086
 19   1.215373 0.000001 -0.000001 0.000000 0.000000 0.276620
 20   1.215371 -0.000002 0.000000 0.000000 0.000000 0.276620
 21   4.220532 -0.244855 -0.431465 0.005551 0.025679 0.310450
 22   1.350417 0.000000 0.000001 0.000000 0.000000 1.025978
 23   1.350409 0.000000 -0.000001 0.000000 0.000000 1.025978
 24   -1.885222 0.863610 -2.731758 -1.026870 1.394005 1.686479
 25   4.640942 0.000000 0.000000 -0.464770 -1.113299 0.053165
 26   10.828048 0.000000 0.000001 0.000000 0.000000 -0.275316
 27   9.393336 -0.000001 0.000000 1.569611 -0.034192 0.000001
 28   1.442244 0.107454 1.746178 -1.686405 -0.539236 0.325898
 29   1.063451 -0.000001 0.000000 0.000000 0.000000 0.199056
 30   1.376307 -0.000001 0.000000 0.000000 0.000000 0.199059
 31   4.172846 -0.251365 1.312745 -0.008050 -0.095731 0.148659
 32   1.215374 0.000001 -0.000001 0.000000 0.000000 0.645746
 33   1.215373 0.000000 0.000001 0.000000 0.000000 0.645746
 34   4.220533 -0.244853 0.431466 -0.001333 -0.026242 0.148339
 35   1.350415 -0.000001 -0.000001 0.000000 0.000000 0.863937
 36   1.350410 -0.000001 0.000001 0.000000 0.000000 0.863925
 37   2.110541 -0.000001 0.000000 0.284227 -0.078297 -0.094718
 38   0.891923 2.373050 -0.014527 -3.141592 -0.000001 1.413797
 39   7.228119 5.709445 3.726568 3.140796 -1.570796 0.000000
 40   2.450426 5.076127 0.001325 2.905398 -1.570796 0.000000
 41   6.312405 -4.528058 0.001311 3.140791 -1.570796 0.000000
 42   2.233309 1.152535 -7.309138 -1.215205 -1.537099 -0.893354
 43   4.262825 -0.232720 -1.392178 0.016840 0.076668 0.253759
time 7
  0   1.727579 5.786564 37.580997 0.000000 0.000000 -1.701715
  1   -2.390371 -0.554704 0.000000 -1.570795 -1.570451 0.000000
  2   -0.000007 0.000008 4.427393 -0.170366 -3.127134 -0.145882
  3   18.465939 0.000000 0.000000 0.000000 0.000000 -0.652182
  4   14.875443 0.000000 0.000000 0.018325 0.016841 0.488583
  5   0.000006 -0.000004 -4.427393 0.103524 3.099451 -0.465557
  6   18.465939 0.000000 0.000000 0.000000 0.000000 -0.510379
  7   14.875442 0.000000 0.000000 0.001901 -0.008908 0.043151
  8   2.255207 -0.007574 0.000003 -0.159745 -0.039102 0.211696
  9   9.514223 -0.009357 0.000000 -0.036467 -0.028520 -0.030697
 10   11.752194 -0.001492 0.000000 0.000024 0.043599 0.440031
 11   -2.111792 0.863597 2.563791 -0.553186 -1.300892 3.242850
 12   4.640941 0.000000 0.000000 -0.572990 0.721654 -0.991510
 13   10.828045 0.000000 0.000000 0.000000 0.000000 -1.046347
 14   9.393338 -0.000001 0.000000 -0.541006 0.026210 -0.088025
 15   1.442243 0.107453 -1.746178 1.678921 0.409123 0.309486
 16   1.063450 0.000000 -0.000001 0.000000 0.000000 0.199056
 17   1.376307 -0.000001 0.000001 0.000000 0.000000 0.199049
 18   4.172845 -0.251366 -1.312745 -0.026070 0.092472 -0.210666
 19   1.215373 0.000001 -0.000001 0.000000 0.000000 0.287971
 20   1.215371 -0.000002 0.000000 0.000000 0.000000 0.287971
 21   4.220532 -0.244855 -0.431465 0.005420 0.025703 0.305485
 22   1.350417 0.000000 0.000001 0.000000 0.000000 1.020996
 23   1.350409 0.000000 -0.000001 0.000000 0.000000 1.020996
 24   -1.885222 0.863610 -2.731758 -1.074542 1.400632 1.637935
 25   4.640942 0.000000 0.000000 -0.517070 -1.117763 0.067794
 26   10.828048 0.000000 0.000001 0.000000 0.000000 -0.278852
 27   9.393336 -0.000001 0.000000 1.569611 -0.034192 0.000001
 28   1.442244 0.107454 1.746178 -1.686405 -0.539236 0.325898
 29   1.063451 -0.000001 0.000000 0.000000 0.000000 0.199056
 30   1.376307 -0.000001 0.000000 0.000000 0.000000 0.199059
 31   4.172846 -0.251365 1.312745 -0.008050 -0.095731 0.148659
 32   1.215374 0.000001 -0.000001 0.000000 0.000000 0.645746
 33   1.215373 0.000000 0.000001 0.000000 0.000000 0.645746
 34   4.220533 -0.244853 0.431466 -0.001333 -0.026242 0.148339
 35   1.350415 -0.000001 -0.000001 0.000000 0.000000 0.863937
 36   1.350410 -0.000001 0.000001 0.000000 0.000000 0.863925
 37   2.110541 -0.000001 0.000000 0.307261 -0.089332 -0.064724
 38   0.891923 2.373050 -0.014527 -3.141592 -0.000001 1.413797
 39   7.228119 5.709445 3.726568 3.140796 -1.570796 0.000000
 40   2.450426 5.076127 0.001325 2.861602 -1.570796 0.000000
 41   6.312405 -4.528058 0.001311 3.140791 -1.570796 0.000000
 42   2.233309 1.152535 -7.309138 -1.218177 -1.537157 -0.893641
 43   4.262825 -0.232720 -1.392178 0.016840 0.076668 0.253759
time 8
  0   1.727579 5.750996 37.565243 0.000000 0.000000 -1.701715
  1   -2.343494 -0.542985 0.000000 -1.570795 -1.570451 0.000000
  2   -0.000007 0.000008 4.427393 -0.170366 -3.127418 -0.144261
  3   18.465939 0.000000 0.000000 0.000000 0.000000 -0.654375
  4   14.875443 0.000000 0.000000 0.018325 0.016905 0.492415
  5   0.000006 -0.000004 -4.427393 0.103333 3.098495 -0.467615
  6   18.465939 0.000000 0.000000 0.000000 0.000000 -0.520159
  7   14.875442 0.000000 0.000000 0.001691 -0.008181 0.050692
  8   2.255207 -0.007574 0.000003 -0.150505 -0.038356 0.205377
  9   9.514223 -0.009357 0.000000 -0.023111 -0.028668 -0.025913
 10   11.752194 -0.001492 0.000000 0.000024 0.043599 0.440031
 11   -2.111792 0.863597 2.563791 -0.525080 -1.297745 3.214608
 12   4.640941 0.000000 0.000000 -0.469624 0.758599 -0.930455
 13   10.828045 0.000000 0.000000 0.000000 0.000000 -1.119195
 14   9.393338 -0.000001 0.000000 -0.532253 0.033240 -0.112544
 15   1.442243 0.107453 -1.746178 1.678837 0.407203 0.309240
 16   1.063450 0.000000 -0.000001 0.000000 0.000000 0.199056
 17   1.376307 -0.000001 0.000001 0.000000 0.000000 0.199049
 18   4.172845 -0.251366 -1.312745 -0.026561 0.092328 -0.215996
 19   1.215373 0.000001 -0.000001 0.000000 0.000000 0.282663
 20   1.215371 -0.000002 0.000000 0.000000 0.000000 0.282663
 21   4.220532 -0.244855 -0.431465 0.005479 0.025691 0.307807
 22   1.350417 0.000000 0.000001 0.000000 0.000000 1.023324
 23   1.350409 0.000000 -0.000001 0.000000 0.000000 1.023324
 24   -1.885222 0.863610 -2.731758 -0.859877 1.419424 1.850742
 25   4.640942 0.000000 0.000000 -0.506509 -1.103815 0.048616
 26   10.828048 0.000000 0.000001 0.000000 0.000000 -0.277438
 27   9.393336 -0.000001 0.000000 1.569611 -0.034192 0.000001
 28   1.442244 0.107454 1.746178 -1.686405 -0.539236 0.325898
 29   1.063451 -0.000001 0.000000 0.000000 0.000000 0.199056
 30   1.376307 -0.000001 0.000000 0.000000 0.000000 0.199059
 31   4.172846 -0.251365 1.312745 -0.008050 -0.095731 0.148659
 32   1.215374 0.000001 -0.000001 0.000000 0.000000 0.645746
 33   1.215373 0.000000 0.000001 0.000000 0.000000 0.645746
 34   4.220533 -0.244853 0.431466 -0.001333 -0.026242 0.148339
 35   1.350415 -0.000001 -0.000001 0.000000 0.000000 0.863937
 36   1.350410 -0.000001 0.000001 0.000000 0.000000 0.863925
 37   2.110541 -0.000001 0.000000 0.286695 -0.079470 -0.073953
 38   0.891923 2.373050 -0.014527 -3.141592 -0.000001 1.413797
 39   7.228119 5.709445 3.726568 3.140796 -1.570796 0.000000
 40   2.450426 5.076127 0.001325 2.866166 -1.570796 0.000000
 41   6.312405 -4.528058 0.001311 3.140791 -1.570796 0.000000
 42   2.233309 1.152535 -7.309138 -1.217506 -1.537157 -0.893641
 43   4.262825 -0.232720 -1.392178 0.016840 0.076668 0.253759
time 9
  0   1.727579 5.759888 37.565243 0.000000 0.000000 -1.701715
  1   -2.175520 -0.511734 0.000000 -1.570795 -1.570451 0.000000
  2   -0.000007 0.000008 4.427393 -0.170557 -3.128933 -0.136827
  3   18.465939 0.000000 0.000000 0.000000 0.000000 -0.648381
  4   14.875443 0.000000 0.000000 0.018361 0.017054 0.494074
  5   0.000006 -0.000004 -4.427393 0.103045 3.097155 -0.465837
  6   18.465939 0.000000 0.000000 0.000000 0.000000 -0.526789
  7   14.875442 0.000000 0.000000 0.001305 -0.006695 0.059096
  8   2.255207 -0.007574 0.000003 -0.121814 -0.036667 0.184598
  9   9.514223 -0.009357 0.000000 -0.002401 -0.027229 -0.011928
 10   11.752194 -0.001492 0.000000 0.000024 0.043599 0.440031
 11   -2.111792 0.863597 2.563791 -0.465151 -1.307414 3.156305
 12   4.640941 0.000000 0.000000 -0.280028 0.840642 -0.762978
 13   10.828045 0.000000 0.000000 0.000000 0.000000 -1.279352
 14   9.393338 -0.000001 0.000000 -0.526449 0.043173 -0.132325
 15   1.442243 0.107453 -1.746178 1.678741 0.405270 0.309014
 16   1.063450 0.000000 -0.000001 0.000000 0.000000 0.199056
 17   1.376307 -0.000001 0.000001 0.000000 0.000000 0.199049
 18   4.172845 -0.251366 -1.312745 -0.027053 0.092184 -0.221325
 19   1.215373 0.000001 -0.000001 0.000000 0.000000 0.277355
 20   1.215371 -0.000002 0.000000 0.000000 0.000000 0.277355
 21   4.220532 -0.244855 -0.431465 0.005539 0.025679 0.310129
 22   1.350417 0.000000 0.000001 0.000000 0.000000 1.025651
 23   1.350409 0.000000 -0.000001 0.000000 0.000000 1.025651
 24   -1.885222 0.863610 -2.731758 -0.464426 1.427383 2.242683
 25   4.640942 0.000000 0.000000 -0.472543 -1.084706 0.025168
 26   10.828048 0.000000 0.000001 0.000000 0.000000 -0.272937
 27   9.393336 -0.000001 0.000000 1.569611 -0.034192 0.000001
 28   1.442244 0.107454 1.746178 -1.686405 -0.539236 0.325898
 29   1.063451 -0.000001 0.000000 0.000000 0.000000 0.199056
 30   1.376307 -0.000001 0.000000 0.000000 0.000000 0.199059
 31   4.172846 -0.251365 1.312745 -0.008050 -0.095731 0.148659
 32   1.215374 0.000001 -0.000001 0.000000 0.000000 0.645746
 33   1.215373 0.000000 0.000001 0.000000 0.000000 0.645746
 34   4.220533 -0.244853 0.431466 -0.001333 -0.026242 0.148339
 35   1.350415 -0.000001 -0.000001 0.000000 0.000000 0.863937
 36   1.350410 -0.000001 0.000001 0.000000 0.000000 0.863925
 37   2.110541 -0.000001 0.000000 0.241243 -0.059114 -0.102064
 38   0.891923 2.373050 -0.014527 -3.141592 -0.000001 1.413797
 39   7.228119 5.709445 3.726568 3.140796 -1.570796 0.000000
 40   2.450426 5.076127 0.001325 2.897850 -1.570796 0.000000
 41   6.312405 -4.528058 0.001311 3.140791 -1.570796 0.000000
 42   2.233309 1.152535 -7.309138 -1.215588 -1.537128 -0.893449
 43   4.262825 -0.232720 -1.392178 0.016840 0.076668 0.253759
time 10
  0   1.727579 5.795456 37.596756 0.000000 0.000000 -1.701715
  1   -1.984108 -0.484390 0.000000 -1.570795 -1.570451 0.000000
  2   -0.000007 0.000008 4.427393 -0.170557 -3.130258 -0.127963
  3   18.465939 0.000000 0.000000 0.000000 0.000000 -0.639388
  4   14.875443 0.000000 0.000000 0.018325 0.016862 0.493995
  5   0.000006 -0.000004 -4.427393 0.103045 3.096294 -0.462281
  6   18.465939 0.000000 0.000000 0.000000 0.000000 -0.530267
  7   14.875442 0.000000 0.000000 0.000954 -0.005483 0.065999
  8   2.255207 -0.007574 0.000003 -0.094979 -0.035351 0.164745
  9   9.514223 -0.009357 0.000000 0.009342 -0.025267 -0.006256
 10   11.752194 -0.001492 0.000000 0.000024 0.043599 0.440031
 11   -2.111792 0.863597 2.563791 -0.401793 -1.320635 3.094843
 12   4.640941 0.000000 0.000000 -0.132088 0.895770 -0.605921
 13   10.828045 0.000000 0.000000 0.000000 0.000000 -1.347076
 14   9.393338 -0.000001 0.000000 -0.561829 0.045924 -0.137990
 15   1.442243 0.107453 -1.746178 1.678921 0.409123 0.309486
 16   1.063450 0.000000 -0.000001 0.000000 0.000000 0.199056
 17   1.376307 -0.000001 0.000001 0.000000 0.000000 0.199049
 18   4.172845 -0.251366 -1.312745 -0.026070 0.092472 -0.210666
 19   1.215373 0.000001 -0.000001 0.000000 0.000000 0.287971
 20   1.215371 -0.000002 0.000000 0.000000 0.000000 0.287971
 21   4.220532 -0.244855 -0.431465 0.005420 0.025703 0.305485
 22   1.350417 0.000000 0.000001 0.000000 0.000000 1.020996
 23   1.350409 0.000000 -0.000001 0.000000 0.000000 1.020996
 24   -1.885222 0.863610 -2.731758 -0.247909 1.423207 2.456516
 25   4.640942 0.000000 0.000000 -0.453955 -1.079337 0.027478
 26   10.828048 0.000000 0.000001 0.000000 0.000000 -0.268693
 27   9.393336 -0.000001 0.000000 1.569611 -0.034192 0.000001
 28   1.442244 0.107454 1.746178 -1.686405 -0.539236 0.325898
 29   1.063451 -0.000001 0.000000 0.000000 0.000000 0.199056
 30   1.376307 -0.000001 0.000000 0.000000 0.000000 0.199059
 31   4.172846 -0.251365 1.312745 -0.008050 -0.095731 0.148659
 32   1.215374 0.000001 -0.000001 0.000000 0.000000 0.645746
 33   1.215373 0.000000 0.000001 0.000000 0.000000 0.645746
 34   4.220533 -0.244853 0.431466 -0.001333 -0.026242 0.148339
 35   1.350415 -0.000001 -0.000001 0.000000 0.000000 0.863937
 36   1.350410 -0.000001 0.000001 0.000000 0.000000 0.863925
 37   2.110541 -0.000001 0.000000 0.205046 -0.044560 -0.121652
 38   0.891923 2.373050 -0.014527 -3.141592 -0.000001 1.413797
 39   7.228119 5.709445 3.726568 3.140796 -1.570796 0.000000
 40   2.450426 5.076127 0.001325 2.942962 -1.570796 0.000000
 41   6.312405 -4.528058 0.001311 3.140791 -1.570796 0.000000
 42   2.233309 1.152535 -7.309138 -1.212425 -1.537069 -0.893066
 43   4.262825 -0.232720 -1.392178 0.016840 0.076668 0.253759
time 11
  0   1.727579 5.839917 37.628269 0.000000 0.000000 -1.701715
  1   -1.812228 -0.472671 0.000000 -1.570795 -1.570451 0.000000
  2   -0.000007 0.000008 4.427393 -0.170557 -3.131110 -0.119480
  3   18.465939 0.000000 0.000000 0.000000 0.000000 -0.628788
  4   14.875443 0.000000 0.000000 0.018254 0.016373 0.491862
  5   0.000006 -0.000004 -4.427393 0.103141 3.096103 -0.457602
  6   18.465939 0.000000 0.000000 0.000000 0.000000 -0.528955
  7   14.875442 0.000000 0.000000 0.000708 -0.004876 0.069338
  8   2.255207 -0.007574 0.000003 -0.076246 -0.034939 0.150517
  9   9.514223 -0.009357 0.000000 0.010730 -0.023144 -0.011062
 10   11.752194 -0.001492 0.000000 0.000024 0.043599 0.440031
 11   -2.111792 0.863597 2.563791 -0.346056 -1.332923 3.040656
 12   4.640941 0.000000 0.000000 -0.073235 0.929973 -0.515421
 13   10.828045 0.000000 0.000000 0.000000 0.000000 -1.303147
 14   9.393338 -0.000001 0.000000 -0.632774 0.041645 -0.132325
 15   1.442243 0.107453 -1.746178 1.679352 0.418148 0.310553
 16   1.063450 0.000000 -0.000001 0.000000 0.000000 0.199056
 17   1.376307 -0.000001 0.000001 0.000000 0.000000 0.199049
 18   4.172845 -0.251366 -1.312745 -0.023769 0.093095 -0.185781
 19   1.215373 0.000001 -0.000001 0.000000 0.000000 0.312757
 20   1.215371 -0.000002 0.000000 0.000000 0.000000 0.312757
 21   4.220532 -0.244855 -0.431465 0.005144 0.025763 0.294555
 22   1.350417 0.000000 0.000001 0.000000 0.000000 1.010091
 23   1.350409 0.000000 -0.000001 0.000000 0.000000 1.010091
 24   -1.885222 0.863610 -2.731758 -0.233006 1.425810 2.471130
 25   4.640942 0.000000 0.000000 -0.456743 -1.087566 0.054355
 26   10.828048 0.000000 0.000001 0.000000 0.000000 -0.265736
 27   9.393336 -0.000001 0.000000 1.569611 -0.034192 0.000001
 28   1.442244 0.107454 1.746178 -1.686405 -0.539236 0.325898
 29   1.063451 -0.000001 0.000000 0.000000 0.000000 0.199056
 30   1.376307 -0.000001 0.000000 0.000000 0.000000 0.199059
 31   4.172846 -0.251365 1.312745 -0.008050 -0.095731 0.148659
 32   1.215374 0.000001 -0.000001 0.000000 0.000000 0.645746
 33   1.215373 0.000000 0.000001 0.000000 0.000000 0.645746
 34   4.220533 -0.244853 0.431466 -0.001333 -0.026242 0.148339
 35   1.350415 -0.000001 -0.000001 0.000000 0.000000 0.863937
 36   1.350410 -0.000001 0.000001 0.000000 0.000000 0.863925
 37   2.110541 -0.000001 0.000000 0.185817 -0.037434 -0.126549
 38   0.891923 2.373050 -0.014527 -3.141592 -0.000001 1.413797
 39   7.228119 5.709445 3.726568 3.140796 -1.570796 0.000000
 40   2.450426 5.076127 0.001325 2.987636 -1.570796 0.000000
 41   6.312405 -4.528058 0.001311 3.140791 -1.570796 0.000000
 42   2.233309 1.152535 -7.309138 -1.208398 -1.537011 -0.892683
 43   4.262825 -0.232720 -1.392178 0.016840 0.076668 0.253759
time 12
  0   1.727579 5.902161 37.675541 0.000000 0.000000 -1.701715
  1   -1.636441 -0.457045 0.000000 -1.570795 -1.570451 0.000000
  2   -0.000007 0.000008 4.427393 -0.170462 -3.132247 -0.110615
  3   18.465939 0.000000 0.000000 0.000000 0.000000 -0.616067
  4   14.875443 0.000000 0.000000 0.018183 0.015947 0.488149
  5   0.000006 -0.000004 -4.427393 0.103333 3.096103 -0.451706
  6   18.465939 0.000000 0.000000 0.000000 0.000000 -0.524426
  7   14.875442 0.000000 0.000000 0.000497 -0.004300 0.070614
  8   2.255207 -0.007574 0.000003 -0.057681 -0.034369 0.136422
  9   9.514223 -0.009357 0.000000 0.011143 -0.020940 -0.016799
 10   11.752194 -0.001492 0.000000 0.000024 0.043599 0.440031
 11   -2.111792 0.863597 2.563791 -0.284508 -1.344935 2.980534
 12   4.640941 0.000000 0.000000 -0.014940 0.961434 -0.422756
 13   10.828045 0.000000 0.000000 0.000000 0.000000 -1.249151
 14   9.393338 -0.000001 0.000000 -0.708233 0.037175 -0.124803
 15   1.442243 0.107453 -1.746178 1.679831 0.427800 0.311703
 16   1.063450 0.000000 -0.000001 0.000000 0.000000 0.199056
 17   1.376307 -0.000001 0.000001 0.000000 0.000000 0.199049
 18   4.172845 -0.251366 -1.312745 -0.021276 0.093682 -0.159133
 19   1.215373 0.000001 -0.000001 0.000000 0.000000 0.339299
 20   1.215371 -0.000002 0.000000 0.000000 0.000000 0.339299
 21   4.220532 -0.244855 -0.431465 0.004832 0.025823 0.282904
 22   1.350417 0.000000 0.000001 0.000000 0.000000 0.998452
 23   1.350409 0.000000 -0.000001 0.000000 0.000000 0.998452
 24   -1.885222 0.863610 -2.731758 -0.236986 1.429380 2.467028
 25   4.640942 0.000000 0.000000 -0.461474 -1.096702 0.084452
 26   10.828048 0.000000 0.000001 0.000000 0.000000 -0.262842
 27   9.393336 -0.000001 0.000000 1.569611 -0.034192 0.000001
 28   1.442244 0.107454 1.746178 -1.686405 -0.539236 0.325898
 29   1.063451 -0.000001 0.000000 0.000000 0.000000 0.199056
 30   1.376307 -0.000001 0.000000 0.000000 0.000000 0.199059
 31   4.172846 -0.251365 1.312745 -0.008050 -0.095731 0.148659
 32   1.215374 0.000001 -0.000001 0.000000 0.000000 0.645746
 33   1.215373 0.000000 0.000001 0.000000 0.000000 0.645746
 34   4.220533 -0.244853 0.431466 -0.001333 -0.026242 0.148339
 35   1.350415 -0.000001 -0.000001 0.000000 0.000000 0.863937
 36   1.350410 -0.000001 0.000001 0.000000 0.000000 0.863925
 37   2.110541 -0.000001 0.000000 0.167513 -0.031330 -0.130598
 38   0.891923 2.373050 -0.014527 -3.141592 -0.000001 1.413797
 39   7.228119 5.709445 3.726568 3.140796 -1.570796 0.000000
 40   2.450426 5.076127 0.001325 3.018004 -1.570796 0.000000
 41   6.312405 -4.528058 0.001311 3.140791 -1.570796 0.000000
 42   2.233309 1.152535 -7.309138 -1.203508 -1.536924 -0.892109
 43   4.262825 -0.232720 -1.392178 0.016840 0.076668 0.253759
time 13
  0   1.727579 5.973298 37.722809 0.000000 0.000000 -1.701715
  1   -1.456748 -0.441420 0.000000 -1.570795 -1.570451 0.000000
  2   -0.000007 0.000008 4.427393 -0.170462 -3.133478 -0.101179
  3   18.465939 0.000000 0.000000 0.000000 0.000000 -0.601519
  4   14.875443 0.000000 0.000000 0.018147 0.015628 0.483013
  5   0.000006 -0.000004 -4.427393 0.103620 3.096103 -0.444874
  6   18.465939 0.000000 0.000000 0.000000 0.000000 -0.517140
  7   14.875442 0.000000 0.000000 0.000252 -0.003694 0.070088
  8   2.255207 -0.007574 0.000003 -0.039327 -0.033623 0.122393
  9   9.514223 -0.009357 0.000000 0.010692 -0.018655 -0.023315
 10   11.752194 -0.001492 0.000000 0.000024 0.043599 0.440031
 11   -2.111792 0.863597 2.563791 -0.216100 -1.356443 2.913519
 12   4.640941 0.000000 0.000000 0.043851 0.990369 -0.327281
 13   10.828045 0.000000 0.000000 0.000000 0.000000 -1.186431
 14   9.393338 -0.000001 0.000000 -0.787562 0.032819 -0.115523
 15   1.442243 0.107453 -1.746178 1.680347 0.437994 0.312934
 16   1.063450 0.000000 -0.000001 0.000000 0.000000 0.199056
 17   1.376307 -0.000001 0.000001 0.000000 0.000000 0.199049
 18   4.172845 -0.251366 -1.312745 -0.018640 0.094245 -0.130963
 19   1.215373 0.000001 -0.000001 0.000000 0.000000 0.367352
 20   1.215371 -0.000002 0.000000 0.000000 0.000000 0.367352
 21   4.220532 -0.244855 -0.431465 0.004521 0.025882 0.270613
 22   1.350417 0.000000 0.000001 0.000000 0.000000 0.986159
 23   1.350409 0.000000 -0.000001 0.000000 0.000000 0.986159
 24   -1.885222 0.863610 -2.731758 -0.258554 1.433708 2.445576
 25   4.640942 0.000000 0.000000 -0.468149 -1.106535 0.117559
 26   10.828048 0.000000 0.000001 0.000000 0.000000 -0.259885
 27   9.393336 -0.000001 0.000000 1.569611 -0.034192 0.000001
 28   1.442244 0.107454 1.746178 -1.686405 -0.539236 0.325898
 29   1.063451 -0.000001 0.000000 0.000000 0.000000 0.199056
 30   1.376307 -0.000001 0.000000 0.000000 0.000000 0.199059
 31   4.172846 -0.251365 1.312745 -0.008050 -0.095731 0.148659
 32   1.215374 0.000001 -0.000001 0.000000 0.000000 0.645746
 33   1.215373 0.000000 0.000001 0.000000 0.000000 0.645746
 34   4.220533 -0.244853 0.431466 -0.001333 -0.026242 0.148339
 35   1.350415 -0.000001 -0.000001 0.000000 0.000000 0.863937
 36   1.350410 -0.000001 0.000001 0.000000 0.000000 0.863925
 37   2.110541 -0.000001 0.000000 0.149929 -0.026098 -0.133941
 38   0.891923 2.373050 -0.014527 -3.141592 -0.000001 1.413797
 39   7.228119 5.709445 3.726568 3.140796 -1.570796 0.000000
 40   2.450426 5.076127 0.001325 3.035470 -1.570796 0.000000
 41   6.312405 -4.528058 0.001311 3.140791 -1.570796 0.000000
 42   2.233309 1.152535 -7.309138 -1.197948 -1.536837 -0.891535
 43   4.262825 -0.232720 -1.392178 0.016840 0.076668 0.253759
time 14
  0   1.727579 6.053326 37.785835 0.000000 0.000000 -1.701715
  1   -1.277056 -0.421888 0.000000 -1.570795 -1.570451 0.000000
  2   -0.000007 0.000008 4.427393 -0.170462 -3.134993 -0.091362
  3   18.465939 0.000000 0.000000 0.000000 0.000000 -0.585216
  4   14.875443 0.000000 0.000000 0.018112 0.015394 0.476653
  5   0.000006 -0.000004 -4.427393 0.103908 3.096294 -0.437200
  6   18.465939 0.000000 0.000000 0.000000 0.000000 -0.507426
  7   14.875442 0.000000 0.000000 0.000041 -0.003058 0.068062
  8   2.255207 -0.007574 0.000003 -0.021142 -0.032700 0.108430
  9   9.514223 -0.009357 0.000000 0.009529 -0.016316 -0.030503
 10   11.752194 -0.001492 0.000000 0.000024 0.043599 0.440031
 11   -2.111792 0.863597 2.563791 -0.140165 -1.367221 2.838845
 12   4.640941 0.000000 0.000000 0.104194 1.016995 -0.228352
 13   10.828045 0.000000 0.000000 0.000000 0.000000 -1.116511
 14   9.393338 -0.000001 0.000000 -0.870116 0.028922 -0.104729
 15   1.442243 0.107453 -1.746178 1.680898 0.448644 0.314227
 16   1.063450 0.000000 -0.000001 0.000000 0.000000 0.199056
 17   1.376307 -0.000001 0.000001 0.000000 0.000000 0.199049
 18   4.172845 -0.251366 -1.312745 -0.015871 0.094749 -0.101550
 19   1.215373 0.000001 -0.000001 0.000000 0.000000 0.396630
 20   1.215371 -0.000002 0.000000 0.000000 0.000000 0.396630
 21   4.220532 -0.244855 -0.431465 0.004185 0.025942 0.257761
 22   1.350417 0.000000 0.000001 0.000000 0.000000 0.973295
 23   1.350409 0.000000 -0.000001 0.000000 0.000000 0.973295
 24   -1.885222 0.863610 -2.731758 -0.296600 1.438580 2.407801
 25   4.640942 0.000000 0.000000 -0.476936 -1.116786 0.153606
 26   10.828048 0.000000 0.000001 0.000000 0.000000 -0.257056
 27   9.393336 -0.000001 0.000000 1.569611 -0.034192 0.000001
 28   1.442244 0.107454 1.746178 -1.686405 -0.539236 0.325898
 29   1.063451 -0.000001 0.000000 0.000000 0.000000 0.199056
 30   1.376307 -0.000001 0.000000 0.000000 0.000000 0.199059
 31   4.172846 -0.251365 1.312745 -0.008050 -0.095731 0.148659
 32   1.215374 0.000001 -0.000001 0.000000 0.000000 0.645746
 33   1.215373 0.000000 0.000001 0.000000 0.000000 0.645746
 34   4.220533 -0.244853 0.431466 -0.001333 -0.026242 0.148339
 35   1.350415 -0.000001 -0.000001 0.000000 0.000000 0.863937
 36   1.350410 -0.000001 0.000001 0.000000 0.000000 0.863925
 37   2.110541 -0.000001 0.000000 0.132961 -0.021739 -0.136672
 38   0.891923 2.373050 -0.014527 -3.141592 -0.000001 1.413797
 39   7.228119 5.709445 3.726568 3.140796 -1.570796 0.000000
 40   2.450426 5.076127 0.001325 3.050653 -1.570796 0.000000
 41   6.312405 -4.528058 0.001311 3.140791 -1.570796 0.000000
 42   2.233309 1.152535 -7.309138 -1.191812 -1.536749 -0.890864
 43   4.262825 -0.232720 -1.392178 0.016840 0.076668 0.253759
time 15
  0   1.727579 6.142247 37.864620 0.000000 0.000000 -1.701715
  1   -1.093456 -0.394543 0.000000 -1.570795 -1.570451 0.000000
  2   -0.000007 0.000008 4.427393 -0.170557 -3.136602 -0.081163
  3   18.465939 0.000000 0.000000 0.000000 0.000000 -0.567378
  4   14.875443 0.000000 0.000000 0.018076 0.015266 0.469227
  5   0.000006 -0.000004 -4.427393 0.104195 3.096486 -0.428777
  6   18.465939 0.000000 0.000000 0.000000 0.000000 -0.495677
  7   14.875442 0.000000 0.000000 -0.000204 -0.002391 0.064723
  8   2.255207 -0.007574 0.000003 -0.003042 -0.031600 0.094566
  9   9.514223 -0.009357 0.000000 0.007804 -0.013951 -0.038188
 10   11.752194 -0.001492 0.000000 0.000024 0.043599 0.440031
 11   -2.111792 0.863597 2.563791 -0.055846 -1.376991 2.755746
 12   4.640941 0.000000 0.000000 0.167331 1.041023 -0.125267
 13   10.828045 0.000000 0.000000 0.000000 0.000000 -1.040795
 14   9.393338 -0.000001 0.000000 -0.955341 0.025713 -0.092665
 15   1.442243 0.107453 -1.746178 1.681497 0.459650 0.315602
 16   1.063450 0.000000 -0.000001 0.000000 0.000000 0.199056
 17   1.376307 -0.000001 0.000001 0.000000 0.000000 0.199049
 18   4.172845 -0.251366 -1.312745 -0.012983 0.095192 -0.071176
 19   1.215373 0.000001 -0.000001 0.000000 0.000000 0.426888
 20   1.215371 -0.000002 0.000000 0.000000 0.000000 0.426888
 21   4.220532 -0.244855 -0.431465 0.003838 0.025990 0.244468
 22   1.350417 0.000000 0.000001 0.000000 0.000000 0.959981
 23   1.350409 0.000000 -0.000001 0.000000 0.000000 0.959981
 24   -1.885222 0.863610 -2.731758 -0.350289 1.443603 2.354471
 25   4.640942 0.000000 0.000000 -0.487836 -1.127247 0.192523
 26   10.828048 0.000000 0.000001 0.000000 0.000000 -0.254162
 27   9.393336 -0.000001 0.000000 1.569611 -0.034192 0.000001
 28   1.442244 0.107454 1.746178 -1.686405 -0.539236 0.325898
 29   1.063451 -0.000001 0.000000 0.000000 0.000000 0.199056
 30   1.376307 -0.000001 0.000000 0.000000 0.000000 0.199059
 31   4.172846 -0.251365 1.312745 -0.008050 -0.095731 0.148659
 32   1.215374 0.000001 -0.000001 0.000000 0.000000 0.645746
 33   1.215373 0.000000 0.000001 0.000000 0.000000 0.645746
 34   4.220533 -0.244853 0.431466 -0.001333 -0.026242 0.148339
 35   1.350415 -0.000001 -0.000001 0.000000 0.000000 0.863937
 36   1.350410 -0.000001 0.000001 0.000000 0.000000 0.863925
 37   2.110541 -0.000001 0.000000 0.116508 -0.018130 -0.138980
 38   0.891923 2.373050 -0.014527 -3.141592 -0.000001 1.413797
 39   7.228119 5.709445 3.726568 3.140796 -1.570796 0.000000
 40   2.450426 5.076127 0.001325 3.064170 -1.570796 0.000000
 41   6.312405 -4.528058 0.001311 3.140791 -1.570796 0.000000
 42   2.233309 1.152535 -7.309138 -1.185293 -1.536633 -0.890098
 43   4.262825 -0.232720 -1.392178 0.016840 0.076668 0.253759
time 16
  0   1.727579 6.240059 37.927647 0.000000 0.000000 -1.701715
  1   -0.913763 -0.367199 0.000000 -1.570795 -1.570451 0.000000
  2   -0.000007 0.000008 4.427393 -0.170557 -3.138401 -0.070488
  3   18.465939 0.000000 0.000000 0.000000 0.000000 -0.548150
  4   14.875443 0.000000 0.000000 0.018076 0.015245 0.460852
  5   0.000006 -0.000004 -4.427393 0.104483 3.096581 -0.419699
  6   18.465939 0.000000 0.000000 0.000000 0.000000 -0.482353
  7   14.875442 0.000000 0.000000 -0.000415 -0.001633 0.060371
  8   2.255207 -0.007574 0.000003 0.014890 -0.030284 0.080736
  9   9.514223 -0.009357 0.000000 0.005628 -0.011572 -0.046284
 10   11.752194 -0.001492 0.000000 0.000024 0.043599 0.440031
 11   -2.111792 0.863597 2.563791 0.036858 -1.385477 2.663936
 12   4.640941 0.000000 0.000000 0.234503 1.062093 -0.017147
 13   10.828045 0.000000 0.000000 0.000000 0.000000 -0.960747
 14   9.393338 -0.000001 0.000000 -1.042410 0.023421 -0.079624
 15   1.442243 0.107453 -1.746178 1.682132 0.470928 0.316998
 16   1.063450 0.000000 -0.000001 0.000000 0.000000 0.199056
 17   1.376307 -0.000001 0.000001 0.000000 0.000000 0.199049
 18   4.172845 -0.251366 -1.312745 -0.010011 0.095552 -0.040000
 19   1.215373 0.000001 -0.000001 0.000000 0.000000 0.457922
 20   1.215371 -0.000002 0.000000 0.000000 0.000000 0.457922
 21   4.220532 -0.244855 -0.431465 0.003490 0.026038 0.230815
 22   1.350417 0.000000 0.000001 0.000000 0.000000 0.946382
 23   1.350409 0.000000 -0.000001 0.000000 0.000000 0.946382
 24   -1.885222 0.863610 -2.731758 -0.418327 1.448415 2.286868
 25   4.640942 0.000000 0.000000 -0.500763 -1.137499 0.233959
 26   10.828048 0.000000 0.000001 0.000000 0.000000 -0.251333
 27   9.393336 -0.000001 0.000000 1.569611 -0.034192 0.000001
 28   1.442244 0.107454 1.746178 -1.686405 -0.539236 0.325898
 29   1.063451 -0.000001 0.000000 0.000000 0.000000 0.199056
 30   1.376307 -0.000001 0.000000 0.000000 0.000000 0.199059
 31   4.172846 -0.251365 1.312745 -0.008050 -0.095731 0.148659
 32   1.215374 0.000001 -0.000001 0.000000 0.000000 0.645746
 33   1.215373 0.000000 0.000001 0.000000 0.000000 0.645746
 34   4.220533 -0.244853 0.431466 -0.001333 -0.026242 0.148339
 35   1.350415 -0.000001 -0.000001 0.000000 0.000000 0.863937
 36   1.350410 -0.000001 0.000001 0.000000 0.000000 0.863925
 37   2.110541 -0.000001 0.000000 0.100364 -0.015244 -0.140910
 38   0.891923 2.373050 -0.014527 -3.141592 -0.000001 1.413797
 39   7.228119 5.709445 3.726568 3.140796 -1.570796 0.000000
 40   2.450426 5.076127 0.001325 3.076282 -1.570796 0.000000
 41   6.312405 -4.528058 0.001311 3.140791 -1.570796 0.000000
 42   2.233309 1.152535 -7.309138 -1.178486 -1.536516 -0.889332
 43   4.262825 -0.232720 -1.392178 0.016840 0.076668 0.253759
time 17
  0   1.727579 6.337872 38.006432 0.000000 0.000000 -1.701715
  1   -0.730164 -0.339854 0.000000 -1.570795 -1.570451 0.000000
  2   -0.000007 0.000008 4.427393 -0.170557 -3.140390 -0.059431
  3   18.465939 0.000000 0.000000 0.000000 0.000000 -0.527827
  4   14.875443 0.000000 0.000000 0.018076 0.015309 0.451806
  5   0.000006 -0.000004 -4.427393 0.104866 3.096773 -0.410247
  6   18.465939 0.000000 0.000000 0.000000 0.000000 -0.467781
  7   14.875442 0.000000 0.000000 -0.000661 -0.000814 0.055231
  8   2.255207 -0.007574 0.000003 0.032822 -0.028772 0.066971
  9   9.514223 -0.009357 0.000000 0.003151 -0.009193 -0.054662
 10   11.752194 -0.001492 0.000000 0.000024 0.043599 0.440031
 11   -2.111792 0.863597 2.563791 0.137850 -1.392377 2.563796
 12   4.640941 0.000000 0.000000 0.306828 1.079916 0.096533
 13   10.828045 0.000000 0.000000 0.000000 0.000000 -0.877831
 14   9.393338 -0.000001 0.000000 -1.130860 0.022236 -0.065900
 15   1.442243 0.107453 -1.746178 1.682792 0.482390 0.318455
 16   1.063450 0.000000 -0.000001 0.000000 0.000000 0.199056
 17   1.376307 -0.000001 0.000001 0.000000 0.000000 0.199049
 18   4.172845 -0.251366 -1.312745 -0.006991 0.095815 -0.008343
 19   1.215373 0.000001 -0.000001 0.000000 0.000000 0.489405
 20   1.215371 -0.000002 0.000000 0.000000 0.000000 0.489405
 21   4.220532 -0.244855 -0.431465 0.003130 0.026086 0.217003
 22   1.350417 0.000000 0.000001 0.000000 0.000000 0.932537
 23   1.350409 0.000000 -0.000001 0.000000 0.000000 0.932537
 24   -1.885222 0.863610 -2.731758 -0.498583 1.452712 2.206959
 25   4.640942 0.000000 0.000000 -0.515549 -1.147402 0.277565
 26   10.828048 0.000000 0.000001 0.000000 0.000000 -0.248504
 27   9.393336 -0.000001 0.000000 1.569611 -0.034192 0.000001
 28   1.442244 0.107454 1.746178 -1.686405 -0.539236 0.325898
 29   1.063451 -0.000001 0.000000 0.000000 0.000000 0.199056
 30   1.376307 -0.000001 0.000000 0.000000 0.000000 0.199059
 31   4.172846 -0.251365 1.312745 -0.008050 -0.095731 0.148659
 32   1.215374 0.000001 -0.000001 0.000000 0.000000 0.645746
 33   1.215373 0.000000 0.000001 0.000000 0.000000 0.645746
 34   4.220533 -0.244853 0.431466 -0.001333 -0.026242 0.148339
 35   1.350415 -0.000001 -0.000001 0.000000 0.000000 0.863937
 36   1.350410 -0.000001 0.000001 0.000000 0.000000 0.863925
 37   2.110541 -0.000001 0.000000 0.084373 -0.013019 -0.142699
 38   0.891923 2.373050 -0.014527 -3.141592 -0.000001 1.413797
 39   7.228119 5.709445 3.726568 3.140796 -1.570796 0.000000
 40   2.450426 5.076127 0.001325 3.087340 -1.570796 0.000000
 41   6.312405 -4.528058 0.001311 3.140791 -1.570796 0.000000
 42   2.233309 1.152535 -7.309138 -1.171583 -1.536429 -0.888567
 43   4.262825 -0.232720 -1.392178 0.016840 0.076668 0.253759
time 18
  0   1.727579 6.435685 38.085217 0.000000 0.000000 -1.701715
  1   -0.546564 -0.304697 0.000000 -1.570795 -1.570451 0.000000
  2   -0.000007 0.000008 4.427393 -0.170653 -3.142567 -0.047898
  3   18.465939 0.000000 0.000000 0.000000 0.000000 -0.506479
  4   14.875443 0.000000 0.000000 0.018112 0.015522 0.442127
  5   0.000006 -0.000004 -4.427393 0.105153 3.096773 -0.400514
  6   18.465939 0.000000 0.000000 0.000000 0.000000 -0.452488
  7   14.875442 0.000000 0.000000 -0.000906 0.000125 0.049641
  8   2.255207 -0.007574 0.000003 0.050669 -0.027024 0.053273
  9   9.514223 -0.009357 0.000000 0.000525 -0.006828 -0.063148
 10   11.752194 -0.001492 0.000000 0.000024 0.043599 0.440031
 11   -2.111792 0.863597 2.563791 0.245989 -1.397413 2.456380
 12   4.640941 0.000000 0.000000 0.384802 1.093554 0.215951
 13   10.828045 0.000000 0.000000 0.000000 0.000000 -0.793451
 14   9.393338 -0.000001 0.000000 -1.219955 0.022274 -0.051882
 15   1.442243 0.107453 -1.746178 1.683487 0.493939 0.319912
 16   1.063450 0.000000 -0.000001 0.000000 0.000000 0.199056
 17   1.376307 -0.000001 0.000001 0.000000 0.000000 0.199049
 18   4.172845 -0.251366 -1.312745 -0.003934 0.095983 0.023554
 19   1.215373 0.000001 -0.000001 0.000000 0.000000 0.521173
 20   1.215371 -0.000002 0.000000 0.000000 0.000000 0.521173
 21   4.220532 -0.244855 -0.431465 0.002759 0.026122 0.203029
 22   1.350417 0.000000 0.000001 0.000000 0.000000 0.918611
 23   1.350409 0.000000 -0.000001 0.000000 0.000000 0.918611
 24   -1.885222 0.863610 -2.731758 -0.588004 1.456161 2.117990
 25   4.640942 0.000000 0.000000 -0.531941 -1.156747 0.322921
 26   10.828048 0.000000 0.000001 0.000000 0.000000 -0.245675
 27   9.393336 -0.000001 0.000000 1.569611 -0.034192 0.000001
 28   1.442244 0.107454 1.746178 -1.686405 -0.539236 0.325898
 29   1.063451 -0.000001 0.000000 0.000000 0.000000 0.199056
 30   1.376307 -0.000001 0.000000 0.000000 0.000000 0.199059
 31   4.172846 -0.251365 1.312745 -0.008050 -0.095731 0.148659
 32   1.215374 0.000001 -0.000001 0.000000 0.000000 0.645746
 33   1.215373 0.000000 0.000001 0.000000 0.000000 0.645746
 34   4.220533 -0.244853 0.431466 -0.001333 -0.026242 0.148339
 35   1.350415 -0.000001 -0.000001 0.000000 0.000000 0.863937
 36   1.350410 -0.000001 0.000001 0.000000 0.000000 0.863925
 37   2.110541 -0.000001 0.000000 0.068486 -0.011425 -0.144442
 38   0.891923 2.373050 -0.014527 -3.141592 -0.000001 1.413797
 39   7.228119 5.709445 3.726568 3.140796 -1.570796 0.000000
 40   2.450426 5.076127 0.001325 3.097785 -1.570796 0.000000
 41   6.312405 -4.528058 0.001311 3.140791 -1.570796 0.000000
 42   2.233309 1.152535 -7.309138 -1.164776 -1.536312 -0.887705
 43   4.262825 -0.232720 -1.392178 0.016840 0.076668 0.253759
time 19
  0   1.727579 6.524605 38.163998 0.000000 0.000000 -1.701715
  1   -0.366871 -0.265633 0.000000 -1.570795 -1.570451 0.000000
  2   -0.000007 0.000008 4.427393 -0.170653 -3.144935 -0.036079
  3   18.465939 0.000000 0.000000 0.000000 0.000000 -0.484401
  4   14.875443 0.000000 0.000000 0.018147 0.015819 0.432133
  5   0.000006 -0.000004 -4.427393 0.105441 3.096773 -0.390594
  6   18.465939 0.000000 0.000000 0.000000 0.000000 -0.436932
  7   14.875442 0.000000 0.000000 -0.001152 0.001156 0.043901
  8   2.255207 -0.007574 0.000003 0.068517 -0.025021 0.039575
  9   9.514223 -0.009357 0.000000 -0.002101 -0.004476 -0.071656
 10   11.752194 -0.001492 0.000000 0.000024 0.043599 0.440031
 11   -2.111792 0.863597 2.563791 0.359081 -1.400334 2.343699
 12   4.640941 0.000000 0.000000 0.468426 1.102285 0.340519
 13   10.828045 0.000000 0.000000 0.000000 0.000000 -0.709071
 14   9.393338 -0.000001 0.000000 -1.309051 0.023573 -0.037913
 15   1.442243 0.107453 -1.746178 1.684206 0.505487 0.321411
 16   1.063450 0.000000 -0.000001 0.000000 0.000000 0.199056
 17   1.376307 -0.000001 0.000001 0.000000 0.000000 0.199049
 18   4.172845 -0.251366 -1.312745 -0.000890 0.096055 0.055452
 19   1.215373 0.000001 -0.000001 0.000000 0.000000 0.552942
 20   1.215371 -0.000002 0.000000 0.000000 0.000000 0.552942
 21   4.220532 -0.244855 -0.431465 0.002399 0.026158 0.189096
 22   1.350417 0.000000 0.000001 0.000000 0.000000 0.904643
 23   1.350409 0.000000 -0.000001 0.000000 0.000000 0.904643
 24   -1.885222 0.863610 -2.731758 -0.682146 1.458673 2.024235
 25   4.640942 0.000000 0.000000 -0.549430 -1.165185 0.369397
 26   10.828048 0.000000 0.000001 0.000000 0.000000 -0.242782
 27   9.393336 -0.000001 0.000000 1.569611 -0.034192 0.000001
 28   1.442244 0.107454 1.746178 -1.686405 -0.539236 0.325898
 29   1.063451 -0.000001 0.000000 0.000000 0.000000 0.199056
 30   1.376307 -0.000001 0.000000 0.000000 0.000000 0.199059
 31   4.172846 -0.251365 1.312745 -0.008050 -0.095731 0.148659
 32   1.215374 0.000001 -0.000001 0.000000 0.000000 0.645746
 33   1.215373 0.000000 0.000001 0.000000 0.000000 0.645746
 34   4.220533 -0.244853 0.431466 -0.001333 -0.026242 0.148339
 35   1.350415 -0.000001 -0.000001 0.000000 0.000000 0.863937
 36   1.350410 -0.000001 0.000001 0.000000 0.000000 0.863925
 37   2.110541 -0.000001 0.000000 0.052444 -0.010403 -0.146231
 38   0.891923 2.373050 -0.014527 -3.141592 -0.000001 1.413797
 39   7.228119 5.709445 3.726568 3.140796 -1.570796 0.000000
 40   2.450426 5.076127 0.001325 3.107966 -1.570796 0.000000
 41   6.312405 -4.528058 0.001311 3.140791 -1.570796 0.000000
 42   2.233309 1.152535 -7.309138 -1.157969 -1.536196 -0.886843
 43   4.262825 -0.232720 -1.392178 0.016840 0.076668 0.253759
time 20
  0   1.727579 6.622418 38.227028 0.000000 0.000000 -1.701715
  1   -0.191085 -0.222663 0.000000 -1.570795 -1.570451 0.000000
  2   -0.000007 0.000008 4.427393 -0.170749 -3.147491 -0.023974
  3   18.465939 0.000000 0.000000 0.000000 0.000000 -0.461811
  4   14.875443 0.000000 0.000000 0.018219 0.016245 0.421941
  5   0.000006 -0.000004 -4.427393 0.105633 3.096581 -0.380767
  6   18.465939 0.000000 0.000000 0.000000 0.000000 -0.421573
  7   14.875442 0.000000 0.000000 -0.001433 0.002369 0.038348
  8   2.255207 -0.007574 0.000003 0.086364 -0.022763 0.025909
  9   9.514223 -0.009357 0.000000 -0.004652 -0.002164 -0.080056
 10   11.752194 -0.001492 0.000000 0.000024 0.043599 0.440031
 11   -2.111792 0.863597 2.563791 0.474270 -1.400989 2.228912
 12   4.640941 0.000000 0.000000 0.556706 1.105172 0.468658
 13   10.828045 0.000000 0.000000 0.000000 0.000000 -0.626155
 14   9.393338 -0.000001 0.000000 -1.397409 0.026057 -0.024384
 15   1.442243 0.107453 -1.746178 1.684937 0.516937 0.322909
 16   1.063450 0.000000 -0.000001 0.000000 0.000000 0.199056
 17   1.376307 -0.000001 0.000001 0.000000 0.000000 0.199049
 18   4.172845 -0.251366 -1.312745 0.002154 0.096043 0.087109
 19   1.215373 0.000001 -0.000001 0.000000 0.000000 0.584466
 20   1.215371 -0.000002 0.000000 0.000000 0.000000 0.584466
 21   4.220532 -0.244855 -0.431465 0.002040 0.026194 0.175244
 22   1.350417 0.000000 0.000001 0.000000 0.000000 0.890840
 23   1.350409 0.000000 -0.000001 0.000000 0.000000 0.890840
 24   -1.885222 0.863610 -2.731758 -0.775917 1.460217 1.930652
 25   4.640942 0.000000 0.000000 -0.567427 -1.172647 0.416222
 26   10.828048 0.000000 0.000001 0.000000 0.000000 -0.239952
 27   9.393336 -0.000001 0.000000 1.569611 -0.034192 0.000001
 28   1.442244 0.107454 1.746178 -1.686405 -0.539236 0.325898
 29   1.063451 -0.000001 0.000000 0.000000 0.000000 0.199056
 30   1.376307 -0.000001 0.000000 0.000000 0.000000 0.199059
 31   4.172846 -0.251365 1.312745 -0.008050 -0.095731 0.148659
 32   1.215374 0.000001 -0.000001 0.000000 0.000000 0.645746
 33   1.215373 0.000000 0.000001 0.000000 0.000000 0.645746
 34   4.220533 -0.244853 0.431466 -0.001333 -0.026242 0.148339
 35   1.350415 -0.000001 -0.000001 0.000000 0.000000 0.863937
 36   1.350410 -0.000001 0.000001 0.000000 0.000000 0.863925
 37   2.110541 -0.000001 0.000000 0.036197 -0.009922 -0.148303
 38   0.891923 2.373050 -0.014527 -3.141592 -0.000001 1.413797
 39   7.228119 5.709445 3.726568 3.140796 -1.570796 0.000000
 40   2.450426 5.076127 0.001325 3.118322 -1.570796 0.000000
 41   6.312405 -4.528058 0.001311 3.140791 -1.570796 0.000000
 42   2.233309 1.152535 -7.309138 -1.151545 -1.536079 -0.885982
 43   4.262825 -0.232720 -1.392178 0.016840 0.076668 0.253759
time 21
  0   1.727579 6.711339 38.290054 0.000000 0.000000 -1.701715
  1   -0.011392 -0.175787 0.000000 -1.570795 -1.570451 0.000000
  2   -0.000007 0.000008 4.427393 -0.170749 -3.150142 -0.011583
  3   18.465939 0.000000 0.000000 0.000000 0.000000 -0.439074
  4   14.875443 0.000000 0.000000 0.018325 0.016777 0.411828
  5   0.000006 -0.000004 -4.427393 0.105920 3.096294 -0.371221
  6   18.465939 0.000000 0.000000 0.000000 0.000000 -0.407133
  7   14.875442 0.000000 0.000000 -0.001749 0.003702 0.033359
  8   2.255207 -0.007574 0.000003 0.104212 -0.020229 0.012277
  9   9.514223 -0.009357 0.000000 -0.006903 0.000108 -0.088174
 10   11.752194 -0.001492 0.000000 0.000024 0.043599 0.440031
 11   -2.111792 0.863597 2.563791 0.588125 -1.399302 2.115369
 12   4.640941 0.000000 0.000000 0.647655 1.101275 0.597851
 13   10.828045 0.000000 0.000000 0.000000 0.000000 -0.546107
 14   9.393338 -0.000001 0.000000 -1.484570 0.029648 -0.011636
 15   1.442243 0.107453 -1.746178 1.685680 0.528214 0.324407
 16   1.063450 0.000000 -0.000001 0.000000 0.000000 0.199056
 17   1.376307 -0.000001 0.000001 0.000000 0.000000 0.199049
 18   4.172845 -0.251366 -1.312745 0.005138 0.095935 0.118244
 19   1.215373 0.000001 -0.000001 0.000000 0.000000 0.615500
 20   1.215371 -0.000002 0.000000 0.000000 0.000000 0.615500
 21   4.220532 -0.244855 -0.431465 0.001680 0.026218 0.161631
 22   1.350417 0.000000 0.000001 0.000000 0.000000 0.877199
 23   1.350409 0.000000 -0.000001 0.000000 0.000000 0.877199
 24   -1.885222 0.863610 -2.731758 -0.864227 1.461034 1.842538
 25   4.640942 0.000000 0.000000 -0.585086 -1.178924 0.462418
 26   10.828048 0.000000 0.000001 0.000000 0.000000 -0.237123
 27   9.393336 -0.000001 0.000000 1.569611 -0.034192 0.000001
 28   1.442244 0.107454 1.746178 -1.686405 -0.539236 0.325898
 29   1.063451 -0.000001 0.000000 0.000000 0.000000 0.199056
 30   1.376307 -0.000001 0.000000 0.000000 0.000000 0.199059
 31   4.172846 -0.251365 1.312745 -0.008050 -0.095731 0.148659
 32   1.215374 0.000001 -0.000001 0.000000 0.000000 0.645746
 33   1.215373 0.000000 0.000001 0.000000 0.000000 0.645746
 34   4.220533 -0.244853 0.431466 -0.001333 -0.026242 0.148339
 35   1.350415 -0.000001 -0.000001 0.000000 0.000000 0.863937
 36   1.350410 -0.000001 0.000001 0.000000 0.000000 0.863925
 37   2.110541 -0.000001 0.000000 0.019589 -0.009982 -0.150751
 38   0.891923 2.373050 -0.014527 -3.141592 -0.000001 1.413797
 39   7.228119 5.709445 3.726568 3.140796 -1.570796 0.000000
 40   2.450426 5.076127 0.001325 3.129118 -1.570796 0.000000
 41   6.312405 -4.528058 0.001311 3.140791 -1.570796 0.000000
 42   2.233309 1.152535 -7.309138 -1.145601 -1.535992 -0.885216
 43   4.262825 -0.232720 -1.392178 0.016840 0.076668 0.253759
time 22
  0   1.727579 6.791367 38.353081 0.000000 0.000000 -1.701715
  1   0.164395 -0.125004 0.000000 -1.570795 -1.570451 0.000000
  2   -0.000007 0.000008 4.427393 -0.170749 -3.152983 0.000903
  3   18.465939 0.000000 0.000000 0.000000 0.000000 -0.416557
  4   14.875443 0.000000 0.000000 0.018467 0.017437 0.402071
  5   0.000006 -0.000004 -4.427393 0.106016 3.095625 -0.362237
  6   18.465939 0.000000 0.000000 0.000000 0.000000 -0.394334
  7   14.875442 0.000000 0.000000 -0.002065 0.005218 0.029344
  8   2.255207 -0.007574 0.000003 0.122101 -0.017401 -0.001322
  9   9.514223 -0.009357 0.000000 -0.008779 0.002352 -0.095902
 10   11.752194 -0.001492 0.000000 0.000024 0.043599 0.440031
 11   -2.111792 0.863597 2.563791 0.697216 -1.395374 2.006326
 12   4.640941 0.000000 0.000000 0.738480 1.089874 0.724820
 13   10.828045 0.000000 0.000000 0.000000 0.000000 -0.470452
 14   9.393338 -0.000001 0.000000 -1.569611 0.034195 0.000037
 15   1.442243 0.107453 -1.746178 1.686435 0.539209 0.325885
 16   1.063450 0.000000 -0.000001 0.000000 0.000000 0.199056
 17   1.376307 -0.000001 0.000001 0.000000 0.000000 0.199049
 18   4.172845 -0.251366 -1.312745 0.008050 0.095731 0.148659
 19   1.215373 0.000001 -0.000001 0.000000 0.000000 0.645758
 20   1.215371 -0.000002 0.000000 0.000000 0.000000 0.645758
 21   4.220532 -0.244855 -0.431465 0.001333 0.026242 0.148339
 22   1.350417 0.000000 0.000001 0.000000 0.000000 0.863926
 23   1.350409 0.000000 -0.000001 0.000000 0.000000 0.863926
 24   -1.885222 0.863610 -2.731758 -0.942447 1.461427 1.764337
 25   4.640942 0.000000 0.000000 -0.601477 -1.183875 0.506934
 26   10.828048 0.000000 0.000001 0.000000 0.000000 -0.234230
 27   9.393336 -0.000001 0.000000 1.569611 -0.034192 0.000001
 28   1.442244 0.107454 1.746178 -1.686405 -0.539236 0.325898
 29   1.063451 -0.000001 0.000000 0.000000 0.000000 0.199056
 30   1.376307 -0.000001 0.000000 0.000000 0.000000 0.199059
 31   4.172846 -0.251365 1.312745 -0.008050 -0.095731 0.148659
 32   1.215374 0.000001 -0.000001 0.000000 0.000000 0.645746
 33   1.215373 0.000000 0.000001 0.000000 0.000000 0.645746
 34   4.220533 -0.244853 0.431466 -0.001333 -0.026242 0.148339
 35   1.350415 -0.000001 -0.000001 0.000000 0.000000 0.863937
 36   1.350410 -0.000001 0.000001 0.000000 0.000000 0.863925
 37   2.110541 -0.000001 0.000000 0.002417 -0.010493 -0.153718
 38   0.891923 2.373050 -0.014527 -3.141592 -0.000001 1.413797
 39   7.228119 5.709445 3.726568 3.140796 -1.570796 0.000000
 40   2.450426 5.076127 0.001325 3.140791 -1.570796 0.000000
 41   6.312405 -4.528058 0.001311 3.140791 -1.570796 0.000000
 42   2.233309 1.152535 -7.309138 -1.140137 -1.535904 -0.884450
 43   4.262825 -0.232720 -1.392178 0.016840 0.076668 0.253759
end
