version 1
nodes
  0 "Bip01" -1
  1 "Bip01 Pelvis" 0
  2 "Bip01 L Thigh" 1
  3 "Bip01 L Calf" 2
  4 "Bip01 L Foot" 3
  5 "Bip01 R Thigh" 1
  6 "Bip01 R Calf" 5
  7 "Bip01 R Foot" 6
  8 "Bip01 Spine" 1
  9 "Bip01 Spine1" 8
 10 "Bip01 Neck" 9
 11 "Bip01 L Clavicle" 10
 12 "Bip01 L UpperArm" 11
 13 "Bip01 L Forearm" 12
 14 "Bip01 L Hand" 13
 15 "Bip01 L Finger0" 14
 16 "Bip01 L Finger01" 15
 17 "Bip01 L Finger02" 16
 18 "Bip01 L Finger1" 14
 19 "Bip01 L Finger11" 18
 20 "Bip01 L Finger12" 19
 21 "Bip01 L Finger2" 14
 22 "Bip01 L Finger21" 21
 23 "Bip01 L Finger22" 22
 24 "Bip01 R Clavicle" 10
 25 "Bip01 R UpperArm" 24
 26 "Bip01 R Forearm" 25
 27 "Bip01 R Hand" 26
 28 "Bip01 R Finger0" 27
 29 "Bip01 R Finger01" 28
 30 "Bip01 R Finger02" 29
 31 "Bip01 R Finger1" 27
 32 "Bip01 R Finger11" 31
 33 "Bip01 R Finger12" 32
 34 "Bip01 R Finger2" 27
 35 "Bip01 R Finger21" 34
 36 "Bip01 R Finger22" 35
 37 "Bip01 Head" 10
 38 "Bone05" 37
 39 "Bone08" 9
 40 "Bone16" 8
 41 "Bone01" 8
 42 "Bone03" 1
 43 "Bip01 R Finger4" 27
end
skeleton
time 0
  0   0.422852 1.055990 38.510647 0.000000 0.000000 -1.570843
  1   1.031609 -0.156255 0.000000 -1.570795 -1.570451 0.000000
  2   -0.000007 0.000008 4.427393 -0.295495 -3.020422 -0.189727
  3   18.465939 0.000000 0.000000 0.000000 0.000000 -0.499973
  4   14.875443 0.000000 0.000000 -0.096401 -0.058696 0.282810
  5   0.000006 -0.000004 -4.427393 0.394307 3.106243 0.122167
  6   18.465939 0.000000 0.000000 0.000000 0.000000 -0.245996
  7   14.875442 0.000000 0.000000 0.108875 0.079306 0.345618
  8   2.255207 -0.007574 0.000003 -0.191432 -0.011470 -0.059159
  9   9.514223 -0.009357 0.000000 0.027500 0.021262 -0.154266
 10   11.752194 -0.001492 0.000000 0.000000 -0.000001 0.239424
 11   -2.131323 0.445615 2.649731 -0.290987 -1.262490 3.179378
 12   4.640941 0.000000 0.000000 -1.198771 -0.385676 -0.935313
 13   10.828045 0.000000 0.000000 0.000000 0.000000 -1.831025
 14   9.393338 -0.000001 0.000000 -1.568874 0.118593 -0.085388
 15   1.442243 0.107453 -1.746178 1.742810 0.349042 0.431626
 16   1.063450 0.000000 -0.000001 0.000000 0.000000 0.174535
 17   1.376307 -0.000001 0.000001 0.000000 0.000000 0.174529
 18   4.172845 -0.251366 -1.312745 0.069543 0.066333 0.874883
 19   1.215373 0.000001 -0.000001 0.000000 0.000000 1.247894
 20   1.215371 -0.000002 0.000000 0.000000 0.000000 1.247894
 21   4.220532 -0.244855 -0.431465 0.018387 0.018764 0.872814
 22   1.350417 0.000000 0.000001 0.000000 0.000000 1.247901
 23   1.350409 0.000000 -0.000001 0.000000 0.000000 1.247901
 24   -2.131323 0.445628 -2.649724 -0.088044 1.370038 2.815040
 25   4.640942 0.000000 0.000000 -0.691461 -0.509777 1.089491
 26   10.828048 0.000000 0.000001 0.000000 0.000000 -1.096906
 27   9.393336 -0.000001 0.000000 2.444703 -0.301875 0.496156
 28   1.442244 0.107454 1.746178 -2.077888 -0.223559 1.294513
 29   1.063451 -0.000001 0.000000 0.000000 0.000000 0.199056
 30   1.376307 -0.000001 0.000000 0.000000 0.000000 0.199059
 31   4.172846 -0.251365 1.312745 -0.008050 -0.095731 0.148659
 32   1.215374 0.000001 -0.000001 0.000000 0.000000 0.645746
 33   1.215373 0.000000 0.000001 0.000000 0.000000 0.645746
 34   4.220533 -0.244853 0.431466 -0.001333 -0.026242 0.148339
 35   1.350415 -0.000001 -0.000001 0.000000 0.000000 0.863937
 36   1.350410 -0.000001 0.000001 0.000000 0.000000 0.863925
 37   2.110541 -0.000001 0.000000 0.159903 -0.019062 0.001574
 38   0.891923 2.373050 -0.014527 -3.141592 -0.000001 1.413797
 39   7.228119 5.709445 3.726568 3.140796 -1.570796 0.000000
 40   2.450426 5.076127 0.001325 3.140791 -1.570796 0.000000
 41   6.312405 -4.528058 0.001311 3.228051 -1.570796 0.000000
 42   2.233309 1.152535 -7.309138 -1.535898 -1.570796 0.000000
 43   4.262825 -0.232720 -1.392178 0.016840 0.076668 0.253759
time 1
  0   0.422852 1.055990 38.510647 0.000000 0.000000 -1.570843
  1   1.176144 -0.164068 0.000000 -1.570795 -1.570451 0.000000
  2   -0.000007 0.000008 4.427393 -0.295974 -3.020138 -0.184770
  3   18.465939 0.000000 0.000000 0.000000 0.000000 -0.498949
  4   14.875443 0.000000 0.000000 -0.096188 -0.060335 0.286405
  5   0.000006 -0.000004 -4.427393 0.394690 3.109400 0.133304
  6   18.465939 0.000000 0.000000 0.000000 0.000000 -0.229455
  7   14.875442 0.000000 0.000000 0.109085 0.080700 0.340440
  8   2.255207 -0.007574 0.000003 -0.183288 -0.013022 -0.072096
  9   9.514223 -0.009357 0.000000 0.028626 0.022163 -0.155976
 10   11.752194 -0.001492 0.000000 0.000000 -0.000001 0.239424
 11   -2.131323 0.445615 2.649731 -0.407033 -1.160429 3.277890
 12   4.640941 0.000000 0.000000 -1.407799 -0.624012 -0.764558
 13   10.828045 0.000000 0.000000 0.000000 0.000000 -1.706377
 14   9.393338 -0.000001 0.000000 -1.568874 0.118593 -0.085388
 15   1.442243 0.107453 -1.746178 1.742810 0.349042 0.431626
 16   1.063450 0.000000 -0.000001 0.000000 0.000000 0.174535
 17   1.376307 -0.000001 0.000001 0.000000 0.000000 0.174529
 18   4.172845 -0.251366 -1.312745 0.069543 0.066333 0.874883
 19   1.215373 0.000001 -0.000001 0.000000 0.000000 1.247894
 20   1.215371 -0.000002 0.000000 0.000000 0.000000 1.247894
 21   4.220532 -0.244855 -0.431465 0.018387 0.018764 0.872814
 22   1.350417 0.000000 0.000001 0.000000 0.000000 1.247901
 23   1.350409 0.000000 -0.000001 0.000000 0.000000 1.247901
 24   -2.131323 0.445628 -2.649724 -0.088044 1.370038 2.815040
 25   4.640942 0.000000 0.000000 -0.698812 -0.494574 1.104330
 26   10.828048 0.000000 0.000001 0.000000 0.000000 -1.105779
 27   9.393336 -0.000001 0.000000 2.448291 -0.301745 0.501442
 28   1.442244 0.107454 1.746178 -2.077888 -0.223559 1.294513
 29   1.063451 -0.000001 0.000000 0.000000 0.000000 0.199056
 30   1.376307 -0.000001 0.000000 0.000000 0.000000 0.199059
 31   4.172846 -0.251365 1.312745 -0.008050 -0.095731 0.148659
 32   1.215374 0.000001 -0.000001 0.000000 0.000000 0.645746
 33   1.215373 0.000000 0.000001 0.000000 0.000000 0.645746
 34   4.220533 -0.244853 0.431466 -0.001333 -0.026242 0.148339
 35   1.350415 -0.000001 -0.000001 0.000000 0.000000 0.863937
 36   1.350410 -0.000001 0.000001 0.000000 0.000000 0.863925
 37   2.110541 -0.000001 0.000000 0.150340 -0.019333 0.016312
 38   0.891923 2.373050 -0.014527 -3.141592 -0.000001 1.413797
 39   7.228119 5.709445 3.726568 3.140796 -1.570796 0.000000
 40   2.450426 5.076127 0.001325 3.128328 -1.570796 0.000000
 41   6.312405 -4.528058 0.001311 3.228051 -1.570796 0.000000
 42   2.233309 1.152535 -7.309138 -1.522956 -1.570796 0.000000
 43   4.262825 -0.232720 -1.392178 0.016840 0.076668 0.253759
time 2
  0   0.422852 1.055990 38.510647 0.000000 0.000000 -1.570843
  1   1.121455 -0.175787 0.000000 -1.570795 -1.570451 0.000000
  2   -0.000007 0.000008 4.427393 -0.295591 -3.019949 -0.186581
  3   18.465939 0.000000 0.000000 0.000000 0.000000 -0.499168
  4   14.875443 0.000000 0.000000 -0.096473 -0.060080 0.284904
  5   0.000006 -0.000004 -4.427393 0.394595 3.108539 0.129186
  6   18.465939 0.000000 0.000000 0.000000 0.000000 -0.235756
  7   14.875442 0.000000 0.000000 0.108910 0.079851 0.342541
  8   2.255207 -0.007574 0.000003 -0.191347 -0.013140 -0.067728
  9   9.514223 -0.009357 0.000000 0.027500 0.021262 -0.154266
 10   11.752194 -0.001492 0.000000 0.000000 -0.000001 0.239424
 11   -2.131323 0.445615 2.649731 -0.458673 -1.082542 3.312642
 12   4.640941 0.000000 0.000000 -1.646192 -0.754690 -0.586076
 13   10.828045 0.000000 0.000000 0.000000 0.000000 -1.571723
 14   9.393338 -0.000001 0.000000 -1.568874 0.118593 -0.085388
 15   1.442243 0.107453 -1.746178 1.742810 0.349042 0.431626
 16   1.063450 0.000000 -0.000001 0.000000 0.000000 0.174535
 17   1.376307 -0.000001 0.000001 0.000000 0.000000 0.174529
 18   4.172845 -0.251366 -1.312745 0.069543 0.066333 0.874883
 19   1.215373 0.000001 -0.000001 0.000000 0.000000 1.247894
 20   1.215371 -0.000002 0.000000 0.000000 0.000000 1.247894
 21   4.220532 -0.244855 -0.431465 0.018387 0.018764 0.872814
 22   1.350417 0.000000 0.000001 0.000000 0.000000 1.247901
 23   1.350409 0.000000 -0.000001 0.000000 0.000000 1.247901
 24   -2.131323 0.445628 -2.649724 -0.088044 1.370038 2.815040
 25   4.640942 0.000000 0.000000 -0.700502 -0.500502 1.090331
 26   10.828048 0.000000 0.000001 0.000000 0.000000 -1.102178
 27   9.393336 -0.000001 0.000000 2.451768 -0.301420 0.500375
 28   1.442244 0.107454 1.746178 -2.077888 -0.223559 1.294513
 29   1.063451 -0.000001 0.000000 0.000000 0.000000 0.199056
 30   1.376307 -0.000001 0.000000 0.000000 0.000000 0.199059
 31   4.172846 -0.251365 1.312745 -0.008050 -0.095731 0.148659
 32   1.215374 0.000001 -0.000001 0.000000 0.000000 0.645746
 33   1.215373 0.000000 0.000001 0.000000 0.000000 0.645746
 34   4.220533 -0.244853 0.431466 -0.001333 -0.026242 0.148339
 35   1.350415 -0.000001 -0.000001 0.000000 0.000000 0.863937
 36   1.350410 -0.000001 0.000001 0.000000 0.000000 0.863925
 37   2.110541 -0.000001 0.000000 0.159800 -0.018792 0.010285
 38   0.891923 2.373050 -0.014527 -3.141592 -0.000001 1.413797
 39   7.228119 5.709445 3.726568 3.140796 -1.570796 0.000000
 40   2.450426 5.076127 0.001325 3.117708 -1.570796 0.000000
 41   6.312405 -4.528058 0.001311 3.228051 -1.570796 0.000000
 42   2.233309 1.152535 -7.309138 -1.530146 -1.570796 0.000000
 43   4.262825 -0.232720 -1.392178 0.016840 0.076668 0.253759
time 3
  0   0.422852 1.055990 38.510647 0.000000 0.000000 -1.570843
  1   0.578470 -0.167974 0.000000 -1.570795 -1.570451 0.000000
  2   -0.000007 0.000008 4.427393 -0.294441 -3.020044 -0.204500
  3   18.465939 0.000000 0.000000 0.000000 0.000000 -0.501581
  4   14.875443 0.000000 0.000000 -0.096615 -0.054758 0.270287
  5   0.000006 -0.000004 -4.427393 0.393828 3.099069 0.090629
  6   18.465939 0.000000 0.000000 0.000000 0.000000 -0.290169
  7   14.875442 0.000000 0.000000 0.107681 0.073910 0.357811
  8   2.255207 -0.007574 0.000003 -0.239826 -0.008603 -0.021273
  9   9.514223 -0.009357 0.000000 0.020710 0.015832 -0.144091
 10   11.752194 -0.001492 0.000000 0.000000 -0.000001 0.239424
 11   -2.131323 0.445615 2.649731 -0.358823 -1.145773 3.230692
 12   4.640941 0.000000 0.000000 -1.481676 -0.510581 -0.821340
 13   10.828045 0.000000 0.000000 0.000000 0.000000 -1.382219
 14   9.393338 -0.000001 0.000000 -1.568874 0.118593 -0.085388
 15   1.442243 0.107453 -1.746178 1.742810 0.349042 0.431626
 16   1.063450 0.000000 -0.000001 0.000000 0.000000 0.174535
 17   1.376307 -0.000001 0.000001 0.000000 0.000000 0.174529
 18   4.172845 -0.251366 -1.312745 0.069543 0.066333 0.874883
 19   1.215373 0.000001 -0.000001 0.000000 0.000000 1.247894
 20   1.215371 -0.000002 0.000000 0.000000 0.000000 1.247894
 21   4.220532 -0.244855 -0.431465 0.018387 0.018764 0.872814
 22   1.350417 0.000000 0.000001 0.000000 0.000000 1.247901
 23   1.350409 0.000000 -0.000001 0.000000 0.000000 1.247901
 24   -2.131323 0.445628 -2.649724 -0.088044 1.370038 2.815040
 25   4.640942 0.000000 0.000000 -0.684786 -0.557339 1.003329
 26   10.828048 0.000000 0.000001 0.000000 0.000000 -1.068680
 27   9.393336 -0.000001 0.000000 2.455301 -0.300899 0.484129
 28   1.442244 0.107454 1.746178 -2.077888 -0.223559 1.294513
 29   1.063451 -0.000001 0.000000 0.000000 0.000000 0.199056
 30   1.376307 -0.000001 0.000000 0.000000 0.000000 0.199059
 31   4.172846 -0.251365 1.312745 -0.008050 -0.095731 0.148659
 32   1.215374 0.000001 -0.000001 0.000000 0.000000 0.645746
 33   1.215373 0.000000 0.000001 0.000000 0.000000 0.645746
 34   4.220533 -0.244853 0.431466 -0.001333 -0.026242 0.148339
 35   1.350415 -0.000001 -0.000001 0.000000 0.000000 0.863937
 36   1.350410 -0.000001 0.000001 0.000000 0.000000 0.863925
 37   2.110541 -0.000001 0.000000 0.216564 -0.014492 -0.046737
 38   0.891923 2.373050 -0.014527 -3.141592 -0.000001 1.413797
 39   7.228119 5.709445 3.726568 3.140796 -1.570796 0.000000
 40   2.450426 5.076127 0.001325 3.103314 -1.570796 0.000000
 41   6.312405 -4.528058 0.001311 3.228051 -1.570796 0.000000
 42   2.233309 1.152535 -7.309138 -1.490934 -1.577815 -0.060221
 43   4.262825 -0.232720 -1.392178 0.016840 0.076668 0.253759
time 4
  0   0.422852 1.055990 38.510647 0.000000 0.000000 -1.570843
  1   -0.163740 -0.113285 0.000000 -1.570795 -1.570451 0.000000
  2   -0.000007 0.000008 4.427393 -0.293483 -3.021937 -0.227662
  3   18.465939 0.000000 0.000000 0.000000 0.000000 -0.501873
  4   14.875443 0.000000 0.000000 -0.096828 -0.046075 0.249192
  5   0.000006 -0.000004 -4.427393 0.392678 3.087876 0.045520
  6   18.465939 0.000000 0.000000 0.000000 0.000000 -0.346419
  7   14.875442 0.000000 0.000000 0.106418 0.067059 0.367978
  8   2.255207 -0.007574 0.000003 -0.304043 0.001177 0.041295
  9   9.514223 -0.009357 0.000000 0.011555 0.008723 -0.130431
 10   11.752194 -0.001492 0.000000 0.000000 -0.000001 0.239424
 11   -2.131323 0.445615 2.649731 -0.384072 -1.131193 3.252041
 12   4.640941 0.000000 0.000000 -1.353664 -0.312075 -1.038398
 13   10.828045 0.000000 0.000000 0.000000 0.000000 -1.265320
 14   9.393338 -0.000001 0.000000 -1.568782 0.121382 -0.051247
 15   1.442243 0.107453 -1.746178 1.742810 0.349042 0.431626
 16   1.063450 0.000000 -0.000001 0.000000 0.000000 0.174535
 17   1.376307 -0.000001 0.000001 0.000000 0.000000 0.174529
 18   4.172845 -0.251366 -1.312745 0.069543 0.066333 0.874883
 19   1.215373 0.000001 -0.000001 0.000000 0.000000 1.247894
 20   1.215371 -0.000002 0.000000 0.000000 0.000000 1.247894
 21   4.220532 -0.244855 -0.431465 0.018387 0.018764 0.872814
 22   1.350417 0.000000 0.000001 0.000000 0.000000 1.247901
 23   1.350409 0.000000 -0.000001 0.000000 0.000000 1.247901
 24   -2.131323 0.445628 -2.649724 -0.088044 1.370038 2.815040
 25   4.640942 0.000000 0.000000 -0.652510 -0.629310 0.883010
 26   10.828048 0.000000 0.000001 0.000000 0.000000 -1.028558
 27   9.393336 -0.000001 0.000000 2.458889 -0.301745 0.463518
 28   1.442244 0.107454 1.746178 -2.077888 -0.223559 1.294513
 29   1.063451 -0.000001 0.000000 0.000000 0.000000 0.199056
 30   1.376307 -0.000001 0.000000 0.000000 0.000000 0.199059
 31   4.172846 -0.251365 1.312745 -0.008050 -0.095731 0.148659
 32   1.215374 0.000001 -0.000001 0.000000 0.000000 0.645746
 33   1.215373 0.000000 0.000001 0.000000 0.000000 0.645746
 34   4.220533 -0.244853 0.431466 -0.001333 -0.026242 0.148339
 35   1.350415 -0.000001 -0.000001 0.000000 0.000000 0.863937
 36   1.350410 -0.000001 0.000001 0.000000 0.000000 0.863925
 37   2.110541 -0.000001 0.000000 0.291476 -0.003908 -0.123677
 38   0.891923 2.373050 -0.014527 -3.141592 -0.000001 1.413797
 39   7.228119 5.709445 3.726568 3.140796 -1.570796 0.000000
 40   2.450426 5.076127 0.001325 3.079792 -1.570796 0.000000
 41   6.312405 -4.528058 0.001311 3.228051 -1.570796 0.000000
 42   2.233309 1.152535 -7.309138 -1.503589 -1.586494 -0.072380
 43   4.262825 -0.232720 -1.392178 0.016840 0.076668 0.253759
time 5
  0   0.422852 1.055990 38.510647 0.000000 0.000000 -1.570843
  1   -0.808291 -0.019532 0.000000 -1.570795 -1.570451 0.000000
  2   -0.000007 0.000008 4.427393 -0.293196 -3.025346 -0.246725
  3   18.465939 0.000000 0.000000 0.000000 0.000000 -0.499242
  4   14.875443 0.000000 0.000000 -0.097184 -0.037135 0.229480
  5   0.000006 -0.000004 -4.427393 0.391336 3.078501 0.010051
  6   18.465939 0.000000 0.000000 0.000000 0.000000 -0.385079
  7   14.875442 0.000000 0.000000 0.105646 0.062178 0.370304
  8   2.255207 -0.007574 0.000003 -0.359611 0.013138 0.095956
  9   9.514223 -0.009357 0.000000 0.003452 0.002594 -0.118438
 10   11.752194 -0.001492 0.000000 0.000000 -0.000001 0.239424
 11   -2.131323 0.445615 2.649731 -0.427899 -1.104148 3.288133
 12   4.640941 0.000000 0.000000 -1.258803 -0.125115 -1.214831
 13   10.828045 0.000000 0.000000 0.000000 0.000000 -1.158487
 14   9.393338 -0.000001 0.000000 -1.575323 0.124248 -0.069807
 15   1.442243 0.107453 -1.746178 1.742810 0.349042 0.431626
 16   1.063450 0.000000 -0.000001 0.000000 0.000000 0.174535
 17   1.376307 -0.000001 0.000001 0.000000 0.000000 0.174529
 18   4.172845 -0.251366 -1.312745 0.069543 0.066333 0.874883
 19   1.215373 0.000001 -0.000001 0.000000 0.000000 1.247894
 20   1.215371 -0.000002 0.000000 0.000000 0.000000 1.247894
 21   4.220532 -0.244855 -0.431465 0.018387 0.018764 0.872814
 22   1.350417 0.000000 0.000001 0.000000 0.000000 1.247901
 23   1.350409 0.000000 -0.000001 0.000000 0.000000 1.247901
 24   -2.131323 0.445628 -2.649724 -0.088044 1.370038 2.815040
 25   4.640942 0.000000 0.000000 -0.614827 -0.686426 0.772840
 26   10.828048 0.000000 0.000001 0.000000 0.000000 -0.999174
 27   9.393336 -0.000001 0.000000 2.462642 -0.303730 0.446933
 28   1.442244 0.107454 1.746178 -2.077888 -0.223559 1.294513
 29   1.063451 -0.000001 0.000000 0.000000 0.000000 0.199056
 30   1.376307 -0.000001 0.000000 0.000000 0.000000 0.199059
 31   4.172846 -0.251365 1.312745 -0.008050 -0.095731 0.148659
 32   1.215374 0.000001 -0.000001 0.000000 0.000000 0.645746
 33   1.215373 0.000000 0.000001 0.000000 0.000000 0.645746
 34   4.220533 -0.244853 0.431466 -0.001333 -0.026242 0.148339
 35   1.350415 -0.000001 -0.000001 0.000000 0.000000 0.863937
 36   1.350410 -0.000001 0.000001 0.000000 0.000000 0.863925
 37   2.110541 -0.000001 0.000000 0.356003 0.009803 -0.190916
 38   0.891923 2.373050 -0.014527 -3.141592 -0.000001 1.413797
 39   7.228119 5.709445 3.726568 3.140796 -1.570796 0.000000
 40   2.450426 5.076127 0.001325 3.011421 -1.570796 0.000000
 41   6.312405 -4.528058 0.001311 3.228051 -1.570796 0.000000
 42   2.233309 1.152535 -7.309138 -1.514040 -1.593863 -0.082720
 43   4.262825 -0.232720 -1.392178 0.016840 0.076668 0.253759
time 6
  0   0.422852 1.055990 38.510647 0.000000 0.000000 -1.570843
  1   -1.089550 0.027345 0.000000 -1.570795 -1.570451 0.000000
  2   -0.000007 0.000008 4.427393 -0.293292 -3.027240 -0.254541
  3   18.465939 0.000000 0.000000 0.000000 0.000000 -0.497268
  4   14.875443 0.000000 0.000000 -0.097361 -0.032900 0.220592
  5   0.000006 -0.000004 -4.427393 0.390761 3.074483 -0.004362
  6   18.465939 0.000000 0.000000 0.000000 0.000000 -0.399388
  7   14.875442 0.000000 0.000000 0.105330 0.060450 0.369817
  8   2.255207 -0.007574 0.000003 -0.383197 0.019324 0.119580
  9   9.514223 -0.009357 0.000000 0.000000 0.000000 -0.113286
 10   11.752194 -0.001492 0.000000 0.000000 -0.000001 0.239424
 11   -2.131323 0.445615 2.649731 -0.448955 -1.093798 3.305845
 12   4.640941 0.000000 0.000000 -1.210194 -0.057431 -1.303458
 13   10.828045 0.000000 0.000000 0.000000 0.000000 -1.029385
 14   9.393338 -0.000001 0.000000 -1.615955 0.117447 -0.385912
 15   1.442243 0.107453 -1.746178 1.742810 0.349042 0.431626
 16   1.063450 0.000000 -0.000001 0.000000 0.000000 0.174535
 17   1.376307 -0.000001 0.000001 0.000000 0.000000 0.174529
 18   4.172845 -0.251366 -1.312745 0.069543 0.066333 0.874883
 19   1.215373 0.000001 -0.000001 0.000000 0.000000 1.247894
 20   1.215371 -0.000002 0.000000 0.000000 0.000000 1.247894
 21   4.220532 -0.244855 -0.431465 0.018387 0.018764 0.872814
 22   1.350417 0.000000 0.000001 0.000000 0.000000 1.247901
 23   1.350409 0.000000 -0.000001 0.000000 0.000000 1.247901
 24   -2.131323 0.445628 -2.649724 -0.088044 1.370038 2.815040
 25   4.640942 0.000000 0.000000 -0.596999 -0.708464 0.723424
 26   10.828048 0.000000 0.000001 0.000000 0.000000 -0.988501
 27   9.393336 -0.000001 0.000000 2.466230 -0.304738 0.439756
 28   1.442244 0.107454 1.746178 -2.077888 -0.223559 1.294513
 29   1.063451 -0.000001 0.000000 0.000000 0.000000 0.199056
 30   1.376307 -0.000001 0.000000 0.000000 0.000000 0.199059
 31   4.172846 -0.251365 1.312745 -0.008050 -0.095731 0.148659
 32   1.215374 0.000001 -0.000001 0.000000 0.000000 0.645746
 33   1.215373 0.000000 0.000001 0.000000 0.000000 0.645746
 34   4.220533 -0.244853 0.431466 -0.001333 -0.026242 0.148339
 35   1.350415 -0.000001 -0.000001 0.000000 0.000000 0.863937
 36   1.350410 -0.000001 0.000001 0.000000 0.000000 0.863925
 37   2.110541 -0.000001 0.000000 0.383305 0.016990 -0.219921
 38   0.891923 2.373050 -0.014527 -3.141592 -0.000001 1.413797
 39   7.228119 5.709445 3.726568 3.140796 -1.570796 0.000000
 40   2.450426 5.076127 0.001325 2.960691 -1.570796 0.000000
 41   6.312405 -4.528058 0.001311 3.228051 -1.570796 0.000000
 42   2.233309 1.152535 -7.309138 -1.518450 -1.596979 -0.087219
 43   4.262825 -0.232720 -1.392178 0.016840 0.076668 0.253759
time 7
  0   0.422852 1.055990 38.510647 0.000000 0.000000 -1.570843
  1   -1.054392 0.023438 0.000000 -1.570795 -1.570451 0.000000
  2   -0.000007 0.000008 4.427393 -0.293387 -3.027050 -0.253587
  3   18.465939 0.000000 0.000000 0.000000 0.000000 -0.497560
  4   14.875443 0.000000 0.000000 -0.097255 -0.033411 0.221738
  5   0.000006 -0.000004 -4.427393 0.390857 3.074962 -0.002584
  6   18.465939 0.000000 0.000000 0.000000 0.000000 -0.397682
  7   14.875442 0.000000 0.000000 0.105330 0.060693 0.369892
  8   2.255207 -0.007574 0.000003 -0.379610 0.018558 0.116735
  9   9.514223 -0.009357 0.000000 0.000525 0.000390 -0.114087
 10   11.752194 -0.001492 0.000000 0.000000 -0.000001 0.239424
 11   -2.131323 0.445615 2.649731 -0.442666 -1.106691 3.302302
 12   4.640941 0.000000 0.000000 -1.204606 -0.073017 -1.271672
 13   10.828045 0.000000 0.000000 0.000000 0.000000 -1.134387
 14   9.393338 -0.000001 0.000000 -1.599002 0.122185 -0.249301
 15   1.442243 0.107453 -1.746178 1.742810 0.349042 0.431626
 16   1.063450 0.000000 -0.000001 0.000000 0.000000 0.174535
 17   1.376307 -0.000001 0.000001 0.000000 0.000000 0.174529
 18   4.172845 -0.251366 -1.312745 0.069543 0.066333 0.874883
 19   1.215373 0.000001 -0.000001 0.000000 0.000000 1.247894
 20   1.215371 -0.000002 0.000000 0.000000 0.000000 1.247894
 21   4.220532 -0.244855 -0.431465 0.018387 0.018764 0.872814
 22   1.350417 0.000000 0.000001 0.000000 0.000000 1.247901
 23   1.350409 0.000000 -0.000001 0.000000 0.000000 1.247901
 24   -2.131323 0.445628 -2.649724 -0.088044 1.370038 2.815040
 25   4.640942 0.000000 0.000000 -0.601984 -0.704140 0.729444
 26   10.828048 0.000000 0.000001 0.000000 0.000000 -0.989980
 27   9.393336 -0.000001 0.000000 2.469763 -0.304218 0.439222
 28   1.442244 0.107454 1.746178 -2.077888 -0.223559 1.294513
 29   1.063451 -0.000001 0.000000 0.000000 0.000000 0.199056
 30   1.376307 -0.000001 0.000000 0.000000 0.000000 0.199059
 31   4.172846 -0.251365 1.312745 -0.008050 -0.095731 0.148659
 32   1.215374 0.000001 -0.000001 0.000000 0.000000 0.645746
 33   1.215373 0.000000 0.000001 0.000000 0.000000 0.645746
 34   4.220533 -0.244853 0.431466 -0.001333 -0.026242 0.148339
 35   1.350415 -0.000001 -0.000001 0.000000 0.000000 0.863937
 36   1.350410 -0.000001 0.000001 0.000000 0.000000 0.863925
 37   2.110541 -0.000001 0.000000 0.379140 0.015937 -0.216296
 38   0.891923 2.373050 -0.014527 -3.141592 -0.000001 1.413797
 39   7.228119 5.709445 3.726568 3.140796 -1.570796 0.000000
 40   2.450426 5.076127 0.001325 2.968240 -1.570796 0.000000
 41   6.312405 -4.528058 0.001311 3.228051 -1.570796 0.000000
 42   2.233309 1.152535 -7.309138 -1.517970 -1.596455 -0.086645
 43   4.262825 -0.232720 -1.392178 0.016840 0.076668 0.253759
time 8
  0   0.422852 1.055990 38.510647 0.000000 0.000000 -1.570843
  1   -0.945014 0.003906 0.000000 -1.570795 -1.570451 0.000000
  2   -0.000007 0.000008 4.427393 -0.293387 -3.026293 -0.250537
  3   18.465939 0.000000 0.000000 0.000000 0.000000 -0.498364
  4   14.875443 0.000000 0.000000 -0.097113 -0.035028 0.225174
  5   0.000006 -0.000004 -4.427393 0.391144 3.076492 0.002938
  6   18.465939 0.000000 0.000000 0.000000 0.000000 -0.392234
  7   14.875442 0.000000 0.000000 0.105400 0.061390 0.370117
  8   2.255207 -0.007574 0.000003 -0.369568 0.016201 0.107702
  9   9.514223 -0.009357 0.000000 0.001988 0.001492 -0.116273
 10   11.752194 -0.001492 0.000000 0.000000 -0.000001 0.239424
 11   -2.131323 0.445615 2.649731 -0.429709 -1.124696 3.293399
 12   4.640941 0.000000 0.000000 -1.208331 -0.114219 -1.217758
 13   10.828045 0.000000 0.000000 0.000000 0.000000 -1.262147
 14   9.393338 -0.000001 0.000000 -1.578640 0.124401 -0.093642
 15   1.442243 0.107453 -1.746178 1.742810 0.349042 0.431626
 16   1.063450 0.000000 -0.000001 0.000000 0.000000 0.174535
 17   1.376307 -0.000001 0.000001 0.000000 0.000000 0.174529
 18   4.172845 -0.251366 -1.312745 0.069543 0.066333 0.874883
 19   1.215373 0.000001 -0.000001 0.000000 0.000000 1.247894
 20   1.215371 -0.000002 0.000000 0.000000 0.000000 1.247894
 21   4.220532 -0.244855 -0.431465 0.018387 0.018764 0.872814
 22   1.350417 0.000000 0.000001 0.000000 0.000000 1.247901
 23   1.350409 0.000000 -0.000001 0.000000 0.000000 1.247901
 24   -2.131323 0.445628 -2.649724 -0.088044 1.370038 2.815040
 25   4.640942 0.000000 0.000000 -0.608490 -0.695632 0.750302
 26   10.828048 0.000000 0.000001 0.000000 0.000000 -0.994288
 27   9.393336 -0.000001 0.000000 2.467444 -0.303860 0.441986
 28   1.442244 0.107454 1.746178 -2.077888 -0.223559 1.294513
 29   1.063451 -0.000001 0.000000 0.000000 0.000000 0.199056
 30   1.376307 -0.000001 0.000000 0.000000 0.000000 0.199059
 31   4.172846 -0.251365 1.312745 -0.008050 -0.095731 0.148659
 32   1.215374 0.000001 -0.000001 0.000000 0.000000 0.645746
 33   1.215373 0.000000 0.000001 0.000000 0.000000 0.645746
 34   4.220533 -0.244853 0.431466 -0.001333 -0.026242 0.148339
 35   1.350415 -0.000001 -0.000001 0.000000 0.000000 0.863937
 36   1.350410 -0.000001 0.000001 0.000000 0.000000 0.863925
 37   2.110541 -0.000001 0.000000 0.367572 0.012930 -0.205042
 38   0.891923 2.373050 -0.014527 -3.141592 -0.000001 1.413797
 39   7.228119 5.709445 3.726568 3.140796 -1.570796 0.000000
 40   2.450426 5.076127 0.001325 2.980176 -1.570796 0.000000
 41   6.312405 -4.528058 0.001311 3.228051 -1.570796 0.000000
 42   2.233309 1.152535 -7.309138 -1.516245 -1.595086 -0.084922
 43   4.262825 -0.232720 -1.392178 0.016840 0.076668 0.253759
time 9
  0   0.422852 1.055990 38.510647 0.000000 0.000000 -1.570843
  1   -0.777040 -0.023438 0.000000 -1.570795 -1.570451 0.000000
  2   -0.000007 0.000008 4.427393 -0.293483 -3.025157 -0.245772
  3   18.465939 0.000000 0.000000 0.000000 0.000000 -0.499534
  4   14.875443 0.000000 0.000000 -0.096935 -0.037497 0.230547
  5   0.000006 -0.000004 -4.427393 0.391528 3.078884 0.011735
  6   18.465939 0.000000 0.000000 0.000000 0.000000 -0.383373
  7   14.875442 0.000000 0.000000 0.105540 0.062512 0.370267
  8   2.255207 -0.007574 0.000003 -0.354252 0.012647 0.093541
  9   9.514223 -0.009357 0.000000 0.004239 0.003172 -0.119607
 10   11.752194 -0.001492 0.000000 0.000000 -0.000001 0.239424
 11   -2.131323 0.445615 2.649731 -0.417037 -1.141795 3.284400
 12   4.640941 0.000000 0.000000 -1.208083 -0.154050 -1.177309
 13   10.828045 0.000000 0.000000 0.000000 0.000000 -1.340182
 14   9.393338 -0.000001 0.000000 -1.574678 0.123866 -0.070344
 15   1.442243 0.107453 -1.746178 1.742810 0.349042 0.431626
 16   1.063450 0.000000 -0.000001 0.000000 0.000000 0.174535
 17   1.376307 -0.000001 0.000001 0.000000 0.000000 0.174529
 18   4.172845 -0.251366 -1.312745 0.069543 0.066333 0.874883
 19   1.215373 0.000001 -0.000001 0.000000 0.000000 1.247894
 20   1.215371 -0.000002 0.000000 0.000000 0.000000 1.247894
 21   4.220532 -0.244855 -0.431465 0.018387 0.018764 0.872814
 22   1.350417 0.000000 0.000001 0.000000 0.000000 1.247901
 23   1.350409 0.000000 -0.000001 0.000000 0.000000 1.247901
 24   -2.131323 0.445628 -2.649724 -0.088044 1.370038 2.815040
 25   4.640942 0.000000 0.000000 -0.618545 -0.681893 0.781799
 26   10.828048 0.000000 0.000001 0.000000 0.000000 -1.001232
 27   9.393336 -0.000001 0.000000 2.464629 -0.303307 0.446254
 28   1.442244 0.107454 1.746178 -2.077888 -0.223559 1.294513
 29   1.063451 -0.000001 0.000000 0.000000 0.000000 0.199056
 30   1.376307 -0.000001 0.000000 0.000000 0.000000 0.199059
 31   4.172846 -0.251365 1.312745 -0.008050 -0.095731 0.148659
 32   1.215374 0.000001 -0.000001 0.000000 0.000000 0.645746
 33   1.215373 0.000000 0.000001 0.000000 0.000000 0.645746
 34   4.220533 -0.244853 0.431466 -0.001333 -0.026242 0.148339
 35   1.350415 -0.000001 -0.000001 0.000000 0.000000 0.863937
 36   1.350410 -0.000001 0.000001 0.000000 0.000000 0.863925
 37   2.110541 -0.000001 0.000000 0.349833 0.008540 -0.187385
 38   0.891923 2.373050 -0.014527 -3.141592 -0.000001 1.413797
 39   7.228119 5.709445 3.726568 3.140796 -1.570796 0.000000
 40   2.450426 5.076127 0.001325 2.995711 -1.570796 0.000000
 41   6.312405 -4.528058 0.001311 3.228051 -1.570796 0.000000
 42   2.233309 1.152535 -7.309138 -1.513464 -1.592960 -0.082145
 43   4.262825 -0.232720 -1.392178 0.016840 0.076668 0.253759
time 10
  0   0.422852 1.055990 38.510647 0.000000 0.000000 -1.570843
  1   -0.558284 -0.054689 0.000000 -1.570795 -1.570451 0.000000
  2   -0.000007 0.000008 4.427393 -0.293579 -3.023926 -0.239481
  3   18.465939 0.000000 0.000000 0.000000 0.000000 -0.500704
  4   14.875443 0.000000 0.000000 -0.096721 -0.040562 0.237302
  5   0.000006 -0.000004 -4.427393 0.392007 3.081945 0.023340
  6   18.465939 0.000000 0.000000 0.000000 0.000000 -0.371164
  7   14.875442 0.000000 0.000000 0.105786 0.064088 0.369929
  8   2.255207 -0.007574 0.000003 -0.334675 0.008424 0.075309
  9   9.514223 -0.009357 0.000000 0.007128 0.005336 -0.123850
 10   11.752194 -0.001492 0.000000 0.000000 -0.000001 0.239424
 11   -2.131323 0.445615 2.649731 -0.403317 -1.159044 3.274156
 12   4.640941 0.000000 0.000000 -1.206903 -0.189624 -1.139318
 13   10.828045 0.000000 0.000000 0.000000 0.000000 -1.414556
 14   9.393338 -0.000001 0.000000 -1.572191 0.123178 -0.058867
 15   1.442243 0.107453 -1.746178 1.742810 0.349042 0.431626
 16   1.063450 0.000000 -0.000001 0.000000 0.000000 0.174535
 17   1.376307 -0.000001 0.000001 0.000000 0.000000 0.174529
 18   4.172845 -0.251366 -1.312745 0.069543 0.066333 0.874883
 19   1.215373 0.000001 -0.000001 0.000000 0.000000 1.247894
 20   1.215371 -0.000002 0.000000 0.000000 0.000000 1.247894
 21   4.220532 -0.244855 -0.431465 0.018387 0.018764 0.872814
 22   1.350417 0.000000 0.000001 0.000000 0.000000 1.247901
 23   1.350409 0.000000 -0.000001 0.000000 0.000000 1.247901
 24   -2.131323 0.445628 -2.649724 -0.088044 1.370038 2.815040
 25   4.640942 0.000000 0.000000 -0.630965 -0.663482 0.821136
 26   10.828048 0.000000 0.000001 0.000000 0.000000 -1.010748
 27   9.393336 -0.000001 0.000000 2.461759 -0.302623 0.451734
 28   1.442244 0.107454 1.746178 -2.077888 -0.223559 1.294513
 29   1.063451 -0.000001 0.000000 0.000000 0.000000 0.199056
 30   1.376307 -0.000001 0.000000 0.000000 0.000000 0.199059
 31   4.172846 -0.251365 1.312745 -0.008050 -0.095731 0.148659
 32   1.215374 0.000001 -0.000001 0.000000 0.000000 0.645746
 33   1.215373 0.000000 0.000001 0.000000 0.000000 0.645746
 34   4.220533 -0.244853 0.431466 -0.001333 -0.026242 0.148339
 35   1.350415 -0.000001 -0.000001 0.000000 0.000000 0.863937
 36   1.350410 -0.000001 0.000001 0.000000 0.000000 0.863925
 37   2.110541 -0.000001 0.000000 0.327159 0.003369 -0.164736
 38   0.891923 2.373050 -0.014527 -3.141592 -0.000001 1.413797
 39   7.228119 5.709445 3.726568 3.140796 -1.570796 0.000000
 40   2.450426 5.076127 0.001325 3.014142 -1.570796 0.000000
 41   6.312405 -4.528058 0.001311 3.228051 -1.570796 0.000000
 42   2.233309 1.152535 -7.309138 -1.509821 -1.590251 -0.078603
 43   4.262825 -0.232720 -1.392178 0.016840 0.076668 0.253759
time 11
  0   0.422852 1.055990 38.510647 0.000000 0.000000 -1.570843
  1   -0.304370 -0.089846 0.000000 -1.570795 -1.570451 0.000000
  2   -0.000007 0.000008 4.427393 -0.293771 -3.022695 -0.232046
  3   18.465939 0.000000 0.000000 0.000000 0.000000 -0.501654
  4   14.875443 0.000000 0.000000 -0.096544 -0.043946 0.245005
  5   0.000006 -0.000004 -4.427393 0.392486 3.085485 0.037284
  6   18.465939 0.000000 0.000000 0.000000 0.000000 -0.355805
  7   14.875442 0.000000 0.000000 0.106102 0.066089 0.368879
  8   2.255207 -0.007574 0.000003 -0.311933 0.003946 0.054034
  9   9.514223 -0.009357 0.000000 0.010392 0.007836 -0.128721
 10   11.752194 -0.001492 0.000000 0.000000 -0.000001 0.239424
 11   -2.131323 0.445615 2.649731 -0.388454 -1.176369 3.262668
 12   4.640941 0.000000 0.000000 -1.204793 -0.222383 -1.103551
 13   10.828045 0.000000 0.000000 0.000000 0.000000 -1.486123
 14   9.393338 -0.000001 0.000000 -1.570809 0.122452 -0.056473
 15   1.442243 0.107453 -1.746178 1.742810 0.349042 0.431626
 16   1.063450 0.000000 -0.000001 0.000000 0.000000 0.174535
 17   1.376307 -0.000001 0.000001 0.000000 0.000000 0.174529
 18   4.172845 -0.251366 -1.312745 0.069543 0.066333 0.874883
 19   1.215373 0.000001 -0.000001 0.000000 0.000000 1.247894
 20   1.215371 -0.000002 0.000000 0.000000 0.000000 1.247894
 21   4.220532 -0.244855 -0.431465 0.018387 0.018764 0.872814
 22   1.350417 0.000000 0.000001 0.000000 0.000000 1.247901
 23   1.350409 0.000000 -0.000001 0.000000 0.000000 1.247901
 24   -2.131323 0.445628 -2.649724 -0.088044 1.370038 2.815040
 25   4.640942 0.000000 0.000000 -0.644315 -0.641026 0.865862
 26   10.828048 0.000000 0.000001 0.000000 0.000000 -1.022514
 27   9.393336 -0.000001 0.000000 2.458889 -0.302005 0.458281
 28   1.442244 0.107454 1.746178 -2.077888 -0.223559 1.294513
 29   1.063451 -0.000001 0.000000 0.000000 0.000000 0.199056
 30   1.376307 -0.000001 0.000000 0.000000 0.000000 0.199059
 31   4.172846 -0.251365 1.312745 -0.008050 -0.095731 0.148659
 32   1.215374 0.000001 -0.000001 0.000000 0.000000 0.645746
 33   1.215373 0.000000 0.000001 0.000000 0.000000 0.645746
 34   4.220533 -0.244853 0.431466 -0.001333 -0.026242 0.148339
 35   1.350415 -0.000001 -0.000001 0.000000 0.000000 0.863937
 36   1.350410 -0.000001 0.000001 0.000000 0.000000 0.863925
 37   2.110541 -0.000001 0.000000 0.300783 -0.001953 -0.138320
 38   0.891923 2.373050 -0.014527 -3.141592 -0.000001 1.413797
 39   7.228119 5.709445 3.726568 3.140796 -1.570796 0.000000
 40   2.450426 5.076127 0.001325 3.034592 -1.570796 0.000000
 41   6.312405 -4.528058 0.001311 3.228051 -1.570796 0.000000
 42   2.233309 1.152535 -7.309138 -1.505603 -1.587164 -0.074390
 43   4.262825 -0.232720 -1.392178 0.016840 0.076668 0.253759
time 12
  0   0.422852 1.055990 38.510647 0.000000 0.000000 -1.570843
  1   -0.030924 -0.117191 0.000000 -1.570795 -1.570451 0.000000
  2   -0.000007 0.000008 4.427393 -0.294058 -3.021653 -0.223659
  3   18.465939 0.000000 0.000000 0.000000 0.000000 -0.502239
  4   14.875443 0.000000 0.000000 -0.096366 -0.047437 0.253182
  5   0.000006 -0.000004 -4.427393 0.392965 3.089502 0.053007
  6   18.465939 0.000000 0.000000 0.000000 0.000000 -0.337558
  7   14.875442 0.000000 0.000000 0.106523 0.068453 0.366740
  8   2.255207 -0.007574 0.000003 -0.287251 -0.000335 0.030806
  9   9.514223 -0.009357 0.000000 0.013956 0.010564 -0.134025
 10   11.752194 -0.001492 0.000000 0.000000 -0.000001 0.239424
 11   -2.131323 0.445615 2.649731 -0.372162 -1.193744 3.249552
 12   4.640941 0.000000 0.000000 -1.202247 -0.253627 -1.069541
 13   10.828045 0.000000 0.000000 0.000000 0.000000 -1.555677
 14   9.393338 -0.000001 0.000000 -1.570164 0.121688 -0.060478
 15   1.442243 0.107453 -1.746178 1.742810 0.349042 0.431626
 16   1.063450 0.000000 -0.000001 0.000000 0.000000 0.174535
 17   1.376307 -0.000001 0.000001 0.000000 0.000000 0.174529
 18   4.172845 -0.251366 -1.312745 0.069543 0.066333 0.874883
 19   1.215373 0.000001 -0.000001 0.000000 0.000000 1.247894
 20   1.215371 -0.000002 0.000000 0.000000 0.000000 1.247894
 21   4.220532 -0.244855 -0.431465 0.018387 0.018764 0.872814
 22   1.350417 0.000000 0.000001 0.000000 0.000000 1.247901
 23   1.350409 0.000000 -0.000001 0.000000 0.000000 1.247901
 24   -2.131323 0.445628 -2.649724 -0.088044 1.370038 2.815040
 25   4.640942 0.000000 0.000000 -0.657326 -0.615571 0.913457
 26   10.828048 0.000000 0.000001 0.000000 0.000000 -1.036274
 27   9.393336 -0.000001 0.000000 2.456018 -0.301517 0.465652
 28   1.442244 0.107454 1.746178 -2.077888 -0.223559 1.294513
 29   1.063451 -0.000001 0.000000 0.000000 0.000000 0.199056
 30   1.376307 -0.000001 0.000000 0.000000 0.000000 0.199059
 31   4.172846 -0.251365 1.312745 -0.008050 -0.095731 0.148659
 32   1.215374 0.000001 -0.000001 0.000000 0.000000 0.645746
 33   1.215373 0.000000 0.000001 0.000000 0.000000 0.645746
 34   4.220533 -0.244853 0.431466 -0.001333 -0.026242 0.148339
 35   1.350415 -0.000001 -0.000001 0.000000 0.000000 0.863937
 36   1.350410 -0.000001 0.000001 0.000000 0.000000 0.863925
 37   2.110541 -0.000001 0.000000 0.271990 -0.007035 -0.109598
 38   0.891923 2.373050 -0.014527 -3.141592 -0.000001 1.413797
 39   7.228119 5.709445 3.726568 3.140796 -1.570796 0.000000
 40   2.450426 5.076127 0.001325 3.056358 -1.570796 0.000000
 41   6.312405 -4.528058 0.001311 3.228051 -1.570796 0.000000
 42   2.233309 1.152535 -7.309138 -1.501001 -1.583786 -0.069890
 43   4.262825 -0.232720 -1.392178 0.016840 0.076668 0.253759
time 13
  0   0.422852 1.055990 38.510647 0.000000 0.000000 -1.570843
  1   0.254241 -0.140629 0.000000 -1.570795 -1.570451 0.000000
  2   -0.000007 0.000008 4.427393 -0.294441 -3.020801 -0.214890
  3   18.465939 0.000000 0.000000 0.000000 0.000000 -0.502312
  4   14.875443 0.000000 0.000000 -0.096259 -0.050778 0.261439
  5   0.000006 -0.000004 -4.427393 0.393444 3.093712 0.070133
  6   18.465939 0.000000 0.000000 0.000000 0.000000 -0.316752
  7   14.875442 0.000000 0.000000 0.107014 0.071091 0.363326
  8   2.255207 -0.007574 0.000003 -0.261640 -0.004184 0.006719
  9   9.514223 -0.009357 0.000000 0.017633 0.013413 -0.139459
 10   11.752194 -0.001492 0.000000 0.000000 -0.000001 0.239424
 11   -2.131323 0.445615 2.649731 -0.354536 -1.211094 3.234904
 12   4.640941 0.000000 0.000000 -1.199640 -0.284511 -1.036701
 13   10.828045 0.000000 0.000000 0.000000 0.000000 -1.624072
 14   9.393338 -0.000001 0.000000 -1.570072 0.120886 -0.068049
 15   1.442243 0.107453 -1.746178 1.742810 0.349042 0.431626
 16   1.063450 0.000000 -0.000001 0.000000 0.000000 0.174535
 17   1.376307 -0.000001 0.000001 0.000000 0.000000 0.174529
 18   4.172845 -0.251366 -1.312745 0.069543 0.066333 0.874883
 19   1.215373 0.000001 -0.000001 0.000000 0.000000 1.247894
 20   1.215371 -0.000002 0.000000 0.000000 0.000000 1.247894
 21   4.220532 -0.244855 -0.431465 0.018387 0.018764 0.872814
 22   1.350417 0.000000 0.000001 0.000000 0.000000 1.247901
 23   1.350409 0.000000 -0.000001 0.000000 0.000000 1.247901
 24   -2.131323 0.445628 -2.649724 -0.088044 1.370038 2.815040
 25   4.640942 0.000000 0.000000 -0.669071 -0.588303 0.961683
 26   10.828048 0.000000 0.000001 0.000000 0.000000 -1.051384
 27   9.393336 -0.000001 0.000000 2.453148 -0.301257 0.473460
 28   1.442244 0.107454 1.746178 -2.077888 -0.223559 1.294513
 29   1.063451 -0.000001 0.000000 0.000000 0.000000 0.199056
 30   1.376307 -0.000001 0.000000 0.000000 0.000000 0.199059
 31   4.172846 -0.251365 1.312745 -0.008050 -0.095731 0.148659
 32   1.215374 0.000001 -0.000001 0.000000 0.000000 0.645746
 33   1.215373 0.000000 0.000001 0.000000 0.000000 0.645746
 34   4.220533 -0.244853 0.431466 -0.001333 -0.026242 0.148339
 35   1.350415 -0.000001 -0.000001 0.000000 0.000000 0.863937
 36   1.350410 -0.000001 0.000001 0.000000 0.000000 0.863925
 37   2.110541 -0.000001 0.000000 0.242117 -0.011425 -0.079792
 38   0.891923 2.373050 -0.014527 -3.141592 -0.000001 1.413797
 39   7.228119 5.709445 3.726568 3.140796 -1.570796 0.000000
 40   2.450426 5.076127 0.001325 3.078651 -1.570796 0.000000
 41   6.312405 -4.528058 0.001311 3.228051 -1.570796 0.000000
 42   2.233309 1.152535 -7.309138 -1.496207 -1.580291 -0.065295
 43   4.262825 -0.232720 -1.392178 0.016840 0.076668 0.253759
time 14
  0   0.422852 1.055990 38.510647 0.000000 0.000000 -1.570843
  1   0.535500 -0.152348 0.000000 -1.570795 -1.570451 0.000000
  2   -0.000007 0.000008 4.427393 -0.294920 -3.020328 -0.205930
  3   18.465939 0.000000 0.000000 0.000000 0.000000 -0.501873
  4   14.875443 0.000000 0.000000 -0.096153 -0.053865 0.269339
  5   0.000006 -0.000004 -4.427393 0.393828 3.098016 0.087915
  6   18.465939 0.000000 0.000000 0.000000 0.000000 -0.293910
  7   14.875442 0.000000 0.000000 0.107611 0.073910 0.358524
  8   2.255207 -0.007574 0.000003 -0.236367 -0.007366 -0.017005
  9   9.514223 -0.009357 0.000000 0.021197 0.016222 -0.144827
 10   11.752194 -0.001492 0.000000 0.000000 -0.000001 0.239424
 11   -2.131323 0.445615 2.649731 -0.335195 -1.228369 3.218438
 12   4.640941 0.000000 0.000000 -1.197715 -0.316188 -1.004154
 13   10.828045 0.000000 0.000000 0.000000 0.000000 -1.692222
 14   9.393338 -0.000001 0.000000 -1.569980 0.120121 -0.076547
 15   1.442243 0.107453 -1.746178 1.742810 0.349042 0.431626
 16   1.063450 0.000000 -0.000001 0.000000 0.000000 0.174535
 17   1.376307 -0.000001 0.000001 0.000000 0.000000 0.174529
 18   4.172845 -0.251366 -1.312745 0.069543 0.066333 0.874883
 19   1.215373 0.000001 -0.000001 0.000000 0.000000 1.247894
 20   1.215371 -0.000002 0.000000 0.000000 0.000000 1.247894
 21   4.220532 -0.244855 -0.431465 0.018387 0.018764 0.872814
 22   1.350417 0.000000 0.000001 0.000000 0.000000 1.247901
 23   1.350409 0.000000 -0.000001 0.000000 0.000000 1.247901
 24   -2.131323 0.445628 -2.649724 -0.088044 1.370038 2.815040
 25   4.640942 0.000000 0.000000 -0.678872 -0.560547 1.008369
 26   10.828048 0.000000 0.000001 0.000000 0.000000 -1.067136
 27   9.393336 -0.000001 0.000000 2.450333 -0.301225 0.481462
 28   1.442244 0.107454 1.746178 -2.077888 -0.223559 1.294513
 29   1.063451 -0.000001 0.000000 0.000000 0.000000 0.199056
 30   1.376307 -0.000001 0.000000 0.000000 0.000000 0.199059
 31   4.172846 -0.251365 1.312745 -0.008050 -0.095731 0.148659
 32   1.215374 0.000001 -0.000001 0.000000 0.000000 0.645746
 33   1.215373 0.000000 0.000001 0.000000 0.000000 0.645746
 34   4.220533 -0.244853 0.431466 -0.001333 -0.026242 0.148339
 35   1.350415 -0.000001 -0.000001 0.000000 0.000000 0.863937
 36   1.350410 -0.000001 0.000001 0.000000 0.000000 0.863925
 37   2.110541 -0.000001 0.000000 0.212553 -0.014913 -0.050410
 38   0.891923 2.373050 -0.014527 -3.141592 -0.000001 1.413797
 39   7.228119 5.709445 3.726568 3.140796 -1.570796 0.000000
 40   2.450426 5.076127 0.001325 3.100681 -1.570796 0.000000
 41   6.312405 -4.528058 0.001311 3.228051 -1.570796 0.000000
 42   2.233309 1.152535 -7.309138 -1.491414 -1.576854 -0.060795
 43   4.262825 -0.232720 -1.392178 0.016840 0.076668 0.253759
time 15
  0   0.422852 1.055990 38.510647 0.000000 0.000000 -1.570843
  1   0.797227 -0.160161 0.000000 -1.570795 -1.570451 0.000000
  2   -0.000007 0.000008 4.427393 -0.295399 -3.020233 -0.197447
  3   18.465939 0.000000 0.000000 0.000000 0.000000 -0.501069
  4   14.875443 0.000000 0.000000 -0.096082 -0.056525 0.276568
  5   0.000006 -0.000004 -4.427393 0.394115 3.102226 0.105509
  6   18.465939 0.000000 0.000000 0.000000 0.000000 -0.269887
  7   14.875442 0.000000 0.000000 0.108208 0.076699 0.352483
  8   2.255207 -0.007574 0.000003 -0.212570 -0.009781 -0.039372
  9   9.514223 -0.009357 0.000000 0.024536 0.018883 -0.149828
 10   11.752194 -0.001492 0.000000 0.000000 -0.000001 0.239424
 11   -2.131323 0.445615 2.649731 -0.314139 -1.245518 3.200056
 12   4.640941 0.000000 0.000000 -1.197157 -0.349597 -0.970787
 13   10.828045 0.000000 0.000000 0.000000 0.000000 -1.760922
 14   9.393338 -0.000001 0.000000 -1.569703 0.119357 -0.083239
 15   1.442243 0.107453 -1.746178 1.742810 0.349042 0.431626
 16   1.063450 0.000000 -0.000001 0.000000 0.000000 0.174535
 17   1.376307 -0.000001 0.000001 0.000000 0.000000 0.174529
 18   4.172845 -0.251366 -1.312745 0.069543 0.066333 0.874883
 19   1.215373 0.000001 -0.000001 0.000000 0.000000 1.247894
 20   1.215371 -0.000002 0.000000 0.000000 0.000000 1.247894
 21   4.220532 -0.244855 -0.431465 0.018387 0.018764 0.872814
 22   1.350417 0.000000 0.000001 0.000000 0.000000 1.247901
 23   1.350409 0.000000 -0.000001 0.000000 0.000000 1.247901
 24   -2.131323 0.445628 -2.649724 -0.088044 1.370038 2.815040
 25   4.640942 0.000000 0.000000 -0.686307 -0.533837 1.051625
 26   10.828048 0.000000 0.000001 0.000000 0.000000 -1.082632
 27   9.393336 -0.000001 0.000000 2.447518 -0.301452 0.489124
 28   1.442244 0.107454 1.746178 -2.077888 -0.223559 1.294513
 29   1.063451 -0.000001 0.000000 0.000000 0.000000 0.199056
 30   1.376307 -0.000001 0.000000 0.000000 0.000000 0.199059
 31   4.172846 -0.251365 1.312745 -0.008050 -0.095731 0.148659
 32   1.215374 0.000001 -0.000001 0.000000 0.000000 0.645746
 33   1.215373 0.000000 0.000001 0.000000 0.000000 0.645746
 34   4.220533 -0.244853 0.431466 -0.001333 -0.026242 0.148339
 35   1.350415 -0.000001 -0.000001 0.000000 0.000000 0.863937
 36   1.350410 -0.000001 0.000001 0.000000 0.000000 0.863925
 37   2.110541 -0.000001 0.000000 0.184686 -0.017439 -0.022817
 38   0.891923 2.373050 -0.014527 -3.141592 -0.000001 1.413797
 39   7.228119 5.709445 3.726568 3.140796 -1.570796 0.000000
 40   2.450426 5.076127 0.001325 3.121658 -1.570796 0.000000
 41   6.312405 -4.528058 0.001311 3.228051 -1.570796 0.000000
 42   2.233309 1.152535 -7.309138 -1.486620 -1.573621 -0.056870
 43   4.262825 -0.232720 -1.392178 0.016840 0.076668 0.253759
time 16
  0   0.422852 1.055990 38.510647 0.000000 0.000000 -1.570843
  1   1.031609 -0.156255 0.000000 -1.570795 -1.570451 0.000000
  2   -0.000007 0.000008 4.427393 -0.295495 -3.020422 -0.189727
  3   18.465939 0.000000 0.000000 0.000000 0.000000 -0.499973
  4   14.875443 0.000000 0.000000 -0.096401 -0.058696 0.282810
  5   0.000006 -0.000004 -4.427393 0.394307 3.106243 0.122167
  6   18.465939 0.000000 0.000000 0.000000 0.000000 -0.245996
  7   14.875442 0.000000 0.000000 0.108875 0.079306 0.345618
  8   2.255207 -0.007574 0.000003 -0.191432 -0.011470 -0.059159
  9   9.514223 -0.009357 0.000000 0.027500 0.021262 -0.154266
 10   11.752194 -0.001492 0.000000 0.000000 -0.000001 0.239424
 11   -2.131323 0.445615 2.649731 -0.290987 -1.262490 3.179378
 12   4.640941 0.000000 0.000000 -1.198771 -0.385676 -0.935313
 13   10.828045 0.000000 0.000000 0.000000 0.000000 -1.831025
 14   9.393338 -0.000001 0.000000 -1.568874 0.118593 -0.085388
 15   1.442243 0.107453 -1.746178 1.742810 0.349042 0.431626
 16   1.063450 0.000000 -0.000001 0.000000 0.000000 0.174535
 17   1.376307 -0.000001 0.000001 0.000000 0.000000 0.174529
 18   4.172845 -0.251366 -1.312745 0.069543 0.066333 0.874883
 19   1.215373 0.000001 -0.000001 0.000000 0.000000 1.247894
 20   1.215371 -0.000002 0.000000 0.000000 0.000000 1.247894
 21   4.220532 -0.244855 -0.431465 0.018387 0.018764 0.872814
 22   1.350417 0.000000 0.000001 0.000000 0.000000 1.247901
 23   1.350409 0.000000 -0.000001 0.000000 0.000000 1.247901
 24   -2.131323 0.445628 -2.649724 -0.088044 1.370038 2.815040
 25   4.640942 0.000000 0.000000 -0.691461 -0.509777 1.089491
 26   10.828048 0.000000 0.000001 0.000000 0.000000 -1.096906
 27   9.393336 -0.000001 0.000000 2.444703 -0.301875 0.496156
 28   1.442244 0.107454 1.746178 -2.077888 -0.223559 1.294513
 29   1.063451 -0.000001 0.000000 0.000000 0.000000 0.199056
 30   1.376307 -0.000001 0.000000 0.000000 0.000000 0.199059
 31   4.172846 -0.251365 1.312745 -0.008050 -0.095731 0.148659
 32   1.215374 0.000001 -0.000001 0.000000 0.000000 0.645746
 33   1.215373 0.000000 0.000001 0.000000 0.000000 0.645746
 34   4.220533 -0.244853 0.431466 -0.001333 -0.026242 0.148339
 35   1.350415 -0.000001 -0.000001 0.000000 0.000000 0.863937
 36   1.350410 -0.000001 0.000001 0.000000 0.000000 0.863925
 37   2.110541 -0.000001 0.000000 0.159903 -0.019062 0.001574
 38   0.891923 2.373050 -0.014527 -3.141592 -0.000001 1.413797
 39   7.228119 5.709445 3.726568 3.140796 -1.570796 0.000000
 40   2.450426 5.076127 0.001325 3.140791 -1.570796 0.000000
 41   6.312405 -4.528058 0.001311 3.228051 -1.570796 0.000000
 42   2.233309 1.152535 -7.309138 -1.535898 -1.570796 0.000000
 43   4.262825 -0.232720 -1.392178 0.016840 0.076668 0.253759
end
