version 1
nodes
  0 "Bip01" -1
  1 "Bip01 Pelvis" 0
  2 "Bip01 L Thigh" 1
  3 "Bip01 L Calf" 2
  4 "Bip01 L Foot" 3
  5 "Bip01 R Thigh" 1
  6 "Bip01 R Calf" 5
  7 "Bip01 R Foot" 6
  8 "Bip01 Spine" 1
  9 "Bip01 Spine1" 8
 10 "Bip01 Neck" 9
 11 "Bip01 L Clavicle" 10
 12 "Bip01 L UpperArm" 11
 13 "Bip01 L Forearm" 12
 14 "Bip01 L Hand" 13
 15 "Bip01 L Finger0" 14
 16 "Bip01 L Finger01" 15
 17 "Bip01 L Finger02" 16
 18 "Bip01 L Finger1" 14
 19 "Bip01 L Finger11" 18
 20 "Bip01 L Finger12" 19
 21 "Bip01 L Finger2" 14
 22 "Bip01 L Finger21" 21
 23 "Bip01 L Finger22" 22
 24 "Bip01 R Clavicle" 10
 25 "Bip01 R UpperArm" 24
 26 "Bip01 R Forearm" 25
 27 "Bip01 R Hand" 26
 28 "Bip01 R Finger0" 27
 29 "Bip01 R Finger01" 28
 30 "Bip01 R Finger02" 29
 31 "Bip01 R Finger1" 27
 32 "Bip01 R Finger11" 31
 33 "Bip01 R Finger12" 32
 34 "Bip01 R Finger2" 27
 35 "Bip01 R Finger21" 34
 36 "Bip01 R Finger22" 35
 37 "Bip01 Head" 10
 38 "Bone05" 37
 39 "Bone08" 9
 40 "Bone16" 8
 41 "Bone01" 8
 42 "Bone03" 1
 43 "Bip01 R Finger4" 27
end
skeleton
time 0
  0   1.727579 6.791367 38.274296 0.000000 0.000000 -1.701715
  1   0.164395 -0.125004 0.000000 -1.570795 -1.570451 0.000000
  2   -0.000007 0.000008 4.427393 -0.170749 -3.152983 0.000903
  3   18.465939 0.000000 0.000000 0.000000 0.000000 -0.416557
  4   14.875443 0.000000 0.000000 0.018467 0.017437 0.402071
  5   0.000006 -0.000004 -4.427393 0.106016 3.095625 -0.362237
  6   18.465939 0.000000 0.000000 0.000000 0.000000 -0.394334
  7   14.875442 0.000000 0.000000 -0.002065 0.005218 0.029344
  8   2.255207 -0.007574 0.000003 0.122101 -0.017401 -0.001322
  9   9.514223 -0.009357 0.000000 -0.008779 0.002352 -0.095902
 10   11.752194 -0.001492 0.000000 0.000024 0.043599 0.440031
 11   -2.111792 0.863597 2.563791 0.697216 -1.395374 2.006326
 12   4.640941 0.000000 0.000000 0.738480 1.089874 0.724820
 13   10.828045 0.000000 0.000000 0.000000 0.000000 -0.470452
 14   9.393338 -0.000001 0.000000 -1.569611 0.034195 0.000037
 15   1.442243 0.107453 -1.746178 1.686435 0.539209 0.325885
 16   1.063450 0.000000 -0.000001 0.000000 0.000000 0.199056
 17   1.376307 -0.000001 0.000001 0.000000 0.000000 0.199049
 18   4.172845 -0.251366 -1.312745 0.008050 0.095731 0.148659
 19   1.215373 0.000001 -0.000001 0.000000 0.000000 0.645758
 20   1.215371 -0.000002 0.000000 0.000000 0.000000 0.645758
 21   4.220532 -0.244855 -0.431465 0.001333 0.026242 0.148339
 22   1.350417 0.000000 0.000001 0.000000 0.000000 0.863926
 23   1.350409 0.000000 -0.000001 0.000000 0.000000 0.863926
 24   -1.885222 0.863610 -2.731758 -0.942447 1.461427 1.764337
 25   4.640942 0.000000 0.000000 -0.601477 -1.183875 0.506934
 26   10.828048 0.000000 0.000001 0.000000 0.000000 -0.234230
 27   9.393336 -0.000001 0.000000 1.569611 -0.034192 0.000001
 28   1.442244 0.107454 1.746178 -1.686405 -0.539236 0.325898
 29   1.063451 -0.000001 0.000000 0.000000 0.000000 0.199056
 30   1.376307 -0.000001 0.000000 0.000000 0.000000 0.199059
 31   4.172846 -0.251365 1.312745 -0.008050 -0.095731 0.148659
 32   1.215374 0.000001 -0.000001 0.000000 0.000000 0.645746
 33   1.215373 0.000000 0.000001 0.000000 0.000000 0.645746
 34   4.220533 -0.244853 0.431466 -0.001333 -0.026242 0.148339
 35   1.350415 -0.000001 -0.000001 0.000000 0.000000 0.863937
 36   1.350410 -0.000001 0.000001 0.000000 0.000000 0.863925
 37   2.110541 -0.000001 0.000000 0.002417 -0.010493 -0.153718
 38   0.891923 2.373050 -0.014527 -3.141592 -0.000001 1.413797
 39   7.228119 5.709445 3.726568 3.140796 -1.570796 0.000000
 40   2.450426 5.076127 0.001325 3.140791 -1.570796 0.000000
 41   6.312405 -4.528058 0.001311 3.140791 -1.570796 0.000000
 42   2.233309 1.152535 -7.309138 -1.140137 -1.562088 -0.884450
 43   4.262825 -0.232720 -1.392178 0.016840 0.076668 0.253759
time 1
  0   1.692422 6.791367 38.274296 0.000000 0.000000 -1.701715
  1   0.148769 -0.128910 0.000000 -1.570795 -1.570451 0.000000
  2   -0.000007 0.000008 4.427393 -0.170557 -3.151752 -0.000336
  3   18.465939 0.000000 0.000000 0.000000 0.000000 -0.418019
  4   14.875443 0.000000 0.000000 0.018290 0.016437 0.402110
  5   0.000006 -0.000004 -4.427393 0.106208 3.096868 -0.362424
  6   18.465939 0.000000 0.000000 0.000000 0.000000 -0.393546
  7   14.875442 0.000000 0.000000 -0.001854 0.004036 0.028481
  8   2.255207 -0.007574 0.000003 0.122101 -0.017558 -0.000097
  9   9.514223 -0.009357 0.000000 -0.008779 0.002365 -0.095296
 10   11.752194 -0.001492 0.000000 0.000024 0.043599 0.440031
 11   -2.111792 0.863597 2.563791 0.663297 -1.393863 2.040408
 12   4.640941 0.000000 0.000000 0.728733 1.086916 0.712293
 13   10.828045 0.000000 0.000000 0.000000 0.000000 -0.470452
 14   9.393338 -0.000001 0.000000 -1.569611 0.034195 0.000037
 15   1.442243 0.107453 -1.746178 1.686435 0.539209 0.325885
 16   1.063450 0.000000 -0.000001 0.000000 0.000000 0.199056
 17   1.376307 -0.000001 0.000001 0.000000 0.000000 0.199049
 18   4.172845 -0.251366 -1.312745 0.008050 0.095731 0.148659
 19   1.215373 0.000001 -0.000001 0.000000 0.000000 0.645758
 20   1.215371 -0.000002 0.000000 0.000000 0.000000 0.645758
 21   4.220532 -0.244855 -0.431465 0.001333 0.026242 0.148339
 22   1.350417 0.000000 0.000001 0.000000 0.000000 0.863926
 23   1.350409 0.000000 -0.000001 0.000000 0.000000 0.863926
 24   -1.885222 0.863610 -2.731758 -0.905328 1.460670 1.801515
 25   4.640942 0.000000 0.000000 -0.592775 -1.181295 0.496925
 26   10.828048 0.000000 0.000001 0.000000 0.000000 -0.234230
 27   9.393336 -0.000001 0.000000 1.569611 -0.034192 0.000001
 28   1.442244 0.107454 1.746178 -1.686405 -0.539236 0.325898
 29   1.063451 -0.000001 0.000000 0.000000 0.000000 0.199056
 30   1.376307 -0.000001 0.000000 0.000000 0.000000 0.199059
 31   4.172846 -0.251365 1.312745 -0.008050 -0.095731 0.148659
 32   1.215374 0.000001 -0.000001 0.000000 0.000000 0.645746
 33   1.215373 0.000000 0.000001 0.000000 0.000000 0.645746
 34   4.220533 -0.244853 0.431466 -0.001333 -0.026242 0.148339
 35   1.350415 -0.000001 -0.000001 0.000000 0.000000 0.863937
 36   1.350410 -0.000001 0.000001 0.000000 0.000000 0.863925
 37   2.110541 -0.000001 0.000000 0.002519 -0.010493 -0.155554
 38   0.891923 2.373050 -0.014527 -3.141592 -0.000001 1.413797
 39   7.228119 5.709445 3.726568 3.140796 -1.570796 0.000000
 40   2.450426 5.076127 0.001325 3.140791 -1.570796 0.000000
 41   6.312405 -4.528058 0.001311 3.140791 -1.570796 0.000000
 42   2.233309 1.152535 -7.309138 -1.140041 -1.560864 -0.884450
 43   4.262825 -0.232720 -1.392178 0.016840 0.076668 0.253759
time 2
  0   1.653358 6.791367 38.274296 0.000000 0.000000 -1.701715
  1   0.133144 -0.128910 0.000000 -1.570795 -1.570451 0.000000
  2   -0.000007 0.000008 4.427393 -0.170366 -3.150332 -0.001671
  3   18.465939 0.000000 0.000000 0.000000 0.000000 -0.419555
  4   14.875443 0.000000 0.000000 0.018076 0.015309 0.402189
  5   0.000006 -0.000004 -4.427393 0.106495 3.098112 -0.362705
  6   18.465939 0.000000 0.000000 0.000000 0.000000 -0.392693
  7   14.875442 0.000000 0.000000 -0.001573 0.002732 0.027543
  8   2.255207 -0.007574 0.000003 0.122101 -0.017715 0.001226
  9   9.514223 -0.009357 0.000000 -0.008779 0.002365 -0.094603
 10   11.752194 -0.001492 0.000000 0.000024 0.043599 0.440031
 11   -2.111792 0.863597 2.563791 0.626712 -1.391949 2.077266
 12   4.640941 0.000000 0.000000 0.718242 1.083596 0.698712
 13   10.828045 0.000000 0.000000 0.000000 0.000000 -0.470452
 14   9.393338 -0.000001 0.000000 -1.569611 0.034195 0.000037
 15   1.442243 0.107453 -1.746178 1.686435 0.539209 0.325885
 16   1.063450 0.000000 -0.000001 0.000000 0.000000 0.199056
 17   1.376307 -0.000001 0.000001 0.000000 0.000000 0.199049
 18   4.172845 -0.251366 -1.312745 0.008050 0.095731 0.148659
 19   1.215373 0.000001 -0.000001 0.000000 0.000000 0.645758
 20   1.215371 -0.000002 0.000000 0.000000 0.000000 0.645758
 21   4.220532 -0.244855 -0.431465 0.001333 0.026242 0.148339
 22   1.350417 0.000000 0.000001 0.000000 0.000000 0.863926
 23   1.350409 0.000000 -0.000001 0.000000 0.000000 0.863926
 24   -1.885222 0.863610 -2.731758 -0.865153 1.459642 1.841683
 25   4.640942 0.000000 0.000000 -0.583396 -1.178436 0.486006
 26   10.828048 0.000000 0.000001 0.000000 0.000000 -0.234230
 27   9.393336 -0.000001 0.000000 1.569611 -0.034192 0.000001
 28   1.442244 0.107454 1.746178 -1.686405 -0.539236 0.325898
 29   1.063451 -0.000001 0.000000 0.000000 0.000000 0.199056
 30   1.376307 -0.000001 0.000000 0.000000 0.000000 0.199059
 31   4.172846 -0.251365 1.312745 -0.008050 -0.095731 0.148659
 32   1.215374 0.000001 -0.000001 0.000000 0.000000 0.645746
 33   1.215373 0.000000 0.000001 0.000000 0.000000 0.645746
 34   4.220533 -0.244853 0.431466 -0.001333 -0.026242 0.148339
 35   1.350415 -0.000001 -0.000001 0.000000 0.000000 0.863937
 36   1.350410 -0.000001 0.000001 0.000000 0.000000 0.863925
 37   2.110541 -0.000001 0.000000 0.002571 -0.010463 -0.157626
 38   0.891923 2.373050 -0.014527 -3.141592 -0.000001 1.413797
 39   7.228119 5.709445 3.726568 3.140796 -1.570796 0.000000
 40   2.450426 5.076127 0.001325 3.140791 -1.570796 0.000000
 41   6.312405 -4.528058 0.001311 3.140791 -1.570796 0.000000
 42   2.233309 1.152535 -7.309138 -1.140137 -1.559496 -0.884450
 43   4.262825 -0.232720 -1.392178 0.016840 0.076668 0.253759
time 3
  0   1.610388 6.791367 38.274296 0.000000 0.000000 -1.701715
  1   0.113612 -0.132817 0.000000 -1.570795 -1.570451 0.000000
  2   -0.000007 0.000008 4.427393 -0.170174 -3.148911 -0.003005
  3   18.465939 0.000000 0.000000 0.000000 0.000000 -0.421236
  4   14.875443 0.000000 0.000000 0.017899 0.014095 0.402229
  5   0.000006 -0.000004 -4.427393 0.106687 3.099547 -0.362892
  6   18.465939 0.000000 0.000000 0.000000 0.000000 -0.391709
  7   14.875442 0.000000 0.000000 -0.001328 0.001338 0.026493
  8   2.255207 -0.007574 0.000003 0.122101 -0.017892 0.002682
  9   9.514223 -0.009357 0.000000 -0.008779 0.002379 -0.093889
 10   11.752194 -0.001492 0.000000 0.000024 0.043599 0.440031
 11   -2.111792 0.863597 2.563791 0.588411 -1.389657 2.115657
 12   4.640941 0.000000 0.000000 0.707191 1.079989 0.684429
 13   10.828045 0.000000 0.000000 0.000000 0.000000 -0.470452
 14   9.393338 -0.000001 0.000000 -1.569611 0.034195 0.000037
 15   1.442243 0.107453 -1.746178 1.686435 0.539209 0.325885
 16   1.063450 0.000000 -0.000001 0.000000 0.000000 0.199056
 17   1.376307 -0.000001 0.000001 0.000000 0.000000 0.199049
 18   4.172845 -0.251366 -1.312745 0.008050 0.095731 0.148659
 19   1.215373 0.000001 -0.000001 0.000000 0.000000 0.645758
 20   1.215371 -0.000002 0.000000 0.000000 0.000000 0.645758
 21   4.220532 -0.244855 -0.431465 0.001333 0.026242 0.148339
 22   1.350417 0.000000 0.000001 0.000000 0.000000 0.863926
 23   1.350409 0.000000 -0.000001 0.000000 0.000000 0.863926
 24   -1.885222 0.863610 -2.731758 -0.823035 1.458371 1.883817
 25   4.640942 0.000000 0.000000 -0.573595 -1.175297 0.474527
 26   10.828048 0.000000 0.000001 0.000000 0.000000 -0.234230
 27   9.393336 -0.000001 0.000000 1.569611 -0.034192 0.000001
 28   1.442244 0.107454 1.746178 -1.686405 -0.539236 0.325898
 29   1.063451 -0.000001 0.000000 0.000000 0.000000 0.199056
 30   1.376307 -0.000001 0.000000 0.000000 0.000000 0.199059
 31   4.172846 -0.251365 1.312745 -0.008050 -0.095731 0.148659
 32   1.215374 0.000001 -0.000001 0.000000 0.000000 0.645746
 33   1.215373 0.000000 0.000001 0.000000 0.000000 0.645746
 34   4.220533 -0.244853 0.431466 -0.001333 -0.026242 0.148339
 35   1.350415 -0.000001 -0.000001 0.000000 0.000000 0.863937
 36   1.350410 -0.000001 0.000001 0.000000 0.000000 0.863925
 37   2.110541 -0.000001 0.000000 0.002674 -0.010433 -0.159792
 38   0.891923 2.373050 -0.014527 -3.141592 -0.000001 1.413797
 39   7.228119 5.709445 3.726568 3.140796 -1.570796 0.000000
 40   2.450426 5.076127 0.001325 3.140791 -1.570796 0.000000
 41   6.312405 -4.528058 0.001311 3.140791 -1.570796 0.000000
 42   2.233309 1.152535 -7.309138 -1.140137 -1.558039 -0.884450
 43   4.262825 -0.232720 -1.392178 0.016840 0.076668 0.253759
time 4
  0   1.567418 6.791367 38.274296 0.000000 0.000000 -1.701715
  1   0.094080 -0.136723 0.000000 -1.570795 -1.570451 0.000000
  2   -0.000007 0.000008 4.427393 -0.169983 -3.147397 -0.004435
  3   18.465939 0.000000 0.000000 0.000000 0.000000 -0.422918
  4   14.875443 0.000000 0.000000 0.017685 0.012840 0.402268
  5   0.000006 -0.000004 -4.427393 0.106974 3.100982 -0.363079
  6   18.465939 0.000000 0.000000 0.000000 0.000000 -0.390724
  7   14.875442 0.000000 0.000000 -0.001082 -0.000117 0.025405
  8   2.255207 -0.007574 0.000003 0.122101 -0.018089 0.004171
  9   9.514223 -0.009357 0.000000 -0.008779 0.002379 -0.093131
 10   11.752194 -0.001492 0.000000 0.000024 0.043599 0.440031
 11   -2.111792 0.863597 2.563791 0.549538 -1.386988 2.154621
 12   4.640941 0.000000 0.000000 0.696016 1.076092 0.669736
 13   10.828045 0.000000 0.000000 0.000000 0.000000 -0.470452
 14   9.393338 -0.000001 0.000000 -1.569611 0.034195 0.000037
 15   1.442243 0.107453 -1.746178 1.686435 0.539209 0.325885
 16   1.063450 0.000000 -0.000001 0.000000 0.000000 0.199056
 17   1.376307 -0.000001 0.000001 0.000000 0.000000 0.199049
 18   4.172845 -0.251366 -1.312745 0.008050 0.095731 0.148659
 19   1.215373 0.000001 -0.000001 0.000000 0.000000 0.645758
 20   1.215371 -0.000002 0.000000 0.000000 0.000000 0.645758
 21   4.220532 -0.244855 -0.431465 0.001333 0.026242 0.148339
 22   1.350417 0.000000 0.000001 0.000000 0.000000 0.863926
 23   1.350409 0.000000 -0.000001 0.000000 0.000000 0.863926
 24   -1.885222 0.863610 -2.731758 -0.780268 1.456827 1.926635
 25   4.640942 0.000000 0.000000 -0.563540 -1.172090 0.462768
 26   10.828048 0.000000 0.000001 0.000000 0.000000 -0.234230
 27   9.393336 -0.000001 0.000000 1.569611 -0.034192 0.000001
 28   1.442244 0.107454 1.746178 -1.686405 -0.539236 0.325898
 29   1.063451 -0.000001 0.000000 0.000000 0.000000 0.199056
 30   1.376307 -0.000001 0.000000 0.000000 0.000000 0.199059
 31   4.172846 -0.251365 1.312745 -0.008050 -0.095731 0.148659
 32   1.215374 0.000001 -0.000001 0.000000 0.000000 0.645746
 33   1.215373 0.000000 0.000001 0.000000 0.000000 0.645746
 34   4.220533 -0.244853 0.431466 -0.001333 -0.026242 0.148339
 35   1.350415 -0.000001 -0.000001 0.000000 0.000000 0.863937
 36   1.350410 -0.000001 0.000001 0.000000 0.000000 0.863925
 37   2.110541 -0.000001 0.000000 0.002725 -0.010403 -0.162052
 38   0.891923 2.373050 -0.014527 -3.141592 -0.000001 1.413797
 39   7.228119 5.709445 3.726568 3.140796 -1.570796 0.000000
 40   2.450426 5.076127 0.001325 3.140791 -1.570796 0.000000
 41   6.312405 -4.528058 0.001311 3.140791 -1.570796 0.000000
 42   2.233309 1.152535 -7.309138 -1.140137 -1.556525 -0.884450
 43   4.262825 -0.232720 -1.392178 0.016840 0.076668 0.253759
time 5
  0   1.524448 6.791367 38.274296 0.000000 0.000000 -1.701715
  1   0.074548 -0.136723 0.000000 -1.570795 -1.570451 0.000000
  2   -0.000007 0.000008 4.427393 -0.169695 -3.145881 -0.005864
  3   18.465939 0.000000 0.000000 0.000000 0.000000 -0.424672
  4   14.875443 0.000000 0.000000 0.017472 0.011563 0.402268
  5   0.000006 -0.000004 -4.427393 0.107166 3.102417 -0.363360
  6   18.465939 0.000000 0.000000 0.000000 0.000000 -0.389608
  7   14.875442 0.000000 0.000000 -0.000801 -0.001603 0.024279
  8   2.255207 -0.007574 0.000003 0.122101 -0.018265 0.005693
  9   9.514223 -0.009357 0.000000 -0.008779 0.002392 -0.092352
 10   11.752194 -0.001492 0.000000 0.000024 0.043599 0.440031
 11   -2.111792 0.863597 2.563791 0.511142 -1.383966 2.193107
 12   4.640941 0.000000 0.000000 0.684842 1.072123 0.655043
 13   10.828045 0.000000 0.000000 0.000000 0.000000 -0.470452
 14   9.393338 -0.000001 0.000000 -1.569611 0.034195 0.000037
 15   1.442243 0.107453 -1.746178 1.686435 0.539209 0.325885
 16   1.063450 0.000000 -0.000001 0.000000 0.000000 0.199056
 17   1.376307 -0.000001 0.000001 0.000000 0.000000 0.199049
 18   4.172845 -0.251366 -1.312745 0.008050 0.095731 0.148659
 19   1.215373 0.000001 -0.000001 0.000000 0.000000 0.645758
 20   1.215371 -0.000002 0.000000 0.000000 0.000000 0.645758
 21   4.220532 -0.244855 -0.431465 0.001333 0.026242 0.148339
 22   1.350417 0.000000 0.000001 0.000000 0.000000 0.863926
 23   1.350409 0.000000 -0.000001 0.000000 0.000000 0.863926
 24   -1.885222 0.863610 -2.731758 -0.737779 1.455042 1.969025
 25   4.640942 0.000000 0.000000 -0.553486 -1.168672 0.451009
 26   10.828048 0.000000 0.000001 0.000000 0.000000 -0.234230
 27   9.393336 -0.000001 0.000000 1.569611 -0.034192 0.000001
 28   1.442244 0.107454 1.746178 -1.686405 -0.539236 0.325898
 29   1.063451 -0.000001 0.000000 0.000000 0.000000 0.199056
 30   1.376307 -0.000001 0.000000 0.000000 0.000000 0.199059
 31   4.172846 -0.251365 1.312745 -0.008050 -0.095731 0.148659
 32   1.215374 0.000001 -0.000001 0.000000 0.000000 0.645746
 33   1.215373 0.000000 0.000001 0.000000 0.000000 0.645746
 34   4.220533 -0.244853 0.431466 -0.001333 -0.026242 0.148339
 35   1.350415 -0.000001 -0.000001 0.000000 0.000000 0.863937
 36   1.350410 -0.000001 0.000001 0.000000 0.000000 0.863925
 37   2.110541 -0.000001 0.000000 0.002828 -0.010343 -0.164359
 38   0.891923 2.373050 -0.014527 -3.141592 -0.000001 1.413797
 39   7.228119 5.709445 3.726568 3.140796 -1.570796 0.000000
 40   2.450426 5.076127 0.001325 3.140791 -1.570796 0.000000
 41   6.312405 -4.528058 0.001311 3.140791 -1.570796 0.000000
 42   2.233309 1.152535 -7.309138 -1.140137 -1.554981 -0.884450
 43   4.262825 -0.232720 -1.392178 0.016840 0.076668 0.253759
time 6
  0   1.481478 6.791367 38.274296 0.000000 0.000000 -1.701715
  1   0.055016 -0.140629 0.000000 -1.570795 -1.570451 0.000000
  2   -0.000007 0.000008 4.427393 -0.169504 -3.144367 -0.007294
  3   18.465939 0.000000 0.000000 0.000000 0.000000 -0.426354
  4   14.875443 0.000000 0.000000 0.017223 0.010286 0.402268
  5   0.000006 -0.000004 -4.427393 0.107454 3.103852 -0.363547
  6   18.465939 0.000000 0.000000 0.000000 0.000000 -0.388492
  7   14.875442 0.000000 0.000000 -0.000520 -0.003058 0.023116
  8   2.255207 -0.007574 0.000003 0.122101 -0.018462 0.007248
  9   9.514223 -0.009357 0.000000 -0.008779 0.002392 -0.091572
 10   11.752194 -0.001492 0.000000 0.000024 0.043599 0.440031
 11   -2.111792 0.863597 2.563791 0.473984 -1.380693 2.230348
 12   4.640941 0.000000 0.000000 0.673915 1.068010 0.640526
 13   10.828045 0.000000 0.000000 0.000000 0.000000 -0.470452
 14   9.393338 -0.000001 0.000000 -1.569611 0.034195 0.000037
 15   1.442243 0.107453 -1.746178 1.686435 0.539209 0.325885
 16   1.063450 0.000000 -0.000001 0.000000 0.000000 0.199056
 17   1.376307 -0.000001 0.000001 0.000000 0.000000 0.199049
 18   4.172845 -0.251366 -1.312745 0.008050 0.095731 0.148659
 19   1.215373 0.000001 -0.000001 0.000000 0.000000 0.645758
 20   1.215371 -0.000002 0.000000 0.000000 0.000000 0.645758
 21   4.220532 -0.244855 -0.431465 0.001333 0.026242 0.148339
 22   1.350417 0.000000 0.000001 0.000000 0.000000 0.863926
 23   1.350409 0.000000 -0.000001 0.000000 0.000000 0.863926
 24   -1.885222 0.863610 -2.731758 -0.696679 1.453075 2.010134
 25   4.640942 0.000000 0.000000 -0.543685 -1.165255 0.439390
 26   10.828048 0.000000 0.000001 0.000000 0.000000 -0.234230
 27   9.393336 -0.000001 0.000000 1.569611 -0.034192 0.000001
 28   1.442244 0.107454 1.746178 -1.686405 -0.539236 0.325898
 29   1.063451 -0.000001 0.000000 0.000000 0.000000 0.199056
 30   1.376307 -0.000001 0.000000 0.000000 0.000000 0.199059
 31   4.172846 -0.251365 1.312745 -0.008050 -0.095731 0.148659
 32   1.215374 0.000001 -0.000001 0.000000 0.000000 0.645746
 33   1.215373 0.000000 0.000001 0.000000 0.000000 0.645746
 34   4.220533 -0.244853 0.431466 -0.001333 -0.026242 0.148339
 35   1.350415 -0.000001 -0.000001 0.000000 0.000000 0.863937
 36   1.350410 -0.000001 0.000001 0.000000 0.000000 0.863925
 37   2.110541 -0.000001 0.000000 0.002879 -0.010312 -0.166667
 38   0.891923 2.373050 -0.014527 -3.141592 -0.000001 1.413797
 39   7.228119 5.709445 3.726568 3.140796 -1.570796 0.000000
 40   2.450426 5.076127 0.001325 3.140791 -1.570796 0.000000
 41   6.312405 -4.528058 0.001311 3.140791 -1.570796 0.000000
 42   2.233309 1.152535 -7.309138 -1.140041 -1.553438 -0.884450
 43   4.262825 -0.232720 -1.392178 0.016840 0.076668 0.253759
time 7
  0   1.438508 6.791367 38.274296 0.000000 0.000000 -1.701715
  1   0.035485 -0.140629 0.000000 -1.570795 -1.570451 0.000000
  2   -0.000007 0.000008 4.427393 -0.169216 -3.142852 -0.008724
  3   18.465939 0.000000 0.000000 0.000000 0.000000 -0.427962
  4   14.875443 0.000000 0.000000 0.017010 0.009030 0.402268
  5   0.000006 -0.000004 -4.427393 0.107741 3.105287 -0.363734
  6   18.465939 0.000000 0.000000 0.000000 0.000000 -0.387377
  7   14.875442 0.000000 0.000000 -0.000240 -0.004513 0.021991
  8   2.255207 -0.007574 0.000003 0.122101 -0.018638 0.008737
  9   9.514223 -0.009357 0.000000 -0.008742 0.002406 -0.090836
 10   11.752194 -0.001492 0.000000 0.000024 0.043599 0.440031
 11   -2.111792 0.863597 2.563791 0.438827 -1.377243 2.265579
 12   4.640941 0.000000 0.000000 0.663486 1.063897 0.626594
 13   10.828045 0.000000 0.000000 0.000000 0.000000 -0.470452
 14   9.393338 -0.000001 0.000000 -1.569611 0.034195 0.000037
 15   1.442243 0.107453 -1.746178 1.686435 0.539209 0.325885
 16   1.063450 0.000000 -0.000001 0.000000 0.000000 0.199056
 17   1.376307 -0.000001 0.000001 0.000000 0.000000 0.199049
 18   4.172845 -0.251366 -1.312745 0.008050 0.095731 0.148659
 19   1.215373 0.000001 -0.000001 0.000000 0.000000 0.645758
 20   1.215371 -0.000002 0.000000 0.000000 0.000000 0.645758
 21   4.220532 -0.244855 -0.431465 0.001333 0.026242 0.148339
 22   1.350417 0.000000 0.000001 0.000000 0.000000 0.863926
 23   1.350409 0.000000 -0.000001 0.000000 0.000000 0.863926
 24   -1.885222 0.863610 -2.731758 -0.657801 1.450957 2.048935
 25   4.640942 0.000000 0.000000 -0.534306 -1.161838 0.428191
 26   10.828048 0.000000 0.000001 0.000000 0.000000 -0.234230
 27   9.393336 -0.000001 0.000000 1.569611 -0.034192 0.000001
 28   1.442244 0.107454 1.746178 -1.686405 -0.539236 0.325898
 29   1.063451 -0.000001 0.000000 0.000000 0.000000 0.199056
 30   1.376307 -0.000001 0.000000 0.000000 0.000000 0.199059
 31   4.172846 -0.251365 1.312745 -0.008050 -0.095731 0.148659
 32   1.215374 0.000001 -0.000001 0.000000 0.000000 0.645746
 33   1.215373 0.000000 0.000001 0.000000 0.000000 0.645746
 34   4.220533 -0.244853 0.431466 -0.001333 -0.026242 0.148339
 35   1.350415 -0.000001 -0.000001 0.000000 0.000000 0.863937
 36   1.350410 -0.000001 0.000001 0.000000 0.000000 0.863925
 37   2.110541 -0.000001 0.000000 0.002982 -0.010282 -0.168974
 38   0.891923 2.373050 -0.014527 -3.141592 -0.000001 1.413797
 39   7.228119 5.709445 3.726568 3.140796 -1.570796 0.000000
 40   2.450426 5.076127 0.001325 3.140791 -1.570796 0.000000
 41   6.312405 -4.528058 0.001311 3.140791 -1.570796 0.000000
 42   2.233309 1.152535 -7.309138 -1.140137 -1.551923 -0.884450
 43   4.262825 -0.232720 -1.392178 0.016840 0.076668 0.253759
time 8
  0   1.395538 6.791367 38.274296 0.000000 0.000000 -1.701715
  1   0.015953 -0.144536 0.000000 -1.570795 -1.570451 0.000000
  2   -0.000007 0.000008 4.427393 -0.168929 -3.141337 -0.010058
  3   18.465939 0.000000 0.000000 0.000000 0.000000 -0.429497
  4   14.875443 0.000000 0.000000 0.016832 0.007838 0.402229
  5   0.000006 -0.000004 -4.427393 0.107933 3.106722 -0.363922
  6   18.465939 0.000000 0.000000 0.000000 0.000000 -0.386326
  7   14.875442 0.000000 0.000000 0.000006 -0.005907 0.020865
  8   2.255207 -0.007574 0.000003 0.122101 -0.018815 0.010193
  9   9.514223 -0.009357 0.000000 -0.008742 0.002406 -0.090100
 10   11.752194 -0.001492 0.000000 0.000024 0.043599 0.440031
 11   -2.111792 0.863597 2.563791 0.406243 -1.373718 2.298225
 12   4.640941 0.000000 0.000000 0.653739 1.059857 0.613423
 13   10.828045 0.000000 0.000000 0.000000 0.000000 -0.470452
 14   9.393338 -0.000001 0.000000 -1.569611 0.034195 0.000037
 15   1.442243 0.107453 -1.746178 1.686435 0.539209 0.325885
 16   1.063450 0.000000 -0.000001 0.000000 0.000000 0.199056
 17   1.376307 -0.000001 0.000001 0.000000 0.000000 0.199049
 18   4.172845 -0.251366 -1.312745 0.008050 0.095731 0.148659
 19   1.215373 0.000001 -0.000001 0.000000 0.000000 0.645758
 20   1.215371 -0.000002 0.000000 0.000000 0.000000 0.645758
 21   4.220532 -0.244855 -0.431465 0.001333 0.026242 0.148339
 22   1.350417 0.000000 0.000001 0.000000 0.000000 0.863926
 23   1.350409 0.000000 -0.000001 0.000000 0.000000 0.863926
 24   -1.885222 0.863610 -2.731758 -0.621884 1.448748 2.084915
 25   4.640942 0.000000 0.000000 -0.525435 -1.158490 0.417692
 26   10.828048 0.000000 0.000001 0.000000 0.000000 -0.234230
 27   9.393336 -0.000001 0.000000 1.569611 -0.034192 0.000001
 28   1.442244 0.107454 1.746178 -1.686405 -0.539236 0.325898
 29   1.063451 -0.000001 0.000000 0.000000 0.000000 0.199056
 30   1.376307 -0.000001 0.000000 0.000000 0.000000 0.199059
 31   4.172846 -0.251365 1.312745 -0.008050 -0.095731 0.148659
 32   1.215374 0.000001 -0.000001 0.000000 0.000000 0.645746
 33   1.215373 0.000000 0.000001 0.000000 0.000000 0.645746
 34   4.220533 -0.244853 0.431466 -0.001333 -0.026242 0.148339
 35   1.350415 -0.000001 -0.000001 0.000000 0.000000 0.863937
 36   1.350410 -0.000001 0.000001 0.000000 0.000000 0.863925
 37   2.110541 -0.000001 0.000000 0.003034 -0.010252 -0.171140
 38   0.891923 2.373050 -0.014527 -3.141592 -0.000001 1.413797
 39   7.228119 5.709445 3.726568 3.140796 -1.570796 0.000000
 40   2.450426 5.076127 0.001325 3.140791 -1.570796 0.000000
 41   6.312405 -4.528058 0.001311 3.140791 -1.570796 0.000000
 42   2.233309 1.152535 -7.309138 -1.140137 -1.550467 -0.884450
 43   4.262825 -0.232720 -1.392178 0.016840 0.076668 0.253759
time 9
  0   1.356474 6.791367 38.274296 0.000000 0.000000 -1.701715
  1   0.000327 -0.148442 0.000000 -1.570795 -1.570451 0.000000
  2   -0.000007 0.000008 4.427393 -0.168737 -3.140011 -0.011297
  3   18.465939 0.000000 0.000000 0.000000 0.000000 -0.430886
  4   14.875443 0.000000 0.000000 0.016619 0.006710 0.402189
  5   0.000006 -0.000004 -4.427393 0.108220 3.107965 -0.364015
  6   18.465939 0.000000 0.000000 0.000000 0.000000 -0.385276
  7   14.875442 0.000000 0.000000 0.000252 -0.007211 0.019815
  8   2.255207 -0.007574 0.000003 0.122101 -0.018992 0.011516
  9   9.514223 -0.009357 0.000000 -0.008742 0.002419 -0.089429
 10   11.752194 -0.001492 0.000000 0.000024 0.043599 0.440031
 11   -2.111792 0.863597 2.563791 0.376803 -1.370242 2.327616
 12   4.640941 0.000000 0.000000 0.644799 1.056032 0.601305
 13   10.828045 0.000000 0.000000 0.000000 0.000000 -0.470452
 14   9.393338 -0.000001 0.000000 -1.569611 0.034195 0.000037
 15   1.442243 0.107453 -1.746178 1.686435 0.539209 0.325885
 16   1.063450 0.000000 -0.000001 0.000000 0.000000 0.199056
 17   1.376307 -0.000001 0.000001 0.000000 0.000000 0.199049
 18   4.172845 -0.251366 -1.312745 0.008050 0.095731 0.148659
 19   1.215373 0.000001 -0.000001 0.000000 0.000000 0.645758
 20   1.215371 -0.000002 0.000000 0.000000 0.000000 0.645758
 21   4.220532 -0.244855 -0.431465 0.001333 0.026242 0.148339
 22   1.350417 0.000000 0.000001 0.000000 0.000000 0.863926
 23   1.350409 0.000000 -0.000001 0.000000 0.000000 0.863926
 24   -1.885222 0.863610 -2.731758 -0.589393 1.446538 2.117306
 25   4.640942 0.000000 0.000000 -0.517323 -1.155422 0.407963
 26   10.828048 0.000000 0.000001 0.000000 0.000000 -0.234230
 27   9.393336 -0.000001 0.000000 1.569611 -0.034192 0.000001
 28   1.442244 0.107454 1.746178 -1.686405 -0.539236 0.325898
 29   1.063451 -0.000001 0.000000 0.000000 0.000000 0.199056
 30   1.376307 -0.000001 0.000000 0.000000 0.000000 0.199059
 31   4.172846 -0.251365 1.312745 -0.008050 -0.095731 0.148659
 32   1.215374 0.000001 -0.000001 0.000000 0.000000 0.645746
 33   1.215373 0.000000 0.000001 0.000000 0.000000 0.645746
 34   4.220533 -0.244853 0.431466 -0.001333 -0.026242 0.148339
 35   1.350415 -0.000001 -0.000001 0.000000 0.000000 0.863937
 36   1.350410 -0.000001 0.000001 0.000000 0.000000 0.863925
 37   2.110541 -0.000001 0.000000 0.003136 -0.010222 -0.173164
 38   0.891923 2.373050 -0.014527 -3.141592 -0.000001 1.413797
 39   7.228119 5.709445 3.726568 3.140796 -1.570796 0.000000
 40   2.450426 5.076127 0.001325 3.140791 -1.570796 0.000000
 41   6.312405 -4.528058 0.001311 3.140791 -1.570796 0.000000
 42   2.233309 1.152535 -7.309138 -1.140137 -1.549098 -0.884450
 43   4.262825 -0.232720 -1.392178 0.016840 0.076668 0.253759
time 10
  0   1.321317 6.791367 38.274296 0.000000 0.000000 -1.701715
  1   -0.015298 -0.148442 0.000000 -1.570795 -1.570451 0.000000
  2   -0.000007 0.000008 4.427393 -0.168545 -3.138780 -0.012441
  3   18.465939 0.000000 0.000000 0.000000 0.000000 -0.432129
  4   14.875443 0.000000 0.000000 0.016441 0.005688 0.402150
  5   0.000006 -0.000004 -4.427393 0.108412 3.109209 -0.364202
  6   18.465939 0.000000 0.000000 0.000000 0.000000 -0.384292
  7   14.875442 0.000000 0.000000 0.000462 -0.008393 0.018839
  8   2.255207 -0.007574 0.000003 0.122101 -0.019129 0.012774
  9   9.514223 -0.009357 0.000000 -0.008742 0.002419 -0.088801
 10   11.752194 -0.001492 0.000000 0.000024 0.043599 0.440031
 11   -2.111792 0.863597 2.563791 0.350983 -1.366944 2.353369
 12   4.640941 0.000000 0.000000 0.636853 1.052497 0.590417
 13   10.828045 0.000000 0.000000 0.000000 0.000000 -0.470452
 14   9.393338 -0.000001 0.000000 -1.569611 0.034195 0.000037
 15   1.442243 0.107453 -1.746178 1.686435 0.539209 0.325885
 16   1.063450 0.000000 -0.000001 0.000000 0.000000 0.199056
 17   1.376307 -0.000001 0.000001 0.000000 0.000000 0.199049
 18   4.172845 -0.251366 -1.312745 0.008050 0.095731 0.148659
 19   1.215373 0.000001 -0.000001 0.000000 0.000000 0.645758
 20   1.215371 -0.000002 0.000000 0.000000 0.000000 0.645758
 21   4.220532 -0.244855 -0.431465 0.001333 0.026242 0.148339
 22   1.350417 0.000000 0.000001 0.000000 0.000000 0.863926
 23   1.350409 0.000000 -0.000001 0.000000 0.000000 0.863926
 24   -1.885222 0.863610 -2.731758 -0.560882 1.444420 2.145766
 25   4.640942 0.000000 0.000000 -0.510057 -1.152493 0.399284
 26   10.828048 0.000000 0.000001 0.000000 0.000000 -0.234230
 27   9.393336 -0.000001 0.000000 1.569611 -0.034192 0.000001
 28   1.442244 0.107454 1.746178 -1.686405 -0.539236 0.325898
 29   1.063451 -0.000001 0.000000 0.000000 0.000000 0.199056
 30   1.376307 -0.000001 0.000000 0.000000 0.000000 0.199059
 31   4.172846 -0.251365 1.312745 -0.008050 -0.095731 0.148659
 32   1.215374 0.000001 -0.000001 0.000000 0.000000 0.645746
 33   1.215373 0.000000 0.000001 0.000000 0.000000 0.645746
 34   4.220533 -0.244853 0.431466 -0.001333 -0.026242 0.148339
 35   1.350415 -0.000001 -0.000001 0.000000 0.000000 0.863937
 36   1.350410 -0.000001 0.000001 0.000000 0.000000 0.863925
 37   2.110541 -0.000001 0.000000 0.003188 -0.010192 -0.175048
 38   0.891923 2.373050 -0.014527 -3.141592 -0.000001 1.413797
 39   7.228119 5.709445 3.726568 3.140796 -1.570796 0.000000
 40   2.450426 5.076127 0.001325 3.140791 -1.570796 0.000000
 41   6.312405 -4.528058 0.001311 3.140791 -1.570796 0.000000
 42   2.233309 1.152535 -7.309138 -1.140137 -1.547875 -0.884450
 43   4.262825 -0.232720 -1.392178 0.016840 0.076668 0.253759
time 11
  0   1.293972 6.791367 38.274296 0.000000 0.000000 -1.701715
  1   -0.030924 -0.148442 0.000000 -1.570795 -1.570451 0.000000
  2   -0.000007 0.000008 4.427393 -0.168354 -3.137738 -0.013394
  3   18.465939 0.000000 0.000000 0.000000 0.000000 -0.433226
  4   14.875443 0.000000 0.000000 0.016263 0.004794 0.402110
  5   0.000006 -0.000004 -4.427393 0.108604 3.110165 -0.364296
  6   18.465939 0.000000 0.000000 0.000000 0.000000 -0.383438
  7   14.875442 0.000000 0.000000 0.000673 -0.009424 0.017976
  8   2.255207 -0.007574 0.000003 0.122059 -0.019267 0.013833
  9   9.514223 -0.009357 0.000000 -0.008742 0.002419 -0.088260
 10   11.752194 -0.001492 0.000000 0.000024 0.043599 0.440031
 11   -2.111792 0.863597 2.563791 0.329069 -1.363947 2.375292
 12   4.640941 0.000000 0.000000 0.630024 1.049466 0.581051
 13   10.828045 0.000000 0.000000 0.000000 0.000000 -0.470452
 14   9.393338 -0.000001 0.000000 -1.569611 0.034195 0.000037
 15   1.442243 0.107453 -1.746178 1.686435 0.539209 0.325885
 16   1.063450 0.000000 -0.000001 0.000000 0.000000 0.199056
 17   1.376307 -0.000001 0.000001 0.000000 0.000000 0.199049
 18   4.172845 -0.251366 -1.312745 0.008050 0.095731 0.148659
 19   1.215373 0.000001 -0.000001 0.000000 0.000000 0.645758
 20   1.215371 -0.000002 0.000000 0.000000 0.000000 0.645758
 21   4.220532 -0.244855 -0.431465 0.001333 0.026242 0.148339
 22   1.350417 0.000000 0.000001 0.000000 0.000000 0.863926
 23   1.350409 0.000000 -0.000001 0.000000 0.000000 0.863926
 24   -1.885222 0.863610 -2.731758 -0.536814 1.442483 2.169867
 25   4.640942 0.000000 0.000000 -0.503889 -1.149982 0.391795
 26   10.828048 0.000000 0.000001 0.000000 0.000000 -0.234230
 27   9.393336 -0.000001 0.000000 1.569611 -0.034192 0.000001
 28   1.442244 0.107454 1.746178 -1.686405 -0.539236 0.325898
 29   1.063451 -0.000001 0.000000 0.000000 0.000000 0.199056
 30   1.376307 -0.000001 0.000000 0.000000 0.000000 0.199059
 31   4.172846 -0.251365 1.312745 -0.008050 -0.095731 0.148659
 32   1.215374 0.000001 -0.000001 0.000000 0.000000 0.645746
 33   1.215373 0.000000 0.000001 0.000000 0.000000 0.645746
 34   4.220533 -0.244853 0.431466 -0.001333 -0.026242 0.148339
 35   1.350415 -0.000001 -0.000001 0.000000 0.000000 0.863937
 36   1.350410 -0.000001 0.000001 0.000000 0.000000 0.863925
 37   2.110541 -0.000001 0.000000 0.003239 -0.010162 -0.176649
 38   0.891923 2.373050 -0.014527 -3.141592 -0.000001 1.413797
 39   7.228119 5.709445 3.726568 3.140796 -1.570796 0.000000
 40   2.450426 5.076127 0.001325 3.140791 -1.570796 0.000000
 41   6.312405 -4.528058 0.001311 3.140791 -1.570796 0.000000
 42   2.233309 1.152535 -7.309138 -1.140137 -1.546797 -0.884450
 43   4.262825 -0.232720 -1.392178 0.016840 0.076668 0.253759
time 12
  0   1.266628 6.791367 38.274296 0.000000 0.000000 -1.701715
  1   -0.042643 -0.152348 0.000000 -1.570795 -1.570451 0.000000
  2   -0.000007 0.000008 4.427393 -0.168162 -3.136886 -0.014157
  3   18.465939 0.000000 0.000000 0.000000 0.000000 -0.434103
  4   14.875443 0.000000 0.000000 0.016121 0.004049 0.402031
  5   0.000006 -0.000004 -4.427393 0.108795 3.111026 -0.364389
  6   18.465939 0.000000 0.000000 0.000000 0.000000 -0.382716
  7   14.875442 0.000000 0.000000 0.000813 -0.010303 0.017264
  8   2.255207 -0.007574 0.000003 0.122059 -0.019385 0.014726
  9   9.514223 -0.009357 0.000000 -0.008742 0.002433 -0.087827
 10   11.752194 -0.001492 0.000000 0.000024 0.043599 0.440031
 11   -2.111792 0.863597 2.563791 0.311348 -1.361379 2.392908
 12   4.640941 0.000000 0.000000 0.624499 1.046868 0.573383
 13   10.828045 0.000000 0.000000 0.000000 0.000000 -0.470452
 14   9.393338 -0.000001 0.000000 -1.569611 0.034195 0.000037
 15   1.442243 0.107453 -1.746178 1.686435 0.539209 0.325885
 16   1.063450 0.000000 -0.000001 0.000000 0.000000 0.199056
 17   1.376307 -0.000001 0.000001 0.000000 0.000000 0.199049
 18   4.172845 -0.251366 -1.312745 0.008050 0.095731 0.148659
 19   1.215373 0.000001 -0.000001 0.000000 0.000000 0.645758
 20   1.215371 -0.000002 0.000000 0.000000 0.000000 0.645758
 21   4.220532 -0.244855 -0.431465 0.001333 0.026242 0.148339
 22   1.350417 0.000000 0.000001 0.000000 0.000000 0.863926
 23   1.350409 0.000000 -0.000001 0.000000 0.000000 0.863926
 24   -1.885222 0.863610 -2.731758 -0.517375 1.440849 2.189268
 25   4.640942 0.000000 0.000000 -0.498820 -1.147890 0.385635
 26   10.828048 0.000000 0.000001 0.000000 0.000000 -0.234230
 27   9.393336 -0.000001 0.000000 1.569611 -0.034192 0.000001
 28   1.442244 0.107454 1.746178 -1.686405 -0.539236 0.325898
 29   1.063451 -0.000001 0.000000 0.000000 0.000000 0.199056
 30   1.376307 -0.000001 0.000000 0.000000 0.000000 0.199059
 31   4.172846 -0.251365 1.312745 -0.008050 -0.095731 0.148659
 32   1.215374 0.000001 -0.000001 0.000000 0.000000 0.645746
 33   1.215373 0.000000 0.000001 0.000000 0.000000 0.645746
 34   4.220533 -0.244853 0.431466 -0.001333 -0.026242 0.148339
 35   1.350415 -0.000001 -0.000001 0.000000 0.000000 0.863937
 36   1.350410 -0.000001 0.000001 0.000000 0.000000 0.863925
 37   2.110541 -0.000001 0.000000 0.003291 -0.010162 -0.177967
 38   0.891923 2.373050 -0.014527 -3.141592 -0.000001 1.413797
 39   7.228119 5.709445 3.726568 3.140796 -1.570796 0.000000
 40   2.450426 5.076127 0.001325 3.140791 -1.570796 0.000000
 41   6.312405 -4.528058 0.001311 3.140791 -1.570796 0.000000
 42   2.233309 1.152535 -7.309138 -1.140137 -1.545894 -0.884450
 43   4.262825 -0.232720 -1.392178 0.016840 0.076668 0.253759
time 13
  0   1.247096 6.791367 38.274296 0.000000 0.000000 -1.701715
  1   -0.050456 -0.152348 0.000000 -1.570795 -1.570451 0.000000
  2   -0.000007 0.000008 4.427393 -0.168066 -3.136224 -0.014729
  3   18.465939 0.000000 0.000000 0.000000 0.000000 -0.434761
  4   14.875443 0.000000 0.000000 0.016014 0.003496 0.401992
  5   0.000006 -0.000004 -4.427393 0.108891 3.111696 -0.364389
  6   18.465939 0.000000 0.000000 0.000000 0.000000 -0.382126
  7   14.875442 0.000000 0.000000 0.000919 -0.010939 0.016738
  8   2.255207 -0.007574 0.000003 0.122059 -0.019463 0.015388
  9   9.514223 -0.009357 0.000000 -0.008742 0.002433 -0.087481
 10   11.752194 -0.001492 0.000000 0.000024 0.043599 0.440031
 11   -2.111792 0.863597 2.563791 0.298295 -1.359414 2.405928
 12   4.640941 0.000000 0.000000 0.620339 1.044848 0.567587
 13   10.828045 0.000000 0.000000 0.000000 0.000000 -0.470452
 14   9.393338 -0.000001 0.000000 -1.569611 0.034195 0.000037
 15   1.442243 0.107453 -1.746178 1.686435 0.539209 0.325885
 16   1.063450 0.000000 -0.000001 0.000000 0.000000 0.199056
 17   1.376307 -0.000001 0.000001 0.000000 0.000000 0.199049
 18   4.172845 -0.251366 -1.312745 0.008050 0.095731 0.148659
 19   1.215373 0.000001 -0.000001 0.000000 0.000000 0.645758
 20   1.215371 -0.000002 0.000000 0.000000 0.000000 0.645758
 21   4.220532 -0.244855 -0.431465 0.001333 0.026242 0.148339
 22   1.350417 0.000000 0.000001 0.000000 0.000000 0.863926
 23   1.350409 0.000000 -0.000001 0.000000 0.000000 0.863926
 24   -1.885222 0.863610 -2.731758 -0.503027 1.439548 2.203540
 25   4.640942 0.000000 0.000000 -0.495018 -1.146286 0.381016
 26   10.828048 0.000000 0.000001 0.000000 0.000000 -0.234230
 27   9.393336 -0.000001 0.000000 1.569611 -0.034192 0.000001
 28   1.442244 0.107454 1.746178 -1.686405 -0.539236 0.325898
 29   1.063451 -0.000001 0.000000 0.000000 0.000000 0.199056
 30   1.376307 -0.000001 0.000000 0.000000 0.000000 0.199059
 31   4.172846 -0.251365 1.312745 -0.008050 -0.095731 0.148659
 32   1.215374 0.000001 -0.000001 0.000000 0.000000 0.645746
 33   1.215373 0.000000 0.000001 0.000000 0.000000 0.645746
 34   4.220533 -0.244853 0.431466 -0.001333 -0.026242 0.148339
 35   1.350415 -0.000001 -0.000001 0.000000 0.000000 0.863937
 36   1.350410 -0.000001 0.000001 0.000000 0.000000 0.863925
 37   2.110541 -0.000001 0.000000 0.003342 -0.010132 -0.179003
 38   0.891923 2.373050 -0.014527 -3.141592 -0.000001 1.413797
 39   7.228119 5.709445 3.726568 3.140796 -1.570796 0.000000
 40   2.450426 5.076127 0.001325 3.140791 -1.570796 0.000000
 41   6.312405 -4.528058 0.001311 3.140791 -1.570796 0.000000
 42   2.233309 1.152535 -7.309138 -1.140137 -1.545224 -0.884450
 43   4.262825 -0.232720 -1.392178 0.016840 0.076668 0.253759
time 14
  0   1.235377 6.791367 38.274296 0.000000 0.000000 -1.701715
  1   -0.054362 -0.152348 0.000000 -1.570795 -1.570451 0.000000
  2   -0.000007 0.000008 4.427393 -0.167971 -3.135750 -0.015110
  3   18.465939 0.000000 0.000000 0.000000 0.000000 -0.435200
  4   14.875443 0.000000 0.000000 0.015943 0.003134 0.401992
  5   0.000006 -0.000004 -4.427393 0.108987 3.112079 -0.364389
  6   18.465939 0.000000 0.000000 0.000000 0.000000 -0.381797
  7   14.875442 0.000000 0.000000 0.000954 -0.011364 0.016363
  8   2.255207 -0.007574 0.000003 0.122059 -0.019503 0.015818
  9   9.514223 -0.009357 0.000000 -0.008742 0.002433 -0.087264
 10   11.752194 -0.001492 0.000000 0.000024 0.043599 0.440031
 11   -2.111792 0.863597 2.563791 0.290101 -1.358130 2.414065
 12   4.640941 0.000000 0.000000 0.617794 1.043549 0.563958
 13   10.828045 0.000000 0.000000 0.000000 0.000000 -0.470452
 14   9.393338 -0.000001 0.000000 -1.569611 0.034195 0.000037
 15   1.442243 0.107453 -1.746178 1.686435 0.539209 0.325885
 16   1.063450 0.000000 -0.000001 0.000000 0.000000 0.199056
 17   1.376307 -0.000001 0.000001 0.000000 0.000000 0.199049
 18   4.172845 -0.251366 -1.312745 0.008050 0.095731 0.148659
 19   1.215373 0.000001 -0.000001 0.000000 0.000000 0.645758
 20   1.215371 -0.000002 0.000000 0.000000 0.000000 0.645758
 21   4.220532 -0.244855 -0.431465 0.001333 0.026242 0.148339
 22   1.350417 0.000000 0.000001 0.000000 0.000000 0.863926
 23   1.350409 0.000000 -0.000001 0.000000 0.000000 0.863926
 24   -1.885222 0.863610 -2.731758 -0.494048 1.438731 2.212514
 25   4.640942 0.000000 0.000000 -0.492652 -1.145240 0.378076
 26   10.828048 0.000000 0.000001 0.000000 0.000000 -0.234230
 27   9.393336 -0.000001 0.000000 1.569611 -0.034192 0.000001
 28   1.442244 0.107454 1.746178 -1.686405 -0.539236 0.325898
 29   1.063451 -0.000001 0.000000 0.000000 0.000000 0.199056
 30   1.376307 -0.000001 0.000000 0.000000 0.000000 0.199059
 31   4.172846 -0.251365 1.312745 -0.008050 -0.095731 0.148659
 32   1.215374 0.000001 -0.000001 0.000000 0.000000 0.645746
 33   1.215373 0.000000 0.000001 0.000000 0.000000 0.645746
 34   4.220533 -0.244853 0.431466 -0.001333 -0.026242 0.148339
 35   1.350415 -0.000001 -0.000001 0.000000 0.000000 0.863937
 36   1.350410 -0.000001 0.000001 0.000000 0.000000 0.863925
 37   2.110541 -0.000001 0.000000 0.003342 -0.010132 -0.179662
 38   0.891923 2.373050 -0.014527 -3.141592 -0.000001 1.413797
 39   7.228119 5.709445 3.726568 3.140796 -1.570796 0.000000
 40   2.450426 5.076127 0.001325 3.140791 -1.570796 0.000000
 41   6.312405 -4.528058 0.001311 3.140791 -1.570796 0.000000
 42   2.233309 1.152535 -7.309138 -1.140137 -1.544788 -0.884450
 43   4.262825 -0.232720 -1.392178 0.016840 0.076668 0.253759
time 15
  0   1.231470 6.791367 38.274296 0.000000 0.000000 -1.701715
  1   -0.058268 -0.152348 0.000000 -1.570795 -1.570451 0.000000
  2   -0.000007 0.000008 4.427393 -0.167875 -3.135655 -0.015301
  3   18.465939 0.000000 0.000000 0.000000 0.000000 -0.435346
  4   14.875443 0.000000 0.000000 0.015908 0.003006 0.401952
  5   0.000006 -0.000004 -4.427393 0.109083 3.112270 -0.364483
  6   18.465939 0.000000 0.000000 0.000000 0.000000 -0.381666
  7   14.875442 0.000000 0.000000 0.000989 -0.011515 0.016251
  8   2.255207 -0.007574 0.000003 0.122059 -0.019522 0.015950
  9   9.514223 -0.009357 0.000000 -0.008742 0.002433 -0.087199
 10   11.752194 -0.001492 0.000000 0.000024 0.043599 0.440031
 11   -2.111792 0.863597 2.563791 0.287338 -1.357677 2.416937
 12   4.640941 0.000000 0.000000 0.616863 1.043116 0.562729
 13   10.828045 0.000000 0.000000 0.000000 0.000000 -0.470452
 14   9.393338 -0.000001 0.000000 -1.569611 0.034195 0.000037
 15   1.442243 0.107453 -1.746178 1.686435 0.539209 0.325885
 16   1.063450 0.000000 -0.000001 0.000000 0.000000 0.199056
 17   1.376307 -0.000001 0.000001 0.000000 0.000000 0.199049
 18   4.172845 -0.251366 -1.312745 0.008050 0.095731 0.148659
 19   1.215373 0.000001 -0.000001 0.000000 0.000000 0.645758
 20   1.215371 -0.000002 0.000000 0.000000 0.000000 0.645758
 21   4.220532 -0.244855 -0.431465 0.001333 0.026242 0.148339
 22   1.350417 0.000000 0.000001 0.000000 0.000000 0.863926
 23   1.350409 0.000000 -0.000001 0.000000 0.000000 0.863926
 24   -1.885222 0.863610 -2.731758 -0.490900 1.438428 2.215591
 25   4.640942 0.000000 0.000000 -0.491807 -1.144891 0.377096
 26   10.828048 0.000000 0.000001 0.000000 0.000000 -0.234230
 27   9.393336 -0.000001 0.000000 1.569611 -0.034192 0.000001
 28   1.442244 0.107454 1.746178 -1.686405 -0.539236 0.325898
 29   1.063451 -0.000001 0.000000 0.000000 0.000000 0.199056
 30   1.376307 -0.000001 0.000000 0.000000 0.000000 0.199059
 31   4.172846 -0.251365 1.312745 -0.008050 -0.095731 0.148659
 32   1.215374 0.000001 -0.000001 0.000000 0.000000 0.645746
 33   1.215373 0.000000 0.000001 0.000000 0.000000 0.645746
 34   4.220533 -0.244853 0.431466 -0.001333 -0.026242 0.148339
 35   1.350415 -0.000001 -0.000001 0.000000 0.000000 0.863937
 36   1.350410 -0.000001 0.000001 0.000000 0.000000 0.863925
 37   2.110541 -0.000001 0.000000 0.003342 -0.010132 -0.179851
 38   0.891923 2.373050 -0.014527 -3.141592 -0.000001 1.413797
 39   7.228119 5.709445 3.726568 3.140796 -1.570796 0.000000
 40   2.450426 5.076127 0.001325 3.140791 -1.570796 0.000000
 41   6.312405 -4.528058 0.001311 3.140791 -1.570796 0.000000
 42   2.233309 1.152535 -7.309138 -1.140137 -1.544642 -0.884450
 43   4.262825 -0.232720 -1.392178 0.016840 0.076668 0.253759
time 16
  0   1.235377 6.791367 38.274296 0.000000 0.000000 -1.701715
  1   -0.054362 -0.152348 0.000000 -1.570795 -1.570451 0.000000
  2   -0.000007 0.000008 4.427393 -0.167971 -3.135750 -0.015110
  3   18.465939 0.000000 0.000000 0.000000 0.000000 -0.435200
  4   14.875443 0.000000 0.000000 0.015943 0.003134 0.401992
  5   0.000006 -0.000004 -4.427393 0.108987 3.112079 -0.364389
  6   18.465939 0.000000 0.000000 0.000000 0.000000 -0.381797
  7   14.875442 0.000000 0.000000 0.000954 -0.011364 0.016363
  8   2.255207 -0.007574 0.000003 0.122059 -0.019503 0.015818
  9   9.514223 -0.009357 0.000000 -0.008742 0.002433 -0.087264
 10   11.752194 -0.001492 0.000000 0.000024 0.043599 0.440031
 11   -2.111792 0.863597 2.563791 0.290101 -1.358130 2.414065
 12   4.640941 0.000000 0.000000 0.617794 1.043549 0.563958
 13   10.828045 0.000000 0.000000 0.000000 0.000000 -0.470452
 14   9.393338 -0.000001 0.000000 -1.569611 0.034195 0.000037
 15   1.442243 0.107453 -1.746178 1.686435 0.539209 0.325885
 16   1.063450 0.000000 -0.000001 0.000000 0.000000 0.199056
 17   1.376307 -0.000001 0.000001 0.000000 0.000000 0.199049
 18   4.172845 -0.251366 -1.312745 0.008050 0.095731 0.148659
 19   1.215373 0.000001 -0.000001 0.000000 0.000000 0.645758
 20   1.215371 -0.000002 0.000000 0.000000 0.000000 0.645758
 21   4.220532 -0.244855 -0.431465 0.001333 0.026242 0.148339
 22   1.350417 0.000000 0.000001 0.000000 0.000000 0.863926
 23   1.350409 0.000000 -0.000001 0.000000 0.000000 0.863926
 24   -1.885222 0.863610 -2.731758 -0.494048 1.438731 2.212514
 25   4.640942 0.000000 0.000000 -0.492652 -1.145240 0.378076
 26   10.828048 0.000000 0.000001 0.000000 0.000000 -0.234230
 27   9.393336 -0.000001 0.000000 1.569611 -0.034192 0.000001
 28   1.442244 0.107454 1.746178 -1.686405 -0.539236 0.325898
 29   1.063451 -0.000001 0.000000 0.000000 0.000000 0.199056
 30   1.376307 -0.000001 0.000000 0.000000 0.000000 0.199059
 31   4.172846 -0.251365 1.312745 -0.008050 -0.095731 0.148659
 32   1.215374 0.000001 -0.000001 0.000000 0.000000 0.645746
 33   1.215373 0.000000 0.000001 0.000000 0.000000 0.645746
 34   4.220533 -0.244853 0.431466 -0.001333 -0.026242 0.148339
 35   1.350415 -0.000001 -0.000001 0.000000 0.000000 0.863937
 36   1.350410 -0.000001 0.000001 0.000000 0.000000 0.863925
 37   2.110541 -0.000001 0.000000 0.003342 -0.010132 -0.179662
 38   0.891923 2.373050 -0.014527 -3.141592 -0.000001 1.413797
 39   7.228119 5.709445 3.726568 3.140796 -1.570796 0.000000
 40   2.450426 5.076127 0.001325 3.140791 -1.570796 0.000000
 41   6.312405 -4.528058 0.001311 3.140791 -1.570796 0.000000
 42   2.233309 1.152535 -7.309138 -1.140137 -1.544788 -0.884450
 43   4.262825 -0.232720 -1.392178 0.016840 0.076668 0.253759
time 17
  0   1.247096 6.791367 38.274296 0.000000 0.000000 -1.701715
  1   -0.050456 -0.152348 0.000000 -1.570795 -1.570451 0.000000
  2   -0.000007 0.000008 4.427393 -0.168066 -3.136224 -0.014729
  3   18.465939 0.000000 0.000000 0.000000 0.000000 -0.434761
  4   14.875443 0.000000 0.000000 0.016014 0.003496 0.401992
  5   0.000006 -0.000004 -4.427393 0.108891 3.111696 -0.364389
  6   18.465939 0.000000 0.000000 0.000000 0.000000 -0.382126
  7   14.875442 0.000000 0.000000 0.000883 -0.010939 0.016738
  8   2.255207 -0.007574 0.000003 0.122059 -0.019463 0.015388
  9   9.514223 -0.009357 0.000000 -0.008742 0.002433 -0.087481
 10   11.752194 -0.001492 0.000000 0.000024 0.043599 0.440031
 11   -2.111792 0.863597 2.563791 0.298295 -1.359414 2.405928
 12   4.640941 0.000000 0.000000 0.620339 1.044848 0.567587
 13   10.828045 0.000000 0.000000 0.000000 0.000000 -0.470452
 14   9.393338 -0.000001 0.000000 -1.569611 0.034195 0.000037
 15   1.442243 0.107453 -1.746178 1.686435 0.539209 0.325885
 16   1.063450 0.000000 -0.000001 0.000000 0.000000 0.199056
 17   1.376307 -0.000001 0.000001 0.000000 0.000000 0.199049
 18   4.172845 -0.251366 -1.312745 0.008050 0.095731 0.148659
 19   1.215373 0.000001 -0.000001 0.000000 0.000000 0.645758
 20   1.215371 -0.000002 0.000000 0.000000 0.000000 0.645758
 21   4.220532 -0.244855 -0.431465 0.001333 0.026242 0.148339
 22   1.350417 0.000000 0.000001 0.000000 0.000000 0.863926
 23   1.350409 0.000000 -0.000001 0.000000 0.000000 0.863926
 24   -1.885222 0.863610 -2.731758 -0.503027 1.439548 2.203540
 25   4.640942 0.000000 0.000000 -0.495018 -1.146286 0.381016
 26   10.828048 0.000000 0.000001 0.000000 0.000000 -0.234230
 27   9.393336 -0.000001 0.000000 1.569611 -0.034192 0.000001
 28   1.442244 0.107454 1.746178 -1.686405 -0.539236 0.325898
 29   1.063451 -0.000001 0.000000 0.000000 0.000000 0.199056
 30   1.376307 -0.000001 0.000000 0.000000 0.000000 0.199059
 31   4.172846 -0.251365 1.312745 -0.008050 -0.095731 0.148659
 32   1.215374 0.000001 -0.000001 0.000000 0.000000 0.645746
 33   1.215373 0.000000 0.000001 0.000000 0.000000 0.645746
 34   4.220533 -0.244853 0.431466 -0.001333 -0.026242 0.148339
 35   1.350415 -0.000001 -0.000001 0.000000 0.000000 0.863937
 36   1.350410 -0.000001 0.000001 0.000000 0.000000 0.863925
 37   2.110541 -0.000001 0.000000 0.003342 -0.010132 -0.179003
 38   0.891923 2.373050 -0.014527 -3.141592 -0.000001 1.413797
 39   7.228119 5.709445 3.726568 3.140796 -1.570796 0.000000
 40   2.450426 5.076127 0.001325 3.140791 -1.570796 0.000000
 41   6.312405 -4.528058 0.001311 3.140791 -1.570796 0.000000
 42   2.233309 1.152535 -7.309138 -1.140137 -1.545224 -0.884450
 43   4.262825 -0.232720 -1.392178 0.016840 0.076668 0.253759
time 18
  0   1.266628 6.791367 38.274296 0.000000 0.000000 -1.701715
  1   -0.042643 -0.152348 0.000000 -1.570795 -1.570451 0.000000
  2   -0.000007 0.000008 4.427393 -0.168162 -3.136886 -0.014157
  3   18.465939 0.000000 0.000000 0.000000 0.000000 -0.434103
  4   14.875443 0.000000 0.000000 0.016121 0.004049 0.402031
  5   0.000006 -0.000004 -4.427393 0.108795 3.111026 -0.364296
  6   18.465939 0.000000 0.000000 0.000000 0.000000 -0.382716
  7   14.875442 0.000000 0.000000 0.000813 -0.010303 0.017264
  8   2.255207 -0.007574 0.000003 0.122059 -0.019385 0.014726
  9   9.514223 -0.009357 0.000000 -0.008742 0.002433 -0.087827
 10   11.752194 -0.001492 0.000000 0.000024 0.043599 0.440031
 11   -2.111792 0.863597 2.563791 0.311348 -1.361379 2.392908
 12   4.640941 0.000000 0.000000 0.624499 1.046868 0.573383
 13   10.828045 0.000000 0.000000 0.000000 0.000000 -0.470452
 14   9.393338 -0.000001 0.000000 -1.569611 0.034195 0.000037
 15   1.442243 0.107453 -1.746178 1.686435 0.539209 0.325885
 16   1.063450 0.000000 -0.000001 0.000000 0.000000 0.199056
 17   1.376307 -0.000001 0.000001 0.000000 0.000000 0.199049
 18   4.172845 -0.251366 -1.312745 0.008050 0.095731 0.148659
 19   1.215373 0.000001 -0.000001 0.000000 0.000000 0.645758
 20   1.215371 -0.000002 0.000000 0.000000 0.000000 0.645758
 21   4.220532 -0.244855 -0.431465 0.001333 0.026242 0.148339
 22   1.350417 0.000000 0.000001 0.000000 0.000000 0.863926
 23   1.350409 0.000000 -0.000001 0.000000 0.000000 0.863926
 24   -1.885222 0.863610 -2.731758 -0.517375 1.440849 2.189268
 25   4.640942 0.000000 0.000000 -0.498820 -1.147890 0.385635
 26   10.828048 0.000000 0.000001 0.000000 0.000000 -0.234230
 27   9.393336 -0.000001 0.000000 1.569611 -0.034192 0.000001
 28   1.442244 0.107454 1.746178 -1.686405 -0.539236 0.325898
 29   1.063451 -0.000001 0.000000 0.000000 0.000000 0.199056
 30   1.376307 -0.000001 0.000000 0.000000 0.000000 0.199059
 31   4.172846 -0.251365 1.312745 -0.008050 -0.095731 0.148659
 32   1.215374 0.000001 -0.000001 0.000000 0.000000 0.645746
 33   1.215373 0.000000 0.000001 0.000000 0.000000 0.645746
 34   4.220533 -0.244853 0.431466 -0.001333 -0.026242 0.148339
 35   1.350415 -0.000001 -0.000001 0.000000 0.000000 0.863937
 36   1.350410 -0.000001 0.000001 0.000000 0.000000 0.863925
 37   2.110541 -0.000001 0.000000 0.003291 -0.010162 -0.177967
 38   0.891923 2.373050 -0.014527 -3.141592 -0.000001 1.413797
 39   7.228119 5.709445 3.726568 3.140796 -1.570796 0.000000
 40   2.450426 5.076127 0.001325 3.140791 -1.570796 0.000000
 41   6.312405 -4.528058 0.001311 3.140791 -1.570796 0.000000
 42   2.233309 1.152535 -7.309138 -1.140137 -1.545894 -0.884450
 43   4.262825 -0.232720 -1.392178 0.016840 0.076668 0.253759
time 19
  0   1.293972 6.791367 38.274296 0.000000 0.000000 -1.701715
  1   -0.030924 -0.148442 0.000000 -1.570795 -1.570451 0.000000
  2   -0.000007 0.000008 4.427393 -0.168354 -3.137738 -0.013394
  3   18.465939 0.000000 0.000000 0.000000 0.000000 -0.433226
  4   14.875443 0.000000 0.000000 0.016263 0.004794 0.402110
  5   0.000006 -0.000004 -4.427393 0.108604 3.110165 -0.364296
  6   18.465939 0.000000 0.000000 0.000000 0.000000 -0.383438
  7   14.875442 0.000000 0.000000 0.000673 -0.009424 0.017976
  8   2.255207 -0.007574 0.000003 0.122059 -0.019267 0.013833
  9   9.514223 -0.009357 0.000000 -0.008742 0.002419 -0.088260
 10   11.752194 -0.001492 0.000000 0.000024 0.043599 0.440031
 11   -2.111792 0.863597 2.563791 0.329069 -1.363947 2.375292
 12   4.640941 0.000000 0.000000 0.630024 1.049466 0.581051
 13   10.828045 0.000000 0.000000 0.000000 0.000000 -0.470452
 14   9.393338 -0.000001 0.000000 -1.569611 0.034195 0.000037
 15   1.442243 0.107453 -1.746178 1.686435 0.539209 0.325885
 16   1.063450 0.000000 -0.000001 0.000000 0.000000 0.199056
 17   1.376307 -0.000001 0.000001 0.000000 0.000000 0.199049
 18   4.172845 -0.251366 -1.312745 0.008050 0.095731 0.148659
 19   1.215373 0.000001 -0.000001 0.000000 0.000000 0.645758
 20   1.215371 -0.000002 0.000000 0.000000 0.000000 0.645758
 21   4.220532 -0.244855 -0.431465 0.001333 0.026242 0.148339
 22   1.350417 0.000000 0.000001 0.000000 0.000000 0.863926
 23   1.350409 0.000000 -0.000001 0.000000 0.000000 0.863926
 24   -1.885222 0.863610 -2.731758 -0.536814 1.442483 2.169867
 25   4.640942 0.000000 0.000000 -0.503889 -1.149982 0.391795
 26   10.828048 0.000000 0.000001 0.000000 0.000000 -0.234230
 27   9.393336 -0.000001 0.000000 1.569611 -0.034192 0.000001
 28   1.442244 0.107454 1.746178 -1.686405 -0.539236 0.325898
 29   1.063451 -0.000001 0.000000 0.000000 0.000000 0.199056
 30   1.376307 -0.000001 0.000000 0.000000 0.000000 0.199059
 31   4.172846 -0.251365 1.312745 -0.008050 -0.095731 0.148659
 32   1.215374 0.000001 -0.000001 0.000000 0.000000 0.645746
 33   1.215373 0.000000 0.000001 0.000000 0.000000 0.645746
 34   4.220533 -0.244853 0.431466 -0.001333 -0.026242 0.148339
 35   1.350415 -0.000001 -0.000001 0.000000 0.000000 0.863937
 36   1.350410 -0.000001 0.000001 0.000000 0.000000 0.863925
 37   2.110541 -0.000001 0.000000 0.003239 -0.010162 -0.176649
 38   0.891923 2.373050 -0.014527 -3.141592 -0.000001 1.413797
 39   7.228119 5.709445 3.726568 3.140796 -1.570796 0.000000
 40   2.450426 5.076127 0.001325 3.140791 -1.570796 0.000000
 41   6.312405 -4.528058 0.001311 3.140791 -1.570796 0.000000
 42   2.233309 1.152535 -7.309138 -1.140137 -1.546797 -0.884545
 43   4.262825 -0.232720 -1.392178 0.016840 0.076668 0.253759
time 20
  0   1.321317 6.791367 38.274296 0.000000 0.000000 -1.701715
  1   -0.015298 -0.148442 0.000000 -1.570795 -1.570451 0.000000
  2   -0.000007 0.000008 4.427393 -0.168545 -3.138780 -0.012441
  3   18.465939 0.000000 0.000000 0.000000 0.000000 -0.432129
  4   14.875443 0.000000 0.000000 0.016441 0.005688 0.402150
  5   0.000006 -0.000004 -4.427393 0.108412 3.109209 -0.364202
  6   18.465939 0.000000 0.000000 0.000000 0.000000 -0.384292
  7   14.875442 0.000000 0.000000 0.000497 -0.008393 0.018839
  8   2.255207 -0.007574 0.000003 0.122101 -0.019129 0.012774
  9   9.514223 -0.009357 0.000000 -0.008742 0.002419 -0.088801
 10   11.752194 -0.001492 0.000000 0.000024 0.043599 0.440031
 11   -2.111792 0.863597 2.563791 0.350983 -1.366944 2.353369
 12   4.640941 0.000000 0.000000 0.636853 1.052497 0.590417
 13   10.828045 0.000000 0.000000 0.000000 0.000000 -0.470452
 14   9.393338 -0.000001 0.000000 -1.569611 0.034195 0.000037
 15   1.442243 0.107453 -1.746178 1.686435 0.539209 0.325885
 16   1.063450 0.000000 -0.000001 0.000000 0.000000 0.199056
 17   1.376307 -0.000001 0.000001 0.000000 0.000000 0.199049
 18   4.172845 -0.251366 -1.312745 0.008050 0.095731 0.148659
 19   1.215373 0.000001 -0.000001 0.000000 0.000000 0.645758
 20   1.215371 -0.000002 0.000000 0.000000 0.000000 0.645758
 21   4.220532 -0.244855 -0.431465 0.001333 0.026242 0.148339
 22   1.350417 0.000000 0.000001 0.000000 0.000000 0.863926
 23   1.350409 0.000000 -0.000001 0.000000 0.000000 0.863926
 24   -1.885222 0.863610 -2.731758 -0.560882 1.444420 2.145766
 25   4.640942 0.000000 0.000000 -0.510057 -1.152493 0.399284
 26   10.828048 0.000000 0.000001 0.000000 0.000000 -0.234230
 27   9.393336 -0.000001 0.000000 1.569611 -0.034192 0.000001
 28   1.442244 0.107454 1.746178 -1.686405 -0.539236 0.325898
 29   1.063451 -0.000001 0.000000 0.000000 0.000000 0.199056
 30   1.376307 -0.000001 0.000000 0.000000 0.000000 0.199059
 31   4.172846 -0.251365 1.312745 -0.008050 -0.095731 0.148659
 32   1.215374 0.000001 -0.000001 0.000000 0.000000 0.645746
 33   1.215373 0.000000 0.000001 0.000000 0.000000 0.645746
 34   4.220533 -0.244853 0.431466 -0.001333 -0.026242 0.148339
 35   1.350415 -0.000001 -0.000001 0.000000 0.000000 0.863937
 36   1.350410 -0.000001 0.000001 0.000000 0.000000 0.863925
 37   2.110541 -0.000001 0.000000 0.003188 -0.010192 -0.175048
 38   0.891923 2.373050 -0.014527 -3.141592 -0.000001 1.413797
 39   7.228119 5.709445 3.726568 3.140796 -1.570796 0.000000
 40   2.450426 5.076127 0.001325 3.140791 -1.570796 0.000000
 41   6.312405 -4.528058 0.001311 3.140791 -1.570796 0.000000
 42   2.233309 1.152535 -7.309138 -1.140137 -1.547875 -0.884545
 43   4.262825 -0.232720 -1.392178 0.016840 0.076668 0.253759
time 21
  0   1.356474 6.791367 38.274296 0.000000 0.000000 -1.701715
  1   0.000327 -0.148442 0.000000 -1.570795 -1.570451 0.000000
  2   -0.000007 0.000008 4.427393 -0.168737 -3.140011 -0.011297
  3   18.465939 0.000000 0.000000 0.000000 0.000000 -0.430886
  4   14.875443 0.000000 0.000000 0.016619 0.006710 0.402189
  5   0.000006 -0.000004 -4.427393 0.108220 3.107965 -0.364015
  6   18.465939 0.000000 0.000000 0.000000 0.000000 -0.385276
  7   14.875442 0.000000 0.000000 0.000287 -0.007211 0.019815
  8   2.255207 -0.007574 0.000003 0.122101 -0.018992 0.011516
  9   9.514223 -0.009357 0.000000 -0.008742 0.002419 -0.089429
 10   11.752194 -0.001492 0.000000 0.000024 0.043599 0.440031
 11   -2.111792 0.863597 2.563791 0.376803 -1.370242 2.327616
 12   4.640941 0.000000 0.000000 0.644799 1.056032 0.601305
 13   10.828045 0.000000 0.000000 0.000000 0.000000 -0.470452
 14   9.393338 -0.000001 0.000000 -1.569611 0.034195 0.000037
 15   1.442243 0.107453 -1.746178 1.686435 0.539209 0.325885
 16   1.063450 0.000000 -0.000001 0.000000 0.000000 0.199056
 17   1.376307 -0.000001 0.000001 0.000000 0.000000 0.199049
 18   4.172845 -0.251366 -1.312745 0.008050 0.095731 0.148659
 19   1.215373 0.000001 -0.000001 0.000000 0.000000 0.645758
 20   1.215371 -0.000002 0.000000 0.000000 0.000000 0.645758
 21   4.220532 -0.244855 -0.431465 0.001333 0.026242 0.148339
 22   1.350417 0.000000 0.000001 0.000000 0.000000 0.863926
 23   1.350409 0.000000 -0.000001 0.000000 0.000000 0.863926
 24   -1.885222 0.863610 -2.731758 -0.589393 1.446538 2.117306
 25   4.640942 0.000000 0.000000 -0.517323 -1.155422 0.407963
 26   10.828048 0.000000 0.000001 0.000000 0.000000 -0.234230
 27   9.393336 -0.000001 0.000000 1.569611 -0.034192 0.000001
 28   1.442244 0.107454 1.746178 -1.686405 -0.539236 0.325898
 29   1.063451 -0.000001 0.000000 0.000000 0.000000 0.199056
 30   1.376307 -0.000001 0.000000 0.000000 0.000000 0.199059
 31   4.172846 -0.251365 1.312745 -0.008050 -0.095731 0.148659
 32   1.215374 0.000001 -0.000001 0.000000 0.000000 0.645746
 33   1.215373 0.000000 0.000001 0.000000 0.000000 0.645746
 34   4.220533 -0.244853 0.431466 -0.001333 -0.026242 0.148339
 35   1.350415 -0.000001 -0.000001 0.000000 0.000000 0.863937
 36   1.350410 -0.000001 0.000001 0.000000 0.000000 0.863925
 37   2.110541 -0.000001 0.000000 0.003136 -0.010222 -0.173164
 38   0.891923 2.373050 -0.014527 -3.141592 -0.000001 1.413797
 39   7.228119 5.709445 3.726568 3.140796 -1.570796 0.000000
 40   2.450426 5.076127 0.001325 3.140791 -1.570796 0.000000
 41   6.312405 -4.528058 0.001311 3.140791 -1.570796 0.000000
 42   2.233309 1.152535 -7.309138 -1.140137 -1.549098 -0.884545
 43   4.262825 -0.232720 -1.392178 0.016840 0.076668 0.253759
time 22
  0   1.395538 6.791367 38.274296 0.000000 0.000000 -1.701715
  1   0.015953 -0.144536 0.000000 -1.570795 -1.570451 0.000000
  2   -0.000007 0.000008 4.427393 -0.169025 -3.141337 -0.010058
  3   18.465939 0.000000 0.000000 0.000000 0.000000 -0.429497
  4   14.875443 0.000000 0.000000 0.016832 0.007838 0.402229
  5   0.000006 -0.000004 -4.427393 0.107933 3.106722 -0.363922
  6   18.465939 0.000000 0.000000 0.000000 0.000000 -0.386326
  7   14.875442 0.000000 0.000000 0.000041 -0.005907 0.020865
  8   2.255207 -0.007574 0.000003 0.122101 -0.018815 0.010193
  9   9.514223 -0.009357 0.000000 -0.008742 0.002406 -0.090100
 10   11.752194 -0.001492 0.000000 0.000024 0.043599 0.440031
 11   -2.111792 0.863597 2.563791 0.406243 -1.373718 2.298225
 12   4.640941 0.000000 0.000000 0.653739 1.059857 0.613423
 13   10.828045 0.000000 0.000000 0.000000 0.000000 -0.470452
 14   9.393338 -0.000001 0.000000 -1.569611 0.034195 0.000037
 15   1.442243 0.107453 -1.746178 1.686435 0.539209 0.325885
 16   1.063450 0.000000 -0.000001 0.000000 0.000000 0.199056
 17   1.376307 -0.000001 0.000001 0.000000 0.000000 0.199049
 18   4.172845 -0.251366 -1.312745 0.008050 0.095731 0.148659
 19   1.215373 0.000001 -0.000001 0.000000 0.000000 0.645758
 20   1.215371 -0.000002 0.000000 0.000000 0.000000 0.645758
 21   4.220532 -0.244855 -0.431465 0.001333 0.026242 0.148339
 22   1.350417 0.000000 0.000001 0.000000 0.000000 0.863926
 23   1.350409 0.000000 -0.000001 0.000000 0.000000 0.863926
 24   -1.885222 0.863610 -2.731758 -0.621884 1.448748 2.084915
 25   4.640942 0.000000 0.000000 -0.525435 -1.158490 0.417692
 26   10.828048 0.000000 0.000001 0.000000 0.000000 -0.234230
 27   9.393336 -0.000001 0.000000 1.569611 -0.034192 0.000001
 28   1.442244 0.107454 1.746178 -1.686405 -0.539236 0.325898
 29   1.063451 -0.000001 0.000000 0.000000 0.000000 0.199056
 30   1.376307 -0.000001 0.000000 0.000000 0.000000 0.199059
 31   4.172846 -0.251365 1.312745 -0.008050 -0.095731 0.148659
 32   1.215374 0.000001 -0.000001 0.000000 0.000000 0.645746
 33   1.215373 0.000000 0.000001 0.000000 0.000000 0.645746
 34   4.220533 -0.244853 0.431466 -0.001333 -0.026242 0.148339
 35   1.350415 -0.000001 -0.000001 0.000000 0.000000 0.863937
 36   1.350410 -0.000001 0.000001 0.000000 0.000000 0.863925
 37   2.110541 -0.000001 0.000000 0.003034 -0.010252 -0.171140
 38   0.891923 2.373050 -0.014527 -3.141592 -0.000001 1.413797
 39   7.228119 5.709445 3.726568 3.140796 -1.570796 0.000000
 40   2.450426 5.076127 0.001325 3.140791 -1.570796 0.000000
 41   6.312405 -4.528058 0.001311 3.140791 -1.570796 0.000000
 42   2.233309 1.152535 -7.309138 -1.140137 -1.550467 -0.884545
 43   4.262825 -0.232720 -1.392178 0.016840 0.076668 0.253759
time 23
  0   1.438508 6.791367 38.274296 0.000000 0.000000 -1.701715
  1   0.035485 -0.140629 0.000000 -1.570795 -1.570451 0.000000
  2   -0.000007 0.000008 4.427393 -0.169216 -3.142852 -0.008724
  3   18.465939 0.000000 0.000000 0.000000 0.000000 -0.427962
  4   14.875443 0.000000 0.000000 0.017045 0.009030 0.402268
  5   0.000006 -0.000004 -4.427393 0.107645 3.105287 -0.363734
  6   18.465939 0.000000 0.000000 0.000000 0.000000 -0.387377
  7   14.875442 0.000000 0.000000 -0.000204 -0.004513 0.021991
  8   2.255207 -0.007574 0.000003 0.122101 -0.018638 0.008737
  9   9.514223 -0.009357 0.000000 -0.008742 0.002406 -0.090836
 10   11.752194 -0.001492 0.000000 0.000024 0.043599 0.440031
 11   -2.111792 0.863597 2.563791 0.438827 -1.377243 2.265579
 12   4.640941 0.000000 0.000000 0.663486 1.063897 0.626594
 13   10.828045 0.000000 0.000000 0.000000 0.000000 -0.470452
 14   9.393338 -0.000001 0.000000 -1.569611 0.034195 0.000037
 15   1.442243 0.107453 -1.746178 1.686435 0.539209 0.325885
 16   1.063450 0.000000 -0.000001 0.000000 0.000000 0.199056
 17   1.376307 -0.000001 0.000001 0.000000 0.000000 0.199049
 18   4.172845 -0.251366 -1.312745 0.008050 0.095731 0.148659
 19   1.215373 0.000001 -0.000001 0.000000 0.000000 0.645758
 20   1.215371 -0.000002 0.000000 0.000000 0.000000 0.645758
 21   4.220532 -0.244855 -0.431465 0.001333 0.026242 0.148339
 22   1.350417 0.000000 0.000001 0.000000 0.000000 0.863926
 23   1.350409 0.000000 -0.000001 0.000000 0.000000 0.863926
 24   -1.885222 0.863610 -2.731758 -0.657801 1.450957 2.048935
 25   4.640942 0.000000 0.000000 -0.534306 -1.161838 0.428191
 26   10.828048 0.000000 0.000001 0.000000 0.000000 -0.234230
 27   9.393336 -0.000001 0.000000 1.569611 -0.034192 0.000001
 28   1.442244 0.107454 1.746178 -1.686405 -0.539236 0.325898
 29   1.063451 -0.000001 0.000000 0.000000 0.000000 0.199056
 30   1.376307 -0.000001 0.000000 0.000000 0.000000 0.199059
 31   4.172846 -0.251365 1.312745 -0.008050 -0.095731 0.148659
 32   1.215374 0.000001 -0.000001 0.000000 0.000000 0.645746
 33   1.215373 0.000000 0.000001 0.000000 0.000000 0.645746
 34   4.220533 -0.244853 0.431466 -0.001333 -0.026242 0.148339
 35   1.350415 -0.000001 -0.000001 0.000000 0.000000 0.863937
 36   1.350410 -0.000001 0.000001 0.000000 0.000000 0.863925
 37   2.110541 -0.000001 0.000000 0.002982 -0.010282 -0.168974
 38   0.891923 2.373050 -0.014527 -3.141592 -0.000001 1.413797
 39   7.228119 5.709445 3.726568 3.140796 -1.570796 0.000000
 40   2.450426 5.076127 0.001325 3.140791 -1.570796 0.000000
 41   6.312405 -4.528058 0.001311 3.140791 -1.570796 0.000000
 42   2.233309 1.152535 -7.309138 -1.140137 -1.551923 -0.884545
 43   4.262825 -0.232720 -1.392178 0.016840 0.076668 0.253759
time 24
  0   1.481478 6.791367 38.274296 0.000000 0.000000 -1.701715
  1   0.055016 -0.140629 0.000000 -1.570795 -1.570451 0.000000
  2   -0.000007 0.000008 4.427393 -0.169504 -3.144367 -0.007294
  3   18.465939 0.000000 0.000000 0.000000 0.000000 -0.426354
  4   14.875443 0.000000 0.000000 0.017259 0.010286 0.402268
  5   0.000006 -0.000004 -4.427393 0.107454 3.103852 -0.363547
  6   18.465939 0.000000 0.000000 0.000000 0.000000 -0.388492
  7   14.875442 0.000000 0.000000 -0.000485 -0.003058 0.023116
  8   2.255207 -0.007574 0.000003 0.122101 -0.018462 0.007248
  9   9.514223 -0.009357 0.000000 -0.008779 0.002392 -0.091572
 10   11.752194 -0.001492 0.000000 0.000024 0.043599 0.440031
 11   -2.111792 0.863597 2.563791 0.473984 -1.380693 2.230348
 12   4.640941 0.000000 0.000000 0.673915 1.068010 0.640526
 13   10.828045 0.000000 0.000000 0.000000 0.000000 -0.470452
 14   9.393338 -0.000001 0.000000 -1.569611 0.034195 0.000037
 15   1.442243 0.107453 -1.746178 1.686435 0.539209 0.325885
 16   1.063450 0.000000 -0.000001 0.000000 0.000000 0.199056
 17   1.376307 -0.000001 0.000001 0.000000 0.000000 0.199049
 18   4.172845 -0.251366 -1.312745 0.008050 0.095731 0.148659
 19   1.215373 0.000001 -0.000001 0.000000 0.000000 0.645758
 20   1.215371 -0.000002 0.000000 0.000000 0.000000 0.645758
 21   4.220532 -0.244855 -0.431465 0.001333 0.026242 0.148339
 22   1.350417 0.000000 0.000001 0.000000 0.000000 0.863926
 23   1.350409 0.000000 -0.000001 0.000000 0.000000 0.863926
 24   -1.885222 0.863610 -2.731758 -0.696679 1.453075 2.010134
 25   4.640942 0.000000 0.000000 -0.543685 -1.165255 0.439390
 26   10.828048 0.000000 0.000001 0.000000 0.000000 -0.234230
 27   9.393336 -0.000001 0.000000 1.569611 -0.034192 0.000001
 28   1.442244 0.107454 1.746178 -1.686405 -0.539236 0.325898
 29   1.063451 -0.000001 0.000000 0.000000 0.000000 0.199056
 30   1.376307 -0.000001 0.000000 0.000000 0.000000 0.199059
 31   4.172846 -0.251365 1.312745 -0.008050 -0.095731 0.148659
 32   1.215374 0.000001 -0.000001 0.000000 0.000000 0.645746
 33   1.215373 0.000000 0.000001 0.000000 0.000000 0.645746
 34   4.220533 -0.244853 0.431466 -0.001333 -0.026242 0.148339
 35   1.350415 -0.000001 -0.000001 0.000000 0.000000 0.863937
 36   1.350410 -0.000001 0.000001 0.000000 0.000000 0.863925
 37   2.110541 -0.000001 0.000000 0.002879 -0.010312 -0.166667
 38   0.891923 2.373050 -0.014527 -3.141592 -0.000001 1.413797
 39   7.228119 5.709445 3.726568 3.140796 -1.570796 0.000000
 40   2.450426 5.076127 0.001325 3.140791 -1.570796 0.000000
 41   6.312405 -4.528058 0.001311 3.140791 -1.570796 0.000000
 42   2.233309 1.152535 -7.309138 -1.140137 -1.553438 -0.884545
 43   4.262825 -0.232720 -1.392178 0.016840 0.076668 0.253759
time 25
  0   1.524448 6.791367 38.274296 0.000000 0.000000 -1.701715
  1   0.074548 -0.136723 0.000000 -1.570795 -1.570451 0.000000
  2   -0.000007 0.000008 4.427393 -0.169695 -3.145881 -0.005864
  3   18.465939 0.000000 0.000000 0.000000 0.000000 -0.424672
  4   14.875443 0.000000 0.000000 0.017472 0.011563 0.402268
  5   0.000006 -0.000004 -4.427393 0.107166 3.102417 -0.363360
  6   18.465939 0.000000 0.000000 0.000000 0.000000 -0.389608
  7   14.875442 0.000000 0.000000 -0.000766 -0.001572 0.024279
  8   2.255207 -0.007574 0.000003 0.122101 -0.018265 0.005693
  9   9.514223 -0.009357 0.000000 -0.008779 0.002392 -0.092352
 10   11.752194 -0.001492 0.000000 0.000024 0.043599 0.440031
 11   -2.111792 0.863597 2.563791 0.511142 -1.383966 2.193107
 12   4.640941 0.000000 0.000000 0.684842 1.072123 0.655043
 13   10.828045 0.000000 0.000000 0.000000 0.000000 -0.470452
 14   9.393338 -0.000001 0.000000 -1.569611 0.034195 0.000037
 15   1.442243 0.107453 -1.746178 1.686435 0.539209 0.325885
 16   1.063450 0.000000 -0.000001 0.000000 0.000000 0.199056
 17   1.376307 -0.000001 0.000001 0.000000 0.000000 0.199049
 18   4.172845 -0.251366 -1.312745 0.008050 0.095731 0.148659
 19   1.215373 0.000001 -0.000001 0.000000 0.000000 0.645758
 20   1.215371 -0.000002 0.000000 0.000000 0.000000 0.645758
 21   4.220532 -0.244855 -0.431465 0.001333 0.026242 0.148339
 22   1.350417 0.000000 0.000001 0.000000 0.000000 0.863926
 23   1.350409 0.000000 -0.000001 0.000000 0.000000 0.863926
 24   -1.885222 0.863610 -2.731758 -0.737779 1.455042 1.969025
 25   4.640942 0.000000 0.000000 -0.553486 -1.168672 0.451009
 26   10.828048 0.000000 0.000001 0.000000 0.000000 -0.234230
 27   9.393336 -0.000001 0.000000 1.569611 -0.034192 0.000001
 28   1.442244 0.107454 1.746178 -1.686405 -0.539236 0.325898
 29   1.063451 -0.000001 0.000000 0.000000 0.000000 0.199056
 30   1.376307 -0.000001 0.000000 0.000000 0.000000 0.199059
 31   4.172846 -0.251365 1.312745 -0.008050 -0.095731 0.148659
 32   1.215374 0.000001 -0.000001 0.000000 0.000000 0.645746
 33   1.215373 0.000000 0.000001 0.000000 0.000000 0.645746
 34   4.220533 -0.244853 0.431466 -0.001333 -0.026242 0.148339
 35   1.350415 -0.000001 -0.000001 0.000000 0.000000 0.863937
 36   1.350410 -0.000001 0.000001 0.000000 0.000000 0.863925
 37   2.110541 -0.000001 0.000000 0.002828 -0.010343 -0.164359
 38   0.891923 2.373050 -0.014527 -3.141592 -0.000001 1.413797
 39   7.228119 5.709445 3.726568 3.140796 -1.570796 0.000000
 40   2.450426 5.076127 0.001325 3.140791 -1.570796 0.000000
 41   6.312405 -4.528058 0.001311 3.140791 -1.570796 0.000000
 42   2.233309 1.152535 -7.309138 -1.140137 -1.554981 -0.884545
 43   4.262825 -0.232720 -1.392178 0.016840 0.076668 0.253759
time 26
  0   1.567418 6.791367 38.274296 0.000000 0.000000 -1.701715
  1   0.094080 -0.136723 0.000000 -1.570795 -1.570451 0.000000
  2   -0.000007 0.000008 4.427393 -0.169983 -3.147397 -0.004435
  3   18.465939 0.000000 0.000000 0.000000 0.000000 -0.422918
  4   14.875443 0.000000 0.000000 0.017685 0.012840 0.402268
  5   0.000006 -0.000004 -4.427393 0.106879 3.100982 -0.363079
  6   18.465939 0.000000 0.000000 0.000000 0.000000 -0.390724
  7   14.875442 0.000000 0.000000 -0.001047 -0.000117 0.025405
  8   2.255207 -0.007574 0.000003 0.122101 -0.018089 0.004171
  9   9.514223 -0.009357 0.000000 -0.008779 0.002379 -0.093131
 10   11.752194 -0.001492 0.000000 0.000024 0.043599 0.440031
 11   -2.111792 0.863597 2.563791 0.549538 -1.386988 2.154621
 12   4.640941 0.000000 0.000000 0.696016 1.076092 0.669736
 13   10.828045 0.000000 0.000000 0.000000 0.000000 -0.470452
 14   9.393338 -0.000001 0.000000 -1.569611 0.034195 0.000037
 15   1.442243 0.107453 -1.746178 1.686435 0.539209 0.325885
 16   1.063450 0.000000 -0.000001 0.000000 0.000000 0.199056
 17   1.376307 -0.000001 0.000001 0.000000 0.000000 0.199049
 18   4.172845 -0.251366 -1.312745 0.008050 0.095731 0.148659
 19   1.215373 0.000001 -0.000001 0.000000 0.000000 0.645758
 20   1.215371 -0.000002 0.000000 0.000000 0.000000 0.645758
 21   4.220532 -0.244855 -0.431465 0.001333 0.026242 0.148339
 22   1.350417 0.000000 0.000001 0.000000 0.000000 0.863926
 23   1.350409 0.000000 -0.000001 0.000000 0.000000 0.863926
 24   -1.885222 0.863610 -2.731758 -0.780268 1.456827 1.926635
 25   4.640942 0.000000 0.000000 -0.563540 -1.172090 0.462768
 26   10.828048 0.000000 0.000001 0.000000 0.000000 -0.234230
 27   9.393336 -0.000001 0.000000 1.569611 -0.034192 0.000001
 28   1.442244 0.107454 1.746178 -1.686405 -0.539236 0.325898
 29   1.063451 -0.000001 0.000000 0.000000 0.000000 0.199056
 30   1.376307 -0.000001 0.000000 0.000000 0.000000 0.199059
 31   4.172846 -0.251365 1.312745 -0.008050 -0.095731 0.148659
 32   1.215374 0.000001 -0.000001 0.000000 0.000000 0.645746
 33   1.215373 0.000000 0.000001 0.000000 0.000000 0.645746
 34   4.220533 -0.244853 0.431466 -0.001333 -0.026242 0.148339
 35   1.350415 -0.000001 -0.000001 0.000000 0.000000 0.863937
 36   1.350410 -0.000001 0.000001 0.000000 0.000000 0.863925
 37   2.110541 -0.000001 0.000000 0.002725 -0.010403 -0.162052
 38   0.891923 2.373050 -0.014527 -3.141592 -0.000001 1.413797
 39   7.228119 5.709445 3.726568 3.140796 -1.570796 0.000000
 40   2.450426 5.076127 0.001325 3.140791 -1.570796 0.000000
 41   6.312405 -4.528058 0.001311 3.140791 -1.570796 0.000000
 42   2.233309 1.152535 -7.309138 -1.140137 -1.556525 -0.884545
 43   4.262825 -0.232720 -1.392178 0.016840 0.076668 0.253759
time 27
  0   1.610388 6.791367 38.274296 0.000000 0.000000 -1.701715
  1   0.113612 -0.132817 0.000000 -1.570795 -1.570451 0.000000
  2   -0.000007 0.000008 4.427393 -0.170174 -3.148911 -0.003005
  3   18.465939 0.000000 0.000000 0.000000 0.000000 -0.421236
  4   14.875443 0.000000 0.000000 0.017899 0.014095 0.402229
  5   0.000006 -0.000004 -4.427393 0.106687 3.099547 -0.362892
  6   18.465939 0.000000 0.000000 0.000000 0.000000 -0.391709
  7   14.875442 0.000000 0.000000 -0.001292 0.001338 0.026493
  8   2.255207 -0.007574 0.000003 0.122101 -0.017892 0.002682
  9   9.514223 -0.009357 0.000000 -0.008779 0.002379 -0.093889
 10   11.752194 -0.001492 0.000000 0.000024 0.043599 0.440031
 11   -2.111792 0.863597 2.563791 0.588411 -1.389657 2.115657
 12   4.640941 0.000000 0.000000 0.707191 1.079989 0.684429
 13   10.828045 0.000000 0.000000 0.000000 0.000000 -0.470452
 14   9.393338 -0.000001 0.000000 -1.569611 0.034195 0.000037
 15   1.442243 0.107453 -1.746178 1.686435 0.539209 0.325885
 16   1.063450 0.000000 -0.000001 0.000000 0.000000 0.199056
 17   1.376307 -0.000001 0.000001 0.000000 0.000000 0.199049
 18   4.172845 -0.251366 -1.312745 0.008050 0.095731 0.148659
 19   1.215373 0.000001 -0.000001 0.000000 0.000000 0.645758
 20   1.215371 -0.000002 0.000000 0.000000 0.000000 0.645758
 21   4.220532 -0.244855 -0.431465 0.001333 0.026242 0.148339
 22   1.350417 0.000000 0.000001 0.000000 0.000000 0.863926
 23   1.350409 0.000000 -0.000001 0.000000 0.000000 0.863926
 24   -1.885222 0.863610 -2.731758 -0.823035 1.458371 1.883817
 25   4.640942 0.000000 0.000000 -0.573595 -1.175297 0.474527
 26   10.828048 0.000000 0.000001 0.000000 0.000000 -0.234230
 27   9.393336 -0.000001 0.000000 1.569611 -0.034192 0.000001
 28   1.442244 0.107454 1.746178 -1.686405 -0.539236 0.325898
 29   1.063451 -0.000001 0.000000 0.000000 0.000000 0.199056
 30   1.376307 -0.000001 0.000000 0.000000 0.000000 0.199059
 31   4.172846 -0.251365 1.312745 -0.008050 -0.095731 0.148659
 32   1.215374 0.000001 -0.000001 0.000000 0.000000 0.645746
 33   1.215373 0.000000 0.000001 0.000000 0.000000 0.645746
 34   4.220533 -0.244853 0.431466 -0.001333 -0.026242 0.148339
 35   1.350415 -0.000001 -0.000001 0.000000 0.000000 0.863937
 36   1.350410 -0.000001 0.000001 0.000000 0.000000 0.863925
 37   2.110541 -0.000001 0.000000 0.002674 -0.010433 -0.159792
 38   0.891923 2.373050 -0.014527 -3.141592 -0.000001 1.413797
 39   7.228119 5.709445 3.726568 3.140796 -1.570796 0.000000
 40   2.450426 5.076127 0.001325 3.140791 -1.570796 0.000000
 41   6.312405 -4.528058 0.001311 3.140791 -1.570796 0.000000
 42   2.233309 1.152535 -7.309138 -1.140137 -1.558039 -0.884641
 43   4.262825 -0.232720 -1.392178 0.016840 0.076668 0.253759
time 28
  0   1.653358 6.791367 38.274296 0.000000 0.000000 -1.701715
  1   0.133144 -0.128910 0.000000 -1.570795 -1.570451 0.000000
  2   -0.000007 0.000008 4.427393 -0.170366 -3.150332 -0.001671
  3   18.465939 0.000000 0.000000 0.000000 0.000000 -0.419555
  4   14.875443 0.000000 0.000000 0.018112 0.015309 0.402189
  5   0.000006 -0.000004 -4.427393 0.106495 3.098112 -0.362705
  6   18.465939 0.000000 0.000000 0.000000 0.000000 -0.392693
  7   14.875442 0.000000 0.000000 -0.001573 0.002732 0.027543
  8   2.255207 -0.007574 0.000003 0.122101 -0.017715 0.001226
  9   9.514223 -0.009357 0.000000 -0.008779 0.002365 -0.094603
 10   11.752194 -0.001492 0.000000 0.000024 0.043599 0.440031
 11   -2.111792 0.863597 2.563791 0.626712 -1.391949 2.077266
 12   4.640941 0.000000 0.000000 0.718242 1.083596 0.698712
 13   10.828045 0.000000 0.000000 0.000000 0.000000 -0.470452
 14   9.393338 -0.000001 0.000000 -1.569611 0.034195 0.000037
 15   1.442243 0.107453 -1.746178 1.686435 0.539209 0.325885
 16   1.063450 0.000000 -0.000001 0.000000 0.000000 0.199056
 17   1.376307 -0.000001 0.000001 0.000000 0.000000 0.199049
 18   4.172845 -0.251366 -1.312745 0.008050 0.095731 0.148659
 19   1.215373 0.000001 -0.000001 0.000000 0.000000 0.645758
 20   1.215371 -0.000002 0.000000 0.000000 0.000000 0.645758
 21   4.220532 -0.244855 -0.431465 0.001333 0.026242 0.148339
 22   1.350417 0.000000 0.000001 0.000000 0.000000 0.863926
 23   1.350409 0.000000 -0.000001 0.000000 0.000000 0.863926
 24   -1.885222 0.863610 -2.731758 -0.865153 1.459642 1.841683
 25   4.640942 0.000000 0.000000 -0.583396 -1.178436 0.486006
 26   10.828048 0.000000 0.000001 0.000000 0.000000 -0.234230
 27   9.393336 -0.000001 0.000000 1.569611 -0.034192 0.000001
 28   1.442244 0.107454 1.746178 -1.686405 -0.539236 0.325898
 29   1.063451 -0.000001 0.000000 0.000000 0.000000 0.199056
 30   1.376307 -0.000001 0.000000 0.000000 0.000000 0.199059
 31   4.172846 -0.251365 1.312745 -0.008050 -0.095731 0.148659
 32   1.215374 0.000001 -0.000001 0.000000 0.000000 0.645746
 33   1.215373 0.000000 0.000001 0.000000 0.000000 0.645746
 34   4.220533 -0.244853 0.431466 -0.001333 -0.026242 0.148339
 35   1.350415 -0.000001 -0.000001 0.000000 0.000000 0.863937
 36   1.350410 -0.000001 0.000001 0.000000 0.000000 0.863925
 37   2.110541 -0.000001 0.000000 0.002571 -0.010463 -0.157626
 38   0.891923 2.373050 -0.014527 -3.141592 -0.000001 1.413797
 39   7.228119 5.709445 3.726568 3.140796 -1.570796 0.000000
 40   2.450426 5.076127 0.001325 3.140791 -1.570796 0.000000
 41   6.312405 -4.528058 0.001311 3.140791 -1.570796 0.000000
 42   2.233309 1.152535 -7.309138 -1.140137 -1.559496 -0.884641
 43   4.262825 -0.232720 -1.392178 0.016840 0.076668 0.253759
time 29
  0   1.692422 6.791367 38.274296 0.000000 0.000000 -1.701715
  1   0.148769 -0.128910 0.000000 -1.570795 -1.570451 0.000000
  2   -0.000007 0.000008 4.427393 -0.170557 -3.151752 -0.000336
  3   18.465939 0.000000 0.000000 0.000000 0.000000 -0.418019
  4   14.875443 0.000000 0.000000 0.018290 0.016437 0.402110
  5   0.000006 -0.000004 -4.427393 0.106208 3.096868 -0.362424
  6   18.465939 0.000000 0.000000 0.000000 0.000000 -0.393546
  7   14.875442 0.000000 0.000000 -0.001819 0.004036 0.028481
  8   2.255207 -0.007574 0.000003 0.122101 -0.017558 -0.000097
  9   9.514223 -0.009357 0.000000 -0.008779 0.002365 -0.095296
 10   11.752194 -0.001492 0.000000 0.000024 0.043599 0.440031
 11   -2.111792 0.863597 2.563791 0.663297 -1.393863 2.040408
 12   4.640941 0.000000 0.000000 0.728733 1.086916 0.712293
 13   10.828045 0.000000 0.000000 0.000000 0.000000 -0.470452
 14   9.393338 -0.000001 0.000000 -1.569611 0.034195 0.000037
 15   1.442243 0.107453 -1.746178 1.686435 0.539209 0.325885
 16   1.063450 0.000000 -0.000001 0.000000 0.000000 0.199056
 17   1.376307 -0.000001 0.000001 0.000000 0.000000 0.199049
 18   4.172845 -0.251366 -1.312745 0.008050 0.095731 0.148659
 19   1.215373 0.000001 -0.000001 0.000000 0.000000 0.645758
 20   1.215371 -0.000002 0.000000 0.000000 0.000000 0.645758
 21   4.220532 -0.244855 -0.431465 0.001333 0.026242 0.148339
 22   1.350417 0.000000 0.000001 0.000000 0.000000 0.863926
 23   1.350409 0.000000 -0.000001 0.000000 0.000000 0.863926
 24   -1.885222 0.863610 -2.731758 -0.905328 1.460670 1.801515
 25   4.640942 0.000000 0.000000 -0.592775 -1.181295 0.496925
 26   10.828048 0.000000 0.000001 0.000000 0.000000 -0.234230
 27   9.393336 -0.000001 0.000000 1.569611 -0.034192 0.000001
 28   1.442244 0.107454 1.746178 -1.686405 -0.539236 0.325898
 29   1.063451 -0.000001 0.000000 0.000000 0.000000 0.199056
 30   1.376307 -0.000001 0.000000 0.000000 0.000000 0.199059
 31   4.172846 -0.251365 1.312745 -0.008050 -0.095731 0.148659
 32   1.215374 0.000001 -0.000001 0.000000 0.000000 0.645746
 33   1.215373 0.000000 0.000001 0.000000 0.000000 0.645746
 34   4.220533 -0.244853 0.431466 -0.001333 -0.026242 0.148339
 35   1.350415 -0.000001 -0.000001 0.000000 0.000000 0.863937
 36   1.350410 -0.000001 0.000001 0.000000 0.000000 0.863925
 37   2.110541 -0.000001 0.000000 0.002519 -0.010493 -0.155554
 38   0.891923 2.373050 -0.014527 -3.141592 -0.000001 1.413797
 39   7.228119 5.709445 3.726568 3.140796 -1.570796 0.000000
 40   2.450426 5.076127 0.001325 3.140791 -1.570796 0.000000
 41   6.312405 -4.528058 0.001311 3.140791 -1.570796 0.000000
 42   2.233309 1.152535 -7.309138 -1.140137 -1.560864 -0.884641
 43   4.262825 -0.232720 -1.392178 0.016840 0.076668 0.253759
time 30
  0   1.727579 6.791367 38.274296 0.000000 0.000000 -1.701715
  1   0.164395 -0.125004 0.000000 -1.570795 -1.570451 0.000000
  2   -0.000007 0.000008 4.427393 -0.170749 -3.152983 0.000903
  3   18.465939 0.000000 0.000000 0.000000 0.000000 -0.416557
  4   14.875443 0.000000 0.000000 0.018467 0.017437 0.402071
  5   0.000006 -0.000004 -4.427393 0.106016 3.095625 -0.362237
  6   18.465939 0.000000 0.000000 0.000000 0.000000 -0.394334
  7   14.875442 0.000000 0.000000 -0.002065 0.005218 0.029344
  8   2.255207 -0.007574 0.000003 0.122101 -0.017401 -0.001322
  9   9.514223 -0.009357 0.000000 -0.008779 0.002352 -0.095902
 10   11.752194 -0.001492 0.000000 0.000024 0.043599 0.440031
 11   -2.111792 0.863597 2.563791 0.697216 -1.395374 2.006326
 12   4.640941 0.000000 0.000000 0.738480 1.089874 0.724820
 13   10.828045 0.000000 0.000000 0.000000 0.000000 -0.470452
 14   9.393338 -0.000001 0.000000 -1.569611 0.034195 0.000037
 15   1.442243 0.107453 -1.746178 1.686435 0.539209 0.325885
 16   1.063450 0.000000 -0.000001 0.000000 0.000000 0.199056
 17   1.376307 -0.000001 0.000001 0.000000 0.000000 0.199049
 18   4.172845 -0.251366 -1.312745 0.008050 0.095731 0.148659
 19   1.215373 0.000001 -0.000001 0.000000 0.000000 0.645758
 20   1.215371 -0.000002 0.000000 0.000000 0.000000 0.645758
 21   4.220532 -0.244855 -0.431465 0.001333 0.026242 0.148339
 22   1.350417 0.000000 0.000001 0.000000 0.000000 0.863926
 23   1.350409 0.000000 -0.000001 0.000000 0.000000 0.863926
 24   -1.885222 0.863610 -2.731758 -0.942447 1.461427 1.764337
 25   4.640942 0.000000 0.000000 -0.601477 -1.183875 0.506934
 26   10.828048 0.000000 0.000001 0.000000 0.000000 -0.234230
 27   9.393336 -0.000001 0.000000 1.569611 -0.034192 0.000001
 28   1.442244 0.107454 1.746178 -1.686405 -0.539236 0.325898
 29   1.063451 -0.000001 0.000000 0.000000 0.000000 0.199056
 30   1.376307 -0.000001 0.000000 0.000000 0.000000 0.199059
 31   4.172846 -0.251365 1.312745 -0.008050 -0.095731 0.148659
 32   1.215374 0.000001 -0.000001 0.000000 0.000000 0.645746
 33   1.215373 0.000000 0.000001 0.000000 0.000000 0.645746
 34   4.220533 -0.244853 0.431466 -0.001333 -0.026242 0.148339
 35   1.350415 -0.000001 -0.000001 0.000000 0.000000 0.863937
 36   1.350410 -0.000001 0.000001 0.000000 0.000000 0.863925
 37   2.110541 -0.000001 0.000000 0.002417 -0.010493 -0.153718
 38   0.891923 2.373050 -0.014527 -3.141592 -0.000001 1.413797
 39   7.228119 5.709445 3.726568 3.140796 -1.570796 0.000000
 40   2.450426 5.076127 0.001325 3.140791 -1.570796 0.000000
 41   6.312405 -4.528058 0.001311 3.140791 -1.570796 0.000000
 42   2.233309 1.152535 -7.309138 -1.140137 -1.562088 -0.884450
 43   4.262825 -0.232720 -1.392178 0.016840 0.076668 0.253759
end
