version 1
nodes
  0 "Bip01" -1
  1 "Bip01 Pelvis" 0
  2 "Bip01 L Thigh" 1
  3 "Bip01 L Calf" 2
  4 "Bip01 L Foot" 3
  5 "Bip01 R Thigh" 1
  6 "Bip01 R Calf" 5
  7 "Bip01 R Foot" 6
  8 "Bip01 Spine" 1
  9 "Bip01 Spine1" 8
 10 "Bip01 Neck" 9
 11 "Bip01 L Clavicle" 10
 12 "Bip01 L UpperArm" 11
 13 "Bip01 L Forearm" 12
 14 "Bip01 L Hand" 13
 15 "Bip01 L Finger0" 14
 16 "Bip01 L Finger01" 15
 17 "Bip01 L Finger02" 16
 18 "Bip01 L Finger1" 14
 19 "Bip01 L Finger11" 18
 20 "Bip01 L Finger12" 19
 21 "Bip01 L Finger2" 14
 22 "Bip01 L Finger21" 21
 23 "Bip01 L Finger22" 22
 24 "Bip01 R Clavicle" 10
 25 "Bip01 R UpperArm" 24
 26 "Bip01 R Forearm" 25
 27 "Bip01 R Hand" 26
 28 "Bip01 R Finger0" 27
 29 "Bip01 R Finger01" 28
 30 "Bip01 R Finger02" 29
 31 "Bip01 R Finger1" 27
 32 "Bip01 R Finger11" 31
 33 "Bip01 R Finger12" 32
 34 "Bip01 R Finger2" 27
 35 "Bip01 R Finger21" 34
 36 "Bip01 R Finger22" 35
 37 "Bip01 Head" 10
 38 "Bone05" 37
 39 "Bone08" 9
 40 "Bone16" 8
 41 "Bone01" 8
 42 "Bone03" 1
 43 "Bip01 R Finger4" 27
end
skeleton
time 0
  0   1.727579 6.791367 38.368835 0.000000 0.000000 -1.701715
  1   0.234709 -0.261727 0.000000 -1.570795 -1.570451 0.000000
  2   -0.000007 0.000008 4.427393 -0.170749 -3.153362 0.003286
  3   18.465939 0.000000 0.000000 0.000000 0.000000 -0.414291
  4   14.875443 0.000000 0.000000 0.018467 0.017373 0.413053
  5   0.000006 -0.000004 -4.427393 0.107358 3.099069 -0.335471
  6   18.465939 0.000000 0.000000 0.000000 0.000000 -0.336508
  7   14.875442 0.000000 0.000000 -0.220047 0.004915 -0.000782
  8   2.255207 -0.007574 0.000003 -0.069790 -0.017342 0.001987
  9   9.514223 -0.009357 0.000000 -0.112740 -0.010510 -0.121642
 10   11.752194 -0.001492 0.000000 0.000024 0.043599 0.440031
 11   -2.111792 0.863597 2.563791 0.056961 -1.435790 2.643640
 12   4.640941 0.000000 0.000000 -0.074042 1.190029 0.035420
 13   10.828045 0.000000 0.000000 0.000000 0.000000 -0.470452
 14   9.393338 -0.000001 0.000000 -1.517186 0.060939 0.003211
 15   1.442243 0.107453 -1.746178 1.866923 0.229889 0.676994
 16   1.063450 0.000000 -0.000001 0.000000 0.000000 0.235609
 17   1.376307 -0.000001 0.000001 0.000000 0.000000 0.235614
 18   4.172845 -0.251366 -1.312745 0.081348 0.051149 1.075363
 19   1.215373 0.000001 -0.000001 0.000000 0.000000 1.020980
 20   1.215371 -0.000002 0.000000 0.000000 0.000000 1.020980
 21   4.220532 -0.244855 -0.431465 0.021755 0.014725 1.073521
 22   1.350417 0.000000 0.000001 0.000000 0.000000 1.020996
 23   1.350409 0.000000 -0.000001 0.000000 0.000000 1.020996
 24   -1.885222 0.863610 -2.731758 1.437756 1.140960 4.107095
 25   4.640942 0.000000 0.000000 -0.904718 -1.183387 -0.014589
 26   10.828048 0.000000 0.000001 0.000000 0.000000 -0.234230
 27   9.393336 -0.000001 0.000000 1.547201 0.096981 -0.254308
 28   1.442244 0.107454 1.746178 -1.866873 -0.229907 0.676989
 29   1.063451 -0.000001 0.000000 0.000000 0.000000 0.235609
 30   1.376307 -0.000001 0.000000 0.000000 0.000000 0.235618
 31   4.172846 -0.251365 1.312745 -0.081348 -0.051149 1.075363
 32   1.215374 0.000001 -0.000001 0.000000 0.000000 1.020982
 33   1.215373 0.000000 0.000001 0.000000 0.000000 1.020982
 34   4.220533 -0.244853 0.431466 -0.021755 -0.014725 1.073521
 35   1.350415 -0.000001 -0.000001 0.000000 0.000000 1.020982
 36   1.350410 -0.000001 0.000001 0.000000 0.000000 1.020980
 37   2.110541 -0.000001 0.000000 -1.007031 -0.067022 -0.128997
 38   0.891923 2.373050 -0.014527 -3.141592 -0.000001 1.413797
 39   7.228119 5.709445 3.726568 3.140796 -1.570796 0.000000
 40   2.450426 5.076127 0.001325 3.140791 -1.570796 0.000000
 41   6.312405 -4.528058 0.001311 3.140791 -1.570796 0.000000
 42   2.233309 1.152535 -7.309138 -1.570796 -1.570476 0.000000
 43   4.262825 -0.232720 -1.392178 0.001188 0.078478 0.052453
time 1
  0   2.614325 5.510911 37.785835 0.000000 0.034995 -1.701715
  1   -0.050456 -0.304697 0.000000 -1.570795 -1.570451 0.000000
  2   -0.000007 0.000008 4.427393 -0.175444 -3.159043 -0.053045
  3   18.465939 0.000000 0.000000 0.000000 0.000000 -0.498949
  4   14.875443 0.000000 0.000000 0.022627 0.026717 0.478036
  5   0.000006 -0.000004 -4.427393 0.098445 3.080606 -0.423536
  6   18.465939 0.000000 0.000000 0.000000 0.000000 -0.480580
  7   14.875442 0.000000 0.000000 -0.218994 0.019254 0.089522
  8   2.255207 -0.007574 0.000003 -0.069833 -0.021034 0.028358
  9   9.514223 -0.009357 0.000000 -0.112740 -0.010510 -0.121642
 10   11.752194 -0.001492 0.000000 0.000024 0.043599 0.440031
 11   -2.111792 0.863597 2.563791 0.056961 -1.435790 2.643640
 12   4.640941 0.000000 0.000000 -0.311503 1.006965 -0.268450
 13   10.828045 0.000000 0.000000 0.000000 0.000000 -0.776856
 14   9.393338 -0.000001 0.000000 -1.720437 -0.016505 0.072469
 15   1.442243 0.107453 -1.746178 1.810415 0.283839 0.524580
 16   1.063450 0.000000 -0.000001 0.000000 0.000000 0.218171
 17   1.376307 -0.000001 0.000001 0.000000 0.000000 0.218173
 18   4.172845 -0.251366 -1.312745 0.063263 0.072337 0.784440
 19   1.215373 0.000001 -0.000001 0.000000 0.000000 0.729834
 20   1.215371 -0.000002 0.000000 0.000000 0.000000 0.729834
 21   4.220532 -0.244855 -0.431465 0.016613 0.020358 0.782370
 22   1.350417 0.000000 0.000001 0.000000 0.000000 0.729850
 23   1.350409 0.000000 -0.000001 0.000000 0.000000 0.729850
 24   -1.885222 0.863610 -2.731758 1.299922 1.337205 3.984111
 25   4.640942 0.000000 0.000000 -0.189327 -1.246083 -0.736783
 26   10.828048 0.000000 0.000001 0.000000 0.000000 -0.644061
 27   9.393336 -0.000001 0.000000 1.268733 0.090800 -0.254842
 28   1.442244 0.107454 1.746178 -1.826142 -0.299178 0.616740
 29   1.063451 -0.000001 0.000000 0.000000 0.000000 0.187239
 30   1.376307 -0.000001 0.000000 0.000000 0.000000 0.187225
 31   4.172846 -0.251365 1.312745 -0.068944 -0.066944 0.865947
 32   1.215374 0.000001 -0.000001 0.000000 0.000000 0.811352
 33   1.215373 0.000000 0.000001 0.000000 0.000000 0.811352
 34   4.220533 -0.244853 0.431466 -0.018207 -0.018931 0.863846
 35   1.350415 -0.000001 -0.000001 0.000000 0.000000 0.811352
 36   1.350410 -0.000001 0.000001 0.000000 0.000000 0.811350
 37   2.110541 -0.000001 0.000000 -0.926411 -0.077876 -0.182441
 38   0.891923 2.373050 -0.014527 -3.141592 -0.000001 1.413797
 39   7.228119 5.709445 3.726568 3.140796 -1.570796 0.000000
 40   2.450426 5.076127 0.001325 3.140791 -1.570796 0.000000
 41   6.312405 -4.528058 0.001311 3.140791 -1.570796 0.000000
 42   2.233309 1.152535 -7.309138 -1.570796 -1.570796 0.000000
 43   4.262825 -0.232720 -1.392178 0.001188 0.078478 0.052453
time 2
  0   3.524509 4.194886 37.092537 0.000000 0.086049 -1.701715
  1   -0.456718 -0.359386 0.000000 -1.570795 -1.570451 0.000000
  2   -0.000007 0.000008 4.427393 -0.184929 -3.183756 -0.098701
  3   18.465939 0.000000 0.000000 0.000000 0.000000 -0.573226
  4   14.875443 0.000000 0.000000 0.031693 0.050470 0.562297
  5   0.000006 -0.000004 -4.427393 0.082056 3.043298 -0.517123
  6   18.465939 0.000000 0.000000 0.000000 0.000000 -0.645262
  7   14.875442 0.000000 0.000000 -0.220609 0.055418 0.209504
  8   2.255207 -0.007574 0.000003 -0.070086 -0.026416 0.066706
  9   9.514223 -0.009357 0.000000 -0.112740 -0.010510 -0.121642
 10   11.752194 -0.001492 0.000000 0.000024 0.043599 0.440031
 11   -2.111792 0.863597 2.563791 0.056961 -1.435790 2.643640
 12   4.640941 0.000000 0.000000 -0.434424 0.715088 -0.487323
 13   10.828045 0.000000 0.000000 0.000000 0.000000 -1.159402
 14   9.393338 -0.000001 0.000000 -2.017391 -0.098344 0.194378
 15   1.442243 0.107453 -1.746178 1.739299 0.331929 0.353593
 16   1.063450 0.000000 -0.000001 0.000000 0.000000 0.199295
 17   1.376307 -0.000001 0.000001 0.000000 0.000000 0.199297
 18   4.172845 -0.251366 -1.312745 0.037712 0.088373 0.468754
 19   1.215373 0.000001 -0.000001 0.000000 0.000000 0.414760
 20   1.215371 -0.000002 0.000000 0.000000 0.000000 0.414760
 21   4.220532 -0.244855 -0.431465 0.009482 0.024504 0.467236
 22   1.350417 0.000000 0.000001 0.000000 0.000000 0.414771
 23   1.350409 0.000000 -0.000001 0.000000 0.000000 0.414771
 24   -1.885222 0.863610 -2.731758 -0.742963 1.483245 1.961675
 25   4.640942 0.000000 0.000000 0.433462 -0.999485 -1.379325
 26   10.828048 0.000000 0.000001 0.000000 0.000000 -1.115231
 27   9.393336 -0.000001 0.000000 0.875123 0.082309 -0.252659
 28   1.442244 0.107454 1.746178 -1.778866 -0.367605 0.550363
 29   1.063451 -0.000001 0.000000 0.000000 0.000000 0.137611
 30   1.376307 -0.000001 0.000000 0.000000 0.000000 0.137621
 31   4.172846 -0.251365 1.312745 -0.053064 -0.080115 0.650680
 32   1.215374 0.000001 -0.000001 0.000000 0.000000 0.596265
 33   1.215373 0.000000 0.000001 0.000000 0.000000 0.596265
 34   4.220533 -0.244853 0.431466 -0.013749 -0.022383 0.648765
 35   1.350415 -0.000001 -0.000001 0.000000 0.000000 0.596265
 36   1.350410 -0.000001 0.000001 0.000000 0.000000 0.596234
 37   2.110541 -0.000001 0.000000 -0.809234 -0.089302 -0.262817
 38   0.891923 2.373050 -0.014527 -3.141592 -0.000001 1.413797
 39   7.228119 5.709445 3.726568 3.140796 -1.570796 0.000000
 40   2.450426 5.076127 0.001325 3.140791 -1.570796 0.000000
 41   6.312405 -4.528058 0.001311 3.140791 -1.570796 0.000000
 42   2.233309 1.152535 -7.309138 -1.570796 -1.570796 0.000000
 43   4.262825 -0.232720 -1.392178 0.001188 0.078478 0.052453
time 3
  0   4.426880 2.896646 36.367729 0.000000 0.147778 -1.701715
  1   -0.956733 -0.429701 0.000000 -1.570795 -1.570451 0.000000
  2   -0.000007 0.000008 4.427393 -0.197576 -3.221157 -0.125961
  3   18.465939 0.000000 0.000000 0.000000 0.000000 -0.606636
  4   14.875443 0.000000 0.000000 0.046447 0.080715 0.637472
  5   0.000006 -0.000004 -4.427393 0.060779 2.997284 -0.594238
  6   18.465939 0.000000 0.000000 0.000000 0.000000 -0.774501
  7   14.875442 0.000000 0.000000 -0.222539 0.104588 0.321006
  8   2.255207 -0.007574 0.000003 -0.070676 -0.032896 0.113062
  9   9.514223 -0.009357 0.000000 -0.112740 -0.010510 -0.121642
 10   11.752194 -0.001492 0.000000 0.000024 0.043599 0.440031
 11   -2.111792 0.863597 2.563791 0.056961 -1.435790 2.643640
 12   4.640941 0.000000 0.000000 -0.469562 0.400842 -0.626585
 13   10.828045 0.000000 0.000000 0.000000 0.000000 -1.198389
 14   9.393338 -0.000001 0.000000 -2.328718 -0.140524 0.338120
 15   1.442243 0.107453 -1.746178 1.672005 0.363028 0.203971
 16   1.063450 0.000000 -0.000001 0.000000 0.000000 0.183284
 17   1.376307 -0.000001 0.000001 0.000000 0.000000 0.183277
 18   4.172845 -0.251366 -1.312745 0.012988 0.095192 0.200472
 19   1.215373 0.000001 -0.000001 0.000000 0.000000 0.147544
 20   1.215371 -0.000002 0.000000 0.000000 0.000000 0.147544
 21   4.220532 -0.244855 -0.431465 0.002687 0.026134 0.199947
 22   1.350417 0.000000 0.000001 0.000000 0.000000 0.147557
 23   1.350409 0.000000 -0.000001 0.000000 0.000000 0.147557
 24   -1.885222 0.863610 -2.731758 -1.401030 1.218127 1.324622
 25   4.640942 0.000000 0.000000 0.504942 -0.633006 -1.508393
 26   10.828048 0.000000 0.000001 0.000000 0.000000 -0.848140
 27   9.393336 -0.000001 0.000000 0.475994 0.075217 -0.247325
 28   1.442244 0.107454 1.746178 -1.725953 -0.431932 0.479558
 29   1.063451 -0.000001 0.000000 0.000000 0.000000 0.088594
 30   1.376307 -0.000001 0.000000 0.000000 0.000000 0.088612
 31   4.172846 -0.251365 1.312745 -0.034968 -0.089499 0.437738
 32   1.215374 0.000001 -0.000001 0.000000 0.000000 0.383865
 33   1.215373 0.000000 0.000001 0.000000 0.000000 0.383865
 34   4.220533 -0.244853 0.431466 -0.008727 -0.024780 0.436327
 35   1.350415 -0.000001 -0.000001 0.000000 0.000000 0.383865
 36   1.350410 -0.000001 0.000001 0.000000 0.000000 0.383885
 37   2.110541 -0.000001 0.000000 -0.668252 -0.095917 -0.363159
 38   0.891923 2.373050 -0.014527 -3.141592 -0.000001 1.413797
 39   7.228119 5.709445 3.726568 3.140796 -1.570796 0.000000
 40   2.450426 5.076127 0.001325 3.140791 -1.570796 0.000000
 41   6.312405 -4.528058 0.001311 3.140791 -1.570796 0.000000
 42   2.233309 1.152535 -7.309138 -1.570796 -1.570796 0.000000
 43   4.262825 -0.232720 -1.392178 0.001188 0.078478 0.052453
time 4
  0   5.278469 1.660650 35.674431 0.000000 0.214426 -1.701715
  1   -1.491906 -0.507828 0.000000 -1.570795 -1.570451 0.000000
  2   -0.000007 0.000008 4.427393 -0.209361 -3.263008 -0.134921
  3   18.465939 0.000000 0.000000 0.000000 0.000000 -0.586459
  4   14.875443 0.000000 0.000000 0.065681 0.109065 0.683573
  5   0.000006 -0.000004 -4.427393 0.039790 2.951749 -0.650577
  6   18.465939 0.000000 0.000000 0.000000 0.000000 -0.851164
  7   14.875442 0.000000 0.000000 -0.222188 0.156121 0.406059
  8   2.255207 -0.007574 0.000003 -0.071647 -0.039868 0.163190
  9   9.514223 -0.009357 0.000000 -0.112740 -0.010510 -0.121642
 10   11.752194 -0.001492 0.000000 0.000024 0.043599 0.440031
 11   -2.111792 0.863597 2.563791 0.056961 -1.435790 2.643640
 12   4.640941 0.000000 0.000000 -0.455532 0.059320 -0.743485
 13   10.828045 0.000000 0.000000 0.000000 0.000000 -1.137865
 14   9.393338 -0.000001 0.000000 -2.666028 -0.134564 0.498859
 15   1.442243 0.107453 -1.746178 1.632624 0.376005 0.119801
 16   1.063450 0.000000 -0.000001 0.000000 0.000000 0.174451
 17   1.376307 -0.000001 0.000001 0.000000 0.000000 0.174432
 18   4.172845 -0.251366 -1.312745 -0.001190 0.096055 0.052246
 19   1.215373 0.000001 -0.000001 0.000000 0.000000 0.000011
 20   1.215371 -0.000002 0.000000 0.000000 0.000000 0.000011
 21   4.220532 -0.244855 -0.431465 -0.001184 0.026242 0.052329
 22   1.350417 0.000000 0.000001 0.000000 0.000000 0.000004
 23   1.350409 0.000000 -0.000001 0.000000 0.000000 0.000004
 24   -1.885222 0.863610 -2.731758 -1.500448 0.912821 1.248900
 25   4.640942 0.000000 0.000000 0.379894 -0.249929 -1.531211
 26   10.828048 0.000000 0.000001 0.000000 0.000000 -0.343600
 27   9.393336 -0.000001 0.000000 0.048660 0.070564 -0.238984
 28   1.442244 0.107454 1.746178 -1.669676 -0.489517 0.406848
 29   1.063451 -0.000001 0.000000 0.000000 0.000000 0.042105
 30   1.376307 -0.000001 0.000000 0.000000 0.000000 0.042115
 31   4.172846 -0.251365 1.312745 -0.016308 -0.094677 0.235495
 32   1.215374 0.000001 -0.000001 0.000000 0.000000 0.182419
 33   1.215373 0.000000 0.000001 0.000000 0.000000 0.182419
 34   4.220533 -0.244853 0.431466 -0.003586 -0.026026 0.234779
 35   1.350415 -0.000001 -0.000001 0.000000 0.000000 0.182419
 36   1.350410 -0.000001 0.000001 0.000000 0.000000 0.182413
 37   2.110541 -0.000001 0.000000 -0.517243 -0.093963 -0.474283
 38   0.891923 2.373050 -0.014527 -3.141592 -0.000001 1.413797
 39   7.228119 5.709445 3.726568 3.140796 -1.570796 0.000000
 40   2.450426 5.076127 0.001325 3.140791 -1.570796 0.000000
 41   6.312405 -4.528058 0.001311 3.140791 -1.570796 0.000000
 42   2.233309 1.152535 -7.309138 -1.570796 -1.570796 0.000000
 43   4.262825 -0.232720 -1.392178 0.001188 0.078478 0.052453
time 5
  0   6.051930 0.549143 35.217484 0.000000 0.252856 -1.701715
  1   -1.796603 -0.550798 0.000000 -1.570795 -1.570451 0.000000
  2   -0.000007 0.000008 4.427393 -0.212427 -3.300599 -0.107946
  3   18.465939 0.000000 0.000000 0.000000 0.000000 -0.523294
  4   14.875443 0.000000 0.000000 0.080755 0.130604 0.693053
  5   0.000006 -0.000004 -4.427393 0.026755 2.915397 -0.664709
  6   18.465939 0.000000 0.000000 0.000000 0.000000 -0.878338
  7   14.875442 0.000000 0.000000 -0.221521 0.197561 0.456032
  8   2.255207 -0.007574 0.000003 -0.072364 -0.043855 0.192108
  9   9.514223 -0.009357 0.000000 -0.112740 -0.010510 -0.121642
 10   11.752194 -0.001492 0.000000 0.000024 0.043599 0.440031
 11   -2.111792 0.863597 2.563791 0.056961 -1.435790 2.643640
 12   4.640941 0.000000 0.000000 -0.420642 -0.165884 -0.820111
 13   10.828045 0.000000 0.000000 0.000000 0.000000 -1.096438
 14   9.393338 -0.000001 0.000000 -2.890194 -0.100904 0.601671
 15   1.442243 0.107453 -1.746178 1.616661 0.380289 0.086182
 16   1.063450 0.000000 -0.000001 0.000000 0.000000 0.170952
 17   1.376307 -0.000001 0.000001 0.000000 0.000000 0.170927
 18   4.172845 -0.251366 -1.312745 -0.006811 0.095827 -0.006499
 19   1.215373 0.000001 -0.000001 0.000000 0.000000 -0.058463
 20   1.215371 -0.000002 0.000000 0.000000 0.000000 -0.058463
 21   4.220532 -0.244855 -0.431465 -0.002706 0.026134 -0.006166
 22   1.350417 0.000000 0.000001 0.000000 0.000000 -0.058479
 23   1.350409 0.000000 -0.000001 0.000000 0.000000 -0.058479
 24   -1.885222 0.863610 -2.731758 -1.533772 0.706197 1.232833
 25   4.640942 0.000000 0.000000 0.225190 -0.030181 -1.553399
 26   10.828048 0.000000 0.000001 0.000000 0.000000 -0.002503
 27   9.393336 -0.000001 0.000000 -0.239082 0.069588 -0.232631
 28   1.442244 0.107454 1.746178 -1.613036 -0.538225 0.335888
 29   1.063451 -0.000001 0.000000 0.000000 0.000000 0.000004
 30   1.376307 -0.000001 0.000000 0.000000 0.000000 0.000003
 31   4.172846 -0.251365 1.312745 0.001190 -0.096055 0.052246
 32   1.215374 0.000001 -0.000001 0.000000 0.000000 0.000026
 33   1.215373 0.000000 0.000001 0.000000 0.000000 0.000026
 34   4.220533 -0.244853 0.431466 0.001184 -0.026242 0.052329
 35   1.350415 -0.000001 -0.000001 0.000000 0.000000 0.000026
 36   1.350410 -0.000001 0.000001 0.000000 0.000000 0.000024
 37   2.110541 -0.000001 0.000000 -0.431122 -0.088551 -0.539074
 38   0.891923 2.373050 -0.014527 -3.141592 -0.000001 1.413797
 39   7.228119 5.709445 3.726568 3.140796 -1.570796 0.000000
 40   2.450426 5.076127 0.001325 3.140791 -1.570796 0.000000
 41   6.312405 -4.528058 0.001311 3.140791 -1.570796 0.000000
 42   2.233309 1.152535 -7.309138 -1.570796 -1.570476 0.000000
 43   4.262825 -0.232720 -1.392178 0.001188 0.078478 0.052453
time 6
  0   6.051930 0.549143 34.996887 0.009971 0.254898 -1.661830
  1   -2.054423 -0.531266 0.000000 -1.570795 -1.570451 0.000000
  2   -0.000007 0.000008 4.427393 -0.213193 -3.293971 -0.119765
  3   18.465939 0.000000 0.000000 0.000000 0.000000 -0.555607
  4   14.875443 0.000000 0.000000 0.116342 0.117110 0.712450
  5   0.000006 -0.000004 -4.427393 0.021867 2.903918 -0.665738
  6   18.465939 0.000000 0.000000 0.000000 0.000000 -0.902558
  7   14.875442 0.000000 0.000000 -0.184109 0.200410 0.482332
  8   2.255207 -0.007574 0.000003 -0.072997 -0.042107 0.216130
  9   9.514223 -0.009357 0.000000 -0.112740 -0.010510 -0.121642
 10   11.752194 -0.001492 0.000000 0.000024 0.043599 0.440031
 11   -2.111792 0.863597 2.563791 0.056961 -1.435790 2.643640
 12   4.640941 0.000000 0.000000 -0.417352 -0.208024 -0.869107
 13   10.828045 0.000000 0.000000 0.000000 0.000000 -1.054278
 14   9.393338 -0.000001 0.000000 -2.890194 -0.100904 0.601671
 15   1.442243 0.107453 -1.746178 1.603477 0.383416 0.058597
 16   1.063450 0.000000 -0.000001 0.000000 0.000000 0.168076
 17   1.376307 -0.000001 0.000001 0.000000 0.000000 0.168071
 18   4.172845 -0.251366 -1.312745 -0.011401 0.095396 -0.054586
 19   1.215373 0.000001 -0.000001 0.000000 0.000000 -0.106320
 20   1.215371 -0.000002 0.000000 0.000000 0.000000 -0.106320
 21   4.220532 -0.244855 -0.431465 -0.003952 0.025978 -0.054050
 22   1.350417 0.000000 0.000001 0.000000 0.000000 -0.106343
 23   1.350409 0.000000 -0.000001 0.000000 0.000000 -0.106343
 24   -1.885222 0.863610 -2.731758 -1.533772 0.706197 1.232833
 25   4.640942 0.000000 0.000000 0.209305 -0.012049 -1.554239
 26   10.828048 0.000000 0.000001 0.000000 0.000000 -0.002503
 27   9.393336 -0.000001 0.000000 -0.239082 0.069588 -0.232631
 28   1.442244 0.107454 1.746178 -1.613036 -0.538225 0.335888
 29   1.063451 -0.000001 0.000000 0.000000 0.000000 0.000004
 30   1.376307 -0.000001 0.000000 0.000000 0.000000 0.000003
 31   4.172846 -0.251365 1.312745 0.001190 -0.096055 0.052246
 32   1.215374 0.000001 -0.000001 0.000000 0.000000 0.000026
 33   1.215373 0.000000 0.000001 0.000000 0.000000 0.000026
 34   4.220533 -0.244853 0.431466 0.001184 -0.026242 0.052329
 35   1.350415 -0.000001 -0.000001 0.000000 0.000000 0.000026
 36   1.350410 -0.000001 0.000001 0.000000 0.000000 0.000024
 37   2.110541 -0.000001 0.000000 -0.431173 -0.085424 -0.562900
 38   0.891923 2.373050 -0.014527 -3.141592 -0.000001 1.413797
 39   7.228119 5.709445 3.726568 3.140796 -1.570796 0.000000
 40   2.450426 5.076127 0.001325 3.140791 -1.570796 0.000000
 41   6.312405 -4.528058 0.001311 3.140791 -1.570796 0.000000
 42   2.233309 1.152535 -7.309138 -1.570796 -1.570796 0.000000
 43   4.262825 -0.232720 -1.392178 0.001188 0.078478 0.052453
time 7
  0   6.051930 0.549143 34.918106 0.017928 0.252299 -1.629616
  1   -2.261461 -0.515641 0.000000 -1.570795 -1.570451 0.000000
  2   -0.000007 0.000008 4.427393 -0.211948 -3.289615 -0.118622
  3   18.465939 0.000000 0.000000 0.000000 0.000000 -0.563722
  4   14.875443 0.000000 0.000000 0.144464 0.106106 0.716518
  5   0.000006 -0.000004 -4.427393 0.020046 2.895500 -0.656754
  6   18.465939 0.000000 0.000000 0.000000 0.000000 -0.909909
  7   14.875442 0.000000 0.000000 -0.153996 0.201744 0.496701
  8   2.255207 -0.007574 0.000003 -0.073461 -0.040693 0.235652
  9   9.514223 -0.009357 0.000000 -0.112740 -0.010510 -0.121642
 10   11.752194 -0.001492 0.000000 0.000024 0.043599 0.440031
 11   -2.111792 0.863597 2.563791 0.056961 -1.435790 2.643640
 12   4.640941 0.000000 0.000000 -0.419463 -0.222383 -0.900834
 13   10.828045 0.000000 0.000000 0.000000 0.000000 -1.024321
 14   9.393338 -0.000001 0.000000 -2.890194 -0.100904 0.601671
 15   1.442243 0.107453 -1.746178 1.593147 0.385608 0.037067
 16   1.063450 0.000000 -0.000001 0.000000 0.000000 0.165846
 17   1.376307 -0.000001 0.000001 0.000000 0.000000 0.165836
 18   4.172845 -0.251366 -1.312745 -0.014960 0.094904 -0.091973
 19   1.215373 0.000001 -0.000001 0.000000 0.000000 -0.143561
 20   1.215371 -0.000002 0.000000 0.000000 0.000000 -0.143561
 21   4.220532 -0.244855 -0.431465 -0.004923 0.025811 -0.091285
 22   1.350417 0.000000 0.000001 0.000000 0.000000 -0.143548
 23   1.350409 0.000000 -0.000001 0.000000 0.000000 -0.143548
 24   -1.885222 0.863610 -2.731758 -1.533772 0.706197 1.232833
 25   4.640942 0.000000 0.000000 0.196463 0.002597 -1.555149
 26   10.828048 0.000000 0.000001 0.000000 0.000000 -0.002503
 27   9.393336 -0.000001 0.000000 -0.239082 0.069588 -0.232631
 28   1.442244 0.107454 1.746178 -1.613036 -0.538225 0.335888
 29   1.063451 -0.000001 0.000000 0.000000 0.000000 0.000004
 30   1.376307 -0.000001 0.000000 0.000000 0.000000 0.000003
 31   4.172846 -0.251365 1.312745 0.001190 -0.096055 0.052246
 32   1.215374 0.000001 -0.000001 0.000000 0.000000 0.000026
 33   1.215373 0.000000 0.000001 0.000000 0.000000 0.000026
 34   4.220533 -0.244853 0.431466 0.001184 -0.026242 0.052329
 35   1.350415 -0.000001 -0.000001 0.000000 0.000000 0.000026
 36   1.350410 -0.000001 0.000001 0.000000 0.000000 0.000024
 37   2.110541 -0.000001 0.000000 -0.431328 -0.082898 -0.582299
 38   0.891923 2.373050 -0.014527 -3.141592 -0.000001 1.413797
 39   7.228119 5.709445 3.726568 3.140796 -1.570796 0.000000
 40   2.450426 5.076127 0.001325 3.140791 -1.570796 0.000000
 41   6.312405 -4.528058 0.001311 3.140791 -1.570796 0.000000
 42   2.233309 1.152535 -7.309138 -1.570796 -1.570796 0.000000
 43   4.262825 -0.232720 -1.392178 0.001188 0.078478 0.052453
time 8
  0   6.051930 3.323465 35.075672 0.050717 0.197718 -1.888003
  1   -2.261461 -0.515641 0.000000 -1.570795 -1.570451 0.000000
  2   -0.000007 0.000008 4.427393 -0.255542 -3.377200 -0.214890
  3   18.465939 0.000000 0.000000 0.000000 0.000000 -0.658250
  4   14.875443 0.000000 0.000000 -0.095086 0.190498 0.681874
  5   0.000006 -0.000004 -4.427393 0.088860 2.877611 -0.772521
  6   18.465939 0.000000 0.000000 0.000000 0.000000 -0.892646
  7   14.875442 0.000000 0.000000 -0.520752 0.125201 0.302060
  8   2.255207 -0.007574 0.000003 -0.073461 -0.040693 0.235652
  9   9.514223 -0.009357 0.000000 -0.112740 -0.010510 -0.121642
 10   11.752194 -0.001492 0.000000 0.000024 0.043599 0.440031
 11   -2.111792 0.863597 2.563791 0.959892 -1.337431 1.745925
 12   4.640941 0.000000 0.000000 -0.406301 -0.276574 -0.816072
 13   10.828045 0.000000 0.000000 0.000000 0.000000 -1.024321
 14   9.393338 -0.000001 0.000000 -2.864949 -0.027509 0.443618
 15   1.442243 0.107453 -1.746178 1.585740 0.387048 0.021674
 16   1.063450 0.000000 -0.000001 0.000000 0.000000 0.164252
 17   1.376307 -0.000001 0.000001 0.000000 0.000000 0.164249
 18   4.172845 -0.251366 -1.312745 -0.017477 0.094473 -0.118661
 19   1.215373 0.000001 -0.000001 0.000000 0.000000 -0.170144
 20   1.215371 -0.000002 0.000000 0.000000 0.000000 -0.170144
 21   4.220532 -0.244855 -0.431465 -0.005606 0.025667 -0.117870
 22   1.350417 0.000000 0.000001 0.000000 0.000000 -0.170135
 23   1.350409 0.000000 -0.000001 0.000000 0.000000 -0.170135
 24   -1.885222 0.863610 -2.731758 -1.515722 0.827605 1.240610
 25   4.640942 0.000000 0.000000 0.214628 -0.158013 -1.496494
 26   10.828048 0.000000 0.000001 0.000000 0.000000 -0.002503
 27   9.393336 -0.000001 0.000000 -0.239082 0.069588 -0.232631
 28   1.442244 0.107454 1.746178 -1.613036 -0.538225 0.335888
 29   1.063451 -0.000001 0.000000 0.000000 0.000000 0.000004
 30   1.376307 -0.000001 0.000000 0.000000 0.000000 0.000003
 31   4.172846 -0.251365 1.312745 0.001190 -0.096055 0.052246
 32   1.215374 0.000001 -0.000001 0.000000 0.000000 0.000026
 33   1.215373 0.000000 0.000001 0.000000 0.000000 0.000026
 34   4.220533 -0.244853 0.431466 0.001184 -0.026242 0.052329
 35   1.350415 -0.000001 -0.000001 0.000000 0.000000 0.000026
 36   1.350410 -0.000001 0.000001 0.000000 0.000000 0.000024
 37   2.110541 -0.000001 0.000000 -0.431328 -0.082898 -0.582299
 38   0.891923 2.373050 -0.014527 -3.141592 -0.000001 1.413797
 39   7.228119 5.709445 3.726568 3.140796 -1.570796 0.000000
 40   2.450426 5.076127 0.001325 3.140791 -1.570796 0.000000
 41   6.312405 -4.528058 0.001311 3.140791 -1.570796 0.000000
 42   2.233309 1.152535 -7.309138 -1.570796 -1.570476 0.000000
 43   4.262825 -0.232720 -1.392178 0.001188 0.078478 0.052453
time 9
  0   6.051930 6.649094 35.280510 0.096737 0.152419 -2.154445
  1   -2.261461 -0.515641 0.000000 -1.570795 -1.570451 0.000000
  2   -0.000007 0.000008 4.427393 -0.301052 -3.416116 -0.343564
  3   18.465939 0.000000 0.000000 0.000000 0.000000 -0.746929
  4   14.875443 0.000000 0.000000 -0.371788 0.227404 0.606462
  5   0.000006 -0.000004 -4.427393 0.223613 2.887464 -0.719083
  6   18.465939 0.000000 0.000000 0.000000 0.000000 -0.889168
  7   14.875442 0.000000 0.000000 -0.510047 0.079093 0.358036
  8   2.255207 -0.007574 0.000003 -0.073461 -0.040693 0.235652
  9   9.514223 -0.009357 0.000000 -0.112740 -0.010510 -0.121642
 10   11.752194 -0.001492 0.000000 0.000024 0.043599 0.440031
 11   -2.111792 0.863597 2.563791 1.257534 -1.146705 1.454313
 12   4.640941 0.000000 0.000000 -0.386932 -0.336609 -0.714801
 13   10.828045 0.000000 0.000000 0.000000 0.000000 -1.024321
 14   9.393338 -0.000001 0.000000 -2.850576 0.061054 0.262806
 15   1.442243 0.107453 -1.746178 1.581282 0.387873 0.012438
 16   1.063450 0.000000 -0.000001 0.000000 0.000000 0.163294
 17   1.376307 -0.000001 0.000001 0.000000 0.000000 0.163283
 18   4.172845 -0.251366 -1.312745 -0.018987 0.094173 -0.134690
 19   1.215373 0.000001 -0.000001 0.000000 0.000000 -0.186110
 20   1.215371 -0.000002 0.000000 0.000000 0.000000 -0.186110
 21   4.220532 -0.244855 -0.431465 -0.006014 0.025571 -0.133845
 22   1.350417 0.000000 0.000001 0.000000 0.000000 -0.186103
 23   1.350409 0.000000 -0.000001 0.000000 0.000000 -0.186103
 24   -1.885222 0.863610 -2.731758 -1.492857 0.949861 1.253515
 25   4.640942 0.000000 0.000000 0.248848 -0.338219 -1.430070
 26   10.828048 0.000000 0.000001 0.000000 0.000000 -0.002503
 27   9.393336 -0.000001 0.000000 -0.239082 0.069588 -0.232631
 28   1.442244 0.107454 1.746178 -1.613036 -0.538225 0.335888
 29   1.063451 -0.000001 0.000000 0.000000 0.000000 0.000004
 30   1.376307 -0.000001 0.000000 0.000000 0.000000 0.000003
 31   4.172846 -0.251365 1.312745 0.001190 -0.096055 0.052246
 32   1.215374 0.000001 -0.000001 0.000000 0.000000 0.000026
 33   1.215373 0.000000 0.000001 0.000000 0.000000 0.000026
 34   4.220533 -0.244853 0.431466 0.001184 -0.026242 0.052329
 35   1.350415 -0.000001 -0.000001 0.000000 0.000000 0.000026
 36   1.350410 -0.000001 0.000001 0.000000 0.000000 0.000024
 37   2.110541 -0.000001 0.000000 -0.431328 -0.082898 -0.582299
 38   0.891923 2.373050 -0.014527 -3.141592 -0.000001 1.413797
 39   7.228119 5.709445 3.726568 3.140796 -1.570796 0.000000
 40   2.450426 5.076127 0.001325 3.140791 -1.570796 0.000000
 41   6.312405 -4.528058 0.001311 3.140791 -1.570796 0.000000
 42   2.233309 1.152535 -7.309138 -1.570796 -1.570476 0.000000
 43   4.262825 -0.232720 -1.392178 0.001188 0.078478 0.052453
time 10
  0   6.051930 9.939155 35.485348 0.148221 0.122622 -2.400944
  1   -2.261461 -0.515641 0.000000 -1.570795 -1.570451 0.000000
  2   -0.000007 0.000008 4.427393 -0.325293 -3.405984 -0.449554
  3   18.465939 0.000000 0.000000 0.000000 0.000000 -0.803514
  4   14.875443 0.000000 0.000000 -0.642340 0.202992 0.519357
  5   0.000006 -0.000004 -4.427393 0.367088 2.910327 -0.649361
  6   18.465939 0.000000 0.000000 0.000000 0.000000 -0.888511
  7   14.875442 0.000000 0.000000 -0.464177 0.044869 0.446878
  8   2.255207 -0.007574 0.000003 -0.073461 -0.040693 0.235652
  9   9.514223 -0.009357 0.000000 -0.112740 -0.010510 -0.121642
 10   11.752194 -0.001492 0.000000 0.000024 0.043599 0.440031
 11   -2.111792 0.863597 2.563791 1.376915 -0.924653 1.341824
 12   4.640941 0.000000 0.000000 -0.359430 -0.397365 -0.606916
 13   10.828045 0.000000 0.000000 0.000000 0.000000 -1.024321
 14   9.393338 -0.000001 0.000000 -2.853340 0.158481 0.065876
 15   1.442243 0.107453 -1.746178 1.579796 0.388132 0.009339
 16   1.063450 0.000000 -0.000001 0.000000 0.000000 0.162982
 17   1.376307 -0.000001 0.000001 0.000000 0.000000 0.162966
 18   4.172845 -0.251366 -1.312745 -0.019490 0.094078 -0.140019
 19   1.215373 0.000001 -0.000001 0.000000 0.000000 -0.191418
 20   1.215371 -0.000002 0.000000 0.000000 0.000000 -0.191418
 21   4.220532 -0.244855 -0.431465 -0.006146 0.025547 -0.139170
 22   1.350417 0.000000 0.000001 0.000000 0.000000 -0.191412
 23   1.350409 0.000000 -0.000001 0.000000 0.000000 -0.191412
 24   -1.885222 0.863610 -2.731758 -1.467679 1.051781 1.270608
 25   4.640942 0.000000 0.000000 0.031704 -0.389198 -0.738253
 26   10.828048 0.000000 0.000001 0.000000 0.000000 -0.002503
 27   9.393336 -0.000001 0.000000 -0.239082 0.069588 -0.232631
 28   1.442244 0.107454 1.746178 -1.613036 -0.538225 0.335888
 29   1.063451 -0.000001 0.000000 0.000000 0.000000 0.000004
 30   1.376307 -0.000001 0.000000 0.000000 0.000000 0.000003
 31   4.172846 -0.251365 1.312745 0.001190 -0.096055 0.052246
 32   1.215374 0.000001 -0.000001 0.000000 0.000000 0.000026
 33   1.215373 0.000000 0.000001 0.000000 0.000000 0.000026
 34   4.220533 -0.244853 0.431466 0.001184 -0.026242 0.052329
 35   1.350415 -0.000001 -0.000001 0.000000 0.000000 0.000026
 36   1.350410 -0.000001 0.000001 0.000000 0.000000 0.000024
 37   2.110541 -0.000001 0.000000 -0.431328 -0.082898 -0.582299
 38   0.891923 2.373050 -0.014527 -3.141592 -0.000001 1.413797
 39   7.228119 5.709445 3.726568 3.140796 -1.570796 0.000000
 40   2.450426 5.076127 0.001325 3.140791 -1.570796 0.000000
 41   6.312405 -4.528058 0.001311 3.140791 -1.570796 0.000000
 42   2.233309 1.152535 -7.309138 -1.570796 -1.570796 0.000000
 43   4.262825 -0.232720 -1.392178 0.001188 0.078478 0.052453
time 11
  0   6.051930 12.917994 35.627159 0.200472 0.107028 -2.627309
  1   -2.261461 -0.515641 0.000000 -1.570795 -1.570451 0.000000
  2   -0.000007 0.000008 4.427393 -0.324622 -3.372371 -0.508840
  3   18.465939 0.000000 0.000000 0.000000 0.000000 -0.825081
  4   14.875443 0.000000 0.000000 -0.888538 0.136138 0.448329
  5   0.000006 -0.000004 -4.427393 0.498295 2.915493 -0.651981
  6   18.465939 0.000000 0.000000 0.000000 0.000000 -0.888511
  7   14.875442 0.000000 0.000000 -0.580591 -0.016850 0.445302
  8   2.255207 -0.007574 0.000003 -0.073461 -0.040693 0.235652
  9   9.514223 -0.009357 0.000000 -0.112740 -0.010510 -0.121642
 10   11.752194 -0.001492 0.000000 0.000024 0.043599 0.440031
 11   -2.111792 0.863597 2.563791 1.440083 -0.690237 1.286488
 12   4.640941 0.000000 0.000000 -0.323671 -0.454370 -0.498270
 13   10.828045 0.000000 0.000000 0.000000 0.000000 -1.024321
 14   9.393338 -0.000001 0.000000 -2.877019 0.256825 -0.142923
 15   1.442243 0.107453 -1.746178 1.581282 0.387873 0.012438
 16   1.063450 0.000000 -0.000001 0.000000 0.000000 0.163294
 17   1.376307 -0.000001 0.000001 0.000000 0.000000 0.163283
 18   4.172845 -0.251366 -1.312745 -0.018987 0.094173 -0.134690
 19   1.215373 0.000001 -0.000001 0.000000 0.000000 -0.186110
 20   1.215371 -0.000002 0.000000 0.000000 0.000000 -0.186110
 21   4.220532 -0.244855 -0.431465 -0.006014 0.025571 -0.133845
 22   1.350417 0.000000 0.000001 0.000000 0.000000 -0.186103
 23   1.350409 0.000000 -0.000001 0.000000 0.000000 -0.186103
 24   -1.885222 0.863610 -2.731758 -1.435743 1.145893 1.295307
 25   4.640942 0.000000 0.000000 -0.155952 -0.245814 -0.024598
 26   10.828048 0.000000 0.000001 0.000000 0.000000 -0.002503
 27   9.393336 -0.000001 0.000000 -0.239082 0.069588 -0.232631
 28   1.442244 0.107454 1.746178 -1.613036 -0.538225 0.335888
 29   1.063451 -0.000001 0.000000 0.000000 0.000000 0.000004
 30   1.376307 -0.000001 0.000000 0.000000 0.000000 0.000003
 31   4.172846 -0.251365 1.312745 0.001190 -0.096055 0.052246
 32   1.215374 0.000001 -0.000001 0.000000 0.000000 0.000026
 33   1.215373 0.000000 0.000001 0.000000 0.000000 0.000026
 34   4.220533 -0.244853 0.431466 0.001184 -0.026242 0.052329
 35   1.350415 -0.000001 -0.000001 0.000000 0.000000 0.000026
 36   1.350410 -0.000001 0.000001 0.000000 0.000000 0.000024
 37   2.110541 -0.000001 0.000000 -0.431328 -0.082898 -0.582299
 38   0.891923 2.373050 -0.014527 -3.141592 -0.000001 1.413797
 39   7.228119 5.709445 3.726568 3.140796 -1.570796 0.000000
 40   2.450426 5.076127 0.001325 3.140791 -1.570796 0.000000
 41   6.312405 -4.528058 0.001311 3.140791 -1.570796 0.000000
 42   2.233309 1.152535 -7.309138 -1.570796 -1.570796 0.000000
 43   4.262825 -0.232720 -1.392178 0.001188 0.078478 0.052453
time 12
  0   6.051930 13.949472 35.705944 0.249655 0.106006 -2.847825
  1   -2.261461 -0.515641 0.000000 -1.570795 -1.570451 0.000000
  2   -0.000007 0.000008 4.427393 -0.323760 -3.381555 -0.509698
  3   18.465939 0.000000 0.000000 0.000000 0.000000 -0.809071
  4   14.875443 0.000000 0.000000 -0.604406 0.090527 0.429644
  5   0.000006 -0.000004 -4.427393 0.570176 2.918172 -0.653572
  6   18.465939 0.000000 0.000000 0.000000 0.000000 -0.888511
  7   14.875442 0.000000 0.000000 -0.644466 -0.050620 0.447516
  8   2.255207 -0.007574 0.000003 -0.073461 -0.040693 0.235652
  9   9.514223 -0.009357 0.000000 -0.112740 -0.010510 -0.121642
 10   11.752194 -0.001492 0.000000 0.000024 0.043599 0.440031
 11   -2.111792 0.863597 2.563791 1.463711 -0.560980 1.267437
 12   4.640941 0.000000 0.000000 -0.300949 -0.482583 -0.440317
 13   10.828045 0.000000 0.000000 0.000000 0.000000 -1.024321
 14   9.393338 -0.000001 0.000000 -2.899224 0.308021 -0.260828
 15   1.442243 0.107453 -1.746178 1.585740 0.387048 0.021674
 16   1.063450 0.000000 -0.000001 0.000000 0.000000 0.164252
 17   1.376307 -0.000001 0.000001 0.000000 0.000000 0.164249
 18   4.172845 -0.251366 -1.312745 -0.017477 0.094473 -0.118661
 19   1.215373 0.000001 -0.000001 0.000000 0.000000 -0.170144
 20   1.215371 -0.000002 0.000000 0.000000 0.000000 -0.170144
 21   4.220532 -0.244855 -0.431465 -0.005606 0.025667 -0.117870
 22   1.350417 0.000000 0.000001 0.000000 0.000000 -0.170135
 23   1.350409 0.000000 -0.000001 0.000000 0.000000 -0.170135
 24   -1.885222 0.863610 -2.731758 -1.407139 1.207172 1.319323
 25   4.640942 0.000000 0.000000 -0.192030 -0.095038 0.406353
 26   10.828048 0.000000 0.000001 0.000000 0.000000 -0.002503
 27   9.393336 -0.000001 0.000000 -0.239082 0.069588 -0.232631
 28   1.442244 0.107454 1.746178 -1.613036 -0.538225 0.335888
 29   1.063451 -0.000001 0.000000 0.000000 0.000000 0.000004
 30   1.376307 -0.000001 0.000000 0.000000 0.000000 0.000003
 31   4.172846 -0.251365 1.312745 0.001190 -0.096055 0.052246
 32   1.215374 0.000001 -0.000001 0.000000 0.000000 0.000026
 33   1.215373 0.000000 0.000001 0.000000 0.000000 0.000026
 34   4.220533 -0.244853 0.431466 0.001184 -0.026242 0.052329
 35   1.350415 -0.000001 -0.000001 0.000000 0.000000 0.000026
 36   1.350410 -0.000001 0.000001 0.000000 0.000000 0.000024
 37   2.110541 -0.000001 0.000000 -0.431328 -0.082898 -0.582299
 38   0.891923 2.373050 -0.014527 -3.141592 -0.000001 1.413797
 39   7.228119 5.709445 3.726568 3.140796 -1.570796 0.000000
 40   2.450426 5.076127 0.001325 3.140791 -1.570796 0.000000
 41   6.312405 -4.528058 0.001311 3.140791 -1.570796 0.000000
 42   2.233309 1.152535 -7.309138 -1.570796 -1.570796 0.000000
 43   4.262825 -0.232720 -1.392178 0.001188 0.078478 0.052453
time 13
  0   6.051930 13.949472 35.611404 0.265858 0.130048 -3.046769
  1   -2.323962 -0.367199 0.000000 -1.570795 -1.570451 0.000000
  2   -0.000007 0.000008 4.427393 -0.330466 -3.387426 -0.522089
  3   18.465939 0.000000 0.000000 0.000000 0.000000 -0.804246
  4   14.875443 0.000000 0.000000 -0.436422 0.076245 0.440389
  5   0.000006 -0.000004 -4.427393 0.477689 2.596460 -0.633825
  6   18.465939 0.000000 0.000000 0.000000 0.000000 -1.082598
  7   14.875442 0.000000 0.000000 -0.179476 0.188194 0.786037
  8   2.255207 -0.007574 0.000003 -0.278643 -0.017303 0.238960
  9   9.514223 -0.009357 0.000000 -0.223116 -0.010429 -0.121664
 10   11.752194 -0.001492 0.000000 0.000024 0.043599 0.440031
 11   -2.111792 0.863597 2.563791 1.450658 -0.558613 1.291945
 12   4.640941 0.000000 0.000000 -0.300204 -0.357174 -0.179707
 13   10.828045 0.000000 0.000000 0.000000 0.000000 -1.024321
 14   9.393338 -0.000001 0.000000 -2.899224 0.308021 -0.260828
 15   1.442243 0.107453 -1.746178 1.593147 0.385608 0.037067
 16   1.063450 0.000000 -0.000001 0.000000 0.000000 0.165846
 17   1.376307 -0.000001 0.000001 0.000000 0.000000 0.165836
 18   4.172845 -0.251366 -1.312745 -0.014960 0.094904 -0.091973
 19   1.215373 0.000001 -0.000001 0.000000 0.000000 -0.143561
 20   1.215371 -0.000002 0.000000 0.000000 0.000000 -0.143561
 21   4.220532 -0.244855 -0.431465 -0.004923 0.025811 -0.091285
 22   1.350417 0.000000 0.000001 0.000000 0.000000 -0.143548
 23   1.350409 0.000000 -0.000001 0.000000 0.000000 -0.143548
 24   -1.885222 0.863610 -2.731758 -1.407139 1.207172 1.319323
 25   4.640942 0.000000 0.000000 -0.222954 -0.234865 0.179084
 26   10.828048 0.000000 0.000001 0.000000 0.000000 -0.002503
 27   9.393336 -0.000001 0.000000 -0.239082 0.069588 -0.232631
 28   1.442244 0.107454 1.746178 -1.613036 -0.538225 0.335888
 29   1.063451 -0.000001 0.000000 0.000000 0.000000 0.000004
 30   1.376307 -0.000001 0.000000 0.000000 0.000000 0.000003
 31   4.172846 -0.251365 1.312745 0.001190 -0.096055 0.052246
 32   1.215374 0.000001 -0.000001 0.000000 0.000000 0.000026
 33   1.215373 0.000000 0.000001 0.000000 0.000000 0.000026
 34   4.220533 -0.244853 0.431466 0.001184 -0.026242 0.052329
 35   1.350415 -0.000001 -0.000001 0.000000 0.000000 0.000026
 36   1.350410 -0.000001 0.000001 0.000000 0.000000 0.000024
 37   2.110541 -0.000001 0.000000 0.035271 -0.057851 -0.602264
 38   0.891923 2.373050 -0.014527 -3.141592 -0.000001 1.413797
 39   7.228119 5.709445 3.726568 3.140796 -1.570796 0.000000
 40   2.450426 5.076127 0.001325 3.140791 -1.570796 0.000000
 41   6.312405 -4.528058 0.001311 3.140791 -1.570796 0.000000
 42   2.233309 1.152535 -7.309138 -1.570796 -1.570796 0.000000
 43   4.262825 -0.232720 -1.392178 0.001188 0.078478 0.052453
time 14
  0   6.051930 13.949472 35.469593 0.229522 0.165786 3.126253
  1   -2.378652 -0.183599 0.000000 -1.570795 -1.570451 0.000000
  2   -0.000007 0.000008 4.427393 -0.327688 -3.344249 -0.556307
  3   18.465939 0.000000 0.000000 0.000000 0.000000 -0.828298
  4   14.875443 0.000000 0.000000 -0.178953 0.068902 0.463933
  5   0.000006 -0.000004 -4.427393 0.366321 2.271018 -0.641499
  6   18.465939 0.000000 0.000000 0.000000 0.000000 -1.257060
  7   14.875442 0.000000 0.000000 0.361708 0.302599 1.055488
  8   2.255207 -0.007574 0.000003 -0.511968 0.009583 0.239093
  9   9.514223 -0.009357 0.000000 -0.348687 -0.010335 -0.121685
 10   11.752194 -0.001492 0.000000 0.000024 0.043599 0.440031
 11   -2.111792 0.863597 2.563791 1.435700 -0.555541 1.320092
 12   4.640941 0.000000 0.000000 -0.330003 -0.202468 0.126856
 13   10.828045 0.000000 0.000000 0.000000 0.000000 -1.024321
 14   9.393338 -0.000001 0.000000 -2.899224 0.308021 -0.260828
 15   1.442243 0.107453 -1.746178 1.603477 0.383416 0.058597
 16   1.063450 0.000000 -0.000001 0.000000 0.000000 0.168076
 17   1.376307 -0.000001 0.000001 0.000000 0.000000 0.168071
 18   4.172845 -0.251366 -1.312745 -0.011401 0.095396 -0.054586
 19   1.215373 0.000001 -0.000001 0.000000 0.000000 -0.106320
 20   1.215371 -0.000002 0.000000 0.000000 0.000000 -0.106320
 21   4.220532 -0.244855 -0.431465 -0.003952 0.025978 -0.054050
 22   1.350417 0.000000 0.000001 0.000000 0.000000 -0.106343
 23   1.350409 0.000000 -0.000001 0.000000 0.000000 -0.106343
 24   -1.885222 0.863610 -2.731758 -1.407139 1.207172 1.319323
 25   4.640942 0.000000 0.000000 -0.268242 -0.427694 -0.134768
 26   10.828048 0.000000 0.000001 0.000000 0.000000 -0.002503
 27   9.393336 -0.000001 0.000000 -0.239082 0.069588 -0.232631
 28   1.442244 0.107454 1.746178 -1.613036 -0.538225 0.335888
 29   1.063451 -0.000001 0.000000 0.000000 0.000000 0.000004
 30   1.376307 -0.000001 0.000000 0.000000 0.000000 0.000003
 31   4.172846 -0.251365 1.312745 0.001190 -0.096055 0.052246
 32   1.215374 0.000001 -0.000001 0.000000 0.000000 0.000026
 33   1.215373 0.000000 0.000001 0.000000 0.000000 0.000026
 34   4.220533 -0.244853 0.431466 0.001184 -0.026242 0.052329
 35   1.350415 -0.000001 -0.000001 0.000000 0.000000 0.000026
 36   1.350410 -0.000001 0.000001 0.000000 0.000000 0.000024
 37   2.110541 -0.000001 0.000000 0.564032 -0.013951 -0.628538
 38   0.891923 2.373050 -0.014527 -3.141592 -0.000001 1.413797
 39   7.228119 5.709445 3.726568 3.140796 -1.570796 0.000000
 40   2.450426 5.076127 0.001325 3.140791 -1.570796 0.000000
 41   6.312405 -4.528058 0.001311 3.140791 -1.570796 0.000000
 42   2.233309 1.152535 -7.309138 -1.570796 -1.570476 0.000000
 43   4.262825 -0.232720 -1.392178 0.001188 0.078478 0.052453
time 15
  0   6.051930 13.949472 35.327782 0.180818 0.202638 2.995765
  1   -2.417715 0.003906 0.000000 -1.570795 -1.570451 0.000000
  2   -0.000007 0.000008 4.427393 -0.319640 -3.289615 -0.592431
  3   18.465939 0.000000 0.000000 0.000000 0.000000 -0.858784
  4   14.875443 0.000000 0.000000 0.132056 0.060431 0.491665
  5   0.000006 -0.000004 -4.427393 0.433794 2.253225 -0.535840
  6   18.465939 0.000000 0.000000 0.000000 0.000000 -1.086865
  7   14.875442 0.000000 0.000000 0.368306 0.347160 0.941810
  8   2.255207 -0.007574 0.003909 -0.738036 0.035271 0.235586
  9   9.514223 -0.009357 0.003906 -0.470356 -0.010241 -0.121729
 10   11.752194 -0.001492 0.000000 0.000024 0.043599 0.440031
 11   -2.111792 0.863597 2.563791 1.419694 -0.551789 1.350631
 12   4.640941 0.000000 0.000000 -0.382648 -0.021713 0.403389
 13   10.828045 0.000000 0.000000 0.000000 0.000000 -1.024321
 14   9.393338 -0.000001 0.000000 -2.899224 0.308021 -0.260828
 15   1.442243 0.107453 -1.746178 1.616661 0.380289 0.086182
 16   1.063450 0.000000 -0.000001 0.000000 0.000000 0.170952
 17   1.376307 -0.000001 0.000001 0.000000 0.000000 0.170927
 18   4.172845 -0.251366 -1.312745 -0.006811 0.095827 -0.006499
 19   1.215373 0.000001 -0.000001 0.000000 0.000000 -0.058463
 20   1.215371 -0.000002 0.000000 0.000000 0.000000 -0.058463
 21   4.220532 -0.244855 -0.431465 -0.002706 0.026134 -0.006166
 22   1.350417 0.000000 0.000001 0.000000 0.000000 -0.058479
 23   1.350409 0.000000 -0.000001 0.000000 0.000000 -0.058479
 24   -1.885222 0.863610 -2.731758 -1.407139 1.207172 1.319323
 25   4.640942 0.000000 0.000000 -0.328146 -0.643815 -0.415232
 26   10.828048 0.000000 0.000001 0.000000 0.000000 -0.002503
 27   9.393336 -0.000001 0.000000 -0.239082 0.069588 -0.232631
 28   1.442244 0.107454 1.746178 -1.690769 -0.469123 0.433779
 29   1.063451 -0.000001 0.000000 0.000000 0.000000 0.058908
 30   1.376307 -0.000001 0.000000 0.000000 0.000000 0.058907
 31   4.172846 -0.251365 1.312745 -0.023163 -0.093239 0.308626
 32   1.215374 0.000001 -0.000001 0.000000 0.000000 0.255233
 33   1.215373 0.000000 0.000001 0.000000 0.000000 0.255233
 34   4.220533 -0.244853 0.431466 -0.005479 -0.025703 0.307647
 35   1.350415 -0.000001 -0.000001 0.000000 0.000000 0.255233
 36   1.350410 -0.000001 0.000001 0.000000 0.000000 0.255215
 37   2.110541 -0.000001 0.000000 1.072586 0.050486 -0.646478
 38   0.891923 2.373050 -0.014527 -3.141592 -0.000001 1.413797
 39   7.228119 5.709445 3.726568 3.140796 -1.570796 0.000000
 40   2.450426 5.076127 0.001325 3.140791 -1.570796 0.000000
 41   6.312405 -4.528058 0.001311 3.140791 -1.570796 0.000000
 42   2.233309 1.152535 -7.309138 -1.570796 -1.570796 0.000000
 43   4.262825 -0.232720 -1.392178 0.001188 0.078478 0.052453
time 16
  0   6.051930 13.949472 34.855080 0.139496 0.232806 2.805067
  1   -3.542750 1.121128 0.000000 -1.570795 -1.570451 0.000000
  2   -0.000007 0.000008 4.427393 -0.311304 -3.245302 -0.618166
  3   18.465939 0.000000 0.000000 0.000000 0.000000 -0.883859
  4   14.875443 0.000000 0.000000 -0.044709 0.059047 0.520028
  5   0.000006 -0.000004 -4.427393 0.543149 2.345826 -0.403509
  6   18.465939 0.000000 0.000000 0.000000 0.000000 -0.799114
  7   14.875442 0.000000 0.000000 0.361322 0.306267 0.770167
  8   2.255207 -0.007574 0.003909 -0.730188 0.109271 0.317742
  9   9.514223 -0.009357 0.003906 -0.470956 -0.001008 -0.015825
 10   11.752194 -0.001492 0.000000 0.000024 0.043599 0.440031
 11   -2.111792 0.863597 2.563791 1.403211 -0.547483 1.382128
 12   4.640941 0.000000 0.000000 -0.489553 -0.032320 0.303991
 13   10.828045 0.000000 0.000000 0.000000 0.000000 -1.024321
 14   9.393338 -0.000001 0.000000 -2.899224 0.308021 -0.260828
 15   1.442243 0.107453 -1.746178 1.632624 0.376005 0.119801
 16   1.063450 0.000000 -0.000001 0.000000 0.000000 0.174451
 17   1.376307 -0.000001 0.000001 0.000000 0.000000 0.174432
 18   4.172845 -0.251366 -1.312745 -0.001190 0.096055 0.052246
 19   1.215373 0.000001 -0.000001 0.000000 0.000000 0.000011
 20   1.215371 -0.000002 0.000000 0.000000 0.000000 0.000011
 21   4.220532 -0.244855 -0.431465 -0.001184 0.026242 0.052329
 22   1.350417 0.000000 0.000001 0.000000 0.000000 0.000004
 23   1.350409 0.000000 -0.000001 0.000000 0.000000 0.000004
 24   -1.885222 0.863610 -2.731758 -1.407139 1.207172 1.319323
 25   4.640942 0.000000 0.000000 -0.101793 -0.775762 -0.562849
 26   10.828048 0.000000 0.000001 0.000000 0.000000 -0.002503
 27   9.393336 -0.000001 0.000000 -0.239082 0.069588 -0.232631
 28   1.442244 0.107454 1.746178 -1.770593 -0.378336 0.539189
 29   1.063451 -0.000001 0.000000 0.000000 0.000000 0.129593
 30   1.376307 -0.000001 0.000000 0.000000 0.000000 0.129600
 31   4.172846 -0.251365 1.312745 -0.050248 -0.081901 0.615898
 32   1.215374 0.000001 -0.000001 0.000000 0.000000 0.561558
 33   1.215373 0.000000 0.000001 0.000000 0.000000 0.561558
 34   4.220533 -0.244853 0.431466 -0.012970 -0.022850 0.614013
 35   1.350415 -0.000001 -0.000001 0.000000 0.000000 0.561558
 36   1.350410 -0.000001 0.000001 0.000000 0.000000 0.561550
 37   2.110541 -0.000001 0.000000 1.049449 0.140992 -0.844053
 38   0.891923 2.373050 -0.014527 -3.141592 -0.000001 1.413797
 39   7.228119 5.709445 3.726568 3.140796 -1.570796 0.000000
 40   2.450426 5.076127 0.001325 3.140791 -1.570796 0.000000
 41   6.312405 -4.528058 0.001311 3.140791 -1.570796 0.000000
 42   2.233309 1.152535 -7.309138 -1.570796 -1.570796 0.000000
 43   4.262825 -0.232720 -1.392178 0.001188 0.078478 0.052453
time 17
  0   6.051930 13.949472 34.413887 0.102297 0.251185 2.650034
  1   -4.722473 2.347728 0.000000 -1.570795 -1.570451 0.000000
  2   -0.000007 0.000008 4.427393 -0.301531 -3.208564 -0.633798
  3   18.465939 0.000000 0.000000 0.000000 0.000000 -0.904768
  4   14.875443 0.000000 0.000000 -0.187770 0.059516 0.543296
  5   0.000006 -0.000004 -4.427393 0.491107 2.371750 -0.518152
  6   18.465939 0.000000 0.000000 0.000000 0.000000 -0.941743
  7   14.875442 0.000000 0.000000 0.242732 0.356255 0.448078
  8   2.255207 -0.007574 0.003909 -0.713733 0.191990 0.412670
  9   9.514223 -0.009357 0.003906 -0.470506 0.009462 0.104172
 10   11.752194 -0.001492 0.000000 0.000024 0.043599 0.440031
 11   -2.111792 0.863597 2.563791 1.394350 -0.544914 1.399361
 12   4.640941 0.000000 0.000000 -0.581619 -0.165523 0.242234
 13   10.828045 0.000000 0.000000 0.000000 0.000000 -1.024321
 14   9.393338 -0.000001 0.000000 -2.899224 0.308021 -0.260828
 15   1.442243 0.107453 -1.746178 1.678261 0.360627 0.217517
 16   1.063450 0.000000 -0.000001 0.000000 0.000000 0.184710
 17   1.376307 -0.000001 0.000001 0.000000 0.000000 0.184712
 18   4.172845 -0.251366 -1.312745 0.015265 0.094857 0.224515
 19   1.215373 0.000001 -0.000001 0.000000 0.000000 0.171472
 20   1.215371 -0.000002 0.000000 0.000000 0.000000 0.171472
 21   4.220532 -0.244855 -0.431465 0.003310 0.026062 0.223849
 22   1.350417 0.000000 0.000001 0.000000 0.000000 0.171489
 23   1.350409 0.000000 -0.000001 0.000000 0.000000 0.171489
 24   -1.885222 0.863610 -2.731758 -1.407139 1.207172 1.319323
 25   4.640942 0.000000 0.000000 0.187338 -0.757978 -0.798797
 26   10.828048 0.000000 0.000001 0.000000 0.000000 -0.002503
 27   9.393336 -0.000001 0.000000 -0.239082 0.069588 -0.232631
 28   1.442244 0.107454 1.746178 -1.832506 -0.289121 0.625906
 29   1.063451 -0.000001 0.000000 0.000000 0.000000 0.194382
 30   1.376307 -0.000001 0.000000 0.000000 0.000000 0.194365
 31   4.172846 -0.251365 1.312745 -0.070981 -0.064787 0.896922
 32   1.215374 0.000001 -0.000001 0.000000 0.000000 0.842324
 33   1.215373 0.000000 0.000001 0.000000 0.000000 0.842324
 34   4.220533 -0.244853 0.431466 -0.018794 -0.018356 0.894834
 35   1.350415 -0.000001 -0.000001 0.000000 0.000000 0.842324
 36   1.350410 -0.000001 0.000001 0.000000 0.000000 0.842313
 37   2.110541 -0.000001 0.000000 1.002301 0.236460 -1.074212
 38   0.891923 2.373050 -0.014527 -3.141592 -0.000001 1.413797
 39   7.228119 5.709445 3.726568 3.140796 -1.570796 0.000000
 40   2.450426 5.076127 0.001325 3.140791 -1.570796 0.000000
 41   6.312405 -4.528058 0.001311 3.140791 -1.570796 0.000000
 42   2.233309 1.152535 -7.309138 -1.570796 -1.570796 0.000000
 43   4.262825 -0.232720 -1.392178 0.001188 0.078478 0.052453
time 18
  0   6.051930 13.949472 34.524185 0.105749 0.249700 2.664032
  1   -4.531061 1.769585 0.000000 -1.570795 -1.570451 0.000000
  2   -0.000007 0.000008 4.427393 -0.302777 -3.211783 -0.632559
  3   18.465939 0.000000 0.000000 0.000000 0.000000 -0.902867
  4   14.875443 0.000000 0.000000 -0.174581 0.059409 0.541202
  5   0.000006 -0.000004 -4.427393 0.442132 2.407719 -0.634013
  6   18.465939 0.000000 0.000000 0.000000 0.000000 -1.085290
  7   14.875442 0.000000 0.000000 0.161308 0.355012 0.164745
  8   2.255207 -0.007574 0.003909 -0.633398 0.141479 0.384711
  9   9.514223 -0.009357 0.000000 -0.411716 0.003252 0.104540
 10   11.752194 -0.001492 0.000000 0.000024 0.043599 0.440031
 11   -2.111792 0.863597 2.563791 1.394350 -0.544914 1.399361
 12   4.640941 0.000000 0.000000 -0.514696 -0.034774 0.245044
 13   10.828045 0.000000 0.000000 0.000000 0.000000 -1.024321
 14   9.393338 -0.000001 0.000000 -2.899224 0.308021 -0.260828
 15   1.442243 0.107453 -1.746178 1.754471 0.323138 0.388710
 16   1.063450 0.000000 -0.000001 0.000000 0.000000 0.203118
 17   1.376307 -0.000001 0.000001 0.000000 0.000000 0.203119
 18   4.172845 -0.251366 -1.312745 0.043285 0.085784 0.532749
 19   1.215373 0.000001 -0.000001 0.000000 0.000000 0.478584
 20   1.215371 -0.000002 0.000000 0.000000 0.000000 0.478584
 21   4.220532 -0.244855 -0.431465 0.011028 0.023845 0.531055
 22   1.350417 0.000000 0.000001 0.000000 0.000000 0.478563
 23   1.350409 0.000000 -0.000001 0.000000 0.000000 0.478563
 24   -1.885222 0.863610 -2.731758 -1.407139 1.207172 1.319323
 25   4.640942 0.000000 0.000000 0.228739 -0.810701 -0.719355
 26   10.828048 0.000000 0.000001 0.000000 0.000000 -0.002503
 27   9.393336 -0.000001 0.000000 -0.239082 0.069588 -0.232631
 28   1.442244 0.107454 1.746178 -1.866873 -0.229907 0.676989
 29   1.063451 -0.000001 0.000000 0.000000 0.000000 0.235609
 30   1.376307 -0.000001 0.000000 0.000000 0.000000 0.235618
 31   4.172846 -0.251365 1.312745 -0.081348 -0.051149 1.075363
 32   1.215374 0.000001 -0.000001 0.000000 0.000000 1.020982
 33   1.215373 0.000000 0.000001 0.000000 0.000000 1.020982
 34   4.220533 -0.244853 0.431466 -0.021755 -0.014725 1.073521
 35   1.350415 -0.000001 -0.000001 0.000000 0.000000 1.020982
 36   1.350410 -0.000001 0.000001 0.000000 0.000000 1.020980
 37   2.110541 -0.000001 0.000000 0.929856 0.132212 -1.024159
 38   0.891923 2.373050 -0.014527 -3.141592 -0.000001 1.413797
 39   7.228119 5.709445 3.726568 3.140796 -1.570796 0.000000
 40   2.450426 5.076127 0.001325 3.140791 -1.570796 0.000000
 41   6.312405 -4.528058 0.001311 3.140791 -1.570796 0.000000
 42   2.233309 1.152535 -7.309138 -1.570796 -1.570476 0.000000
 43   4.262825 -0.232720 -1.392178 0.001188 0.078478 0.052453
time 19
  0   6.051930 13.949472 34.713268 0.115144 0.245616 2.702479
  1   -4.054484 1.078158 0.000000 -1.570795 -1.570796 0.000000
  2   -0.000007 0.000008 4.427393 -0.305747 -3.220778 -0.629032
  3   18.465939 0.000000 0.000000 0.000000 0.000000 -0.897677
  4   14.875443 0.000000 0.000000 -0.138780 0.059175 0.535474
  5   0.000006 -0.000004 -4.427393 0.513725 2.536384 -0.584412
  6   18.465939 0.000000 0.000000 0.000000 0.000000 -0.802134
  7   14.875442 0.000000 0.000000 0.284882 0.185556 0.273584
  8   2.255207 -0.007574 0.000003 -0.540659 0.081678 0.329257
  9   9.514223 -0.009357 0.000000 -0.344035 -0.003898 0.104518
 10   11.752194 -0.001492 0.000000 0.000024 0.043599 0.440031
 11   -2.111792 0.863597 2.563791 1.394350 -0.544914 1.399361
 12   4.640941 0.000000 0.000000 -0.411827 0.100017 0.276186
 13   10.828045 0.000000 0.000000 0.000000 0.000000 -1.024321
 14   9.393338 -0.000001 0.000000 -2.899224 0.308021 -0.260828
 15   1.442243 0.107453 -1.746178 1.825204 0.271318 0.562653
 16   1.063450 0.000000 -0.000001 0.000000 0.000000 0.222474
 17   1.376307 -0.000001 0.000001 0.000000 0.000000 0.222465
 18   4.172845 -0.251366 -1.312745 0.068285 0.067616 0.856249
 19   1.215373 0.000001 -0.000001 0.000000 0.000000 0.801620
 20   1.215371 -0.000002 0.000000 0.000000 0.000000 0.801620
 21   4.220532 -0.244855 -0.431465 0.018027 0.019111 0.854156
 22   1.350417 0.000000 0.000001 0.000000 0.000000 0.801646
 23   1.350409 0.000000 -0.000001 0.000000 0.000000 0.801646
 24   -1.885222 0.863610 -2.731758 -1.407139 1.207172 1.319323
 25   4.640942 0.000000 0.000000 0.246482 -0.859379 -0.598826
 26   10.828048 0.000000 0.000001 0.000000 0.000000 -0.002503
 27   9.393336 -0.000001 0.000000 -0.239082 0.069588 -0.232631
 28   1.442244 0.107454 1.746178 -1.883055 -0.199064 0.701964
 29   1.063451 -0.000001 0.000000 0.000000 0.000000 0.256654
 30   1.376307 -0.000001 0.000000 0.000000 0.000000 0.256641
 31   4.172846 -0.251365 1.312745 -0.085650 -0.043539 1.166326
 32   1.215374 0.000001 -0.000001 0.000000 0.000000 1.112178
 33   1.215373 0.000000 0.000001 0.000000 0.000000 1.112178
 34   4.220533 -0.244853 0.431466 -0.023001 -0.012687 1.164646
 35   1.350415 -0.000001 -0.000001 0.000000 0.000000 1.112178
 36   1.350410 -0.000001 0.000001 0.000000 0.000000 1.112151
 37   2.110541 -0.000001 0.000000 0.843940 0.015546 -0.933988
 38   0.891923 2.373050 -0.014527 -3.141592 -0.000001 1.413797
 39   7.228119 5.709445 3.726568 3.140796 -1.570796 0.000000
 40   2.450426 5.076127 0.001325 3.140791 -1.570796 0.000000
 41   6.312405 -4.528058 0.001311 3.140791 -1.570796 0.000000
 42   2.233309 1.152535 -7.309138 -1.570796 -1.570796 0.000000
 43   4.262825 -0.232720 -1.392178 0.001188 0.078478 0.052453
time 20
  0   6.051930 13.949472 34.949619 0.124924 0.240882 2.742747
  1   -3.406027 0.480483 0.000000 -1.570795 -1.570451 0.000000
  2   -0.000007 0.000008 4.427393 -0.308621 -3.230152 -0.624934
  3   18.465939 0.000000 0.000000 0.000000 0.000000 -0.892267
  4   14.875443 0.000000 0.000000 -0.101237 0.059047 0.529470
  5   0.000006 -0.000004 -4.427393 0.521680 2.522131 -0.564384
  6   18.465939 0.000000 0.000000 0.000000 0.000000 -0.807581
  7   14.875442 0.000000 0.000000 0.315626 0.194408 0.286190
  8   2.255207 -0.007574 0.000003 -0.439481 0.032246 0.261559
  9   9.514223 -0.009357 0.000000 -0.273089 -0.011384 0.103977
 10   11.752194 -0.001492 0.000000 0.000024 0.043599 0.440031
 11   -2.111792 0.863597 2.563791 1.394350 -0.544914 1.399361
 12   4.640941 0.000000 0.000000 -0.277855 0.214242 0.331563
 13   10.828045 0.000000 0.000000 0.000000 0.000000 -1.024321
 14   9.393338 -0.000001 0.000000 -2.899224 0.308021 -0.260828
 15   1.442243 0.107453 -1.746178 1.866923 0.229889 0.676994
 16   1.063450 0.000000 -0.000001 0.000000 0.000000 0.235609
 17   1.376307 -0.000001 0.000001 0.000000 0.000000 0.235614
 18   4.172845 -0.251366 -1.312745 0.081348 0.051149 1.075363
 19   1.215373 0.000001 -0.000001 0.000000 0.000000 1.020980
 20   1.215371 -0.000002 0.000000 0.000000 0.000000 1.020980
 21   4.220532 -0.244855 -0.431465 0.021755 0.014725 1.073521
 22   1.350417 0.000000 0.000001 0.000000 0.000000 1.020996
 23   1.350409 0.000000 -0.000001 0.000000 0.000000 1.020996
 24   -1.885222 0.863610 -2.731758 -1.407139 1.207172 1.319323
 25   4.640942 0.000000 0.000000 0.254931 -0.902408 -0.461638
 26   10.828048 0.000000 0.000001 0.000000 0.000000 -0.002503
 27   9.393336 -0.000001 0.000000 -0.239082 0.069588 -0.232631
 28   1.442244 0.107454 1.746178 -1.893965 -0.177042 0.719214
 29   1.063451 -0.000001 0.000000 0.000000 0.000000 0.271515
 30   1.376307 -0.000001 0.000000 0.000000 0.000000 0.271515
 31   4.172846 -0.251365 1.312745 -0.088275 -0.037942 1.230561
 32   1.215374 0.000001 -0.000001 0.000000 0.000000 1.176599
 33   1.215373 0.000000 0.000001 0.000000 0.000000 1.176599
 34   4.220533 -0.244853 0.431466 -0.023768 -0.011177 1.229066
 35   1.350415 -0.000001 -0.000001 0.000000 0.000000 1.176599
 36   1.350410 -0.000001 0.000001 0.000000 0.000000 1.176557
 37   2.110541 -0.000001 0.000000 0.743113 -0.091137 -0.820792
 38   0.891923 2.373050 -0.014527 -3.141592 -0.000001 1.413797
 39   7.228119 5.709445 3.726568 3.140796 -1.570796 0.000000
 40   2.450426 5.076127 0.001325 3.140791 -1.570796 0.000000
 41   6.312405 -4.528058 0.001311 3.140791 -1.570796 0.000000
 42   2.233309 1.152535 -7.309138 -1.570796 -1.570796 0.000000
 43   4.262825 -0.232720 -1.392178 0.001188 0.078478 0.052453
time 21
  0   6.051930 13.949472 35.122944 0.131539 0.237354 2.770647
  1   -2.870854 0.144536 0.000000 -1.570795 -1.570796 0.000000
  2   -0.000007 0.000008 4.427393 -0.310538 -3.236686 -0.621884
  3   18.465939 0.000000 0.000000 0.000000 0.000000 -0.888465
  4   14.875443 0.000000 0.000000 -0.075141 0.059005 0.525282
  5   0.000006 -0.000004 -4.427393 0.528677 2.512469 -0.549504
  6   18.465939 0.000000 0.000000 0.000000 0.000000 -0.810995
  7   14.875442 0.000000 0.000000 0.336228 0.200289 0.294781
  8   2.255207 -0.007574 0.000003 -0.363577 0.006107 0.208156
  9   9.514223 -0.009357 0.000000 -0.221353 -0.016800 0.103263
 10   11.752194 -0.001492 0.000000 0.000024 0.043599 0.440031
 11   -2.111792 0.863597 2.563791 1.394350 -0.544914 1.399361
 12   4.640941 0.000000 0.000000 -0.164743 0.275937 0.385183
 13   10.828045 0.000000 0.000000 0.000000 0.000000 -1.024321
 14   9.393338 -0.000001 0.000000 -2.899224 0.308021 -0.260828
 15   1.442243 0.107453 -1.746178 1.885823 0.207433 0.733271
 16   1.063450 0.000000 -0.000001 0.000000 0.000000 0.242212
 17   1.376307 -0.000001 0.000001 0.000000 0.000000 0.242210
 18   4.172845 -0.251366 -1.312745 0.086453 0.041909 1.185200
 19   1.215373 0.000001 -0.000001 0.000000 0.000000 1.131068
 20   1.215371 -0.000002 0.000000 0.000000 0.000000 1.131068
 21   4.220532 -0.244855 -0.431465 0.023241 0.012244 1.183544
 22   1.350417 0.000000 0.000001 0.000000 0.000000 1.131059
 23   1.350409 0.000000 -0.000001 0.000000 0.000000 1.131059
 24   -1.885222 0.863610 -2.731758 -1.407139 1.207172 1.319323
 25   4.640942 0.000000 0.000000 0.255691 -0.928630 -0.355948
 26   10.828048 0.000000 0.000001 0.000000 0.000000 -0.002503
 27   9.393336 -0.000001 0.000000 -0.239082 0.069588 -0.232631
 28   1.442244 0.107454 1.746178 -1.898966 -0.166592 0.727248
 29   1.063451 -0.000001 0.000000 0.000000 0.000000 0.278526
 30   1.376307 -0.000001 0.000000 0.000000 0.000000 0.278523
 31   4.172846 -0.251365 1.312745 -0.089378 -0.035245 1.260856
 32   1.215374 0.000001 -0.000001 0.000000 0.000000 1.206984
 33   1.215373 0.000000 0.000001 0.000000 0.000000 1.206984
 34   4.220533 -0.244853 0.431466 -0.024103 -0.010446 1.259454
 35   1.350415 -0.000001 -0.000001 0.000000 0.000000 1.206984
 36   1.350410 -0.000001 0.000001 0.000000 0.000000 1.206947
 37   2.110541 -0.000001 0.000000 0.661928 -0.156054 -0.727232
 38   0.891923 2.373050 -0.014527 -3.141592 -0.000001 1.413797
 39   7.228119 5.709445 3.726568 3.140796 -1.570796 0.000000
 40   2.450426 5.076127 0.001325 3.140791 -1.570796 0.000000
 41   6.312405 -4.528058 0.001311 3.140791 -1.570796 0.000000
 42   2.233309 1.152535 -7.309138 -1.570796 -1.570796 0.000000
 43   4.262825 -0.232720 -1.392178 0.001188 0.078478 0.052453
time 22
  0   6.051930 13.949472 35.296268 0.137962 0.233734 2.798259
  1   -2.308337 -0.085940 0.000000 -1.570795 -1.570796 0.000000
  2   -0.000007 0.000008 4.427393 -0.312454 -3.243124 -0.618738
  3   18.465939 0.000000 0.000000 0.000000 0.000000 -0.884810
  4   14.875443 0.000000 0.000000 -0.049295 0.059005 0.521134
  5   0.000006 -0.000004 -4.427393 0.534044 2.503955 -0.534717
  6   18.465939 0.000000 0.000000 0.000000 0.000000 -0.814145
  7   14.875442 0.000000 0.000000 0.358795 0.206321 0.303748
  8   2.255207 -0.007574 0.000003 -0.291892 -0.010979 0.154190
  9   9.514223 -0.009357 0.000000 -0.173293 -0.021800 0.102332
 10   11.752194 -0.001492 0.000000 0.000024 0.043599 0.440031
 11   -2.111792 0.863597 2.563791 1.394350 -0.544914 1.399361
 12   4.640941 0.000000 0.000000 -0.049519 0.313892 0.443663
 13   10.828045 0.000000 0.000000 0.000000 0.000000 -1.024321
 14   9.393338 -0.000001 0.000000 -2.899224 0.308021 -0.260828
 15   1.442243 0.107453 -1.746178 1.894871 0.195663 0.761554
 16   1.063450 0.000000 -0.000001 0.000000 0.000000 0.245556
 17   1.376307 -0.000001 0.000001 0.000000 0.000000 0.245549
 18   4.172845 -0.251366 -1.312745 0.088658 0.037031 1.240860
 19   1.215373 0.000001 -0.000001 0.000000 0.000000 1.186929
 20   1.215371 -0.000002 0.000000 0.000000 0.000000 1.186929
 21   4.220532 -0.244855 -0.431465 0.023888 0.010926 1.239396
 22   1.350417 0.000000 0.000001 0.000000 0.000000 1.186927
 23   1.350409 0.000000 -0.000001 0.000000 0.000000 1.186927
 24   -1.885222 0.863610 -2.731758 -1.407139 1.207172 1.319323
 25   4.640942 0.000000 0.000000 0.247665 -0.947739 -0.249557
 26   10.828048 0.000000 0.000001 0.000000 0.000000 -0.002503
 27   9.393336 -0.000001 0.000000 -0.239082 0.069588 -0.232631
 28   1.442244 0.107454 1.746178 -1.897147 -0.170412 0.724364
 29   1.063451 -0.000001 0.000000 0.000000 0.000000 0.276009
 30   1.376307 -0.000001 0.000000 0.000000 0.000000 0.276011
 31   4.172846 -0.251365 1.312745 -0.088982 -0.036216 1.249956
 32   1.215374 0.000001 -0.000001 0.000000 0.000000 1.196030
 33   1.215373 0.000000 0.000001 0.000000 0.000000 1.196030
 34   4.220533 -0.244853 0.431466 -0.023984 -0.010710 1.248484
 35   1.350415 -0.000001 -0.000001 0.000000 0.000000 1.196030
 36   1.350410 -0.000001 0.000001 0.000000 0.000000 1.196022
 37   2.110541 -0.000001 0.000000 0.580999 -0.205397 -0.630280
 38   0.891923 2.373050 -0.014527 -3.141592 -0.000001 1.413797
 39   7.228119 5.709445 3.726568 3.140796 -1.570796 0.000000
 40   2.450426 5.076127 0.001325 3.140791 -1.570796 0.000000
 41   6.312405 -4.528058 0.001311 3.140791 -1.570796 0.000000
 42   2.233309 1.152535 -7.309138 -1.570796 -1.570796 0.000000
 43   4.262825 -0.232720 -1.392178 0.001188 0.078478 0.052453
time 23
  0   6.051930 13.949472 35.438080 0.143235 0.230578 2.821366
  1   -1.820041 -0.214850 0.000000 -1.570795 -1.570451 0.000000
  2   -0.000007 0.000008 4.427393 -0.313891 -3.248427 -0.616069
  3   18.465939 0.000000 0.000000 0.000000 0.000000 -0.881666
  4   14.875443 0.000000 0.000000 -0.027715 0.059047 0.517698
  5   0.000006 -0.000004 -4.427393 0.535290 2.498120 -0.522738
  6   18.465939 0.000000 0.000000 0.000000 0.000000 -0.816574
  7   14.875442 0.000000 0.000000 0.380940 0.211687 0.311889
  8   2.255207 -0.007574 0.000003 -0.232105 -0.019306 0.107735
  9   9.514223 -0.009357 0.000000 -0.133487 -0.025899 0.101379
 10   11.752194 -0.001492 0.000000 0.000024 0.043599 0.440031
 11   -2.111792 0.863597 2.563791 1.394350 -0.544914 1.399361
 12   4.640941 0.000000 0.000000 0.050556 0.330272 0.495410
 13   10.828045 0.000000 0.000000 0.000000 0.000000 -1.024321
 14   9.393338 -0.000001 0.000000 -2.899224 0.308021 -0.260828
 15   1.442243 0.107453 -1.746178 1.890520 0.201412 0.747843
 16   1.063450 0.000000 -0.000001 0.000000 0.000000 0.243926
 17   1.376307 -0.000001 0.000001 0.000000 0.000000 0.243935
 18   4.172845 -0.251366 -1.312745 0.087628 0.039416 1.213811
 19   1.215373 0.000001 -0.000001 0.000000 0.000000 1.159774
 20   1.215371 -0.000002 0.000000 0.000000 0.000000 1.159774
 21   4.220532 -0.244855 -0.431465 0.023576 0.011573 1.212290
 22   1.350417 0.000000 0.000001 0.000000 0.000000 1.159810
 23   1.350409 0.000000 -0.000001 0.000000 0.000000 1.159810
 24   -1.885222 0.863610 -2.731758 -1.407139 1.207172 1.319323
 25   4.640942 0.000000 0.000000 0.236174 -0.959804 -0.157096
 26   10.828048 0.000000 0.000001 0.000000 0.000000 -0.002503
 27   9.393336 -0.000001 0.000000 -0.239082 0.069588 -0.232631
 28   1.442244 0.107454 1.746178 -1.887238 -0.190806 0.708504
 29   1.063451 -0.000001 0.000000 0.000000 0.000000 0.262262
 30   1.376307 -0.000001 0.000000 0.000000 0.000000 0.262260
 31   4.172846 -0.251365 1.312745 -0.086681 -0.041453 1.190569
 32   1.215374 0.000001 -0.000001 0.000000 0.000000 1.136478
 33   1.215373 0.000000 0.000001 0.000000 0.000000 1.136478
 34   4.220533 -0.244853 0.431466 -0.023301 -0.012124 1.188949
 35   1.350415 -0.000001 -0.000001 0.000000 0.000000 1.136478
 36   1.350410 -0.000001 0.000001 0.000000 0.000000 1.136482
 37   2.110541 -0.000001 0.000000 0.510508 -0.236999 -0.544159
 38   0.891923 2.373050 -0.014527 -3.141592 -0.000001 1.413797
 39   7.228119 5.709445 3.726568 3.140796 -1.570796 0.000000
 40   2.450426 5.076127 0.001325 3.140791 -1.570796 0.000000
 41   6.312405 -4.528058 0.001311 3.140791 -1.570796 0.000000
 42   2.233309 1.152535 -7.309138 -1.570796 -1.570796 0.000000
 43   4.262825 -0.232720 -1.392178 0.001188 0.078478 0.052453
time 24
  0   6.051930 13.949472 35.532619 0.146879 0.228350 2.837185
  1   -1.468468 -0.273446 0.000000 -1.570795 -1.570451 0.000000
  2   -0.000007 0.000008 4.427393 -0.314945 -3.252119 -0.614068
  3   18.465939 0.000000 0.000000 0.000000 0.000000 -0.879546
  4   14.875443 0.000000 0.000000 -0.012890 0.059090 0.515367
  5   0.000006 -0.000004 -4.427393 0.522159 2.498311 -0.517216
  6   18.465939 0.000000 0.000000 0.000000 0.000000 -0.818149
  7   14.875442 0.000000 0.000000 0.409684 0.217113 0.320368
  8   2.255207 -0.007574 0.000003 -0.190967 -0.021859 0.075210
  9   9.514223 -0.009357 0.000000 -0.106137 -0.028694 0.100621
 10   11.752194 -0.001492 0.000000 0.000024 0.043599 0.440031
 11   -2.111792 0.863597 2.563791 1.394350 -0.544914 1.399361
 12   4.640941 0.000000 0.000000 0.120460 0.333446 0.531294
 13   10.828045 0.000000 0.000000 0.000000 0.000000 -1.024321
 14   9.393338 -0.000001 0.000000 -2.899224 0.308021 -0.260828
 15   1.442243 0.107453 -1.746178 1.866923 0.229889 0.676994
 16   1.063450 0.000000 -0.000001 0.000000 0.000000 0.235609
 17   1.376307 -0.000001 0.000001 0.000000 0.000000 0.235614
 18   4.172845 -0.251366 -1.312745 0.081348 0.051149 1.075363
 19   1.215373 0.000001 -0.000001 0.000000 0.000000 1.020980
 20   1.215371 -0.000002 0.000000 0.000000 0.000000 1.020980
 21   4.220532 -0.244855 -0.431465 0.021755 0.014725 1.073521
 22   1.350417 0.000000 0.000001 0.000000 0.000000 1.020996
 23   1.350409 0.000000 -0.000001 0.000000 0.000000 1.020996
 24   -1.885222 0.863610 -2.731758 -1.407139 1.207172 1.319323
 25   4.640942 0.000000 0.000000 0.225950 -0.966080 -0.091512
 26   10.828048 0.000000 0.000001 0.000000 0.000000 -0.002503
 27   9.393336 -0.000001 0.000000 -0.239082 0.069588 -0.232631
 28   1.442244 0.107454 1.746178 -1.866873 -0.229907 0.676989
 29   1.063451 -0.000001 0.000000 0.000000 0.000000 0.235609
 30   1.376307 -0.000001 0.000000 0.000000 0.000000 0.235618
 31   4.172846 -0.251365 1.312745 -0.081348 -0.051149 1.075363
 32   1.215374 0.000001 -0.000001 0.000000 0.000000 1.020982
 33   1.215373 0.000000 0.000001 0.000000 0.000000 1.020982
 34   4.220533 -0.244853 0.431466 -0.021755 -0.014725 1.073521
 35   1.350415 -0.000001 -0.000001 0.000000 0.000000 1.020982
 36   1.350410 -0.000001 0.000001 0.000000 0.000000 1.020980
 37   2.110541 -0.000001 0.000000 0.460635 -0.253446 -0.482429
 38   0.891923 2.373050 -0.014527 -3.141592 -0.000001 1.413797
 39   7.228119 5.709445 3.726568 3.140796 -1.570796 0.000000
 40   2.450426 5.076127 0.001325 3.140791 -1.570796 0.000000
 41   6.312405 -4.528058 0.001311 3.140791 -1.570796 0.000000
 42   2.233309 1.152535 -7.309138 -1.570796 -1.570796 0.000000
 43   4.262825 -0.232720 -1.392178 0.001188 0.078478 0.052453
end
