version 1
nodes
  0 "Bip01" -1
  1 "Bip01 Pelvis" 0
  2 "Bip01 L Thigh" 1
  3 "Bip01 L Calf" 2
  4 "Bip01 L Foot" 3
  5 "Bip01 R Thigh" 1
  6 "Bip01 R Calf" 5
  7 "Bip01 R Foot" 6
  8 "Bip01 Spine" 1
  9 "Bip01 Spine1" 8
 10 "Bip01 Neck" 9
 11 "Bip01 L Clavicle" 10
 12 "Bip01 L UpperArm" 11
 13 "Bip01 L Forearm" 12
 14 "Bip01 L Hand" 13
 15 "Bip01 L Finger0" 14
 16 "Bip01 L Finger01" 15
 17 "Bip01 L Finger02" 16
 18 "Bip01 L Finger1" 14
 19 "Bip01 L Finger11" 18
 20 "Bip01 L Finger12" 19
 21 "Bip01 L Finger2" 14
 22 "Bip01 L Finger21" 21
 23 "Bip01 L Finger22" 22
 24 "Bip01 R Clavicle" 10
 25 "Bip01 R UpperArm" 24
 26 "Bip01 R Forearm" 25
 27 "Bip01 R Hand" 26
 28 "Bip01 R Finger0" 27
 29 "Bip01 R Finger01" 28
 30 "Bip01 R Finger02" 29
 31 "Bip01 R Finger1" 27
 32 "Bip01 R Finger11" 31
 33 "Bip01 R Finger12" 32
 34 "Bip01 R Finger2" 27
 35 "Bip01 R Finger21" 34
 36 "Bip01 R Finger22" 35
 37 "Bip01 Head" 10
 38 "Bone05" 37
 39 "Bone08" 9
 40 "Bone16" 8
 41 "Bone01" 8
 42 "Bone03" 1
 43 "Bip01 R Finger4" 27
end
skeleton
time 0
  0   1.727579 6.791367 38.416107 0.000000 0.000000 -1.701715
  1   0.164395 -0.125004 0.000000 -1.570795 -1.570451 0.000000
  2   -0.000007 0.000008 4.427393 -0.170749 -3.152983 0.000903
  3   18.465939 0.000000 0.000000 0.000000 0.000000 -0.416557
  4   14.875443 0.000000 0.000000 0.018467 0.017437 0.402071
  5   0.000006 -0.000004 -4.427393 0.106016 3.095625 -0.362237
  6   18.465939 0.000000 0.000000 0.000000 0.000000 -0.394334
  7   14.875442 0.000000 0.000000 -0.002065 0.005218 0.029344
  8   2.255207 -0.007574 0.000003 0.122101 -0.017401 -0.001322
  9   9.514223 -0.009357 0.000000 -0.008779 0.002352 -0.095902
 10   11.752194 -0.001492 0.000000 0.000024 0.043599 0.440031
 11   -2.111792 0.863597 2.563791 0.697216 -1.395374 2.006326
 12   4.640941 0.000000 0.000000 0.738480 1.089874 0.724820
 13   10.828045 0.000000 0.000000 0.000000 0.000000 -0.470452
 14   9.393338 -0.000001 0.000000 -1.569611 0.034195 0.000037
 15   1.442243 0.107453 -1.746178 1.686435 0.539209 0.325885
 16   1.063450 0.000000 -0.000001 0.000000 0.000000 0.199056
 17   1.376307 -0.000001 0.000001 0.000000 0.000000 0.199049
 18   4.172845 -0.251366 -1.312745 0.008050 0.095731 0.148659
 19   1.215373 0.000001 -0.000001 0.000000 0.000000 0.645758
 20   1.215371 -0.000002 0.000000 0.000000 0.000000 0.645758
 21   4.220532 -0.244855 -0.431465 0.001333 0.026242 0.148339
 22   1.350417 0.000000 0.000001 0.000000 0.000000 0.863926
 23   1.350409 0.000000 -0.000001 0.000000 0.000000 0.863926
 24   -1.885222 0.863610 -2.731758 -0.942447 1.461427 1.764337
 25   4.640942 0.000000 0.000000 -0.601477 -1.183875 0.506934
 26   10.828048 0.000000 0.000001 0.000000 0.000000 -0.234230
 27   9.393336 -0.000001 0.000000 1.569611 -0.034192 0.000001
 28   1.442244 0.107454 1.746178 -1.686405 -0.539236 0.325898
 29   1.063451 -0.000001 0.000000 0.000000 0.000000 0.199056
 30   1.376307 -0.000001 0.000000 0.000000 0.000000 0.199059
 31   4.172846 -0.251365 1.312745 -0.008050 -0.095731 0.148659
 32   1.215374 0.000001 -0.000001 0.000000 0.000000 0.645746
 33   1.215373 0.000000 0.000001 0.000000 0.000000 0.645746
 34   4.220533 -0.244853 0.431466 -0.001333 -0.026242 0.148339
 35   1.350415 -0.000001 -0.000001 0.000000 0.000000 0.863937
 36   1.350410 -0.000001 0.000001 0.000000 0.000000 0.863925
 37   2.110541 -0.000001 0.000000 0.002417 -0.010493 -0.153718
 38   0.891923 2.373050 -0.014527 -3.141592 -0.000001 1.413797
 39   7.228119 5.709445 3.726568 3.140796 -1.570796 0.000000
 40   2.450426 5.076127 0.001325 3.140791 -1.570796 0.000000
 41   6.312405 -4.528058 0.001311 3.140791 -1.570796 0.000000
 42   2.233309 1.152535 -7.309138 -1.147327 -1.562088 -0.851036
 43   4.262825 -0.232720 -1.392178 0.016840 0.076668 0.253759
time 1
  0   -0.424830 7.520515 37.155567 0.034802 0.000000 -1.780142
  1   0.097986 1.824274 0.000000 -0.000030 -1.466142 -1.570772
  2   -0.000007 0.000008 4.427393 -0.294920 -3.257043 -0.056858
  3   18.465939 0.000000 0.000000 0.000000 0.000000 -0.562333
  4   14.875443 0.000000 0.000000 0.057433 0.000154 0.484357
  5   0.000006 -0.000004 -4.427393 0.067392 3.037654 -0.539396
  6   18.465939 0.000000 0.000000 0.000000 0.000000 -0.723239
  7   14.875442 0.000000 0.000000 0.298289 -0.084451 0.192846
  8   2.243488 -0.007574 0.234385 0.051682 0.051414 0.015752
  9   9.514223 -0.009357 0.000000 0.000788 0.031732 -0.125690
 10   11.752194 -0.001492 0.000000 -0.118815 0.098992 0.431549
 11   -2.260234 0.551087 2.520821 0.632904 -1.350223 2.074011
 12   4.640941 0.000000 0.000000 1.232710 0.587585 1.310140
 13   10.828045 0.000000 0.000000 0.000000 0.000000 -1.595579
 14   9.393338 -0.000001 0.000000 -1.569611 0.034195 0.000037
 15   1.442243 0.107453 -1.746178 1.686435 0.539209 0.325885
 16   1.063450 0.000000 -0.000001 0.000000 0.000000 0.199056
 17   1.376307 -0.000001 0.000001 0.000000 0.000000 0.199049
 18   4.172845 -0.251366 -1.312745 0.008050 0.095731 0.148659
 19   1.215373 0.000001 -0.000001 0.000000 0.000000 0.645758
 20   1.215371 -0.000002 0.000000 0.000000 0.000000 0.645758
 21   4.220532 -0.244855 -0.431465 0.001333 0.026242 0.148339
 22   1.350417 0.000000 0.000001 0.000000 0.000000 0.863926
 23   1.350409 0.000000 -0.000001 0.000000 0.000000 0.863926
 24   -1.740687 1.172213 -2.712226 -1.183124 1.134031 1.569820
 25   4.640942 0.000000 0.000000 -0.878103 -0.201111 1.269865
 26   10.828048 0.000000 0.000001 0.000000 0.000000 -0.355045
 27   9.393336 -0.000001 0.000000 1.569611 -0.034192 0.000001
 28   1.442244 0.107454 1.746178 -1.686405 -0.539236 0.325898
 29   1.063451 -0.000001 0.000000 0.000000 0.000000 0.199056
 30   1.376307 -0.000001 0.000000 0.000000 0.000000 0.199059
 31   4.172846 -0.251365 1.312745 -0.008050 -0.095731 0.148659
 32   1.215374 0.000001 -0.000001 0.000000 0.000000 0.645746
 33   1.215373 0.000000 0.000001 0.000000 0.000000 0.645746
 34   4.220533 -0.244853 0.431466 -0.001333 -0.026242 0.148339
 35   1.350415 -0.000001 -0.000001 0.000000 0.000000 0.863937
 36   1.350410 -0.000001 0.000001 0.000000 0.000000 0.863925
 37   2.110541 -0.000001 0.000000 -0.303045 0.109120 -0.336413
 38   0.891923 2.373050 -0.014527 -3.141592 -0.000001 1.413797
 39   7.228119 5.709445 3.726568 2.775396 -1.570796 0.000000
 40   2.450426 5.076127 0.001325 3.140791 -1.570796 0.000000
 41   6.312405 -4.528058 0.001311 3.167173 -1.570796 0.000000
 42   2.233309 1.152535 -7.309138 -1.128248 -1.614425 -1.036007
 43   4.262825 -0.232720 -1.392178 0.016840 0.076668 0.253759
time 2
  0   -0.526396 8.356369 36.871944 0.038829 0.003527 -1.881004
  1   0.949575 2.109439 0.000000 -0.000030 -1.470108 -1.570772
  2   -0.000007 0.000008 4.427393 0.057473 -3.364512 -0.066961
  3   18.465939 0.000000 0.000000 0.000000 0.000000 -0.592527
  4   14.875443 0.000000 0.000000 -0.405029 0.077905 0.506439
  5   0.000006 -0.000004 -4.427393 0.206650 3.029522 -0.563448
  6   18.465939 0.000000 0.000000 0.000000 0.000000 -0.725470
  7   14.875442 0.000000 0.000000 0.211706 -0.151505 0.187181
  8   2.243488 -0.007574 0.222666 0.046872 0.082267 -0.043277
  9   9.514223 -0.009357 0.000000 0.013431 0.032713 -0.180352
 10   11.752194 -0.001492 0.000000 -0.293551 0.176556 0.407445
 11   -2.459458 0.109668 2.388004 -0.411702 -1.333805 3.105469
 12   4.640941 0.000000 0.000000 1.088185 0.462536 1.170937
 13   10.828045 0.000000 0.000000 0.000000 0.000000 -1.824985
 14   9.393338 -0.000001 0.000000 -1.569611 0.034195 0.000037
 15   1.442243 0.107453 -1.746178 1.686435 0.539209 0.325885
 16   1.063450 0.000000 -0.000001 0.000000 0.000000 0.199056
 17   1.376307 -0.000001 0.000001 0.000000 0.000000 0.199049
 18   4.172845 -0.251366 -1.312745 0.008050 0.095731 0.148659
 19   1.215373 0.000001 -0.000001 0.000000 0.000000 0.645758
 20   1.215371 -0.000002 0.000000 0.000000 0.000000 0.645758
 21   4.220532 -0.244855 -0.431465 0.001333 0.026242 0.148339
 22   1.350417 0.000000 0.000001 0.000000 0.000000 0.863926
 23   1.350409 0.000000 -0.000001 0.000000 0.000000 0.863926
 24   -1.533649 1.617539 -2.610660 -1.106293 1.021580 1.681693
 25   4.640942 0.000000 0.000000 -0.832900 0.126663 1.403833
 26   10.828048 0.000000 0.000001 0.000000 0.000000 -0.631458
 27   9.393336 -0.000001 0.000000 1.569611 -0.034192 0.000001
 28   1.442244 0.107454 1.746178 -1.686405 -0.539236 0.325898
 29   1.063451 -0.000001 0.000000 0.000000 0.000000 0.199056
 30   1.376307 -0.000001 0.000000 0.000000 0.000000 0.199059
 31   4.172846 -0.251365 1.312745 -0.008050 -0.095731 0.148659
 32   1.215374 0.000001 -0.000001 0.000000 0.000000 0.645746
 33   1.215373 0.000000 0.000001 0.000000 0.000000 0.645746
 34   4.220533 -0.244853 0.431466 -0.001333 -0.026242 0.148339
 35   1.350415 -0.000001 -0.000001 0.000000 0.000000 0.863937
 36   1.350410 -0.000001 0.000001 0.000000 0.000000 0.863925
 37   2.110541 -0.000001 0.000000 -0.366955 0.343684 -0.366643
 38   0.891923 2.373050 -0.014527 -3.141592 -0.000001 1.413797
 39   7.228119 5.709445 3.726568 2.556175 -1.570796 0.000000
 40   2.450426 5.076127 0.001325 3.140791 -1.570796 0.000000
 41   6.312405 -4.528058 0.001311 3.193147 -1.570796 0.000000
 42   2.233309 1.152535 -7.309138 -1.127098 -1.649317 -1.027582
 43   4.262825 -0.232720 -1.392178 0.016840 0.076668 0.253759
time 3
  0   -0.159197 8.809864 36.934971 0.034419 0.005384 -1.937092
  1   1.547249 1.910215 0.000000 -0.000030 -1.480787 -1.570772
  2   -0.000007 0.000008 4.427393 0.046742 -3.351919 -0.058097
  3   18.465939 0.000000 0.000000 0.000000 0.000000 -0.581268
  4   14.875443 0.000000 0.000000 -0.419712 0.081140 0.505570
  5   0.000006 -0.000004 -4.427393 0.311308 3.026844 -0.557365
  6   18.465939 0.000000 0.000000 0.000000 0.000000 -0.674011
  7   14.875442 0.000000 0.000000 0.114665 -0.185700 0.155516
  8   2.247394 -0.007574 0.199228 0.057378 0.077122 -0.087581
  9   9.514223 -0.009357 0.000000 -0.006491 0.023507 -0.212478
 10   11.752194 -0.001492 0.000000 -0.203067 0.098884 0.427486
 11   -2.264140 0.328424 2.559885 0.075254 -1.435841 2.628130
 12   4.640941 0.000000 0.000000 0.983205 0.507851 1.095189
 13   10.828045 0.000000 0.000000 0.000000 0.000000 -1.760678
 14   9.393338 -0.000001 0.000000 -1.569611 0.034195 0.000037
 15   1.442243 0.107453 -1.746178 1.686435 0.539209 0.325885
 16   1.063450 0.000000 -0.000001 0.000000 0.000000 0.199056
 17   1.376307 -0.000001 0.000001 0.000000 0.000000 0.199049
 18   4.172845 -0.251366 -1.312745 0.008050 0.095731 0.148659
 19   1.215373 0.000001 -0.000001 0.000000 0.000000 0.645758
 20   1.215371 -0.000002 0.000000 0.000000 0.000000 0.645758
 21   4.220532 -0.244855 -0.431465 0.001333 0.026242 0.148339
 22   1.350417 0.000000 0.000001 0.000000 0.000000 0.863926
 23   1.350409 0.000000 -0.000001 0.000000 0.000000 0.863926
 24   -1.744593 1.387064 -2.610660 -1.000117 1.057682 1.768952
 25   4.640942 0.000000 0.000000 -0.900916 0.073103 1.416222
 26   10.828048 0.000000 0.000001 0.000000 0.000000 -0.796959
 27   9.393336 -0.000001 0.000000 1.569611 -0.034192 0.000001
 28   1.442244 0.107454 1.746178 -1.686405 -0.539236 0.325898
 29   1.063451 -0.000001 0.000000 0.000000 0.000000 0.199056
 30   1.376307 -0.000001 0.000000 0.000000 0.000000 0.199059
 31   4.172846 -0.251365 1.312745 -0.008050 -0.095731 0.148659
 32   1.215374 0.000001 -0.000001 0.000000 0.000000 0.645746
 33   1.215373 0.000000 0.000001 0.000000 0.000000 0.645746
 34   4.220533 -0.244853 0.431466 -0.001333 -0.026242 0.148339
 35   1.350415 -0.000001 -0.000001 0.000000 0.000000 0.863937
 36   1.350410 -0.000001 0.000001 0.000000 0.000000 0.863925
 37   2.110541 -0.000001 0.000000 -0.242014 0.187899 -0.157438
 38   0.891923 2.373050 -0.014527 -3.141592 -0.000001 1.413797
 39   7.228119 5.709445 3.726568 2.824122 -1.570796 0.000000
 40   2.450426 5.076127 0.001325 3.140791 -1.570796 0.000000
 41   6.312405 -4.528058 0.001311 3.216620 -1.570796 0.000000
 42   2.233309 1.152535 -7.309138 -1.127481 -1.658054 -0.996083
 43   4.262825 -0.232720 -1.392178 0.016840 0.076668 0.253759
time 4
  0   0.176751 8.596455 37.171322 0.028858 0.004456 -1.912931
  1   1.359744 1.539109 0.000000 -0.000030 -1.496351 -1.570772
  2   -0.000007 0.000008 4.427393 -0.042362 -3.309689 -0.048851
  3   18.465939 0.000000 0.000000 0.000000 0.000000 -0.560579
  4   14.875443 0.000000 0.000000 -0.330014 0.066539 0.500751
  5   0.000006 -0.000004 -4.427393 0.241823 3.045498 -0.536308
  6   18.465939 0.000000 0.000000 0.000000 0.000000 -0.641062
  7   14.875442 0.000000 0.000000 0.148182 -0.139228 0.129441
  8   2.251301 -0.007574 0.164071 0.070204 0.058445 -0.076100
  9   9.514223 -0.009357 0.000000 -0.008854 0.018722 -0.195051
 10   11.752194 -0.001492 0.000000 -0.051929 -0.017235 0.441531
 11   -1.955537 0.726874 2.723952 1.146156 -1.377167 1.568143
 12   4.640941 0.000000 0.000000 0.943659 0.618613 1.046602
 13   10.828045 0.000000 0.000000 0.000000 0.000000 -1.523340
 14   9.393338 -0.000001 0.000000 -1.569611 0.034195 0.000037
 15   1.442243 0.107453 -1.746178 1.686435 0.539209 0.325885
 16   1.063450 0.000000 -0.000001 0.000000 0.000000 0.199056
 17   1.376307 -0.000001 0.000001 0.000000 0.000000 0.199049
 18   4.172845 -0.251366 -1.312745 0.008050 0.095731 0.148659
 19   1.215373 0.000001 -0.000001 0.000000 0.000000 0.645758
 20   1.215371 -0.000002 0.000000 0.000000 0.000000 0.645758
 21   4.220532 -0.244855 -0.431465 0.001333 0.026242 0.148339
 22   1.350417 0.000000 0.000001 0.000000 0.000000 0.863926
 23   1.350409 0.000000 -0.000001 0.000000 0.000000 0.863926
 24   -2.045383 0.996427 -2.567690 -0.822664 1.153731 1.910824
 25   4.640942 0.000000 0.000000 -0.963778 -0.172170 1.370096
 26   10.828048 0.000000 0.000001 0.000000 0.000000 -0.905943
 27   9.393336 -0.000001 0.000000 1.569611 -0.034192 0.000001
 28   1.442244 0.107454 1.746178 -1.686405 -0.539236 0.325898
 29   1.063451 -0.000001 0.000000 0.000000 0.000000 0.199056
 30   1.376307 -0.000001 0.000000 0.000000 0.000000 0.199059
 31   4.172846 -0.251365 1.312745 -0.008050 -0.095731 0.148659
 32   1.215374 0.000001 -0.000001 0.000000 0.000000 0.645746
 33   1.215373 0.000000 0.000001 0.000000 0.000000 0.645746
 34   4.220533 -0.244853 0.431466 -0.001333 -0.026242 0.148339
 35   1.350415 -0.000001 -0.000001 0.000000 0.000000 0.863937
 36   1.350410 -0.000001 0.000001 0.000000 0.000000 0.863925
 37   2.110541 -0.000001 0.000000 -0.105608 0.025679 -0.037744
 38   0.891923 2.373050 -0.014527 -3.141592 -0.000001 1.413797
 39   7.228119 5.709445 3.726568 3.140796 -1.570796 0.000000
 40   2.450426 5.076127 0.001325 3.140791 -1.570796 0.000000
 41   6.312405 -4.528058 0.001311 3.205598 -1.570796 0.000000
 42   2.233309 1.152535 -7.309138 -2.151688 -1.570796 0.000000
 43   4.262825 -0.232720 -1.392178 0.016840 0.076668 0.253759
time 5
  0   0.547856 8.214096 37.454945 0.022147 0.002970 -1.868732
  1   1.090204 1.144566 0.000000 -0.000030 -1.514962 -1.570772
  2   -0.000007 0.000008 4.427393 -0.157527 -3.252214 -0.038939
  3   18.465939 0.000000 0.000000 0.000000 0.000000 -0.534406
  4   14.875443 0.000000 0.000000 -0.166546 0.040828 0.485976
  5   0.000006 -0.000004 -4.427393 0.153074 3.065013 -0.507858
  6   18.465939 0.000000 0.000000 0.000000 0.000000 -0.606603
  7   14.875442 0.000000 0.000000 0.174820 -0.081419 0.109932
  8   2.251301 -0.007574 0.125007 0.083115 0.040691 -0.059192
  9   9.514223 -0.009357 0.000000 -0.009454 0.014435 -0.172472
 10   11.752194 -0.001492 0.000000 0.154314 -0.157898 0.421095
 11   -1.576619 1.262047 2.770828 1.509825 -1.170225 1.228090
 12   4.640941 0.000000 0.000000 0.906783 0.736086 0.991343
 13   10.828045 0.000000 0.000000 0.000000 0.000000 -1.267821
 14   9.393338 -0.000001 0.000000 -1.569611 0.034195 0.000037
 15   1.442243 0.107453 -1.746178 1.686435 0.539209 0.325885
 16   1.063450 0.000000 -0.000001 0.000000 0.000000 0.199056
 17   1.376307 -0.000001 0.000001 0.000000 0.000000 0.199049
 18   4.172845 -0.251366 -1.312745 0.008050 0.095731 0.148659
 19   1.215373 0.000001 -0.000001 0.000000 0.000000 0.645758
 20   1.215371 -0.000002 0.000000 0.000000 0.000000 0.645758
 21   4.220532 -0.244855 -0.431465 0.001333 0.026242 0.148339
 22   1.350417 0.000000 0.000001 0.000000 0.000000 0.863926
 23   1.350409 0.000000 -0.000001 0.000000 0.000000 0.863926
 24   -2.408676 0.461254 -2.399716 -0.224860 1.323708 2.476771
 25   4.640942 0.000000 0.000000 -1.019373 -0.489971 1.242637
 26   10.828048 0.000000 0.000001 0.000000 0.000000 -0.969726
 27   9.393336 -0.000001 0.000000 1.569611 -0.034192 0.000001
 28   1.442244 0.107454 1.746178 -1.686405 -0.539236 0.325898
 29   1.063451 -0.000001 0.000000 0.000000 0.000000 0.199056
 30   1.376307 -0.000001 0.000000 0.000000 0.000000 0.199059
 31   4.172846 -0.251365 1.312745 -0.008050 -0.095731 0.148659
 32   1.215374 0.000001 -0.000001 0.000000 0.000000 0.645746
 33   1.215373 0.000000 0.000001 0.000000 0.000000 0.645746
 34   4.220533 -0.244853 0.431466 -0.001333 -0.026242 0.148339
 35   1.350415 -0.000001 -0.000001 0.000000 0.000000 0.863937
 36   1.350410 -0.000001 0.000001 0.000000 0.000000 0.863925
 37   2.110541 -0.000001 0.000000 0.028690 0.045855 -0.046549
 38   0.891923 2.373050 -0.014527 -3.141592 -0.000001 1.413797
 39   7.228119 5.709445 3.726568 3.195601 -1.570796 0.000000
 40   2.450426 5.076127 0.001325 3.140791 -1.570796 0.000000
 41   6.312405 -4.528058 0.001311 3.190902 -1.570796 0.000000
 42   2.233309 1.152535 -7.309138 -1.128248 -1.595873 -0.992828
 43   4.262825 -0.232720 -1.392178 0.016840 0.076668 0.253759
time 6
  0   0.942399 7.742817 37.785835 0.014765 0.001578 -1.813124
  1   0.777695 0.726585 0.000000 -0.000030 -1.534795 -1.570772
  2   -0.000007 0.000008 4.427393 -0.126389 -3.226743 -0.030456
  3   18.465939 0.000000 0.000000 0.000000 0.000000 -0.501435
  4   14.875443 0.000000 0.000000 -0.140202 0.041169 0.459114
  5   0.000006 -0.000004 -4.427393 0.140615 3.069222 -0.459941
  6   18.465939 0.000000 0.000000 0.000000 0.000000 -0.545561
  7   14.875442 0.000000 0.000000 0.039946 -0.044739 0.090160
  8   2.255207 -0.007574 0.078130 0.096068 0.022780 -0.039405
  9   9.514223 -0.009357 0.000000 -0.009117 0.010416 -0.146949
 10   11.752194 -0.001492 0.000000 0.130980 -0.113974 0.426815
 11   -1.701623 1.199545 2.727858 1.417502 -1.226657 1.311571
 12   4.640941 0.000000 0.000000 0.867299 0.856444 0.924961
 13   10.828045 0.000000 0.000000 0.000000 0.000000 -1.002052
 14   9.393338 -0.000001 0.000000 -1.569611 0.034195 0.000037
 15   1.442243 0.107453 -1.746178 1.686435 0.539209 0.325885
 16   1.063450 0.000000 -0.000001 0.000000 0.000000 0.199056
 17   1.376307 -0.000001 0.000001 0.000000 0.000000 0.199049
 18   4.172845 -0.251366 -1.312745 0.008050 0.095731 0.148659
 19   1.215373 0.000001 -0.000001 0.000000 0.000000 0.645758
 20   1.215371 -0.000002 0.000000 0.000000 0.000000 0.645758
 21   4.220532 -0.244855 -0.431465 0.001333 0.026242 0.148339
 22   1.350417 0.000000 0.000001 0.000000 0.000000 0.863926
 23   1.350409 0.000000 -0.000001 0.000000 0.000000 0.863926
 24   -2.299297 0.515943 -2.493469 -0.426565 1.428321 2.276869
 25   4.640942 0.000000 0.000000 -1.002306 -0.822208 1.082772
 26   10.828048 0.000000 0.000001 0.000000 0.000000 -0.914173
 27   9.393336 -0.000001 0.000000 1.569611 -0.034192 0.000001
 28   1.442244 0.107454 1.746178 -1.686405 -0.539236 0.325898
 29   1.063451 -0.000001 0.000000 0.000000 0.000000 0.199056
 30   1.376307 -0.000001 0.000000 0.000000 0.000000 0.199059
 31   4.172846 -0.251365 1.312745 -0.008050 -0.095731 0.148659
 32   1.215374 0.000001 -0.000001 0.000000 0.000000 0.645746
 33   1.215373 0.000000 0.000001 0.000000 0.000000 0.645746
 34   4.220533 -0.244853 0.431466 -0.001333 -0.026242 0.148339
 35   1.350415 -0.000001 -0.000001 0.000000 0.000000 0.863937
 36   1.350410 -0.000001 0.000001 0.000000 0.000000 0.863925
 37   2.110541 -0.000001 0.000000 0.030335 0.024747 -0.082193
 38   0.891923 2.373050 -0.014527 -3.141592 -0.000001 1.413797
 39   7.228119 5.709445 3.726568 3.189427 -1.570796 0.000000
 40   2.450426 5.076127 0.001325 3.140791 -1.570796 0.000000
 41   6.312405 -4.528058 0.001311 3.174215 -1.570796 0.000000
 42   2.233309 1.152535 -7.309138 -1.111087 -1.592115 -0.970233
 43   4.262825 -0.232720 -1.392178 0.016840 0.076668 0.253759
time 7
  0   1.336943 7.244862 38.116730 0.007286 0.000464 -1.754543
  1   0.457372 0.300790 0.000000 -0.000030 -1.554010 -1.570772
  2   -0.000007 0.000008 4.427393 -0.153503 -3.186975 -0.016540
  3   18.465939 0.000000 0.000000 0.000000 0.000000 -0.461957
  4   14.875443 0.000000 0.000000 -0.052495 0.028611 0.431659
  5   0.000006 -0.000004 -4.427393 0.115217 3.079745 -0.405474
  6   18.465939 0.000000 0.000000 0.000000 0.000000 -0.467519
  7   14.875442 0.000000 0.000000 -0.051831 -0.010272 0.060897
  8   2.255207 -0.007574 0.035160 0.109106 0.003711 -0.019288
  9   9.514223 -0.009357 0.000000 -0.008629 0.006451 -0.120689
 10   11.752194 -0.001492 0.000000 0.065148 -0.035380 0.435889
 11   -1.912567 1.027664 2.657544 1.173596 -1.325117 1.542007
 12   4.640941 0.000000 0.000000 0.816392 0.975937 0.840257
 13   10.828045 0.000000 0.000000 0.000000 0.000000 -0.733659
 14   9.393338 -0.000001 0.000000 -1.569611 0.034195 0.000037
 15   1.442243 0.107453 -1.746178 1.686435 0.539209 0.325885
 16   1.063450 0.000000 -0.000001 0.000000 0.000000 0.199056
 17   1.376307 -0.000001 0.000001 0.000000 0.000000 0.199049
 18   4.172845 -0.251366 -1.312745 0.008050 0.095731 0.148659
 19   1.215373 0.000001 -0.000001 0.000000 0.000000 0.645758
 20   1.215371 -0.000002 0.000000 0.000000 0.000000 0.645758
 21   4.220532 -0.244855 -0.431465 0.001333 0.026242 0.148339
 22   1.350417 0.000000 0.000001 0.000000 0.000000 0.863926
 23   1.350409 0.000000 -0.000001 0.000000 0.000000 0.863926
 24   -2.096166 0.683917 -2.630192 -0.763698 1.453377 1.943044
 25   4.640942 0.000000 0.000000 -0.865767 -1.034145 0.859002
 26   10.828048 0.000000 0.000001 0.000000 0.000000 -0.617184
 27   9.393336 -0.000001 0.000000 1.569611 -0.034192 0.000001
 28   1.442244 0.107454 1.746178 -1.686405 -0.539236 0.325898
 29   1.063451 -0.000001 0.000000 0.000000 0.000000 0.199056
 30   1.376307 -0.000001 0.000000 0.000000 0.000000 0.199059
 31   4.172846 -0.251365 1.312745 -0.008050 -0.095731 0.148659
 32   1.215374 0.000001 -0.000001 0.000000 0.000000 0.645746
 33   1.215373 0.000000 0.000001 0.000000 0.000000 0.645746
 34   4.220533 -0.244853 0.431466 -0.001333 -0.026242 0.148339
 35   1.350415 -0.000001 -0.000001 0.000000 0.000000 0.863937
 36   1.350410 -0.000001 0.000001 0.000000 0.000000 0.863925
 37   2.110541 -0.000001 0.000000 0.013420 0.003910 -0.119957
 38   0.891923 2.373050 -0.014527 -3.141592 -0.000001 1.413797
 39   7.228119 5.709445 3.726568 3.159033 -1.570796 0.000000
 40   2.450426 5.076127 0.001325 3.140791 -1.570796 0.000000
 41   6.312405 -4.528058 0.001311 3.156967 -1.570796 0.000000
 42   2.233309 1.152535 -7.309138 -1.087694 -1.581019 -0.952234
 43   4.262825 -0.232720 -1.392178 0.016840 0.076668 0.253759
time 8
  0   1.727579 6.791367 38.416107 0.000000 0.000000 -1.701715
  1   0.164395 -0.125004 0.000000 -1.570795 -1.570451 0.000000
  2   -0.000007 0.000008 4.427393 -0.170749 -3.152983 0.000903
  3   18.465939 0.000000 0.000000 0.000000 0.000000 -0.416557
  4   14.875443 0.000000 0.000000 0.018467 0.017437 0.402071
  5   0.000006 -0.000004 -4.427393 0.106016 3.095625 -0.362237
  6   18.465939 0.000000 0.000000 0.000000 0.000000 -0.394334
  7   14.875442 0.000000 0.000000 -0.002065 0.005218 0.029344
  8   2.255207 -0.007574 0.000003 0.122101 -0.017401 -0.001322
  9   9.514223 -0.009357 0.000000 -0.008779 0.002352 -0.095902
 10   11.752194 -0.001492 0.000000 0.000024 0.043599 0.440031
 11   -2.111792 0.863597 2.563791 0.697216 -1.395374 2.006326
 12   4.640941 0.000000 0.000000 0.738480 1.089874 0.724820
 13   10.828045 0.000000 0.000000 0.000000 0.000000 -0.470452
 14   9.393338 -0.000001 0.000000 -1.569611 0.034195 0.000037
 15   1.442243 0.107453 -1.746178 1.686435 0.539209 0.325885
 16   1.063450 0.000000 -0.000001 0.000000 0.000000 0.199056
 17   1.376307 -0.000001 0.000001 0.000000 0.000000 0.199049
 18   4.172845 -0.251366 -1.312745 0.008050 0.095731 0.148659
 19   1.215373 0.000001 -0.000001 0.000000 0.000000 0.645758
 20   1.215371 -0.000002 0.000000 0.000000 0.000000 0.645758
 21   4.220532 -0.244855 -0.431465 0.001333 0.026242 0.148339
 22   1.350417 0.000000 0.000001 0.000000 0.000000 0.863926
 23   1.350409 0.000000 -0.000001 0.000000 0.000000 0.863926
 24   -1.885222 0.863610 -2.731758 -0.942447 1.461427 1.764337
 25   4.640942 0.000000 0.000000 -0.601477 -1.183875 0.506934
 26   10.828048 0.000000 0.000001 0.000000 0.000000 -0.234230
 27   9.393336 -0.000001 0.000000 1.569611 -0.034192 0.000001
 28   1.442244 0.107454 1.746178 -1.686405 -0.539236 0.325898
 29   1.063451 -0.000001 0.000000 0.000000 0.000000 0.199056
 30   1.376307 -0.000001 0.000000 0.000000 0.000000 0.199059
 31   4.172846 -0.251365 1.312745 -0.008050 -0.095731 0.148659
 32   1.215374 0.000001 -0.000001 0.000000 0.000000 0.645746
 33   1.215373 0.000000 0.000001 0.000000 0.000000 0.645746
 34   4.220533 -0.244853 0.431466 -0.001333 -0.026242 0.148339
 35   1.350415 -0.000001 -0.000001 0.000000 0.000000 0.863937
 36   1.350410 -0.000001 0.000001 0.000000 0.000000 0.863925
 37   2.110541 -0.000001 0.000000 0.002417 -0.010493 -0.153718
 38   0.891923 2.373050 -0.014527 -3.141592 -0.000001 1.413797
 39   7.228119 5.709445 3.726568 3.140796 -1.570796 0.000000
 40   2.450426 5.076127 0.001325 3.140791 -1.570796 0.000000
 41   6.312405 -4.528058 0.001311 3.140791 -1.570796 0.000000
 42   2.233309 1.152535 -7.309138 -1.147327 -1.562088 -0.851036
 43   4.262825 -0.232720 -1.392178 0.016840 0.076668 0.253759
end
