version 1
nodes
  0 "Bip01" -1
  1 "Bip01 Pelvis" 0
  2 "Bip01 L Thigh" 1
  3 "Bip01 L Calf" 2
  4 "Bip01 L Foot" 3
  5 "Bip01 R Thigh" 1
  6 "Bip01 R Calf" 5
  7 "Bip01 R Foot" 6
  8 "Bip01 Spine" 1
  9 "Bip01 Spine1" 8
 10 "Bip01 Neck" 9
 11 "Bip01 L Clavicle" 10
 12 "Bip01 L UpperArm" 11
 13 "Bip01 L Forearm" 12
 14 "Bip01 L Hand" 13
 15 "Bip01 L Finger0" 14
 16 "Bip01 L Finger01" 15
 17 "Bip01 L Finger02" 16
 18 "Bip01 L Finger1" 14
 19 "Bip01 L Finger11" 18
 20 "Bip01 L Finger12" 19
 21 "Bip01 L Finger2" 14
 22 "Bip01 L Finger21" 21
 23 "Bip01 L Finger22" 22
 24 "Bip01 R Clavicle" 10
 25 "Bip01 R UpperArm" 24
 26 "Bip01 R Forearm" 25
 27 "Bip01 R Hand" 26
 28 "Bip01 R Finger0" 27
 29 "Bip01 R Finger01" 28
 30 "Bip01 R Finger02" 29
 31 "Bip01 R Finger1" 27
 32 "Bip01 R Finger11" 31
 33 "Bip01 R Finger12" 32
 34 "Bip01 R Finger2" 27
 35 "Bip01 R Finger21" 34
 36 "Bip01 R Finger22" 35
 37 "Bip01 Head" 10
 38 "Bone05" 37
 39 "Bone08" 9
 40 "Bone16" 8
 41 "Bone01" 8
 42 "Bone03" 1
 43 "Bip01 R Finger4" 27
end
skeleton
time 0
  0   1.727579 6.791367 38.416107 0.000000 0.000000 -1.701715
  1   0.164395 -0.125004 0.000000 -1.570795 -1.570451 0.000000
  2   -0.000007 0.000008 4.427393 -0.170749 -3.152983 0.000903
  3   18.465939 0.000000 0.000000 0.000000 0.000000 -0.416557
  4   14.875443 0.000000 0.000000 0.018467 0.017437 0.402071
  5   0.000006 -0.000004 -4.427393 0.106016 3.095625 -0.362237
  6   18.465939 0.000000 0.000000 0.000000 0.000000 -0.394334
  7   14.875442 0.000000 0.000000 -0.002065 0.005218 0.029344
  8   2.255207 -0.007574 0.000003 0.122101 -0.017401 -0.001322
  9   9.514223 -0.009357 0.000000 -0.008779 0.002352 -0.095902
 10   11.752194 -0.001492 0.000000 0.000024 0.043599 0.440031
 11   -2.111792 0.863597 2.563791 0.697216 -1.395374 2.006326
 12   4.640941 0.000000 0.000000 0.738480 1.089874 0.724820
 13   10.828045 0.000000 0.000000 0.000000 0.000000 -0.470452
 14   9.393338 -0.000001 0.000000 -1.569611 0.034195 0.000037
 15   1.442243 0.107453 -1.746178 1.686435 0.539209 0.325885
 16   1.063450 0.000000 -0.000001 0.000000 0.000000 0.199056
 17   1.376307 -0.000001 0.000001 0.000000 0.000000 0.199049
 18   4.172845 -0.251366 -1.312745 0.008050 0.095731 0.148659
 19   1.215373 0.000001 -0.000001 0.000000 0.000000 0.645758
 20   1.215371 -0.000002 0.000000 0.000000 0.000000 0.645758
 21   4.220532 -0.244855 -0.431465 0.001333 0.026242 0.148339
 22   1.350417 0.000000 0.000001 0.000000 0.000000 0.863926
 23   1.350409 0.000000 -0.000001 0.000000 0.000000 0.863926
 24   -1.885222 0.863610 -2.731758 -0.942447 1.461427 1.764337
 25   4.640942 0.000000 0.000000 -0.601477 -1.183875 0.506934
 26   10.828048 0.000000 0.000001 0.000000 0.000000 -0.234230
 27   9.393336 -0.000001 0.000000 1.569611 -0.034192 0.000001
 28   1.442244 0.107454 1.746178 -1.686405 -0.539236 0.325898
 29   1.063451 -0.000001 0.000000 0.000000 0.000000 0.199056
 30   1.376307 -0.000001 0.000000 0.000000 0.000000 0.199059
 31   4.172846 -0.251365 1.312745 -0.008050 -0.095731 0.148659
 32   1.215374 0.000001 -0.000001 0.000000 0.000000 0.645746
 33   1.215373 0.000000 0.000001 0.000000 0.000000 0.645746
 34   4.220533 -0.244853 0.431466 -0.001333 -0.026242 0.148339
 35   1.350415 -0.000001 -0.000001 0.000000 0.000000 0.863937
 36   1.350410 -0.000001 0.000001 0.000000 0.000000 0.863925
 37   2.110541 -0.000001 0.000000 0.002417 -0.010493 -0.153718
 38   0.891923 2.373050 -0.014527 -3.141592 -0.000001 1.413797
 39   7.228119 5.709445 3.726568 3.140796 -1.570796 0.000000
 40   2.450426 5.076127 0.001325 3.140791 -1.570796 0.000000
 41   6.312405 -4.528058 0.001311 3.140791 -1.570796 0.000000
 42   2.233309 1.152535 -7.309138 -1.954765 -1.570796 0.000000
 43   4.262825 -0.232720 -1.392178 0.016840 0.076668 0.253759
time 1
  0   2.434632 6.577958 38.620945 0.000000 0.000000 -1.575829
  1   -0.124677 -0.312510 0.000000 -3.141560 -1.540041 1.570772
  2   -0.000007 0.000008 4.427393 -0.169025 -3.112363 -0.005197
  3   18.465939 0.000000 0.000000 0.000000 0.000000 -0.415095
  4   14.875443 0.000000 0.000000 0.099455 0.010094 0.393538
  5   0.000006 -0.000004 -4.427393 0.121351 3.111887 -0.286713
  6   18.465939 0.000000 0.000000 0.000000 0.000000 -0.262405
  7   14.875442 0.000000 0.000000 0.070971 0.024558 -0.029521
  8   2.255207 -0.007574 -0.066405 0.119949 -0.000708 0.019226
  9   9.514223 -0.009357 0.000000 -0.004690 -0.003884 -0.078086
 10   11.752194 -0.001492 0.000000 0.000024 0.043599 0.440031
 11   -2.111792 0.863597 2.563791 0.625568 -1.390942 2.078415
 12   4.640941 0.000000 0.000000 0.740280 1.019160 0.748528
 13   10.828045 0.000000 0.000000 0.000000 0.000000 -0.626766
 14   9.393338 -0.000001 0.000000 -1.569611 0.034195 0.000037
 15   1.442243 0.107453 -1.746178 1.686435 0.539209 0.325885
 16   1.063450 0.000000 -0.000001 0.000000 0.000000 0.199056
 17   1.376307 -0.000001 0.000001 0.000000 0.000000 0.199049
 18   4.172845 -0.251366 -1.312745 0.008050 0.095731 0.148659
 19   1.215373 0.000001 -0.000001 0.000000 0.000000 0.645758
 20   1.215371 -0.000002 0.000000 0.000000 0.000000 0.645758
 21   4.220532 -0.244855 -0.431465 0.001333 0.026242 0.148339
 22   1.350417 0.000000 0.000001 0.000000 0.000000 0.863926
 23   1.350409 0.000000 -0.000001 0.000000 0.000000 0.863926
 24   -1.885222 0.863610 -2.731758 -0.900977 1.477708 1.804420
 25   4.640942 0.000000 0.000000 -0.466459 -1.192523 0.342659
 26   10.828048 0.000000 0.000001 0.000000 0.000000 -0.364496
 27   9.393336 -0.000001 0.000000 1.569611 -0.034192 0.000001
 28   1.442244 0.107454 1.746178 -1.686405 -0.539236 0.325898
 29   1.063451 -0.000001 0.000000 0.000000 0.000000 0.199056
 30   1.376307 -0.000001 0.000000 0.000000 0.000000 0.199059
 31   4.172846 -0.251365 1.312745 -0.008050 -0.095731 0.148659
 32   1.215374 0.000001 -0.000001 0.000000 0.000000 0.645746
 33   1.215373 0.000000 0.000001 0.000000 0.000000 0.645746
 34   4.220533 -0.244853 0.431466 -0.001333 -0.026242 0.148339
 35   1.350415 -0.000001 -0.000001 0.000000 0.000000 0.863937
 36   1.350410 -0.000001 0.000001 0.000000 0.000000 0.863925
 37   2.110541 -0.000001 0.000000 0.006118 0.008029 -0.193270
 38   0.891923 2.373050 -0.014527 -3.141592 -0.000001 1.413797
 39   7.228119 5.709445 3.726568 3.140796 -1.570796 0.000000
 40   2.450426 5.076127 0.001325 3.140791 -1.570796 0.000000
 41   6.312405 -4.528058 0.001311 3.140791 -1.570796 0.000000
 42   2.233309 1.152535 -7.309138 -1.317693 -1.552214 -0.551560
 43   4.262825 -0.232720 -1.392178 0.016840 0.076668 0.253759
time 2
  0   3.251063 6.337872 38.873055 0.000000 0.000000 -1.431630
  1   -0.456718 -0.527360 0.000000 -0.000030 -1.636805 -1.570772
  2   -0.000007 0.000008 4.427393 -0.167396 -3.069943 -0.009677
  3   18.465939 0.000000 0.000000 0.000000 0.000000 -0.406395
  4   14.875443 0.000000 0.000000 0.219195 0.005667 0.380265
  5   0.000006 -0.000004 -4.427393 0.142052 3.130350 -0.142121
  6   18.465939 0.000000 0.000000 0.000000 0.000000 -0.001959
  7   14.875442 0.000000 0.000000 0.174048 0.056176 -0.149765
  8   2.251301 -0.007574 -0.148439 0.118684 0.018440 0.042817
  9   9.514223 -0.009357 0.000000 -0.000113 -0.011142 -0.057693
 10   11.752194 -0.001492 0.000000 0.000024 0.043599 0.440031
 11   -2.111792 0.863597 2.563791 0.557922 -1.385452 2.146388
 12   4.640941 0.000000 0.000000 0.729540 0.948950 0.765504
 13   10.828045 0.000000 0.000000 0.000000 0.000000 -0.788387
 14   9.393338 -0.000001 0.000000 -1.569611 0.034195 0.000037
 15   1.442243 0.107453 -1.746178 1.686435 0.539209 0.325885
 16   1.063450 0.000000 -0.000001 0.000000 0.000000 0.199056
 17   1.376307 -0.000001 0.000001 0.000000 0.000000 0.199049
 18   4.172845 -0.251366 -1.312745 0.008050 0.095731 0.148659
 19   1.215373 0.000001 -0.000001 0.000000 0.000000 0.645758
 20   1.215371 -0.000002 0.000000 0.000000 0.000000 0.645758
 21   4.220532 -0.244855 -0.431465 0.001333 0.026242 0.148339
 22   1.350417 0.000000 0.000001 0.000000 0.000000 0.863926
 23   1.350409 0.000000 -0.000001 0.000000 0.000000 0.863926
 24   -1.885222 0.863610 -2.731758 -0.841456 1.494684 1.862707
 25   4.640942 0.000000 0.000000 -0.308206 -1.194336 0.156826
 26   10.828048 0.000000 0.000001 0.000000 0.000000 -0.499135
 27   9.393336 -0.000001 0.000000 1.569611 -0.034192 0.000001
 28   1.442244 0.107454 1.746178 -1.686405 -0.539236 0.325898
 29   1.063451 -0.000001 0.000000 0.000000 0.000000 0.199056
 30   1.376307 -0.000001 0.000000 0.000000 0.000000 0.199059
 31   4.172846 -0.251365 1.312745 -0.008050 -0.095731 0.148659
 32   1.215374 0.000001 -0.000001 0.000000 0.000000 0.645746
 33   1.215373 0.000000 0.000001 0.000000 0.000000 0.645746
 34   4.220533 -0.244853 0.431466 -0.001333 -0.026242 0.148339
 35   1.350415 -0.000001 -0.000001 0.000000 0.000000 0.863937
 36   1.350410 -0.000001 0.000001 0.000000 0.000000 0.863925
 37   2.110541 -0.000001 0.000000 0.009512 0.029318 -0.238615
 38   0.891923 2.373050 -0.014527 -3.141592 -0.000001 1.413797
 39   7.228119 5.709445 3.726568 3.140796 -1.570796 0.000000
 40   2.450426 5.076127 0.001325 3.140791 -1.570796 0.000000
 41   6.312405 -4.528058 0.001311 3.140791 -1.570796 0.000000
 42   2.233309 1.152535 -7.309138 -1.257293 -1.527196 -0.557879
 43   4.262825 -0.232720 -1.392178 0.016840 0.076668 0.253759
time 3
  0   4.090933 6.088894 39.125160 0.000000 0.000000 -1.282830
  1   -0.800478 -0.746117 0.000000 -0.000030 -1.673165 -1.570772
  2   -0.000007 0.000008 4.427393 -0.166342 -3.029418 -0.009200
  3   18.465939 0.000000 0.000000 0.000000 0.000000 -0.389142
  4   14.875443 0.000000 0.000000 0.360230 0.003539 0.364345
  5   0.000006 -0.000004 -4.427393 0.157483 3.116766 -0.208849
  6   18.465939 0.000000 0.000000 0.000000 0.000000 -0.144850
  7   14.875442 0.000000 0.000000 0.109120 0.096312 -0.176853
  8   2.247394 -0.007574 -0.230473 0.118726 0.038177 0.067236
  9   9.514223 -0.009357 0.000000 0.004390 -0.018722 -0.036694
 10   11.752194 -0.001492 0.000000 0.000024 0.043599 0.440031
 11   -2.111792 0.863597 2.563791 0.494468 -1.379132 2.210052
 12   4.640941 0.000000 0.000000 0.714703 0.880617 0.783182
 13   10.828045 0.000000 0.000000 0.000000 0.000000 -0.951290
 14   9.393338 -0.000001 0.000000 -1.569611 0.034195 0.000037
 15   1.442243 0.107453 -1.746178 1.686435 0.539209 0.325885
 16   1.063450 0.000000 -0.000001 0.000000 0.000000 0.199056
 17   1.376307 -0.000001 0.000001 0.000000 0.000000 0.199049
 18   4.172845 -0.251366 -1.312745 0.008050 0.095731 0.148659
 19   1.215373 0.000001 -0.000001 0.000000 0.000000 0.645758
 20   1.215371 -0.000002 0.000000 0.000000 0.000000 0.645758
 21   4.220532 -0.244855 -0.431465 0.001333 0.026242 0.148339
 22   1.350417 0.000000 0.000001 0.000000 0.000000 0.863926
 23   1.350409 0.000000 -0.000001 0.000000 0.000000 0.863926
 24   -1.885222 0.863610 -2.731758 -0.748054 1.511449 1.954838
 25   4.640942 0.000000 0.000000 -0.145898 -1.185410 -0.030547
 26   10.828048 0.000000 0.000001 0.000000 0.000000 -0.634866
 27   9.393336 -0.000001 0.000000 1.569611 -0.034192 0.000001
 28   1.442244 0.107454 1.746178 -1.686405 -0.539236 0.325898
 29   1.063451 -0.000001 0.000000 0.000000 0.000000 0.199056
 30   1.376307 -0.000001 0.000000 0.000000 0.000000 0.199059
 31   4.172846 -0.251365 1.312745 -0.008050 -0.095731 0.148659
 32   1.215374 0.000001 -0.000001 0.000000 0.000000 0.645746
 33   1.215373 0.000000 0.000001 0.000000 0.000000 0.645746
 34   4.220533 -0.244853 0.431466 -0.001333 -0.026242 0.148339
 35   1.350415 -0.000001 -0.000001 0.000000 0.000000 0.863937
 36   1.350410 -0.000001 0.000001 0.000000 0.000000 0.863925
 37   2.110541 -0.000001 0.000000 0.012031 0.051238 -0.285419
 38   0.891923 2.373050 -0.014527 -3.141592 -0.000001 1.413797
 39   7.228119 5.709445 3.726568 3.140796 -1.570796 0.000000
 40   2.450426 5.076127 0.001325 3.140791 -1.570796 0.000000
 41   6.312405 -4.528058 0.001311 3.140791 -1.570796 0.000000
 42   2.233309 1.152535 -7.309138 -1.270907 -1.545457 -0.594261
 43   4.262825 -0.232720 -1.392178 0.016840 0.076668 0.253759
time 4
  0   4.876113 5.857701 39.345757 0.000000 0.000000 -1.143233
  1   -1.124707 -0.949248 0.000000 -0.000030 -1.707297 -1.570772
  2   -0.000007 0.000008 4.427393 -0.174582 -3.008681 0.049228
  3   18.465939 0.000000 0.000000 0.000000 0.000000 -0.283136
  4   14.875443 0.000000 0.000000 0.394431 0.008519 0.319548
  5   0.000006 -0.000004 -4.427393 0.173297 3.093042 -0.314040
  6   18.465939 0.000000 0.000000 0.000000 0.000000 -0.363222
  7   14.875442 0.000000 0.000000 -0.000029 0.120745 -0.213807
  8   2.235675 -0.007574 -0.304694 0.120034 0.056618 0.090199
  9   9.514223 -0.009357 0.000000 0.008516 -0.025912 -0.017016
 10   11.752194 -0.001492 0.000000 0.000024 0.043599 0.440031
 11   -2.111792 0.863597 2.563791 0.435016 -1.372156 2.269696
 12   4.640941 0.000000 0.000000 0.701355 0.815170 0.805719
 13   10.828045 0.000000 0.000000 0.000000 0.000000 -1.111630
 14   9.393338 -0.000001 0.000000 -1.569611 0.034195 0.000037
 15   1.442243 0.107453 -1.746178 1.686435 0.539209 0.325885
 16   1.063450 0.000000 -0.000001 0.000000 0.000000 0.199056
 17   1.376307 -0.000001 0.000001 0.000000 0.000000 0.199049
 18   4.172845 -0.251366 -1.312745 0.008050 0.095731 0.148659
 19   1.215373 0.000001 -0.000001 0.000000 0.000000 0.645758
 20   1.215371 -0.000002 0.000000 0.000000 0.000000 0.645758
 21   4.220532 -0.244855 -0.431465 0.001333 0.026242 0.148339
 22   1.350417 0.000000 0.000001 0.000000 0.000000 0.863926
 23   1.350409 0.000000 -0.000001 0.000000 0.000000 0.863926
 24   -1.885222 0.863610 -2.731758 -0.587819 1.526912 2.113973
 25   4.640942 0.000000 0.000000 -0.001586 -1.166022 -0.197412
 26   10.828048 0.000000 0.000001 0.000000 0.000000 -0.768476
 27   9.393336 -0.000001 0.000000 1.569611 -0.034192 0.000001
 28   1.442244 0.107454 1.746178 -1.686405 -0.539236 0.325898
 29   1.063451 -0.000001 0.000000 0.000000 0.000000 0.199056
 30   1.376307 -0.000001 0.000000 0.000000 0.000000 0.199059
 31   4.172846 -0.251365 1.312745 -0.008050 -0.095731 0.148659
 32   1.215374 0.000001 -0.000001 0.000000 0.000000 0.645746
 33   1.215373 0.000000 0.000001 0.000000 0.000000 0.645746
 34   4.220533 -0.244853 0.431466 -0.001333 -0.026242 0.148339
 35   1.350415 -0.000001 -0.000001 0.000000 0.000000 0.863937
 36   1.350410 -0.000001 0.000001 0.000000 0.000000 0.863925
 37   2.110541 -0.000001 0.000000 0.013522 0.071774 -0.329350
 38   0.891923 2.373050 -0.014527 -3.141592 -0.000001 1.413797
 39   7.228119 5.709445 3.726568 3.140796 -1.570796 0.000000
 40   2.450426 5.076127 0.001325 3.140791 -1.570796 0.000000
 41   6.312405 -4.528058 0.001311 3.140791 -1.570796 0.000000
 42   2.233309 1.152535 -7.309138 -1.928496 -1.570796 0.000000
 43   4.262825 -0.232720 -1.392178 0.016840 0.076668 0.253759
time 5
  0   5.536290 5.662075 39.550594 0.000000 0.000000 -1.026551
  1   -1.394247 -1.117222 0.000000 -0.000030 -1.735825 -1.570772
  2   -0.000007 0.000008 4.427393 -0.187420 -2.998266 0.121285
  3   18.465939 0.000000 0.000000 0.000000 0.000000 -0.155125
  4   14.875443 0.000000 0.000000 0.415585 0.014904 0.266732
  5   0.000006 -0.000004 -4.427393 0.187385 3.069126 -0.404257
  6   18.465939 0.000000 0.000000 0.000000 0.000000 -0.555603
  7   14.875442 0.000000 0.000000 -0.113144 0.108256 -0.383762
  8   2.227862 -0.007574 -0.371102 0.122059 0.071976 0.109522
  9   9.514223 -0.009357 0.000000 0.011855 -0.031987 -0.000563
 10   11.752194 -0.001492 0.000000 0.000024 0.043599 0.440031
 11   -2.111792 0.863597 2.563791 0.379280 -1.364753 2.325414
 12   4.640941 0.000000 0.000000 0.693968 0.752754 0.835105
 13   10.828045 0.000000 0.000000 0.000000 0.000000 -1.265259
 14   9.393338 -0.000001 0.000000 -1.569611 0.034195 0.000037
 15   1.442243 0.107453 -1.746178 1.686435 0.539209 0.325885
 16   1.063450 0.000000 -0.000001 0.000000 0.000000 0.199056
 17   1.376307 -0.000001 0.000001 0.000000 0.000000 0.199049
 18   4.172845 -0.251366 -1.312745 0.008050 0.095731 0.148659
 19   1.215373 0.000001 -0.000001 0.000000 0.000000 0.645758
 20   1.215371 -0.000002 0.000000 0.000000 0.000000 0.645758
 21   4.220532 -0.244855 -0.431465 0.001333 0.026242 0.148339
 22   1.350417 0.000000 0.000001 0.000000 0.000000 0.863926
 23   1.350409 0.000000 -0.000001 0.000000 0.000000 0.863926
 24   -1.885222 0.863610 -2.731758 -0.295674 1.539229 2.405237
 25   4.640942 0.000000 0.000000 0.108929 -1.139870 -0.328440
 26   10.828048 0.000000 0.000001 0.000000 0.000000 -0.896492
 27   9.393336 -0.000001 0.000000 1.569611 -0.034192 0.000001
 28   1.442244 0.107454 1.746178 -1.686405 -0.539236 0.325898
 29   1.063451 -0.000001 0.000000 0.000000 0.000000 0.199056
 30   1.376307 -0.000001 0.000000 0.000000 0.000000 0.199059
 31   4.172846 -0.251365 1.312745 -0.008050 -0.095731 0.148659
 32   1.215374 0.000001 -0.000001 0.000000 0.000000 0.645746
 33   1.215373 0.000000 0.000001 0.000000 0.000000 0.645746
 34   4.220533 -0.244853 0.431466 -0.001333 -0.026242 0.148339
 35   1.350415 -0.000001 -0.000001 0.000000 0.000000 0.863937
 36   1.350410 -0.000001 0.000001 0.000000 0.000000 0.863925
 37   2.110541 -0.000001 0.000000 0.014139 0.088823 -0.366219
 38   0.891923 2.373050 -0.014527 -3.141592 -0.000001 1.413797
 39   7.228119 5.709445 3.726568 3.140796 -1.570796 0.000000
 40   2.450426 5.076127 0.001325 3.140791 -1.570796 0.000000
 41   6.312405 -4.528058 0.001311 3.140791 -1.570796 0.000000
 42   2.233309 1.152535 -7.309138 -1.163817 -1.588242 -0.791007
 43   4.262825 -0.232720 -1.392178 0.016840 0.076668 0.253759
time 6
  0   5.989429 5.528694 39.676647 0.000000 0.000000 -0.946398
  1   -1.577846 -1.234413 0.000000 -0.000030 -1.755399 -1.570772
  2   -0.000007 0.000008 4.427393 -0.199684 -2.995141 0.182478
  3   18.465939 0.000000 0.000000 0.000000 0.000000 -0.047292
  4   14.875443 0.000000 0.000000 0.426677 0.020332 0.222686
  5   0.000006 -0.000004 -4.427393 0.198695 3.056690 -0.468083
  6   18.465939 0.000000 0.000000 0.000000 0.000000 -0.687467
  7   14.875442 0.000000 0.000000 -0.162279 0.105436 -0.297959
  8   2.220050 -0.007574 -0.414072 0.123915 0.082444 0.122790
  9   9.514223 -0.009357 0.000000 0.014069 -0.036194 0.010673
 10   11.752194 -0.001492 0.000000 0.000024 0.043599 0.440031
 11   -2.111792 0.863597 2.563791 0.326687 -1.357022 2.377973
 12   4.640941 0.000000 0.000000 0.696078 0.692791 0.871809
 13   10.828045 0.000000 0.000000 0.000000 0.000000 -1.408271
 14   9.393338 -0.000001 0.000000 -1.569611 0.034195 0.000037
 15   1.442243 0.107453 -1.746178 1.686435 0.539209 0.325885
 16   1.063450 0.000000 -0.000001 0.000000 0.000000 0.199056
 17   1.376307 -0.000001 0.000001 0.000000 0.000000 0.199049
 18   4.172845 -0.251366 -1.312745 0.008050 0.095731 0.148659
 19   1.215373 0.000001 -0.000001 0.000000 0.000000 0.645758
 20   1.215371 -0.000002 0.000000 0.000000 0.000000 0.645758
 21   4.220532 -0.244855 -0.431465 0.001333 0.026242 0.148339
 22   1.350417 0.000000 0.000001 0.000000 0.000000 0.863926
 23   1.350409 0.000000 -0.000001 0.000000 0.000000 0.863926
 24   -1.885222 0.863610 -2.731758 0.180218 1.545493 2.880420
 25   4.640942 0.000000 0.000000 0.177959 -1.112463 -0.417052
 26   10.828048 0.000000 0.000001 0.000000 0.000000 -1.015634
 27   9.393336 -0.000001 0.000000 1.569611 -0.034192 0.000001
 28   1.442244 0.107454 1.746178 -1.686405 -0.539236 0.325898
 29   1.063451 -0.000001 0.000000 0.000000 0.000000 0.199056
 30   1.376307 -0.000001 0.000000 0.000000 0.000000 0.199059
 31   4.172846 -0.251365 1.312745 -0.008050 -0.095731 0.148659
 32   1.215374 0.000001 -0.000001 0.000000 0.000000 0.645746
 33   1.215373 0.000000 0.000001 0.000000 0.000000 0.645746
 34   4.220533 -0.244853 0.431466 -0.001333 -0.026242 0.148339
 35   1.350415 -0.000001 -0.000001 0.000000 0.000000 0.863937
 36   1.350410 -0.000001 0.000001 0.000000 0.000000 0.863925
 37   2.110541 -0.000001 0.000000 0.014191 0.100490 -0.391552
 38   0.891923 2.373050 -0.014527 -3.141592 -0.000001 1.413797
 39   7.228119 5.709445 3.726568 3.140796 -1.570796 0.000000
 40   2.450426 5.076127 0.001325 3.140791 -1.570796 0.000000
 41   6.312405 -4.528058 0.001311 3.140791 -1.570796 0.000000
 42   2.233309 1.152535 -7.309138 -1.136110 -1.614425 -0.906662
 43   4.262825 -0.232720 -1.392178 0.016840 0.076668 0.253759
time 7
  0   6.157403 5.484234 39.739677 0.000000 0.000000 -0.916676
  1   -1.644254 -1.273476 0.000000 -0.000030 -1.762671 -1.570772
  2   -0.000007 0.000008 4.427393 -0.205050 -2.995046 0.208213
  3   18.465939 0.000000 0.000000 0.000000 0.000000 -0.001965
  4   14.875443 0.000000 0.000000 0.430339 0.022588 0.204238
  5   0.000006 -0.000004 -4.427393 0.201570 3.038993 -0.487924
  6   18.465939 0.000000 0.000000 0.000000 0.000000 -0.745358
  7   14.875442 0.000000 0.000000 -0.171369 0.131234 -0.145300
  8   2.216143 -0.007574 -0.429698 0.124717 0.086313 0.127720
  9   9.514223 -0.009357 0.000000 0.014894 -0.037766 0.014851
 10   11.752194 -0.001492 0.000000 0.000024 0.043599 0.440031
 11   -2.111792 0.863597 2.563791 0.276763 -1.349140 2.427755
 12   4.640941 0.000000 0.000000 0.710668 0.633694 0.915595
 13   10.828045 0.000000 0.000000 0.000000 0.000000 -1.536702
 14   9.393338 -0.000001 0.000000 -1.569611 0.034195 0.000037
 15   1.442243 0.107453 -1.746178 1.686435 0.539209 0.325885
 16   1.063450 0.000000 -0.000001 0.000000 0.000000 0.199056
 17   1.376307 -0.000001 0.000001 0.000000 0.000000 0.199049
 18   4.172845 -0.251366 -1.312745 0.008050 0.095731 0.148659
 19   1.215373 0.000001 -0.000001 0.000000 0.000000 0.645758
 20   1.215371 -0.000002 0.000000 0.000000 0.000000 0.645758
 21   4.220532 -0.244855 -0.431465 0.001333 0.026242 0.148339
 22   1.350417 0.000000 0.000001 0.000000 0.000000 0.863926
 23   1.350409 0.000000 -0.000001 0.000000 0.000000 0.863926
 24   -1.885222 0.863610 -2.731758 0.659628 1.544131 3.359193
 25   4.640942 0.000000 0.000000 0.202293 -1.088961 -0.461498
 26   10.828048 0.000000 0.000001 0.000000 0.000000 -1.122689
 27   9.393336 -0.000001 0.000000 1.569611 -0.034192 0.000001
 28   1.442244 0.107454 1.746178 -1.686405 -0.539236 0.325898
 29   1.063451 -0.000001 0.000000 0.000000 0.000000 0.199056
 30   1.376307 -0.000001 0.000000 0.000000 0.000000 0.199059
 31   4.172846 -0.251365 1.312745 -0.008050 -0.095731 0.148659
 32   1.215374 0.000001 -0.000001 0.000000 0.000000 0.645746
 33   1.215373 0.000000 0.000001 0.000000 0.000000 0.645746
 34   4.220533 -0.244853 0.431466 -0.001333 -0.026242 0.148339
 35   1.350415 -0.000001 -0.000001 0.000000 0.000000 0.863937
 36   1.350410 -0.000001 0.000001 0.000000 0.000000 0.863925
 37   2.110541 -0.000001 0.000000 0.014191 0.104820 -0.400969
 38   0.891923 2.373050 -0.014527 -3.141592 -0.000001 1.413797
 39   7.228119 5.709445 3.726568 3.140796 -1.570796 0.000000
 40   2.450426 5.076127 0.001325 3.140791 -1.570796 0.000000
 41   6.312405 -4.528058 0.001311 3.140791 -1.570796 0.000000
 42   2.233309 1.152535 -7.309138 -1.129015 -1.623133 -0.965446
 43   4.262825 -0.232720 -1.392178 0.016840 0.076668 0.253759
time 8
  0   5.837080 5.573154 39.629379 0.000000 0.000000 -0.973244
  1   -1.515344 -1.195349 0.000000 -0.000030 -1.748860 -1.570772
  2   -0.000007 0.000008 4.427393 -0.195756 -2.996088 0.163701
  3   18.465939 0.000000 0.000000 0.000000 0.000000 -0.079532
  4   14.875443 0.000000 0.000000 0.429023 0.018288 0.235366
  5   0.000006 -0.000004 -4.427393 0.183360 3.011155 -0.313478
  6   18.465939 0.000000 0.000000 0.000000 0.000000 -0.493839
  7   14.875442 0.000000 0.000000 -0.007750 0.227662 0.099165
  8   2.223956 -0.007574 -0.398447 0.123240 0.078948 0.118356
  9   9.514223 -0.009357 0.000000 0.013356 -0.034783 0.006906
 10   11.752194 -0.001492 0.000000 0.000024 0.043599 0.440031
 11   -2.111792 0.863597 2.563791 0.209879 -1.346924 2.493909
 12   4.640941 0.000000 0.000000 0.700052 0.667247 0.861799
 13   10.828045 0.000000 0.000000 0.000000 0.000000 -1.428771
 14   9.393338 -0.000001 0.000000 -1.569611 0.034195 0.000037
 15   1.442243 0.107453 -1.746178 1.686435 0.539209 0.325885
 16   1.063450 0.000000 -0.000001 0.000000 0.000000 0.199056
 17   1.376307 -0.000001 0.000001 0.000000 0.000000 0.199049
 18   4.172845 -0.251366 -1.312745 0.008050 0.095731 0.148659
 19   1.215373 0.000001 -0.000001 0.000000 0.000000 0.645758
 20   1.215371 -0.000002 0.000000 0.000000 0.000000 0.645758
 21   4.220532 -0.244855 -0.431465 0.001333 0.026242 0.148339
 22   1.350417 0.000000 0.000001 0.000000 0.000000 0.863926
 23   1.350409 0.000000 -0.000001 0.000000 0.000000 0.863926
 24   -1.885222 0.863610 -2.731758 -0.079805 1.529817 2.620779
 25   4.640942 0.000000 0.000000 0.166384 -1.158560 -0.406413
 26   10.828048 0.000000 0.000001 0.000000 0.000000 -1.032737
 27   9.393336 -0.000001 0.000000 1.569611 -0.034192 0.000001
 28   1.442244 0.107454 1.746178 -1.686405 -0.539236 0.325898
 29   1.063451 -0.000001 0.000000 0.000000 0.000000 0.199056
 30   1.376307 -0.000001 0.000000 0.000000 0.000000 0.199059
 31   4.172846 -0.251365 1.312745 -0.008050 -0.095731 0.148659
 32   1.215374 0.000001 -0.000001 0.000000 0.000000 0.645746
 33   1.215373 0.000000 0.000001 0.000000 0.000000 0.645746
 34   4.220533 -0.244853 0.431466 -0.001333 -0.026242 0.148339
 35   1.350415 -0.000001 -0.000001 0.000000 0.000000 0.863937
 36   1.350410 -0.000001 0.000001 0.000000 0.000000 0.863925
 37   2.110541 -0.000001 0.000000 0.014242 0.096611 -0.383076
 38   0.891923 2.373050 -0.014527 -3.141592 -0.000001 1.413797
 39   7.228119 5.709445 3.726568 3.140796 -1.570796 0.000000
 40   2.450426 5.076127 0.001325 3.140791 -1.570796 0.000000
 41   6.312405 -4.528058 0.001311 3.140791 -1.570796 0.000000
 42   2.233309 1.152535 -7.309138 -1.191141 -1.649317 -0.711255
 43   4.262825 -0.232720 -1.392178 0.016840 0.076668 0.253759
time 9
  0   5.020649 5.813241 39.393028 0.000000 0.000000 -1.117634
  1   -1.183303 -0.984405 0.000000 -0.000030 -1.713549 -1.570772
  2   -0.000007 0.000008 4.427393 -0.178127 -3.006788 0.070673
  3   18.465939 0.000000 0.000000 0.000000 0.000000 -0.243146
  4   14.875443 0.000000 0.000000 0.413060 0.009647 0.301969
  5   0.000006 -0.000004 -4.427393 0.172530 3.070657 -0.180492
  6   18.465939 0.000000 0.000000 0.000000 0.000000 -0.209764
  7   14.875442 0.000000 0.000000 0.181278 0.176007 -0.011250
  8   2.235675 -0.007574 -0.320319 0.120413 0.059996 0.094434
  9   9.514223 -0.009357 0.000000 0.009267 -0.027243 -0.013400
 10   11.752194 -0.001492 0.000000 0.000024 0.043599 0.440031
 11   -2.111792 0.863597 2.563791 0.143472 -1.349568 2.559105
 12   4.640941 0.000000 0.000000 0.675219 0.766536 0.747591
 13   10.828045 0.000000 0.000000 0.000000 0.000000 -1.153301
 14   9.393338 -0.000001 0.000000 -1.569611 0.034195 0.000037
 15   1.442243 0.107453 -1.746178 1.686435 0.539209 0.325885
 16   1.063450 0.000000 -0.000001 0.000000 0.000000 0.199056
 17   1.376307 -0.000001 0.000001 0.000000 0.000000 0.199049
 18   4.172845 -0.251366 -1.312745 0.008050 0.095731 0.148659
 19   1.215373 0.000001 -0.000001 0.000000 0.000000 0.645758
 20   1.215371 -0.000002 0.000000 0.000000 0.000000 0.645758
 21   4.220532 -0.244855 -0.431465 0.001333 0.026242 0.148339
 22   1.350417 0.000000 0.000001 0.000000 0.000000 0.863926
 23   1.350409 0.000000 -0.000001 0.000000 0.000000 0.863926
 24   -1.885222 0.863610 -2.731758 -0.528668 1.484153 2.175081
 25   4.640942 0.000000 0.000000 0.001625 -1.183806 -0.189643
 26   10.828048 0.000000 0.000001 0.000000 0.000000 -0.803196
 27   9.393336 -0.000001 0.000000 1.569611 -0.034192 0.000001
 28   1.442244 0.107454 1.746178 -1.686405 -0.539236 0.325898
 29   1.063451 -0.000001 0.000000 0.000000 0.000000 0.199056
 30   1.376307 -0.000001 0.000000 0.000000 0.000000 0.199059
 31   4.172846 -0.251365 1.312745 -0.008050 -0.095731 0.148659
 32   1.215374 0.000001 -0.000001 0.000000 0.000000 0.645746
 33   1.215373 0.000000 0.000001 0.000000 0.000000 0.645746
 34   4.220533 -0.244853 0.431466 -0.001333 -0.026242 0.148339
 35   1.350415 -0.000001 -0.000001 0.000000 0.000000 0.863937
 36   1.350410 -0.000001 0.000001 0.000000 0.000000 0.863925
 37   2.110541 -0.000001 0.000000 0.013728 0.075503 -0.337449
 38   0.891923 2.373050 -0.014527 -3.141592 -0.000001 1.413797
 39   7.228119 5.709445 3.726568 3.140796 -1.570796 0.000000
 40   2.450426 5.076127 0.001325 3.140791 -1.570796 0.000000
 41   6.312405 -4.528058 0.001311 3.140791 -1.570796 0.000000
 42   2.233309 1.152535 -7.309138 -0.867283 -1.589640 -0.928203
 43   4.262825 -0.232720 -1.392178 0.016840 0.076668 0.253759
time 10
  0   3.922959 6.142247 39.077892 0.000000 0.000000 -1.312360
  1   -0.730164 -0.703146 0.000000 -0.000030 -1.665965 -1.570772
  2   -0.000007 0.000008 4.427393 -0.166629 -3.035762 -0.009677
  3   18.465939 0.000000 0.000000 0.000000 0.000000 -0.388996
  4   14.875443 0.000000 0.000000 0.365847 0.002900 0.363674
  5   0.000006 -0.000004 -4.427393 0.156620 3.124993 -0.100569
  6   18.465939 0.000000 0.000000 0.000000 0.000000 -0.001959
  7   14.875442 0.000000 0.000000 0.302009 0.105103 -0.148452
  8   2.247394 -0.007574 -0.214847 0.118641 0.034269 0.062372
  9   9.514223 -0.009357 0.000000 0.003489 -0.017203 -0.040850
 10   11.752194 -0.001492 0.000000 0.000024 0.043599 0.440031
 11   -2.111792 0.863597 2.563791 0.142709 -1.359616 2.559679
 12   4.640941 0.000000 0.000000 0.661189 0.877154 0.659433
 13   10.828045 0.000000 0.000000 0.000000 0.000000 -0.869228
 14   9.393338 -0.000001 0.000000 -1.569611 0.034195 0.000037
 15   1.442243 0.107453 -1.746178 1.686435 0.539209 0.325885
 16   1.063450 0.000000 -0.000001 0.000000 0.000000 0.199056
 17   1.376307 -0.000001 0.000001 0.000000 0.000000 0.199049
 18   4.172845 -0.251366 -1.312745 0.008050 0.095731 0.148659
 19   1.215373 0.000001 -0.000001 0.000000 0.000000 0.645758
 20   1.215371 -0.000002 0.000000 0.000000 0.000000 0.645758
 21   4.220532 -0.244855 -0.431465 0.001333 0.026242 0.148339
 22   1.350417 0.000000 0.000001 0.000000 0.000000 0.863926
 23   1.350409 0.000000 -0.000001 0.000000 0.000000 0.863926
 24   -1.885222 0.863610 -2.731758 -0.675203 1.444481 2.032269
 25   4.640942 0.000000 0.000000 -0.207746 -1.186874 0.072064
 26   10.828048 0.000000 0.000001 0.000000 0.000000 -0.566454
 27   9.393336 -0.000001 0.000000 1.569611 -0.034192 0.000001
 28   1.442244 0.107454 1.746178 -1.686405 -0.539236 0.325898
 29   1.063451 -0.000001 0.000000 0.000000 0.000000 0.199056
 30   1.376307 -0.000001 0.000000 0.000000 0.000000 0.199059
 31   4.172846 -0.251365 1.312745 -0.008050 -0.095731 0.148659
 32   1.215374 0.000001 -0.000001 0.000000 0.000000 0.645746
 33   1.215373 0.000000 0.000001 0.000000 0.000000 0.645746
 34   4.220533 -0.244853 0.431466 -0.001333 -0.026242 0.148339
 35   1.350415 -0.000001 -0.000001 0.000000 0.000000 0.863937
 36   1.350410 -0.000001 0.000001 0.000000 0.000000 0.863925
 37   2.110541 -0.000001 0.000000 0.011620 0.046908 -0.276143
 38   0.891923 2.373050 -0.014527 -3.141592 -0.000001 1.413797
 39   7.228119 5.709445 3.726568 3.140796 -1.570796 0.000000
 40   2.450426 5.076127 0.001325 3.140791 -1.570796 0.000000
 41   6.312405 -4.528058 0.001311 3.140791 -1.570796 0.000000
 42   2.233309 1.152535 -7.309138 -1.340031 -1.527196 -0.396557
 43   4.262825 -0.232720 -1.392178 0.016840 0.076668 0.253759
time 11
  0   2.754955 6.480145 38.731243 0.000000 0.000000 -1.519549
  1   -0.253587 -0.398450 0.000000 -0.000030 -1.615305 -1.570772
  2   -0.000007 0.000008 4.427393 -0.168545 -3.095319 -0.007389
  3   18.465939 0.000000 0.000000 0.000000 0.000000 -0.411513
  4   14.875443 0.000000 0.000000 0.153317 0.008093 0.387652
  5   0.000006 -0.000004 -4.427393 0.127868 3.113609 -0.250120
  6   18.465939 0.000000 0.000000 0.000000 0.000000 -0.208123
  7   14.875442 0.000000 0.000000 0.118982 0.039503 -0.049368
  8   2.255207 -0.007574 -0.097656 0.119316 0.006755 0.028424
  9   9.514223 -0.009357 0.000000 -0.002889 -0.006707 -0.070119
 10   11.752194 -0.001492 0.000000 0.000024 0.043599 0.440031
 11   -2.111792 0.863597 2.563791 0.355175 -1.383287 2.348390
 12   4.640941 0.000000 0.000000 0.695271 0.982359 0.675882
 13   10.828045 0.000000 0.000000 0.000000 0.000000 -0.659773
 14   9.393338 -0.000001 0.000000 -1.569611 0.034195 0.000037
 15   1.442243 0.107453 -1.746178 1.686435 0.539209 0.325885
 16   1.063450 0.000000 -0.000001 0.000000 0.000000 0.199056
 17   1.376307 -0.000001 0.000001 0.000000 0.000000 0.199049
 18   4.172845 -0.251366 -1.312745 0.008050 0.095731 0.148659
 19   1.215373 0.000001 -0.000001 0.000000 0.000000 0.645758
 20   1.215371 -0.000002 0.000000 0.000000 0.000000 0.645758
 21   4.220532 -0.244855 -0.431465 0.001333 0.026242 0.148339
 22   1.350417 0.000000 0.000001 0.000000 0.000000 0.863926
 23   1.350409 0.000000 -0.000001 0.000000 0.000000 0.863926
 24   -1.885222 0.863610 -2.731758 -0.789340 1.447023 1.918430
 25   4.640942 0.000000 0.000000 -0.415595 -1.188618 0.304722
 26   10.828048 0.000000 0.000001 0.000000 0.000000 -0.392015
 27   9.393336 -0.000001 0.000000 1.569611 -0.034192 0.000001
 28   1.442244 0.107454 1.746178 -1.686405 -0.539236 0.325898
 29   1.063451 -0.000001 0.000000 0.000000 0.000000 0.199056
 30   1.376307 -0.000001 0.000000 0.000000 0.000000 0.199059
 31   4.172846 -0.251365 1.312745 -0.008050 -0.095731 0.148659
 32   1.215374 0.000001 -0.000001 0.000000 0.000000 0.645746
 33   1.215373 0.000000 0.000001 0.000000 0.000000 0.645746
 34   4.220533 -0.244853 0.431466 -0.001333 -0.026242 0.148339
 35   1.350415 -0.000001 -0.000001 0.000000 0.000000 0.863937
 36   1.350410 -0.000001 0.000001 0.000000 0.000000 0.863925
 37   2.110541 -0.000001 0.000000 0.007558 0.016328 -0.210975
 38   0.891923 2.373050 -0.014527 -3.141592 -0.000001 1.413797
 39   7.228119 5.709445 3.726568 3.140796 -1.570796 0.000000
 40   2.450426 5.076127 0.001325 3.140791 -1.570796 0.000000
 41   6.312405 -4.528058 0.001311 3.140791 -1.570796 0.000000
 42   2.233309 1.152535 -7.309138 -1.241857 -1.553350 -0.590718
 43   4.262825 -0.232720 -1.392178 0.016840 0.076668 0.253759
time 12
  0   1.727579 6.791367 38.416107 0.000000 0.000000 -1.701715
  1   0.164395 -0.125004 0.000000 -1.570795 -1.570451 0.000000
  2   -0.000007 0.000008 4.427393 -0.170749 -3.152983 0.000903
  3   18.465939 0.000000 0.000000 0.000000 0.000000 -0.416557
  4   14.875443 0.000000 0.000000 0.018467 0.017437 0.402071
  5   0.000006 -0.000004 -4.427393 0.106016 3.095625 -0.362237
  6   18.465939 0.000000 0.000000 0.000000 0.000000 -0.394334
  7   14.875442 0.000000 0.000000 -0.002065 0.005218 0.029344
  8   2.255207 -0.007574 0.000003 0.122101 -0.017401 -0.001322
  9   9.514223 -0.009357 0.000000 -0.008779 0.002352 -0.095902
 10   11.752194 -0.001492 0.000000 0.000024 0.043599 0.440031
 11   -2.111792 0.863597 2.563791 0.697216 -1.395374 2.006326
 12   4.640941 0.000000 0.000000 0.738480 1.089874 0.724820
 13   10.828045 0.000000 0.000000 0.000000 0.000000 -0.470452
 14   9.393338 -0.000001 0.000000 -1.569611 0.034195 0.000037
 15   1.442243 0.107453 -1.746178 1.686435 0.539209 0.325885
 16   1.063450 0.000000 -0.000001 0.000000 0.000000 0.199056
 17   1.376307 -0.000001 0.000001 0.000000 0.000000 0.199049
 18   4.172845 -0.251366 -1.312745 0.008050 0.095731 0.148659
 19   1.215373 0.000001 -0.000001 0.000000 0.000000 0.645758
 20   1.215371 -0.000002 0.000000 0.000000 0.000000 0.645758
 21   4.220532 -0.244855 -0.431465 0.001333 0.026242 0.148339
 22   1.350417 0.000000 0.000001 0.000000 0.000000 0.863926
 23   1.350409 0.000000 -0.000001 0.000000 0.000000 0.863926
 24   -1.885222 0.863610 -2.731758 -0.942447 1.461427 1.764337
 25   4.640942 0.000000 0.000000 -0.601477 -1.183875 0.506934
 26   10.828048 0.000000 0.000001 0.000000 0.000000 -0.234230
 27   9.393336 -0.000001 0.000000 1.569611 -0.034192 0.000001
 28   1.442244 0.107454 1.746178 -1.686405 -0.539236 0.325898
 29   1.063451 -0.000001 0.000000 0.000000 0.000000 0.199056
 30   1.376307 -0.000001 0.000000 0.000000 0.000000 0.199059
 31   4.172846 -0.251365 1.312745 -0.008050 -0.095731 0.148659
 32   1.215374 0.000001 -0.000001 0.000000 0.000000 0.645746
 33   1.215373 0.000000 0.000001 0.000000 0.000000 0.645746
 34   4.220533 -0.244853 0.431466 -0.001333 -0.026242 0.148339
 35   1.350415 -0.000001 -0.000001 0.000000 0.000000 0.863937
 36   1.350410 -0.000001 0.000001 0.000000 0.000000 0.863925
 37   2.110541 -0.000001 0.000000 0.002417 -0.010493 -0.153718
 38   0.891923 2.373050 -0.014527 -3.141592 -0.000001 1.413797
 39   7.228119 5.709445 3.726568 3.140796 -1.570796 0.000000
 40   2.450426 5.076127 0.001325 3.140791 -1.570796 0.000000
 41   6.312405 -4.528058 0.001311 3.140791 -1.570796 0.000000
 42   2.233309 1.152535 -7.309138 -1.954765 -1.570796 0.000000
 43   4.262825 -0.232720 -1.392178 0.016840 0.076668 0.253759
end
