version 1
nodes
  0 "Bip01" -1
  1 "Bip01 Pelvis" 0
  2 "Bip01 L Thigh" 1
  3 "Bip01 L Calf" 2
  4 "Bip01 L Foot" 3
  5 "Bip01 R Thigh" 1
  6 "Bip01 R Calf" 5
  7 "Bip01 R Foot" 6
  8 "Bip01 Spine" 1
  9 "Bip01 Spine1" 8
 10 "Bip01 Neck" 9
 11 "Bip01 L Clavicle" 10
 12 "Bip01 L UpperArm" 11
 13 "Bip01 L Forearm" 12
 14 "Bip01 L Hand" 13
 15 "Bip01 L Finger0" 14
 16 "Bip01 L Finger01" 15
 17 "Bip01 L Finger02" 16
 18 "Bip01 L Finger1" 14
 19 "Bip01 L Finger11" 18
 20 "Bip01 L Finger12" 19
 21 "Bip01 L Finger2" 14
 22 "Bip01 L Finger21" 21
 23 "Bip01 L Finger22" 22
 24 "Bip01 R Clavicle" 10
 25 "Bip01 R UpperArm" 24
 26 "Bip01 R Forearm" 25
 27 "Bip01 R Hand" 26
 28 "Bip01 R Finger0" 27
 29 "Bip01 R Finger01" 28
 30 "Bip01 R Finger02" 29
 31 "Bip01 R Finger1" 27
 32 "Bip01 R Finger11" 31
 33 "Bip01 R Finger12" 32
 34 "Bip01 R Finger2" 27
 35 "Bip01 R Finger21" 34
 36 "Bip01 R Finger22" 35
 37 "Bip01 Head" 10
 38 "Bone05" 37
 39 "Bone08" 9
 40 "Bone16" 8
 41 "Bone01" 8
 42 "Bone03" 1
 43 "Bip01 R Finger4" 27
end
skeleton
time 0
  0 0.420091 1.059590 41.444572 0.000000 0.000000 -1.570795
  1 -0.245774 0.000000 0.000000 -1.570795 -1.570451 0.000000
  2 -0.000007 0.000008 4.427393 -0.000301 -3.130353 -0.072680
  3 18.465939 0.000000 0.000000 0.000000 0.000000 -0.242123
  4 14.875443 0.000000 -0.000001 0.001118 -0.011190 0.169435
  5 0.000006 -0.000004 -4.427393 0.000303 3.130350 -0.072680
  6 18.465939 0.000000 0.000000 0.000000 0.000000 -0.242123
  7 14.875442 0.000000 0.000000 -0.001117 0.011190 0.169435
  8 2.255207 -0.007574 0.000003 -0.000004 -0.000001 0.000796
  9 9.514219 -0.009357 0.000000 0.000000 0.000000 0.000000
 10 11.751820 -0.001633 0.000000 0.000000 -0.000001 0.239386
 11 -2.133122 0.444673 2.649729 0.088019 -1.370041 2.815150
 12 4.640941 0.000000 -0.000001 -0.049954 1.052208 -0.032367
 13 10.828049 0.000000 0.000000 0.000000 0.000000 -0.409440
 14 9.393337 -0.000001 0.000000 -1.569611 0.000000 0.165806
 15 1.442245 0.107454 -1.746177 1.585944 0.550080 0.132382
 16 1.063452 0.000000 0.000001 0.000000 0.000000 0.183260
 17 1.376307 -0.000001 0.000001 0.000000 0.000000 0.148353
 18 4.172846 -0.251366 -1.312744 -0.001190 0.096055 0.052246
 19 1.215374 0.000002 0.000000 0.000000 0.000000 0.052360
 20 1.215371 -0.000002 0.000001 0.000000 0.000000 0.052360
 21 4.220534 -0.244854 -0.431465 -0.001184 0.026242 0.052329
 22 1.350417 0.000000 0.000001 0.000000 0.000000 0.052360
 23 1.350410 -0.000001 -0.000001 0.000000 0.000000 0.052360
 24 -2.133122 0.444686 -2.649726 -0.088046 1.370039 2.815124
 25 4.640942 0.000000 0.000001 0.049954 -1.052208 -0.032367
 26 10.828047 0.000000 0.000001 0.000000 0.000000 -0.409440
 27 9.393339 0.000000 0.000000 1.569611 0.000000 0.165806
 28 1.442245 0.107455 1.746178 -1.585943 -0.550079 0.132381
 29 1.063450 -0.000001 0.000000 0.000000 0.000000 0.183260
 30 1.376307 0.000000 0.000000 0.000000 0.000000 0.148353
 31 4.172847 -0.251365 1.312745 0.001190 -0.096055 0.052246
 32 1.215373 -0.000001 0.000000 0.000000 0.000000 0.052360
 33 1.215372 0.000000 0.000000 0.000000 0.000000 0.052360
 34 4.220534 -0.244853 0.431466 0.001184 -0.026242 0.052329
 35 1.350416 0.000000 -0.000001 0.000000 0.000000 0.052360
 36 1.350410 0.000000 0.000001 0.000000 0.000000 0.052360
 37 2.110540 -0.000001 0.000000 0.000000 0.000000 -0.083184
 38 0.891923 2.373051 -0.014527 -3.141592 -0.000001 1.413797
 39 7.228122 5.709445 3.726568 3.140796 -1.570796 0.000000
 40 2.450426 5.076128 0.001325 3.140791 -1.570796 0.000000
 41 6.312404 -4.528058 0.001311 3.140791 -1.570796 0.000000
 42 2.233309 1.152535 -7.309138 -1.570796 -1.570796 0.000000
 43 4.262825 -0.232720 -1.392178 0.001188 0.078478 0.052453
end
triangles
w_beretta.bmp
 27 -13.878965 -5.554043 37.739655 0.527012 0.826518 -0.197804 0.531250 0.603175
 27 -14.102860 -5.625885 37.572296 -0.660706 0.621806 -0.420504 0.515625 0.603175
 27 -14.030930 -5.553414 37.789722 -0.464695 0.814392 0.347597 0.531250 0.603175
w_beretta.bmp
 27 -14.030930 -5.553414 37.789722 -0.464695 0.814392 0.347597 0.531250 0.603175
 27 -14.102860 -5.625885 37.572296 -0.660706 0.621806 -0.420504 0.515625 0.603175
 27 -14.007541 -5.981556 38.089802 -0.870703 -0.397501 -0.289601 0.546875 0.666667
w_beretta.bmp
 27 -14.102860 -5.625885 37.572296 -0.660706 0.621806 -0.420504 0.515625 0.603175
 27 -13.950896 -5.626513 37.522232 0.272211 -0.317813 -0.908238 0.515625 0.603175
 27 -14.007541 -5.981556 38.089802 -0.870703 -0.397501 -0.289601 0.546875 0.666667
w_beretta.bmp
 27 -14.007541 -5.981556 38.089802 -0.870703 -0.397501 -0.289601 0.546875 0.666667
 27 -13.950896 -5.626513 37.522232 0.272211 -0.317813 -0.908238 0.515625 0.603175
 27 -13.751101 -5.982617 38.005318 0.505999 -0.259100 -0.822698 0.546875 0.666667
w_beretta.bmp
 27 -13.950896 -5.626513 37.522232 0.272211 -0.317813 -0.908238 0.515625 0.603175
 27 -13.878965 -5.554043 37.739655 0.527012 0.826518 -0.197804 0.531250 0.603175
 27 -13.751101 -5.982617 38.005318 0.505999 -0.259100 -0.822698 0.546875 0.666667
w_beretta.bmp
 27 -13.751101 -5.982617 38.005318 0.505999 -0.259100 -0.822698 0.546875 0.666667
 27 -13.878965 -5.554043 37.739655 0.527012 0.826518 -0.197804 0.531250 0.603175
 27 -13.652583 -5.918161 38.303543 0.811239 0.548526 0.202510 0.578125 0.666667
w_beretta.bmp
 27 -13.878965 -5.554043 37.739655 0.527012 0.826518 -0.197804 0.531250 0.603175
 27 -14.030930 -5.553414 37.789722 -0.464695 0.814392 0.347597 0.531250 0.603175
 27 -13.652583 -5.918161 38.303543 0.811239 0.548526 0.202510 0.578125 0.666667
w_beretta.bmp
 27 -13.652583 -5.918161 38.303543 0.811239 0.548526 0.202510 0.578125 0.666667
 27 -14.030930 -5.553414 37.789722 -0.464695 0.814392 0.347597 0.531250 0.603175
 27 -13.909023 -5.917100 38.388027 -0.515598 0.486098 0.705597 0.578125 0.666667
w_beretta.bmp
 27 -14.030930 -5.553414 37.789722 -0.464695 0.814392 0.347597 0.531250 0.603175
 27 -14.007541 -5.981556 38.089802 -0.870703 -0.397501 -0.289601 0.546875 0.666667
 27 -13.909023 -5.917100 38.388027 -0.515598 0.486098 0.705597 0.578125 0.666667
w_beretta.bmp
 27 -13.909023 -5.917100 38.388027 -0.515598 0.486098 0.705597 0.578125 0.666667
 27 -14.007541 -5.981556 38.089802 -0.870703 -0.397501 -0.289601 0.546875 0.666667
 27 -13.975812 -6.532498 38.193027 -0.829866 -0.459381 -0.316687 0.546875 0.730159
w_beretta.bmp
 27 -14.007541 -5.981556 38.089802 -0.870703 -0.397501 -0.289601 0.546875 0.666667
 27 -13.751101 -5.982617 38.005318 0.505999 -0.259100 -0.822698 0.546875 0.666667
 27 -13.975812 -6.532498 38.193027 -0.829866 -0.459381 -0.316687 0.546875 0.730159
w_beretta.bmp
 27 -13.975812 -6.532498 38.193027 -0.829866 -0.459381 -0.316687 0.546875 0.730159
 27 -13.751101 -5.982617 38.005318 0.505999 -0.259100 -0.822698 0.546875 0.666667
 27 -13.716343 -6.530942 38.117710 0.625794 -0.724194 -0.289697 0.546875 0.730159
w_beretta.bmp
 27 -13.751101 -5.982617 38.005318 0.505999 -0.259100 -0.822698 0.546875 0.666667
 27 -13.652583 -5.918161 38.303543 0.811239 0.548526 0.202510 0.578125 0.666667
 27 -13.716343 -6.530942 38.117710 0.625794 -0.724194 -0.289697 0.546875 0.730159
w_beretta.bmp
 27 -13.716343 -6.530942 38.117710 0.625794 -0.724194 -0.289697 0.546875 0.730159
 27 -13.652583 -5.918161 38.303543 0.811239 0.548526 0.202510 0.578125 0.666667
 27 -13.578268 -6.351774 38.566525 0.686204 0.048300 0.725804 0.609375 0.730159
w_beretta.bmp
 27 -13.652583 -5.918161 38.303543 0.811239 0.548526 0.202510 0.578125 0.666667
 27 -13.909023 -5.917100 38.388027 -0.515598 0.486098 0.705597 0.578125 0.666667
 27 -13.578268 -6.351774 38.566525 0.686204 0.048300 0.725804 0.609375 0.730159
w_beretta.bmp
 27 -13.578268 -6.351774 38.566525 0.686204 0.048300 0.725804 0.609375 0.730159
 27 -13.909023 -5.917100 38.388027 -0.515598 0.486098 0.705597 0.578125 0.666667
 27 -13.838520 -6.343678 38.639347 -0.215600 -0.578600 0.786600 0.609375 0.730159
w_beretta.bmp
 27 -13.909023 -5.917100 38.388027 -0.515598 0.486098 0.705597 0.578125 0.666667
 27 -13.975812 -6.532498 38.193027 -0.829866 -0.459381 -0.316687 0.546875 0.730159
 27 -13.838520 -6.343678 38.639347 -0.215600 -0.578600 0.786600 0.609375 0.730159
w_beretta.bmp
 27 -13.838520 -6.343678 38.639347 -0.215600 -0.578600 0.786600 0.609375 0.730159
 27 -13.975812 -6.532498 38.193027 -0.829866 -0.459381 -0.316687 0.546875 0.730159
 27 -13.716343 -6.530942 38.117710 0.625794 -0.724194 -0.289697 0.546875 0.730159
w_beretta.bmp
 27 -13.183544 -7.914619 38.729645 0.952293 -0.216399 -0.215198 0.093750 0.746032
 27 -13.393209 -8.253192 38.928413 0.388312 -0.889128 0.242208 0.046875 0.746032
 27 -14.878397 -10.184746 34.252846 0.524497 -0.822096 -0.221499 0.046875 0.015873
w_beretta.bmp
 27 -14.878397 -10.184746 34.252846 0.524497 -0.822096 -0.221499 0.046875 0.015873
 27 -13.393209 -8.253192 38.928413 0.388312 -0.889128 0.242208 0.046875 0.746032
 27 -15.366596 -10.175707 34.400768 -0.327179 -0.926439 -0.186188 0.000000 0.015873
w_beretta.bmp
 27 -13.393209 -8.253192 38.928413 0.388312 -0.889128 0.242208 0.046875 0.746032
 27 -13.868097 -8.251226 39.084866 -0.506110 -0.728413 0.461808 0.000000 0.746032
 27 -15.366596 -10.175707 34.400768 -0.327179 -0.926439 -0.186188 0.000000 0.015873
w_beretta.bmp
 27 -15.366596 -10.175707 34.400768 -0.327179 -0.926439 -0.186188 0.000000 0.015873
 27 -13.868097 -8.251226 39.084866 -0.506110 -0.728413 0.461808 0.000000 0.746032
 27 -15.634850 -9.837787 34.349285 -0.888708 -0.379803 -0.256802 0.093750 0.015873
w_beretta.bmp
 27 -13.868097 -8.251226 39.084866 -0.506110 -0.728413 0.461808 0.000000 0.746032
 27 -14.137134 -7.903655 39.030888 -0.952293 0.216399 0.215198 0.093750 0.746032
 27 -15.634850 -9.837787 34.349285 -0.888708 -0.379803 -0.256802 0.093750 0.015873
w_beretta.bmp
 27 -15.634850 -9.837787 34.349285 -0.888708 -0.379803 -0.256802 0.093750 0.015873
 27 -14.137134 -7.903655 39.030888 -0.952293 0.216399 0.215198 0.093750 0.746032
 27 -15.438495 -9.492142 34.141983 -0.702567 0.377283 -0.603372 0.218750 0.015873
w_beretta.bmp
 27 -14.137134 -7.903655 39.030888 -0.952293 0.216399 0.215198 0.093750 0.746032
 27 -13.939997 -7.567661 38.826080 -0.388312 0.889128 -0.242208 0.218750 0.746032
 27 -15.438495 -9.492142 34.141983 -0.702567 0.377283 -0.603372 0.218750 0.015873
w_beretta.bmp
 27 -15.438495 -9.492142 34.141983 -0.702567 0.377283 -0.603372 0.218750 0.015873
 27 -13.939997 -7.567661 38.826080 -0.388312 0.889128 -0.242208 0.218750 0.746032
 27 -14.959794 -9.501141 33.997192 0.086103 0.700319 -0.708619 0.187500 0.015873
w_beretta.bmp
 27 -13.939997 -7.567661 38.826080 -0.388312 0.889128 -0.242208 0.218750 0.746032
 27 -13.465108 -7.569626 38.669628 0.506110 0.728413 -0.461808 0.187500 0.746032
 27 -14.959794 -9.501141 33.997192 0.086103 0.700319 -0.708619 0.187500 0.015873
w_beretta.bmp
 27 -14.959794 -9.501141 33.997192 0.086103 0.700319 -0.708619 0.187500 0.015873
 27 -13.465108 -7.569626 38.669628 0.506110 0.728413 -0.461808 0.187500 0.746032
 27 -14.681260 -9.848751 34.048042 0.247909 -0.203207 -0.947232 0.093750 0.015873
w_beretta.bmp
 27 -13.465108 -7.569626 38.669628 0.506110 0.728413 -0.461808 0.187500 0.746032
 27 -13.183544 -7.914619 38.729645 0.952293 -0.216399 -0.215198 0.093750 0.746032
 27 -14.681260 -9.848751 34.048042 0.247909 -0.203207 -0.947232 0.093750 0.015873
w_beretta.bmp
 27 -14.681260 -9.848751 34.048042 0.247909 -0.203207 -0.947232 0.093750 0.015873
 27 -13.183544 -7.914619 38.729645 0.952293 -0.216399 -0.215198 0.093750 0.746032
 27 -14.878397 -10.184746 34.252846 0.524497 -0.822096 -0.221499 0.046875 0.015873
w_beretta.bmp
 27 -15.650784 -8.967710 34.673496 -0.938155 0.335720 -0.084605 0.078125 0.825397
 27 -14.493928 -8.986533 34.318203 0.686912 0.034700 -0.725912 0.000000 0.825397
 27 -15.547292 -9.997864 35.064484 -0.762776 -0.512783 -0.393987 0.078125 0.968254
w_beretta.bmp
 27 -15.547292 -9.997864 35.064484 -0.762776 -0.512783 -0.393987 0.078125 0.968254
 27 -14.493928 -8.986533 34.318203 0.686912 0.034700 -0.725912 0.000000 0.825397
 27 -14.381722 -10.007075 34.703568 0.458499 -0.714099 -0.528999 0.000000 0.968254
w_beretta.bmp
 27 -14.493928 -8.986533 34.318203 0.686912 0.034700 -0.725912 0.000000 0.825397
 27 -14.268637 -9.083160 35.035217 0.932983 -0.348694 0.089198 0.078125 0.873016
 27 -14.381722 -10.007075 34.703568 0.458499 -0.714099 -0.528999 0.000000 0.968254
w_beretta.bmp
 27 -14.381722 -10.007075 34.703568 0.458499 -0.714099 -0.528999 0.000000 0.968254
 27 -14.268637 -9.083160 35.035217 0.932983 -0.348694 0.089198 0.078125 0.873016
 27 -14.283306 -10.058396 35.034897 0.644832 -0.752838 0.132007 0.031250 0.984127
w_beretta.bmp
 27 -14.268637 -9.083160 35.035217 0.932983 -0.348694 0.089198 0.078125 0.873016
 27 -14.207869 -9.869291 35.261501 0.627609 -0.076001 0.774811 0.078125 0.968254
 27 -14.283306 -10.058396 35.034897 0.644832 -0.752838 0.132007 0.031250 0.984127
w_beretta.bmp
 27 -14.283306 -10.058396 35.034897 0.644832 -0.752838 0.132007 0.031250 0.984127
 27 -14.207869 -9.869291 35.261501 0.627609 -0.076001 0.774811 0.078125 0.968254
 27 -15.360911 -9.857502 35.628452 -0.112699 -0.464094 0.878588 0.078125 0.968254
w_beretta.bmp
 27 -14.207869 -9.869291 35.261501 0.627609 -0.076001 0.774811 0.078125 0.968254
 27 -15.434207 -9.073949 35.396133 -0.679127 -0.065102 0.731128 0.078125 0.873016
 27 -15.360911 -9.857502 35.628452 -0.112699 -0.464094 0.878588 0.078125 0.968254
w_beretta.bmp
 27 -15.360911 -9.857502 35.628452 -0.112699 -0.464094 0.878588 0.078125 0.968254
 27 -15.434207 -9.073949 35.396133 -0.679127 -0.065102 0.731128 0.078125 0.873016
 27 -15.436349 -10.046606 35.401852 -0.535018 -0.800227 0.270909 0.031250 0.984127
w_beretta.bmp
 27 -15.434207 -9.073949 35.396133 -0.679127 -0.065102 0.731128 0.078125 0.873016
 27 -15.547292 -9.997864 35.064484 -0.762776 -0.512783 -0.393987 0.000000 0.968254
 27 -15.436349 -10.046606 35.401852 -0.535018 -0.800227 0.270909 0.031250 0.984127
w_beretta.bmp
 27 -13.220182 -5.025340 38.134724 0.692513 0.424608 -0.583210 0.937500 0.063492
 27 -13.758525 -5.086175 37.588020 0.556693 0.595993 -0.578693 0.843750 0.063492
 27 -14.264936 -5.086709 37.744694 -0.759053 0.648760 -0.054297 0.843750 0.015873
w_beretta.bmp
 27 -14.264936 -5.086709 37.744694 -0.759053 0.648760 -0.054297 0.843750 0.015873
 27 -13.758525 -5.086175 37.588020 0.556693 0.595993 -0.578693 0.843750 0.063492
 27 -14.495639 -5.562783 37.018452 -0.828816 0.510510 -0.229004 0.671875 0.015873
w_beretta.bmp
 27 -13.758525 -5.086175 37.588020 0.556693 0.595993 -0.578693 0.843750 0.063492
 36 -13.986813 -5.563453 36.858994 0.521482 0.395486 -0.756074 0.671875 0.063492
 27 -14.495639 -5.562783 37.018452 -0.828816 0.510510 -0.229004 0.671875 0.015873
w_beretta.bmp
 27 -14.495639 -5.562783 37.018452 -0.828816 0.510510 -0.229004 0.671875 0.015873
 36 -13.986813 -5.563453 36.858994 0.521482 0.395486 -0.756074 0.671875 0.063492
 27 -14.562838 -6.013290 36.820141 -0.798657 0.141693 -0.584868 0.593750 0.015873
w_beretta.bmp
 36 -13.986813 -5.563453 36.858994 0.521482 0.395486 -0.756074 0.671875 0.063492
 33 -14.052996 -6.025130 36.666420 0.311992 -0.098398 -0.944976 0.593750 0.063492
 27 -14.562838 -6.013290 36.820141 -0.798657 0.141693 -0.584868 0.593750 0.015873
w_beretta.bmp
 27 -14.562838 -6.013290 36.820141 -0.798657 0.141693 -0.584868 0.593750 0.015873
 33 -14.052996 -6.025130 36.666420 0.311992 -0.098398 -0.944976 0.593750 0.063492
 27 -14.486138 -6.638988 37.060806 -0.874662 0.229090 -0.427181 0.578125 0.015873
w_beretta.bmp
 33 -14.052996 -6.025130 36.666420 0.311992 -0.098398 -0.944976 0.593750 0.063492
 27 -13.991471 -6.650682 36.900593 0.451693 0.347095 -0.821887 0.578125 0.063492
 27 -14.486138 -6.638988 37.060806 -0.874662 0.229090 -0.427181 0.578125 0.015873
w_beretta.bmp
 27 -14.486138 -6.638988 37.060806 -0.874662 0.229090 -0.427181 0.578125 0.015873
 27 -13.991471 -6.650682 36.900593 0.451693 0.347095 -0.821887 0.578125 0.063492
 27 -14.890660 -7.104765 36.989300 -0.763498 0.494399 -0.415499 0.500000 0.015873
w_beretta.bmp
 27 -13.991471 -6.650682 36.900593 0.451693 0.347095 -0.821887 0.578125 0.063492
 27 -13.717839 -7.126285 36.618587 0.414918 0.545723 -0.728031 0.500000 0.063492
 27 -14.890660 -7.104765 36.989300 -0.763498 0.494399 -0.415499 0.500000 0.015873
w_beretta.bmp
 27 -14.486138 -6.638988 37.060806 -0.874662 0.229090 -0.427181 0.406250 0.698413
 27 -14.461868 -6.019011 37.126690 -0.494494 -0.026100 0.868789 0.437500 0.619048
 27 -14.562838 -6.013290 36.820141 -0.798657 0.141693 -0.584868 0.406250 0.619048
w_beretta.bmp
 27 -14.562838 -6.013290 36.820141 -0.798657 0.141693 -0.584868 0.406250 0.619048
 27 -14.461868 -6.019011 37.126690 -0.494494 -0.026100 0.868789 0.437500 0.619048
 27 -14.495639 -5.562783 37.018452 -0.828816 0.510510 -0.229004 0.437500 0.571429
w_beretta.bmp
 27 -14.461868 -6.019011 37.126690 -0.494494 -0.026100 0.868789 0.437500 0.619048
 27 -14.408049 -5.683339 37.285835 -0.545493 -0.518993 0.658091 0.453125 0.603175
 27 -14.495639 -5.562783 37.018452 -0.828816 0.510510 -0.229004 0.437500 0.571429
w_beretta.bmp
 27 -14.495639 -5.562783 37.018452 -0.828816 0.510510 -0.229004 0.437500 0.571429
 27 -14.408049 -5.683339 37.285835 -0.545493 -0.518993 0.658091 0.453125 0.603175
 27 -14.264936 -5.086709 37.744694 -0.759053 0.648760 -0.054297 0.609375 0.555556
w_beretta.bmp
 27 -14.408049 -5.683339 37.285835 -0.545493 -0.518993 0.658091 0.453125 0.603175
 27 -14.219932 -5.324595 37.852329 -0.794382 -0.592386 0.134297 0.609375 0.587302
 27 -14.264936 -5.086709 37.744694 -0.759053 0.648760 -0.054297 0.609375 0.555556
w_beretta.bmp
 27 -14.264936 -5.086709 37.744694 -0.759053 0.648760 -0.054297 0.609375 0.555556
 27 -14.219932 -5.324595 37.852329 -0.794382 -0.592386 0.134297 0.609375 0.587302
 27 -14.385752 -5.016129 38.495644 -0.917257 0.341721 -0.204613 0.671875 0.571429
w_beretta.bmp
 27 -14.219932 -5.324595 37.852329 -0.794382 -0.592386 0.134297 0.609375 0.587302
 27 -14.386977 -5.283625 38.463326 -0.596187 -0.793782 -0.120297 0.640625 0.603175
 27 -14.385752 -5.016129 38.495644 -0.917257 0.341721 -0.204613 0.671875 0.571429
w_beretta.bmp
 27 -14.385752 -5.016129 38.495644 -0.917257 0.341721 -0.204613 0.671875 0.571429
 27 -14.386977 -5.283625 38.463326 -0.596187 -0.793782 -0.120297 0.640625 0.603175
 27 -14.307897 -5.496238 38.737995 -0.838713 -0.468207 -0.278104 0.656250 0.634921
w_beretta.bmp
 27 -13.491256 -6.236701 41.385883 -0.761983 -0.329192 0.557687 0.890625 0.825397
 27 -14.469146 -9.020840 34.297981 0.608310 -0.749313 -0.261704 0.062500 0.809524
 27 -12.328715 -6.248529 41.015800 0.967172 -0.217394 0.131596 0.890625 0.825397
w_beretta.bmp
 27 -13.491256 -6.236701 41.385883 -0.761983 -0.329192 0.557687 0.890625 0.825397
 27 -15.641184 -9.008972 34.671196 -0.791218 -0.546812 -0.273806 0.062500 0.809524
 27 -14.469146 -9.020840 34.297981 0.608310 -0.749313 -0.261704 0.062500 0.809524
w_beretta.bmp
 27 -13.491256 -6.236701 41.385883 -0.761983 -0.329192 0.557687 0.890625 0.825397
 27 -15.046198 -7.588197 36.491302 -0.797616 0.575712 -0.179904 0.328125 0.761905
 27 -15.641184 -9.008972 34.671196 -0.791218 -0.546812 -0.273806 0.062500 0.809524
w_beretta.bmp
 27 -13.491256 -6.236701 41.385883 -0.761983 -0.329192 0.557687 0.890625 0.825397
 27 -14.890660 -7.104765 36.989300 -0.763498 0.494399 -0.415499 0.375000 0.730159
 27 -15.046198 -7.588197 36.491302 -0.797616 0.575712 -0.179904 0.328125 0.761905
w_beretta.bmp
 27 -13.491256 -6.236701 41.385883 -0.761983 -0.329192 0.557687 0.890625 0.825397
 27 -14.616315 -6.772721 37.785908 -0.524680 0.841269 0.130295 0.453125 0.730159
 27 -14.890660 -7.104765 36.989300 -0.763498 0.494399 -0.415499 0.375000 0.730159
w_beretta.bmp
 27 -13.491256 -6.236701 41.385883 -0.761983 -0.329192 0.557687 0.890625 0.825397
 32 -14.300247 -6.364188 38.788189 -0.974092 0.223299 0.035800 0.640625 0.730159
 27 -14.616315 -6.772721 37.785908 -0.524680 0.841269 0.130295 0.453125 0.730159
w_beretta.bmp
 27 -13.491256 -6.236701 41.385883 -0.761983 -0.329192 0.557687 0.890625 0.825397
 27 -13.471172 -5.764930 41.440918 -0.489301 -0.200300 0.848802 0.921875 0.793651
 32 -14.300247 -6.364188 38.788189 -0.974092 0.223299 0.035800 0.640625 0.730159
w_beretta.bmp
 33 -14.052996 -6.025130 36.666420 0.311992 -0.098398 -0.944976 0.421875 0.619048
 36 -13.986813 -5.563453 36.858994 0.521482 0.395486 -0.756074 0.437500 0.571429
 33 -13.960262 -6.034050 36.968781 0.991993 -0.031500 0.122299 0.421875 0.619048
w_beretta.bmp
 33 -13.960262 -6.034050 36.968781 0.991993 -0.031500 0.122299 0.421875 0.619048
 36 -13.986813 -5.563453 36.858994 0.521482 0.395486 -0.756074 0.437500 0.571429
 27 -13.901637 -5.682804 37.129158 0.847497 -0.430799 0.310099 0.453125 0.587302
w_beretta.bmp
 36 -13.986813 -5.563453 36.858994 0.521482 0.395486 -0.756074 0.437500 0.571429
 27 -13.758525 -5.086175 37.588020 0.556693 0.595993 -0.578693 0.609375 0.555556
 27 -13.901637 -5.682804 37.129158 0.847497 -0.430799 0.310099 0.453125 0.587302
w_beretta.bmp
 27 -13.901637 -5.682804 37.129158 0.847497 -0.430799 0.310099 0.453125 0.587302
 27 -13.758525 -5.086175 37.588020 0.556693 0.595993 -0.578693 0.609375 0.555556
 27 -13.725266 -5.336290 37.692116 0.554115 -0.821923 -0.131904 0.593750 0.571429
w_beretta.bmp
 27 -13.758525 -5.086175 37.588020 0.556693 0.595993 -0.578693 0.609375 0.555556
 27 -13.220182 -5.025340 38.134724 0.692513 0.424608 -0.583210 0.671875 0.571429
 27 -13.725266 -5.336290 37.692116 0.554115 -0.821923 -0.131904 0.593750 0.571429
w_beretta.bmp
 27 -13.725266 -5.336290 37.692116 0.554115 -0.821923 -0.131904 0.593750 0.571429
 27 -13.220182 -5.025340 38.134724 0.692513 0.424608 -0.583210 0.671875 0.571429
 27 -13.233934 -5.295414 38.096375 0.344300 -0.717600 -0.605400 0.640625 0.603175
w_beretta.bmp
 27 -13.220182 -5.025340 38.134724 0.692513 0.424608 -0.583210 0.671875 0.571429
 32 -13.144913 -5.523475 38.373817 0.504406 -0.360504 -0.784609 0.656250 0.634921
 27 -13.233934 -5.295414 38.096375 0.344300 -0.717600 -0.605400 0.640625 0.603175
w_beretta.bmp
 27 -14.525589 -8.447855 34.087502 0.117001 0.077401 -0.990111 0.062500 0.761905
 27 -13.879845 -7.607059 36.132881 0.585006 0.608306 -0.536406 0.328125 0.761905
 27 -14.469146 -9.020840 34.297981 0.608310 -0.749313 -0.261704 0.062500 0.809524
w_beretta.bmp
 27 -14.469146 -9.020840 34.297981 0.608310 -0.749313 -0.261704 0.062500 0.809524
 27 -13.879845 -7.607059 36.132881 0.585006 0.608306 -0.536406 0.328125 0.761905
 27 -12.328715 -6.248529 41.015800 0.967172 -0.217394 0.131596 0.890625 0.825397
w_beretta.bmp
 27 -13.879845 -7.607059 36.132881 0.585006 0.608306 -0.536406 0.328125 0.761905
 27 -13.717839 -7.126285 36.618587 0.414918 0.545723 -0.728031 0.375000 0.730159
 27 -12.328715 -6.248529 41.015800 0.967172 -0.217394 0.131596 0.890625 0.825397
w_beretta.bmp
 27 -12.328715 -6.248529 41.015800 0.967172 -0.217394 0.131596 0.890625 0.825397
 27 -13.717839 -7.126285 36.618587 0.414918 0.545723 -0.728031 0.375000 0.730159
 27 -13.460243 -6.781893 37.428116 0.674086 0.681585 -0.284694 0.453125 0.730159
w_beretta.bmp
 27 -13.717839 -7.126285 36.618587 0.414918 0.545723 -0.728031 0.375000 0.730159
 27 -13.991471 -6.650682 36.900593 0.451693 0.347095 -0.821887 0.421875 0.698413
 27 -13.460243 -6.781893 37.428116 0.674086 0.681585 -0.284694 0.453125 0.730159
w_beretta.bmp
 27 -13.460243 -6.781893 37.428116 0.674086 0.681585 -0.284694 0.453125 0.730159
 27 -13.991471 -6.650682 36.900593 0.451693 0.347095 -0.821887 0.421875 0.698413
 33 -13.899220 -6.582554 37.177628 0.530406 0.718008 0.450705 0.421875 0.698413
w_beretta.bmp
 27 -13.991471 -6.650682 36.900593 0.451693 0.347095 -0.821887 0.421875 0.698413
 33 -13.960262 -6.034050 36.968781 0.991993 -0.031500 0.122299 0.421875 0.619048
 33 -13.899220 -6.582554 37.177628 0.530406 0.718008 0.450705 0.421875 0.698413
w_beretta.bmp
 29 -12.507395 -4.964709 40.399227 0.985569 0.110196 0.128496 0.875000 0.666667
 27 -13.167622 -4.794033 38.291359 0.511811 0.231505 -0.827318 0.687500 0.555556
 27 -12.558579 -2.307685 40.140751 0.967020 0.157703 0.200004 0.968750 0.380952
w_beretta.bmp
 29 -12.507395 -4.964709 40.399227 0.985569 0.110196 0.128496 0.875000 0.666667
 27 -13.220182 -5.025340 38.134724 0.692513 0.424608 -0.583210 0.671875 0.571429
 27 -13.167622 -4.794033 38.291359 0.511811 0.231505 -0.827318 0.687500 0.555556
w_beretta.bmp
 29 -12.507395 -4.964709 40.399227 0.985569 0.110196 0.128496 0.875000 0.666667
 32 -13.144913 -5.523475 38.373817 0.504406 -0.360504 -0.784609 0.656250 0.634921
 27 -13.220182 -5.025340 38.134724 0.692513 0.424608 -0.583210 0.671875 0.571429
w_beretta.bmp
 29 -12.507395 -4.964709 40.399227 0.985569 0.110196 0.128496 0.875000 0.666667
 27 -13.112096 -5.915181 38.505939 0.478087 -0.058298 -0.876376 0.656250 0.682540
 32 -13.144913 -5.523475 38.373817 0.504406 -0.360504 -0.784609 0.656250 0.634921
w_beretta.bmp
 29 -12.507395 -4.964709 40.399227 0.985569 0.110196 0.128496 0.875000 0.666667
 32 -13.140707 -6.370129 38.425381 0.651787 0.359493 -0.667786 0.640625 0.730159
 27 -13.112096 -5.915181 38.505939 0.478087 -0.058298 -0.876376 0.656250 0.682540
w_beretta.bmp
 29 -12.507395 -4.964709 40.399227 0.985569 0.110196 0.128496 0.875000 0.666667
 27 -12.417738 -5.393858 40.702892 0.892765 0.447382 0.053098 0.890625 0.730159
 32 -13.140707 -6.370129 38.425381 0.651787 0.359493 -0.667786 0.640625 0.730159
w_beretta.bmp
 27 -13.680806 -4.942163 40.762310 -0.741617 0.200005 0.640314 0.875000 0.682540
 32 -14.300247 -6.364188 38.788189 -0.974092 0.223299 0.035800 0.640625 0.730159
 27 -13.580278 -5.382029 41.072971 -0.746511 0.546809 0.379106 0.890625 0.730159
w_beretta.bmp
 27 -13.680806 -4.942163 40.762310 -0.741617 0.200005 0.640314 0.875000 0.682540
 27 -14.265138 -5.903391 38.872894 -0.704728 -0.060102 -0.706928 0.656250 0.682540
 32 -14.300247 -6.364188 38.788189 -0.974092 0.223299 0.035800 0.640625 0.730159
w_beretta.bmp
 27 -13.680806 -4.942163 40.762310 -0.741617 0.200005 0.640314 0.875000 0.682540
 27 -14.307897 -5.496238 38.737995 -0.838713 -0.468207 -0.278104 0.656250 0.634921
 27 -14.265138 -5.903391 38.872894 -0.704728 -0.060102 -0.706928 0.656250 0.682540
w_beretta.bmp
 27 -13.680806 -4.942163 40.762310 -0.741617 0.200005 0.640314 0.875000 0.682540
 27 -14.385752 -5.016129 38.495644 -0.917257 0.341721 -0.204613 0.671875 0.571429
 27 -14.307897 -5.496238 38.737995 -0.838713 -0.468207 -0.278104 0.656250 0.634921
w_beretta.bmp
 27 -13.680806 -4.942163 40.762310 -0.741617 0.200005 0.640314 0.875000 0.682540
 27 -14.342690 -4.784783 38.655407 -0.903318 0.053601 -0.425609 0.687500 0.555556
 27 -14.385752 -5.016129 38.495644 -0.917257 0.341721 -0.204613 0.671875 0.571429
w_beretta.bmp
 27 -13.680806 -4.942163 40.762310 -0.741617 0.200005 0.640314 0.875000 0.682540
 27 -13.724150 -2.298474 40.501667 -0.670220 0.118004 0.732721 0.953125 0.380952
 27 -14.342690 -4.784783 38.655407 -0.903318 0.053601 -0.425609 0.687500 0.555556
w_beretta.bmp
 27 -13.531253 -7.256556 41.341206 -0.131493 -0.692062 0.709761 0.875000 0.952381
 27 -13.470216 -6.770061 41.520363 -0.600704 -0.098301 0.793405 0.921875 0.904762
 27 -13.797257 -7.734227 40.539787 -0.594680 -0.636779 0.490783 0.765625 0.968254
w_beretta.bmp
 27 -13.797257 -7.734227 40.539787 -0.594680 -0.636779 0.490783 0.765625 0.968254
 27 -13.470216 -6.770061 41.520363 -0.600704 -0.098301 0.793405 0.921875 0.904762
 27 -14.335192 -7.665994 38.810226 -0.850493 -0.476796 0.222098 0.546875 0.873016
w_beretta.bmp
 27 -13.470216 -6.770061 41.520363 -0.600704 -0.098301 0.793405 0.921875 0.904762
 27 -15.650784 -8.967710 34.673496 -0.938155 0.335720 -0.084605 0.000000 0.825397
 27 -14.335192 -7.665994 38.810226 -0.850493 -0.476796 0.222098 0.546875 0.873016
w_beretta.bmp
 27 -14.335192 -7.665994 38.810226 -0.850493 -0.476796 0.222098 0.546875 0.873016
 27 -15.650784 -8.967710 34.673496 -0.938155 0.335720 -0.084605 0.000000 0.825397
 27 -15.434207 -9.073949 35.396133 -0.679127 -0.065102 0.731128 0.078125 0.873016
w_beretta.bmp
 27 -15.650784 -8.967710 34.673496 -0.938155 0.335720 -0.084605 0.000000 0.825397
 27 -15.547292 -9.997864 35.064484 -0.762776 -0.512783 -0.393987 0.000000 0.968254
 27 -15.434207 -9.073949 35.396133 -0.679127 -0.065102 0.731128 0.078125 0.873016
w_beretta.bmp
 27 -12.417738 -5.393858 40.702892 0.892765 0.447382 0.053098 0.500000 0.253968
 29 -12.507395 -4.964709 40.399227 0.985569 0.110196 0.128496 0.546875 0.253968
 27 -13.680806 -4.942163 40.762310 -0.741617 0.200005 0.640314 0.546875 0.095238
w_beretta.bmp
 27 -13.680806 -4.942163 40.762310 -0.741617 0.200005 0.640314 0.546875 0.095238
 29 -12.507395 -4.964709 40.399227 0.985569 0.110196 0.128496 0.546875 0.253968
 27 -13.724150 -2.298474 40.501667 -0.670220 0.118004 0.732721 0.781250 0.095238
w_beretta.bmp
 29 -12.507395 -4.964709 40.399227 0.985569 0.110196 0.128496 0.546875 0.253968
 27 -12.558579 -2.307685 40.140751 0.967020 0.157703 0.200004 0.781250 0.253968
 27 -13.724150 -2.298474 40.501667 -0.670220 0.118004 0.732721 0.781250 0.095238
w_beretta.bmp
 27 -13.724150 -2.298474 40.501667 -0.670220 0.118004 0.732721 0.781250 0.095238
 27 -12.558579 -2.307685 40.140751 0.967020 0.157703 0.200004 0.781250 0.253968
 27 -13.827640 -1.582317 40.178543 -0.195497 0.718590 0.667390 0.859375 0.095238
w_beretta.bmp
 27 -12.558579 -2.307685 40.140751 0.967020 0.157703 0.200004 0.781250 0.253968
 27 -12.655602 -1.594185 39.805332 0.412398 0.910296 -0.035900 0.859375 0.253968
 27 -13.827640 -1.582317 40.178543 -0.195497 0.718590 0.667390 0.859375 0.095238
w_beretta.bmp
 27 -13.333413 -2.516407 37.695599 0.355195 -0.003300 -0.934786 0.828125 0.253968
 27 -13.241940 -3.284256 37.982895 0.286708 -0.219106 -0.932626 0.750000 0.253968
 27 -14.413978 -3.272388 38.356106 -0.770129 -0.253109 -0.585522 0.750000 0.095238
w_beretta.bmp
 27 -14.413978 -3.272388 38.356106 -0.770129 -0.253109 -0.585522 0.750000 0.095238
 27 -13.241940 -3.284256 37.982895 0.286708 -0.219106 -0.932626 0.750000 0.253968
 27 -14.342690 -4.784783 38.655407 -0.903318 0.053601 -0.425609 0.609375 0.095238
w_beretta.bmp
 27 -13.241940 -3.284256 37.982895 0.286708 -0.219106 -0.932626 0.750000 0.253968
 27 -13.167622 -4.794033 38.291359 0.511811 0.231505 -0.827318 0.609375 0.253968
 27 -14.342690 -4.784783 38.655407 -0.903318 0.053601 -0.425609 0.609375 0.095238
w_beretta.bmp
 27 -14.342690 -4.784783 38.655407 -0.903318 0.053601 -0.425609 0.609375 0.095238
 27 -13.167622 -4.794033 38.291359 0.511811 0.231505 -0.827318 0.609375 0.253968
 27 -14.385752 -5.016129 38.495644 -0.917257 0.341721 -0.204613 0.578125 0.095238
w_beretta.bmp
 27 -13.167622 -4.794033 38.291359 0.511811 0.231505 -0.827318 0.609375 0.253968
 27 -13.220182 -5.025340 38.134724 0.692513 0.424608 -0.583210 0.578125 0.253968
 27 -14.385752 -5.016129 38.495644 -0.917257 0.341721 -0.204613 0.578125 0.095238
w_beretta.bmp
 27 -14.425113 -2.298789 38.278122 -0.641377 0.742374 -0.193693 0.781250 0.285714
 27 -12.655602 -1.594185 39.805332 0.412398 0.910296 -0.035900 0.953125 0.285714
 43 -13.256912 -2.305470 37.915993 0.400505 0.674308 -0.620407 0.781250 0.285714
w_beretta.bmp
 27 -14.425113 -2.298789 38.278122 -0.641377 0.742374 -0.193693 0.781250 0.285714
 27 -13.827640 -1.582317 40.178543 -0.195497 0.718590 0.667390 0.953125 0.285714
 27 -12.655602 -1.594185 39.805332 0.412398 0.910296 -0.035900 0.953125 0.285714
w_beretta.bmp
 27 -14.425113 -2.298789 38.278122 -0.641377 0.742374 -0.193693 0.781250 0.285714
 27 -13.724150 -2.298474 40.501667 -0.670220 0.118004 0.732721 0.953125 0.380952
 27 -13.827640 -1.582317 40.178543 -0.195497 0.718590 0.667390 0.953125 0.285714
w_beretta.bmp
 27 -14.425113 -2.298789 38.278122 -0.641377 0.742374 -0.193693 0.781250 0.285714
 27 -14.495954 -2.504578 38.065678 -0.799219 0.352509 -0.486812 0.750000 0.285714
 27 -13.724150 -2.298474 40.501667 -0.670220 0.118004 0.732721 0.953125 0.380952
w_beretta.bmp
 27 -14.425113 -2.298789 38.278122 -0.641377 0.742374 -0.193693 0.781250 0.285714
 43 -13.256912 -2.305470 37.915993 0.400505 0.674308 -0.620407 0.781250 0.285714
 27 -14.495954 -2.504578 38.065678 -0.799219 0.352509 -0.486812 0.750000 0.285714
w_beretta.bmp
 27 -13.460243 -6.781893 37.428116 0.674086 0.681585 -0.284694 0.453125 0.730159
 32 -13.140707 -6.370129 38.425381 0.651787 0.359493 -0.667786 0.640625 0.730159
 27 -12.328715 -6.248529 41.015800 0.967172 -0.217394 0.131596 0.890625 0.825397
w_beretta.bmp
 27 -12.328715 -6.248529 41.015800 0.967172 -0.217394 0.131596 0.890625 0.825397
 32 -13.140707 -6.370129 38.425381 0.651787 0.359493 -0.667786 0.640625 0.730159
 27 -12.299134 -5.776797 41.067707 0.866801 -0.333301 0.370900 0.921875 0.793651
w_beretta.bmp
 32 -13.140707 -6.370129 38.425381 0.651787 0.359493 -0.667786 0.640625 0.730159
 27 -12.417738 -5.393858 40.702892 0.892765 0.447382 0.053098 0.890625 0.730159
 27 -12.299134 -5.776797 41.067707 0.866801 -0.333301 0.370900 0.921875 0.793651
w_beretta.bmp
 27 -12.299134 -5.776797 41.067707 0.866801 -0.333301 0.370900 0.921875 0.793651
 27 -12.417738 -5.393858 40.702892 0.892765 0.447382 0.053098 0.890625 0.730159
 27 -12.217944 -5.458791 41.310150 0.848619 0.480811 0.220605 0.953125 0.761905
w_beretta.bmp
 27 -12.417738 -5.393858 40.702892 0.892765 0.447382 0.053098 0.890625 0.730159
 27 -12.325177 -5.375860 40.983620 0.323999 0.943696 -0.066800 0.921875 0.746032
 27 -12.217944 -5.458791 41.310150 0.848619 0.480811 0.220605 0.953125 0.761905
w_beretta.bmp
 27 -14.408049 -5.683339 37.285835 -0.545493 -0.518993 0.658091 0.875000 0.015873
 27 -13.725266 -5.336290 37.692116 0.554115 -0.821923 -0.131904 0.687500 0.063492
 27 -14.219932 -5.324595 37.852329 -0.794382 -0.592386 0.134297 0.687500 0.015873
w_beretta.bmp
 27 -14.219932 -5.324595 37.852329 -0.794382 -0.592386 0.134297 0.687500 0.015873
 27 -13.725266 -5.336290 37.692116 0.554115 -0.821923 -0.131904 0.687500 0.063492
 27 -14.386977 -5.283625 38.463326 -0.596187 -0.793782 -0.120297 0.546875 0.015873
w_beretta.bmp
 27 -13.725266 -5.336290 37.692116 0.554115 -0.821923 -0.131904 0.687500 0.063492
 27 -13.233934 -5.295414 38.096375 0.344300 -0.717600 -0.605400 0.546875 0.063492
 27 -14.386977 -5.283625 38.463326 -0.596187 -0.793782 -0.120297 0.546875 0.015873
w_beretta.bmp
 27 -14.386977 -5.283625 38.463326 -0.596187 -0.793782 -0.120297 0.546875 0.015873
 27 -13.233934 -5.295414 38.096375 0.344300 -0.717600 -0.605400 0.546875 0.063492
 27 -14.307897 -5.496238 38.737995 -0.838713 -0.468207 -0.278104 0.500000 0.015873
w_beretta.bmp
 27 -13.233934 -5.295414 38.096375 0.344300 -0.717600 -0.605400 0.546875 0.063492
 32 -13.144913 -5.523475 38.373817 0.504406 -0.360504 -0.784609 0.500000 0.063492
 27 -14.307897 -5.496238 38.737995 -0.838713 -0.468207 -0.278104 0.500000 0.015873
w_beretta.bmp
 27 -12.350469 -6.211605 41.045185 0.455792 0.889584 -0.029899 0.921875 0.825397
 27 -12.317174 -6.781850 41.153408 0.948921 -0.002000 0.315507 0.921875 0.904762
 27 -14.493928 -8.986533 34.318203 0.686912 0.034700 -0.725912 0.000000 0.825397
w_beretta.bmp
 27 -14.493928 -8.986533 34.318203 0.686912 0.034700 -0.725912 0.000000 0.825397
 27 -12.317174 -6.781850 41.153408 0.948921 -0.002000 0.315507 0.921875 0.904762
 27 -13.179120 -7.675165 38.452438 0.730763 -0.371681 -0.572571 0.546875 0.873016
w_beretta.bmp
 27 -12.317174 -6.781850 41.153408 0.948921 -0.002000 0.315507 0.921875 0.904762
 27 -12.630904 -7.753089 40.181366 0.765105 -0.636904 0.094701 0.765625 0.968254
 27 -13.179120 -7.675165 38.452438 0.730763 -0.371681 -0.572571 0.546875 0.873016
w_beretta.bmp
 27 -13.179120 -7.675165 38.452438 0.730763 -0.371681 -0.572571 0.546875 0.873016
 27 -12.630904 -7.753089 40.181366 0.765105 -0.636904 0.094701 0.765625 0.968254
 27 -13.107221 -8.358731 38.711224 0.355716 -0.913442 -0.197709 0.546875 0.968254
w_beretta.bmp
 27 -12.558579 -2.307685 40.140751 0.967020 0.157703 0.200004 0.968750 0.380952
 43 -13.256912 -2.305470 37.915993 0.400505 0.674308 -0.620407 0.765625 0.285714
 27 -12.655602 -1.594185 39.805332 0.412398 0.910296 -0.035900 0.968750 0.285714
w_beretta.bmp
 27 -12.558579 -2.307685 40.140751 0.967020 0.157703 0.200004 0.968750 0.380952
 27 -13.333413 -2.516407 37.695599 0.355195 -0.003300 -0.934786 0.734375 0.285714
 43 -13.256912 -2.305470 37.915993 0.400505 0.674308 -0.620407 0.765625 0.285714
w_beretta.bmp
 27 -12.558579 -2.307685 40.140751 0.967020 0.157703 0.200004 0.968750 0.380952
 27 -13.241940 -3.284256 37.982895 0.286708 -0.219106 -0.932626 0.734375 0.396825
 27 -13.333413 -2.516407 37.695599 0.355195 -0.003300 -0.934786 0.734375 0.285714
w_beretta.bmp
 27 -12.558579 -2.307685 40.140751 0.967020 0.157703 0.200004 0.968750 0.380952
 27 -13.167622 -4.794033 38.291359 0.511811 0.231505 -0.827318 0.687500 0.555556
 27 -13.241940 -3.284256 37.982895 0.286708 -0.219106 -0.932626 0.734375 0.396825
w_beretta.bmp
 27 -14.265138 -5.903391 38.872894 -0.704728 -0.060102 -0.706928 0.906250 0.015873
 32 -13.140707 -6.370129 38.425381 0.651787 0.359493 -0.667786 0.812500 0.063492
 32 -14.300247 -6.364188 38.788189 -0.974092 0.223299 0.035800 0.812500 0.015873
w_beretta.bmp
 32 -14.300247 -6.364188 38.788189 -0.974092 0.223299 0.035800 0.812500 0.015873
 32 -13.140707 -6.370129 38.425381 0.651787 0.359493 -0.667786 0.812500 0.063492
 27 -14.616315 -6.772721 37.785908 -0.524680 0.841269 0.130295 0.640625 0.015873
w_beretta.bmp
 32 -13.140707 -6.370129 38.425381 0.651787 0.359493 -0.667786 0.812500 0.063492
 27 -13.460243 -6.781893 37.428116 0.674086 0.681585 -0.284694 0.640625 0.063492
 27 -14.616315 -6.772721 37.785908 -0.524680 0.841269 0.130295 0.640625 0.015873
w_beretta.bmp
 27 -14.616315 -6.772721 37.785908 -0.524680 0.841269 0.130295 0.640625 0.015873
 27 -13.460243 -6.781893 37.428116 0.674086 0.681585 -0.284694 0.640625 0.063492
 33 -13.899220 -6.582554 37.177628 0.530406 0.718008 0.450705 0.562500 0.063492
w_beretta.bmp
 27 -14.681260 -9.848751 34.048042 0.247909 -0.203207 -0.947232 0.312500 0.587302
 27 -15.438495 -9.492142 34.141983 -0.702567 0.377283 -0.603372 0.375000 0.492063
 27 -14.959794 -9.501141 33.997192 0.086103 0.700319 -0.708619 0.375000 0.555556
w_beretta.bmp
 27 -14.681260 -9.848751 34.048042 0.247909 -0.203207 -0.947232 0.312500 0.587302
 27 -15.634850 -9.837787 34.349285 -0.888708 -0.379803 -0.256802 0.312500 0.460317
 27 -15.438495 -9.492142 34.141983 -0.702567 0.377283 -0.603372 0.375000 0.492063
w_beretta.bmp
 27 -14.681260 -9.848751 34.048042 0.247909 -0.203207 -0.947232 0.312500 0.587302
 27 -15.366596 -10.175707 34.400768 -0.327179 -0.926439 -0.186188 0.265625 0.492063
 27 -15.634850 -9.837787 34.349285 -0.888708 -0.379803 -0.256802 0.312500 0.460317
w_beretta.bmp
 27 -14.681260 -9.848751 34.048042 0.247909 -0.203207 -0.947232 0.312500 0.587302
 27 -14.878397 -10.184746 34.252846 0.524497 -0.822096 -0.221499 0.265625 0.555556
 27 -15.366596 -10.175707 34.400768 -0.327179 -0.926439 -0.186188 0.265625 0.492063
w_beretta.bmp
 27 -13.503511 -6.199816 41.412136 -0.200301 0.580003 0.789605 0.468750 0.015873
 27 -13.470216 -6.770061 41.520363 -0.600704 -0.098301 0.793405 0.468750 0.174603
 27 -12.317174 -6.781850 41.153408 0.948921 -0.002000 0.315507 0.234375 0.174603
w_beretta.bmp
 27 -12.317174 -6.781850 41.153408 0.948921 -0.002000 0.315507 0.234375 0.174603
 27 -13.470216 -6.770061 41.520363 -0.600704 -0.098301 0.793405 0.468750 0.174603
 27 -12.378210 -7.268345 40.974251 0.545707 -0.531308 0.648009 0.234375 0.285714
w_beretta.bmp
 27 -13.470216 -6.770061 41.520363 -0.600704 -0.098301 0.793405 0.468750 0.174603
 27 -13.531253 -7.256556 41.341206 -0.131493 -0.692062 0.709761 0.468750 0.285714
 27 -12.378210 -7.268345 40.974251 0.545707 -0.531308 0.648009 0.234375 0.285714
w_beretta.bmp
 27 -13.107221 -8.358731 38.711224 0.355716 -0.913442 -0.197709 0.546875 0.920635
 27 -12.630904 -7.753089 40.181366 0.765105 -0.636904 0.094701 0.828125 0.920635
 27 -13.797257 -7.734227 40.539787 -0.594680 -0.636779 0.490783 0.828125 1.000000
w_beretta.bmp
 27 -13.797257 -7.734227 40.539787 -0.594680 -0.636779 0.490783 0.828125 1.000000
 27 -12.630904 -7.753089 40.181366 0.765105 -0.636904 0.094701 0.828125 0.920635
 27 -13.531253 -7.256556 41.341206 -0.131493 -0.692062 0.709761 0.875000 1.000000
w_beretta.bmp
 27 -12.630904 -7.753089 40.181366 0.765105 -0.636904 0.094701 0.828125 0.920635
 27 -12.378210 -7.268345 40.974251 0.545707 -0.531308 0.648009 0.875000 0.920635
 27 -13.531253 -7.256556 41.341206 -0.131493 -0.692062 0.709761 0.875000 1.000000
w_beretta.bmp
 27 -12.217944 -5.458791 41.310150 0.848619 0.480811 0.220605 0.890625 0.095238
 27 -12.325177 -5.375860 40.983620 0.323999 0.943696 -0.066800 0.921875 0.095238
 27 -13.501028 -5.356958 41.345169 -0.255805 0.941919 0.217604 0.921875 0.269841
w_beretta.bmp
 27 -13.501028 -5.356958 41.345169 -0.255805 0.941919 0.217604 0.921875 0.269841
 27 -12.325177 -5.375860 40.983620 0.323999 0.943696 -0.066800 0.921875 0.095238
 27 -13.580278 -5.382029 41.072971 -0.746511 0.546809 0.379106 0.968750 0.269841
w_beretta.bmp
 27 -12.325177 -5.375860 40.983620 0.323999 0.943696 -0.066800 0.921875 0.095238
 27 -12.417738 -5.393858 40.702892 0.892765 0.447382 0.053098 0.968750 0.095238
 27 -13.580278 -5.382029 41.072971 -0.746511 0.546809 0.379106 0.968750 0.269841
w_beretta.bmp
 27 -13.717839 -7.126285 36.618587 0.414918 0.545723 -0.728031 0.375000 0.730159
 27 -13.879845 -7.607059 36.132881 0.585006 0.608306 -0.536406 0.328125 0.746032
 27 -15.046198 -7.588197 36.491302 -0.797616 0.575712 -0.179904 0.328125 0.777778
w_beretta.bmp
 27 -15.046198 -7.588197 36.491302 -0.797616 0.575712 -0.179904 0.328125 0.777778
 27 -13.879845 -7.607059 36.132881 0.585006 0.608306 -0.536406 0.328125 0.746032
 27 -15.700657 -8.438604 34.451550 -0.587092 0.615092 -0.526293 0.062500 0.777778
w_beretta.bmp
 27 -13.879845 -7.607059 36.132881 0.585006 0.608306 -0.536406 0.328125 0.746032
 27 -14.525589 -8.447855 34.087502 0.117001 0.077401 -0.990111 0.062500 0.746032
 27 -15.700657 -8.438604 34.451550 -0.587092 0.615092 -0.526293 0.062500 0.777778
w_beretta.bmp
 27 -12.328715 -6.248529 41.015800 0.967172 -0.217394 0.131596 0.968750 0.269841
 27 -12.299134 -5.776797 41.067707 0.866801 -0.333301 0.370900 0.906250 0.269841
 27 -13.471172 -5.764930 41.440918 -0.489301 -0.200300 0.848802 0.906250 0.095238
w_beretta.bmp
 27 -13.471172 -5.764930 41.440918 -0.489301 -0.200300 0.848802 0.906250 0.095238
 27 -12.299134 -5.776797 41.067707 0.866801 -0.333301 0.370900 0.906250 0.269841
 27 -13.389982 -5.446923 41.683365 -0.504293 -0.090399 0.858788 0.875000 0.095238
w_beretta.bmp
 27 -12.299134 -5.776797 41.067707 0.866801 -0.333301 0.370900 0.906250 0.269841
 27 -12.217944 -5.458791 41.310150 0.848619 0.480811 0.220605 0.875000 0.269841
 27 -13.389982 -5.446923 41.683365 -0.504293 -0.090399 0.858788 0.875000 0.095238
w_beretta.bmp
 27 -13.501028 -5.356958 41.345169 -0.255805 0.941919 0.217604 0.921875 0.746032
 27 -13.580278 -5.382029 41.072971 -0.746511 0.546809 0.379106 0.890625 0.730159
 27 -13.389982 -5.446923 41.683365 -0.504293 -0.090399 0.858788 0.953125 0.761905
w_beretta.bmp
 27 -13.389982 -5.446923 41.683365 -0.504293 -0.090399 0.858788 0.953125 0.761905
 27 -13.580278 -5.382029 41.072971 -0.746511 0.546809 0.379106 0.890625 0.730159
 27 -13.471172 -5.764930 41.440918 -0.489301 -0.200300 0.848802 0.921875 0.793651
w_beretta.bmp
 27 -13.580278 -5.382029 41.072971 -0.746511 0.546809 0.379106 0.890625 0.730159
 32 -14.300247 -6.364188 38.788189 -0.974092 0.223299 0.035800 0.640625 0.730159
 27 -13.471172 -5.764930 41.440918 -0.489301 -0.200300 0.848802 0.921875 0.793651
w_beretta.bmp
 27 -14.461868 -6.019011 37.126690 -0.494494 -0.026100 0.868789 0.437500 0.619048
 27 -14.486138 -6.638988 37.060806 -0.874662 0.229090 -0.427181 0.406250 0.698413
 33 -14.400890 -6.568837 37.335861 -0.400986 0.704075 0.586079 0.437500 0.698413
w_beretta.bmp
 33 -14.400890 -6.568837 37.335861 -0.400986 0.704075 0.586079 0.437500 0.698413
 27 -14.486138 -6.638988 37.060806 -0.874662 0.229090 -0.427181 0.406250 0.698413
 27 -14.616315 -6.772721 37.785908 -0.524680 0.841269 0.130295 0.453125 0.730159
w_beretta.bmp
 27 -14.486138 -6.638988 37.060806 -0.874662 0.229090 -0.427181 0.406250 0.698413
 27 -14.890660 -7.104765 36.989300 -0.763498 0.494399 -0.415499 0.375000 0.730159
 27 -14.616315 -6.772721 37.785908 -0.524680 0.841269 0.130295 0.453125 0.730159
w_beretta.bmp
 32 -13.140707 -6.370129 38.425381 0.651787 0.359493 -0.667786 0.812500 0.063492
 27 -14.265138 -5.903391 38.872894 -0.704728 -0.060102 -0.706928 0.906250 0.015873
 27 -13.112096 -5.915181 38.505939 0.478087 -0.058298 -0.876376 0.906250 0.063492
w_beretta.bmp
 27 -13.112096 -5.915181 38.505939 0.478087 -0.058298 -0.876376 0.906250 0.063492
 27 -14.265138 -5.903391 38.872894 -0.704728 -0.060102 -0.706928 0.906250 0.015873
 32 -13.144913 -5.523475 38.373817 0.504406 -0.360504 -0.784609 0.953125 0.063492
w_beretta.bmp
 27 -14.265138 -5.903391 38.872894 -0.704728 -0.060102 -0.706928 0.906250 0.015873
 27 -14.307897 -5.496238 38.737995 -0.838713 -0.468207 -0.278104 0.953125 0.015873
 32 -13.144913 -5.523475 38.373817 0.504406 -0.360504 -0.784609 0.953125 0.063492
w_beretta.bmp
 33 -13.960262 -6.034050 36.968781 0.991993 -0.031500 0.122299 0.953125 0.063492
 27 -13.901637 -5.682804 37.129158 0.847497 -0.430799 0.310099 0.875000 0.063492
 27 -14.461868 -6.019011 37.126690 -0.494494 -0.026100 0.868789 0.953125 0.015873
w_beretta.bmp
 27 -14.461868 -6.019011 37.126690 -0.494494 -0.026100 0.868789 0.953125 0.015873
 27 -13.901637 -5.682804 37.129158 0.847497 -0.430799 0.310099 0.875000 0.063492
 27 -14.408049 -5.683339 37.285835 -0.545493 -0.518993 0.658091 0.875000 0.015873
w_beretta.bmp
 27 -13.901637 -5.682804 37.129158 0.847497 -0.430799 0.310099 0.875000 0.063492
 27 -13.725266 -5.336290 37.692116 0.554115 -0.821923 -0.131904 0.687500 0.063492
 27 -14.408049 -5.683339 37.285835 -0.545493 -0.518993 0.658091 0.875000 0.015873
w_beretta.bmp
 27 -14.616315 -6.772721 37.785908 -0.524680 0.841269 0.130295 0.640625 0.015873
 33 -13.899220 -6.582554 37.177628 0.530406 0.718008 0.450705 0.562500 0.063492
 33 -14.400890 -6.568837 37.335861 -0.400986 0.704075 0.586079 0.562500 0.015873
w_beretta.bmp
 33 -14.400890 -6.568837 37.335861 -0.400986 0.704075 0.586079 0.562500 0.015873
 33 -13.899220 -6.582554 37.177628 0.530406 0.718008 0.450705 0.562500 0.063492
 27 -14.461868 -6.019011 37.126690 -0.494494 -0.026100 0.868789 0.484375 0.015873
w_beretta.bmp
 33 -13.899220 -6.582554 37.177628 0.530406 0.718008 0.450705 0.562500 0.063492
 33 -13.960262 -6.034050 36.968781 0.991993 -0.031500 0.122299 0.484375 0.063492
 27 -14.461868 -6.019011 37.126690 -0.494494 -0.026100 0.868789 0.484375 0.015873
w_beretta.bmp
 27 -13.503511 -6.199816 41.412136 -0.200301 0.580003 0.789605 0.187500 0.730159
 27 -12.350469 -6.211605 41.045185 0.455792 0.889584 -0.029899 0.109375 0.730159
 27 -15.650784 -8.967710 34.673496 -0.938155 0.335720 -0.084605 0.187500 0.031746
w_beretta.bmp
 27 -15.650784 -8.967710 34.673496 -0.938155 0.335720 -0.084605 0.187500 0.031746
 27 -12.350469 -6.211605 41.045185 0.455792 0.889584 -0.029899 0.109375 0.730159
 27 -14.493928 -8.986533 34.318203 0.686912 0.034700 -0.725912 0.109375 0.031746
w_beretta.bmp
 27 -14.335192 -7.665994 38.810226 -0.850493 -0.476796 0.222098 0.250000 0.301587
 27 -13.179120 -7.675165 38.452438 0.730763 -0.371681 -0.572571 0.468750 0.301587
 27 -14.264076 -8.339908 39.066513 -0.579700 -0.674000 -0.457900 0.250000 0.444444
w_beretta.bmp
 27 -14.264076 -8.339908 39.066513 -0.579700 -0.674000 -0.457900 0.250000 0.444444
 27 -13.179120 -7.675165 38.452438 0.730763 -0.371681 -0.572571 0.468750 0.301587
 27 -13.107221 -8.358731 38.711224 0.355716 -0.913442 -0.197709 0.468750 0.444444
w_beretta.bmp
 27 -15.547292 -9.997864 35.064484 -0.762776 -0.512783 -0.393987 0.078125 0.968254
 27 -14.381722 -10.007075 34.703568 0.458499 -0.714099 -0.528999 0.000000 0.968254
 27 -15.436349 -10.046606 35.401852 -0.535018 -0.800227 0.270909 0.078125 0.984127
w_beretta.bmp
 27 -15.436349 -10.046606 35.401852 -0.535018 -0.800227 0.270909 0.078125 0.984127
 27 -14.381722 -10.007075 34.703568 0.458499 -0.714099 -0.528999 0.000000 0.968254
 27 -14.283306 -10.058396 35.034897 0.644832 -0.752838 0.132007 0.000000 0.984127
w_beretta.bmp
 27 -15.434207 -9.073949 35.396133 -0.679127 -0.065102 0.731128 0.109375 1.000000
 27 -14.268637 -9.083160 35.035217 0.932983 -0.348694 0.089198 0.109375 0.904762
 27 -14.335192 -7.665994 38.810226 -0.850493 -0.476796 0.222098 0.546875 1.000000
w_beretta.bmp
 27 -14.335192 -7.665994 38.810226 -0.850493 -0.476796 0.222098 0.546875 1.000000
 27 -14.268637 -9.083160 35.035217 0.932983 -0.348694 0.089198 0.109375 0.904762
 27 -13.179120 -7.675165 38.452438 0.730763 -0.371681 -0.572571 0.546875 0.904762
w_beretta.bmp
 27 -14.469146 -9.020840 34.297981 0.608310 -0.749313 -0.261704 0.093750 0.841270
 27 -15.641184 -9.008972 34.671196 -0.791218 -0.546812 -0.273806 0.000000 0.841270
 27 -14.525589 -8.447855 34.087502 0.117001 0.077401 -0.990111 0.093750 0.777778
w_beretta.bmp
 27 -14.525589 -8.447855 34.087502 0.117001 0.077401 -0.990111 0.093750 0.777778
 27 -15.641184 -9.008972 34.671196 -0.791218 -0.546812 -0.273806 0.000000 0.841270
 27 -15.700657 -8.438604 34.451550 -0.587092 0.615092 -0.526293 0.000000 0.777778
w_beretta.bmp
 27 -14.342690 -4.784783 38.655407 -0.903318 0.053601 -0.425609 0.687500 0.555556
 27 -13.724150 -2.298474 40.501667 -0.670220 0.118004 0.732721 0.953125 0.380952
 27 -14.413978 -3.272388 38.356106 -0.770129 -0.253109 -0.585522 0.750000 0.396825
w_beretta.bmp
 27 -14.413978 -3.272388 38.356106 -0.770129 -0.253109 -0.585522 0.750000 0.396825
 27 -13.724150 -2.298474 40.501667 -0.670220 0.118004 0.732721 0.953125 0.380952
 27 -14.495954 -2.504578 38.065678 -0.799219 0.352509 -0.486812 0.750000 0.285714
w_beretta.bmp
 27 -12.630904 -7.753089 40.181366 0.765105 -0.636904 0.094701 0.765625 0.968254
 27 -12.317174 -6.781850 41.153408 0.948921 -0.002000 0.315507 0.921875 0.904762
 27 -12.378210 -7.268345 40.974251 0.545707 -0.531308 0.648009 0.875000 0.952381
w_beretta.bmp
 27 -14.268637 -9.083160 35.035217 0.932983 -0.348694 0.089198 0.078125 0.873016
 27 -14.493928 -8.986533 34.318203 0.686912 0.034700 -0.725912 0.000000 0.825397
 27 -13.179120 -7.675165 38.452438 0.730763 -0.371681 -0.572571 0.546875 0.873016
w_beretta.bmp
 27 -13.503511 -6.199816 41.412136 -0.200301 0.580003 0.789605 0.468750 0.015873
 27 -12.317174 -6.781850 41.153408 0.948921 -0.002000 0.315507 0.234375 0.174603
 27 -12.350469 -6.211605 41.045185 0.455792 0.889584 -0.029899 0.234375 0.015873
w_beretta.bmp
 27 -13.107221 -8.358731 38.711224 0.355716 -0.913442 -0.197709 0.546875 0.920635
 27 -13.797257 -7.734227 40.539787 -0.594680 -0.636779 0.490783 0.828125 1.000000
 27 -14.264076 -8.339908 39.066513 -0.579700 -0.674000 -0.457900 0.562500 1.000000
w_beretta.bmp
 27 -14.283306 -10.058396 35.034897 0.644832 -0.752838 0.132007 0.031250 0.984127
 27 -15.360911 -9.857502 35.628452 -0.112699 -0.464094 0.878588 0.078125 0.968254
 27 -15.436349 -10.046606 35.401852 -0.535018 -0.800227 0.270909 0.031250 0.984127
w_beretta.bmp
 27 -15.434207 -9.073949 35.396133 -0.679127 -0.065102 0.731128 0.078125 0.873016
 27 -14.207869 -9.869291 35.261501 0.627609 -0.076001 0.774811 0.078125 0.968254
 27 -14.268637 -9.083160 35.035217 0.932983 -0.348694 0.089198 0.078125 0.873016
w_beretta.bmp
 27 -13.470216 -6.770061 41.520363 -0.600704 -0.098301 0.793405 0.921875 0.904762
 27 -13.503511 -6.199816 41.412136 -0.200301 0.580003 0.789605 0.921875 0.825397
 27 -15.650784 -8.967710 34.673496 -0.938155 0.335720 -0.084605 0.000000 0.825397
w_beretta.bmp
 27 -14.335192 -7.665994 38.810226 -0.850493 -0.476796 0.222098 0.546875 0.873016
 27 -14.264076 -8.339908 39.066513 -0.579700 -0.674000 -0.457900 0.546875 0.968254
 27 -13.797257 -7.734227 40.539787 -0.594680 -0.636779 0.490783 0.765625 0.968254
w_beretta.bmp
 27 -14.495954 -2.504578 38.065678 -0.799219 0.352509 -0.486812 0.750000 0.285714
 43 -13.256912 -2.305470 37.915993 0.400505 0.674308 -0.620407 0.781250 0.285714
 27 -13.333413 -2.516407 37.695599 0.355195 -0.003300 -0.934786 0.750000 0.285714
w_beretta.bmp
 27 -13.991471 -6.650682 36.900593 0.451693 0.347095 -0.821887 0.421875 0.698413
 33 -14.052996 -6.025130 36.666420 0.311992 -0.098398 -0.944976 0.421875 0.619048
 33 -13.960262 -6.034050 36.968781 0.991993 -0.031500 0.122299 0.421875 0.619048
w_beretta.bmp
 27 -12.217944 -5.458791 41.310150 0.848619 0.480811 0.220605 0.890625 0.095238
 27 -13.501028 -5.356958 41.345169 -0.255805 0.941919 0.217604 0.921875 0.269841
 27 -13.389982 -5.446923 41.683365 -0.504293 -0.090399 0.858788 0.890625 0.269841
w_beretta.bmp
 27 -13.717839 -7.126285 36.618587 0.414918 0.545723 -0.728031 0.375000 0.730159
 27 -15.046198 -7.588197 36.491302 -0.797616 0.575712 -0.179904 0.328125 0.777778
 27 -14.890660 -7.104765 36.989300 -0.763498 0.494399 -0.415499 0.375000 0.746032
w_beretta.bmp
 27 -12.328715 -6.248529 41.015800 0.967172 -0.217394 0.131596 0.968750 0.269841
 27 -13.471172 -5.764930 41.440918 -0.489301 -0.200300 0.848802 0.906250 0.095238
 27 -13.491256 -6.236701 41.385883 -0.761983 -0.329192 0.557687 0.968750 0.095238
w_beretta.bmp
 27 -12.417738 -5.393858 40.702892 0.892765 0.447382 0.053098 0.500000 0.253968
 27 -13.680806 -4.942163 40.762310 -0.741617 0.200005 0.640314 0.546875 0.095238
 27 -13.580278 -5.382029 41.072971 -0.746511 0.546809 0.379106 0.500000 0.095238
w_beretta.bmp
 27 -13.220182 -5.025340 38.134724 0.692513 0.424608 -0.583210 0.937500 0.063492
 27 -14.264936 -5.086709 37.744694 -0.759053 0.648760 -0.054297 0.843750 0.015873
 27 -14.385752 -5.016129 38.495644 -0.917257 0.341721 -0.204613 0.937500 0.015873
w_beretta.bmp
 27 -13.333413 -2.516407 37.695599 0.355195 -0.003300 -0.934786 0.828125 0.253968
 27 -14.413978 -3.272388 38.356106 -0.770129 -0.253109 -0.585522 0.750000 0.095238
 27 -14.495954 -2.504578 38.065678 -0.799219 0.352509 -0.486812 0.828125 0.095238
w_beretta.bmp
 27 -15.046198 -7.588197 36.491302 -0.797616 0.575712 -0.179904 0.328125 0.761905
 27 -15.700657 -8.438604 34.451550 -0.587092 0.615092 -0.526293 0.062500 0.761905
 27 -15.641184 -9.008972 34.671196 -0.791218 -0.546812 -0.273806 0.062500 0.809524
w_beretta.bmp
 27 -14.102860 -5.625885 37.572296 -0.660706 0.621806 -0.420504 0.515625 0.603175
 27 -13.878965 -5.554043 37.739655 0.527012 0.826518 -0.197804 0.531250 0.603175
 27 -13.950896 -5.626513 37.522232 0.272211 -0.317813 -0.908238 0.515625 0.603175
w_beretta.bmp
 27 -13.838520 -6.343678 38.639347 -0.215600 -0.578600 0.786600 0.609375 0.730159
 27 -13.716343 -6.530942 38.117710 0.625794 -0.724194 -0.289697 0.546875 0.730159
 27 -13.578268 -6.351774 38.566525 0.686204 0.048300 0.725804 0.609375 0.730159
end
