version 1
nodes
  0 "Bip01" -1
  1 "Bip01 Pelvis" 0
  2 "Bip01 L Thigh" 1
  3 "Bip01 L Calf" 2
  4 "Bip01 L Foot" 3
  5 "Bip01 R Thigh" 1
  6 "Bip01 R Calf" 5
  7 "Bip01 R Foot" 6
  8 "Bip01 Spine" 1
  9 "Bip01 Spine1" 8
 10 "Bip01 Neck" 9
 11 "Bip01 L Clavicle" 10
 12 "Bip01 L UpperArm" 11
 13 "Bip01 L Forearm" 12
 14 "Bip01 L Hand" 13
 15 "Bip01 L Finger0" 14
 16 "Bip01 L Finger01" 15
 17 "Bip01 L Finger02" 16
 18 "Bip01 L Finger1" 14
 19 "Bip01 L Finger11" 18
 20 "Bip01 L Finger12" 19
 21 "Bip01 L Finger2" 14
 22 "Bip01 L Finger21" 21
 23 "Bip01 L Finger22" 22
 24 "Bip01 R Clavicle" 10
 25 "Bip01 R UpperArm" 24
 26 "Bip01 R Forearm" 25
 27 "Bip01 R Hand" 26
 28 "Bip01 R Finger0" 27
 29 "Bip01 R Finger01" 28
 30 "Bip01 R Finger02" 29
 31 "Bip01 R Finger1" 27
 32 "Bip01 R Finger11" 31
 33 "Bip01 R Finger12" 32
 34 "Bip01 R Finger2" 27
 35 "Bip01 R Finger21" 34
 36 "Bip01 R Finger22" 35
 37 "Bip01 Head" 10
 38 "Bone05" 37
 39 "Bone08" 9
 40 "Bone16" 8
 41 "Bone01" 8
 42 "Bone03" 1
 43 "Bip01 R Finger4" 27
end
skeleton
time 0
  0   0.004864 -0.007176 39.210129 0.000000 0.000000 -1.570843
  1   0.273773 1.957091 0.000000 -1.570795 -1.570451 0.000000
  2   -0.000007 0.000008 4.427393 0.111198 -3.137051 -0.064301
  3   18.465939 0.000000 0.000000 0.000000 0.000000 -0.218802
  4   14.875443 0.000000 -0.000001 -0.076156 -0.081300 -0.557389
  5   0.000006 -0.000004 -4.427393 0.074356 3.099125 -0.062292
  6   18.465939 0.000000 0.000000 0.000000 0.000000 -0.144915
  7   14.875442 0.000000 0.000000 -0.074293 -0.042592 -0.894189
  8   2.255207 -0.007574 0.000003 0.000122 0.183160 -0.007906
  9   9.514219 -0.009357 0.000000 0.000000 0.000000 -0.104648
 10   11.751820 -0.001633 0.000000 0.000000 -0.000001 0.239386
 11   -2.133122 0.444673 2.649729 0.088019 -1.370041 2.815150
 12   4.640941 0.000000 -0.000001 0.409418 1.282055 0.596622
 13   10.828049 0.000000 0.000000 0.000000 0.000000 -0.104135
 14   9.393337 -0.000001 0.000000 -1.569611 0.103994 0.000037
 15   1.442245 0.107454 -1.746177 1.686435 0.539209 0.325885
 16   1.063452 0.000000 0.000001 0.000000 0.000000 0.199056
 17   1.376307 -0.000001 0.000001 0.000000 0.000000 0.199049
 18   4.172846 -0.251366 -1.312744 -0.016243 0.094689 -0.105517
 19   1.215374 0.000002 0.000000 0.000000 0.000000 0.392669
 20   1.215371 -0.000002 0.000001 0.000000 0.000000 0.392669
 21   4.220534 -0.244854 -0.431465 -0.005271 0.025739 -0.104777
 22   1.350417 0.000000 0.000001 0.000000 0.000000 0.610843
 23   1.350410 -0.000001 -0.000001 0.000000 0.000000 0.610843
 24   -2.133122 0.444686 -2.649726 -0.088046 1.370039 2.815124
 25   4.640942 0.000000 0.000001 -0.246561 -1.048860 0.362887
 26   10.828047 0.000000 0.000001 0.000000 0.000000 -0.208826
 27   9.393339 0.000000 0.000000 1.569611 -0.156354 0.000001
 28   1.442245 0.107455 1.746178 -1.686405 -0.539236 0.325898
 29   1.063450 -0.000001 0.000000 0.000000 0.000000 0.199056
 30   1.376307 0.000000 0.000000 0.000000 0.000000 0.199059
 31   4.172847 -0.251365 1.312745 0.016243 -0.094689 -0.105517
 32   1.215373 -0.000001 0.000000 0.000000 0.000000 0.392679
 33   1.215372 0.000000 0.000000 0.000000 0.000000 0.392679
 34   4.220534 -0.244853 0.431466 0.005271 -0.025739 -0.104777
 35   1.350416 0.000000 -0.000001 0.000000 0.000000 0.610828
 36   1.350410 0.000000 0.000001 0.000000 0.000000 0.610833
 37   2.110540 -0.000001 0.000000 0.003195 -0.183129 -0.153238
 38   0.891923 2.373051 -0.014527 -3.141592 -0.000001 1.413797
 39   7.228122 5.709445 3.726568 3.140796 -1.570796 0.000000
 40   2.450426 5.076128 0.001325 3.140791 -1.570796 0.000000
 41   6.312404 -4.528058 0.001311 3.140791 -1.570796 0.000000
 42   2.233309 1.152535 -7.309138 -1.301874 -1.527167 -0.469702
 43   4.262825 -0.232720 -1.392178 -0.002923 0.078442 -0.000042
time 1
  0   0.004864 -0.007176 39.694519 0.000000 0.000000 -1.570843
  1   0.187833 1.957091 0.000000 -1.570795 -1.570451 0.000000
  2   -0.000007 0.000008 4.427393 0.111198 -3.136772 -0.061409
  3   18.465939 0.000000 0.000000 0.000000 0.000000 -0.218802
  4   14.875443 0.000000 -0.000001 -0.076156 -0.081300 -0.554466
  5   0.000006 -0.000004 -4.427393 0.077417 3.105091 0.015291
  6   18.465939 0.000000 0.000000 0.000000 0.000000 -0.144915
  7   14.875442 0.000000 0.000000 -0.074293 -0.042592 -0.816415
  8   2.255207 -0.007574 0.000003 0.000122 0.183160 -0.007906
  9   9.514219 -0.009357 0.000000 0.000000 0.000000 -0.083130
 10   11.751820 -0.001633 0.000000 0.000000 -0.000001 0.239386
 11   -2.133122 0.444673 2.649729 0.088019 -1.370041 2.815150
 12   4.640941 0.000000 -0.000001 0.344628 1.292800 0.530065
 13   10.828049 0.000000 0.000000 0.000000 0.000000 -0.104135
 14   9.393337 -0.000001 0.000000 -1.569611 0.103994 0.000037
 15   1.442245 0.107454 -1.746177 1.686435 0.539209 0.325885
 16   1.063452 0.000000 0.000001 0.000000 0.000000 0.199056
 17   1.376307 -0.000001 0.000001 0.000000 0.000000 0.199049
 18   4.172846 -0.251366 -1.312744 -0.016243 0.094689 -0.105517
 19   1.215374 0.000002 0.000000 0.000000 0.000000 0.392669
 20   1.215371 -0.000002 0.000001 0.000000 0.000000 0.392669
 21   4.220534 -0.244854 -0.431465 -0.005271 0.025739 -0.104777
 22   1.350417 0.000000 0.000001 0.000000 0.000000 0.610843
 23   1.350410 -0.000001 -0.000001 0.000000 0.000000 0.610843
 24   -2.133122 0.444686 -2.649726 -0.088046 1.370039 2.815124
 25   4.640942 0.000000 0.000001 -0.206274 -1.055555 0.323551
 26   10.828047 0.000000 0.000001 0.000000 0.000000 -0.208826
 27   9.393339 0.000000 0.000000 1.569611 -0.156322 0.000001
 28   1.442245 0.107455 1.746178 -1.686405 -0.539236 0.325898
 29   1.063450 -0.000001 0.000000 0.000000 0.000000 0.199056
 30   1.376307 0.000000 0.000000 0.000000 0.000000 0.199059
 31   4.172847 -0.251365 1.312745 0.016243 -0.094689 -0.105517
 32   1.215373 -0.000001 0.000000 0.000000 0.000000 0.392679
 33   1.215372 0.000000 0.000000 0.000000 0.000000 0.392679
 34   4.220534 -0.244853 0.431466 0.005271 -0.025739 -0.104777
 35   1.350416 0.000000 -0.000001 0.000000 0.000000 0.610828
 36   1.350410 0.000000 0.000001 0.000000 0.000000 0.610833
 37   2.110540 -0.000001 0.000000 0.003195 -0.183129 -0.174740
 38   0.891923 2.373051 -0.014527 -3.141592 -0.000001 1.413797
 39   7.228122 5.709445 3.726568 3.140796 -1.570796 0.000000
 40   2.450426 5.076128 0.001325 3.140791 -1.570796 0.000000
 41   6.312404 -4.528058 0.001311 3.140791 -1.570796 0.000000
 42   2.233309 1.152535 -7.309138 -1.227860 -1.526264 -0.482532
 43   4.262825 -0.232720 -1.392178 -0.002923 0.078442 -0.000042
time 2
  0   0.004864 -0.007176 40.194534 0.000000 0.000000 -1.570843
  1   0.086267 1.957091 0.000000 -1.570795 -1.570451 0.000000
  2   -0.000007 0.000008 4.427393 0.111294 -3.138075 -0.072929
  3   18.465939 0.000000 0.000000 0.000000 0.000000 -0.218802
  4   14.875443 0.000000 -0.000001 -0.076156 -0.081300 -0.566080
  5   0.000006 -0.000004 -4.427393 0.078661 3.107794 0.050854
  6   18.465939 0.000000 0.000000 0.000000 0.000000 -0.144915
  7   14.875442 0.000000 0.000000 -0.074293 -0.042592 -0.780811
  8   2.255207 -0.007574 0.000003 0.000122 0.183160 -0.007906
  9   9.514219 -0.009357 0.000000 0.000000 0.000000 -0.058451
 10   11.751820 -0.001633 0.000000 0.000000 -0.000001 0.239386
 11   -2.133122 0.444673 2.649729 0.088019 -1.370041 2.815150
 12   4.640941 0.000000 -0.000001 0.263973 1.303201 0.447468
 13   10.828049 0.000000 0.000000 0.000000 0.000000 -0.104135
 14   9.393337 -0.000001 0.000000 -1.569611 0.103994 0.000037
 15   1.442245 0.107454 -1.746177 1.686435 0.539209 0.325885
 16   1.063452 0.000000 0.000001 0.000000 0.000000 0.199056
 17   1.376307 -0.000001 0.000001 0.000000 0.000000 0.199049
 18   4.172846 -0.251366 -1.312744 -0.016243 0.094689 -0.105517
 19   1.215374 0.000002 0.000000 0.000000 0.000000 0.392669
 20   1.215371 -0.000002 0.000001 0.000000 0.000000 0.392669
 21   4.220534 -0.244854 -0.431465 -0.005271 0.025739 -0.104777
 22   1.350417 0.000000 0.000001 0.000000 0.000000 0.610843
 23   1.350410 -0.000001 -0.000001 0.000000 0.000000 0.610843
 24   -2.133122 0.444686 -2.649726 -0.088046 1.370039 2.815124
 25   4.640942 0.000000 0.000001 -0.158887 -1.062390 0.277355
 26   10.828047 0.000000 0.000001 0.000000 0.000000 -0.208826
 27   9.393339 0.000000 0.000000 1.569611 -0.156257 0.000001
 28   1.442245 0.107455 1.746178 -1.686405 -0.539236 0.325898
 29   1.063450 -0.000001 0.000000 0.000000 0.000000 0.199056
 30   1.376307 0.000000 0.000000 0.000000 0.000000 0.199059
 31   4.172847 -0.251365 1.312745 0.016243 -0.094689 -0.105517
 32   1.215373 -0.000001 0.000000 0.000000 0.000000 0.392679
 33   1.215372 0.000000 0.000000 0.000000 0.000000 0.392679
 34   4.220534 -0.244853 0.431466 0.005271 -0.025739 -0.104777
 35   1.350416 0.000000 -0.000001 0.000000 0.000000 0.610828
 36   1.350410 0.000000 0.000001 0.000000 0.000000 0.610833
 37   2.110540 -0.000001 0.000000 0.003195 -0.183129 -0.199425
 38   0.891923 2.373051 -0.014527 -3.141592 -0.000001 1.413797
 39   7.228122 5.709445 3.726568 3.140796 -1.570796 0.000000
 40   2.450426 5.076128 0.001325 3.140791 -1.570796 0.000000
 41   6.312404 -4.528058 0.001311 3.140791 -1.570796 0.000000
 42   2.233309 1.152535 -7.309138 -1.209165 -1.526031 -0.485595
 43   4.262825 -0.232720 -1.392178 -0.002923 0.078442 -0.000042
time 3
  0   0.004864 -0.007176 40.663300 0.000000 0.000000 -1.570843
  1   -0.015298 1.960997 0.000000 -1.570795 -1.570451 0.000000
  2   -0.000007 0.000008 4.427393 0.111294 -3.143843 -0.125146
  3   18.465939 0.000000 0.000000 0.000000 0.000000 -0.218802
  4   14.875443 0.000000 -0.000001 -0.076156 -0.081300 -0.618659
  5   0.000006 -0.000004 -4.427393 0.076556 3.103226 -0.008012
  6   18.465939 0.000000 0.000000 0.000000 0.000000 -0.144915
  7   14.875442 0.000000 0.000000 -0.074293 -0.042592 -0.839864
  8   2.255207 -0.007574 0.000003 0.000122 0.183160 -0.007906
  9   9.514219 -0.009357 0.000000 0.000000 0.000000 -0.033793
 10   11.751820 -0.001633 0.000000 0.000000 -0.000001 0.239386
 11   -2.133122 0.444673 2.649729 0.088019 -1.370041 2.815150
 12   4.640941 0.000000 -0.000001 0.177129 1.311329 0.358666
 13   10.828049 0.000000 0.000000 0.000000 0.000000 -0.104135
 14   9.393337 -0.000001 0.000000 -1.569611 0.103994 0.000037
 15   1.442245 0.107454 -1.746177 1.686435 0.539209 0.325885
 16   1.063452 0.000000 0.000001 0.000000 0.000000 0.199056
 17   1.376307 -0.000001 0.000001 0.000000 0.000000 0.199049
 18   4.172846 -0.251366 -1.312744 -0.016243 0.094689 -0.105517
 19   1.215374 0.000002 0.000000 0.000000 0.000000 0.392669
 20   1.215371 -0.000002 0.000001 0.000000 0.000000 0.392669
 21   4.220534 -0.244854 -0.431465 -0.005271 0.025739 -0.104777
 22   1.350417 0.000000 0.000001 0.000000 0.000000 0.610843
 23   1.350410 -0.000001 -0.000001 0.000000 0.000000 0.610843
 24   -2.133122 0.444686 -2.649726 -0.088046 1.370039 2.815124
 25   4.640942 0.000000 0.000001 -0.110369 -1.068178 0.230039
 26   10.828047 0.000000 0.000001 0.000000 0.000000 -0.208826
 27   9.393339 0.000000 0.000000 1.569611 -0.156127 0.000001
 28   1.442245 0.107455 1.746178 -1.686405 -0.539236 0.325898
 29   1.063450 -0.000001 0.000000 0.000000 0.000000 0.199056
 30   1.376307 0.000000 0.000000 0.000000 0.000000 0.199059
 31   4.172847 -0.251365 1.312745 0.016243 -0.094689 -0.105517
 32   1.215373 -0.000001 0.000000 0.000000 0.000000 0.392679
 33   1.215372 0.000000 0.000000 0.000000 0.000000 0.392679
 34   4.220534 -0.244853 0.431466 0.005271 -0.025739 -0.104777
 35   1.350416 0.000000 -0.000001 0.000000 0.000000 0.610828
 36   1.350410 0.000000 0.000001 0.000000 0.000000 0.610833
 37   2.110540 -0.000001 0.000000 0.003195 -0.183129 -0.224109
 38   0.891923 2.373051 -0.014527 -3.141592 -0.000001 1.413797
 39   7.228122 5.709445 3.726568 3.140796 -1.570796 0.000000
 40   2.450426 5.076128 0.001325 3.140791 -1.570796 0.000000
 41   6.312404 -4.528058 0.001311 3.140791 -1.570796 0.000000
 42   2.233309 1.152535 -7.309138 -1.263908 -1.526730 -0.476308
 43   4.262825 -0.232720 -1.392178 -0.002923 0.078442 -0.000042
time 4
  0   0.004864 -0.007176 41.065655 0.000000 0.000000 -1.570843
  1   -0.105145 1.960997 0.000000 -1.570795 -1.570451 0.000000
  2   -0.000007 0.000008 4.427393 0.110817 -3.151657 -0.194818
  3   18.465939 0.000000 0.000000 0.000000 0.000000 -0.218802
  4   14.875443 0.000000 -0.000001 -0.076156 -0.081300 -0.688778
  5   0.000006 -0.000004 -4.427393 0.072633 3.096236 -0.101785
  6   18.465939 0.000000 0.000000 0.000000 0.000000 -0.144915
  7   14.875442 0.000000 0.000000 -0.074293 -0.042592 -0.933883
  8   2.255207 -0.007574 0.000003 0.000122 0.183160 -0.007906
  9   9.514219 -0.009357 0.000000 0.000000 0.000000 -0.012275
 10   11.751820 -0.001633 0.000000 0.000000 -0.000001 0.239386
 11   -2.133122 0.444673 2.649729 0.088019 -1.370041 2.815150
 12   4.640941 0.000000 -0.000001 0.097210 1.316357 0.277005
 13   10.828049 0.000000 0.000000 0.000000 0.000000 -0.104135
 14   9.393337 -0.000001 0.000000 -1.569611 0.103994 0.000037
 15   1.442245 0.107454 -1.746177 1.686435 0.539209 0.325885
 16   1.063452 0.000000 0.000001 0.000000 0.000000 0.199056
 17   1.376307 -0.000001 0.000001 0.000000 0.000000 0.199049
 18   4.172846 -0.251366 -1.312744 -0.016243 0.094689 -0.105517
 19   1.215374 0.000002 0.000000 0.000000 0.000000 0.392669
 20   1.215371 -0.000002 0.000001 0.000000 0.000000 0.392669
 21   4.220534 -0.244854 -0.431465 -0.005271 0.025739 -0.104777
 22   1.350417 0.000000 0.000001 0.000000 0.000000 0.610843
 23   1.350410 -0.000001 -0.000001 0.000000 0.000000 0.610843
 24   -2.133122 0.444686 -2.649726 -0.088046 1.370039 2.815124
 25   4.640942 0.000000 0.000001 -0.067201 -1.072363 0.187903
 26   10.828047 0.000000 0.000001 0.000000 0.000000 -0.208826
 27   9.393339 0.000000 0.000000 1.569611 -0.155997 0.000001
 28   1.442245 0.107455 1.746178 -1.686405 -0.539236 0.325898
 29   1.063450 -0.000001 0.000000 0.000000 0.000000 0.199056
 30   1.376307 0.000000 0.000000 0.000000 0.000000 0.199059
 31   4.172847 -0.251365 1.312745 0.016243 -0.094689 -0.105517
 32   1.215373 -0.000001 0.000000 0.000000 0.000000 0.392679
 33   1.215372 0.000000 0.000000 0.000000 0.000000 0.392679
 34   4.220534 -0.244853 0.431466 0.005271 -0.025739 -0.104777
 35   1.350416 0.000000 -0.000001 0.000000 0.000000 0.610828
 36   1.350410 0.000000 0.000001 0.000000 0.000000 0.610833
 37   2.110540 -0.000001 0.000000 0.003195 -0.183129 -0.245612
 38   0.891923 2.373051 -0.014527 -3.141592 -0.000001 1.413797
 39   7.228122 5.709445 3.726568 3.140796 -1.570796 0.000000
 40   2.450426 5.076128 0.001325 3.140791 -1.570796 0.000000
 41   6.312404 -4.528058 0.001311 3.140791 -1.570796 0.000000
 42   2.233309 1.152535 -7.309138 -1.413853 -1.545079 -0.398759
 43   4.262825 -0.232720 -1.392178 -0.002923 0.078442 -0.000042
time 5
  0   0.004864 -0.007176 41.350819 0.000000 0.000000 -1.570843
  1   -0.167647 1.960997 0.000000 -1.570795 -1.570451 0.000000
  2   -0.000007 0.000008 4.427393 0.110053 -3.157891 -0.251274
  3   18.465939 0.000000 0.000000 0.000000 0.000000 -0.218802
  4   14.875443 0.000000 -0.000001 -0.076156 -0.081300 -0.745544
  5   0.000006 -0.000004 -4.427393 0.068424 3.090084 -0.189008
  6   18.465939 0.000000 0.000000 0.000000 0.000000 -0.144915
  7   14.875442 0.000000 0.000000 -0.074293 -0.042592 -1.021186
  8   2.255207 -0.007574 0.000003 0.000122 0.183160 -0.007906
  9   9.514219 -0.009357 0.000000 0.000000 0.000000 0.002944
 10   11.751820 -0.001633 0.000000 0.000000 -0.000001 0.239386
 11   -2.133122 0.444673 2.649729 0.088019 -1.370041 2.815150
 12   4.640941 0.000000 -0.000001 0.038855 1.318423 0.217473
 13   10.828049 0.000000 0.000000 0.000000 0.000000 -0.104135
 14   9.393337 -0.000001 0.000000 -1.569611 0.103994 0.000037
 15   1.442245 0.107454 -1.746177 1.686435 0.539209 0.325885
 16   1.063452 0.000000 0.000001 0.000000 0.000000 0.199056
 17   1.376307 -0.000001 0.000001 0.000000 0.000000 0.199049
 18   4.172846 -0.251366 -1.312744 -0.016243 0.094689 -0.105517
 19   1.215374 0.000002 0.000000 0.000000 0.000000 0.392669
 20   1.215371 -0.000002 0.000001 0.000000 0.000000 0.392669
 21   4.220534 -0.244854 -0.431465 -0.005271 0.025739 -0.104777
 22   1.350417 0.000000 0.000001 0.000000 0.000000 0.610843
 23   1.350410 -0.000001 -0.000001 0.000000 0.000000 0.610843
 24   -2.133122 0.444686 -2.649726 -0.088046 1.370039 2.815124
 25   4.640942 0.000000 0.000001 -0.036330 -1.074873 0.157736
 26   10.828047 0.000000 0.000001 0.000000 0.000000 -0.208826
 27   9.393339 0.000000 0.000000 1.569611 -0.155801 0.000001
 28   1.442245 0.107455 1.746178 -1.686405 -0.539236 0.325898
 29   1.063450 -0.000001 0.000000 0.000000 0.000000 0.199056
 30   1.376307 0.000000 0.000000 0.000000 0.000000 0.199059
 31   4.172847 -0.251365 1.312745 0.016243 -0.094689 -0.105517
 32   1.215373 -0.000001 0.000000 0.000000 0.000000 0.392679
 33   1.215372 0.000000 0.000000 0.000000 0.000000 0.392679
 34   4.220534 -0.244853 0.431466 0.005271 -0.025739 -0.104777
 35   1.350416 0.000000 -0.000001 0.000000 0.000000 0.610828
 36   1.350410 0.000000 0.000001 0.000000 0.000000 0.610833
 37   2.110540 -0.000001 0.000000 0.003195 -0.183129 -0.260835
 38   0.891923 2.373051 -0.014527 -3.141592 -0.000001 1.413797
 39   7.228122 5.709445 3.726568 3.140796 -1.570796 0.000000
 40   2.450426 5.076128 0.001325 3.140791 -1.570796 0.000000
 41   6.312404 -4.528058 0.001311 3.140791 -1.570796 0.000000
 42   2.233309 1.152535 -7.309138 -1.936262 -1.561301 0.079177
 43   4.262825 -0.232720 -1.392178 -0.002923 0.078442 -0.000042
time 6
  0   0.004864 -0.007176 41.307850 0.000000 0.000000 -1.570843
  1   -0.191085 1.960997 0.000000 -1.570795 -1.570451 0.000000
  2   -0.000007 0.000008 4.427393 0.109862 -3.159286 -0.263643
  3   18.465939 0.000000 0.000000 0.000000 0.000000 -0.218802
  4   14.875443 0.000000 -0.000001 -0.076156 -0.081300 -0.757988
  5   0.000006 -0.000004 -4.427393 0.066319 3.087474 -0.227659
  6   18.465939 0.000000 0.000000 0.000000 0.000000 -0.144915
  7   14.875442 0.000000 0.000000 -0.074293 -0.042592 -1.059905
  8   2.255207 -0.007574 0.000003 0.000122 0.183160 -0.007906
  9   9.514219 -0.009357 0.000000 0.000000 0.000000 0.008703
 10   11.751820 -0.001633 0.000000 0.000000 -0.000001 0.239386
 11   -2.133122 0.444673 2.649729 0.088019 -1.370041 2.815150
 12   4.640941 0.000000 -0.000001 0.016456 1.317941 0.194643
 13   10.828049 0.000000 0.000000 0.000000 0.000000 -0.104135
 14   9.393337 -0.000001 0.000000 -1.569611 0.103994 0.000037
 15   1.442245 0.107454 -1.746177 1.686435 0.539209 0.325885
 16   1.063452 0.000000 0.000001 0.000000 0.000000 0.199056
 17   1.376307 -0.000001 0.000001 0.000000 0.000000 0.199049
 18   4.172846 -0.251366 -1.312744 -0.016243 0.094689 -0.105517
 19   1.215374 0.000002 0.000000 0.000000 0.000000 0.392669
 20   1.215371 -0.000002 0.000001 0.000000 0.000000 0.392669
 21   4.220534 -0.244854 -0.431465 -0.005271 0.025739 -0.104777
 22   1.350417 0.000000 0.000001 0.000000 0.000000 0.610843
 23   1.350410 -0.000001 -0.000001 0.000000 0.000000 0.610843
 24   -2.133122 0.444686 -2.649726 -0.088046 1.370039 2.815124
 25   4.640942 0.000000 0.000001 -0.024548 -1.075850 0.146257
 26   10.828047 0.000000 0.000001 0.000000 0.000000 -0.208826
 27   9.393339 0.000000 0.000000 1.569611 -0.155606 0.000001
 28   1.442245 0.107455 1.746178 -1.686405 -0.539236 0.325898
 29   1.063450 -0.000001 0.000000 0.000000 0.000000 0.199056
 30   1.376307 0.000000 0.000000 0.000000 0.000000 0.199059
 31   4.172847 -0.251365 1.312745 0.016243 -0.094689 -0.105517
 32   1.215373 -0.000001 0.000000 0.000000 0.000000 0.392679
 33   1.215372 0.000000 0.000000 0.000000 0.000000 0.392679
 34   4.220534 -0.244853 0.431466 0.005271 -0.025739 -0.104777
 35   1.350416 0.000000 -0.000001 0.000000 0.000000 0.610828
 36   1.350410 0.000000 0.000001 0.000000 0.000000 0.610833
 37   2.110540 -0.000001 0.000000 0.003195 -0.183129 -0.266641
 38   0.891923 2.373051 -0.014527 -3.141592 -0.000001 1.413797
 39   7.228122 5.709445 3.726568 3.140796 -1.570796 0.000000
 40   2.450426 5.076128 0.001325 3.140791 -1.570796 0.000000
 41   6.312404 -4.528058 0.001311 3.140791 -1.570796 0.000000
 42   2.233309 1.152535 -7.309138 -1.965695 -1.560777 0.057636
 43   4.262825 -0.232720 -1.392178 -0.002923 0.078442 -0.000042
time 7
  0   0.004864 -0.007176 40.835178 0.000000 0.000000 -1.570843
  1   -0.187178 1.960997 0.000000 -1.570795 -1.570451 0.000000
  2   -0.000007 0.000008 4.427393 0.111008 -3.149239 -0.173224
  3   18.465939 0.000000 0.000000 0.000000 0.000000 -0.218802
  4   14.875443 0.000000 -0.000001 -0.076185 -0.081300 -0.667011
  5   0.000006 -0.000004 -4.427393 0.069955 3.092135 -0.158405
  6   18.465939 0.000000 0.000000 0.000000 0.000000 -0.144915
  7   14.875442 0.000000 0.000000 -0.074328 -0.042592 -0.990572
  8   2.255207 -0.007574 0.000003 0.000122 0.183231 -0.007906
  9   9.514219 -0.009357 0.000000 0.000000 0.000000 0.007555
 10   11.751820 -0.001633 0.000000 0.000000 -0.000001 0.239386
 11   -2.133122 0.444673 2.649729 0.088019 -1.370041 2.815150
 12   4.640941 0.000000 -0.000001 0.020828 1.316288 0.199092
 13   10.828049 0.000000 0.000000 0.000000 0.000000 -0.104135
 14   9.393337 -0.000001 0.000000 -1.569611 0.103994 0.000037
 15   1.442245 0.107454 -1.746177 1.686435 0.539209 0.325885
 16   1.063452 0.000000 0.000001 0.000000 0.000000 0.199056
 17   1.376307 -0.000001 0.000001 0.000000 0.000000 0.199049
 18   4.172846 -0.251366 -1.312744 -0.016243 0.094689 -0.105517
 19   1.215374 0.000002 0.000000 0.000000 0.000000 0.392669
 20   1.215371 -0.000002 0.000001 0.000000 0.000000 0.392669
 21   4.220534 -0.244854 -0.431465 -0.005271 0.025739 -0.104777
 22   1.350417 0.000000 0.000001 0.000000 0.000000 0.610843
 23   1.350410 -0.000001 -0.000001 0.000000 0.000000 0.610843
 24   -2.133122 0.444686 -2.649726 -0.088046 1.370039 2.815124
 25   4.640942 0.000000 0.000001 -0.026914 -1.075850 0.148497
 26   10.828047 0.000000 0.000001 0.000000 0.000000 -0.208826
 27   9.393339 0.000000 0.000000 1.569611 -0.155411 0.000001
 28   1.442245 0.107455 1.746178 -1.686405 -0.539236 0.325898
 29   1.063450 -0.000001 0.000000 0.000000 0.000000 0.199056
 30   1.376307 0.000000 0.000000 0.000000 0.000000 0.199059
 31   4.172847 -0.251365 1.312745 0.016243 -0.094689 -0.105517
 32   1.215373 -0.000001 0.000000 0.000000 0.000000 0.392679
 33   1.215372 0.000000 0.000000 0.000000 0.000000 0.392679
 34   4.220534 -0.244853 0.431466 0.005271 -0.025739 -0.104777
 35   1.350416 0.000000 -0.000001 0.000000 0.000000 0.610828
 36   1.350410 0.000000 0.000001 0.000000 0.000000 0.610833
 37   2.110540 -0.000001 0.000000 0.003195 -0.183185 -0.265480
 38   0.891923 2.373051 -0.014527 -3.141592 -0.000001 1.413797
 39   7.228122 5.709445 3.726568 3.140796 -1.570796 0.000000
 40   2.450426 5.076128 0.001325 3.140791 -1.570796 0.000000
 41   6.312404 -4.528058 0.001311 3.140791 -1.570796 0.000000
 42   2.233309 1.152535 -7.309138 -1.452585 -1.543739 -0.417620
 43   4.262825 -0.232720 -1.392178 -0.002923 0.078442 -0.000042
time 8
  0   0.004864 -0.007176 40.178909 0.000000 0.000000 -1.570843
  1   -0.171553 1.964904 0.000000 -1.570795 -1.570451 0.000000
  2   -0.000007 0.000008 4.427393 0.111008 -3.132493 -0.022807
  3   18.465939 0.000000 0.000000 0.000000 0.000000 -0.218802
  4   14.875443 0.000000 -0.000001 -0.076213 -0.081300 -0.515634
  5   0.000006 -0.000004 -4.427393 0.075791 3.101642 -0.027852
  6   18.465939 0.000000 0.000000 0.000000 0.000000 -0.144915
  7   14.875442 0.000000 0.000000 -0.074363 -0.042573 -0.859711
  8   2.255207 -0.007574 0.000003 0.000143 0.183423 -0.007906
  9   9.514219 -0.009357 0.000000 0.000000 0.000000 0.004286
 10   11.751820 -0.001633 0.000000 0.000000 -0.000001 0.239386
 11   -2.133122 0.444673 2.649729 0.088019 -1.370041 2.815150
 12   4.640941 0.000000 -0.000001 0.033305 1.314290 0.211794
 13   10.828049 0.000000 0.000000 0.000000 0.000000 -0.104135
 14   9.393337 -0.000001 0.000000 -1.569611 0.103994 0.000037
 15   1.442245 0.107454 -1.746177 1.686435 0.539209 0.325885
 16   1.063452 0.000000 0.000001 0.000000 0.000000 0.199056
 17   1.376307 -0.000001 0.000001 0.000000 0.000000 0.199049
 18   4.172846 -0.251366 -1.312744 -0.016243 0.094689 -0.105517
 19   1.215374 0.000002 0.000000 0.000000 0.000000 0.392669
 20   1.215371 -0.000002 0.000001 0.000000 0.000000 0.392669
 21   4.220534 -0.244854 -0.431465 -0.005271 0.025739 -0.104777
 22   1.350417 0.000000 0.000001 0.000000 0.000000 0.610843
 23   1.350410 -0.000001 -0.000001 0.000000 0.000000 0.610843
 24   -2.133122 0.444686 -2.649726 -0.088046 1.370039 2.815124
 25   4.640942 0.000000 0.000001 -0.033552 -1.075501 0.155006
 26   10.828047 0.000000 0.000001 0.000000 0.000000 -0.208826
 27   9.393339 0.000000 0.000000 1.569611 -0.155248 0.000001
 28   1.442245 0.107455 1.746178 -1.686405 -0.539236 0.325898
 29   1.063450 -0.000001 0.000000 0.000000 0.000000 0.199056
 30   1.376307 0.000000 0.000000 0.000000 0.000000 0.199059
 31   4.172847 -0.251365 1.312745 0.016243 -0.094689 -0.105517
 32   1.215373 -0.000001 0.000000 0.000000 0.000000 0.392679
 33   1.215372 0.000000 0.000000 0.000000 0.000000 0.392679
 34   4.220534 -0.244853 0.431466 0.005271 -0.025739 -0.104777
 35   1.350416 0.000000 -0.000001 0.000000 0.000000 0.610828
 36   1.350410 0.000000 0.000001 0.000000 0.000000 0.610833
 37   2.110540 -0.000001 0.000000 0.003195 -0.183381 -0.262211
 38   0.891923 2.373051 -0.014527 -3.141592 -0.000001 1.413797
 39   7.228122 5.709445 3.726568 3.140796 -1.570796 0.000000
 40   2.450426 5.076128 0.001325 3.140791 -1.570796 0.000000
 41   6.312404 -4.528058 0.001311 3.140791 -1.570796 0.000000
 42   2.233309 1.152535 -7.309138 -1.312803 -1.541613 -0.448161
 43   4.262825 -0.232720 -1.392178 -0.002923 0.078442 -0.000042
time 9
  0   0.004864 -0.007176 39.561703 0.000000 0.000000 -1.570843
  1   -0.152021 1.964904 0.000000 -1.570795 -1.570451 0.000000
  2   -0.000007 0.000008 4.427393 0.109767 -3.122724 0.066216
  3   18.465939 0.000000 0.000000 0.000000 0.000000 -0.218802
  4   14.875443 0.000000 -0.000001 -0.076242 -0.081278 -0.426040
  5   0.000006 -0.000004 -4.427393 0.078565 3.107421 0.047017
  6   18.465939 0.000000 0.000000 0.000000 0.000000 -0.144915
  7   14.875442 0.000000 0.000000 -0.074398 -0.042554 -0.784713
  8   2.255207 -0.007574 0.000003 0.000143 0.183699 -0.007906
  9   9.514219 -0.009357 0.000000 0.000000 0.000000 -0.000844
 10   11.751820 -0.001633 0.000000 0.000000 -0.000001 0.239386
 11   -2.133122 0.444673 2.649729 0.088019 -1.370041 2.815150
 12   4.640941 0.000000 -0.000001 0.052658 1.312155 0.231522
 13   10.828049 0.000000 0.000000 0.000000 0.000000 -0.104135
 14   9.393337 -0.000001 0.000000 -1.569611 0.103994 0.000037
 15   1.442245 0.107454 -1.746177 1.686435 0.539209 0.325885
 16   1.063452 0.000000 0.000001 0.000000 0.000000 0.199056
 17   1.376307 -0.000001 0.000001 0.000000 0.000000 0.199049
 18   4.172846 -0.251366 -1.312744 -0.016243 0.094689 -0.105517
 19   1.215374 0.000002 0.000000 0.000000 0.000000 0.392669
 20   1.215371 -0.000002 0.000001 0.000000 0.000000 0.392669
 21   4.220534 -0.244854 -0.431465 -0.005271 0.025739 -0.104777
 22   1.350417 0.000000 0.000001 0.000000 0.000000 0.610843
 23   1.350410 -0.000001 -0.000001 0.000000 0.000000 0.610843
 24   -2.133122 0.444686 -2.649726 -0.088046 1.370039 2.815124
 25   4.640942 0.000000 0.000001 -0.043945 -1.074734 0.165225
 26   10.828047 0.000000 0.000001 0.000000 0.000000 -0.208826
 27   9.393339 0.000000 0.000000 1.569611 -0.155053 0.000001
 28   1.442245 0.107455 1.746178 -1.686405 -0.539236 0.325898
 29   1.063450 -0.000001 0.000000 0.000000 0.000000 0.199056
 30   1.376307 0.000000 0.000000 0.000000 0.000000 0.199059
 31   4.172847 -0.251365 1.312745 0.016243 -0.094689 -0.105517
 32   1.215373 -0.000001 0.000000 0.000000 0.000000 0.392679
 33   1.215372 0.000000 0.000000 0.000000 0.000000 0.392679
 34   4.220534 -0.244853 0.431466 0.005271 -0.025739 -0.104777
 35   1.350416 0.000000 -0.000001 0.000000 0.000000 0.610828
 36   1.350410 0.000000 0.000001 0.000000 0.000000 0.610833
 37   2.110540 -0.000001 0.000000 0.003195 -0.183660 -0.257051
 38   0.891923 2.373051 -0.014527 -3.141592 -0.000001 1.413797
 39   7.228122 5.709445 3.726568 3.140796 -1.570796 0.000000
 40   2.450426 5.076128 0.001325 3.140791 -1.570796 0.000000
 41   6.312404 -4.528058 0.001311 3.140791 -1.570796 0.000000
 42   2.233309 1.152535 -7.309138 -1.306475 -1.514469 -0.398376
 43   4.262825 -0.232720 -1.392178 -0.002923 0.078442 -0.000042
time 10
  0   0.004864 -0.007176 39.202316 0.000000 0.000000 -1.570843
  1   -0.124677 1.968810 0.000000 -1.570795 -1.570451 0.000000
  2   -0.000007 0.000008 4.427393 0.110053 -3.124771 0.048262
  3   18.465939 0.000000 0.000000 0.000000 0.000000 -0.218802
  4   14.875443 0.000000 -0.000001 -0.076299 -0.081236 -0.444133
  5   0.000006 -0.000004 -4.427393 0.077513 3.105184 0.018567
  6   18.465939 0.000000 0.000000 0.000000 0.000000 -0.144915
  7   14.875442 0.000000 0.000000 -0.074433 -0.042516 -0.813189
  8   2.255207 -0.007574 0.000003 0.000143 0.184034 -0.007906
  9   9.514219 -0.009357 0.000000 0.000000 0.000000 -0.007577
 10   11.751820 -0.001633 0.000000 0.000000 -0.000001 0.239386
 11   -2.133122 0.444673 2.649729 0.088019 -1.370041 2.815150
 12   4.640941 0.000000 -0.000001 0.077660 1.309744 0.256986
 13   10.828049 0.000000 0.000000 0.000000 0.000000 -0.104135
 14   9.393337 -0.000001 0.000000 -1.569611 0.103994 0.000037
 15   1.442245 0.107454 -1.746177 1.686435 0.539209 0.325885
 16   1.063452 0.000000 0.000001 0.000000 0.000000 0.199056
 17   1.376307 -0.000001 0.000001 0.000000 0.000000 0.199049
 18   4.172846 -0.251366 -1.312744 -0.016243 0.094689 -0.105517
 19   1.215374 0.000002 0.000000 0.000000 0.000000 0.392669
 20   1.215371 -0.000002 0.000001 0.000000 0.000000 0.392669
 21   4.220534 -0.244854 -0.431465 -0.005271 0.025739 -0.104777
 22   1.350417 0.000000 0.000001 0.000000 0.000000 0.610843
 23   1.350410 -0.000001 -0.000001 0.000000 0.000000 0.610843
 24   -2.133122 0.444686 -2.649726 -0.088046 1.370039 2.815124
 25   4.640942 0.000000 0.000001 -0.057580 -1.073548 0.178524
 26   10.828047 0.000000 0.000001 0.000000 0.000000 -0.208826
 27   9.393339 0.000000 0.000000 1.569611 -0.154890 0.000001
 28   1.442245 0.107455 1.746178 -1.686405 -0.539236 0.325898
 29   1.063450 -0.000001 0.000000 0.000000 0.000000 0.199056
 30   1.376307 0.000000 0.000000 0.000000 0.000000 0.199059
 31   4.172847 -0.251365 1.312745 0.016243 -0.094689 -0.105517
 32   1.215373 -0.000001 0.000000 0.000000 0.000000 0.392679
 33   1.215372 0.000000 0.000000 0.000000 0.000000 0.392679
 34   4.220534 -0.244853 0.431466 0.005271 -0.025739 -0.104777
 35   1.350416 0.000000 -0.000001 0.000000 0.000000 0.610828
 36   1.350410 0.000000 0.000001 0.000000 0.000000 0.610833
 37   2.110540 -0.000001 0.000000 0.003243 -0.183995 -0.250299
 38   0.891923 2.373051 -0.014527 -3.141592 -0.000001 1.413797
 39   7.228122 5.709445 3.726568 3.140796 -1.570796 0.000000
 40   2.450426 5.076128 0.001325 3.140791 -1.570796 0.000000
 41   6.312404 -4.528058 0.001311 3.140791 -1.570796 0.000000
 42   2.233309 1.152535 -7.309138 -1.327951 -1.514294 -0.395025
 43   4.262825 -0.232720 -1.392178 -0.002923 0.078442 -0.000042
time 11
  0   0.004864 -0.007176 39.073406 0.000000 0.000000 -1.570843
  1   -0.089519 1.972716 0.000000 -1.570795 -1.570451 0.000000
  2   -0.000007 0.000008 4.427393 0.111008 -3.131935 -0.016623
  3   18.465939 0.000000 0.000000 0.000000 0.000000 -0.218802
  4   14.875443 0.000000 -0.000001 -0.076356 -0.081215 -0.509392
  5   0.000006 -0.000004 -4.427393 0.074643 3.099498 -0.054992
  6   18.465939 0.000000 0.000000 0.000000 0.000000 -0.144915
  7   14.875442 0.000000 0.000000 -0.074503 -0.042478 -0.886948
  8   2.255207 -0.007574 0.000003 0.000143 0.184394 -0.007906
  9   9.514219 -0.009357 0.000000 0.000000 0.000000 -0.015652
 10   11.751820 -0.001633 0.000000 0.000000 -0.000001 0.239386
 11   -2.133122 0.444673 2.649729 0.088019 -1.370041 2.815150
 12   4.640941 0.000000 -0.000001 0.107181 1.307058 0.287074
 13   10.828049 0.000000 0.000000 0.000000 0.000000 -0.104135
 14   9.393337 -0.000001 0.000000 -1.569611 0.103994 0.000037
 15   1.442245 0.107454 -1.746177 1.686435 0.539209 0.325885
 16   1.063452 0.000000 0.000001 0.000000 0.000000 0.199056
 17   1.376307 -0.000001 0.000001 0.000000 0.000000 0.199049
 18   4.172846 -0.251366 -1.312744 -0.016243 0.094689 -0.105517
 19   1.215374 0.000002 0.000000 0.000000 0.000000 0.392669
 20   1.215371 -0.000002 0.000001 0.000000 0.000000 0.392669
 21   4.220534 -0.244854 -0.431465 -0.005271 0.025739 -0.104777
 22   1.350417 0.000000 0.000001 0.000000 0.000000 0.610843
 23   1.350410 -0.000001 -0.000001 0.000000 0.000000 0.610843
 24   -2.133122 0.444686 -2.649726 -0.088046 1.370039 2.815124
 25   4.640942 0.000000 0.000001 -0.073787 -1.072084 0.194412
 26   10.828047 0.000000 0.000001 0.000000 0.000000 -0.208826
 27   9.393339 0.000000 0.000000 1.569611 -0.154760 0.000001
 28   1.442245 0.107455 1.746178 -1.686405 -0.539236 0.325898
 29   1.063450 -0.000001 0.000000 0.000000 0.000000 0.199056
 30   1.376307 0.000000 0.000000 0.000000 0.000000 0.199059
 31   4.172847 -0.251365 1.312745 0.016243 -0.094689 -0.105517
 32   1.215373 -0.000001 0.000000 0.000000 0.000000 0.392679
 33   1.215372 0.000000 0.000000 0.000000 0.000000 0.392679
 34   4.220534 -0.244853 0.431466 0.005271 -0.025739 -0.104777
 35   1.350416 0.000000 -0.000001 0.000000 0.000000 0.610828
 36   1.350410 0.000000 0.000001 0.000000 0.000000 0.610833
 37   2.110540 -0.000001 0.000000 0.003243 -0.184358 -0.242257
 38   0.891923 2.373051 -0.014527 -3.141592 -0.000001 1.413797
 39   7.228122 5.709445 3.726568 3.140796 -1.570796 0.000000
 40   2.450426 5.076128 0.001325 3.140791 -1.570796 0.000000
 41   6.312404 -4.528058 0.001311 3.140791 -1.570796 0.000000
 42   2.233309 1.152535 -7.309138 -1.425070 -1.541438 -0.335762
 43   4.262825 -0.232720 -1.392178 -0.002923 0.078442 -0.000042
time 12
  0   0.004864 -0.007176 38.979652 0.000000 0.000000 -1.570843
  1   -0.054362 1.976623 0.000000 -1.570795 -1.570451 0.000000
  2   -0.000007 0.000008 4.427393 0.111389 -3.140400 -0.091332
  3   18.465939 0.000000 0.000000 0.000000 0.000000 -0.218802
  4   14.875443 0.000000 -0.000001 -0.076413 -0.081193 -0.584607
  5   0.000006 -0.000004 -4.427393 0.071198 3.093719 -0.132295
  6   18.465939 0.000000 0.000000 0.000000 0.000000 -0.144915
  7   14.875442 0.000000 0.000000 -0.074573 -0.042440 -0.964422
  8   2.255207 -0.007574 0.000003 0.000143 0.184741 -0.007906
  9   9.514219 -0.009357 0.000000 0.000000 0.000000 -0.024787
 10   11.751820 -0.001633 0.000000 0.000000 -0.000001 0.239386
 11   -2.133122 0.444673 2.649729 0.088019 -1.370041 2.815150
 12   4.640941 0.000000 -0.000001 0.139994 1.304096 0.320558
 13   10.828049 0.000000 0.000000 0.000000 0.000000 -0.104135
 14   9.393337 -0.000001 0.000000 -1.569611 0.103994 0.000037
 15   1.442245 0.107454 -1.746177 1.686435 0.539209 0.325885
 16   1.063452 0.000000 0.000001 0.000000 0.000000 0.199056
 17   1.376307 -0.000001 0.000001 0.000000 0.000000 0.199049
 18   4.172846 -0.251366 -1.312744 -0.016243 0.094689 -0.105517
 19   1.215374 0.000002 0.000000 0.000000 0.000000 0.392669
 20   1.215371 -0.000002 0.000001 0.000000 0.000000 0.392669
 21   4.220534 -0.244854 -0.431465 -0.005271 0.025739 -0.104777
 22   1.350417 0.000000 0.000001 0.000000 0.000000 0.610843
 23   1.350410 -0.000001 -0.000001 0.000000 0.000000 0.610843
 24   -2.133122 0.444686 -2.649726 -0.088046 1.370039 2.815124
 25   4.640942 0.000000 0.000001 -0.092052 -1.070201 0.212261
 26   10.828047 0.000000 0.000001 0.000000 0.000000 -0.208826
 27   9.393339 0.000000 0.000000 1.569611 -0.154663 0.000001
 28   1.442245 0.107455 1.746178 -1.686405 -0.539236 0.325898
 29   1.063450 -0.000001 0.000000 0.000000 0.000000 0.199056
 30   1.376307 0.000000 0.000000 0.000000 0.000000 0.199059
 31   4.172847 -0.251365 1.312745 0.016243 -0.094689 -0.105517
 32   1.215373 -0.000001 0.000000 0.000000 0.000000 0.392679
 33   1.215372 0.000000 0.000000 0.000000 0.000000 0.392679
 34   4.220534 -0.244853 0.431466 0.005271 -0.025739 -0.104777
 35   1.350416 0.000000 -0.000001 0.000000 0.000000 0.610828
 36   1.350410 0.000000 0.000001 0.000000 0.000000 0.610833
 37   2.110540 -0.000001 0.000000 0.003243 -0.184694 -0.233097
 38   0.891923 2.373051 -0.014527 -3.141592 -0.000001 1.413797
 39   7.228122 5.709445 3.726568 3.140796 -1.570796 0.000000
 40   2.450426 5.076128 0.001325 3.140791 -1.570796 0.000000
 41   6.312404 -4.528058 0.001311 3.140791 -1.570796 0.000000
 42   2.233309 1.152535 -7.309138 -1.611350 -1.550642 -0.212352
 43   4.262825 -0.232720 -1.392178 -0.002923 0.078442 -0.000042
time 13
  0   0.004864 -0.007176 38.921059 0.000000 0.000000 -1.570843
  1   -0.011392 1.980529 0.000000 -1.570795 -1.570451 0.000000
  2   -0.000007 0.000008 4.427393 0.111389 -3.145703 -0.138911
  3   18.465939 0.000000 0.000000 0.000000 0.000000 -0.218802
  4   14.875443 0.000000 -0.000001 -0.076498 -0.081172 -0.632485
  5   0.000006 -0.000004 -4.427393 0.069189 3.090830 -0.171882
  6   18.465939 0.000000 0.000000 0.000000 0.000000 -0.144915
  7   14.875442 0.000000 0.000000 -0.074644 -0.042402 -1.004041
  8   2.255207 -0.007574 0.000003 0.000143 0.185041 -0.007906
  9   9.514219 -0.009357 0.000000 0.000000 0.000000 -0.034724
 10   11.751820 -0.001633 0.000000 0.000000 -0.000001 0.239386
 11   -2.133122 0.444673 2.649729 0.088019 -1.370041 2.815150
 12   4.640941 0.000000 -0.000001 0.175066 1.300928 0.356324
 13   10.828049 0.000000 0.000000 0.000000 0.000000 -0.104135
 14   9.393337 -0.000001 0.000000 -1.569611 0.103994 0.000037
 15   1.442245 0.107454 -1.746177 1.686435 0.539209 0.325885
 16   1.063452 0.000000 0.000001 0.000000 0.000000 0.199056
 17   1.376307 -0.000001 0.000001 0.000000 0.000000 0.199049
 18   4.172846 -0.251366 -1.312744 -0.016243 0.094689 -0.105517
 19   1.215374 0.000002 0.000000 0.000000 0.000000 0.392669
 20   1.215371 -0.000002 0.000001 0.000000 0.000000 0.392669
 21   4.220534 -0.244854 -0.431465 -0.005271 0.025739 -0.104777
 22   1.350417 0.000000 0.000001 0.000000 0.000000 0.610843
 23   1.350410 -0.000001 -0.000001 0.000000 0.000000 0.610843
 24   -2.133122 0.444686 -2.649726 -0.088046 1.370039 2.815124
 25   4.640942 0.000000 0.000001 -0.111809 -1.067969 0.231509
 26   10.828047 0.000000 0.000001 0.000000 0.000000 -0.208826
 27   9.393339 0.000000 0.000000 1.569611 -0.154630 0.000001
 28   1.442245 0.107455 1.746178 -1.686405 -0.539236 0.325898
 29   1.063450 -0.000001 0.000000 0.000000 0.000000 0.199056
 30   1.376307 0.000000 0.000000 0.000000 0.000000 0.199059
 31   4.172847 -0.251365 1.312745 0.016243 -0.094689 -0.105517
 32   1.215373 -0.000001 0.000000 0.000000 0.000000 0.392679
 33   1.215372 0.000000 0.000000 0.000000 0.000000 0.392679
 34   4.220534 -0.244853 0.431466 0.005271 -0.025739 -0.104777
 35   1.350416 0.000000 -0.000001 0.000000 0.000000 0.610828
 36   1.350410 0.000000 0.000001 0.000000 0.000000 0.610833
 37   2.110540 -0.000001 0.000000 0.003243 -0.185001 -0.223163
 38   0.891923 2.373051 -0.014527 -3.141592 -0.000001 1.413797
 39   7.228122 5.709445 3.726568 3.140796 -1.570796 0.000000
 40   2.450426 5.076128 0.001325 3.140791 -1.570796 0.000000
 41   6.312404 -4.528058 0.001311 3.140791 -1.570796 0.000000
 42   2.233309 1.152535 -7.309138 -1.630045 -1.550176 -0.220011
 43   4.262825 -0.232720 -1.392178 -0.002923 0.078442 -0.000042
time 14
  0   0.004864 -0.007176 38.893715 0.000000 0.000000 -1.570843
  1   0.031578 1.980529 0.000000 -1.570795 -1.570451 0.000000
  2   -0.000007 0.000008 4.427393 0.111389 -3.145610 -0.136966
  3   18.465939 0.000000 0.000000 0.000000 0.000000 -0.218802
  4   14.875443 0.000000 -0.000001 -0.076583 -0.081151 -0.630550
  5   0.000006 -0.000004 -4.427393 0.071103 3.093440 -0.133979
  6   18.465939 0.000000 0.000000 0.000000 0.000000 -0.144915
  7   14.875442 0.000000 0.000000 -0.074749 -0.042364 -0.966148
  8   2.255207 -0.007574 0.000003 0.000143 0.185269 -0.007906
  9   9.514219 -0.009357 0.000000 0.000000 0.000000 -0.045223
 10   11.751820 -0.001633 0.000000 0.000000 -0.000001 0.239386
 11   -2.133122 0.444673 2.649729 0.088019 -1.370041 2.815150
 12   4.640941 0.000000 -0.000001 0.211316 1.297691 0.393320
 13   10.828049 0.000000 0.000000 0.000000 0.000000 -0.104135
 14   9.393337 -0.000001 0.000000 -1.569611 0.103994 0.000037
 15   1.442245 0.107454 -1.746177 1.686435 0.539209 0.325885
 16   1.063452 0.000000 0.000001 0.000000 0.000000 0.199056
 17   1.376307 -0.000001 0.000001 0.000000 0.000000 0.199049
 18   4.172846 -0.251366 -1.312744 -0.016243 0.094689 -0.105517
 19   1.215374 0.000002 0.000000 0.000000 0.000000 0.392669
 20   1.215371 -0.000002 0.000001 0.000000 0.000000 0.392669
 21   4.220534 -0.244854 -0.431465 -0.005271 0.025739 -0.104777
 22   1.350417 0.000000 0.000001 0.000000 0.000000 0.610843
 23   1.350410 -0.000001 -0.000001 0.000000 0.000000 0.610843
 24   -2.133122 0.444686 -2.649726 -0.088046 1.370039 2.815124
 25   4.640942 0.000000 0.000001 -0.132441 -1.065458 0.251667
 26   10.828047 0.000000 0.000001 0.000000 0.000000 -0.208826
 27   9.393339 0.000000 0.000000 1.569611 -0.154630 0.000001
 28   1.442245 0.107455 1.746178 -1.686405 -0.539236 0.325898
 29   1.063450 -0.000001 0.000000 0.000000 0.000000 0.199056
 30   1.376307 0.000000 0.000000 0.000000 0.000000 0.199059
 31   4.172847 -0.251365 1.312745 0.016243 -0.094689 -0.105517
 32   1.215373 -0.000001 0.000000 0.000000 0.000000 0.392679
 33   1.215372 0.000000 0.000000 0.000000 0.000000 0.392679
 34   4.220534 -0.244853 0.431466 0.005271 -0.025739 -0.104777
 35   1.350416 0.000000 -0.000001 0.000000 0.000000 0.610828
 36   1.350410 0.000000 0.000001 0.000000 0.000000 0.610833
 37   2.110540 -0.000001 0.000000 0.003243 -0.185224 -0.212670
 38   0.891923 2.373051 -0.014527 -3.141592 -0.000001 1.413797
 39   7.228122 5.709445 3.726568 3.140796 -1.570796 0.000000
 40   2.450426 5.076128 0.001325 3.140791 -1.570796 0.000000
 41   6.312404 -4.528058 0.001311 3.140791 -1.570796 0.000000
 42   2.233309 1.152535 -7.309138 -1.570700 -1.549826 -0.247489
 43   4.262825 -0.232720 -1.392178 -0.002923 0.078442 -0.000042
time 15
  0   0.004864 -0.007176 38.893715 0.000000 0.000000 -1.570843
  1   0.074548 1.984436 0.000000 -1.570795 -1.570451 0.000000
  2   -0.000007 0.000008 4.427393 0.111485 -3.142540 -0.108688
  3   18.465939 0.000000 0.000000 0.000000 0.000000 -0.218802
  4   14.875443 0.000000 -0.000001 -0.076669 -0.081129 -0.602107
  5   0.000006 -0.000004 -4.427393 0.074738 3.099219 -0.053682
  6   18.465939 0.000000 0.000000 0.000000 0.000000 -0.144915
  7   14.875442 0.000000 0.000000 -0.074819 -0.042326 -0.885598
  8   2.255207 -0.007574 0.000003 0.000143 0.185377 -0.007906
  9   9.514219 -0.009357 0.000000 0.000000 0.000000 -0.055983
 10   11.751820 -0.001633 0.000000 0.000000 -0.000001 0.239386
 11   -2.133122 0.444673 2.649729 0.088019 -1.370041 2.815150
 12   4.640941 0.000000 -0.000001 0.247813 1.294316 0.430667
 13   10.828049 0.000000 0.000000 0.000000 0.000000 -0.104135
 14   9.393337 -0.000001 0.000000 -1.569611 0.103994 0.000037
 15   1.442245 0.107454 -1.746177 1.686435 0.539209 0.325885
 16   1.063452 0.000000 0.000001 0.000000 0.000000 0.199056
 17   1.376307 -0.000001 0.000001 0.000000 0.000000 0.199049
 18   4.172846 -0.251366 -1.312744 -0.016243 0.094689 -0.105517
 19   1.215374 0.000002 0.000000 0.000000 0.000000 0.392669
 20   1.215371 -0.000002 0.000001 0.000000 0.000000 0.392669
 21   4.220534 -0.244854 -0.431465 -0.005271 0.025739 -0.104777
 22   1.350417 0.000000 0.000001 0.000000 0.000000 0.610843
 23   1.350410 -0.000001 -0.000001 0.000000 0.000000 0.610843
 24   -2.133122 0.444686 -2.649726 -0.088046 1.370039 2.815124
 25   4.640942 0.000000 0.000001 -0.153434 -1.062669 0.272175
 26   10.828047 0.000000 0.000001 0.000000 0.000000 -0.208826
 27   9.393339 0.000000 0.000000 1.569611 -0.154728 0.000001
 28   1.442245 0.107455 1.746178 -1.686405 -0.539236 0.325898
 29   1.063450 -0.000001 0.000000 0.000000 0.000000 0.199056
 30   1.376307 0.000000 0.000000 0.000000 0.000000 0.199059
 31   4.172847 -0.251365 1.312745 0.016243 -0.094689 -0.105517
 32   1.215373 -0.000001 0.000000 0.000000 0.000000 0.392679
 33   1.215372 0.000000 0.000000 0.000000 0.000000 0.392679
 34   4.220534 -0.244853 0.431466 0.005271 -0.025739 -0.104777
 35   1.350416 0.000000 -0.000001 0.000000 0.000000 0.610828
 36   1.350410 0.000000 0.000001 0.000000 0.000000 0.610833
 37   2.110540 -0.000001 0.000000 0.003243 -0.185336 -0.201919
 38   0.891923 2.373051 -0.014527 -3.141592 -0.000001 1.413797
 39   7.228122 5.709445 3.726568 3.140796 -1.570796 0.000000
 40   2.450426 5.076128 0.001325 3.140791 -1.570796 0.000000
 41   6.312404 -4.528058 0.001311 3.140791 -1.570796 0.000000
 42   2.233309 1.152535 -7.309138 -1.488346 -1.547904 -0.287030
 43   4.262825 -0.232720 -1.392178 -0.002923 0.078442 -0.000042
time 16
  0   0.004864 -0.007176 38.921059 0.000000 0.000000 -1.570843
  1   0.117518 1.980529 0.000000 -1.570795 -1.570451 0.000000
  2   -0.000007 0.000008 4.427393 0.111485 -3.139935 -0.085248
  3   18.465939 0.000000 0.000000 0.000000 0.000000 -0.218802
  4   14.875443 0.000000 -0.000001 -0.076669 -0.081108 -0.578524
  5   0.000006 -0.000004 -4.427393 0.076843 3.103226 -0.000899
  6   18.465939 0.000000 0.000000 0.000000 0.000000 -0.144915
  7   14.875442 0.000000 0.000000 -0.074854 -0.042307 -0.832660
  8   2.255207 -0.007574 0.000003 0.000143 0.185353 -0.007906
  9   9.514219 -0.009357 0.000000 0.000000 0.000000 -0.066742
 10   11.751820 -0.001633 0.000000 0.000000 -0.000001 0.239386
 11   -2.133122 0.444673 2.649729 0.088019 -1.370041 2.815150
 12   4.640941 0.000000 -0.000001 0.283818 1.291010 0.467488
 13   10.828049 0.000000 0.000000 0.000000 0.000000 -0.104135
 14   9.393337 -0.000001 0.000000 -1.569611 0.103994 0.000037
 15   1.442245 0.107454 -1.746177 1.686435 0.539209 0.325885
 16   1.063452 0.000000 0.000001 0.000000 0.000000 0.199056
 17   1.376307 -0.000001 0.000001 0.000000 0.000000 0.199049
 18   4.172846 -0.251366 -1.312744 -0.016243 0.094689 -0.105517
 19   1.215374 0.000002 0.000000 0.000000 0.000000 0.392669
 20   1.215371 -0.000002 0.000001 0.000000 0.000000 0.392669
 21   4.220534 -0.244854 -0.431465 -0.005271 0.025739 -0.104777
 22   1.350417 0.000000 0.000001 0.000000 0.000000 0.610843
 23   1.350410 -0.000001 -0.000001 0.000000 0.000000 0.610843
 24   -2.133122 0.444686 -2.649726 -0.088046 1.370039 2.815124
 25   4.640942 0.000000 0.000001 -0.174323 -1.059810 0.292474
 26   10.828047 0.000000 0.000001 0.000000 0.000000 -0.208826
 27   9.393339 0.000000 0.000000 1.569611 -0.154858 0.000001
 28   1.442245 0.107455 1.746178 -1.686405 -0.539236 0.325898
 29   1.063450 -0.000001 0.000000 0.000000 0.000000 0.199056
 30   1.376307 0.000000 0.000000 0.000000 0.000000 0.199059
 31   4.172847 -0.251365 1.312745 0.016243 -0.094689 -0.105517
 32   1.215373 -0.000001 0.000000 0.000000 0.000000 0.392679
 33   1.215372 0.000000 0.000000 0.000000 0.000000 0.392679
 34   4.220534 -0.244853 0.431466 0.005271 -0.025739 -0.104777
 35   1.350416 0.000000 -0.000001 0.000000 0.000000 0.610828
 36   1.350410 0.000000 0.000001 0.000000 0.000000 0.610833
 37   2.110540 -0.000001 0.000000 0.003243 -0.185308 -0.191168
 38   0.891923 2.373051 -0.014527 -3.141592 -0.000001 1.413797
 39   7.228122 5.709445 3.726568 3.140796 -1.570796 0.000000
 40   2.450426 5.076128 0.001325 3.140791 -1.570796 0.000000
 41   6.312404 -4.528058 0.001311 3.140791 -1.570796 0.000000
 42   2.233309 1.152535 -7.309138 -1.400335 -1.537972 -0.336910
 43   4.262825 -0.232720 -1.392178 -0.002923 0.078442 -0.000042
time 17
  0   0.004864 -0.007176 38.967934 0.000000 0.000000 -1.570843
  1   0.160488 1.980529 0.000000 -1.570795 -1.570451 0.000000
  2   -0.000007 0.000008 4.427393 0.111580 -3.139284 -0.078316
  3   18.465939 0.000000 0.000000 0.000000 0.000000 -0.216243
  4   14.875443 0.000000 -0.000001 -0.076811 -0.081066 -0.574060
  5   0.000006 -0.000004 -4.427393 0.076939 3.103133 0.000318
  6   18.465939 0.000000 0.000000 0.000000 0.000000 -0.142159
  7   14.875442 0.000000 0.000000 -0.074995 -0.042231 -0.834274
  8   2.255207 -0.007574 0.000003 0.000143 0.185149 -0.007906
  9   9.514219 -0.009357 0.000000 0.000000 0.000000 -0.077263
 10   11.751820 -0.001633 0.000000 0.000000 -0.000001 0.239386
 11   -2.133122 0.444673 2.649729 0.088019 -1.370041 2.815150
 12   4.640941 0.000000 -0.000001 0.318546 1.287910 0.503079
 13   10.828049 0.000000 0.000000 0.000000 0.000000 -0.104135
 14   9.393337 -0.000001 0.000000 -1.569611 0.103994 0.000037
 15   1.442245 0.107454 -1.746177 1.686435 0.539209 0.325885
 16   1.063452 0.000000 0.000001 0.000000 0.000000 0.199056
 17   1.376307 -0.000001 0.000001 0.000000 0.000000 0.199049
 18   4.172846 -0.251366 -1.312744 -0.016243 0.094689 -0.105517
 19   1.215374 0.000002 0.000000 0.000000 0.000000 0.392669
 20   1.215371 -0.000002 0.000001 0.000000 0.000000 0.392669
 21   4.220534 -0.244854 -0.431465 -0.005271 0.025739 -0.104777
 22   1.350417 0.000000 0.000001 0.000000 0.000000 0.610843
 23   1.350410 -0.000001 -0.000001 0.000000 0.000000 0.610843
 24   -2.133122 0.444686 -2.649726 -0.088046 1.370039 2.815124
 25   4.640942 0.000000 0.000001 -0.194492 -1.056811 0.312142
 26   10.828047 0.000000 0.000001 0.000000 0.000000 -0.208826
 27   9.393339 0.000000 0.000000 1.569611 -0.155086 0.000001
 28   1.442245 0.107455 1.746178 -1.686405 -0.539236 0.325898
 29   1.063450 -0.000001 0.000000 0.000000 0.000000 0.199056
 30   1.376307 0.000000 0.000000 0.000000 0.000000 0.199059
 31   4.172847 -0.251365 1.312745 0.016243 -0.094689 -0.105517
 32   1.215373 -0.000001 0.000000 0.000000 0.000000 0.392679
 33   1.215372 0.000000 0.000000 0.000000 0.000000 0.392679
 34   4.220534 -0.244853 0.431466 0.005271 -0.025739 -0.104777
 35   1.350416 0.000000 -0.000001 0.000000 0.000000 0.610828
 36   1.350410 0.000000 0.000001 0.000000 0.000000 0.610833
 37   2.110540 -0.000001 0.000000 0.003243 -0.185113 -0.180632
 38   0.891923 2.373051 -0.014527 -3.141592 -0.000001 1.413797
 39   7.228122 5.709445 3.726568 3.140796 -1.570796 0.000000
 40   2.450426 5.076128 0.001325 3.140791 -1.570796 0.000000
 41   6.312404 -4.528058 0.001311 3.140791 -1.570796 0.000000
 42   2.233309 1.152535 -7.309138 -1.384899 -1.531973 -0.352037
 43   4.262825 -0.232720 -1.392178 -0.002923 0.078442 -0.000042
time 18
  0   0.004864 -0.007176 39.030437 0.000000 0.000000 -1.570843
  1   0.203458 1.972716 0.000000 -1.570795 -1.570451 0.000000
  2   -0.000007 0.000008 4.427393 0.111676 -3.139191 -0.075622
  3   18.465939 0.000000 0.000000 0.000000 0.000000 -0.212003
  4   14.875443 0.000000 -0.000001 -0.077039 -0.080980 -0.575600
  5   0.000006 -0.000004 -4.427393 0.076173 3.101362 -0.018493
  6   18.465939 0.000000 0.000000 0.000000 0.000000 -0.137498
  7   14.875442 0.000000 0.000000 -0.075240 -0.042098 -0.857760
  8   2.255207 -0.007574 0.000003 0.000143 0.184741 -0.007906
  9   9.514219 -0.009357 0.000000 0.000000 0.000000 -0.087264
 10   11.751820 -0.001633 0.000000 0.000000 -0.000001 0.239386
 11   -2.133122 0.444673 2.649729 0.088019 -1.370041 2.815150
 12   4.640941 0.000000 -0.000001 0.351358 1.285293 0.536796
 13   10.828049 0.000000 0.000000 0.000000 0.000000 -0.104135
 14   9.393337 -0.000001 0.000000 -1.569611 0.103994 0.000037
 15   1.442245 0.107454 -1.746177 1.686435 0.539209 0.325885
 16   1.063452 0.000000 0.000001 0.000000 0.000000 0.199056
 17   1.376307 -0.000001 0.000001 0.000000 0.000000 0.199049
 18   4.172846 -0.251366 -1.312744 -0.016243 0.094689 -0.105517
 19   1.215374 0.000002 0.000000 0.000000 0.000000 0.392669
 20   1.215371 -0.000002 0.000001 0.000000 0.000000 0.392669
 21   4.220534 -0.244854 -0.431465 -0.005271 0.025739 -0.104777
 22   1.350417 0.000000 0.000001 0.000000 0.000000 0.610843
 23   1.350410 -0.000001 -0.000001 0.000000 0.000000 0.610843
 24   -2.133122 0.444686 -2.649726 -0.088046 1.370039 2.815124
 25   4.640942 0.000000 0.000001 -0.213580 -1.053882 0.330760
 26   10.828047 0.000000 0.000001 0.000000 0.000000 -0.208826
 27   9.393339 0.000000 0.000000 1.569611 -0.155411 0.000001
 28   1.442245 0.107455 1.746178 -1.686405 -0.539236 0.325898
 29   1.063450 -0.000001 0.000000 0.000000 0.000000 0.199056
 30   1.376307 0.000000 0.000000 0.000000 0.000000 0.199059
 31   4.172847 -0.251365 1.312745 0.016243 -0.094689 -0.105517
 32   1.215373 -0.000001 0.000000 0.000000 0.000000 0.392679
 33   1.215372 0.000000 0.000000 0.000000 0.000000 0.392679
 34   4.220534 -0.244853 0.431466 0.005271 -0.025739 -0.104777
 35   1.350416 0.000000 -0.000001 0.000000 0.000000 0.610828
 36   1.350410 0.000000 0.000001 0.000000 0.000000 0.610833
 37   2.110540 -0.000001 0.000000 0.003243 -0.184694 -0.170612
 38   0.891923 2.373051 -0.014527 -3.141592 -0.000001 1.413797
 39   7.228122 5.709445 3.726568 3.140796 -1.570796 0.000000
 40   2.450426 5.076128 0.001325 3.140791 -1.570796 0.000000
 41   6.312404 -4.528058 0.001311 3.140791 -1.570796 0.000000
 42   2.233309 1.152535 -7.309138 -1.384707 -1.527691 -0.361516
 43   4.262825 -0.232720 -1.392178 -0.002923 0.078442 -0.000042
time 19
  0   0.004864 -0.007176 39.108562 0.000000 0.000000 -1.570843
  1   0.242522 1.964904 0.000000 -1.570795 -1.570451 0.000000
  2   -0.000007 0.000008 4.427393 0.111580 -3.138726 -0.072530
  3   18.465939 0.000000 0.000000 0.000000 0.000000 -0.211199
  4   14.875443 0.000000 -0.000001 -0.076982 -0.081002 -0.573309
  5   0.000006 -0.000004 -4.427393 0.075217 3.099591 -0.043855
  6   18.465939 0.000000 0.000000 0.000000 0.000000 -0.136579
  7   14.875442 0.000000 0.000000 -0.075170 -0.042136 -0.884097
  8   2.255207 -0.007574 0.000003 0.000143 0.184082 -0.007906
  9   9.514219 -0.009357 0.000000 0.000000 0.000000 -0.096487
 10   11.751820 -0.001633 0.000000 0.000000 -0.000001 0.239386
 11   -2.133122 0.444673 2.649729 0.088019 -1.370041 2.815150
 12   4.640941 0.000000 -0.000001 0.381812 1.283226 0.568114
 13   10.828049 0.000000 0.000000 0.000000 0.000000 -0.104135
 14   9.393337 -0.000001 0.000000 -1.569611 0.103994 0.000037
 15   1.442245 0.107454 -1.746177 1.686435 0.539209 0.325885
 16   1.063452 0.000000 0.000001 0.000000 0.000000 0.199056
 17   1.376307 -0.000001 0.000001 0.000000 0.000000 0.199049
 18   4.172846 -0.251366 -1.312744 -0.016243 0.094689 -0.105517
 19   1.215374 0.000002 0.000000 0.000000 0.000000 0.392669
 20   1.215371 -0.000002 0.000001 0.000000 0.000000 0.392669
 21   4.220534 -0.244854 -0.431465 -0.005271 0.025739 -0.104777
 22   1.350417 0.000000 0.000001 0.000000 0.000000 0.610843
 23   1.350410 -0.000001 -0.000001 0.000000 0.000000 0.610843
 24   -2.133122 0.444686 -2.649726 -0.088046 1.370039 2.815124
 25   4.640942 0.000000 0.000001 -0.231074 -1.051232 0.347769
 26   10.828047 0.000000 0.000001 0.000000 0.000000 -0.208826
 27   9.393339 0.000000 0.000000 1.569611 -0.155834 0.000001
 28   1.442245 0.107455 1.746178 -1.686405 -0.539236 0.325898
 29   1.063450 -0.000001 0.000000 0.000000 0.000000 0.199056
 30   1.376307 0.000000 0.000000 0.000000 0.000000 0.199059
 31   4.172847 -0.251365 1.312745 0.016243 -0.094689 -0.105517
 32   1.215373 -0.000001 0.000000 0.000000 0.000000 0.392679
 33   1.215372 0.000000 0.000000 0.000000 0.000000 0.392679
 34   4.220534 -0.244853 0.431466 0.005271 -0.025739 -0.104777
 35   1.350416 0.000000 -0.000001 0.000000 0.000000 0.610828
 36   1.350410 0.000000 0.000001 0.000000 0.000000 0.610833
 37   2.110540 -0.000001 0.000000 0.003243 -0.184051 -0.161409
 38   0.891923 2.373051 -0.014527 -3.141592 -0.000001 1.413797
 39   7.228122 5.709445 3.726568 3.140796 -1.570796 0.000000
 40   2.450426 5.076128 0.001325 3.140791 -1.570796 0.000000
 41   6.312404 -4.528058 0.001311 3.140791 -1.570796 0.000000
 42   2.233309 1.152535 -7.309138 -1.402252 -1.527808 -0.363239
 43   4.262825 -0.232720 -1.392178 -0.002923 0.078442 -0.000042
time 20
  0   0.004864 -0.007176 39.198410 0.000000 0.000000 -1.570843
  1   0.273773 1.957091 0.000000 -1.570795 -1.570451 0.000000
  2   -0.000007 0.000008 4.427393 0.111198 -3.137051 -0.064301
  3   18.465939 0.000000 0.000000 0.000000 0.000000 -0.218802
  4   14.875443 0.000000 -0.000001 -0.076156 -0.081300 -0.557389
  5   0.000006 -0.000004 -4.427393 0.074356 3.099125 -0.062292
  6   18.465939 0.000000 0.000000 0.000000 0.000000 -0.144915
  7   14.875442 0.000000 0.000000 -0.074293 -0.042592 -0.894189
  8   2.255207 -0.007574 0.000003 0.000122 0.183160 -0.007906
  9   9.514219 -0.009357 0.000000 0.000000 0.000000 -0.104648
 10   11.751820 -0.001633 0.000000 0.000000 -0.000001 0.239386
 11   -2.133122 0.444673 2.649729 0.088019 -1.370041 2.815150
 12   4.640941 0.000000 -0.000001 0.409418 1.282055 0.596622
 13   10.828049 0.000000 0.000000 0.000000 0.000000 -0.104135
 14   9.393337 -0.000001 0.000000 -1.569611 0.103994 0.000037
 15   1.442245 0.107454 -1.746177 1.686435 0.539209 0.325885
 16   1.063452 0.000000 0.000001 0.000000 0.000000 0.199056
 17   1.376307 -0.000001 0.000001 0.000000 0.000000 0.199049
 18   4.172846 -0.251366 -1.312744 -0.016243 0.094689 -0.105517
 19   1.215374 0.000002 0.000000 0.000000 0.000000 0.392669
 20   1.215371 -0.000002 0.000001 0.000000 0.000000 0.392669
 21   4.220534 -0.244854 -0.431465 -0.005271 0.025739 -0.104777
 22   1.350417 0.000000 0.000001 0.000000 0.000000 0.610843
 23   1.350410 -0.000001 -0.000001 0.000000 0.000000 0.610843
 24   -2.133122 0.444686 -2.649726 -0.088046 1.370039 2.815124
 25   4.640942 0.000000 0.000001 -0.246561 -1.048860 0.362887
 26   10.828047 0.000000 0.000001 0.000000 0.000000 -0.208826
 27   9.393339 0.000000 0.000000 1.569611 -0.156354 0.000001
 28   1.442245 0.107455 1.746178 -1.686405 -0.539236 0.325898
 29   1.063450 -0.000001 0.000000 0.000000 0.000000 0.199056
 30   1.376307 0.000000 0.000000 0.000000 0.000000 0.199059
 31   4.172847 -0.251365 1.312745 0.016243 -0.094689 -0.105517
 32   1.215373 -0.000001 0.000000 0.000000 0.000000 0.392679
 33   1.215372 0.000000 0.000000 0.000000 0.000000 0.392679
 34   4.220534 -0.244853 0.431466 0.005271 -0.025739 -0.104777
 35   1.350416 0.000000 -0.000001 0.000000 0.000000 0.610828
 36   1.350410 0.000000 0.000001 0.000000 0.000000 0.610833
 37   2.110540 -0.000001 0.000000 0.003195 -0.183129 -0.153238
 38   0.891923 2.373051 -0.014527 -3.141592 -0.000001 1.413797
 39   7.228122 5.709445 3.726568 3.140796 -1.570796 0.000000
 40   2.450426 5.076128 0.001325 3.140791 -1.570796 0.000000
 41   6.312404 -4.528058 0.001311 3.140791 -1.570796 0.000000
 42   2.233309 1.152535 -7.309138 -1.431397 -1.537128 -0.339304
 43   4.262825 -0.232720 -1.392178 -0.002923 0.078442 -0.000042
time 21
  0   0.004864 -0.007176 39.331226 0.000000 0.000000 -1.570843
  1   0.273773 1.785211 0.000000 -1.570795 -1.570451 0.000000
  2   -0.000007 0.000008 4.427393 0.108048 -3.126818 -0.023406
  3   18.465939 0.000000 0.000000 0.000000 0.000000 -0.286499
  4   14.875443 0.000000 -0.000001 -0.070151 -0.083556 -0.448360
  5   0.000006 -0.000004 -4.427393 0.074356 3.107048 -0.053495
  6   18.465939 0.000000 0.000000 0.000000 0.000000 -0.219150
  7   14.875442 0.000000 0.000000 -0.067975 -0.045996 -0.810863
  8   2.255207 -0.007574 0.000003 0.000122 0.167052 -0.007906
  9   9.514219 -0.009357 0.000000 0.000000 0.000000 -0.104648
 10   11.751820 -0.001633 0.000000 0.000000 -0.000001 0.239386
 11   -2.133122 0.444673 2.649729 0.088019 -1.370041 2.815150
 12   4.640941 0.000000 -0.000001 0.392226 1.276821 0.579529
 13   10.828049 0.000000 0.000000 0.000000 0.000000 -0.104135
 14   9.393337 -0.000001 0.000000 -1.569611 0.103994 0.000037
 15   1.442245 0.107454 -1.746177 1.686435 0.539209 0.325885
 16   1.063452 0.000000 0.000001 0.000000 0.000000 0.199056
 17   1.376307 -0.000001 0.000001 0.000000 0.000000 0.199049
 18   4.172846 -0.251366 -1.312744 -0.016243 0.094689 -0.105517
 19   1.215374 0.000002 0.000000 0.000000 0.000000 0.392669
 20   1.215371 -0.000002 0.000001 0.000000 0.000000 0.392669
 21   4.220534 -0.244854 -0.431465 -0.005271 0.025739 -0.104777
 22   1.350417 0.000000 0.000001 0.000000 0.000000 0.610843
 23   1.350410 -0.000001 -0.000001 0.000000 0.000000 0.610843
 24   -2.133122 0.444686 -2.649726 -0.088046 1.370039 2.815124
 25   4.640942 0.000000 0.000001 -0.256954 -1.063506 0.373456
 26   10.828047 0.000000 0.000001 0.000000 0.000000 -0.208826
 27   9.393339 0.000000 0.000000 1.569611 -0.158274 0.000001
 28   1.442245 0.107455 1.746178 -1.686405 -0.539236 0.325898
 29   1.063450 -0.000001 0.000000 0.000000 0.000000 0.199056
 30   1.376307 0.000000 0.000000 0.000000 0.000000 0.199059
 31   4.172847 -0.251365 1.312745 0.016243 -0.094689 -0.105517
 32   1.215373 -0.000001 0.000000 0.000000 0.000000 0.392679
 33   1.215372 0.000000 0.000000 0.000000 0.000000 0.392679
 34   4.220534 -0.244853 0.431466 0.005271 -0.025739 -0.104777
 35   1.350416 0.000000 -0.000001 0.000000 0.000000 0.610828
 36   1.350410 0.000000 0.000001 0.000000 0.000000 0.610833
 37   2.110540 -0.000001 0.000000 0.002909 -0.167012 -0.153195
 38   0.891923 2.373051 -0.014527 -3.141592 -0.000001 1.413797
 39   7.228122 5.709445 3.726568 3.140796 -1.570796 0.000000
 40   2.450426 5.076128 0.001325 3.140791 -1.570796 0.000000
 41   6.312404 -4.528058 0.001311 3.140791 -1.570796 0.000000
 42   2.233309 1.152535 -7.309138 -1.394391 -1.524313 -0.379228
 43   4.262825 -0.232720 -1.392178 -0.002923 0.078442 -0.000042
time 22
  0   0.004864 -0.007176 39.534359 0.000000 0.000000 -1.570843
  1   0.273773 1.363323 0.000000 -1.570795 -1.570451 0.000000
  2   -0.000007 0.000008 4.427393 0.102798 -3.112584 0.035694
  3   18.465939 0.000000 0.000000 0.000000 0.000000 -0.380296
  4   14.875443 0.000000 -0.000001 -0.061954 -0.087046 -0.294928
  5   0.000006 -0.000004 -4.427393 0.074547 3.118419 -0.034684
  6   18.465939 0.000000 0.000000 0.000000 0.000000 -0.309991
  7   14.875442 0.000000 0.000000 -0.059271 -0.050846 -0.700861
  8   2.255207 -0.007574 0.000003 0.000080 0.127347 -0.007906
  9   9.514219 -0.009357 0.000000 0.000000 0.000000 -0.104648
 10   11.751820 -0.001633 0.000000 0.000000 -0.000001 0.239386
 11   -2.133122 0.444673 2.649729 0.088019 -1.370041 2.815150
 12   4.640941 0.000000 -0.000001 0.345758 1.257948 0.533050
 13   10.828049 0.000000 0.000000 0.000000 0.000000 -0.104135
 14   9.393337 -0.000001 0.000000 -1.569611 0.103994 0.000037
 15   1.442245 0.107454 -1.746177 1.686435 0.539209 0.325885
 16   1.063452 0.000000 0.000001 0.000000 0.000000 0.199056
 17   1.376307 -0.000001 0.000001 0.000000 0.000000 0.199049
 18   4.172846 -0.251366 -1.312744 -0.016243 0.094689 -0.105517
 19   1.215374 0.000002 0.000000 0.000000 0.000000 0.392669
 20   1.215371 -0.000002 0.000001 0.000000 0.000000 0.392669
 21   4.220534 -0.244854 -0.431465 -0.005271 0.025739 -0.104777
 22   1.350417 0.000000 0.000001 0.000000 0.000000 0.610843
 23   1.350410 -0.000001 -0.000001 0.000000 0.000000 0.610843
 24   -2.133122 0.444686 -2.649726 -0.088046 1.370039 2.815124
 25   4.640942 0.000000 0.000001 -0.285046 -1.099282 0.401944
 26   10.828047 0.000000 0.000001 0.000000 0.000000 -0.208826
 27   9.393339 0.000000 0.000000 1.569611 -0.162015 0.000001
 28   1.442245 0.107455 1.746178 -1.686405 -0.539236 0.325898
 29   1.063450 -0.000001 0.000000 0.000000 0.000000 0.199056
 30   1.376307 0.000000 0.000000 0.000000 0.000000 0.199059
 31   4.172847 -0.251365 1.312745 0.016243 -0.094689 -0.105517
 32   1.215373 -0.000001 0.000000 0.000000 0.000000 0.392679
 33   1.215372 0.000000 0.000000 0.000000 0.000000 0.392679
 34   4.220534 -0.244853 0.431466 0.005271 -0.025739 -0.104777
 35   1.350416 0.000000 -0.000001 0.000000 0.000000 0.610828
 36   1.350410 0.000000 0.000001 0.000000 0.000000 0.610833
 37   2.110540 -0.000001 0.000000 0.002194 -0.127319 -0.153066
 38   0.891923 2.373051 -0.014527 -3.141592 -0.000001 1.413797
 39   7.228122 5.709445 3.726568 3.140796 -1.570796 0.000000
 40   2.450426 5.076128 0.001325 3.140791 -1.570796 0.000000
 41   6.312404 -4.528058 0.001311 3.140791 -1.570796 0.000000
 42   2.233309 1.152535 -7.309138 -1.368505 -1.507450 -0.406992
 43   4.262825 -0.232720 -1.392178 -0.002923 0.078442 -0.000042
time 23
  0   0.004864 -0.007176 39.784367 0.000000 0.000000 -1.570843
  1   0.273773 0.929716 0.000000 -1.570795 -1.570451 0.000000
  2   -0.000007 0.000008 4.427393 0.096879 -3.099187 0.093845
  3   18.465939 0.000000 0.000000 0.000000 0.000000 -0.470510
  4   14.875443 0.000000 -0.000001 -0.054269 -0.090792 -0.146237
  5   0.000006 -0.000004 -4.427393 0.074451 3.129511 -0.013814
  6   18.465939 0.000000 0.000000 0.000000 0.000000 -0.392299
  7   14.875442 0.000000 0.000000 -0.051024 -0.055657 -0.597275
  8   2.255207 -0.007574 0.000003 0.000059 0.086863 -0.007906
  9   9.514219 -0.009357 0.000000 0.000000 0.000000 -0.104648
 10   11.751820 -0.001633 0.000000 0.000000 -0.000001 0.239386
 11   -2.133122 0.444673 2.649729 0.088019 -1.370041 2.815150
 12   4.640941 0.000000 -0.000001 0.307641 1.242175 0.495000
 13   10.828049 0.000000 0.000000 0.000000 0.000000 -0.104135
 14   9.393337 -0.000001 0.000000 -1.569611 0.103994 0.000037
 15   1.442245 0.107454 -1.746177 1.686435 0.539209 0.325885
 16   1.063452 0.000000 0.000001 0.000000 0.000000 0.199056
 17   1.376307 -0.000001 0.000001 0.000000 0.000000 0.199049
 18   4.172846 -0.251366 -1.312744 -0.016243 0.094689 -0.105517
 19   1.215374 0.000002 0.000000 0.000000 0.000000 0.392669
 20   1.215371 -0.000002 0.000001 0.000000 0.000000 0.392669
 21   4.220534 -0.244854 -0.431465 -0.005271 0.025739 -0.104777
 22   1.350417 0.000000 0.000001 0.000000 0.000000 0.610843
 23   1.350410 -0.000001 -0.000001 0.000000 0.000000 0.610843
 24   -2.133122 0.444686 -2.649726 -0.088046 1.370039 2.815124
 25   4.640942 0.000000 0.000001 -0.316072 -1.132129 0.433301
 26   10.828047 0.000000 0.000001 0.000000 0.000000 -0.208826
 27   9.393339 0.000000 0.000000 1.569611 -0.166472 0.000001
 28   1.442245 0.107455 1.746178 -1.686405 -0.539236 0.325898
 29   1.063450 -0.000001 0.000000 0.000000 0.000000 0.199056
 30   1.376307 0.000000 0.000000 0.000000 0.000000 0.199059
 31   4.172847 -0.251365 1.312745 0.016243 -0.094689 -0.105517
 32   1.215373 -0.000001 0.000000 0.000000 0.000000 0.392679
 33   1.215372 0.000000 0.000000 0.000000 0.000000 0.392679
 34   4.220534 -0.244853 0.431466 0.005271 -0.025739 -0.104777
 35   1.350416 0.000000 -0.000001 0.000000 0.000000 0.610828
 36   1.350410 0.000000 0.000001 0.000000 0.000000 0.610833
 37   2.110540 -0.000001 0.000000 0.001478 -0.086844 -0.153023
 38   0.891923 2.373051 -0.014527 -3.141592 -0.000001 1.413797
 39   7.228122 5.709445 3.726568 3.140796 -1.570796 0.000000
 40   2.450426 5.076128 0.001325 3.140791 -1.570796 0.000000
 41   6.312404 -4.528058 0.001311 3.140791 -1.570796 0.000000
 42   2.233309 1.152535 -7.309138 -1.344920 -1.492858 -0.423938
 43   4.262825 -0.232720 -1.392178 -0.002923 0.078442 -0.000042
time 24
  0   0.004864 -0.007176 40.057812 0.000000 0.000000 -1.570843
  1   0.273773 0.507828 0.000000 -1.570795 -1.570451 0.000000
  2   -0.000007 0.000008 4.427393 0.090674 -3.087093 0.147957
  3   18.465939 0.000000 0.000000 0.000000 0.000000 -0.552610
  4   14.875443 0.000000 -0.000001 -0.047467 -0.094581 -0.009832
  5   0.000006 -0.000004 -4.427393 0.074260 3.139671 0.006681
  6   18.465939 0.000000 0.000000 0.000000 0.000000 -0.465287
  7   14.875442 0.000000 0.000000 -0.043583 -0.060203 -0.503556
  8   2.255207 -0.007574 0.000003 0.000017 0.047542 -0.007906
  9   9.514219 -0.009357 0.000000 0.000000 0.000000 -0.104648
 10   11.751820 -0.001633 0.000000 0.000000 -0.000001 0.239386
 11   -2.133122 0.444673 2.649729 0.088019 -1.370041 2.815150
 12   4.640941 0.000000 -0.000001 0.276057 1.229019 0.463449
 13   10.828049 0.000000 0.000000 0.000000 0.000000 -0.104135
 14   9.393337 -0.000001 0.000000 -1.569611 0.103994 0.000037
 15   1.442245 0.107454 -1.746177 1.686435 0.539209 0.325885
 16   1.063452 0.000000 0.000001 0.000000 0.000000 0.199056
 17   1.376307 -0.000001 0.000001 0.000000 0.000000 0.199049
 18   4.172846 -0.251366 -1.312744 -0.016243 0.094689 -0.105517
 19   1.215374 0.000002 0.000000 0.000000 0.000000 0.392669
 20   1.215371 -0.000002 0.000001 0.000000 0.000000 0.392669
 21   4.220534 -0.244854 -0.431465 -0.005271 0.025739 -0.104777
 22   1.350417 0.000000 0.000001 0.000000 0.000000 0.610843
 23   1.350410 -0.000001 -0.000001 0.000000 0.000000 0.610843
 24   -2.133122 0.444686 -2.649726 -0.088046 1.370039 2.815124
 25   4.640942 0.000000 0.000001 -0.346325 -1.158072 0.463258
 26   10.828047 0.000000 0.000001 0.000000 0.000000 -0.208826
 27   9.393339 0.000000 0.000000 1.569611 -0.170376 0.000001
 28   1.442245 0.107455 1.746178 -1.686405 -0.539236 0.325898
 29   1.063450 -0.000001 0.000000 0.000000 0.000000 0.199056
 30   1.376307 0.000000 0.000000 0.000000 0.000000 0.199059
 31   4.172847 -0.251365 1.312745 0.016243 -0.094689 -0.105517
 32   1.215373 -0.000001 0.000000 0.000000 0.000000 0.392679
 33   1.215372 0.000000 0.000000 0.000000 0.000000 0.392679
 34   4.220534 -0.244853 0.431466 0.005271 -0.025739 -0.104777
 35   1.350416 0.000000 -0.000001 0.000000 0.000000 0.610828
 36   1.350410 0.000000 0.000001 0.000000 0.000000 0.610833
 37   2.110540 -0.000001 0.000000 0.000811 -0.047514 -0.152980
 38   0.891923 2.373051 -0.014527 -3.141592 -0.000001 1.413797
 39   7.228122 5.709445 3.726568 3.140796 -1.570796 0.000000
 40   2.450426 5.076128 0.001325 3.140791 -1.570796 0.000000
 41   6.312404 -4.528058 0.001311 3.140791 -1.570796 0.000000
 42   2.233309 1.152535 -7.309138 -1.277905 -1.491984 -0.439065
 43   4.262825 -0.232720 -1.392178 -0.002923 0.078442 -0.000042
time 25
  0   0.004864 -0.007176 40.327351 0.000000 0.000000 -1.570843
  1   0.273773 0.105472 0.000000 -1.570795 -1.570451 0.000000
  2   -0.000007 0.000008 4.427393 0.084946 -3.077138 0.192244
  3   18.465939 0.000000 0.000000 0.000000 0.000000 -0.624694
  4   14.875443 0.000000 -0.000001 -0.041660 -0.098199 0.106585
  5   0.000006 -0.000004 -4.427393 0.073877 3.148526 0.023433
  6   18.465939 0.000000 0.000000 0.000000 0.000000 -0.528364
  7   14.875442 0.000000 0.000000 -0.037126 -0.064310 -0.423568
  8   2.255207 -0.007574 0.000003 -0.000004 0.009910 -0.007906
  9   9.514219 -0.009357 0.000000 0.000000 0.000000 -0.104648
 10   11.751820 -0.001633 0.000000 0.000000 -0.000001 0.239386
 11   -2.133122 0.444673 2.649729 0.088019 -1.370041 2.815150
 12   4.640941 0.000000 -0.000001 0.248304 1.216621 0.435643
 13   10.828049 0.000000 0.000000 0.000000 0.000000 -0.104135
 14   9.393337 -0.000001 0.000000 -1.569611 0.103994 0.000037
 15   1.442245 0.107454 -1.746177 1.686435 0.539209 0.325885
 16   1.063452 0.000000 0.000001 0.000000 0.000000 0.199056
 17   1.376307 -0.000001 0.000001 0.000000 0.000000 0.199049
 18   4.172846 -0.251366 -1.312744 -0.016243 0.094689 -0.105517
 19   1.215374 0.000002 0.000000 0.000000 0.000000 0.392669
 20   1.215371 -0.000002 0.000001 0.000000 0.000000 0.392669
 21   4.220534 -0.244854 -0.431465 -0.005271 0.025739 -0.104777
 22   1.350417 0.000000 0.000001 0.000000 0.000000 0.610843
 23   1.350410 -0.000001 -0.000001 0.000000 0.000000 0.610843
 24   -2.133122 0.444686 -2.649726 -0.088046 1.370039 2.815124
 25   4.640942 0.000000 0.000001 -0.368192 -1.171113 0.484046
 26   10.828047 0.000000 0.000001 0.000000 0.000000 -0.208826
 27   9.393339 0.000000 0.000000 1.569611 -0.174020 0.000001
 28   1.442245 0.107455 1.746178 -1.686405 -0.539236 0.325898
 29   1.063450 -0.000001 0.000000 0.000000 0.000000 0.199056
 30   1.376307 0.000000 0.000000 0.000000 0.000000 0.199059
 31   4.172847 -0.251365 1.312745 0.016243 -0.094689 -0.105517
 32   1.215373 -0.000001 0.000000 0.000000 0.000000 0.392679
 33   1.215372 0.000000 0.000000 0.000000 0.000000 0.392679
 34   4.220534 -0.244853 0.431466 0.005271 -0.025739 -0.104777
 35   1.350416 0.000000 -0.000001 0.000000 0.000000 0.610828
 36   1.350410 0.000000 0.000001 0.000000 0.000000 0.610833
 37   2.110540 -0.000001 0.000000 0.000143 -0.009888 -0.152937
 38   0.891923 2.373051 -0.014527 -3.141592 -0.000001 1.413797
 39   7.228122 5.709445 3.726568 3.140796 -1.570796 0.000000
 40   2.450426 5.076128 0.001325 3.140791 -1.570796 0.000000
 41   6.312404 -4.528058 0.001311 3.140791 -1.570796 0.000000
 42   2.233309 1.152535 -7.309138 -1.282028 -1.486014 -0.438970
 43   4.262825 -0.232720 -1.392178 -0.002923 0.078442 -0.000042
time 26
  0   0.025147 -0.007176 40.581264 0.000000 0.000000 -1.570843
  1   0.273773 -0.273446 0.000000 -1.570795 -1.570451 0.000000
  2   -0.000007 0.000008 4.427393 0.084660 -3.074068 0.150850
  3   18.465939 0.000000 0.000000 0.000000 0.000000 -0.692757
  4   14.875443 0.000000 -0.000001 -0.035683 -0.102243 0.133171
  5   0.000006 -0.000004 -4.427393 0.073973 3.154677 -0.002209
  6   18.465939 0.000000 0.000000 0.000000 0.000000 -0.586058
  7   14.875442 0.000000 0.000000 -0.030422 -0.068703 -0.391378
  8   2.255207 -0.007574 0.000003 -0.000004 -0.025468 -0.007906
  9   9.514219 -0.009357 0.000000 0.000000 0.000000 -0.104648
 10   11.751820 -0.001633 0.000000 0.000000 -0.000001 0.239386
 11   -2.133122 0.444673 2.649729 0.088019 -1.370041 2.815150
 12   4.640941 0.000000 -0.000001 0.222859 1.202845 0.410003
 13   10.828049 0.000000 0.000000 0.000000 0.000000 -0.104135
 14   9.393337 -0.000001 0.000000 -1.569611 0.103994 0.000037
 15   1.442245 0.107454 -1.746177 1.686435 0.539209 0.325885
 16   1.063452 0.000000 0.000001 0.000000 0.000000 0.199056
 17   1.376307 -0.000001 0.000001 0.000000 0.000000 0.199049
 18   4.172846 -0.251366 -1.312744 -0.016243 0.094689 -0.105517
 19   1.215374 0.000002 0.000000 0.000000 0.000000 0.392669
 20   1.215371 -0.000002 0.000001 0.000000 0.000000 0.392669
 21   4.220534 -0.244854 -0.431465 -0.005271 0.025739 -0.104777
 22   1.350417 0.000000 0.000001 0.000000 0.000000 0.610843
 23   1.350410 -0.000001 -0.000001 0.000000 0.000000 0.610843
 24   -2.133122 0.444686 -2.649726 -0.088046 1.370039 2.815124
 25   4.640942 0.000000 0.000001 -0.380849 -1.173972 0.494755
 26   10.828047 0.000000 0.000001 0.000000 0.000000 -0.208826
 27   9.393339 0.000000 0.000000 1.569611 -0.177859 0.000001
 28   1.442245 0.107455 1.746178 -1.686405 -0.539236 0.325898
 29   1.063450 -0.000001 0.000000 0.000000 0.000000 0.199056
 30   1.376307 0.000000 0.000000 0.000000 0.000000 0.199059
 31   4.172847 -0.251365 1.312745 0.016243 -0.094689 -0.105517
 32   1.215373 -0.000001 0.000000 0.000000 0.000000 0.392679
 33   1.215372 0.000000 0.000000 0.000000 0.000000 0.392679
 34   4.220534 -0.244853 0.431466 0.005271 -0.025739 -0.104777
 35   1.350416 0.000000 -0.000001 0.000000 0.000000 0.610828
 36   1.350410 0.000000 0.000001 0.000000 0.000000 0.610833
 37   2.110540 -0.000001 0.000000 -0.000429 0.025447 -0.152937
 38   0.891923 2.373051 -0.014527 -3.141592 -0.000001 1.413797
 39   7.228122 5.709445 3.726568 3.140796 -1.570796 0.000000
 40   2.450426 5.076128 0.001325 3.140791 -1.570796 0.000000
 41   6.312404 -4.528058 0.001311 3.140791 -1.570796 0.000000
 42   2.233309 1.152535 -7.309138 -1.310310 -1.481091 -0.435810
 43   4.262825 -0.232720 -1.392178 -0.002923 0.078442 -0.000042
time 27
  0   0.025147 -0.007176 40.788303 0.000000 0.000000 -1.570843
  1   0.273773 -0.617206 0.000000 -1.570795 -1.570451 0.000000
  2   -0.000007 0.000008 4.427393 0.094588 -3.085418 -0.079612
  3   18.465939 0.000000 0.000000 0.000000 0.000000 -0.800590
  4   14.875443 0.000000 -0.000001 -0.026405 -0.106841 0.009841
  5   0.000006 -0.000004 -4.427393 0.075504 3.156542 -0.130236
  6   18.465939 0.000000 0.000000 0.000000 0.000000 -0.679000
  7   14.875442 0.000000 0.000000 -0.020385 -0.074238 -0.426795
  8   2.255207 -0.007574 0.000003 -0.000046 -0.057683 -0.007906
  9   9.514219 -0.009357 0.000000 0.000000 0.000000 -0.104648
 10   11.751820 -0.001633 0.000000 0.000000 -0.000001 0.239386
 11   -2.133122 0.444673 2.649729 0.088019 -1.370041 2.815150
 12   4.640941 0.000000 -0.000001 0.199331 1.186108 0.385944
 13   10.828049 0.000000 0.000000 0.000000 0.000000 -0.104135
 14   9.393337 -0.000001 0.000000 -1.569611 0.103994 0.000037
 15   1.442245 0.107454 -1.746177 1.686435 0.539209 0.325885
 16   1.063452 0.000000 0.000001 0.000000 0.000000 0.199056
 17   1.376307 -0.000001 0.000001 0.000000 0.000000 0.199049
 18   4.172846 -0.251366 -1.312744 -0.016243 0.094689 -0.105517
 19   1.215374 0.000002 0.000000 0.000000 0.000000 0.392669
 20   1.215371 -0.000002 0.000001 0.000000 0.000000 0.392669
 21   4.220534 -0.244854 -0.431465 -0.005271 0.025739 -0.104777
 22   1.350417 0.000000 0.000001 0.000000 0.000000 0.610843
 23   1.350410 -0.000001 -0.000001 0.000000 0.000000 0.610843
 24   -2.133122 0.444686 -2.649726 -0.088046 1.370039 2.815124
 25   4.640942 0.000000 0.000001 -0.392220 -1.176344 0.504344
 26   10.828047 0.000000 0.000001 0.000000 0.000000 -0.208826
 27   9.393339 0.000000 0.000000 1.569611 -0.180982 0.000001
 28   1.442245 0.107455 1.746178 -1.686405 -0.539236 0.325898
 29   1.063450 -0.000001 0.000000 0.000000 0.000000 0.199056
 30   1.376307 0.000000 0.000000 0.000000 0.000000 0.199059
 31   4.172847 -0.251365 1.312745 0.016243 -0.094689 -0.105517
 32   1.215373 -0.000001 0.000000 0.000000 0.000000 0.392679
 33   1.215372 0.000000 0.000000 0.000000 0.000000 0.392679
 34   4.220534 -0.244853 0.431466 0.005271 -0.025739 -0.104777
 35   1.350416 0.000000 -0.000001 0.000000 0.000000 0.610828
 36   1.350410 0.000000 0.000001 0.000000 0.000000 0.610833
 37   2.110540 -0.000001 0.000000 -0.001002 0.057682 -0.152980
 38   0.891923 2.373051 -0.014527 -3.141592 -0.000001 1.413797
 39   7.228122 5.709445 3.726568 3.140796 -1.570796 0.000000
 40   2.450426 5.076128 0.001325 3.140791 -1.570796 0.000000
 41   6.312404 -4.528058 0.001311 3.140791 -1.570796 0.000000
 42   2.233309 1.152535 -7.309138 -1.399184 -1.486538 -0.421258
 43   4.262825 -0.232720 -1.392178 -0.002923 0.078442 -0.000042
time 28
  0   0.025147 -0.007176 40.928932 0.000000 0.000000 -1.570843
  1   0.273773 -0.898465 0.000000 -1.570795 -1.570451 0.000000
  2   -0.000007 0.000008 4.427393 0.101652 -3.099001 -0.306085
  3   18.465939 0.000000 0.000000 0.000000 0.000000 -0.900016
  4   14.875443 0.000000 -0.000001 -0.016984 -0.108948 -0.118111
  5   0.000006 -0.000004 -4.427393 0.077130 3.157660 -0.255267
  6   18.465939 0.000000 0.000000 0.000000 0.000000 -0.763933
  7   14.875442 0.000000 0.000000 -0.010453 -0.078117 -0.467164
  8   2.255207 -0.007574 0.000003 -0.000067 -0.083881 -0.007906
  9   9.514219 -0.009357 0.000000 0.000000 0.000000 -0.104648
 10   11.751820 -0.001633 0.000000 0.000000 -0.000001 0.239386
 11   -2.133122 0.444673 2.649729 0.088019 -1.370041 2.815150
 12   4.640941 0.000000 -0.000001 0.179192 1.166546 0.365105
 13   10.828049 0.000000 0.000000 0.000000 0.000000 -0.104135
 14   9.393337 -0.000001 0.000000 -1.569611 0.103994 0.000037
 15   1.442245 0.107454 -1.746177 1.686435 0.539209 0.325885
 16   1.063452 0.000000 0.000001 0.000000 0.000000 0.199056
 17   1.376307 -0.000001 0.000001 0.000000 0.000000 0.199049
 18   4.172846 -0.251366 -1.312744 -0.016243 0.094689 -0.105517
 19   1.215374 0.000002 0.000000 0.000000 0.000000 0.392669
 20   1.215371 -0.000002 0.000001 0.000000 0.000000 0.392669
 21   4.220534 -0.244854 -0.431465 -0.005271 0.025739 -0.104777
 22   1.350417 0.000000 0.000001 0.000000 0.000000 0.610843
 23   1.350410 -0.000001 -0.000001 0.000000 0.000000 0.610843
 24   -2.133122 0.444686 -2.649726 -0.088046 1.370039 2.815124
 25   4.640942 0.000000 0.000001 -0.409765 -1.186107 0.521003
 26   10.828047 0.000000 0.000001 0.000000 0.000000 -0.208826
 27   9.393339 0.000000 0.000000 1.569611 -0.182544 0.000001
 28   1.442245 0.107455 1.746178 -1.686405 -0.539236 0.325898
 29   1.063450 -0.000001 0.000000 0.000000 0.000000 0.199056
 30   1.376307 0.000000 0.000000 0.000000 0.000000 0.199059
 31   4.172847 -0.251365 1.312745 0.016243 -0.094689 -0.105517
 32   1.215373 -0.000001 0.000000 0.000000 0.000000 0.392679
 33   1.215372 0.000000 0.000000 0.000000 0.000000 0.392679
 34   4.220534 -0.244853 0.431466 0.005271 -0.025739 -0.104777
 35   1.350416 0.000000 -0.000001 0.000000 0.000000 0.610828
 36   1.350410 0.000000 0.000001 0.000000 0.000000 0.610833
 37   2.110540 -0.000001 0.000000 -0.001431 0.083855 -0.152980
 38   0.891923 2.373051 -0.014527 -3.141592 -0.000001 1.413797
 39   7.228122 5.709445 3.726568 3.140796 -1.570796 0.000000
 40   2.450426 5.076128 0.001325 3.140791 -1.570796 0.000000
 41   6.312404 -4.528058 0.001311 3.140791 -1.570796 0.000000
 42   2.233309 1.152535 -7.309138 -1.531488 -1.494081 -0.394163
 43   4.262825 -0.232720 -1.392178 -0.002923 0.078442 -0.000042
time 29
  0   0.025147 -0.007176 40.979713 0.000000 0.000000 -1.570843
  1   0.273773 -0.839869 0.000000 -1.570795 -1.570451 0.000000
  2   -0.000007 0.000008 4.427393 0.103752 -3.106164 -0.419146
  3   18.465939 0.000000 0.000000 0.000000 0.000000 -0.894241
  4   14.875443 0.000000 -0.000001 -0.011832 -0.109054 -0.237609
  5   0.000006 -0.000004 -4.427393 0.077704 3.159804 -0.301499
  6   18.465939 0.000000 0.000000 0.000000 0.000000 -0.748049
  7   14.875442 0.000000 0.000000 -0.005013 -0.079696 -0.529406
  8   2.255207 -0.007574 0.000003 -0.000046 -0.078500 -0.007906
  9   9.514219 -0.009357 0.000000 0.000000 0.000000 -0.104648
 10   11.751820 -0.001633 0.000000 0.000000 -0.000001 0.239386
 11   -2.133122 0.444673 2.649729 0.088019 -1.370041 2.815150
 12   4.640941 0.000000 -0.000001 0.181500 1.166753 0.367446
 13   10.828049 0.000000 0.000000 0.000000 0.000000 -0.104135
 14   9.393337 -0.000001 0.000000 -1.569611 0.103994 0.000037
 15   1.442245 0.107454 -1.746177 1.686435 0.539209 0.325885
 16   1.063452 0.000000 0.000001 0.000000 0.000000 0.199056
 17   1.376307 -0.000001 0.000001 0.000000 0.000000 0.199049
 18   4.172846 -0.251366 -1.312744 -0.016243 0.094689 -0.105517
 19   1.215374 0.000002 0.000000 0.000000 0.000000 0.392669
 20   1.215371 -0.000002 0.000001 0.000000 0.000000 0.392669
 21   4.220534 -0.244854 -0.431465 -0.005271 0.025739 -0.104777
 22   1.350417 0.000000 0.000001 0.000000 0.000000 0.610843
 23   1.350410 -0.000001 -0.000001 0.000000 0.000000 0.610843
 24   -2.133122 0.444686 -2.649726 -0.088046 1.370039 2.815124
 25   4.640942 0.000000 0.000001 -0.415630 -1.192942 0.527792
 26   10.828047 0.000000 0.000001 0.000000 0.000000 -0.208826
 27   9.393339 0.000000 0.000000 1.569611 -0.181307 0.000001
 28   1.442245 0.107455 1.746178 -1.686405 -0.539236 0.325898
 29   1.063450 -0.000001 0.000000 0.000000 0.000000 0.199056
 30   1.376307 0.000000 0.000000 0.000000 0.000000 0.199059
 31   4.172847 -0.251365 1.312745 0.016243 -0.094689 -0.105517
 32   1.215373 -0.000001 0.000000 0.000000 0.000000 0.392679
 33   1.215372 0.000000 0.000000 0.000000 0.000000 0.392679
 34   4.220534 -0.244853 0.431466 0.005271 -0.025739 -0.104777
 35   1.350416 0.000000 -0.000001 0.000000 0.000000 0.610828
 36   1.350410 0.000000 0.000001 0.000000 0.000000 0.610833
 37   2.110540 -0.000001 0.000000 -0.001335 0.078464 -0.152980
 38   0.891923 2.373051 -0.014527 -3.141592 -0.000001 1.413797
 39   7.228122 5.709445 3.726568 3.140796 -1.570796 0.000000
 40   2.450426 5.076128 0.001325 3.140791 -1.570796 0.000000
 41   6.312404 -4.528058 0.001311 3.140791 -1.570796 0.000000
 42   2.233309 1.152535 -7.309138 -1.599941 -1.500314 -0.376260
 43   4.262825 -0.232720 -1.392178 -0.002923 0.078442 -0.000042
time 30
  0   0.025147 -0.007176 40.889870 0.000000 0.000000 -1.570843
  1   0.273773 -0.363292 0.000000 -1.570795 -1.570451 0.000000
  2   -0.000007 0.000008 4.427393 0.096688 -3.088674 -0.202998
  3   18.465939 0.000000 0.000000 0.000000 0.000000 -0.519639
  4   14.875443 0.000000 -0.000001 -0.016870 -0.108905 -0.395109
  5   0.000006 -0.000004 -4.427393 0.074069 3.170336 -0.090368
  6   18.465939 0.000000 0.000000 0.000000 0.000000 -0.348126
  7   14.875442 0.000000 0.000000 -0.010558 -0.078821 -0.717706
  8   2.255207 -0.007574 0.000003 -0.000025 -0.034013 -0.007906
  9   9.514219 -0.009357 0.000000 0.000000 0.000000 -0.104648
 10   11.751820 -0.001633 0.000000 0.000000 -0.000001 0.239386
 11   -2.133122 0.444673 2.649729 0.088019 -1.370041 2.815150
 12   4.640941 0.000000 -0.000001 0.214656 1.195269 0.401516
 13   10.828049 0.000000 0.000000 0.000000 0.000000 -0.104135
 14   9.393337 -0.000001 0.000000 -1.569611 0.103994 0.000037
 15   1.442245 0.107454 -1.746177 1.686435 0.539209 0.325885
 16   1.063452 0.000000 0.000001 0.000000 0.000000 0.199056
 17   1.376307 -0.000001 0.000001 0.000000 0.000000 0.199049
 18   4.172846 -0.251366 -1.312744 -0.016243 0.094689 -0.105517
 19   1.215374 0.000002 0.000000 0.000000 0.000000 0.392669
 20   1.215371 -0.000002 0.000001 0.000000 0.000000 0.392669
 21   4.220534 -0.244854 -0.431465 -0.005271 0.025739 -0.104777
 22   1.350417 0.000000 0.000001 0.000000 0.000000 0.610843
 23   1.350410 -0.000001 -0.000001 0.000000 0.000000 0.610843
 24   -2.133122 0.444686 -2.649726 -0.088046 1.370039 2.815124
 25   4.640942 0.000000 0.000001 -0.390934 -1.181714 0.504974
 26   10.828047 0.000000 0.000001 0.000000 0.000000 -0.208826
 27   9.393339 0.000000 0.000000 1.569611 -0.177794 0.000001
 28   1.442245 0.107455 1.746178 -1.686405 -0.539236 0.325898
 29   1.063450 -0.000001 0.000000 0.000000 0.000000 0.199056
 30   1.376307 0.000000 0.000000 0.000000 0.000000 0.199059
 31   4.172847 -0.251365 1.312745 0.016243 -0.094689 -0.105517
 32   1.215373 -0.000001 0.000000 0.000000 0.000000 0.392679
 33   1.215372 0.000000 0.000000 0.000000 0.000000 0.392679
 34   4.220534 -0.244853 0.431466 0.005271 -0.025739 -0.104777
 35   1.350416 0.000000 -0.000001 0.000000 0.000000 0.610828
 36   1.350410 0.000000 0.000001 0.000000 0.000000 0.610833
 37   2.110540 -0.000001 0.000000 -0.000572 0.033995 -0.152937
 38   0.891923 2.373051 -0.014527 -3.141592 -0.000001 1.413797
 39   7.228122 5.709445 3.726568 3.140796 -1.570796 0.000000
 40   2.450426 5.076128 0.001325 3.140791 -1.570796 0.000000
 41   6.312404 -4.528058 0.001311 3.140791 -1.570796 0.000000
 42   2.233309 1.152535 -7.309138 -1.349235 -1.467345 -0.452373
 43   4.262825 -0.232720 -1.392178 -0.002923 0.078442 -0.000042
time 31
  0   0.004864 -0.007176 40.651581 0.000000 0.000000 -1.570843
  1   0.273773 0.113285 0.000000 -1.570795 -1.570451 0.000000
  2   -0.000007 0.000008 4.427393 0.089815 -3.080673 -0.031934
  3   18.465939 0.000000 0.000000 0.000000 0.000000 -0.275533
  4   14.875443 0.000000 -0.000001 -0.024726 -0.105713 -0.467479
  5   0.000006 -0.000004 -4.427393 0.069285 3.173412 0.084078
  6   18.465939 0.000000 0.000000 0.000000 0.000000 -0.044426
  7   14.875442 0.000000 0.000000 -0.018735 -0.073990 -0.846542
  8   2.255207 -0.007574 0.000003 -0.000004 0.010665 -0.007906
  9   9.514219 -0.009357 0.000000 0.000000 0.000000 -0.104648
 10   11.751820 -0.001633 0.000000 0.000000 -0.000001 0.239386
 11   -2.133122 0.444673 2.649729 0.088019 -1.370041 2.815150
 12   4.640941 0.000000 -0.000001 0.249335 1.217654 0.436755
 13   10.828049 0.000000 0.000000 0.000000 0.000000 -0.104135
 14   9.393337 -0.000001 0.000000 -1.569611 0.103994 0.000037
 15   1.442245 0.107454 -1.746177 1.686435 0.539209 0.325885
 16   1.063452 0.000000 0.000001 0.000000 0.000000 0.199056
 17   1.376307 -0.000001 0.000001 0.000000 0.000000 0.199049
 18   4.172846 -0.251366 -1.312744 -0.016243 0.094689 -0.105517
 19   1.215374 0.000002 0.000000 0.000000 0.000000 0.392669
 20   1.215371 -0.000002 0.000001 0.000000 0.000000 0.392669
 21   4.220534 -0.244854 -0.431465 -0.005271 0.025739 -0.104777
 22   1.350417 0.000000 0.000001 0.000000 0.000000 0.610843
 23   1.350410 -0.000001 -0.000001 0.000000 0.000000 0.610843
 24   -2.133122 0.444686 -2.649726 -0.088046 1.370039 2.815124
 25   4.640942 0.000000 0.000001 -0.363304 -1.165952 0.478797
 26   10.828047 0.000000 0.000001 0.000000 0.000000 -0.208826
 27   9.393339 0.000000 0.000000 1.569611 -0.173727 0.000001
 28   1.442245 0.107455 1.746178 -1.686405 -0.539236 0.325898
 29   1.063450 -0.000001 0.000000 0.000000 0.000000 0.199056
 30   1.376307 0.000000 0.000000 0.000000 0.000000 0.199059
 31   4.172847 -0.251365 1.312745 0.016243 -0.094689 -0.105517
 32   1.215373 -0.000001 0.000000 0.000000 0.000000 0.392679
 33   1.215372 0.000000 0.000000 0.000000 0.000000 0.392679
 34   4.220534 -0.244853 0.431466 0.005271 -0.025739 -0.104777
 35   1.350416 0.000000 -0.000001 0.000000 0.000000 0.610828
 36   1.350410 0.000000 0.000001 0.000000 0.000000 0.610833
 37   2.110540 -0.000001 0.000000 0.000143 -0.010643 -0.152937
 38   0.891923 2.373051 -0.014527 -3.141592 -0.000001 1.413797
 39   7.228122 5.709445 3.726568 3.140796 -1.570796 0.000000
 40   2.450426 5.076128 0.001325 3.140791 -1.570796 0.000000
 41   6.312404 -4.528058 0.001311 3.140791 -1.570796 0.000000
 42   2.233309 1.152535 -7.309138 -1.187306 -1.470752 -0.476979
 43   4.262825 -0.232720 -1.392178 -0.002923 0.078442 -0.000042
time 32
  0   0.004864 -0.007176 40.315632 0.000000 0.000000 -1.570843
  1   0.273773 0.546892 0.000000 -1.570795 -1.570451 0.000000
  2   -0.000007 0.000008 4.427393 0.098025 -3.103839 -0.107441
  3   18.465939 0.000000 0.000000 0.000000 0.000000 -0.566427
  4   14.875443 0.000000 -0.000001 -0.039184 -0.097518 -0.252422
  5   0.000006 -0.000004 -4.427393 0.071198 3.140976 -0.109647
  6   18.465939 0.000000 0.000000 0.000000 0.000000 -0.570109
  7   14.875442 0.000000 0.000000 -0.033686 -0.062732 -0.515374
  8   2.255207 -0.007574 0.000003 0.000017 0.051197 -0.007906
  9   9.514219 -0.009357 0.000000 0.000000 0.000000 -0.104648
 10   11.751820 -0.001633 0.000000 0.000000 -0.000001 0.239386
 11   -2.133122 0.444673 2.649729 0.088019 -1.370041 2.815150
 12   4.640941 0.000000 -0.000001 0.280330 1.232050 0.467839
 13   10.828049 0.000000 0.000000 0.000000 0.000000 -0.104135
 14   9.393337 -0.000001 0.000000 -1.569611 0.103994 0.000037
 15   1.442245 0.107454 -1.746177 1.686435 0.539209 0.325885
 16   1.063452 0.000000 0.000001 0.000000 0.000000 0.199056
 17   1.376307 -0.000001 0.000001 0.000000 0.000000 0.199049
 18   4.172846 -0.251366 -1.312744 -0.016243 0.094689 -0.105517
 19   1.215374 0.000002 0.000000 0.000000 0.000000 0.392669
 20   1.215371 -0.000002 0.000001 0.000000 0.000000 0.392669
 21   4.220534 -0.244854 -0.431465 -0.005271 0.025739 -0.104777
 22   1.350417 0.000000 0.000001 0.000000 0.000000 0.610843
 23   1.350410 -0.000001 -0.000001 0.000000 0.000000 0.610843
 24   -2.133122 0.444686 -2.649726 -0.088046 1.370039 2.815124
 25   4.640942 0.000000 0.000001 -0.332896 -1.142311 0.448909
 26   10.828047 0.000000 0.000001 0.000000 0.000000 -0.208826
 27   9.393339 0.000000 0.000000 1.569611 -0.169725 0.000001
 28   1.442245 0.107455 1.746178 -1.686405 -0.539236 0.325898
 29   1.063450 -0.000001 0.000000 0.000000 0.000000 0.199056
 30   1.376307 0.000000 0.000000 0.000000 0.000000 0.199059
 31   4.172847 -0.251365 1.312745 0.016243 -0.094689 -0.105517
 32   1.215373 -0.000001 0.000000 0.000000 0.000000 0.392679
 33   1.215372 0.000000 0.000000 0.000000 0.000000 0.392679
 34   4.220534 -0.244853 0.431466 0.005271 -0.025739 -0.104777
 35   1.350416 0.000000 -0.000001 0.000000 0.000000 0.610828
 36   1.350410 0.000000 0.000001 0.000000 0.000000 0.610833
 37   2.110540 -0.000001 0.000000 0.000858 -0.051173 -0.152980
 38   0.891923 2.373051 -0.014527 -3.141592 -0.000001 1.413797
 39   7.228122 5.709445 3.726568 3.140796 -1.570796 0.000000
 40   2.450426 5.076128 0.001325 3.140791 -1.570796 0.000000
 41   6.312404 -4.528058 0.001311 3.140791 -1.570796 0.000000
 42   2.233309 1.152535 -7.309138 -1.382406 -1.504887 -0.430257
 43   4.262825 -0.232720 -1.392178 -0.002923 0.078442 -0.000042
time 33
  0   -0.015419 -0.007176 39.928902 0.000000 0.000000 -1.570843
  1   0.273773 0.972686 0.000000 -1.570795 -1.570451 0.000000
  2   -0.000007 0.000008 4.427393 0.104612 -3.125329 -0.172426
  3   18.465939 0.000000 0.000000 0.000000 0.000000 -0.761624
  4   14.875443 0.000000 -0.000001 -0.053558 -0.091367 -0.122733
  5   0.000006 -0.000004 -4.427393 0.068902 3.114877 -0.230935
  6   18.465939 0.000000 0.000000 0.000000 0.000000 -0.868361
  7   14.875442 0.000000 0.000000 -0.049480 -0.054992 -0.339041
  8   2.255207 -0.007574 0.000003 0.000059 0.090746 -0.007906
  9   9.514219 -0.009357 0.000000 0.000000 0.000000 -0.104648
 10   11.751820 -0.001633 0.000000 0.000000 -0.000001 0.239386
 11   -2.133122 0.444673 2.649729 0.088019 -1.370041 2.815150
 12   4.640941 0.000000 -0.000001 0.311276 1.243897 0.498688
 13   10.828049 0.000000 0.000000 0.000000 0.000000 -0.104135
 14   9.393337 -0.000001 0.000000 -1.569611 0.103994 0.000037
 15   1.442245 0.107454 -1.746177 1.686435 0.539209 0.325885
 16   1.063452 0.000000 0.000001 0.000000 0.000000 0.199056
 17   1.376307 -0.000001 0.000001 0.000000 0.000000 0.199049
 18   4.172846 -0.251366 -1.312744 -0.016243 0.094689 -0.105517
 19   1.215374 0.000002 0.000000 0.000000 0.000000 0.392669
 20   1.215371 -0.000002 0.000001 0.000000 0.000000 0.392669
 21   4.220534 -0.244854 -0.431465 -0.005271 0.025739 -0.104777
 22   1.350417 0.000000 0.000001 0.000000 0.000000 0.610843
 23   1.350410 -0.000001 -0.000001 0.000000 0.000000 0.610843
 24   -2.133122 0.444686 -2.649726 -0.088046 1.370039 2.815124
 25   4.640942 0.000000 0.000001 -0.304444 -1.116228 0.420702
 26   10.828047 0.000000 0.000001 0.000000 0.000000 -0.208826
 27   9.393339 0.000000 0.000000 1.569611 -0.165334 0.000001
 28   1.442245 0.107455 1.746178 -1.686405 -0.539236 0.325898
 29   1.063450 -0.000001 0.000000 0.000000 0.000000 0.199056
 30   1.376307 0.000000 0.000000 0.000000 0.000000 0.199059
 31   4.172847 -0.251365 1.312745 0.016243 -0.094689 -0.105517
 32   1.215373 -0.000001 0.000000 0.000000 0.000000 0.392679
 33   1.215372 0.000000 0.000000 0.000000 0.000000 0.392679
 34   4.220534 -0.244853 0.431466 0.005271 -0.025739 -0.104777
 35   1.350416 0.000000 -0.000001 0.000000 0.000000 0.610828
 36   1.350410 0.000000 0.000001 0.000000 0.000000 0.610833
 37   2.110540 -0.000001 0.000000 0.001574 -0.090727 -0.153023
 38   0.891923 2.373051 -0.014527 -3.141592 -0.000001 1.413797
 39   7.228122 5.709445 3.726568 3.140796 -1.570796 0.000000
 40   2.450426 5.076128 0.001325 3.140791 -1.570796 0.000000
 41   6.312404 -4.528058 0.001311 3.140791 -1.570796 0.000000
 42   2.233309 1.152535 -7.309138 -1.576740 -1.524983 -0.336145
 43   4.262825 -0.232720 -1.392178 -0.002923 0.078442 -0.000042
time 34
  0   -0.015419 -0.007176 39.542171 0.000000 0.000000 -1.570843
  1   0.273773 1.539109 0.000000 -1.570795 -1.570451 0.000000
  2   -0.000007 0.000008 4.427393 0.108526 -3.133144 -0.116768
  3   18.465939 0.000000 0.000000 0.000000 0.000000 -0.472996
  4   14.875443 0.000000 -0.000001 -0.067020 -0.085833 -0.355645
  5   0.000006 -0.000004 -4.427393 0.071103 3.103972 -0.153913
  6   18.465939 0.000000 0.000000 0.000000 0.000000 -0.504932
  7   14.875442 0.000000 0.000000 -0.064395 -0.048316 -0.625676
  8   2.255207 -0.007574 0.000003 0.000101 0.144006 -0.007906
  9   9.514219 -0.009357 0.000000 0.000000 0.000000 -0.104648
 10   11.751820 -0.001633 0.000000 0.000000 -0.000001 0.239386
 11   -2.133122 0.444673 2.649729 0.088019 -1.370041 2.815150
 12   4.640941 0.000000 -0.000001 0.367076 1.268004 0.554533
 13   10.828049 0.000000 0.000000 0.000000 0.000000 -0.104135
 14   9.393337 -0.000001 0.000000 -1.569611 0.103994 0.000037
 15   1.442245 0.107454 -1.746177 1.686435 0.539209 0.325885
 16   1.063452 0.000000 0.000001 0.000000 0.000000 0.199056
 17   1.376307 -0.000001 0.000001 0.000000 0.000000 0.199049
 18   4.172846 -0.251366 -1.312744 -0.016243 0.094689 -0.105517
 19   1.215374 0.000002 0.000000 0.000000 0.000000 0.392669
 20   1.215371 -0.000002 0.000001 0.000000 0.000000 0.392669
 21   4.220534 -0.244854 -0.431465 -0.005271 0.025739 -0.104777
 22   1.350417 0.000000 0.000001 0.000000 0.000000 0.610843
 23   1.350410 -0.000001 -0.000001 0.000000 0.000000 0.610843
 24   -2.133122 0.444686 -2.649726 -0.088046 1.370039 2.815124
 25   4.640942 0.000000 0.000001 -0.268325 -1.075780 0.384445
 26   10.828047 0.000000 0.000001 0.000000 0.000000 -0.208826
 27   9.393339 0.000000 0.000000 1.569611 -0.160811 0.000001
 28   1.442245 0.107455 1.746178 -1.686405 -0.539236 0.325898
 29   1.063450 -0.000001 0.000000 0.000000 0.000000 0.199056
 30   1.376307 0.000000 0.000000 0.000000 0.000000 0.199059
 31   4.172847 -0.251365 1.312745 0.016243 -0.094689 -0.105517
 32   1.215373 -0.000001 0.000000 0.000000 0.000000 0.392679
 33   1.215372 0.000000 0.000000 0.000000 0.000000 0.392679
 34   4.220534 -0.244853 0.431466 0.005271 -0.025739 -0.104777
 35   1.350416 0.000000 -0.000001 0.000000 0.000000 0.610828
 36   1.350410 0.000000 0.000001 0.000000 0.000000 0.610833
 37   2.110540 -0.000001 0.000000 0.002528 -0.143967 -0.153109
 38   0.891923 2.373051 -0.014527 -3.141592 -0.000001 1.413797
 39   7.228122 5.709445 3.726568 3.140796 -1.570796 0.000000
 40   2.450426 5.076128 0.001325 3.140791 -1.570796 0.000000
 41   6.312404 -4.528058 0.001311 3.140791 -1.570796 0.000000
 42   2.233309 1.152535 -7.309138 -1.471760 -1.527895 -0.384781
 43   4.262825 -0.232720 -1.392178 -0.002923 0.078442 -0.000042
time 35
  0   0.004864 -0.007176 39.210129 0.000000 0.000000 -1.570843
  1   0.273773 1.957091 0.000000 -1.570795 -1.570451 0.000000
  2   -0.000007 0.000008 4.427393 0.111198 -3.137051 -0.064301
  3   18.465939 0.000000 0.000000 0.000000 0.000000 -0.218802
  4   14.875443 0.000000 -0.000001 -0.076156 -0.081300 -0.557389
  5   0.000006 -0.000004 -4.427393 0.074356 3.099125 -0.062292
  6   18.465939 0.000000 0.000000 0.000000 0.000000 -0.144915
  7   14.875442 0.000000 0.000000 -0.074293 -0.042592 -0.894189
  8   2.255207 -0.007574 0.000003 0.000122 0.183160 -0.007906
  9   9.514219 -0.009357 0.000000 0.000000 0.000000 -0.104648
 10   11.751820 -0.001633 0.000000 0.000000 -0.000001 0.239386
 11   -2.133122 0.444673 2.649729 0.088019 -1.370041 2.815150
 12   4.640941 0.000000 -0.000001 0.409418 1.282055 0.596622
 13   10.828049 0.000000 0.000000 0.000000 0.000000 -0.104135
 14   9.393337 -0.000001 0.000000 -1.569611 0.103994 0.000037
 15   1.442245 0.107454 -1.746177 1.686435 0.539209 0.325885
 16   1.063452 0.000000 0.000001 0.000000 0.000000 0.199056
 17   1.376307 -0.000001 0.000001 0.000000 0.000000 0.199049
 18   4.172846 -0.251366 -1.312744 -0.016243 0.094689 -0.105517
 19   1.215374 0.000002 0.000000 0.000000 0.000000 0.392669
 20   1.215371 -0.000002 0.000001 0.000000 0.000000 0.392669
 21   4.220534 -0.244854 -0.431465 -0.005271 0.025739 -0.104777
 22   1.350417 0.000000 0.000001 0.000000 0.000000 0.610843
 23   1.350410 -0.000001 -0.000001 0.000000 0.000000 0.610843
 24   -2.133122 0.444686 -2.649726 -0.088046 1.370039 2.815124
 25   4.640942 0.000000 0.000001 -0.246561 -1.048860 0.362887
 26   10.828047 0.000000 0.000001 0.000000 0.000000 -0.208826
 27   9.393339 0.000000 0.000000 1.569611 -0.156354 0.000001
 28   1.442245 0.107455 1.746178 -1.686405 -0.539236 0.325898
 29   1.063450 -0.000001 0.000000 0.000000 0.000000 0.199056
 30   1.376307 0.000000 0.000000 0.000000 0.000000 0.199059
 31   4.172847 -0.251365 1.312745 0.016243 -0.094689 -0.105517
 32   1.215373 -0.000001 0.000000 0.000000 0.000000 0.392679
 33   1.215372 0.000000 0.000000 0.000000 0.000000 0.392679
 34   4.220534 -0.244853 0.431466 0.005271 -0.025739 -0.104777
 35   1.350416 0.000000 -0.000001 0.000000 0.000000 0.610828
 36   1.350410 0.000000 0.000001 0.000000 0.000000 0.610833
 37   2.110540 -0.000001 0.000000 0.003195 -0.183129 -0.153238
 38   0.891923 2.373051 -0.014527 -3.141592 -0.000001 1.413797
 39   7.228122 5.709445 3.726568 3.140796 -1.570796 0.000000
 40   2.450426 5.076128 0.001325 3.140791 -1.570796 0.000000
 41   6.312404 -4.528058 0.001311 3.140791 -1.570796 0.000000
 42   2.233309 1.152535 -7.309138 -1.301874 -1.527167 -0.469702
 43   4.262825 -0.232720 -1.392178 -0.002923 0.078442 -0.000042
end
