version 1
nodes
  0 "Bip01" -1
  1 "Bip01 Pelvis" 0
  2 "Bip01 L Thigh" 1
  3 "Bip01 L Calf" 2
  4 "Bip01 L Foot" 3
  5 "Bip01 R Thigh" 1
  6 "Bip01 R Calf" 5
  7 "Bip01 R Foot" 6
  8 "Bip01 Spine" 1
  9 "Bip01 Spine1" 8
 10 "Bip01 Neck" 9
 11 "Bip01 L Clavicle" 10
 12 "Bip01 L UpperArm" 11
 13 "Bip01 L Forearm" 12
 14 "Bip01 L Hand" 13
 15 "Bip01 L Finger0" 14
 16 "Bip01 L Finger01" 15
 17 "Bip01 L Finger02" 16
 18 "Bip01 L Finger1" 14
 19 "Bip01 L Finger11" 18
 20 "Bip01 L Finger12" 19
 21 "Bip01 L Finger2" 14
 22 "Bip01 L Finger21" 21
 23 "Bip01 L Finger22" 22
 24 "Bip01 R Clavicle" 10
 25 "Bip01 R UpperArm" 24
 26 "Bip01 R Forearm" 25
 27 "Bip01 R Hand" 26
 28 "Bip01 R Finger0" 27
 29 "Bip01 R Finger01" 28
 30 "Bip01 R Finger02" 29
 31 "Bip01 R Finger1" 27
 32 "Bip01 R Finger11" 31
 33 "Bip01 R Finger12" 32
 34 "Bip01 R Finger2" 27
 35 "Bip01 R Finger21" 34
 36 "Bip01 R Finger22" 35
 37 "Bip01 Head" 10
 38 "Bone05" 37
 39 "Bone08" 9
 40 "Bone16" 8
 41 "Bone01" 8
 42 "Bone03" 1
 43 "Bip01 R Finger4" 27
end
skeleton
time 0
  0   1.708652 6.792152 38.378071 0.000000 0.000000 -1.701715
  1   0.164395 -0.125004 0.000000 -1.570795 -1.570451 0.000000
  2   -0.000007 0.000008 4.427393 -0.170796 -3.152960 0.000882
  3   18.465939 0.000000 0.000000 0.000000 0.000000 -0.416557
  4   14.875443 0.000000 -0.000001 0.018451 0.017437 0.402071
  5   0.000006 -0.000004 -4.427393 0.106024 3.095677 -0.362237
  6   18.465939 0.000000 0.000000 0.000000 0.000000 -0.394334
  7   14.875442 0.000000 0.000000 -0.002065 0.005199 0.029344
  8   2.255207 -0.007574 0.000003 0.122100 -0.017403 -0.001322
  9   9.514219 -0.009357 0.000000 -0.008787 0.002361 -0.095902
 10   11.751820 -0.001633 0.000000 0.000024 0.043599 0.439975
 11   -2.117496 0.858748 2.563789 0.697276 -1.395375 2.006330
 12   4.640941 0.000000 -0.000001 0.738474 1.089884 0.724820
 13   10.828049 0.000000 0.000000 0.000000 0.000000 -0.470452
 14   9.393337 -0.000001 0.000000 -1.569611 0.034172 0.000037
 15   1.442245 0.107454 -1.746177 1.686435 0.539209 0.325885
 16   1.063452 0.000000 0.000001 0.000000 0.000000 0.199056
 17   1.376307 -0.000001 0.000001 0.000000 0.000000 0.199049
 18   4.172846 -0.251366 -1.312744 0.008050 0.095731 0.148659
 19   1.215374 0.000002 0.000000 0.000000 0.000000 0.645758
 20   1.215371 -0.000002 0.000001 0.000000 0.000000 0.645758
 21   4.220534 -0.244854 -0.431465 0.001333 0.026242 0.148339
 22   1.350417 0.000000 0.000001 0.000000 0.000000 0.863926
 23   1.350410 -0.000001 -0.000001 0.000000 0.000000 0.863926
 24   -1.887021 0.858761 -2.731760 -0.942471 1.461434 1.764317
 25   4.640942 0.000000 0.000001 -0.601473 -1.183875 0.506934
 26   10.828047 0.000000 0.000001 0.000000 0.000000 -0.234266
 27   9.393339 0.000000 0.000000 1.569611 -0.034192 0.000001
 28   1.442245 0.107455 1.746178 -1.686405 -0.539236 0.325898
 29   1.063450 -0.000001 0.000000 0.000000 0.000000 0.199056
 30   1.376307 0.000000 0.000000 0.000000 0.000000 0.199059
 31   4.172847 -0.251365 1.312745 -0.008050 -0.095731 0.148659
 32   1.215373 -0.000001 0.000000 0.000000 0.000000 0.645746
 33   1.215372 0.000000 0.000000 0.000000 0.000000 0.645746
 34   4.220534 -0.244853 0.431466 -0.001333 -0.026242 0.148339
 35   1.350416 0.000000 -0.000001 0.000000 0.000000 0.863937
 36   1.350410 0.000000 0.000001 0.000000 0.000000 0.863925
 37   2.110540 -0.000001 0.000000 0.002432 -0.010503 -0.153668
 38   0.891923 2.373051 -0.014527 -3.141592 -0.000001 1.413797
 39   7.228122 5.709445 3.726568 3.140796 -1.570796 0.000000
 40   2.450426 5.076128 0.001325 3.140791 -1.570796 0.000000
 41   6.312404 -4.528058 0.001311 3.140791 -1.570796 0.000000
 42   2.233309 1.152535 -7.309138 -1.147423 -1.553350 -0.851036
 43   4.262825 -0.232720 -1.392178 0.016840 0.076668 0.253759
time 1
  0   0.877042 9.930304 38.756989 -0.007095 -0.018728 -2.181290
  1   0.125331 0.679708 0.000000 -0.000030 -1.552271 -1.570772
  2   -0.000007 0.000008 4.427393 -0.173469 -3.196778 0.021929
  3   18.465939 0.000000 0.000000 0.000000 0.000000 -0.326928
  4   14.875443 0.000000 -0.000001 -0.351725 0.040935 0.320457
  5   0.000006 -0.000004 -4.427393 0.104111 3.117487 -0.440569
  6   18.465939 0.000000 0.000000 0.000000 0.000000 -0.775354
  7   14.875442 0.000000 0.000000 0.026258 0.050500 0.103291
  8   2.255207 -0.007574 0.039067 -0.074119 0.052863 0.043181
  9   9.514219 -0.009357 0.000000 -0.031230 -0.004890 -0.203105
 10   11.751820 -0.001633 0.000000 -0.089165 0.103654 0.431895
 11   -2.269845 0.624366 2.493474 -0.624058 -1.334449 3.319280
 12   4.640941 0.000000 -0.000001 -0.476563 1.131625 -0.625824
 13   10.828049 0.000000 0.000000 0.000000 0.000000 -0.684361
 14   9.393337 -0.000001 0.000000 -1.569611 0.034262 -0.001770
 15   1.442245 0.107454 -1.746177 1.686435 0.539209 0.325885
 16   1.063452 0.000000 0.000001 0.000000 0.000000 0.199056
 17   1.376307 -0.000001 0.000001 0.000000 0.000000 0.199049
 18   4.172846 -0.251366 -1.312744 0.008050 0.095731 0.148659
 19   1.215374 0.000002 0.000000 0.000000 0.000000 0.645758
 20   1.215371 -0.000002 0.000001 0.000000 0.000000 0.645758
 21   4.220534 -0.244854 -0.431465 0.001333 0.026242 0.148339
 22   1.350417 0.000000 0.000001 0.000000 0.000000 0.863926
 23   1.350410 -0.000001 -0.000001 0.000000 0.000000 0.863926
 24   -1.726860 1.093143 -2.755198 -1.172726 1.344226 1.549258
 25   4.640942 0.000000 0.000001 -0.450411 -0.282009 0.579517
 26   10.828047 0.000000 0.000001 0.000000 0.000000 -0.560104
 27   9.393339 0.000000 0.000000 1.569510 -0.033932 0.000874
 28   1.442245 0.107455 1.746178 -1.686405 -0.539236 0.325898
 29   1.063450 -0.000001 0.000000 0.000000 0.000000 0.199056
 30   1.376307 0.000000 0.000000 0.000000 0.000000 0.199059
 31   4.172847 -0.251365 1.312745 -0.008050 -0.095731 0.148659
 32   1.215373 -0.000001 0.000000 0.000000 0.000000 0.645746
 33   1.215372 0.000000 0.000000 0.000000 0.000000 0.645746
 34   4.220534 -0.244853 0.431466 -0.001333 -0.026242 0.148339
 35   1.350416 0.000000 -0.000001 0.000000 0.000000 0.863937
 36   1.350410 0.000000 0.000001 0.000000 0.000000 0.863925
 37   2.110540 -0.000001 0.000000 -0.126428 0.120922 -0.232108
 38   0.891923 2.373051 -0.014527 -3.141592 -0.000001 1.413797
 39   7.228122 5.709445 3.726568 2.800187 -1.570796 0.000000
 40   2.450426 5.076128 0.001325 3.023358 -1.570796 0.000000
 41   6.312404 -4.528058 0.001311 3.147323 -1.570796 0.000000
 42   2.233309 1.152535 -7.309138 -1.073122 -1.541555 -0.988137
 43   4.262825 -0.232720 -1.392178 0.016840 0.076668 0.253759
time 2
  0   0.207697 12.655540 39.311695 0.000000 -0.034836 -2.730855
  1   -0.183272 1.062532 0.000000 -1.570795 -1.570451 0.000000
  2   -0.000007 0.000008 4.427393 -0.171560 -3.200872 0.067263
  3   18.465939 0.000000 0.000000 0.000000 0.000000 -0.155710
  4   14.875443 0.000000 -0.000001 -0.711713 0.041318 0.183301
  5   0.000006 -0.000004 -4.427393 0.122672 3.132774 -0.524235
  6   18.465939 0.000000 0.000000 0.000000 0.000000 -1.121061
  7   14.875442 0.000000 0.000000 0.024398 0.108960 0.183917
  8   2.255207 -0.007574 0.000003 -0.223567 0.122458 0.086526
  9   9.514219 -0.009357 0.000000 -0.047525 -0.003284 -0.246618
 10   11.751820 -0.001633 0.000000 -0.158676 0.117172 0.427198
 11   -2.305002 0.444673 2.501287 -0.981538 -1.167112 3.656260
 12   4.640941 0.000000 -0.000001 -0.875320 0.718147 -1.165367
 13   10.828049 0.000000 0.000000 0.000000 0.000000 -0.897721
 14   9.393337 -0.000001 0.000000 -1.569611 0.034172 0.000037
 15   1.442245 0.107454 -1.746177 1.686435 0.539209 0.325885
 16   1.063452 0.000000 0.000001 0.000000 0.000000 0.199056
 17   1.376307 -0.000001 0.000001 0.000000 0.000000 0.199049
 18   4.172846 -0.251366 -1.312744 0.008050 0.095731 0.148659
 19   1.215374 0.000002 0.000000 0.000000 0.000000 0.645758
 20   1.215371 -0.000002 0.000001 0.000000 0.000000 0.645758
 21   4.220534 -0.244854 -0.431465 0.001333 0.026242 0.148339
 22   1.350417 0.000000 0.000001 0.000000 0.000000 0.863926
 23   1.350410 -0.000001 -0.000001 0.000000 0.000000 0.863926
 24   -1.691702 1.276743 -2.696602 -1.139626 1.261283 1.590949
 25   4.640942 0.000000 0.000001 -0.151478 0.315726 0.680868
 26   10.828047 0.000000 0.000001 0.000000 0.000000 -0.812062
 27   9.393339 0.000000 0.000000 1.569611 -0.034192 0.000001
 28   1.442245 0.107455 1.746178 -1.686405 -0.539236 0.325898
 29   1.063450 -0.000001 0.000000 0.000000 0.000000 0.199056
 30   1.376307 0.000000 0.000000 0.000000 0.000000 0.199059
 31   4.172847 -0.251365 1.312745 -0.008050 -0.095731 0.148659
 32   1.215373 -0.000001 0.000000 0.000000 0.000000 0.645746
 33   1.215372 0.000000 0.000000 0.000000 0.000000 0.645746
 34   4.220534 -0.244853 0.431466 -0.001333 -0.026242 0.148339
 35   1.350416 0.000000 -0.000001 0.000000 0.000000 0.863937
 36   1.350410 0.000000 0.000001 0.000000 0.000000 0.863925
 37   2.110540 -0.000001 0.000000 -0.243747 0.222571 -0.274296
 38   0.891923 2.373051 -0.014527 -3.141592 -0.000001 1.413797
 39   7.228122 5.709445 3.726568 2.521222 -1.570796 0.000000
 40   2.450426 5.076128 0.001325 2.871168 -1.570796 0.000000
 41   6.312404 -4.528058 0.001311 3.150027 -1.570796 0.000000
 42   2.233309 1.152535 -7.309138 -1.022884 -1.529177 -1.092015
 43   4.262825 -0.232720 -1.392178 0.016840 0.076668 0.253759
time 3
  0   -0.360233 14.142034 39.100750 0.023777 -0.027677 2.788863
  1   -2.241929 0.496109 0.000000 -0.000030 -1.737593 -1.570772
  2   -0.000007 0.000008 4.427393 -0.187024 -3.077231 -0.101706
  3   18.465939 0.000000 0.000000 0.000000 0.000000 -0.450552
  4   14.875443 0.000000 -0.000001 -0.091156 0.099423 0.346766
  5   0.000006 -0.000004 -4.427393 0.231072 3.128486 -0.652168
  6   18.465939 0.000000 0.000000 0.000000 0.000000 -1.406121
  7   14.875442 0.000000 0.000000 -0.088366 0.163788 0.275085
  8   2.227862 -0.007574 -0.371102 -0.212541 0.198979 0.216163
  9   9.514219 -0.009357 0.000000 -0.042999 0.041910 -0.054879
 10   11.751820 -0.001633 0.000000 -0.167676 -0.024617 0.450040
 11   -1.929991 0.421235 2.805984 -1.068651 -1.137229 3.688481
 12   4.640941 0.000000 -0.000001 -0.891579 0.283731 -1.388923
 13   10.828049 0.000000 0.000000 0.000000 0.000000 -1.162087
 14   9.393337 -0.000001 0.000000 -1.569113 0.033539 0.016350
 15   1.442245 0.107454 -1.746177 1.686435 0.539209 0.325885
 16   1.063452 0.000000 0.000001 0.000000 0.000000 0.199056
 17   1.376307 -0.000001 0.000001 0.000000 0.000000 0.199049
 18   4.172846 -0.251366 -1.312744 0.008050 0.095731 0.148659
 19   1.215374 0.000002 0.000000 0.000000 0.000000 0.645758
 20   1.215371 -0.000002 0.000001 0.000000 0.000000 0.645758
 21   4.220534 -0.244854 -0.431465 0.001333 0.026242 0.148339
 22   1.350417 0.000000 0.000001 0.000000 0.000000 0.863926
 23   1.350410 -0.000001 -0.000001 0.000000 0.000000 0.863926
 24   -2.058901 1.300181 -2.419250 -0.628586 1.268323 2.075968
 25   4.640942 0.000000 0.000001 0.064566 0.135241 0.649931
 26   10.828047 0.000000 0.000001 0.000000 0.000000 -0.826582
 27   9.393339 0.000000 0.000000 1.570666 -0.036437 -0.007710
 28   1.442245 0.107455 1.746178 -1.686405 -0.539236 0.325898
 29   1.063450 -0.000001 0.000000 0.000000 0.000000 0.199056
 30   1.376307 0.000000 0.000000 0.000000 0.000000 0.199059
 31   4.172847 -0.251365 1.312745 -0.008050 -0.095731 0.148659
 32   1.215373 -0.000001 0.000000 0.000000 0.000000 0.645746
 33   1.215372 0.000000 0.000000 0.000000 0.000000 0.645746
 34   4.220534 -0.244853 0.431466 -0.001333 -0.026242 0.148339
 35   1.350416 0.000000 -0.000001 0.000000 0.000000 0.863937
 36   1.350410 0.000000 0.000001 0.000000 0.000000 0.863925
 37   2.110540 -0.000001 0.000000 -0.322770 0.222264 -0.172160
 38   0.891923 2.373051 -0.014527 -3.141592 -0.000001 1.413797
 39   7.228122 5.709445 3.726568 2.363550 -1.570796 0.000000
 40   2.450426 5.076128 0.001325 2.528523 -1.570796 0.000000
 41   6.312404 -4.528058 0.001311 3.154620 -1.570796 0.000000
 42   2.233309 1.152535 -7.309138 -0.868242 -1.541671 -1.331366
 43   4.262825 -0.232720 -1.392178 0.016840 0.076668 0.253759
time 4
  0   0.207697 14.912807 38.753082 0.034802 0.000575 1.964995
  1   -3.495873 -0.484390 0.000000 -0.000030 -1.867340 -1.570772
  2   -0.000007 0.000008 4.427393 -0.156859 -3.008015 -0.276610
  3   18.465939 0.000000 0.000000 0.000000 0.000000 -0.647869
  4   14.875443 0.000000 -0.000001 0.511157 0.158529 0.414238
  5   0.000006 -0.000004 -4.427393 0.322059 3.077594 -0.694376
  6   18.465939 0.000000 0.000000 0.000000 0.000000 -1.564961
  7   14.875442 0.000000 0.000000 -0.215520 0.199694 0.352934
  8   2.161454 -0.007574 -0.656267 -0.161885 0.202790 0.278633
  9   9.514219 -0.009357 0.000000 -0.026903 0.073681 0.112008
 10   11.751820 -0.001633 0.000000 -0.160306 -0.175659 0.474144
 11   -1.480758 0.444673 3.059898 -1.139524 -1.204533 3.721045
 12   4.640941 0.000000 -0.000001 -0.841919 0.100032 -1.499794
 13   10.828049 0.000000 0.000000 0.000000 0.000000 -1.320231
 14   9.393337 -0.000001 0.000000 -1.568739 0.033056 0.029049
 15   1.442245 0.107454 -1.746177 1.686435 0.539209 0.325885
 16   1.063452 0.000000 0.000001 0.000000 0.000000 0.199056
 17   1.376307 -0.000001 0.000001 0.000000 0.000000 0.199049
 18   4.172846 -0.251366 -1.312744 0.008050 0.095731 0.148659
 19   1.215374 0.000002 0.000000 0.000000 0.000000 0.645758
 20   1.215371 -0.000002 0.000001 0.000000 0.000000 0.645758
 21   4.220534 -0.244854 -0.431465 0.001333 0.026242 0.148339
 22   1.350417 0.000000 0.000001 0.000000 0.000000 0.863926
 23   1.350410 -0.000001 -0.000001 0.000000 0.000000 0.863926
 24   -2.402661 1.276743 -2.091115 -0.224048 1.211816 2.459856
 25   4.640942 0.000000 0.000001 0.113394 -0.133883 0.556210
 26   10.828047 0.000000 0.000001 0.000000 0.000000 -0.798297
 27   9.393339 0.000000 0.000000 1.571470 -0.038194 -0.013723
 28   1.442245 0.107455 1.746178 -1.686405 -0.539236 0.325898
 29   1.063450 -0.000001 0.000000 0.000000 0.000000 0.199056
 30   1.376307 0.000000 0.000000 0.000000 0.000000 0.199059
 31   4.172847 -0.251365 1.312745 -0.008050 -0.095731 0.148659
 32   1.215373 -0.000001 0.000000 0.000000 0.000000 0.645746
 33   1.215372 0.000000 0.000000 0.000000 0.000000 0.645746
 34   4.220534 -0.244853 0.431466 -0.001333 -0.026242 0.148339
 35   1.350416 0.000000 -0.000001 0.000000 0.000000 0.863937
 36   1.350410 0.000000 0.000001 0.000000 0.000000 0.863925
 37   2.110540 -0.000001 0.000000 -0.341798 0.135503 -0.125844
 38   0.891923 2.373051 -0.014527 -3.141592 -0.000001 1.413797
 39   7.228122 5.709445 3.726568 2.245676 -1.570796 0.000000
 40   2.450426 5.076128 0.001325 2.375632 -1.570796 0.000000
 41   6.312404 -4.528058 0.001311 3.167071 -1.570796 0.000000
 42   2.233309 1.152535 -7.309138 1.494057 -1.548865 2.599543
 43   4.262825 -0.232720 -1.392178 0.016840 0.076668 0.253759
time 5
  0   3.919520 15.986385 37.057720 0.025023 0.024225 1.211883
  1   -0.753602 -1.429731 0.000000 -0.000030 -1.737593 -1.570772
  2   -0.000007 0.000008 4.427393 -0.132325 -3.022342 -0.255713
  3   18.465939 0.000000 0.000000 0.000000 0.000000 -0.846429
  4   14.875443 0.000000 -0.000001 0.110327 0.065262 0.605790
  5   0.000006 -0.000004 -4.427393 0.262644 2.978514 -0.533968
  6   18.465939 0.000000 0.000000 0.000000 0.000000 -1.412684
  7   14.875442 0.000000 0.000000 -0.278061 0.229780 0.378446
  8   2.227862 -0.007574 -0.371102 -0.259522 0.025622 0.064787
  9   9.514219 -0.009357 0.000000 -0.033447 0.031424 -0.036954
 10   11.751820 -0.001633 0.000000 -0.160869 -0.193948 0.477177
 11   -1.422163 0.444673 3.087242 1.546699 -1.784678 1.085801
 12   4.640941 0.000000 -0.000001 -0.801100 0.533484 -1.284550
 13   10.828049 0.000000 0.000000 0.000000 0.000000 -1.137133
 14   9.393337 -0.000001 0.000000 -1.569611 0.038606 0.013810
 15   1.442245 0.107454 -1.746177 1.688700 0.543887 0.332453
 16   1.063452 0.000000 0.000001 0.000000 0.000000 0.199787
 17   1.376307 -0.000001 0.000001 0.000000 0.000000 0.199780
 18   4.172846 -0.251366 -1.312744 0.008314 0.095707 0.151544
 19   1.215374 0.000002 0.000000 0.000000 0.000000 0.664909
 20   1.215371 -0.000002 0.000001 0.000000 0.000000 0.664909
 21   4.220534 -0.244854 -0.431465 0.001405 0.026242 0.151181
 22   1.350417 0.000000 0.000001 0.000000 0.000000 0.889574
 23   1.350410 -0.000001 -0.000001 0.000000 0.000000 0.889574
 24   -2.441725 1.276743 -2.044239 -0.630606 1.085138 2.041294
 25   4.640942 0.000000 0.000001 -0.139079 0.114389 0.930886
 26   10.828047 0.000000 0.000001 0.000000 0.000000 -0.978873
 27   9.393339 0.000000 0.000000 1.569611 -0.034192 0.000001
 28   1.442245 0.107455 1.746178 -1.686405 -0.539236 0.325898
 29   1.063450 -0.000001 0.000000 0.000000 0.000000 0.199056
 30   1.376307 0.000000 0.000000 0.000000 0.000000 0.199059
 31   4.172847 -0.251365 1.312745 -0.008050 -0.095731 0.148659
 32   1.215373 -0.000001 0.000000 0.000000 0.000000 0.645746
 33   1.215372 0.000000 0.000000 0.000000 0.000000 0.645746
 34   4.220534 -0.244853 0.431466 -0.001333 -0.026242 0.148339
 35   1.350416 0.000000 -0.000001 0.000000 0.000000 0.863937
 36   1.350410 0.000000 0.000001 0.000000 0.000000 0.863925
 37   2.110540 -0.000001 0.000000 -0.249517 -0.073827 -0.486436
 38   0.891923 2.373051 -0.014527 -3.141592 -0.000001 1.413797
 39   7.228122 5.709445 3.726568 2.141479 -1.570796 0.000000
 40   2.450426 5.076128 0.001325 2.853527 -1.570796 0.000000
 41   6.312404 -4.528058 0.001311 3.193147 -1.570796 0.000000
 42   2.233309 1.152535 -7.309138 -1.244062 -1.685985 -0.853143
 43   4.262825 -0.232720 -1.392178 0.016840 0.076668 0.253759
time 6
  0   7.753043 14.912807 34.393578 0.001246 0.034836 0.447266
  1   2.398838 -2.089908 0.000000 -1.570795 -1.570451 0.000000
  2   -0.000007 0.000008 4.427393 -0.090799 -3.141331 0.006767
  3   18.465939 0.000000 0.000000 0.000000 0.000000 -0.889123
  4   14.875443 0.000000 -0.000001 -0.245448 0.300877 0.794419
  5   0.000006 -0.000004 -4.427393 0.205718 2.844573 -0.330418
  6   18.465939 0.000000 0.000000 0.000000 0.000000 -1.282396
  7   14.875442 0.000000 0.000000 -0.258127 0.266731 0.435848
  8   2.255207 -0.007574 0.000003 -0.221698 -0.169235 -0.163616
  9   9.514219 -0.009357 0.000000 -0.030122 -0.020542 -0.243977
 10   11.751820 -0.001633 0.000000 -0.160306 -0.175659 0.474144
 11   -1.480758 0.444673 3.059898 -2.398483 -1.388600 5.066216
 12   4.640941 0.000000 -0.000001 -0.576178 1.022728 -0.956387
 13   10.828049 0.000000 0.000000 0.000000 0.000000 -0.897721
 14   9.393337 -0.000001 0.000000 -1.569611 0.034172 0.000037
 15   1.442245 0.107454 -1.746177 1.686435 0.539209 0.325885
 16   1.063452 0.000000 0.000001 0.000000 0.000000 0.199056
 17   1.376307 -0.000001 0.000001 0.000000 0.000000 0.199049
 18   4.172846 -0.251366 -1.312744 0.008050 0.095731 0.148659
 19   1.215374 0.000002 0.000000 0.000000 0.000000 0.645758
 20   1.215371 -0.000002 0.000001 0.000000 0.000000 0.645758
 21   4.220534 -0.244854 -0.431465 0.001333 0.026242 0.148339
 22   1.350417 0.000000 0.000001 0.000000 0.000000 0.863926
 23   1.350410 -0.000001 -0.000001 0.000000 0.000000 0.863926
 24   -2.402661 1.276743 -2.091115 -0.534860 1.045411 2.153090
 25   4.640942 0.000000 0.000001 -0.491727 0.317051 0.804967
 26   10.828047 0.000000 0.000001 0.000000 0.000000 -0.812062
 27   9.393339 0.000000 0.000000 1.569611 -0.034192 0.000001
 28   1.442245 0.107455 1.746178 -1.686405 -0.539236 0.325898
 29   1.063450 -0.000001 0.000000 0.000000 0.000000 0.199056
 30   1.376307 0.000000 0.000000 0.000000 0.000000 0.199059
 31   4.172847 -0.251365 1.312745 -0.008050 -0.095731 0.148659
 32   1.215373 -0.000001 0.000000 0.000000 0.000000 0.645746
 33   1.215372 0.000000 0.000000 0.000000 0.000000 0.645746
 34   4.220534 -0.244853 0.431466 -0.001333 -0.026242 0.148339
 35   1.350416 0.000000 -0.000001 0.000000 0.000000 0.863937
 36   1.350410 0.000000 0.000001 0.000000 0.000000 0.863925
 37   2.110540 -0.000001 0.000000 -0.037151 -0.009665 -0.751214
 38   0.891923 2.373051 -0.014527 -3.141592 -0.000001 1.413797
 39   7.228122 5.709445 3.726568 2.024935 -1.570796 0.000000
 40   2.450426 5.076128 0.001325 3.232947 -1.570796 0.000000
 41   6.312404 -4.528058 0.001311 3.349756 -1.570796 0.000000
 42   2.233309 1.152535 -7.309138 -1.153559 -1.808280 -0.800294
 43   4.262825 -0.232720 -1.392178 0.016840 0.076668 0.253759
time 7
  0   8.848334 7.645509 29.901251 -0.039308 -0.070438 -0.492901
  1   0.918324 -1.164098 0.000000 -0.000030 -1.552271 -1.570772
  2   -0.000007 0.000008 4.427393 0.001895 -3.122259 0.344306
  3   18.465939 0.000000 0.000000 0.000000 0.000000 -1.077886
  4   14.875443 0.000000 -0.000001 0.103809 -0.220881 0.881840
  5   0.000006 -0.000004 -4.427393 0.131187 2.730206 -0.229063
  6   18.465939 0.000000 0.000000 0.000000 0.000000 -1.623049
  7   14.875442 0.000000 0.000000 -0.118935 0.365224 0.689054
  8   2.255207 -0.007574 0.039067 0.146651 -0.143337 -0.019520
  9   9.514219 -0.009357 0.000000 -0.007837 0.005225 -0.236292
 10   11.751820 -0.001633 0.000000 -0.160306 -0.175659 0.474144
 11   -1.480758 0.444673 3.059898 1.380593 -1.788431 1.261676
 12   4.640941 0.000000 -0.000001 -0.589834 0.713739 -1.321722
 13   10.828049 0.000000 0.000000 0.000000 0.000000 -0.849643
 14   9.393337 -0.000001 0.000000 -1.568739 0.000935 0.015275
 15   1.442245 0.107454 -1.746177 1.671921 0.506681 0.281429
 16   1.063452 0.000000 0.000001 0.000000 0.000000 0.194010
 17   1.376307 -0.000001 0.000001 0.000000 0.000000 0.194012
 18   4.172846 -0.251366 -1.312744 0.006157 0.095875 0.128904
 19   1.215374 0.000002 0.000000 0.000000 0.000000 0.513578
 20   1.215371 -0.000002 0.000001 0.000000 0.000000 0.513578
 21   4.220534 -0.244854 -0.431465 0.000817 0.026254 0.128680
 22   1.350417 0.000000 0.000001 0.000000 0.000000 0.687090
 23   1.350410 -0.000001 -0.000001 0.000000 0.000000 0.687090
 24   -2.402661 1.276743 -2.091115 -0.499169 1.033553 2.191410
 25   4.640942 0.000000 0.000001 -0.225929 0.238594 1.229478
 26   10.828047 0.000000 0.000001 0.000000 0.000000 -0.785345
 27   9.393339 0.000000 0.000000 1.559911 -0.034095 -0.003879
 28   1.442245 0.107455 1.746178 -1.687860 -0.539236 0.325692
 29   1.063450 -0.000001 0.000000 0.000000 0.000000 0.203094
 30   1.376307 0.000000 0.000000 0.000000 0.000000 0.203092
 31   4.172847 -0.251365 1.312745 -0.008230 -0.095719 0.150623
 32   1.215373 -0.000001 0.000000 0.000000 0.000000 0.658882
 33   1.215372 0.000000 0.000000 0.000000 0.000000 0.658882
 34   4.220534 -0.244853 0.431466 -0.001381 -0.026242 0.150300
 35   1.350416 0.000000 -0.000001 0.000000 0.000000 0.881480
 36   1.350410 0.000000 0.000001 0.000000 0.000000 0.881482
 37   2.110540 -0.000001 0.000000 -0.216992 -0.043324 -0.808926
 38   0.891923 2.373051 -0.014527 -3.141592 -0.000001 1.413797
 39   7.228122 5.709445 3.726568 1.869733 -1.570796 0.000000
 40   2.450426 5.076128 0.001325 3.129908 -1.570796 0.000000
 41   6.312404 -4.528058 0.001311 3.196311 -1.570796 0.000000
 42   2.233309 1.152535 -7.309138 -1.187593 -1.938905 -0.755870
 43   4.262825 -0.232720 -1.392178 0.017151 0.076596 0.257818
time 8
  0   8.483237 0.157989 24.154982 -0.034802 -0.002301 -1.227413
  1   -0.812198 0.046876 0.000000 -1.570795 -1.570451 0.000000
  2   -0.000007 0.000008 4.427393 0.054876 -3.038716 0.640700
  3   18.465939 0.000000 0.000000 0.000000 0.000000 -0.768130
  4   14.875443 0.000000 -0.000001 0.657736 -0.145301 -0.366034
  5   0.000006 -0.000004 -4.427393 0.101814 2.681831 -0.129487
  6   18.465939 0.000000 0.000000 0.000000 0.000000 -1.901873
  7   14.875442 0.000000 0.000000 0.040718 0.425092 0.795004
  8   2.255207 -0.007574 0.000003 0.098473 -0.029207 0.117992
  9   9.514219 -0.009357 0.000000 0.007323 0.070433 -0.176759
 10   11.751820 -0.001633 0.000000 -0.160306 -0.175659 0.474144
 11   -1.480758 0.444673 3.059898 -1.278540 -1.230647 3.871639
 12   4.640941 0.000000 -0.000001 -0.664742 0.221121 -1.216705
 13   10.828049 0.000000 0.000000 0.000000 0.000000 -0.870021
 14   9.393337 -0.000001 0.000000 -1.562508 -0.046658 0.040234
 15   1.442245 0.107454 -1.746177 1.655646 0.462925 0.224680
 16   1.063452 0.000000 0.000001 0.000000 0.000000 0.187359
 17   1.376307 -0.000001 0.000001 0.000000 0.000000 0.187361
 18   4.172846 -0.251366 -1.312744 0.003664 0.095995 0.102857
 19   1.215374 0.000002 0.000000 0.000000 0.000000 0.339014
 20   1.215371 -0.000002 0.000001 0.000000 0.000000 0.339014
 21   4.220534 -0.244854 -0.431465 0.000134 0.026266 0.102736
 22   1.350417 0.000000 0.000001 0.000000 0.000000 0.453528
 23   1.350410 -0.000001 -0.000001 0.000000 0.000000 0.453528
 24   -2.402661 1.276743 -2.091115 -0.479985 1.025226 2.212117
 25   4.640942 0.000000 0.000001 -0.000829 0.195914 1.223249
 26   10.828047 0.000000 0.000001 0.000000 0.000000 -0.787552
 27   9.393339 0.000000 0.000000 1.546292 -0.039788 -0.002860
 28   1.442245 0.107455 1.746178 -1.690405 -0.539292 0.325332
 29   1.063450 -0.000001 0.000000 0.000000 0.000000 0.209842
 30   1.376307 0.000000 0.000000 0.000000 0.000000 0.209835
 31   4.172847 -0.251365 1.312745 -0.008541 -0.095683 0.153868
 32   1.215373 -0.000001 0.000000 0.000000 0.000000 0.680747
 33   1.215372 0.000000 0.000000 0.000000 0.000000 0.680747
 34   4.220534 -0.244853 0.431466 -0.001465 -0.026230 0.153543
 35   1.350416 0.000000 -0.000001 0.000000 0.000000 0.910732
 36   1.350410 0.000000 0.000001 0.000000 0.000000 0.910727
 37   2.110540 -0.000001 0.000000 0.029282 0.124163 -0.811463
 38   0.891923 2.373051 -0.014527 -3.141592 -0.000001 1.413797
 39   7.228122 5.709445 3.726568 1.649847 -1.570796 0.000000
 40   2.450426 5.076128 0.001325 3.049600 -1.570796 0.000000
 41   6.312404 -4.528058 0.001311 3.182992 -1.570796 0.000000
 42   2.233309 1.152535 -7.309138 1.423495 -1.234637 3.022716
 43   4.262825 -0.232720 -1.392178 0.017667 0.076477 0.264664
time 9
  0   6.556334 -1.658835 13.943733 -0.234603 0.617582 -1.314373
  1   -2.308337 1.582080 0.000000 -1.570795 -1.570451 0.000000
  2   -0.000007 0.000008 4.427393 0.144324 -2.876932 0.372135
  3   18.465939 0.000000 0.000000 0.000000 0.000000 -0.640631
  4   14.875443 0.000000 -0.000001 -0.791976 -0.335580 -0.336644
  5   0.000006 -0.000004 -4.427393 0.334688 2.963507 0.070414
  6   18.465939 0.000000 0.000000 0.000000 0.000000 -1.164513
  7   14.875442 0.000000 0.000000 0.394839 0.175104 0.028406
  8   2.255207 -0.007574 0.000003 -0.012773 0.094498 0.238398
  9   9.514219 -0.009357 0.000000 0.025557 0.141646 -0.107787
 10   11.751820 -0.001633 0.000000 -0.160306 -0.175659 0.474144
 11   -1.480758 0.444673 3.059898 -1.075025 -1.201511 3.655573
 12   4.640941 0.000000 -0.000001 -0.960495 -0.190910 -0.842414
 13   10.828049 0.000000 0.000000 0.000000 0.000000 -0.895280
 14   9.393337 -0.000001 0.000000 -1.556839 -0.095489 0.065582
 15   1.442245 0.107454 -1.746177 1.642260 0.417791 0.169100
 16   1.063452 0.000000 0.000001 0.000000 0.000000 0.180623
 17   1.376307 -0.000001 0.000001 0.000000 0.000000 0.180614
 18   4.172846 -0.251366 -1.312744 0.001123 0.096055 0.076409
 19   1.215374 0.000002 0.000000 0.000000 0.000000 0.161876
 20   1.215371 -0.000002 0.000001 0.000000 0.000000 0.161876
 21   4.220534 -0.244854 -0.431465 -0.000561 0.026254 0.076391
 22   1.350417 0.000000 0.000001 0.000000 0.000000 0.216576
 23   1.350410 -0.000001 -0.000001 0.000000 0.000000 0.216576
 24   -2.402661 1.276743 -2.091115 -0.453820 1.024229 2.238948
 25   4.640942 0.000000 0.000001 0.231578 0.194589 1.098380
 26   10.828047 0.000000 0.000001 0.000000 0.000000 -0.773147
 27   9.393339 0.000000 0.000000 1.538804 -0.030288 -0.016536
 28   1.442245 0.107455 1.746178 -1.690860 -0.539292 0.325280
 29   1.063450 -0.000001 0.000000 0.000000 0.000000 0.211184
 30   1.376307 0.000000 0.000000 0.000000 0.000000 0.211179
 31   4.172847 -0.251365 1.312745 -0.008601 -0.095683 0.154550
 32   1.215373 -0.000001 0.000000 0.000000 0.000000 0.685112
 33   1.215372 0.000000 0.000000 0.000000 0.000000 0.685112
 34   4.220534 -0.244853 0.431466 -0.001489 -0.026230 0.154184
 35   1.350416 0.000000 -0.000001 0.000000 0.000000 0.916565
 36   1.350410 0.000000 0.000001 0.000000 0.000000 0.916547
 37   2.110540 -0.000001 0.000000 0.390634 0.216146 -0.632049
 38   0.891923 2.373051 -0.014527 -3.141592 -0.000001 1.413797
 39   7.228122 5.709445 3.726568 0.694508 -1.570796 0.000000
 40   2.450426 5.076128 0.001325 3.004751 -1.570796 0.000000
 41   6.312404 -4.528058 0.001311 3.172531 -1.570796 0.000000
 42   2.233309 1.152535 -7.309138 -1.035060 -1.706896 -0.534997
 43   4.262825 -0.232720 -1.392178 0.017775 0.076453 0.266017
time 10
  0   4.528015 -1.658835 4.556728 -0.460002 1.251783 -1.333165
  1   -3.249772 3.011811 0.000000 -1.570795 -1.570451 0.000000
  2   -0.000007 0.000008 4.427393 0.058217 -3.027366 0.646386
  3   18.465939 0.000000 0.000000 0.000000 0.000000 -0.758261
  4   14.875443 0.000000 -0.000001 -0.328187 -0.153495 -0.370893
  5   0.000006 -0.000004 -4.427393 0.369227 2.938527 0.328807
  6   18.465939 0.000000 0.000000 0.000000 0.000000 -1.444059
  7   14.875442 0.000000 0.000000 0.355355 0.148517 -0.167886
  8   2.255207 -0.007574 0.000003 -0.099741 0.209382 0.330580
  9   9.514219 -0.009357 0.000000 0.042630 0.205943 -0.063689
 10   11.751820 -0.001633 0.000000 -0.160306 -0.175659 0.474144
 11   -1.480758 0.444673 3.059898 -0.902393 -1.205869 3.489384
 12   4.640941 0.000000 -0.000001 -1.320546 -0.324810 -0.325700
 13   10.828049 0.000000 0.000000 0.000000 0.000000 -0.995279
 14   9.393337 -0.000001 0.000000 -1.518335 -0.161842 0.086340
 15   1.442245 0.107454 -1.746177 1.632624 0.376005 0.119801
 16   1.063452 0.000000 0.000001 0.000000 0.000000 0.174451
 17   1.376307 -0.000001 0.000001 0.000000 0.000000 0.174432
 18   4.172846 -0.251366 -1.312744 -0.001190 0.096055 0.052246
 19   1.215374 0.000002 0.000000 0.000000 0.000000 0.000011
 20   1.215371 -0.000002 0.000001 0.000000 0.000000 0.000011
 21   4.220534 -0.244854 -0.431465 -0.001184 0.026242 0.052329
 22   1.350417 0.000000 0.000001 0.000000 0.000000 0.000004
 23   1.350410 -0.000001 -0.000001 0.000000 0.000000 0.000004
 24   -2.402661 1.276743 -2.091115 -0.396399 1.032993 2.296188
 25   4.640942 0.000000 0.000001 0.435789 0.251426 0.875731
 26   10.828047 0.000000 0.000001 0.000000 0.000000 -0.696596
 27   9.393339 0.000000 0.000000 1.546242 0.015648 -0.064449
 28   1.442245 0.107455 1.746178 -1.686405 -0.539236 0.325898
 29   1.063450 -0.000001 0.000000 0.000000 0.000000 0.199056
 30   1.376307 0.000000 0.000000 0.000000 0.000000 0.199059
 31   4.172847 -0.251365 1.312745 -0.008050 -0.095731 0.148659
 32   1.215373 -0.000001 0.000000 0.000000 0.000000 0.645746
 33   1.215372 0.000000 0.000000 0.000000 0.000000 0.645746
 34   4.220534 -0.244853 0.431466 -0.001333 -0.026242 0.148339
 35   1.350416 0.000000 -0.000001 0.000000 0.000000 0.863937
 36   1.350410 0.000000 0.000001 0.000000 0.000000 0.863925
 37   2.110540 -0.000001 0.000000 0.711353 0.148269 -0.401115
 38   0.891923 2.373051 -0.014527 -3.141592 -0.000001 1.413797
 39   7.228122 5.709445 3.726568 2.918631 -1.570796 0.000000
 40   2.450426 5.076128 0.001325 3.001416 -1.570796 0.000000
 41   6.312404 -4.528058 0.001311 3.164622 -1.570796 0.000000
 42   2.233309 1.152535 -7.309138 -0.945228 -1.727284 -0.457160
 43   4.262825 -0.232720 -1.392178 0.016840 0.076668 0.253759
time 11
  0   4.284617 -1.768946 4.341878 -0.424625 1.318961 -1.400470
  1   -2.917731 3.086032 0.000000 -1.570795 -1.570451 0.000000
  2   -0.000007 0.000008 4.427393 0.085901 -2.991455 0.386150
  3   18.465939 0.000000 0.000000 0.000000 0.000000 -0.589822
  4   14.875443 0.000000 -0.000001 -0.286007 0.003028 -0.286593
  5   0.000006 -0.000004 -4.427393 0.377359 2.935265 0.188614
  6   18.465939 0.000000 0.000000 0.000000 0.000000 -0.972657
  7   14.875442 0.000000 0.000000 0.405016 -0.199888 -0.143950
  8   2.255207 -0.007574 0.000003 -0.098082 0.210185 0.339679
  9   9.514219 -0.009357 0.000000 0.026256 0.237091 -0.166129
 10   11.751820 -0.001633 0.000000 -0.160306 -0.175659 0.474144
 11   -1.480758 0.444673 3.059898 -0.869840 -1.277117 3.483614
 12   4.640941 0.000000 -0.000001 -1.171564 -0.128231 -0.231688
 13   10.828049 0.000000 0.000000 0.000000 0.000000 -1.391615
 14   9.393337 -0.000001 0.000000 -1.318899 -0.296207 0.061675
 15   1.442245 0.107454 -1.746177 1.629951 0.362019 0.103689
 16   1.063452 0.000000 0.000001 0.000000 0.000000 0.172402
 17   1.376307 -0.000001 0.000001 0.000000 0.000000 0.172390
 18   4.172846 -0.251366 -1.312744 -0.001957 0.096043 0.044232
 19   1.215374 0.000002 0.000000 0.000000 0.000000 -0.053808
 20   1.215371 -0.000002 0.000001 0.000000 0.000000 -0.053808
 21   4.220534 -0.244854 -0.431465 -0.001388 0.026242 0.044362
 22   1.350417 0.000000 0.000001 0.000000 0.000000 -0.071956
 23   1.350410 -0.000001 -0.000001 0.000000 0.000000 -0.071956
 24   -2.402661 1.276743 -2.091115 -0.082734 1.097121 2.605843
 25   4.640942 0.000000 0.000001 0.433576 0.363497 -0.102011
 26   10.828047 0.000000 0.000001 0.000000 0.000000 -0.197732
 27   9.393339 0.000000 0.000000 1.609464 0.335937 -0.348195
 28   1.442245 0.107455 1.746178 -1.646675 -0.538618 0.331305
 29   1.063450 -0.000001 0.000000 0.000000 0.000000 0.091242
 30   1.376307 0.000000 0.000000 0.000000 0.000000 0.091256
 31   4.172847 -0.251365 1.312745 -0.003041 -0.096019 0.096445
 32   1.215373 -0.000001 0.000000 0.000000 0.000000 0.295942
 33   1.215372 0.000000 0.000000 0.000000 0.000000 0.295942
 34   4.220534 -0.244853 0.431466 0.000033 -0.026266 0.096330
 35   1.350416 0.000000 -0.000001 0.000000 0.000000 0.395952
 36   1.350410 0.000000 0.000001 0.000000 0.000000 0.395955
 37   2.110540 -0.000001 0.000000 0.802823 0.045475 -0.144981
 38   0.891923 2.373051 -0.014527 -3.141592 -0.000001 1.413797
 39   7.228122 5.709445 3.726568 3.102993 -1.570796 0.000000
 40   2.450426 5.076128 0.001325 3.001240 -1.570796 0.000000
 41   6.312404 -4.528058 0.001311 3.158804 -1.570796 0.000000
 42   2.233309 1.152535 -7.309138 -1.176856 -1.735613 -0.351271
 43   4.262825 -0.232720 -1.392178 0.008403 0.078047 0.144708
time 12
  0   4.528015 -1.658835 4.775485 -0.215812 1.251783 -1.333165
  1   -4.011514 2.851650 0.000000 -1.570795 -1.570451 0.000000
  2   -0.000007 0.000008 4.427393 0.135159 -2.956661 0.065617
  3   18.465939 0.000000 0.000000 0.000000 0.000000 -0.463785
  4   14.875443 0.000000 -0.000001 -0.234661 0.110023 -0.163342
  5   0.000006 -0.000004 -4.427393 0.363103 2.903667 -0.012410
  6   18.465939 0.000000 0.000000 0.000000 0.000000 -0.523179
  7   14.875442 0.000000 0.000000 0.143128 -0.443087 0.045027
  8   2.255207 -0.007574 0.000003 -0.099552 0.204037 0.278533
  9   9.514219 -0.009357 0.000000 0.030729 0.152025 0.266989
 10   11.751820 -0.001633 0.000000 -0.160306 -0.175659 0.474144
 11   -1.480758 0.444673 3.059898 -0.835920 -1.171803 3.413264
 12   4.640941 0.000000 -0.000001 -1.298294 -0.141387 -0.551656
 13   10.828049 0.000000 0.000000 0.000000 0.000000 -1.690026
 14   9.393337 -0.000001 0.000000 -1.120398 -0.379752 -0.066046
 15   1.442245 0.107454 -1.746177 1.632624 0.376005 0.119801
 16   1.063452 0.000000 0.000001 0.000000 0.000000 0.174451
 17   1.376307 -0.000001 0.000001 0.000000 0.000000 0.174432
 18   4.172846 -0.251366 -1.312744 -0.001190 0.096055 0.052246
 19   1.215374 0.000002 0.000000 0.000000 0.000000 0.000011
 20   1.215371 -0.000002 0.000001 0.000000 0.000000 0.000011
 21   4.220534 -0.244854 -0.431465 -0.001184 0.026242 0.052329
 22   1.350417 0.000000 0.000001 0.000000 0.000000 0.000004
 23   1.350410 -0.000001 -0.000001 0.000000 0.000000 0.000004
 24   -2.402661 1.276743 -2.091115 0.227287 0.689550 2.875321
 25   4.640942 0.000000 0.000001 0.595134 0.738693 -1.079752
 26   10.828047 0.000000 0.000001 0.000000 0.000000 -0.255059
 27   9.393339 0.000000 0.000000 1.680829 0.537155 -0.317643
 28   1.442245 0.107455 1.746178 -1.613036 -0.538225 0.335888
 29   1.063450 -0.000001 0.000000 0.000000 0.000000 0.000004
 30   1.376307 0.000000 0.000000 0.000000 0.000000 0.000003
 31   4.172847 -0.251365 1.312745 0.001190 -0.096055 0.052246
 32   1.215373 -0.000001 0.000000 0.000000 0.000000 0.000026
 33   1.215372 0.000000 0.000000 0.000000 0.000000 0.000026
 34   4.220534 -0.244853 0.431466 0.001184 -0.026242 0.052329
 35   1.350416 0.000000 -0.000001 0.000000 0.000000 0.000026
 36   1.350410 0.000000 0.000001 0.000000 0.000000 0.000024
 37   2.110540 -0.000001 0.000000 0.708825 0.130615 -0.589518
 38   0.891923 2.373051 -0.014527 -3.141592 -0.000001 1.413797
 39   7.228122 5.709445 3.726568 3.219252 -1.570796 0.000000
 40   2.450426 5.076128 0.001325 3.003873 -1.570796 0.000000
 41   6.312404 -4.528058 0.001311 3.154773 -1.570796 0.000000
 42   2.233309 1.152535 -7.309138 -1.417879 -1.746128 -0.256584
 43   4.262825 -0.232720 -1.392178 0.001188 0.078478 0.052453
time 13
  0   4.528015 -1.686363 5.052837 -0.160589 1.303045 -1.347546
  1   -3.265397 2.738365 0.000000 -1.570795 -1.570451 0.000000
  2   -0.000007 0.000008 4.427393 0.131532 -2.993595 0.025170
  3   18.465939 0.000000 0.000000 0.000000 0.000000 -0.776099
  4   14.875443 0.000000 -0.000001 -0.052049 0.144652 -0.003867
  5   0.000006 -0.000004 -4.427393 0.330574 2.787809 -0.044510
  6   18.465939 0.000000 0.000000 0.000000 0.000000 -0.809222
  7   14.875442 0.000000 0.000000 0.075638 -0.258481 0.402307
  8   2.255207 -0.007574 0.000003 -0.101883 0.197793 0.215898
  9   9.514219 -0.009357 0.000000 0.028077 0.140004 0.224472
 10   11.751820 -0.001633 0.000000 -0.160306 -0.175659 0.474144
 11   -1.480758 0.444673 3.059898 -0.881981 -1.186117 3.462316
 12   4.640941 0.000000 -0.000001 -1.257917 -0.056666 -0.604633
 13   10.828049 0.000000 0.000000 0.000000 0.000000 -1.747804
 14   9.393337 -0.000001 0.000000 -1.040711 -0.362350 -0.085290
 15   1.442245 0.107454 -1.746177 1.642439 0.418443 0.169900
 16   1.063452 0.000000 0.000001 0.000000 0.000000 0.180719
 17   1.376307 -0.000001 0.000001 0.000000 0.000000 0.180710
 18   4.172846 -0.251366 -1.312744 0.001159 0.096055 0.076770
 19   1.215374 0.000002 0.000000 0.000000 0.000000 0.164449
 20   1.215371 -0.000002 0.000001 0.000000 0.000000 0.164449
 21   4.220534 -0.244854 -0.431465 -0.000549 0.026254 0.076752
 22   1.350417 0.000000 0.000001 0.000000 0.000000 0.220007
 23   1.350410 -0.000001 -0.000001 0.000000 0.000000 0.220007
 24   -2.402661 1.276743 -2.091115 0.241423 0.706703 2.889769
 25   4.640942 0.000000 0.000001 0.842718 0.598169 -0.918557
 26   10.828047 0.000000 0.000001 0.000000 0.000000 -0.523977
 27   9.393339 0.000000 0.000000 1.679874 0.407120 -0.280205
 28   1.442245 0.107455 1.746178 -1.627219 -0.538337 0.333931
 29   1.063450 -0.000001 0.000000 0.000000 0.000000 0.038570
 30   1.376307 0.000000 0.000000 0.000000 0.000000 0.038589
 31   4.172847 -0.251365 1.312745 -0.000596 -0.096055 0.070920
 32   1.215373 -0.000001 0.000000 0.000000 0.000000 0.125091
 33   1.215372 0.000000 0.000000 0.000000 0.000000 0.125091
 34   4.220534 -0.244853 0.431466 0.000705 -0.026254 0.070906
 35   1.350416 0.000000 -0.000001 0.000000 0.000000 0.167352
 36   1.350410 0.000000 0.000001 0.000000 0.000000 0.167385
 37   2.110540 -0.000001 0.000000 0.539333 0.475086 -0.973891
 38   0.891923 2.373051 -0.014527 -3.141592 -0.000001 1.413797
 39   7.228122 5.709445 3.726568 3.279471 -1.570796 0.000000
 40   2.450426 5.076128 0.001325 3.008788 -1.570796 0.000000
 41   6.312404 -4.528058 0.001311 3.152170 -1.570796 0.000000
 42   2.233309 1.152535 -7.309138 -1.469651 -1.831638 -0.231883
 43   4.262825 -0.232720 -1.392178 0.004232 0.078382 0.091456
time 14
  0   4.528015 -1.686363 5.463006 -0.115720 1.369776 -1.359818
  1   -2.175520 2.632893 0.000000 -1.570795 -1.570451 0.000000
  2   -0.000007 0.000008 4.427393 0.144992 -2.960568 -0.005701
  3   18.465939 0.000000 0.000000 0.000000 0.000000 -0.307554
  4   14.875443 0.000000 -0.000001 0.230892 0.118919 -0.456813
  5   0.000006 -0.000004 -4.427393 0.365974 2.906277 0.014543
  6   18.465939 0.000000 0.000000 0.000000 0.000000 -0.345632
  7   14.875442 0.000000 0.000000 0.107050 -0.227977 0.006684
  8   2.255207 -0.007574 0.000003 -0.104025 0.191117 0.150352
  9   9.514219 -0.009357 0.000000 0.027483 0.138278 0.110601
 10   11.751820 -0.001633 0.000000 -0.160306 -0.175659 0.474144
 11   -1.480758 0.444673 3.059898 -0.951033 -1.217367 3.540498
 12   4.640941 0.000000 -0.000001 -1.204131 0.061874 -0.606740
 13   10.828049 0.000000 0.000000 0.000000 0.000000 -1.773796
 14   9.393337 -0.000001 0.000000 -0.976974 -0.331375 -0.085827
 15   1.442245 0.107454 -1.746177 1.656785 0.466336 0.228990
 16   1.063452 0.000000 0.000001 0.000000 0.000000 0.187874
 17   1.376307 -0.000001 0.000001 0.000000 0.000000 0.187872
 18   4.172846 -0.251366 -1.312744 0.003856 0.095995 0.104860
 19   1.215374 0.000002 0.000000 0.000000 0.000000 0.352448
 20   1.215371 -0.000002 0.000001 0.000000 0.000000 0.352448
 21   4.220534 -0.244854 -0.431465 0.000182 0.026266 0.104738
 22   1.350417 0.000000 0.000001 0.000000 0.000000 0.471539
 23   1.350410 -0.000001 -0.000001 0.000000 0.000000 0.471539
 24   -2.402661 1.276743 -2.091115 0.227814 0.792305 2.889150
 25   4.640942 0.000000 0.000001 0.984107 0.406038 -0.779129
 26   10.828047 0.000000 0.000001 0.000000 0.000000 -0.589029
 27   9.393339 0.000000 0.000000 1.485682 0.394855 -0.318322
 28   1.442245 0.107455 1.746178 -1.648857 -0.538618 0.330996
 29   1.063450 -0.000001 0.000000 0.000000 0.000000 0.097211
 30   1.376307 0.000000 0.000000 0.000000 0.000000 0.097206
 31   4.172847 -0.251365 1.312745 -0.003316 -0.096007 0.099331
 32   1.215373 -0.000001 0.000000 0.000000 0.000000 0.315290
 33   1.215372 0.000000 0.000000 0.000000 0.000000 0.315290
 34   4.220534 -0.244853 0.431466 -0.000038 -0.026266 0.099213
 35   1.350416 0.000000 -0.000001 0.000000 0.000000 0.421846
 36   1.350410 0.000000 0.000001 0.000000 0.000000 0.421813
 37   2.110540 -0.000001 0.000000 0.615733 0.355672 -0.591496
 38   0.891923 2.373051 -0.014527 -3.141592 -0.000001 1.413797
 39   7.228122 5.709445 3.726568 3.295713 -1.570796 0.000000
 40   2.450426 5.076128 0.001325 3.015371 -1.570796 0.000000
 41   6.312404 -4.528058 0.001311 3.150537 -1.570796 0.000000
 42   2.233309 1.152535 -7.309138 -1.382119 -1.744963 -0.266158
 43   4.262825 -0.232720 -1.392178 0.008870 0.077987 0.150758
time 15
  0   4.528015 -1.686363 5.912238 -0.073343 1.434206 -1.363558
  1   -1.070018 2.527421 0.000000 -1.570795 -1.570451 0.000000
  2   -0.000007 0.000008 4.427393 0.156925 -2.944009 -0.046447
  3   18.465939 0.000000 0.000000 0.000000 0.000000 -0.216609
  4   14.875443 0.000000 -0.000001 0.459897 0.097231 -0.545933
  5   0.000006 -0.000004 -4.427393 0.367983 2.947941 -0.017277
  6   18.465939 0.000000 0.000000 0.000000 0.000000 -0.274285
  7   14.875442 0.000000 0.000000 0.131477 -0.174670 -0.109546
  8   2.255207 -0.007574 0.000003 -0.105663 0.185089 0.092217
  9   9.514219 -0.009357 0.000000 0.027615 0.140280 -0.016929
 10   11.751820 -0.001633 0.000000 -0.160306 -0.175659 0.474144
 11   -1.480758 0.444673 3.059898 -1.028964 -1.249095 3.628161
 12   4.640941 0.000000 -0.000001 -1.151130 0.174421 -0.580750
 13   10.828049 0.000000 0.000000 0.000000 0.000000 -1.780690
 14   9.393337 -0.000001 0.000000 -0.928190 -0.299495 -0.077622
 15   1.442245 0.107454 -1.746177 1.673168 0.509685 0.285452
 16   1.063452 0.000000 0.000001 0.000000 0.000000 0.194478
 17   1.376307 -0.000001 0.000001 0.000000 0.000000 0.194481
 18   4.172846 -0.251366 -1.312744 0.006324 0.095863 0.130747
 19   1.215374 0.000002 0.000000 0.000000 0.000000 0.525665
 20   1.215371 -0.000002 0.000001 0.000000 0.000000 0.525665
 21   4.220534 -0.244854 -0.431465 0.000865 0.026254 0.130482
 22   1.350417 0.000000 0.000001 0.000000 0.000000 0.703263
 23   1.350410 -0.000001 -0.000001 0.000000 0.000000 0.703263
 24   -2.402661 1.276743 -2.091115 0.208103 0.889161 2.881238
 25   4.640942 0.000000 0.000001 1.086855 0.205189 -0.662100
 26   10.828047 0.000000 0.000001 0.000000 0.000000 -0.617140
 27   9.393339 0.000000 0.000000 1.259678 0.394692 -0.370600
 28   1.442245 0.107455 1.746178 -1.671404 -0.538955 0.327906
 29   1.063450 -0.000001 0.000000 0.000000 0.000000 0.158320
 30   1.376307 0.000000 0.000000 0.000000 0.000000 0.158314
 31   4.172847 -0.251365 1.312745 -0.006157 -0.095875 0.128944
 32   1.215373 -0.000001 0.000000 0.000000 0.000000 0.513588
 33   1.215372 0.000000 0.000000 0.000000 0.000000 0.513588
 34   4.220534 -0.244853 0.431466 -0.000817 -0.026254 0.128680
 35   1.350416 0.000000 -0.000001 0.000000 0.000000 0.687084
 36   1.350410 0.000000 0.000001 0.000000 0.000000 0.687118
 37   2.110540 -0.000001 0.000000 0.680926 0.195727 -0.193232
 38   0.891923 2.373051 -0.014527 -3.141592 -0.000001 1.413797
 39   7.228122 5.709445 3.726568 3.279851 -1.570796 0.000000
 40   2.450426 5.076128 0.001325 3.023182 -1.570796 0.000000
 41   6.312404 -4.528058 0.001311 3.149517 -1.570796 0.000000
 42   2.233309 1.152535 -7.309138 -0.837179 -1.762933 -0.868748
 43   4.262825 -0.232720 -1.392178 0.013664 0.077292 0.212566
time 16
  0   4.528015 -1.686363 6.220841 -0.022243 1.478566 -1.349176
  1   -0.308276 2.441481 0.000000 -1.570795 -1.570451 0.000000
  2   -0.000007 0.000008 4.427393 0.165707 -2.935450 -0.078615
  3   18.465939 0.000000 0.000000 0.000000 0.000000 -0.215439
  4   14.875443 0.000000 -0.000001 0.610347 0.076053 -0.546170
  5   0.000006 -0.000004 -4.427393 0.365687 2.965092 -0.052746
  6   18.465939 0.000000 0.000000 0.000000 0.000000 -0.285181
  7   14.875442 0.000000 0.000000 0.149727 -0.132242 -0.156330
  8   2.255207 -0.007574 0.000003 -0.106609 0.180823 0.051685
  9   9.514219 -0.009357 0.000000 0.028275 0.139333 -0.100232
 10   11.751820 -0.001633 0.000000 -0.160306 -0.175659 0.474144
 11   -1.480758 0.444673 3.059898 -1.080792 -1.267209 3.685733
 12   4.640941 0.000000 -0.000001 -1.116107 0.239856 -0.559090
 13   10.828049 0.000000 0.000000 0.000000 0.000000 -1.781422
 14   9.393337 -0.000001 0.000000 -0.893424 -0.278021 -0.071810
 15   1.442245 0.107454 -1.746177 1.686435 0.539209 0.325885
 16   1.063452 0.000000 0.000001 0.000000 0.000000 0.199056
 17   1.376307 -0.000001 0.000001 0.000000 0.000000 0.199049
 18   4.172846 -0.251366 -1.312744 0.008050 0.095731 0.148659
 19   1.215374 0.000002 0.000000 0.000000 0.000000 0.645758
 20   1.215371 -0.000002 0.000001 0.000000 0.000000 0.645758
 21   4.220534 -0.244854 -0.431465 0.001333 0.026242 0.148339
 22   1.350417 0.000000 0.000001 0.000000 0.000000 0.863926
 23   1.350410 -0.000001 -0.000001 0.000000 0.000000 0.863926
 24   -2.402661 1.276743 -2.091115 0.200991 0.956674 2.880137
 25   4.640942 0.000000 0.000001 1.152353 0.047857 -0.592806
 26   10.828047 0.000000 0.000001 0.000000 0.000000 -0.666393
 27   9.393339 0.000000 0.000000 1.106496 0.390528 -0.406826
 28   1.442245 0.107455 1.746178 -1.686405 -0.539236 0.325898
 29   1.063450 -0.000001 0.000000 0.000000 0.000000 0.199056
 30   1.376307 0.000000 0.000000 0.000000 0.000000 0.199059
 31   4.172847 -0.251365 1.312745 -0.008050 -0.095731 0.148659
 32   1.215373 -0.000001 0.000000 0.000000 0.000000 0.645746
 33   1.215372 0.000000 0.000000 0.000000 0.000000 0.645746
 34   4.220534 -0.244853 0.431466 -0.001333 -0.026242 0.148339
 35   1.350416 0.000000 -0.000001 0.000000 0.000000 0.863937
 36   1.350410 0.000000 0.000001 0.000000 0.000000 0.863925
 37   2.110540 -0.000001 0.000000 0.728569 0.065280 0.069568
 38   0.891923 2.373051 -0.014527 -3.141592 -0.000001 1.413797
 39   7.228122 5.709445 3.726568 3.244042 -1.570796 0.000000
 40   2.450426 5.076128 0.001325 3.031696 -1.570796 0.000000
 41   6.312404 -4.528058 0.001311 3.148803 -1.570796 0.000000
 42   2.233309 1.152535 -7.309138 -0.854053 -1.730109 -0.861089
 43   4.262825 -0.232720 -1.392178 0.016840 0.076668 0.253759
time 17
  0   4.528015 -1.686363 6.271624 0.021380 1.494418 -1.329426
  1   -0.069987 2.390698 0.000000 -1.570795 -1.570451 0.000000
  2   -0.000007 0.000008 4.427393 0.169144 -2.933496 -0.091781
  3   18.465939 0.000000 0.000000 0.000000 0.000000 -0.216535
  4   14.875443 0.000000 -0.000001 0.646978 0.060857 -0.538428
  5   0.000006 -0.000004 -4.427393 0.365782 2.971150 -0.059671
  6   18.465939 0.000000 0.000000 0.000000 0.000000 -0.279405
  7   14.875442 0.000000 0.000000 0.157413 -0.119576 -0.198163
  8   2.255207 -0.007574 0.000003 -0.107008 0.179133 0.035770
  9   9.514219 -0.009357 0.000000 0.029990 0.134036 -0.120235
 10   11.751820 -0.001633 0.000000 -0.160306 -0.175659 0.474144
 11   -1.480758 0.444673 3.059898 -1.076998 -1.268608 3.682435
 12   4.640941 0.000000 -0.000001 -1.108248 0.236756 -0.556047
 13   10.828049 0.000000 0.000000 0.000000 0.000000 -1.774162
 14   9.393337 -0.000001 0.000000 -0.877786 -0.270872 -0.071272
 15   1.442245 0.107454 -1.746177 1.691876 0.550240 0.341504
 16   1.063452 0.000000 0.000001 0.000000 0.000000 0.200781
 17   1.376307 -0.000001 0.000001 0.000000 0.000000 0.200787
 18   4.172846 -0.251366 -1.312744 0.008697 0.095671 0.155431
 19   1.215374 0.000002 0.000000 0.000000 0.000000 0.691165
 20   1.215371 -0.000002 0.000001 0.000000 0.000000 0.691165
 21   4.220534 -0.244854 -0.431465 0.001513 0.026230 0.155105
 22   1.350417 0.000000 0.000001 0.000000 0.000000 0.924655
 23   1.350410 -0.000001 -0.000001 0.000000 0.000000 0.924655
 24   -2.402661 1.276743 -2.091115 0.216225 0.981387 2.896717
 25   4.640942 0.000000 0.000001 1.195058 -0.045035 -0.578947
 26   10.828047 0.000000 0.000001 0.000000 0.000000 -0.755955
 27   9.393339 0.000000 0.000000 1.060913 0.386364 -0.416137
 28   1.442245 0.107455 1.746178 -1.691132 -0.539349 0.325229
 29   1.063450 -0.000001 0.000000 0.000000 0.000000 0.211951
 30   1.376307 0.000000 0.000000 0.000000 0.000000 0.211951
 31   4.172847 -0.251365 1.312745 -0.008637 -0.095683 0.154910
 32   1.215373 -0.000001 0.000000 0.000000 0.000000 0.687588
 33   1.215372 0.000000 0.000000 0.000000 0.000000 0.687588
 34   4.220534 -0.244853 0.431466 -0.001489 -0.026230 0.154544
 35   1.350416 0.000000 -0.000001 0.000000 0.000000 0.919881
 36   1.350410 0.000000 0.000001 0.000000 0.000000 0.919887
 37   2.110540 -0.000001 0.000000 0.796767 0.010894 0.127968
 38   0.891923 2.373051 -0.014527 -3.141592 -0.000001 1.413797
 39   7.228122 5.709445 3.726568 3.200160 -1.570796 0.000000
 40   2.450426 5.076128 0.001325 3.040385 -1.570796 0.000000
 41   6.312404 -4.528058 0.001311 3.147935 -1.570796 0.000000
 42   2.233309 1.152535 -7.309138 -1.041676 -1.707537 -0.671044
 43   4.262825 -0.232720 -1.392178 0.017835 0.076441 0.266773
time 18
  0   4.528015 -1.686363 6.142714 0.031734 1.492628 -1.330864
  1   -0.132489 2.375072 0.000000 -1.570795 -1.570451 0.000000
  2   -0.000007 0.000008 4.427393 0.170576 -2.934240 -0.098963
  3   18.465939 0.000000 0.000000 0.000000 0.000000 -0.229695
  4   14.875443 0.000000 -0.000001 0.644502 0.049044 -0.516661
  5   0.000006 -0.000004 -4.427393 0.365687 2.971150 -0.059765
  6   18.465939 0.000000 0.000000 0.000000 0.000000 -0.279930
  7   14.875442 0.000000 0.000000 0.161449 -0.116115 -0.230428
  8   2.255207 -0.007574 0.000003 -0.107134 0.179312 0.037523
  9   9.514219 -0.009357 0.000000 0.032391 0.127816 -0.109086
 10   11.751820 -0.001633 0.000000 -0.160306 -0.175659 0.474144
 11   -1.480758 0.444673 3.059898 -1.037387 -1.261293 3.640802
 12   4.640941 0.000000 -0.000001 -1.114683 0.187370 -0.559032
 13   10.828049 0.000000 0.000000 0.000000 0.000000 -1.753845
 14   9.393337 -0.000001 0.000000 -0.879530 -0.271657 -0.071370
 15   1.442245 0.107454 -1.746177 1.691253 0.549034 0.339759
 16   1.063452 0.000000 0.000001 0.000000 0.000000 0.200590
 17   1.376307 -0.000001 0.000001 0.000000 0.000000 0.200594
 18   4.172846 -0.251366 -1.312744 0.008625 0.095683 0.154670
 19   1.215374 0.000002 0.000000 0.000000 0.000000 0.686101
 20   1.215371 -0.000002 0.000001 0.000000 0.000000 0.686101
 21   4.220534 -0.244854 -0.431465 0.001489 0.026230 0.154344
 22   1.350417 0.000000 0.000001 0.000000 0.000000 0.917916
 23   1.350410 -0.000001 -0.000001 0.000000 0.000000 0.917916
 24   -2.402661 1.276743 -2.091115 0.242696 0.984980 2.922791
 25   4.640942 0.000000 0.000001 1.229119 -0.102500 -0.597916
 26   10.828047 0.000000 0.000001 0.000000 0.000000 -0.860328
 27   9.393339 0.000000 0.000000 1.065939 0.386852 -0.415118
 28   1.442245 0.107455 1.746178 -1.690587 -0.539292 0.325280
 29   1.063450 -0.000001 0.000000 0.000000 0.000000 0.210513
 30   1.376307 0.000000 0.000000 0.000000 0.000000 0.210518
 31   4.172847 -0.251365 1.312745 -0.008577 -0.095683 0.154229
 32   1.215373 -0.000001 0.000000 0.000000 0.000000 0.682929
 33   1.215372 0.000000 0.000000 0.000000 0.000000 0.682929
 34   4.220534 -0.244853 0.431466 -0.001477 -0.026230 0.153864
 35   1.350416 0.000000 -0.000001 0.000000 0.000000 0.913670
 36   1.350410 0.000000 0.000001 0.000000 0.000000 0.913685
 37   2.110540 -0.000001 0.000000 0.876267 -0.015922 0.098940
 38   0.891923 2.373051 -0.014527 -3.141592 -0.000001 1.413797
 39   7.228122 5.709445 3.726568 3.160362 -1.570796 0.000000
 40   2.450426 5.076128 0.001325 3.048723 -1.570796 0.000000
 41   6.312404 -4.528058 0.001311 3.146557 -1.570796 0.000000
 42   2.233309 1.152535 -7.309138 -1.281549 -1.691722 -0.407280
 43   4.262825 -0.232720 -1.392178 0.017727 0.076465 0.265340
time 19
  0   4.528015 -1.658835 5.939583 0.026941 1.483807 -1.342752
  1   -0.319995 2.371166 0.000000 -1.570795 -1.570451 0.000000
  2   -0.000007 0.000008 4.427393 0.171244 -2.936101 -0.103701
  3   18.465939 0.000000 0.000000 0.000000 0.000000 -0.247679
  4   14.875443 0.000000 -0.000001 0.626314 0.039040 -0.488969
  5   0.000006 -0.000004 -4.427393 0.365591 2.968727 -0.057145
  6   18.465939 0.000000 0.000000 0.000000 0.000000 -0.282949
  7   14.875442 0.000000 0.000000 0.163976 -0.116400 -0.258904
  8   2.255207 -0.007574 0.000003 -0.107155 0.180235 0.046325
  9   9.514219 -0.009357 0.000000 0.034885 0.121188 -0.085511
 10   11.751820 -0.001633 0.000000 -0.160306 -0.175659 0.474144
 11   -1.480758 0.444673 3.059898 -0.986698 -1.249731 3.587078
 12   4.640941 0.000000 -0.000001 -1.126865 0.119732 -0.563715
 13   10.828049 0.000000 0.000000 0.000000 0.000000 -1.728281
 14   9.393337 -0.000001 0.000000 -0.888253 -0.275638 -0.071663
 15   1.442245 0.107454 -1.746177 1.688221 0.542902 0.331078
 16   1.063452 0.000000 0.000001 0.000000 0.000000 0.199631
 17   1.376307 -0.000001 0.000001 0.000000 0.000000 0.199628
 18   4.172846 -0.251366 -1.312744 0.008266 0.095707 0.150903
 19   1.215374 0.000002 0.000000 0.000000 0.000000 0.660907
 20   1.215371 -0.000002 0.000001 0.000000 0.000000 0.660907
 21   4.220534 -0.244854 -0.431465 0.001393 0.026242 0.150581
 22   1.350417 0.000000 0.000001 0.000000 0.000000 0.884183
 23   1.350410 -0.000001 -0.000001 0.000000 0.000000 0.884183
 24   -2.402661 1.276743 -2.091115 0.272943 0.979767 2.951893
 25   4.640942 0.000000 0.000001 1.260195 -0.145669 -0.631513
 26   10.828047 0.000000 0.000001 0.000000 0.000000 -0.970683
 27   9.393339 0.000000 0.000000 1.091268 0.389194 -0.409929
 28   1.442245 0.107455 1.746178 -1.687950 -0.539236 0.325641
 29   1.063450 -0.000001 0.000000 0.000000 0.000000 0.203358
 30   1.376307 0.000000 0.000000 0.000000 0.000000 0.203356
 31   4.172847 -0.251365 1.312745 -0.008242 -0.095719 0.150743
 32   1.215373 -0.000001 0.000000 0.000000 0.000000 0.659679
 33   1.215372 0.000000 0.000000 0.000000 0.000000 0.659679
 34   4.220534 -0.244853 0.431466 -0.001381 -0.026242 0.150420
 35   1.350416 0.000000 -0.000001 0.000000 0.000000 0.882571
 36   1.350410 0.000000 0.000001 0.000000 0.000000 0.882579
 37   2.110540 -0.000001 0.000000 0.960393 -0.028939 0.034304
 38   0.891923 2.373051 -0.014527 -3.141592 -0.000001 1.413797
 39   7.228122 5.709445 3.726568 3.136617 -1.570796 0.000000
 40   2.450426 5.076128 0.001325 3.056183 -1.570796 0.000000
 41   6.312404 -4.528058 0.001311 3.144261 -1.570796 0.000000
 42   2.233309 1.152535 -7.309138 1.552060 -1.467345 3.045789
 43   4.262825 -0.232720 -1.392178 0.017163 0.076596 0.258097
time 20
  0   4.528015 -1.658835 5.771609 0.030008 1.478566 -1.349176
  1   -0.448905 2.359447 0.000000 -1.570795 -1.570451 0.000000
  2   -0.000007 0.000008 4.427393 0.172199 -2.937403 -0.109686
  3   18.465939 0.000000 0.000000 0.000000 0.000000 -0.263251
  4   14.875443 0.000000 -0.000001 0.615755 0.028377 -0.464122
  5   0.000006 -0.000004 -4.427393 0.365495 2.967515 -0.055928
  6   18.465939 0.000000 0.000000 0.000000 0.000000 -0.284721
  7   14.875442 0.000000 0.000000 0.167099 -0.114669 -0.289255
  8   2.255207 -0.007574 0.000003 -0.107239 0.180787 0.051585
  9   9.514219 -0.009357 0.000000 0.037168 0.114705 -0.068192
 10   11.751820 -0.001633 0.000000 -0.160306 -0.175659 0.474144
 11   -1.480758 0.444673 3.059898 -0.945646 -1.239362 3.543453
 12   4.640941 0.000000 -0.000001 -1.136247 0.061529 -0.566993
 13   10.828049 0.000000 0.000000 0.000000 0.000000 -1.705279
 14   9.393337 -0.000001 0.000000 -0.893424 -0.278021 -0.071810
 15   1.442245 0.107454 -1.746177 1.686435 0.539209 0.325885
 16   1.063452 0.000000 0.000001 0.000000 0.000000 0.199056
 17   1.376307 -0.000001 0.000001 0.000000 0.000000 0.199049
 18   4.172846 -0.251366 -1.312744 0.008050 0.095731 0.148659
 19   1.215374 0.000002 0.000000 0.000000 0.000000 0.645758
 20   1.215371 -0.000002 0.000001 0.000000 0.000000 0.645758
 21   4.220534 -0.244854 -0.431465 0.001333 0.026242 0.148339
 22   1.350417 0.000000 0.000001 0.000000 0.000000 0.863926
 23   1.350410 -0.000001 -0.000001 0.000000 0.000000 0.863926
 24   -2.402661 1.276743 -2.091115 0.301083 0.978293 2.979343
 25   4.640942 0.000000 0.000001 1.293742 -0.195462 -0.661540
 26   10.828047 0.000000 0.000001 0.000000 0.000000 -1.078076
 27   9.393339 0.000000 0.000000 1.106496 0.390528 -0.406826
 28   1.442245 0.107455 1.746178 -1.686405 -0.539236 0.325898
 29   1.063450 -0.000001 0.000000 0.000000 0.000000 0.199056
 30   1.376307 0.000000 0.000000 0.000000 0.000000 0.199059
 31   4.172847 -0.251365 1.312745 -0.008050 -0.095731 0.148659
 32   1.215373 -0.000001 0.000000 0.000000 0.000000 0.645746
 33   1.215372 0.000000 0.000000 0.000000 0.000000 0.645746
 34   4.220534 -0.244853 0.431466 -0.001333 -0.026242 0.148339
 35   1.350416 0.000000 -0.000001 0.000000 0.000000 0.863937
 36   1.350410 0.000000 0.000001 0.000000 0.000000 0.863925
 37   2.110540 -0.000001 0.000000 1.042278 -0.045587 -0.015796
 38   0.891923 2.373051 -0.014527 -3.141592 -0.000001 1.413797
 39   7.228122 5.709445 3.726568 3.140796 -1.570796 0.000000
 40   2.450426 5.076128 0.001325 3.062327 -1.570796 0.000000
 41   6.312404 -4.528058 0.001311 3.140791 -1.570796 0.000000
 42   2.233309 1.152535 -7.309138 1.269715 -1.458345 -2.951485
 43   4.262825 -0.232720 -1.392178 0.016840 0.076668 0.253759
end
