version 1
nodes
  0 "Bip01" -1
  1 "Bip01 Pelvis" 0
  2 "Bip01 L Thigh" 1
  3 "Bip01 L Calf" 2
  4 "Bip01 L Foot" 3
  5 "Bip01 R Thigh" 1
  6 "Bip01 R Calf" 5
  7 "Bip01 R Foot" 6
  8 "Bip01 Spine" 1
  9 "Bip01 Spine1" 8
 10 "Bip01 Neck" 9
 11 "Bip01 L Clavicle" 10
 12 "Bip01 L UpperArm" 11
 13 "Bip01 L Forearm" 12
 14 "Bip01 L Hand" 13
 15 "Bip01 L Finger0" 14
 16 "Bip01 L Finger01" 15
 17 "Bip01 L Finger02" 16
 18 "Bip01 L Finger1" 14
 19 "Bip01 L Finger11" 18
 20 "Bip01 L Finger12" 19
 21 "Bip01 L Finger2" 14
 22 "Bip01 L Finger21" 21
 23 "Bip01 L Finger22" 22
 24 "Bip01 R Clavicle" 10
 25 "Bip01 R UpperArm" 24
 26 "Bip01 R Forearm" 25
 27 "Bip01 R Hand" 26
 28 "Bip01 R Finger0" 27
 29 "Bip01 R Finger01" 28
 30 "Bip01 R Finger02" 29
 31 "Bip01 R Finger1" 27
 32 "Bip01 R Finger11" 31
 33 "Bip01 R Finger12" 32
 34 "Bip01 R Finger2" 27
 35 "Bip01 R Finger21" 34
 36 "Bip01 R Finger22" 35
 37 "Bip01 Head" 10
 38 "Bone05" 37
 39 "Bone08" 9
 40 "Bone16" 8
 41 "Bone01" 8
 42 "Bone03" 1
 43 "Bip01 R Finger4" 27
end
skeleton
time 0
  0   1.262422 2.635478 38.413231 -0.032789 0.051710 -1.633642
  1   -1.105175 0.261727 0.000000 -0.000030 -1.518469 -1.570772
  2   -0.000007 0.000008 4.427393 -0.158768 -3.176311 0.060131
  3   18.465939 0.000000 0.000000 0.000000 0.000000 -0.249361
  4   14.875443 0.000000 -0.000001 0.046828 0.003730 0.344277
  5   0.000006 -0.000004 -4.427393 0.090429 3.059698 -0.388067
  6   18.465939 0.000000 0.000000 0.000000 0.000000 -0.464631
  7   14.875442 0.000000 0.000000 0.038121 0.027184 0.123363
  8   2.255207 -0.007574 0.117194 -0.065613 0.009934 0.038847
  9   9.514219 -0.009357 0.000000 0.009117 -0.105404 0.104605
 10   11.751820 -0.001633 0.000000 -0.025347 0.102407 0.222100
 11   -2.398755 0.347014 2.427066 -0.087951 -1.222806 3.000712
 12   4.640941 0.000000 -0.000001 -0.792062 0.274226 -1.729730
 13   10.828049 0.000000 0.000000 0.000000 0.000000 -0.616638
 14   9.393337 -0.000001 0.000000 -2.045739 -0.447161 0.433411
 15   1.442245 0.107454 -1.746177 1.545041 0.350655 0.094987
 16   1.063452 0.000000 0.000001 0.000000 0.000000 0.199056
 17   1.376307 -0.000001 0.000001 0.000000 0.000000 0.199049
 18   4.172846 -0.251366 -1.312744 0.008014 -0.043889 0.147537
 19   1.215374 0.000002 0.000000 0.000000 0.000000 0.645758
 20   1.215371 -0.000002 0.000001 0.000000 0.000000 0.881369
 21   4.220534 -0.244854 -0.431465 0.001333 0.026242 0.148339
 22   1.350417 0.000000 0.000001 0.000000 0.000000 0.733035
 23   1.350410 -0.000001 -0.000001 0.000000 0.000000 1.256600
 24   -1.859676 0.479843 -2.841138 0.655180 1.362210 3.547813
 25   4.640942 0.000000 0.000001 0.723248 -0.212130 -1.799777
 26   10.828047 0.000000 0.000001 0.000000 0.000000 -0.570965
 27   9.393339 0.000000 0.000000 2.186863 0.121479 0.376033
 28   1.442245 0.107455 1.746178 -1.937605 -0.475472 0.678379
 29   1.063450 -0.000001 0.000000 0.000000 0.000000 0.366516
 30   1.376307 0.000000 0.000000 0.000000 0.000000 0.811565
 31   4.172847 -0.251365 1.312745 0.001190 -0.096055 0.052246
 32   1.215373 -0.000001 0.000000 0.000000 0.000000 0.130882
 33   1.215372 0.000000 0.000000 0.000000 0.000000 1.151880
 34   4.220534 -0.244853 0.431466 0.001184 -0.026242 0.052329
 35   1.350416 0.000000 -0.000001 0.000000 0.000000 0.977377
 36   1.350410 0.000000 0.000001 0.000000 0.000000 1.518434
 37   2.110540 -0.000001 0.000000 0.155328 0.123827 -0.054457
 38   0.891923 2.373051 -0.014527 -3.141592 -0.000001 1.413797
 39   7.228122 5.709445 3.726568 3.140796 -1.570796 0.000000
 40   2.450426 5.076128 0.001325 3.140791 -1.570796 0.000000
 41   6.312404 -4.528058 0.001311 3.140791 -1.570796 0.000000
 42   2.233309 1.152535 -7.309138 -1.134959 -1.596979 -0.916906
 43   4.262825 -0.232720 -1.392178 0.001188 0.078478 0.052453
time 1
  0   1.262422 3.433779 38.417137 -0.032789 0.040844 -1.630862
  1   -0.921576 0.343760 0.000000 -0.000030 -1.518038 -1.570772
  2   -0.000007 0.000008 4.427393 -0.167932 -3.171752 0.024971
  3   18.465939 0.000000 0.000000 0.000000 0.000000 -0.312598
  4   14.875443 0.000000 -0.000001 0.057615 0.005710 0.361343
  5   0.000006 -0.000004 -4.427393 0.099518 3.056995 -0.387693
  6   18.465939 0.000000 0.000000 0.000000 0.000000 -0.446975
  7   14.875442 0.000000 0.000000 0.031172 0.024940 0.095000
  8   2.255207 -0.007574 0.117194 -0.043204 0.010306 0.035240
  9   9.514219 -0.009357 0.000000 0.010608 -0.083856 0.071981
 10   11.751820 -0.001633 0.000000 -0.010019 0.061887 0.264456
 11   -2.277658 0.472018 2.520819 0.061233 -1.295517 2.815425
 12   4.640941 0.000000 -0.000001 -0.851988 0.490435 -1.503364
 13   10.828049 0.000000 0.000000 0.000000 0.000000 -0.614014
 14   9.393337 -0.000001 0.000000 -1.915773 -0.359635 0.311599
 15   1.442245 0.107454 -1.746177 1.571203 0.394792 0.141905
 16   1.063452 0.000000 0.000001 0.000000 0.000000 0.199056
 17   1.376307 -0.000001 0.000001 0.000000 0.000000 0.199049
 18   4.172846 -0.251366 -1.312744 0.008014 -0.012993 0.147777
 19   1.215374 0.000002 0.000000 0.000000 0.000000 0.645758
 20   1.215371 -0.000002 0.000001 0.000000 0.000000 0.829224
 21   4.220534 -0.244854 -0.431465 0.001333 0.026242 0.148339
 22   1.350417 0.000000 0.000001 0.000000 0.000000 0.761990
 23   1.350410 -0.000001 -0.000001 0.000000 0.000000 1.169693
 24   -1.953429 0.522813 -2.766917 0.521681 1.369582 3.382494
 25   4.640942 0.000000 0.000001 0.714141 -0.437736 -1.558509
 26   10.828047 0.000000 0.000001 0.000000 0.000000 -0.576192
 27   9.393339 0.000000 0.000000 2.195306 0.124537 0.376906
 28   1.442245 0.107455 1.746178 -1.937332 -0.475584 0.678019
 29   1.063450 -0.000001 0.000000 0.000000 0.000000 0.366097
 30   1.376307 0.000000 0.000000 0.000000 0.000000 0.810640
 31   4.172847 -0.251365 1.312745 0.001190 -0.096055 0.052246
 32   1.215373 -0.000001 0.000000 0.000000 0.000000 0.130714
 33   1.215372 0.000000 0.000000 0.000000 0.000000 1.150579
 34   4.220534 -0.244853 0.431466 0.001184 -0.026242 0.052329
 35   1.350416 0.000000 -0.000001 0.000000 0.000000 0.976244
 36   1.350410 0.000000 0.000001 0.000000 0.000000 1.516669
 37   2.110540 -0.000001 0.000000 0.108448 0.106872 -0.090710
 38   0.891923 2.373051 -0.014527 -3.141592 -0.000001 1.413797
 39   7.228122 5.709445 3.726568 3.140796 -1.570796 0.000000
 40   2.450426 5.076128 0.001325 3.140791 -1.570796 0.000000
 41   6.312404 -4.528058 0.001311 3.140791 -1.570796 0.000000
 42   2.233309 1.152535 -7.309138 -1.134192 -1.598581 -0.910970
 43   4.262825 -0.232720 -1.392178 0.001188 0.078478 0.052453
time 2
  0   1.262422 4.259609 38.417137 -0.032693 0.029594 -1.625685
  1   -0.737977 0.429701 0.000000 -0.000030 -1.517046 -1.570772
  2   -0.000007 0.000008 4.427393 -0.184065 -3.166822 -0.005402
  3   18.465939 0.000000 0.000000 0.000000 0.000000 -0.363408
  4   14.875443 0.000000 -0.000001 0.078022 0.006774 0.370271
  5   0.000006 -0.000004 -4.427393 0.117696 3.051775 -0.385353
  6   18.465939 0.000000 0.000000 0.000000 0.000000 -0.425511
  7   14.875442 0.000000 0.000000 0.017168 0.021231 0.063710
  8   2.255207 -0.007574 0.121100 -0.018338 0.009802 0.031567
  9   9.514219 -0.009357 0.000000 0.011729 -0.061673 0.038231
 10   11.751820 -0.001633 0.000000 0.004015 0.019342 0.307967
 11   -2.144841 0.597021 2.606759 0.331600 -1.360388 2.506750
 12   4.640941 0.000000 -0.000001 -0.842803 0.745148 -1.240471
 13   10.828049 0.000000 0.000000 0.000000 0.000000 -0.609987
 14   9.393337 -0.000001 0.000000 -1.791289 -0.248825 0.196723
 15   1.442245 0.107454 -1.746177 1.603058 0.441774 0.195864
 16   1.063452 0.000000 0.000001 0.000000 0.000000 0.199056
 17   1.376307 -0.000001 0.000001 0.000000 0.000000 0.199049
 18   4.172846 -0.251366 -1.312744 0.008014 0.020900 0.148058
 19   1.215374 0.000002 0.000000 0.000000 0.000000 0.645758
 20   1.215371 -0.000002 0.000001 0.000000 0.000000 0.772057
 21   4.220534 -0.244854 -0.431465 0.001333 0.026242 0.148339
 22   1.350417 0.000000 0.000001 0.000000 0.000000 0.793764
 23   1.350410 -0.000001 -0.000001 0.000000 0.000000 1.074414
 24   -2.047182 0.577503 -2.688790 0.399200 1.376373 3.223779
 25   4.640942 0.000000 0.000001 0.665313 -0.661808 -1.291693
 26   10.828047 0.000000 0.000001 0.000000 0.000000 -0.561440
 27   9.393339 0.000000 0.000000 2.212192 0.130653 0.378749
 28   1.442245 0.107455 1.746178 -1.936605 -0.475865 0.677298
 29   1.063450 -0.000001 0.000000 0.000000 0.000000 0.365258
 30   1.376307 0.000000 0.000000 0.000000 0.000000 0.808789
 31   4.172847 -0.251365 1.312745 0.001190 -0.096055 0.052246
 32   1.215373 -0.000001 0.000000 0.000000 0.000000 0.130421
 33   1.215372 0.000000 0.000000 0.000000 0.000000 1.147977
 34   4.220534 -0.244853 0.431466 0.001184 -0.026242 0.052329
 35   1.350416 0.000000 -0.000001 0.000000 0.000000 0.974020
 36   1.350410 0.000000 0.000001 0.000000 0.000000 1.513234
 37   2.110540 -0.000001 0.000000 0.057610 0.088213 -0.125328
 38   0.891923 2.373051 -0.014527 -3.141592 -0.000001 1.413797
 39   7.228122 5.709445 3.726568 3.140796 -1.570796 0.000000
 40   2.450426 5.076128 0.001325 3.140791 -1.570796 0.000000
 41   6.312404 -4.528058 0.001311 3.140791 -1.570796 0.000000
 42   2.233309 1.152535 -7.309138 -1.133330 -1.600445 -0.905034
 43   4.262825 -0.232720 -1.392178 0.001188 0.078478 0.052453
time 3
  0   1.262422 5.085438 38.413231 -0.032693 0.018536 -1.621754
  1   -0.558284 0.527360 0.000000 -0.000030 -1.515911 -1.570772
  2   -0.000007 0.000008 4.427393 -0.200007 -3.163007 -0.030737
  3   18.465939 0.000000 0.000000 0.000000 0.000000 -0.403252
  4   14.875443 0.000000 -0.000001 0.097234 0.009094 0.373628
  5   0.000006 -0.000004 -4.427393 0.136257 3.046742 -0.381235
  6   18.465939 0.000000 0.000000 0.000000 0.000000 -0.399716
  7   14.875442 0.000000 0.000000 0.001936 0.017105 0.030282
  8   2.255207 -0.007574 0.121100 0.005288 0.009443 0.027961
  9   9.514219 -0.009357 0.000000 0.011941 -0.039777 0.005152
 10   11.751820 -0.001633 0.000000 0.015892 -0.022448 0.350001
 11   -2.012024 0.718119 2.680980 0.755477 -1.396632 2.044390
 12   4.640941 0.000000 -0.000001 -0.707133 0.987738 -0.904991
 13   10.828049 0.000000 0.000000 0.000000 0.000000 -0.606632
 14   9.393337 -0.000001 0.000000 -1.687490 -0.131681 0.102995
 15   1.442245 0.107454 -1.746177 1.636855 0.485111 0.250191
 16   1.063452 0.000000 0.000001 0.000000 0.000000 0.199056
 17   1.376307 -0.000001 0.000001 0.000000 0.000000 0.199049
 18   4.172846 -0.251366 -1.312744 0.008014 0.053282 0.148338
 19   1.215374 0.000002 0.000000 0.000000 0.000000 0.645758
 20   1.215371 -0.000002 0.000001 0.000000 0.000000 0.717380
 21   4.220534 -0.244854 -0.431465 0.001333 0.026242 0.148339
 22   1.350417 0.000000 0.000001 0.000000 0.000000 0.824108
 23   1.350410 -0.000001 -0.000001 0.000000 0.000000 0.983301
 24   -2.133122 0.632192 -2.614569 0.273251 1.380111 3.059767
 25   4.640942 0.000000 0.000001 0.525108 -0.873536 -0.957543
 26   10.828047 0.000000 0.000001 0.000000 0.000000 -0.556677
 27   9.393339 0.000000 0.000000 2.224857 0.135208 0.380203
 28   1.442245 0.107455 1.746178 -1.936059 -0.476033 0.676731
 29   1.063450 -0.000001 0.000000 0.000000 0.000000 0.364635
 30   1.376307 0.000000 0.000000 0.000000 0.000000 0.807422
 31   4.172847 -0.251365 1.312745 0.001190 -0.096055 0.052246
 32   1.215373 -0.000001 0.000000 0.000000 0.000000 0.130211
 33   1.215372 0.000000 0.000000 0.000000 0.000000 1.146004
 34   4.220534 -0.244853 0.431466 0.001184 -0.026242 0.052329
 35   1.350416 0.000000 -0.000001 0.000000 0.000000 0.972341
 36   1.350410 0.000000 0.000001 0.000000 0.000000 1.510658
 37   2.110540 -0.000001 0.000000 0.009681 0.067458 -0.155173
 38   0.891923 2.373051 -0.014527 -3.141592 -0.000001 1.413797
 39   7.228122 5.709445 3.726568 3.140796 -1.570796 0.000000
 40   2.450426 5.076128 0.001325 3.140791 -1.570796 0.000000
 41   6.312404 -4.528058 0.001311 3.140791 -1.570796 0.000000
 42   2.233309 1.152535 -7.309138 -1.132083 -1.602309 -0.899481
 43   4.262825 -0.232720 -1.392178 0.001188 0.078478 0.052453
time 4
  0   1.262422 5.828684 38.405418 -0.032693 0.008246 -1.622617
  1   -0.394216 0.632832 0.000000 -0.000030 -1.515049 -1.570772
  2   -0.000007 0.000008 4.427393 -0.214899 -3.160682 -0.050437
  3   18.465939 0.000000 0.000000 0.000000 0.000000 -0.433299
  4   14.875443 0.000000 -0.000001 0.110725 0.012861 0.373826
  5   0.000006 -0.000004 -4.427393 0.154244 3.043200 -0.375246
  6   18.465939 0.000000 0.000000 0.000000 0.000000 -0.370180
  7   14.875442 0.000000 0.000000 -0.016770 0.012274 -0.004084
  8   2.255207 -0.007574 0.125007 0.023917 0.010150 0.024586
  9   9.514219 -0.009357 0.000000 0.010832 -0.019091 -0.025502
 10   11.751820 -0.001633 0.000000 0.025204 -0.060751 0.388116
 11   -1.883114 0.823591 2.747388 1.191419 -1.393912 1.572550
 12   4.640941 0.000000 -0.000001 -0.388785 1.155181 -0.446288
 13   10.828049 0.000000 0.000000 0.000000 0.000000 -0.605960
 14   9.393337 -0.000001 0.000000 -1.611978 -0.029769 0.036473
 15   1.442245 0.107454 -1.746177 1.667008 0.519190 0.296699
 16   1.063452 0.000000 0.000001 0.000000 0.000000 0.199056
 17   1.376307 -0.000001 0.000001 0.000000 0.000000 0.199049
 18   4.172846 -0.251366 -1.312744 0.008038 0.079720 0.148539
 19   1.215374 0.000002 0.000000 0.000000 0.000000 0.645758
 20   1.215371 -0.000002 0.000001 0.000000 0.000000 0.672790
 21   4.220534 -0.244854 -0.431465 0.001333 0.026242 0.148339
 22   1.350417 0.000000 0.000001 0.000000 0.000000 0.848897
 23   1.350410 -0.000001 -0.000001 0.000000 0.000000 0.908932
 24   -2.199530 0.690787 -2.540348 0.134790 1.376581 2.884265
 25   4.640942 0.000000 0.000001 0.201736 -1.032263 -0.469477
 26   10.828047 0.000000 0.000001 0.000000 0.000000 -0.591758
 27   9.393339 0.000000 0.000000 2.220635 0.133711 0.379719
 28   1.442245 0.107455 1.746178 -1.936241 -0.475977 0.676937
 29   1.063450 -0.000001 0.000000 0.000000 0.000000 0.364851
 30   1.376307 0.000000 0.000000 0.000000 0.000000 0.807863
 31   4.172847 -0.251365 1.312745 0.001190 -0.096055 0.052246
 32   1.215373 -0.000001 0.000000 0.000000 0.000000 0.130295
 33   1.215372 0.000000 0.000000 0.000000 0.000000 1.146634
 34   4.220534 -0.244853 0.431466 0.001184 -0.026242 0.052329
 35   1.350416 0.000000 -0.000001 0.000000 0.000000 0.972928
 36   1.350410 0.000000 0.000001 0.000000 0.000000 1.511517
 37   2.110540 -0.000001 0.000000 -0.028614 0.045000 -0.178525
 38   0.891923 2.373051 -0.014527 -3.141592 -0.000001 1.413797
 39   7.228122 5.709445 3.726568 3.140796 -1.570796 0.000000
 40   2.450426 5.076128 0.001325 3.140791 -1.570796 0.000000
 41   6.312404 -4.528058 0.001311 3.140791 -1.570796 0.000000
 42   2.233309 1.152535 -7.309138 -1.130549 -1.603882 -0.894311
 43   4.262825 -0.232720 -1.392178 0.001188 0.078478 0.052453
time 5
  0   1.262422 6.461820 38.393700 -0.032789 -0.000575 -1.631917
  1   -0.253587 0.742210 0.000000 -0.000030 -1.514905 -1.570772
  2   -0.000007 0.000008 4.427393 -0.228073 -3.160030 -0.063753
  3   18.465939 0.000000 0.000000 0.000000 0.000000 -0.454500
  4   14.875443 0.000000 -0.000001 0.114112 0.017714 0.373352
  5   0.000006 -0.000004 -4.427393 0.170796 3.042734 -0.367946
  6   18.465939 0.000000 0.000000 0.000000 0.000000 -0.338543
  7   14.875442 0.000000 0.000000 -0.041513 0.006207 -0.037550
  8   2.255207 -0.007574 0.125007 0.033830 0.012870 0.021509
  9   9.514219 -0.009357 0.000000 0.008088 -0.000575 -0.051999
 10   11.751820 -0.001633 0.000000 0.031879 -0.092786 0.419817
 11   -1.765923 0.909531 2.794265 1.459738 -1.371949 1.273974
 12   4.640941 0.000000 -0.000001 -0.017780 1.219307 0.003517
 13   10.828049 0.000000 0.000000 0.000000 0.000000 -0.610048
 14   9.393337 -0.000001 0.000000 -1.569611 0.034172 0.000037
 15   1.442245 0.107454 -1.746177 1.686435 0.539209 0.325885
 16   1.063452 0.000000 0.000001 0.000000 0.000000 0.199056
 17   1.376307 -0.000001 0.000001 0.000000 0.000000 0.199049
 18   4.172846 -0.251366 -1.312744 0.008050 0.095731 0.148659
 19   1.215374 0.000002 0.000000 0.000000 0.000000 0.645758
 20   1.215371 -0.000002 0.000001 0.000000 0.000000 0.645758
 21   4.220534 -0.244854 -0.431465 0.001333 0.026242 0.148339
 22   1.350417 0.000000 0.000001 0.000000 0.000000 0.863926
 23   1.350410 -0.000001 -0.000001 0.000000 0.000000 0.863926
 24   -2.254220 0.741570 -2.477846 -0.013065 1.360258 2.704154
 25   4.640942 0.000000 0.000001 -0.312830 -1.053603 0.179714
 26   10.828047 0.000000 0.000001 0.000000 0.000000 -0.696538
 27   9.393339 0.000000 0.000000 2.186863 0.121479 0.376033
 28   1.442245 0.107455 1.746178 -1.937605 -0.475472 0.678379
 29   1.063450 -0.000001 0.000000 0.000000 0.000000 0.366516
 30   1.376307 0.000000 0.000000 0.000000 0.000000 0.811565
 31   4.172847 -0.251365 1.312745 0.001190 -0.096055 0.052246
 32   1.215373 -0.000001 0.000000 0.000000 0.000000 0.130882
 33   1.215372 0.000000 0.000000 0.000000 0.000000 1.151880
 34   4.220534 -0.244853 0.431466 0.001184 -0.026242 0.052329
 35   1.350416 0.000000 -0.000001 0.000000 0.000000 0.977377
 36   1.350410 0.000000 0.000001 0.000000 0.000000 1.518434
 37   2.110540 -0.000001 0.000000 -0.050886 0.021536 -0.194780
 38   0.891923 2.373051 -0.014527 -3.141592 -0.000001 1.413797
 39   7.228122 5.709445 3.726568 3.140796 -1.570796 0.000000
 40   2.450426 5.076128 0.001325 3.140791 -1.570796 0.000000
 41   6.312404 -4.528058 0.001311 3.140791 -1.570796 0.000000
 42   2.233309 1.152535 -7.309138 -1.128632 -1.604872 -0.889715
 43   4.262825 -0.232720 -1.392178 0.001188 0.078478 0.052453
time 6
  0   1.262422 6.599459 38.378071 -0.033556 -0.004091 -1.683978
  1   -0.191085 0.886746 0.000000 -0.000030 -1.515911 -1.570772
  2   -0.000007 0.000008 4.427393 -0.238574 -3.167659 -0.055075
  3   18.465939 0.000000 0.000000 0.000000 0.000000 -0.452745
  4   14.875443 0.000000 -0.000001 0.072159 0.025525 0.378606
  5   0.000006 -0.000004 -4.427393 0.184478 3.051869 -0.365606
  6   18.465939 0.000000 0.000000 0.000000 0.000000 -0.319640
  7   14.875442 0.000000 0.000000 -0.102966 -0.005660 -0.056346
  8   2.255207 -0.007574 0.121100 0.004406 0.023393 0.019358
  9   9.514219 -0.009357 0.000000 -0.000778 0.011038 -0.062715
 10   11.751820 -0.001633 0.000000 0.033749 -0.102062 0.426339
 11   -1.734672 0.925156 2.809890 1.541160 -1.361071 1.186174
 12   4.640941 0.000000 -0.000001 0.191865 1.238042 0.290001
 13   10.828049 0.000000 0.000000 0.000000 0.000000 -0.619871
 14   9.393337 -0.000001 0.000000 -1.550484 0.064815 -0.016228
 15   1.442245 0.107454 -1.746177 1.695903 0.548467 0.339923
 16   1.063452 0.000000 0.000001 0.000000 0.000000 0.199056
 17   1.376307 -0.000001 0.000001 0.000000 0.000000 0.199049
 18   4.172846 -0.251366 -1.312744 0.008050 0.103258 0.148739
 19   1.215374 0.000002 0.000000 0.000000 0.000000 0.645758
 20   1.215371 -0.000002 0.000001 0.000000 0.000000 0.633017
 21   4.220534 -0.244854 -0.431465 0.001333 0.026242 0.148339
 22   1.350417 0.000000 0.000001 0.000000 0.000000 0.870991
 23   1.350410 -0.000001 -0.000001 0.000000 0.000000 0.842730
 24   -2.269845 0.749383 -2.458314 -0.207322 1.328111 2.504505
 25   4.640942 0.000000 0.000001 -0.725934 -0.890622 0.671559
 26   10.828047 0.000000 0.000001 0.000000 0.000000 -0.920675
 27   9.393339 0.000000 0.000000 2.103738 0.090833 0.367837
 28   1.442245 0.107455 1.746178 -1.941878 -0.473898 0.682859
 29   1.063450 -0.000001 0.000000 0.000000 0.000000 0.371646
 30   1.376307 0.000000 0.000000 0.000000 0.000000 0.822936
 31   4.172847 -0.251365 1.312745 0.001190 -0.096055 0.052246
 32   1.215373 -0.000001 0.000000 0.000000 0.000000 0.132729
 33   1.215372 0.000000 0.000000 0.000000 0.000000 1.168038
 34   4.220534 -0.244853 0.431466 0.001184 -0.026242 0.052329
 35   1.350416 0.000000 -0.000001 0.000000 0.000000 0.991059
 36   1.350410 0.000000 0.000001 0.000000 0.000000 1.539665
 37   2.110540 -0.000001 0.000000 -0.003243 -0.004581 -0.192931
 38   0.891923 2.373051 -0.014527 -3.141592 -0.000001 1.413797
 39   7.228122 5.709445 3.726568 3.140796 -1.570796 0.000000
 40   2.450426 5.076128 0.001325 3.140791 -1.570796 0.000000
 41   6.312404 -4.528058 0.001311 3.140791 -1.570796 0.000000
 42   2.233309 1.152535 -7.309138 -1.126427 -1.604989 -0.885790
 43   4.262825 -0.232720 -1.392178 0.001188 0.078478 0.052453
time 7
  0   1.242139 6.461820 38.362446 -0.032501 -0.003963 -1.736518
  1   -0.171553 0.984405 0.000000 -0.000030 -1.518469 -1.570772
  2   -0.000007 0.000008 4.427393 -0.237046 -3.178637 -0.040013
  3   18.465939 0.000000 0.000000 0.000000 0.000000 -0.441267
  4   14.875443 0.000000 -0.000001 0.018081 0.033102 0.384452
  5   0.000006 -0.000004 -4.427393 0.181321 3.062401 -0.368788
  6   18.465939 0.000000 0.000000 0.000000 0.000000 -0.320099
  7   14.875442 0.000000 0.000000 -0.148837 -0.013286 -0.057284
  8   2.255207 -0.007574 0.117194 -0.035812 0.034587 0.017869
  9   9.514219 -0.009357 0.000000 -0.008154 0.014573 -0.062499
 10   11.751820 -0.001633 0.000000 0.031879 -0.092786 0.419817
 11   -1.765923 0.909531 2.794265 1.529094 -1.363361 1.203967
 12   4.640941 0.000000 -0.000001 0.301845 1.244586 0.469829
 13   10.828049 0.000000 0.000000 0.000000 0.000000 -0.633965
 14   9.393337 -0.000001 0.000000 -1.539518 0.082761 -0.025410
 15   1.442245 0.107454 -1.746177 1.701488 0.553774 0.348133
 16   1.063452 0.000000 0.000001 0.000000 0.000000 0.199056
 17   1.376307 -0.000001 0.000001 0.000000 0.000000 0.199049
 18   4.172846 -0.251366 -1.312744 0.008050 0.107632 0.148739
 19   1.215374 0.000002 0.000000 0.000000 0.000000 0.645758
 20   1.215371 -0.000002 0.000001 0.000000 0.000000 0.625627
 21   4.220534 -0.244854 -0.431465 0.001333 0.026242 0.148339
 22   1.350417 0.000000 0.000001 0.000000 0.000000 0.875075
 23   1.350410 -0.000001 -0.000001 0.000000 0.000000 0.830397
 24   -2.254220 0.741570 -2.477846 -0.391175 1.276297 2.333200
 25   4.640942 0.000000 0.000001 -0.931740 -0.631332 0.949994
 26   10.828047 0.000000 0.000001 0.000000 0.000000 -1.246397
 27   9.393339 0.000000 0.000000 1.979052 0.043594 0.360223
 28   1.442245 0.107455 1.746178 -1.948333 -0.471483 0.689759
 29   1.063450 -0.000001 0.000000 0.000000 0.000000 0.379544
 30   1.376307 0.000000 0.000000 0.000000 0.000000 0.840433
 31   4.172847 -0.251365 1.312745 0.001190 -0.096055 0.052246
 32   1.215373 -0.000001 0.000000 0.000000 0.000000 0.135541
 33   1.215372 0.000000 0.000000 0.000000 0.000000 1.192841
 34   4.220534 -0.244853 0.431466 0.001184 -0.026242 0.052329
 35   1.350416 0.000000 -0.000001 0.000000 0.000000 1.012127
 36   1.350410 0.000000 0.000001 0.000000 0.000000 1.572392
 37   2.110540 -0.000001 0.000000 0.062665 -0.026285 -0.184674
 38   0.891923 2.373051 -0.014527 -3.141592 -0.000001 1.413797
 39   7.228122 5.709445 3.726568 3.140796 -1.570796 0.000000
 40   2.450426 5.076128 0.001325 3.140791 -1.570796 0.000000
 41   6.312404 -4.528058 0.001311 3.140791 -1.570796 0.000000
 42   2.233309 1.152535 -7.309138 -1.118661 -1.594009 -0.891822
 43   4.262825 -0.232720 -1.392178 0.001188 0.078478 0.052453
time 8
  0   1.242139 6.461820 38.339008 -0.028570 -0.004538 -1.751091
  1   -0.152021 1.003937 0.000000 -0.000030 -1.529061 -1.570772
  2   -0.000007 0.000008 4.427393 -0.231987 -3.174916 -0.041111
  3   18.465939 0.000000 0.000000 0.000000 0.000000 -0.450040
  4   14.875443 0.000000 -0.000001 -0.001444 0.035741 0.391958
  5   0.000006 -0.000004 -4.427393 0.176824 3.073027 -0.366448
  6   18.465939 0.000000 0.000000 0.000000 0.000000 -0.313404
  7   14.875442 0.000000 0.000000 -0.155365 -0.014503 -0.061786
  8   2.255207 -0.007574 0.093756 -0.054818 0.047554 0.016843
  9   9.514219 -0.009357 0.000000 -0.008365 0.015113 -0.064144
 10   11.751820 -0.001633 0.000000 0.029614 -0.083486 0.421320
 11   -1.793268 0.905625 2.782546 1.499804 -1.367274 1.231104
 12   4.640941 0.000000 -0.000001 0.356859 1.247409 0.552836
 13   10.828049 0.000000 0.000000 0.000000 0.000000 -0.650926
 14   9.393337 -0.000001 0.000000 -1.535157 0.090029 -0.029073
 15   1.442245 0.107454 -1.746177 1.703765 0.555916 0.351479
 16   1.063452 0.000000 0.000001 0.000000 0.000000 0.199056
 17   1.376307 -0.000001 0.000001 0.000000 0.000000 0.199049
 18   4.172846 -0.251366 -1.312744 0.008050 0.109406 0.148779
 19   1.215374 0.000002 0.000000 0.000000 0.000000 0.645758
 20   1.215371 -0.000002 0.000001 0.000000 0.000000 0.622646
 21   4.220534 -0.244854 -0.431465 0.001333 0.026242 0.148339
 22   1.350417 0.000000 0.000001 0.000000 0.000000 0.876750
 23   1.350410 -0.000001 -0.000001 0.000000 0.000000 0.825414
 24   -2.230781 0.749383 -2.497377 -0.502681 1.214931 2.229523
 25   4.640942 0.000000 0.000001 -1.032328 -0.359280 1.161445
 26   10.828047 0.000000 0.000001 0.000000 0.000000 -1.602437
 27   9.393339 0.000000 0.000000 1.841147 -0.009402 0.360126
 28   1.442245 0.107455 1.746178 -1.954333 -0.469236 0.696042
 29   1.063450 -0.000001 0.000000 0.000000 0.000000 0.386794
 30   1.376307 0.000000 0.000000 0.000000 0.000000 0.856476
 31   4.172847 -0.251365 1.312745 0.001190 -0.096055 0.052246
 32   1.215373 -0.000001 0.000000 0.000000 0.000000 0.138143
 33   1.215372 0.000000 0.000000 0.000000 0.000000 1.215629
 34   4.220534 -0.244853 0.431466 0.001184 -0.026242 0.052329
 35   1.350416 0.000000 -0.000001 0.000000 0.000000 1.031432
 36   1.350410 0.000000 0.000001 0.000000 0.000000 1.602449
 37   2.110540 -0.000001 0.000000 0.088323 -0.041201 -0.185018
 38   0.891923 2.373051 -0.014527 -3.141592 -0.000001 1.413797
 39   7.228122 5.709445 3.726568 3.140796 -1.570796 0.000000
 40   2.450426 5.076128 0.001325 3.140791 -1.570796 0.000000
 41   6.312404 -4.528058 0.001311 3.140791 -1.570796 0.000000
 42   2.233309 1.152535 -7.309138 -1.069095 -1.577407 -0.942277
 43   4.262825 -0.232720 -1.392178 0.001188 0.078478 0.052453
time 9
  0   1.221856 6.461820 38.315571 -0.023968 -0.005050 -1.763364
  1   -0.136396 1.031281 0.000000 -0.000030 -1.545085 -1.570772
  2   -0.000007 0.000008 4.427393 -0.226737 -3.165426 -0.044951
  3   18.465939 0.000000 0.000000 0.000000 0.000000 -0.464442
  4   14.875443 0.000000 -0.000001 -0.018720 0.038146 0.402347
  5   0.000006 -0.000004 -4.427393 0.174241 3.088313 -0.360178
  6   18.465939 0.000000 0.000000 0.000000 0.000000 -0.298636
  7   14.875442 0.000000 0.000000 -0.159752 -0.015245 -0.070378
  8   2.255207 -0.007574 0.054692 -0.075904 0.066513 0.015917
  9   9.514219 -0.009357 0.000000 -0.007639 0.015017 -0.065226
 10   11.751820 -0.001633 0.000000 0.027265 -0.073814 0.422877
 11   -1.816706 0.901718 2.766920 1.455337 -1.372617 1.273424
 12   4.640941 0.000000 -0.000001 0.363638 1.256984 0.578827
 13   10.828049 0.000000 0.000000 0.000000 0.000000 -0.669169
 14   9.393337 -0.000001 0.000000 -1.535842 0.088883 -0.028487
 15   1.442245 0.107454 -1.746177 1.703405 0.555571 0.350945
 16   1.063452 0.000000 0.000001 0.000000 0.000000 0.199056
 17   1.376307 -0.000001 0.000001 0.000000 0.000000 0.199049
 18   4.172846 -0.251366 -1.312744 0.008050 0.109118 0.148779
 19   1.215374 0.000002 0.000000 0.000000 0.000000 0.645758
 20   1.215371 -0.000002 0.000001 0.000000 0.000000 0.623136
 21   4.220534 -0.244854 -0.431465 0.001333 0.026242 0.148339
 22   1.350417 0.000000 0.000001 0.000000 0.000000 0.876464
 23   1.350410 -0.000001 -0.000001 0.000000 0.000000 0.826231
 24   -2.203437 0.757196 -2.516909 -0.577662 1.165028 2.163340
 25   4.640942 0.000000 0.000001 -1.086918 -0.115541 1.333909
 26   10.828047 0.000000 0.000001 0.000000 0.000000 -1.917530
 27   9.393339 0.000000 0.000000 1.717365 -0.056217 0.369050
 28   1.442245 0.107455 1.746178 -1.956879 -0.468280 0.698823
 29   1.063450 -0.000001 0.000000 0.000000 0.000000 0.389970
 30   1.376307 0.000000 0.000000 0.000000 0.000000 0.863506
 31   4.172847 -0.251365 1.312745 0.001190 -0.096055 0.052246
 32   1.215373 -0.000001 0.000000 0.000000 0.000000 0.139276
 33   1.215372 0.000000 0.000000 0.000000 0.000000 1.225618
 34   4.220534 -0.244853 0.431466 0.001184 -0.026242 0.052329
 35   1.350416 0.000000 -0.000001 0.000000 0.000000 1.039909
 36   1.350410 0.000000 0.000001 0.000000 0.000000 1.615568
 37   2.110540 -0.000001 0.000000 0.114744 -0.056537 -0.186438
 38   0.891923 2.373051 -0.014527 -3.141592 -0.000001 1.413797
 39   7.228122 5.709445 3.726568 3.140796 -1.570796 0.000000
 40   2.450426 5.076128 0.001325 3.140791 -1.570796 0.000000
 41   6.312404 -4.528058 0.001311 3.140791 -1.570796 0.000000
 42   2.233309 1.152535 -7.309138 -1.182800 -1.560195 -0.829973
 43   4.262825 -0.232720 -1.392178 0.001188 0.078478 0.052453
time 10
  0   1.221856 6.461820 38.296040 -0.018983 -0.005497 -1.773335
  1   -0.124677 1.050813 0.000000 -0.000030 -1.553349 -1.570772
  2   -0.000007 0.000008 4.427393 -0.221868 -3.164589 -0.045250
  3   18.465939 0.000000 0.000000 0.000000 0.000000 -0.469560
  4   14.875443 0.000000 -0.000001 -0.033691 0.040147 0.407009
  5   0.000006 -0.000004 -4.427393 0.168404 3.094372 -0.360365
  6   18.465939 0.000000 0.000000 0.000000 0.000000 -0.298045
  7   14.875442 0.000000 0.000000 -0.162138 -0.015625 -0.071165
  8   2.255207 -0.007574 0.039067 -0.097368 0.077647 0.014991
  9   9.514219 -0.009357 0.000000 -0.006267 0.014405 -0.065962
 10   11.751820 -0.001633 0.000000 0.024856 -0.063807 0.424460
 11   -1.844051 0.897812 2.751295 1.397439 -1.378645 1.329278
 12   4.640941 0.000000 -0.000001 0.333920 1.270897 0.560738
 13   10.828049 0.000000 0.000000 0.000000 0.000000 -0.687351
 14   9.393337 -0.000001 0.000000 -1.540203 0.081615 -0.024824
 15   1.442245 0.107454 -1.746177 1.701128 0.553429 0.347600
 16   1.063452 0.000000 0.000001 0.000000 0.000000 0.199056
 17   1.376307 -0.000001 0.000001 0.000000 0.000000 0.199049
 18   4.172846 -0.251366 -1.312744 0.008050 0.107356 0.148739
 19   1.215374 0.000002 0.000000 0.000000 0.000000 0.645758
 20   1.215371 -0.000002 0.000001 0.000000 0.000000 0.626117
 21   4.220534 -0.244854 -0.431465 0.001333 0.026242 0.148339
 22   1.350417 0.000000 0.000001 0.000000 0.000000 0.874830
 23   1.350410 -0.000001 -0.000001 0.000000 0.000000 0.831173
 24   -2.179998 0.765008 -2.536441 -0.566336 1.191984 2.171114
 25   4.640942 0.000000 0.000001 -1.205410 -0.040014 1.395433
 26   10.828047 0.000000 0.000001 0.000000 0.000000 -2.050770
 27   9.393339 0.000000 0.000000 1.649569 -0.077787 0.397856
 28   1.442245 0.107455 1.746178 -1.937605 -0.475472 0.678379
 29   1.063450 -0.000001 0.000000 0.000000 0.000000 0.366516
 30   1.376307 0.000000 0.000000 0.000000 0.000000 0.811565
 31   4.172847 -0.251365 1.312745 0.001190 -0.096055 0.052246
 32   1.215373 -0.000001 0.000000 0.000000 0.000000 0.130882
 33   1.215372 0.000000 0.000000 0.000000 0.000000 1.151880
 34   4.220534 -0.244853 0.431466 0.001184 -0.026242 0.052329
 35   1.350416 0.000000 -0.000001 0.000000 0.000000 0.977377
 36   1.350410 0.000000 0.000001 0.000000 0.000000 1.518434
 37   2.110540 -0.000001 0.000000 0.140592 -0.071537 -0.188545
 38   0.891923 2.373051 -0.014527 -3.141592 -0.000001 1.413797
 39   7.228122 5.709445 3.726568 3.140796 -1.570796 0.000000
 40   2.450426 5.076128 0.001325 3.140791 -1.570796 0.000000
 41   6.312404 -4.528058 0.001311 3.140791 -1.570796 0.000000
 42   2.233309 1.152535 -7.309138 -1.161900 -1.550642 -0.852377
 43   4.262825 -0.232720 -1.392178 0.001188 0.078478 0.052453
time 11
  0   1.201573 6.461820 38.272602 -0.013902 -0.005817 -1.781005
  1   -0.112957 1.066439 0.000000 -0.000030 -1.549569 -1.570772
  2   -0.000007 0.000008 4.427393 -0.217286 -3.176497 -0.040362
  3   18.465939 0.000000 0.000000 0.000000 0.000000 -0.461006
  4   14.875443 0.000000 -0.000001 -0.046328 0.041680 0.403374
  5   0.000006 -0.000004 -4.427393 0.157880 3.087288 -0.370098
  6   18.465939 0.000000 0.000000 0.000000 0.000000 -0.318393
  7   14.875442 0.000000 0.000000 -0.162525 -0.015701 -0.060548
  8   2.255207 -0.007574 0.046879 -0.117256 0.076077 0.014064
  9   9.514219 -0.009357 0.000000 -0.004512 0.013435 -0.066569
 10   11.751820 -0.001633 0.000000 0.022399 -0.053512 0.426044
 11   -1.871395 0.893905 2.731763 1.328235 -1.384593 1.396331
 12   4.640941 0.000000 -0.000001 0.278807 1.285637 0.510747
 13   10.828049 0.000000 0.000000 0.000000 0.000000 -0.703824
 14   9.393337 -0.000001 0.000000 -1.546932 0.070546 -0.019207
 15   1.442245 0.107454 -1.746177 1.697676 0.550154 0.342530
 16   1.063452 0.000000 0.000001 0.000000 0.000000 0.199056
 17   1.376307 -0.000001 0.000001 0.000000 0.000000 0.199049
 18   4.172846 -0.251366 -1.312744 0.008050 0.104660 0.148739
 19   1.215374 0.000002 0.000000 0.000000 0.000000 0.645758
 20   1.215371 -0.000002 0.000001 0.000000 0.000000 0.630690
 21   4.220534 -0.244854 -0.431465 0.001333 0.026242 0.148339
 22   1.350417 0.000000 0.000001 0.000000 0.000000 0.872298
 23   1.350410 -0.000001 -0.000001 0.000000 0.000000 0.838769
 24   -2.152654 0.772821 -2.559879 -0.602817 1.232458 2.129905
 25   4.640942 0.000000 0.000001 -1.274355 -0.146366 1.343708
 26   10.828047 0.000000 0.000001 0.000000 0.000000 -1.970210
 27   9.393339 0.000000 0.000000 1.704600 -0.024693 0.457117
 28   1.442245 0.107455 1.746178 -1.940878 -0.473898 0.683838
 29   1.063450 -0.000001 0.000000 0.000000 0.000000 0.367835
 30   1.376307 0.000000 0.000000 0.000000 0.000000 0.820027
 31   4.172847 -0.251365 1.312745 0.001394 -0.096055 0.050042
 32   1.215373 -0.000001 0.000000 0.000000 0.000000 0.118208
 33   1.215372 0.000000 0.000000 0.000000 0.000000 1.155615
 34   4.220534 -0.244853 0.431466 0.001232 -0.026242 0.050167
 35   1.350416 0.000000 -0.000001 0.000000 0.000000 0.973264
 36   1.350410 0.000000 0.000001 0.000000 0.000000 1.523014
 37   2.110540 -0.000001 0.000000 0.164246 -0.085391 -0.190867
 38   0.891923 2.373051 -0.014527 -3.141592 -0.000001 1.413797
 39   7.228122 5.709445 3.726568 3.140796 -1.570796 0.000000
 40   2.450426 5.076128 0.001325 3.140791 -1.570796 0.000000
 41   6.312404 -4.528058 0.001311 3.140791 -1.570796 0.000000
 42   2.233309 1.152535 -7.309138 -1.175609 -1.560515 -0.840122
 43   4.262825 -0.232720 -1.392178 0.000828 0.078478 0.047876
time 12
  0   1.201573 6.461820 38.253067 -0.008916 -0.006008 -1.786470
  1   -0.101238 1.066439 0.000000 -0.000030 -1.540616 -1.570772
  2   -0.000007 0.000008 4.427393 -0.212608 -3.193243 -0.033480
  3   18.465939 0.000000 0.000000 0.000000 0.000000 -0.446751
  4   14.875443 0.000000 -0.000001 -0.056688 0.042637 0.395987
  5   0.000006 -0.000004 -4.427393 0.145347 3.074891 -0.382920
  6   18.465939 0.000000 0.000000 0.000000 0.000000 -0.345172
  7   14.875442 0.000000 0.000000 -0.160840 -0.015549 -0.046329
  8   2.255207 -0.007574 0.066411 -0.133533 0.068071 0.013237
  9   9.514219 -0.009357 0.000000 -0.002678 0.012224 -0.067261
 10   11.751820 -0.001633 0.000000 0.019906 -0.042990 0.427654
 11   -1.898740 0.889999 2.716137 1.250911 -1.389873 1.471559
 12   4.640941 0.000000 -0.000001 0.213477 1.297966 0.445068
 13   10.828049 0.000000 0.000000 0.000000 0.000000 -0.717186
 14   9.393337 -0.000001 0.000000 -1.554658 0.057999 -0.012662
 15   1.442245 0.107454 -1.746177 1.693781 0.546423 0.336783
 16   1.063452 0.000000 0.000001 0.000000 0.000000 0.199056
 17   1.376307 -0.000001 0.000001 0.000000 0.000000 0.199049
 18   4.172846 -0.251366 -1.312744 0.008050 0.101580 0.148699
 19   1.215374 0.000002 0.000000 0.000000 0.000000 0.645758
 20   1.215371 -0.000002 0.000001 0.000000 0.000000 0.635876
 21   4.220534 -0.244854 -0.431465 0.001333 0.026242 0.148339
 22   1.350417 0.000000 0.000001 0.000000 0.000000 0.869399
 23   1.350410 -0.000001 -0.000001 0.000000 0.000000 0.847427
 24   -2.125309 0.784540 -2.579411 -0.659053 1.276297 2.068676
 25   4.640942 0.000000 0.000001 -1.346696 -0.284450 1.297722
 26   10.828047 0.000000 0.000001 0.000000 0.000000 -1.867754
 27   9.393339 0.000000 0.000000 1.786569 0.036730 0.538637
 28   1.442245 0.107455 1.746178 -1.951060 -0.469236 0.698771
 29   1.063450 -0.000001 0.000000 0.000000 0.000000 0.375181
 30   1.376307 0.000000 0.000000 0.000000 0.000000 0.847331
 31   4.172847 -0.251365 1.312745 0.001813 -0.096055 0.045634
 32   1.215373 -0.000001 0.000000 0.000000 0.000000 0.094580
 33   1.215372 0.000000 0.000000 0.000000 0.000000 1.177774
 34   4.220534 -0.244853 0.431466 0.001352 -0.026242 0.045763
 35   1.350416 0.000000 -0.000001 0.000000 0.000000 0.977629
 36   1.350410 0.000000 0.000001 0.000000 0.000000 1.551639
 37   2.110540 -0.000001 0.000000 0.184181 -0.097319 -0.192888
 38   0.891923 2.373051 -0.014527 -3.141592 -0.000001 1.413797
 39   7.228122 5.709445 3.726568 3.140796 -1.570796 0.000000
 40   2.450426 5.076128 0.001325 3.140791 -1.570796 0.000000
 41   6.312404 -4.528058 0.001311 3.140791 -1.570796 0.000000
 42   2.233309 1.152535 -7.309138 -1.110224 -1.579155 -0.907044
 43   4.262825 -0.232720 -1.392178 0.000109 0.078478 0.038682
time 13
  0   1.201573 6.461820 38.237442 -0.004314 -0.006072 -1.789538
  1   -0.089519 1.046907 0.000000 -0.000030 -1.530067 -1.570772
  2   -0.000007 0.000008 4.427393 -0.207740 -3.210454 -0.026448
  3   18.465939 0.000000 0.000000 0.000000 0.000000 -0.430886
  4   14.875443 0.000000 -0.000001 -0.064743 0.042957 0.387218
  5   0.000006 -0.000004 -4.427393 0.132239 3.061562 -0.395741
  6   18.465939 0.000000 0.000000 0.000000 0.000000 -0.371558
  7   14.875442 0.000000 0.000000 -0.157050 -0.015169 -0.032185
  8   2.255207 -0.007574 0.089849 -0.144139 0.056602 0.012509
  9   9.514219 -0.009357 0.000000 -0.001029 0.010942 -0.068214
 10   11.751820 -0.001633 0.000000 0.017390 -0.032276 0.429265
 11   -1.926084 0.886093 2.696605 1.169869 -1.394008 1.550290
 12   4.640941 0.000000 -0.000001 0.159249 1.305750 0.386237
 13   10.828049 0.000000 0.000000 0.000000 0.000000 -0.725910
 14   9.393337 -0.000001 0.000000 -1.562010 0.046266 -0.006459
 15   1.442245 0.107454 -1.746177 1.690150 0.542878 0.331406
 16   1.063452 0.000000 0.000001 0.000000 0.000000 0.199056
 17   1.376307 -0.000001 0.000001 0.000000 0.000000 0.199049
 18   4.172846 -0.251366 -1.312744 0.008050 0.098704 0.148699
 19   1.215374 0.000002 0.000000 0.000000 0.000000 0.645758
 20   1.215371 -0.000002 0.000001 0.000000 0.000000 0.640735
 21   4.220534 -0.244854 -0.431465 0.001333 0.026242 0.148339
 22   1.350417 0.000000 0.000001 0.000000 0.000000 0.866703
 23   1.350410 -0.000001 -0.000001 0.000000 0.000000 0.855554
 24   -2.097965 0.792353 -2.598943 -0.738380 1.317873 1.984812
 25   4.640942 0.000000 0.000001 -1.411319 -0.436272 1.265385
 26   10.828047 0.000000 0.000001 0.000000 0.000000 -1.752230
 27   9.393339 0.000000 0.000000 1.874518 0.092199 0.617976
 28   1.442245 0.107455 1.746178 -1.959607 -0.465303 0.710924
 29   1.063450 -0.000001 0.000000 0.000000 0.000000 0.381857
 30   1.376307 0.000000 0.000000 0.000000 0.000000 0.870403
 31   4.172847 -0.251365 1.312745 0.002137 -0.096043 0.042348
 32   1.215373 -0.000001 0.000000 0.000000 0.000000 0.077247
 33   1.215372 0.000000 0.000000 0.000000 0.000000 1.198045
 34   4.220534 -0.244853 0.431466 0.001436 -0.026230 0.042480
 35   1.350416 0.000000 -0.000001 0.000000 0.000000 0.984008
 36   1.350410 0.000000 0.000001 0.000000 0.000000 1.577974
 37   2.110540 -0.000001 0.000000 0.198917 -0.106565 -0.194092
 38   0.891923 2.373051 -0.014527 -3.141592 -0.000001 1.413797
 39   7.228122 5.709445 3.726568 3.140796 -1.570796 0.000000
 40   2.450426 5.076128 0.001325 3.140791 -1.570796 0.000000
 41   6.312404 -4.528058 0.001311 3.140791 -1.570796 0.000000
 42   2.233309 1.152535 -7.309138 -1.132179 -1.594241 -0.887226
 43   4.262825 -0.232720 -1.392178 -0.000430 0.078478 0.031757
time 14
  0   1.201573 6.461820 38.221817 -0.000383 -0.005944 -1.790305
  1   -0.077800 1.003937 0.000000 -0.000030 -1.521487 -1.570772
  2   -0.000007 0.000008 4.427393 -0.202680 -3.223944 -0.021161
  3   18.465939 0.000000 0.000000 0.000000 0.000000 -0.418239
  4   14.875443 0.000000 -0.000001 -0.070492 0.042637 0.379830
  5   0.000006 -0.000004 -4.427393 0.120088 3.051030 -0.405942
  6   18.465939 0.000000 0.000000 0.000000 0.000000 -0.392365
  7   14.875442 0.000000 0.000000 -0.151118 -0.014674 -0.020929
  8   2.255207 -0.007574 0.109381 -0.147121 0.044666 0.011913
  9   9.514219 -0.009357 0.000000 0.000119 0.009684 -0.069664
 10   11.751820 -0.001633 0.000000 0.014861 -0.021441 0.430875
 11   -1.953429 0.882186 2.677073 1.090724 -1.396838 1.627236
 12   4.640941 0.000000 -0.000001 0.141320 1.308298 0.360480
 13   10.828049 0.000000 0.000000 0.000000 0.000000 -0.728534
 14   9.393337 -0.000001 0.000000 -1.567493 0.037580 -0.001819
 15   1.442245 0.107454 -1.746177 1.687477 0.540243 0.327445
 16   1.063452 0.000000 0.000001 0.000000 0.000000 0.199056
 17   1.376307 -0.000001 0.000001 0.000000 0.000000 0.199049
 18   4.172846 -0.251366 -1.312744 0.008050 0.096558 0.148659
 19   1.215374 0.000002 0.000000 0.000000 0.000000 0.645758
 20   1.215371 -0.000002 0.000001 0.000000 0.000000 0.644328
 21   4.220534 -0.244854 -0.431465 0.001333 0.026242 0.148339
 22   1.350417 0.000000 0.000001 0.000000 0.000000 0.864702
 23   1.350410 -0.000001 -0.000001 0.000000 0.000000 0.861557
 24   -2.066714 0.800166 -2.618475 -0.838209 1.351681 1.881272
 25   4.640942 0.000000 0.000001 -1.456956 -0.581678 1.246767
 26   10.828047 0.000000 0.000001 0.000000 0.000000 -1.632582
 27   9.393339 0.000000 0.000000 1.942716 0.135110 0.666374
 28   1.442245 0.107455 1.746178 -1.958061 -0.466146 0.708246
 29   1.063450 -0.000001 0.000000 0.000000 0.000000 0.381197
 30   1.376307 0.000000 0.000000 0.000000 0.000000 0.866194
 31   4.172847 -0.251365 1.312745 0.002029 -0.096043 0.043430
 32   1.215373 -0.000001 0.000000 0.000000 0.000000 0.083584
 33   1.215372 0.000000 0.000000 0.000000 0.000000 1.196198
 34   4.220534 -0.244853 0.431466 0.001412 -0.026242 0.043561
 35   1.350416 0.000000 -0.000001 0.000000 0.000000 0.986064
 36   1.350410 0.000000 0.000001 0.000000 0.000000 1.575684
 37   2.110540 -0.000001 0.000000 0.206834 -0.112403 -0.193920
 38   0.891923 2.373051 -0.014527 -3.141592 -0.000001 1.413797
 39   7.228122 5.709445 3.726568 3.140796 -1.570796 0.000000
 40   2.450426 5.076128 0.001325 3.140791 -1.570796 0.000000
 41   6.312404 -4.528058 0.001311 3.140791 -1.570796 0.000000
 42   2.233309 1.152535 -7.309138 -1.136877 -1.614250 -0.884450
 43   4.262825 -0.232720 -1.392178 -0.000250 0.078478 0.034066
time 15
  0   1.221856 6.461820 38.214005 0.002493 -0.005689 -1.788771
  1   -0.066081 0.933622 0.000000 -0.000030 -1.518469 -1.570772
  2   -0.000007 0.000008 4.427393 -0.197621 -3.229526 -0.019915
  3   18.465939 0.000000 0.000000 0.000000 0.000000 -0.413925
  4   14.875443 0.000000 -0.000001 -0.073965 0.041658 0.376749
  5   0.000006 -0.000004 -4.427393 0.110999 3.047115 -0.411370
  6   18.465939 0.000000 0.000000 0.000000 0.000000 -0.403458
  7   14.875442 0.000000 0.000000 -0.142976 -0.014142 -0.014701
  8   2.255207 -0.007574 0.117194 -0.140463 0.035234 0.011483
  9   9.514219 -0.009357 0.000000 0.000541 0.008629 -0.071829
 10   11.751820 -0.001633 0.000000 0.012332 -0.010511 0.432459
 11   -1.980774 0.878280 2.657542 1.019395 -1.398476 1.696143
 12   4.640941 0.000000 -0.000001 0.182925 1.304510 0.392325
 13   10.828049 0.000000 0.000000 0.000000 0.000000 -0.723531
 14   9.393337 -0.000001 0.000000 -1.569611 0.034172 0.000037
 15   1.442245 0.107454 -1.746177 1.686435 0.539209 0.325885
 16   1.063452 0.000000 0.000001 0.000000 0.000000 0.199056
 17   1.376307 -0.000001 0.000001 0.000000 0.000000 0.199049
 18   4.172846 -0.251366 -1.312744 0.008050 0.095731 0.148659
 19   1.215374 0.000002 0.000000 0.000000 0.000000 0.645758
 20   1.215371 -0.000002 0.000001 0.000000 0.000000 0.645758
 21   4.220534 -0.244854 -0.431465 0.001333 0.026242 0.148339
 22   1.350417 0.000000 0.000001 0.000000 0.000000 0.863926
 23   1.350410 -0.000001 -0.000001 0.000000 0.000000 0.863926
 24   -2.039369 0.811885 -2.641913 -0.940671 1.373216 1.776219
 25   4.640942 0.000000 0.000001 -1.468121 -0.699955 1.233328
 26   10.828047 0.000000 0.000001 0.000000 0.000000 -1.517638
 27   9.393339 0.000000 0.000000 1.962366 0.163512 0.652019
 28   1.442245 0.107455 1.746178 -1.937605 -0.475472 0.678379
 29   1.063450 -0.000001 0.000000 0.000000 0.000000 0.366516
 30   1.376307 0.000000 0.000000 0.000000 0.000000 0.811565
 31   4.172847 -0.251365 1.312745 0.001190 -0.096055 0.052246
 32   1.215373 -0.000001 0.000000 0.000000 0.000000 0.130882
 33   1.215372 0.000000 0.000000 0.000000 0.000000 1.151880
 34   4.220534 -0.244853 0.431466 0.001184 -0.026242 0.052329
 35   1.350416 0.000000 -0.000001 0.000000 0.000000 0.977377
 36   1.350410 0.000000 0.000001 0.000000 0.000000 1.518434
 37   2.110540 -0.000001 0.000000 0.206357 -0.114079 -0.191813
 38   0.891923 2.373051 -0.014527 -3.141592 -0.000001 1.413797
 39   7.228122 5.709445 3.726568 3.140796 -1.570796 0.000000
 40   2.450426 5.076128 0.001325 3.140791 -1.570796 0.000000
 41   6.312404 -4.528058 0.001311 3.140791 -1.570796 0.000000
 42   2.233309 1.152535 -7.309138 -1.137644 -1.613260 -0.885790
 43   4.262825 -0.232720 -1.392178 0.001188 0.078478 0.052453
time 16
  0   1.282705 6.461820 38.217911 0.003931 -0.005050 -1.780813
  1   -0.046549 0.796899 0.000000 -0.000030 -1.559069 -1.570772
  2   -0.000007 0.000008 4.427393 -0.192561 -3.183754 -0.042357
  3   18.465939 0.000000 0.000000 0.000000 0.000000 -0.463638
  4   14.875443 0.000000 -0.000001 -0.071204 0.039338 0.403572
  5   0.000006 -0.000004 -4.427393 0.121811 3.088033 -0.384979
  6   18.465939 0.000000 0.000000 0.000000 0.000000 -0.349504
  7   14.875442 0.000000 0.000000 -0.128516 -0.013286 -0.042539
  8   2.255207 -0.007574 0.023441 -0.113392 0.063002 0.011119
  9   9.514219 -0.009357 0.000000 -0.000158 0.007586 -0.075206
 10   11.751820 -0.001633 0.000000 0.009803 0.000430 0.434043
 11   -2.012024 0.874374 2.641916 0.953757 -1.399240 1.759349
 12   4.640941 0.000000 -0.000001 0.291775 1.287290 0.478200
 13   10.828049 0.000000 0.000000 0.000000 0.000000 -0.699309
 14   9.393337 -0.000001 0.000000 -1.569611 0.034172 0.000037
 15   1.442245 0.107454 -1.746177 1.686435 0.539209 0.325885
 16   1.063452 0.000000 0.000001 0.000000 0.000000 0.199056
 17   1.376307 -0.000001 0.000001 0.000000 0.000000 0.199049
 18   4.172846 -0.251366 -1.312744 0.008050 0.095731 0.148659
 19   1.215374 0.000002 0.000000 0.000000 0.000000 0.645758
 20   1.215371 -0.000002 0.000001 0.000000 0.000000 0.645758
 21   4.220534 -0.244854 -0.431465 0.001333 0.026242 0.148339
 22   1.350417 0.000000 0.000001 0.000000 0.000000 0.863926
 23   1.350410 -0.000001 -0.000001 0.000000 0.000000 0.863926
 24   -2.008118 0.819697 -2.657539 -0.931189 1.345659 1.788671
 25   4.640942 0.000000 0.000001 -1.282279 -0.679522 1.162775
 26   10.828047 0.000000 0.000001 0.000000 0.000000 -1.437195
 27   9.393339 0.000000 0.000000 1.765260 0.109962 0.333115
 28   1.442245 0.107455 1.746178 -1.819960 -0.516090 0.511073
 29   1.063450 -0.000001 0.000000 0.000000 0.000000 0.285177
 30   1.376307 0.000000 0.000000 0.000000 0.000000 0.514050
 31   4.172847 -0.251365 1.312745 -0.003292 -0.096007 0.099050
 32   1.215373 -0.000001 0.000000 0.000000 0.000000 0.380970
 33   1.215372 0.000000 0.000000 0.000000 0.000000 0.906073
 34   4.220534 -0.244853 0.431466 -0.000038 -0.026266 0.098932
 35   1.350416 0.000000 -0.000001 0.000000 0.000000 0.922273
 36   1.350410 0.000000 0.000001 0.000000 0.000000 1.200507
 37   2.110540 -0.000001 0.000000 0.188235 -0.106369 -0.186180
 38   0.891923 2.373051 -0.014527 -3.141592 -0.000001 1.413797
 39   7.228122 5.709445 3.726568 3.140796 -1.570796 0.000000
 40   2.450426 5.076128 0.001325 3.140791 -1.570796 0.000000
 41   6.312404 -4.528058 0.001311 3.140791 -1.570796 0.000000
 42   2.233309 1.152535 -7.309138 -1.152984 -1.564476 -0.873248
 43   4.262825 -0.232720 -1.392178 0.008834 0.077999 0.150200
time 17
  0   1.363838 6.489348 38.241348 0.003643 -0.003963 -1.764610
  1   -0.019205 0.589862 0.000000 -0.000030 -1.566254 -1.570772
  2   -0.000007 0.000008 4.427393 -0.186547 -3.170357 -0.048741
  3   18.465939 0.000000 0.000000 0.000000 0.000000 -0.471899
  4   14.875443 0.000000 -0.000001 -0.060502 0.034507 0.405350
  5   0.000006 -0.000004 -4.427393 0.118653 3.096702 -0.377585
  6   18.465939 0.000000 0.000000 0.000000 0.000000 -0.335721
  7   14.875442 0.000000 0.000000 -0.106125 -0.011536 -0.047905
  8   2.255207 -0.007574 0.007816 -0.064143 0.050023 0.010193
  9   9.514219 -0.009357 0.000000 -0.001887 0.006376 -0.079839
 10   11.751820 -0.001633 0.000000 0.007299 0.011372 0.435573
 11   -2.039369 0.870467 2.622385 0.887891 -1.399304 1.822829
 12   4.640941 0.000000 -0.000001 0.430245 1.251956 0.574261
 13   10.828049 0.000000 0.000000 0.000000 0.000000 -0.652025
 14   9.393337 -0.000001 0.000000 -1.569611 0.034172 0.000037
 15   1.442245 0.107454 -1.746177 1.686435 0.539209 0.325885
 16   1.063452 0.000000 0.000001 0.000000 0.000000 0.199056
 17   1.376307 -0.000001 0.000001 0.000000 0.000000 0.199049
 18   4.172846 -0.251366 -1.312744 0.008050 0.095731 0.148659
 19   1.215374 0.000002 0.000000 0.000000 0.000000 0.645758
 20   1.215371 -0.000002 0.000001 0.000000 0.000000 0.645758
 21   4.220534 -0.244854 -0.431465 0.001333 0.026242 0.148339
 22   1.350417 0.000000 0.000001 0.000000 0.000000 0.863926
 23   1.350410 -0.000001 -0.000001 0.000000 0.000000 0.863926
 24   -1.976867 0.831417 -2.677071 -0.888123 1.319430 1.835454
 25   4.640942 0.000000 0.000001 -1.072820 -0.652951 1.083682
 26   10.828047 0.000000 0.000001 0.000000 0.000000 -1.283279
 27   9.393339 0.000000 0.000000 1.569611 -0.034192 0.000001
 28   1.442245 0.107455 1.746178 -1.686405 -0.539236 0.325898
 29   1.063450 -0.000001 0.000000 0.000000 0.000000 0.199056
 30   1.376307 0.000000 0.000000 0.000000 0.000000 0.199059
 31   4.172847 -0.251365 1.312745 -0.008050 -0.095731 0.148659
 32   1.215373 -0.000001 0.000000 0.000000 0.000000 0.645746
 33   1.215372 0.000000 0.000000 0.000000 0.000000 0.645746
 34   4.220534 -0.244853 0.431466 -0.001333 -0.026242 0.148339
 35   1.350416 0.000000 -0.000001 0.000000 0.000000 0.863937
 36   1.350410 0.000000 0.000001 0.000000 0.000000 0.863925
 37   2.110540 -0.000001 0.000000 0.150035 -0.087542 -0.177407
 38   0.891923 2.373051 -0.014527 -3.141592 -0.000001 1.413797
 39   7.228122 5.709445 3.726568 3.140796 -1.570796 0.000000
 40   2.450426 5.076128 0.001325 3.140791 -1.570796 0.000000
 41   6.312404 -4.528058 0.001311 3.140791 -1.570796 0.000000
 42   2.233309 1.152535 -7.309138 -1.147902 -1.552709 -0.880620
 43   4.262825 -0.232720 -1.392178 0.016840 0.076668 0.253759
time 18
  0   1.485537 6.489348 38.272602 0.002397 -0.002685 -1.743613
  1   0.027672 0.343760 0.000000 -0.000030 -1.568726 -1.570772
  2   -0.000007 0.000008 4.427393 -0.180533 -3.160030 -0.052681
  3   18.465939 0.000000 0.000000 0.000000 0.000000 -0.473581
  4   14.875443 0.000000 -0.000001 -0.044990 0.028420 0.403098
  5   0.000006 -0.000004 -4.427393 0.114348 3.101083 -0.371596
  6   18.465939 0.000000 0.000000 0.000000 0.000000 -0.326991
  7   14.875442 0.000000 0.000000 -0.079662 -0.009349 -0.049480
  8   2.255207 -0.007574 0.003909 -0.002083 0.028259 0.007844
  9   9.514219 -0.009357 0.000000 -0.004196 0.005046 -0.085208
 10   11.751820 -0.001633 0.000000 0.004830 0.022254 0.437103
 11   -2.066714 0.866561 2.602853 0.822709 -1.398651 1.885622
 12   4.640941 0.000000 -0.000001 0.559480 1.202087 0.650301
 13   10.828049 0.000000 0.000000 0.000000 0.000000 -0.591501
 14   9.393337 -0.000001 0.000000 -1.569611 0.034172 0.000037
 15   1.442245 0.107454 -1.746177 1.686435 0.539209 0.325885
 16   1.063452 0.000000 0.000001 0.000000 0.000000 0.199056
 17   1.376307 -0.000001 0.000001 0.000000 0.000000 0.199049
 18   4.172846 -0.251366 -1.312744 0.008050 0.095731 0.148659
 19   1.215374 0.000002 0.000000 0.000000 0.000000 0.645758
 20   1.215371 -0.000002 0.000001 0.000000 0.000000 0.645758
 21   4.220534 -0.244854 -0.431465 0.001333 0.026242 0.148339
 22   1.350417 0.000000 0.000001 0.000000 0.000000 0.863926
 23   1.350410 -0.000001 -0.000001 0.000000 0.000000 0.863926
 24   -1.945616 0.839229 -2.696602 -0.890537 1.353571 1.828574
 25   4.640942 0.000000 0.000001 -0.986021 -0.801844 0.981841
 26   10.828047 0.000000 0.000001 0.000000 0.000000 -0.974923
 27   9.393339 0.000000 0.000000 1.542422 -0.062984 -0.053441
 28   1.442245 0.107455 1.746178 -1.662767 -0.541034 0.293353
 29   1.063450 -0.000001 0.000000 0.000000 0.000000 0.184171
 30   1.376307 0.000000 0.000000 0.000000 0.000000 0.144629
 31   4.172847 -0.251365 1.312745 -0.008865 -0.095660 0.157234
 32   1.215373 -0.000001 0.000000 0.000000 0.000000 0.691533
 33   1.215372 0.000000 0.000000 0.000000 0.000000 0.600756
 34   4.220534 -0.244853 0.431466 -0.001560 -0.026230 0.156866
 35   1.350416 0.000000 -0.000001 0.000000 0.000000 0.853823
 36   1.350410 0.000000 0.000001 0.000000 0.000000 0.805721
 37   2.110540 -0.000001 0.000000 0.100627 -0.062151 -0.167946
 38   0.891923 2.373051 -0.014527 -3.141592 -0.000001 1.413797
 39   7.228122 5.709445 3.726568 3.140796 -1.570796 0.000000
 40   2.450426 5.076128 0.001325 3.140791 -1.570796 0.000000
 41   6.312404 -4.528058 0.001311 3.140791 -1.570796 0.000000
 42   2.233309 1.152535 -7.309138 -1.148861 -1.546127 -0.881865
 43   4.262825 -0.232720 -1.392178 0.018206 0.076357 0.271629
time 19
  0   1.586953 6.516876 38.307758 0.000863 -0.001278 -1.721465
  1   0.090174 0.093753 0.000000 -0.000030 -1.569258 -1.570772
  2   -0.000007 0.000008 4.427393 -0.175092 -3.151285 -0.054776
  3   18.465939 0.000000 0.000000 0.000000 0.000000 -0.471607
  4   14.875443 0.000000 -0.000001 -0.027714 0.022034 0.399306
  5   0.000006 -0.000004 -4.427393 0.110330 3.103226 -0.366729
  6   18.465939 0.000000 0.000000 0.000000 0.000000 -0.322200
  7   14.875442 0.000000 0.000000 -0.052954 -0.007086 -0.048017
  8   2.255207 -0.007574 0.000003 0.063169 0.003786 0.003807
  9   9.514219 -0.009357 0.000000 -0.006637 0.003679 -0.090728
 10   11.751820 -0.001633 0.000000 0.002409 0.033005 0.438552
 11   -2.090152 0.862655 2.583321 0.758892 -1.397331 1.947040
 12   4.640941 0.000000 -0.000001 0.662780 1.145056 0.698302
 13   10.828049 0.000000 0.000000 0.000000 0.000000 -0.527682
 14   9.393337 -0.000001 0.000000 -1.569611 0.034172 0.000037
 15   1.442245 0.107454 -1.746177 1.686435 0.539209 0.325885
 16   1.063452 0.000000 0.000001 0.000000 0.000000 0.199056
 17   1.376307 -0.000001 0.000001 0.000000 0.000000 0.199049
 18   4.172846 -0.251366 -1.312744 0.008050 0.095731 0.148659
 19   1.215374 0.000002 0.000000 0.000000 0.000000 0.645758
 20   1.215371 -0.000002 0.000001 0.000000 0.000000 0.645758
 21   4.220534 -0.244854 -0.431465 0.001333 0.026242 0.148339
 22   1.350417 0.000000 0.000001 0.000000 0.000000 0.863926
 23   1.350410 -0.000001 -0.000001 0.000000 0.000000 0.863926
 24   -1.918272 0.850948 -2.716134 -0.907351 1.407502 1.805252
 25   4.640942 0.000000 0.000001 -0.869689 -1.004855 0.816236
 26   10.828047 0.000000 0.000001 0.000000 0.000000 -0.604594
 27   9.393339 0.000000 0.000000 1.555841 -0.048409 -0.026769
 28   1.442245 0.107455 1.746178 -1.674586 -0.540191 0.309626
 29   1.063450 -0.000001 0.000000 0.000000 0.000000 0.191613
 30   1.376307 0.000000 0.000000 0.000000 0.000000 0.171822
 31   4.172847 -0.251365 1.312745 -0.008458 -0.095695 0.152947
 32   1.215373 -0.000001 0.000000 0.000000 0.000000 0.668618
 33   1.215372 0.000000 0.000000 0.000000 0.000000 0.623251
 34   4.220534 -0.244853 0.431466 -0.001441 -0.026230 0.152622
 35   1.350416 0.000000 -0.000001 0.000000 0.000000 0.858859
 36   1.350410 0.000000 0.000001 0.000000 0.000000 0.834823
 37   2.110540 -0.000001 0.000000 0.048597 -0.034861 -0.159732
 38   0.891923 2.373051 -0.014527 -3.141592 -0.000001 1.413797
 39   7.228122 5.709445 3.726568 3.140796 -1.570796 0.000000
 40   2.450426 5.076128 0.001325 3.140791 -1.570796 0.000000
 41   6.312404 -4.528058 0.001311 3.140791 -1.570796 0.000000
 42   2.233309 1.152535 -7.309138 -1.150299 -1.541671 -0.882535
 43   4.262825 -0.232720 -1.392178 0.017523 0.076513 0.262674
time 20
  0   1.688369 6.544403 38.339008 0.000000 0.000000 -1.701715
  1   0.164395 -0.125004 0.000000 -1.570795 -1.570451 0.000000
  2   -0.000007 0.000008 4.427393 -0.171082 -3.142819 -0.056022
  3   18.465939 0.000000 0.000000 0.000000 0.000000 -0.469779
  4   14.875443 0.000000 -0.000001 -0.011348 0.016224 0.396501
  5   0.000006 -0.000004 -4.427393 0.107459 3.105557 -0.362050
  6   18.465939 0.000000 0.000000 0.000000 0.000000 -0.318918
  7   14.875442 0.000000 0.000000 -0.029685 -0.005127 -0.045428
  8   2.255207 -0.007574 0.000003 0.122100 -0.017403 -0.001322
  9   9.514219 -0.009357 0.000000 -0.008787 0.002361 -0.095902
 10   11.751820 -0.001633 0.000000 0.000024 0.043599 0.439975
 11   -2.117496 0.858748 2.563789 0.697276 -1.395375 2.006330
 12   4.640941 0.000000 -0.000001 0.738474 1.089884 0.724820
 13   10.828049 0.000000 0.000000 0.000000 0.000000 -0.470452
 14   9.393337 -0.000001 0.000000 -1.569611 0.034172 0.000037
 15   1.442245 0.107454 -1.746177 1.686435 0.539209 0.325885
 16   1.063452 0.000000 0.000001 0.000000 0.000000 0.199056
 17   1.376307 -0.000001 0.000001 0.000000 0.000000 0.199049
 18   4.172846 -0.251366 -1.312744 0.008050 0.095731 0.148659
 19   1.215374 0.000002 0.000000 0.000000 0.000000 0.645758
 20   1.215371 -0.000002 0.000001 0.000000 0.000000 0.645758
 21   4.220534 -0.244854 -0.431465 0.001333 0.026242 0.148339
 22   1.350417 0.000000 0.000001 0.000000 0.000000 0.863926
 23   1.350410 -0.000001 -0.000001 0.000000 0.000000 0.863926
 24   -1.887021 0.858761 -2.731760 -0.942471 1.461434 1.764317
 25   4.640942 0.000000 0.000001 -0.601473 -1.183875 0.506934
 26   10.828047 0.000000 0.000001 0.000000 0.000000 -0.234266
 27   9.393339 0.000000 0.000000 1.569611 -0.034192 0.000001
 28   1.442245 0.107455 1.746178 -1.686405 -0.539236 0.325898
 29   1.063450 -0.000001 0.000000 0.000000 0.000000 0.199056
 30   1.376307 0.000000 0.000000 0.000000 0.000000 0.199059
 31   4.172847 -0.251365 1.312745 -0.008050 -0.095731 0.148659
 32   1.215373 -0.000001 0.000000 0.000000 0.000000 0.645746
 33   1.215372 0.000000 0.000000 0.000000 0.000000 0.645746
 34   4.220534 -0.244853 0.431466 -0.001333 -0.026242 0.148339
 35   1.350416 0.000000 -0.000001 0.000000 0.000000 0.863937
 36   1.350410 0.000000 0.000001 0.000000 0.000000 0.863925
 37   2.110540 -0.000001 0.000000 0.002432 -0.010503 -0.153668
 38   0.891923 2.373051 -0.014527 -3.141592 -0.000001 1.413797
 39   7.228122 5.709445 3.726568 3.140796 -1.570796 0.000000
 40   2.450426 5.076128 0.001325 3.140791 -1.570796 0.000000
 41   6.312404 -4.528058 0.001311 3.140791 -1.570796 0.000000
 42   2.233309 1.152535 -7.309138 -1.151450 -1.536137 -0.883588
 43   4.262825 -0.232720 -1.392178 0.016840 0.076668 0.253759
end
