version 1
nodes
  0 "Bip01" -1
  1 "Bip01 Pelvis" 0
  2 "Bip01 L Thigh" 1
  3 "Bip01 L Calf" 2
  4 "Bip01 L Foot" 3
  5 "Bip01 R Thigh" 1
  6 "Bip01 R Calf" 5
  7 "Bip01 R Foot" 6
  8 "Bip01 Spine" 1
  9 "Bip01 Spine1" 8
 10 "Bip01 Neck" 9
 11 "Bip01 L Clavicle" 10
 12 "Bip01 L UpperArm" 11
 13 "Bip01 L Forearm" 12
 14 "Bip01 L Hand" 13
 15 "Bip01 L Finger0" 14
 16 "Bip01 L Finger01" 15
 17 "Bip01 L Finger02" 16
 18 "Bip01 L Finger1" 14
 19 "Bip01 L Finger11" 18
 20 "Bip01 L Finger12" 19
 21 "Bip01 L Finger2" 14
 22 "Bip01 L Finger21" 21
 23 "Bip01 L Finger22" 22
 24 "Bip01 R Clavicle" 10
 25 "Bip01 R UpperArm" 24
 26 "Bip01 R Forearm" 25
 27 "Bip01 R Hand" 26
 28 "Bip01 R Finger0" 27
 29 "Bip01 R Finger01" 28
 30 "Bip01 R Finger02" 29
 31 "Bip01 R Finger1" 27
 32 "Bip01 R Finger11" 31
 33 "Bip01 R Finger12" 32
 34 "Bip01 R Finger2" 27
 35 "Bip01 R Finger21" 34
 36 "Bip01 R Finger22" 35
 37 "Bip01 Head" 10
 38 "Bone05" 37
 39 "Bone08" 9
 40 "Bone16" 8
 41 "Bone01" 8
 42 "Bone03" 1
 43 "Bip01 R Finger4" 27
end
skeleton
time 0
  0   1.708652 6.792152 38.335102 0.000000 0.000000 -1.701715
  1   0.164395 -0.125004 0.000000 -1.570795 -1.570451 0.000000
  2   -0.000007 0.000008 4.427393 -0.170796 -3.152960 0.000882
  3   18.465939 0.000000 0.000000 0.000000 0.000000 -0.416557
  4   14.875443 0.000000 -0.000001 -0.011320 0.016501 0.401083
  5   0.000006 -0.000004 -4.427393 0.106024 3.095677 -0.362237
  6   18.465939 0.000000 0.000000 0.000000 0.000000 -0.394334
  7   14.875442 0.000000 0.000000 -0.031896 0.004572 0.028706
  8   2.255207 -0.007574 0.000003 0.122100 -0.017403 -0.001322
  9   9.514219 -0.009357 0.000000 -0.008787 0.002361 -0.095902
 10   11.751820 -0.001633 0.000000 0.000024 0.043599 0.439975
 11   -2.117496 0.858748 2.563789 0.697276 -1.395375 2.006330
 12   4.640941 0.000000 -0.000001 0.738474 1.089884 0.724820
 13   10.828049 0.000000 0.000000 0.000000 0.000000 -0.470452
 14   9.393337 -0.000001 0.000000 -1.569611 0.034172 0.000037
 15   1.442245 0.107454 -1.746177 1.686435 0.539209 0.325885
 16   1.063452 0.000000 0.000001 0.000000 0.000000 0.199056
 17   1.376307 -0.000001 0.000001 0.000000 0.000000 0.199049
 18   4.172846 -0.251366 -1.312744 0.008050 0.095731 0.148659
 19   1.215374 0.000002 0.000000 0.000000 0.000000 0.645758
 20   1.215371 -0.000002 0.000001 0.000000 0.000000 0.645758
 21   4.220534 -0.244854 -0.431465 0.001333 0.026242 0.148339
 22   1.350417 0.000000 0.000001 0.000000 0.000000 0.863926
 23   1.350410 -0.000001 -0.000001 0.000000 0.000000 0.863926
 24   -1.887021 0.858761 -2.731760 -0.942471 1.461434 1.764317
 25   4.640942 0.000000 0.000001 -0.601473 -1.183875 0.506934
 26   10.828047 0.000000 0.000001 0.000000 0.000000 -0.234266
 27   9.393339 0.000000 0.000000 1.569611 -0.034192 0.000001
 28   1.442245 0.107455 1.746178 -1.686405 -0.539236 0.325898
 29   1.063450 -0.000001 0.000000 0.000000 0.000000 0.199056
 30   1.376307 0.000000 0.000000 0.000000 0.000000 0.199059
 31   4.172847 -0.251365 1.312745 -0.008050 -0.095731 0.148659
 32   1.215373 -0.000001 0.000000 0.000000 0.000000 0.645746
 33   1.215372 0.000000 0.000000 0.000000 0.000000 0.645746
 34   4.220534 -0.244853 0.431466 -0.001333 -0.026242 0.148339
 35   1.350416 0.000000 -0.000001 0.000000 0.000000 0.863937
 36   1.350410 0.000000 0.000001 0.000000 0.000000 0.863925
 37   2.110540 -0.000001 0.000000 0.002432 -0.010503 -0.153668
 38   0.891923 2.373051 -0.014527 -3.141592 -0.000001 1.413797
 39   7.228122 5.709445 3.726568 3.140796 -1.570796 0.000000
 40   2.450426 5.076128 0.001325 3.140791 -1.570796 0.000000
 41   6.312404 -4.528058 0.001311 3.140791 -1.570796 0.000000
 42   2.233309 1.152535 -7.309138 -1.140137 -1.553350 -0.884450
 43   4.262825 -0.232720 -1.392178 0.016840 0.076668 0.253759
time 1
  0   0.978458 6.571931 38.393700 -0.002397 0.003196 -1.706605
  1   0.148769 0.109378 0.000000 -0.000030 -1.543835 -1.570772
  2   -0.000007 0.000008 4.427393 -0.166691 -3.168310 0.034347
  3   18.465939 0.000000 0.000000 0.000000 0.000000 -0.351784
  4   14.875443 0.000000 -0.000001 -0.019175 0.001219 0.370824
  5   0.000006 -0.000004 -4.427393 0.100188 3.086635 -0.372344
  6   18.465939 0.000000 0.000000 0.000000 0.000000 -0.426758
  7   14.875442 0.000000 0.000000 -0.034704 -0.010110 0.056207
  8   2.255207 -0.007574 0.058599 0.101707 -0.026511 0.003013
  9   9.514219 -0.009357 0.000000 -0.010740 0.015532 -0.104215
 10   11.751820 -0.001633 0.000000 0.052013 0.032945 0.202666
 11   -2.230781 0.499362 2.555976 0.690295 -1.358384 2.255028
 12   4.640941 0.000000 -0.000001 0.381419 1.144505 0.357495
 13   10.828049 0.000000 0.000000 0.000000 0.000000 -0.502911
 14   9.393337 -0.000001 0.000000 -1.569611 0.034172 0.000037
 15   1.442245 0.107454 -1.746177 1.686435 0.539209 0.325885
 16   1.063452 0.000000 0.000001 0.000000 0.000000 0.199056
 17   1.376307 -0.000001 0.000001 0.000000 0.000000 0.199049
 18   4.172846 -0.251366 -1.312744 0.008050 0.095731 0.148659
 19   1.215374 0.000002 0.000000 0.000000 0.000000 0.645758
 20   1.215371 -0.000002 0.000001 0.000000 0.000000 0.645758
 21   4.220534 -0.244854 -0.431465 0.001333 0.026242 0.148339
 22   1.350417 0.000000 0.000001 0.000000 0.000000 0.863926
 23   1.350410 -0.000001 -0.000001 0.000000 0.000000 0.863926
 24   -2.062807 0.225929 -2.731760 -0.838823 1.410264 2.112706
 25   4.640942 0.000000 0.000001 -1.073849 -0.850453 1.106780
 26   10.828047 0.000000 0.000001 0.000000 0.000000 -0.814560
 27   9.393339 0.000000 0.000000 1.635447 0.053647 -0.019252
 28   1.442245 0.107455 1.746178 -1.689496 -0.538618 0.331974
 29   1.063450 -0.000001 0.000000 0.000000 0.000000 0.193735
 30   1.376307 0.000000 0.000000 0.000000 0.000000 0.179601
 31   4.172847 -0.251365 1.312745 -0.008338 -0.095707 0.151705
 32   1.215373 -0.000001 0.000000 0.000000 0.000000 0.662113
 33   1.215372 0.000000 0.000000 0.000000 0.000000 0.629672
 34   4.220534 -0.244853 0.431466 -0.001417 -0.026230 0.151381
 35   1.350416 0.000000 -0.000001 0.000000 0.000000 0.860328
 36   1.350410 0.000000 0.000001 0.000000 0.000000 0.843124
 37   2.110540 -0.000001 0.000000 -0.016930 -0.030754 0.059118
 38   0.891923 2.373051 -0.014527 -3.141592 -0.000001 1.413797
 39   7.228122 5.709445 3.726568 3.140796 -1.570796 0.000000
 40   2.450426 5.076128 0.001325 3.140791 -1.570796 0.000000
 41   6.312404 -4.528058 0.001311 3.140791 -1.570796 0.000000
 42   2.233309 1.152535 -7.309138 -1.237927 -1.563165 -0.805847
 43   4.262825 -0.232720 -1.392178 0.017319 0.076560 0.260127
time 2
  0   0.207696 6.351710 38.452293 -0.004890 0.006392 -1.712549
  1   0.125331 0.363292 0.000000 -0.000030 -1.517822 -1.570772
  2   -0.000007 0.000008 4.427393 -0.161536 -3.184405 0.075841
  3   18.465939 0.000000 0.000000 0.000000 0.000000 -0.269246
  4   14.875443 0.000000 -0.000001 -0.028112 -0.013361 0.331123
  5   0.000006 -0.000004 -4.427393 0.094447 3.078806 -0.379550
  6   18.465939 0.000000 0.000000 0.000000 0.000000 -0.453013
  7   14.875442 0.000000 0.000000 -0.038459 -0.024563 0.080256
  8   2.255207 -0.007574 0.117194 0.081714 -0.033941 0.008770
  9   9.514219 -0.009357 0.000000 -0.013220 0.029242 -0.114758
 10   11.751820 -0.001633 0.000000 0.120086 -0.037705 0.593993
 11   -1.746391 1.472048 2.559883 0.816714 -1.316907 1.739494
 12   4.640941 0.000000 -0.000001 0.144464 1.157385 0.123753
 13   10.828049 0.000000 0.000000 0.000000 0.000000 -0.543789
 14   9.393337 -0.000001 0.000000 -1.569611 0.034172 0.000037
 15   1.442245 0.107454 -1.746177 1.686435 0.539209 0.325885
 16   1.063452 0.000000 0.000001 0.000000 0.000000 0.199056
 17   1.376307 -0.000001 0.000001 0.000000 0.000000 0.199049
 18   4.172846 -0.251366 -1.312744 0.008050 0.095731 0.148659
 19   1.215374 0.000002 0.000000 0.000000 0.000000 0.645758
 20   1.215371 -0.000002 0.000001 0.000000 0.000000 0.645758
 21   4.220534 -0.244854 -0.431465 0.001333 0.026242 0.148339
 22   1.350417 0.000000 0.000001 0.000000 0.000000 0.863926
 23   1.350410 -0.000001 -0.000001 0.000000 0.000000 0.863926
 24   -1.945616 0.839229 -2.696602 -0.708704 1.359884 1.854029
 25   4.640942 0.000000 0.000001 -1.204896 -0.470235 1.409992
 26   10.828047 0.000000 0.000001 0.000000 0.000000 -1.394912
 27   9.393339 0.000000 0.000000 1.700127 0.142560 -0.032782
 28   1.442245 0.107455 1.746178 -1.692678 -0.538000 0.338051
 29   1.063450 -0.000001 0.000000 0.000000 0.000000 0.188425
 30   1.376307 0.000000 0.000000 0.000000 0.000000 0.160165
 31   4.172847 -0.251365 1.312745 -0.008625 -0.095683 0.154790
 32   1.215373 -0.000001 0.000000 0.000000 0.000000 0.678439
 33   1.215372 0.000000 0.000000 0.000000 0.000000 0.613598
 34   4.220534 -0.244853 0.431466 -0.001489 -0.026230 0.154424
 35   1.350416 0.000000 -0.000001 0.000000 0.000000 0.856719
 36   1.350410 0.000000 0.000001 0.000000 0.000000 0.822371
 37   2.110540 -0.000001 0.000000 -0.033860 -0.032738 -0.155646
 38   0.891923 2.373051 -0.014527 -3.141592 -0.000001 1.413797
 39   7.228122 5.709445 3.726568 3.140796 -1.570796 0.000000
 40   2.450426 5.076128 0.001325 3.140791 -1.570796 0.000000
 41   6.312404 -4.528058 0.001311 3.140791 -1.570796 0.000000
 42   2.233309 1.152535 -7.309138 -0.614276 -1.573388 -1.448648
 43   4.262825 -0.232720 -1.392178 0.017811 0.076453 0.266534
time 3
  0   -0.279100 6.434293 38.448387 -0.007382 0.009524 -1.719164
  1   0.117518 0.605487 0.000000 -0.000030 -1.491321 -1.570772
  2   -0.000007 0.000008 4.427393 -0.157718 -3.205058 0.093396
  3   18.465939 0.000000 0.000000 0.000000 0.000000 -0.221507
  4   14.875443 0.000000 -0.000001 -0.036167 -0.019895 0.303154
  5   0.000006 -0.000004 -4.427393 0.086219 3.064358 -0.396864
  6   18.465939 0.000000 0.000000 0.000000 0.000000 -0.479268
  7   14.875442 0.000000 0.000000 -0.043689 -0.033578 0.093724
  8   2.251301 -0.007574 0.175790 0.061300 -0.042055 0.013270
  9   9.514219 -0.009357 0.000000 -0.015622 0.042653 -0.124240
 10   11.751820 -0.001633 0.000000 0.175562 -0.090233 0.670519
 11   -1.508103 1.761119 2.528632 0.959220 -1.260959 1.519925
 12   4.640941 0.000000 -0.000001 0.188721 1.175431 0.198799
 13   10.828049 0.000000 0.000000 0.000000 0.000000 -0.603154
 14   9.393337 -0.000001 0.000000 -1.566932 0.038485 -0.002308
 15   1.442245 0.107454 -1.746177 1.687753 0.540526 0.327855
 16   1.063452 0.000000 0.000001 0.000000 0.000000 0.199056
 17   1.376307 -0.000001 0.000001 0.000000 0.000000 0.199049
 18   4.172846 -0.251366 -1.312744 0.008050 0.096774 0.148659
 19   1.215374 0.000002 0.000000 0.000000 0.000000 0.645758
 20   1.215371 -0.000002 0.000001 0.000000 0.000000 0.643961
 21   4.220534 -0.244854 -0.431465 0.001333 0.026242 0.148339
 22   1.350417 0.000000 0.000001 0.000000 0.000000 0.864906
 23   1.350410 -0.000001 -0.000001 0.000000 0.000000 0.860945
 24   -1.984680 0.839229 -2.665351 -0.578804 1.348628 1.903425
 25   4.640942 0.000000 0.000001 -1.226145 -0.258576 1.561668
 26   10.828047 0.000000 0.000001 0.000000 0.000000 -1.737419
 27   9.393339 0.000000 0.000000 1.758928 0.193768 -0.011832
 28   1.442245 0.107455 1.746178 -1.686405 -0.539236 0.325898
 29   1.063450 -0.000001 0.000000 0.000000 0.000000 0.199056
 30   1.376307 0.000000 0.000000 0.000000 0.000000 0.199059
 31   4.172847 -0.251365 1.312745 -0.008050 -0.095731 0.148659
 32   1.215373 -0.000001 0.000000 0.000000 0.000000 0.645746
 33   1.215372 0.000000 0.000000 0.000000 0.000000 0.645746
 34   4.220534 -0.244853 0.431466 -0.001333 -0.026242 0.148339
 35   1.350416 0.000000 -0.000001 0.000000 0.000000 0.863937
 36   1.350410 0.000000 0.000001 0.000000 0.000000 0.863925
 37   2.110540 -0.000001 0.000000 -0.050409 -0.043492 -0.246257
 38   0.891923 2.373051 -0.014527 -3.141592 -0.000001 1.413797
 39   7.228122 5.709445 3.726568 3.140796 -1.570796 0.000000
 40   2.450426 5.076128 0.001325 3.140791 -1.570796 0.000000
 41   6.312404 -4.528058 0.001311 3.140791 -1.570796 0.000000
 42   2.233309 1.152535 -7.309138 -1.030363 -1.586844 -1.053623
 43   4.262825 -0.232720 -1.392178 0.016840 0.076668 0.253759
time 4
  0   -0.461649 7.039901 38.335102 -0.009971 0.012656 -1.726259
  1   0.129237 0.832057 0.000000 -0.000030 -1.462937 -1.570772
  2   -0.000007 0.000008 4.427393 -0.159341 -3.227386 0.053149
  3   18.465939 0.000000 0.000000 0.000000 0.000000 -0.271951
  4   14.875443 0.000000 -0.000001 -0.042657 -0.017660 0.316348
  5   0.000006 -0.000004 -4.427393 0.073686 3.042454 -0.433269
  6   18.465939 0.000000 0.000000 0.000000 0.000000 -0.510248
  7   14.875442 0.000000 0.000000 -0.050111 -0.037819 0.092749
  8   2.243488 -0.007574 0.242198 0.039731 -0.053320 0.013998
  9   9.514219 -0.009357 0.000000 -0.017245 0.054961 -0.129306
 10   11.751820 -0.001633 0.000000 0.230907 -0.137416 0.685094
 11   -1.355754 1.940812 2.485662 1.067276 -1.201034 1.394132
 12   4.640941 0.000000 -0.000001 0.304055 1.183835 0.355739
 13   10.828049 0.000000 0.000000 0.000000 0.000000 -0.671549
 14   9.393337 -0.000001 0.000000 -1.560141 0.049222 -0.008071
 15   1.442245 0.107454 -1.746177 1.691073 0.543789 0.332781
 16   1.063452 0.000000 0.000001 0.000000 0.000000 0.199056
 17   1.376307 -0.000001 0.000001 0.000000 0.000000 0.199049
 18   4.172846 -0.251366 -1.312744 0.008050 0.099435 0.148699
 19   1.215374 0.000002 0.000000 0.000000 0.000000 0.645758
 20   1.215371 -0.000002 0.000001 0.000000 0.000000 0.639469
 21   4.220534 -0.244854 -0.431465 0.001333 0.026242 0.148339
 22   1.350417 0.000000 0.000001 0.000000 0.000000 0.867398
 23   1.350410 -0.000001 -0.000001 0.000000 0.000000 0.853471
 24   -2.082339 0.737664 -2.626288 -0.293498 1.374795 2.159488
 25   4.640942 0.000000 0.000001 -1.223624 -0.291981 1.566568
 26   10.828047 0.000000 0.000001 0.000000 0.000000 -1.741078
 27   9.393339 0.000000 0.000000 1.814009 0.195882 0.050921
 28   1.442245 0.107455 1.746178 -1.666858 -0.542719 0.287895
 29   1.063450 -0.000001 0.000000 0.000000 0.000000 0.232133
 30   1.376307 0.000000 0.000000 0.000000 0.000000 0.320040
 31   4.172847 -0.251365 1.312745 -0.006228 -0.095863 0.129625
 32   1.215373 -0.000001 0.000000 0.000000 0.000000 0.544057
 33   1.215372 0.000000 0.000000 0.000000 0.000000 0.745756
 34   4.220534 -0.244853 0.431466 -0.000829 -0.026254 0.129361
 35   1.350416 0.000000 -0.000001 0.000000 0.000000 0.886348
 36   1.350410 0.000000 0.000001 0.000000 0.000000 0.993214
 37   2.110540 -0.000001 0.000000 -0.063953 -0.055559 -0.310892
 38   0.891923 2.373051 -0.014527 -3.141592 -0.000001 1.413797
 39   7.228122 5.709445 3.726568 3.140796 -1.570796 0.000000
 40   2.450426 5.076128 0.001325 3.140791 -1.570796 0.000000
 41   6.312404 -4.528058 0.001311 3.140791 -1.570796 0.000000
 42   2.233309 1.152535 -7.309138 -1.085585 -1.606066 -1.019539
 43   4.262825 -0.232720 -1.392178 0.013772 0.077280 0.213999
time 5
  0   -0.461649 7.920785 38.155411 -0.012464 0.015788 -1.733546
  1   0.183927 1.019562 0.000000 -0.000030 -1.431248 -1.570772
  2   -0.000007 0.000008 4.427393 -0.165355 -3.253342 -0.005252
  3   18.465939 0.000000 0.000000 0.000000 0.000000 -0.345643
  4   14.875443 0.000000 -0.000001 -0.048833 -0.012041 0.335192
  5   0.000006 -0.000004 -4.427393 0.056560 3.016543 -0.479220
  6   18.465939 0.000000 0.000000 0.000000 0.000000 -0.541622
  7   14.875442 0.000000 0.000000 -0.056850 -0.040671 0.083107
  8   2.235675 -0.007574 0.312513 0.016524 -0.070291 0.008373
  9   9.514219 -0.009357 0.000000 -0.017258 0.065352 -0.126578
 10   11.751820 -0.001633 0.000000 0.268479 -0.180669 0.683027
 11   -1.234657 2.042378 2.466130 1.159321 -1.155932 1.299600
 12   4.640941 0.000000 -0.000001 0.457703 1.176327 0.555821
 13   10.828049 0.000000 0.000000 0.000000 0.000000 -0.744824
 14   9.393337 -0.000001 0.000000 -1.551418 0.063277 -0.015446
 15   1.442245 0.107454 -1.746177 1.695423 0.547999 0.339205
 16   1.063452 0.000000 0.000001 0.000000 0.000000 0.199056
 17   1.376307 -0.000001 0.000001 0.000000 0.000000 0.199049
 18   4.172846 -0.251366 -1.312744 0.008050 0.102874 0.148739
 19   1.215374 0.000002 0.000000 0.000000 0.000000 0.645758
 20   1.215371 -0.000002 0.000001 0.000000 0.000000 0.633671
 21   4.220534 -0.244854 -0.431465 0.001333 0.026242 0.148339
 22   1.350417 0.000000 0.000001 0.000000 0.000000 0.870624
 23   1.350410 -0.000001 -0.000001 0.000000 0.000000 0.843792
 24   -2.183905 0.659536 -2.563786 0.101865 1.383932 2.538216
 25   4.640942 0.000000 0.000001 -1.216781 -0.458449 1.488735
 26   10.828047 0.000000 0.000001 0.000000 0.000000 -1.561780
 27   9.393339 0.000000 0.000000 1.865019 0.169335 0.133557
 28   1.442245 0.107455 1.746178 -1.639856 -0.546371 0.235782
 29   1.063450 -0.000001 0.000000 0.000000 0.000000 0.277303
 30   1.376307 0.000000 0.000000 0.000000 0.000000 0.485248
 31   4.172847 -0.251365 1.312745 -0.003736 -0.095995 0.103618
 32   1.215373 -0.000001 0.000000 0.000000 0.000000 0.405185
 33   1.215372 0.000000 0.000000 0.000000 0.000000 0.882236
 34   4.220534 -0.244853 0.431466 -0.000158 -0.026266 0.103457
 35   1.350416 0.000000 -0.000001 0.000000 0.000000 0.916943
 36   1.350410 0.000000 0.000001 0.000000 0.000000 1.169735
 37   2.110540 -0.000001 0.000000 -0.071584 -0.059302 -0.347446
 38   0.891923 2.373051 -0.014527 -3.141592 -0.000001 1.413797
 39   7.228122 5.709445 3.726568 3.140796 -1.570796 0.000000
 40   2.450426 5.076128 0.001325 3.140791 -1.570796 0.000000
 41   6.312404 -4.528058 0.001311 3.140791 -1.570796 0.000000
 42   2.233309 1.152535 -7.309138 -1.117894 -1.637929 -1.020305
 43   4.262825 -0.232720 -1.392178 0.009565 0.077903 0.159673
time 6
  0   -0.339950 8.719088 38.003059 -0.015052 0.018920 -1.740545
  1   0.437841 1.058626 0.000000 -0.000030 -1.367854 -1.570772
  2   -0.000007 0.000008 4.427393 -0.168505 -3.315023 -0.021311
  3   18.465939 0.000000 0.000000 0.000000 0.000000 -0.338040
  4   14.875443 0.000000 -0.000001 -0.055920 -0.009168 0.315203
  5   0.000006 -0.000004 -4.427393 0.018386 2.964253 -0.535279
  6   18.465939 0.000000 0.000000 0.000000 0.000000 -0.602796
  7   14.875442 0.000000 0.000000 -0.062184 -0.042554 0.096388
  8   2.212237 -0.007574 0.453142 -0.019725 -0.129075 -0.029479
  9   9.514219 -0.009357 0.000000 -0.009869 0.067857 -0.087026
 10   11.751820 -0.001633 0.000000 0.285401 -0.234695 0.687080
 11   -1.070590 2.108786 2.489568 1.268591 -1.122057 1.180403
 12   4.640941 0.000000 -0.000001 0.582026 1.144230 0.737698
 13   10.828049 0.000000 0.000000 0.000000 0.000000 -0.819015
 14   9.393337 -0.000001 0.000000 -1.542758 0.077392 -0.022675
 15   1.442245 0.107454 -1.746177 1.699810 0.552185 0.345670
 16   1.063452 0.000000 0.000001 0.000000 0.000000 0.199056
 17   1.376307 -0.000001 0.000001 0.000000 0.000000 0.199049
 18   4.172846 -0.251366 -1.312744 0.008050 0.106326 0.148739
 19   1.215374 0.000002 0.000000 0.000000 0.000000 0.645758
 20   1.215371 -0.000002 0.000001 0.000000 0.000000 0.627832
 21   4.220534 -0.244854 -0.431465 0.001333 0.026242 0.148339
 22   1.350417 0.000000 0.000001 0.000000 0.000000 0.873850
 23   1.350410 -0.000001 -0.000001 0.000000 0.000000 0.834072
 24   -2.297189 0.655630 -2.462220 0.444812 1.350601 2.855783
 25   4.640942 0.000000 0.000001 -1.217759 -0.648488 1.381785
 26   10.828047 0.000000 0.000001 0.000000 0.000000 -1.347052
 27   9.393339 0.000000 0.000000 1.904521 0.123366 0.218520
 28   1.442245 0.107455 1.746178 -1.610945 -0.548955 0.180271
 29   1.063450 -0.000001 0.000000 0.000000 0.000000 0.325205
 30   1.376307 0.000000 0.000000 0.000000 0.000000 0.660483
 31   4.172847 -0.251365 1.312745 -0.001087 -0.096055 0.076009
 32   1.215373 -0.000001 0.000000 0.000000 0.000000 0.257877
 33   1.215372 0.000000 0.000000 0.000000 0.000000 1.027067
 34   4.220534 -0.244853 0.431466 0.000573 -0.026254 0.075991
 35   1.350416 0.000000 -0.000001 0.000000 0.000000 0.949384
 36   1.350410 0.000000 0.000001 0.000000 0.000000 1.356990
 37   2.110540 -0.000001 0.000000 -0.066815 -0.036872 -0.373851
 38   0.891923 2.373051 -0.014527 -3.141592 -0.000001 1.413797
 39   7.228122 5.709445 3.726568 3.140796 -1.570796 0.000000
 40   2.450426 5.076128 0.001325 3.140791 -1.570796 0.000000
 41   6.312404 -4.528058 0.001311 3.140791 -1.570796 0.000000
 42   2.233309 1.152535 -7.309138 -1.161037 -1.707887 -1.050847
 43   4.262825 -0.232720 -1.392178 0.005071 0.078334 0.102083
time 7
  0   -0.157401 9.104474 37.948372 -0.017641 0.021988 -1.747065
  1   0.633159 1.023469 0.000000 -0.000030 -1.309132 -1.570772
  2   -0.000007 0.000008 4.427393 -0.166023 -3.377448 -0.003407
  3   18.465939 0.000000 0.000000 0.000000 0.000000 -0.276630
  4   14.875443 0.000000 -0.000001 -0.062011 -0.006571 0.275304
  5   0.000006 -0.000004 -4.427393 -0.020363 2.915971 -0.575614
  6   18.465939 0.000000 0.000000 0.000000 0.000000 -0.649266
  7   14.875442 0.000000 0.000000 -0.067624 -0.040804 0.112296
  8   2.180986 -0.007574 0.582052 -0.037219 -0.189825 -0.065280
  9   9.514219 -0.009357 0.000000 -0.000409 0.065963 -0.041392
 10   11.751820 -0.001633 0.000000 0.293359 -0.294283 0.684906
 11   -0.890897 2.140037 2.528632 1.384767 -1.088692 1.060244
 12   4.640941 0.000000 -0.000001 0.661110 1.109997 0.855067
 13   10.828049 0.000000 0.000000 0.000000 0.000000 -0.889850
 14   9.393337 -0.000001 0.000000 -1.536216 0.088280 -0.028194
 15   1.442245 0.107454 -1.746177 1.703225 0.555399 0.350678
 16   1.063452 0.000000 0.000001 0.000000 0.000000 0.199056
 17   1.376307 -0.000001 0.000001 0.000000 0.000000 0.199049
 18   4.172846 -0.251366 -1.312744 0.008050 0.108974 0.148779
 19   1.215374 0.000002 0.000000 0.000000 0.000000 0.645758
 20   1.215371 -0.000002 0.000001 0.000000 0.000000 0.623381
 21   4.220534 -0.244854 -0.431465 0.001333 0.026242 0.148339
 22   1.350417 0.000000 0.000001 0.000000 0.000000 0.876341
 23   1.350410 -0.000001 -0.000001 0.000000 0.000000 0.826640
 24   -2.426100 0.675162 -2.329404 0.605749 1.290668 2.997780
 25   4.640942 0.000000 0.000001 -1.229747 -0.752051 1.331039
 26   10.828047 0.000000 0.000001 0.000000 0.000000 -1.244422
 27   9.393339 0.000000 0.000000 1.928091 0.069588 0.290778
 28   1.442245 0.107455 1.746178 -1.585943 -0.550079 0.132381
 29   1.063450 -0.000001 0.000000 0.000000 0.000000 0.366516
 30   1.376307 0.000000 0.000000 0.000000 0.000000 0.811565
 31   4.172847 -0.251365 1.312745 0.001190 -0.096055 0.052246
 32   1.215373 -0.000001 0.000000 0.000000 0.000000 0.130882
 33   1.215372 0.000000 0.000000 0.000000 0.000000 1.151880
 34   4.220534 -0.244853 0.431466 0.001184 -0.026242 0.052329
 35   1.350416 0.000000 -0.000001 0.000000 0.000000 0.977377
 36   1.350410 0.000000 0.000001 0.000000 0.000000 1.518434
 37   2.110540 -0.000001 0.000000 -0.079166 0.002346 -0.399008
 38   0.891923 2.373051 -0.014527 -3.141592 -0.000001 1.413797
 39   7.228122 5.709445 3.726568 3.140796 -1.570796 0.000000
 40   2.450426 5.076128 0.001325 3.140791 -1.570796 0.000000
 41   6.312404 -4.528058 0.001311 3.140791 -1.570796 0.000000
 42   2.233309 1.152535 -7.309138 -1.190949 -1.755069 -1.079473
 43   4.262825 -0.232720 -1.392178 0.001188 0.078478 0.052453
time 8
  0   0.248263 8.691560 38.112438 -0.020229 0.025120 -1.752721
  1   0.375339 1.089877 0.000000 -0.000030 -1.453667 -1.570772
  2   -0.000007 0.000008 4.427393 -0.174901 -3.239108 -0.069339
  3   18.465939 0.000000 0.000000 0.000000 0.000000 -0.430448
  4   14.875443 0.000000 -0.000001 -0.065113 0.012733 0.368848
  5   0.000006 -0.000004 -4.427393 0.063162 3.033134 -0.484835
  6   18.465939 0.000000 0.000000 0.000000 0.000000 -0.484256
  7   14.875442 0.000000 0.000000 -0.074714 -0.027987 0.027168
  8   2.239582 -0.007574 0.261730 -0.002860 -0.043385 -0.040530
  9   9.514219 -0.009357 0.000000 0.002520 0.073262 -0.043686
 10   11.751820 -0.001633 0.000000 0.291873 -0.334719 0.670841
 11   -0.785425 2.124412 2.579414 1.473018 -1.069448 0.982680
 12   4.640941 0.000000 -0.000001 0.726047 1.100216 0.883633
 13   10.828049 0.000000 0.000000 0.000000 0.000000 -0.953364
 14   9.393337 -0.000001 0.000000 -1.533599 0.092653 -0.030392
 15   1.442245 0.107454 -1.746177 1.704592 0.556679 0.352690
 16   1.063452 0.000000 0.000001 0.000000 0.000000 0.199056
 17   1.376307 -0.000001 0.000001 0.000000 0.000000 0.199049
 18   4.172846 -0.251366 -1.312744 0.008062 0.110041 0.148779
 19   1.215374 0.000002 0.000000 0.000000 0.000000 0.645758
 20   1.215371 -0.000002 0.000001 0.000000 0.000000 0.621584
 21   4.220534 -0.244854 -0.431465 0.001333 0.026242 0.148339
 22   1.350417 0.000000 0.000001 0.000000 0.000000 0.877362
 23   1.350410 -0.000001 -0.000001 0.000000 0.000000 0.823658
 24   -2.523759 0.686881 -2.220025 0.524973 1.223882 2.915774
 25   4.640942 0.000000 0.000001 -1.255472 -0.272664 1.508543
 26   10.828047 0.000000 0.000001 0.000000 0.000000 -1.750488
 27   9.393339 0.000000 0.000000 1.854114 -0.048735 0.312116
 28   1.442245 0.107455 1.746178 -1.581761 -0.550135 0.124296
 29   1.063450 -0.000001 0.000000 0.000000 0.000000 0.373491
 30   1.376307 0.000000 0.000000 0.000000 0.000000 0.837084
 31   4.172847 -0.251365 1.312745 0.001574 -0.096055 0.048239
 32   1.215373 -0.000001 0.000000 0.000000 0.000000 0.109436
 33   1.215372 0.000000 0.000000 0.000000 0.000000 1.172990
 34   4.220534 -0.244853 0.431466 0.001280 -0.026242 0.048365
 35   1.350416 0.000000 -0.000001 0.000000 0.000000 0.982077
 36   1.350410 0.000000 0.000001 0.000000 0.000000 1.545676
 37   2.110540 -0.000001 0.000000 -0.149653 0.039665 -0.409544
 38   0.891923 2.373051 -0.014527 -3.141592 -0.000001 1.413797
 39   7.228122 5.709445 3.726568 3.140796 -1.570796 0.000000
 40   2.450426 5.076128 0.001325 3.140791 -1.570796 0.000000
 41   6.312404 -4.528058 0.001311 3.140791 -1.570796 0.000000
 42   2.233309 1.152535 -7.309138 -1.123646 -1.628463 -1.062623
 43   4.262825 -0.232720 -1.392178 0.000541 0.078478 0.044095
time 9
  0   0.816192 7.755620 38.401512 -0.022818 0.028252 -1.757227
  1   0.031578 1.078158 0.000000 -0.000030 -1.466142 -1.570772
  2   -0.000007 0.000008 4.427393 -0.171751 -3.254551 -0.010339
  3   18.465939 0.000000 0.000000 0.000000 0.000000 -0.321298
  4   14.875443 0.000000 -0.000001 -0.066451 0.032102 0.325790
  5   0.000006 -0.000004 -4.427393 0.068137 3.028100 -0.441130
  6   18.465939 0.000000 0.000000 0.000000 0.000000 -0.416125
  7   14.875442 0.000000 0.000000 -0.082295 -0.005660 0.003495
  8   2.243488 -0.007574 0.234385 0.036980 -0.031197 -0.008336
  9   9.514219 -0.009357 0.000000 0.004182 0.069487 -0.046760
 10   11.751820 -0.001633 0.000000 0.279505 -0.331830 0.639168
 11   -0.832301 2.042378 2.630197 1.510352 -1.083698 0.979383
 12   4.640941 0.000000 -0.000001 0.723689 1.106002 0.839671
 13   10.828049 0.000000 0.000000 0.000000 0.000000 -1.005408
 14   9.393337 -0.000001 0.000000 -1.536839 0.087194 -0.027657
 15   1.442245 0.107454 -1.746177 1.702878 0.555079 0.350165
 16   1.063452 0.000000 0.000001 0.000000 0.000000 0.199056
 17   1.376307 -0.000001 0.000001 0.000000 0.000000 0.199049
 18   4.172846 -0.251366 -1.312744 0.008050 0.108711 0.148779
 19   1.215374 0.000002 0.000000 0.000000 0.000000 0.645758
 20   1.215371 -0.000002 0.000001 0.000000 0.000000 0.623830
 21   4.220534 -0.244854 -0.431465 0.001333 0.026242 0.148339
 22   1.350417 0.000000 0.000001 0.000000 0.000000 0.876096
 23   1.350410 -0.000001 -0.000001 0.000000 0.000000 0.827375
 24   -2.555010 0.659536 -2.188774 0.452055 1.176886 2.872226
 25   4.640942 0.000000 0.000001 -1.135591 0.118503 1.505953
 26   10.828047 0.000000 0.000001 0.000000 0.000000 -2.175181
 27   9.393339 0.000000 0.000000 1.794560 -0.133776 0.317839
 28   1.442245 0.107455 1.746178 -1.585943 -0.550079 0.132381
 29   1.063450 -0.000001 0.000000 0.000000 0.000000 0.366516
 30   1.376307 0.000000 0.000000 0.000000 0.000000 0.811565
 31   4.172847 -0.251365 1.312745 0.001190 -0.096055 0.052246
 32   1.215373 -0.000001 0.000000 0.000000 0.000000 0.130882
 33   1.215372 0.000000 0.000000 0.000000 0.000000 1.151880
 34   4.220534 -0.244853 0.431466 0.001184 -0.026242 0.052329
 35   1.350416 0.000000 -0.000001 0.000000 0.000000 0.977377
 36   1.350410 0.000000 0.000001 0.000000 0.000000 1.518434
 37   2.110540 -0.000001 0.000000 -0.192527 0.068799 -0.403610
 38   0.891923 2.373051 -0.014527 -3.141592 -0.000001 1.413797
 39   7.228122 5.709445 3.726568 3.140796 -1.570796 0.000000
 40   2.450426 5.076128 0.001325 3.140791 -1.570796 0.000000
 41   6.312404 -4.528058 0.001311 3.140791 -1.570796 0.000000
 42   2.233309 1.152535 -7.309138 -1.065931 -1.626687 -1.056399
 43   4.262825 -0.232720 -1.392178 0.001188 0.078478 0.052453
time 10
  0   1.161006 6.874735 38.592922 -0.025407 0.031384 -1.760391
  1   -0.167647 0.960967 0.000000 -0.000030 -1.475225 -1.570772
  2   -0.000007 0.000008 4.427393 -0.164305 -3.265250 0.059832
  3   18.465939 0.000000 0.000000 0.000000 0.000000 -0.194238
  4   14.875443 0.000000 -0.000001 -0.068500 0.041850 0.274277
  5   0.000006 -0.000004 -4.427393 0.073495 3.027821 -0.407720
  6   18.465939 0.000000 0.000000 0.000000 0.000000 -0.376678
  7   14.875442 0.000000 0.000000 -0.087454 0.008109 -0.000970
  8   2.247394 -0.007574 0.214853 0.029944 -0.023970 0.002914
  9   9.514219 -0.009357 0.000000 0.006848 0.045769 -0.026303
 10   11.751820 -0.001633 0.000000 0.254613 -0.285570 0.590235
 11   -1.031526 1.882217 2.673167 1.490167 -1.134287 1.055847
 12   4.640941 0.000000 -0.000001 0.622992 1.122395 0.730674
 13   10.828049 0.000000 0.000000 0.000000 0.000000 -1.041893
 14   9.393337 -0.000001 0.000000 -1.548054 0.068706 -0.018230
 15   1.442245 0.107454 -1.746177 1.697101 0.549624 0.341689
 16   1.063452 0.000000 0.000001 0.000000 0.000000 0.199056
 17   1.376307 -0.000001 0.000001 0.000000 0.000000 0.199049
 18   4.172846 -0.251366 -1.312744 0.008050 0.104205 0.148739
 19   1.215374 0.000002 0.000000 0.000000 0.000000 0.645758
 20   1.215371 -0.000002 0.000001 0.000000 0.000000 0.631425
 21   4.220534 -0.244854 -0.431465 0.001333 0.026242 0.148339
 22   1.350417 0.000000 0.000001 0.000000 0.000000 0.871890
 23   1.350410 -0.000001 -0.000001 0.000000 0.000000 0.840035
 24   -2.519853 0.600941 -2.247370 0.482346 1.169286 2.962556
 25   4.640942 0.000000 0.000001 -1.084756 -0.165265 1.157175
 26   10.828047 0.000000 0.000001 0.000000 0.000000 -1.976425
 27   9.393339 0.000000 0.000000 1.846977 -0.102740 0.320603
 28   1.442245 0.107455 1.746178 -1.642129 -0.549798 0.217708
 29   1.063450 -0.000001 0.000000 0.000000 0.000000 0.365821
 30   1.376307 0.000000 0.000000 0.000000 0.000000 0.809031
 31   4.172847 -0.251365 1.312745 0.001154 -0.096055 0.052607
 32   1.215373 -0.000001 0.000000 0.000000 0.000000 0.133023
 33   1.215372 0.000000 0.000000 0.000000 0.000000 1.149824
 34   4.220534 -0.244853 0.431466 0.001184 -0.026242 0.052689
 35   1.350416 0.000000 -0.000001 0.000000 0.000000 0.976873
 36   1.350410 0.000000 0.000001 0.000000 0.000000 1.515715
 37   2.110540 -0.000001 0.000000 -0.162911 0.090615 -0.378968
 38   0.891923 2.373051 -0.014527 -3.141592 -0.000001 1.413797
 39   7.228122 5.709445 3.726568 3.140796 -1.570796 0.000000
 40   2.450426 5.076128 0.001325 3.140791 -1.570796 0.000000
 41   6.312404 -4.528058 0.001311 3.140791 -1.570796 0.000000
 42   2.233309 1.152535 -7.309138 -1.046565 -1.641569 -1.033709
 43   4.262825 -0.232720 -1.392178 0.001248 0.078478 0.053249
time 11
  0   1.282705 6.241599 38.616360 -0.027899 0.034580 -1.761638
  1   -0.351246 0.820338 0.000000 -0.000030 -1.484049 -1.570772
  2   -0.000007 0.000008 4.427393 -0.160677 -3.260413 0.088559
  3   18.465939 0.000000 0.000000 0.000000 0.000000 -0.148692
  4   14.875443 0.000000 -0.000001 -0.070464 0.043084 0.261123
  5   0.000006 -0.000004 -4.427393 0.077896 3.035650 -0.397051
  6   18.465939 0.000000 0.000000 0.000000 0.000000 -0.373659
  7   14.875442 0.000000 0.000000 -0.088822 0.011970 0.009085
  8   2.247394 -0.007574 0.191415 0.015621 -0.017139 0.011682
  9   9.514219 -0.009357 0.000000 0.008946 0.018157 -0.002425
 10   11.751820 -0.001633 0.000000 0.217724 -0.217485 0.530056
 11   -1.301065 1.659554 2.704418 1.408897 -1.204994 1.205685
 12   4.640941 0.000000 -0.000001 0.419537 1.152977 0.502610
 13   10.828049 0.000000 0.000000 0.000000 0.000000 -1.058671
 14   9.393337 -0.000001 0.000000 -1.569611 0.034172 0.000037
 15   1.442245 0.107454 -1.746177 1.686435 0.539209 0.325885
 16   1.063452 0.000000 0.000001 0.000000 0.000000 0.199056
 17   1.376307 -0.000001 0.000001 0.000000 0.000000 0.199049
 18   4.172846 -0.251366 -1.312744 0.008050 0.095731 0.148659
 19   1.215374 0.000002 0.000000 0.000000 0.000000 0.645758
 20   1.215371 -0.000002 0.000001 0.000000 0.000000 0.645758
 21   4.220534 -0.244854 -0.431465 0.001333 0.026242 0.148339
 22   1.350417 0.000000 0.000001 0.000000 0.000000 0.863926
 23   1.350410 -0.000001 -0.000001 0.000000 0.000000 0.863926
 24   -2.441725 0.542345 -2.348936 0.491785 1.183324 3.049585
 25   4.640942 0.000000 0.000001 -0.927521 -0.477278 0.729024
 26   10.828047 0.000000 0.000001 0.000000 0.000000 -1.728300
 27   9.393339 0.000000 0.000000 1.908290 -0.062724 0.325307
 28   1.442245 0.107455 1.746178 -1.702042 -0.544967 0.308853
 29   1.063450 -0.000001 0.000000 0.000000 0.000000 0.365630
 30   1.376307 0.000000 0.000000 0.000000 0.000000 0.808326
 31   4.172847 -0.251365 1.312745 0.001142 -0.096055 0.052727
 32   1.215373 -0.000001 0.000000 0.000000 0.000000 0.133610
 33   1.215372 0.000000 0.000000 0.000000 0.000000 1.149236
 34   4.220534 -0.244853 0.431466 0.001172 -0.026242 0.052809
 35   1.350416 0.000000 -0.000001 0.000000 0.000000 0.976748
 36   1.350410 0.000000 0.000001 0.000000 0.000000 1.514952
 37   2.110540 -0.000001 0.000000 -0.112454 0.107375 -0.335319
 38   0.891923 2.373051 -0.014527 -3.141592 -0.000001 1.413797
 39   7.228122 5.709445 3.726568 3.140796 -1.570796 0.000000
 40   2.450426 5.076128 0.001325 3.140791 -1.570796 0.000000
 41   6.312404 -4.528058 0.001311 3.140791 -1.570796 0.000000
 42   2.233309 1.152535 -7.309138 -1.043018 -1.635482 -1.022890
 43   4.262825 -0.232720 -1.392178 0.001260 0.078478 0.053488
time 12
  0   1.323272 5.691046 38.592922 -0.030392 0.037840 -1.760871
  1   -0.534845 0.675802 0.000000 -0.000030 -1.492701 -1.570772
  2   -0.000007 0.000008 4.427393 -0.159150 -3.249528 0.099631
  3   18.465939 0.000000 0.000000 0.000000 0.000000 -0.141966
  4   14.875443 0.000000 -0.000001 -0.071033 0.041105 0.268510
  5   0.000006 -0.000004 -4.427393 0.081818 3.045531 -0.393776
  6   18.465939 0.000000 0.000000 0.000000 0.000000 -0.386195
  7   14.875442 0.000000 0.000000 -0.087629 0.013130 0.027656
  8   2.251301 -0.007574 0.175790 -0.003574 -0.010488 0.018829
  9   9.514219 -0.009357 0.000000 0.010265 -0.012068 0.023705
 10   11.751820 -0.001633 0.000000 0.169222 -0.136194 0.460831
 11   -1.605762 1.374389 2.700512 1.191647 -1.281156 1.499177
 12   4.640941 0.000000 -0.000001 -0.117101 1.166064 -0.135335
 13   10.828049 0.000000 0.000000 0.000000 0.000000 -1.013461
 14   9.393337 -0.000001 0.000000 -1.626495 -0.050610 0.049172
 15   1.442245 0.107454 -1.746177 1.660764 0.512455 0.287217
 16   1.063452 0.000000 0.000001 0.000000 0.000000 0.199056
 17   1.376307 -0.000001 0.000001 0.000000 0.000000 0.199049
 18   4.172846 -0.251366 -1.312744 0.008026 0.074423 0.148499
 19   1.215374 0.000002 0.000000 0.000000 0.000000 0.645758
 20   1.215371 -0.000002 0.000001 0.000000 0.000000 0.681732
 21   4.220534 -0.244854 -0.431465 0.001333 0.026242 0.148339
 22   1.350417 0.000000 0.000001 0.000000 0.000000 0.843956
 23   1.350410 -0.000001 -0.000001 0.000000 0.000000 0.923879
 24   -2.324534 0.491562 -2.473939 0.496438 1.215886 3.141085
 25   4.640942 0.000000 0.000001 -0.572557 -0.739498 0.131628
 26   10.828047 0.000000 0.000001 0.000000 0.000000 -1.447185
 27   9.393339 0.000000 0.000000 1.975584 -0.016982 0.333018
 28   1.442245 0.107455 1.746178 -1.763592 -0.534966 0.403140
 29   1.063450 -0.000001 0.000000 0.000000 0.000000 0.365761
 30   1.376307 0.000000 0.000000 0.000000 0.000000 0.808833
 31   4.172847 -0.251365 1.312745 0.001154 -0.096055 0.052647
 32   1.215373 -0.000001 0.000000 0.000000 0.000000 0.133190
 33   1.215372 0.000000 0.000000 0.000000 0.000000 1.149656
 34   4.220534 -0.244853 0.431466 0.001184 -0.026242 0.052729
 35   1.350416 0.000000 -0.000001 0.000000 0.000000 0.976873
 36   1.350410 0.000000 0.000001 0.000000 0.000000 1.515476
 37   2.110540 -0.000001 0.000000 -0.048024 0.118660 -0.276016
 38   0.891923 2.373051 -0.014527 -3.141592 -0.000001 1.413797
 39   7.228122 5.709445 3.726568 3.140796 -1.570796 0.000000
 40   2.450426 5.076128 0.001325 3.140791 -1.570796 0.000000
 41   6.312404 -4.528058 0.001311 3.140791 -1.570796 0.000000
 42   2.233309 1.152535 -7.309138 -1.047524 -1.626920 -1.011402
 43   4.262825 -0.232720 -1.392178 0.001248 0.078478 0.053329
time 13
  0   1.282705 5.112966 38.534328 -0.032693 0.041164 -1.757707
  1   -0.718445 0.531266 0.000000 -0.000030 -1.501266 -1.570772
  2   -0.000007 0.000008 4.427393 -0.158959 -3.234829 0.098733
  3   18.465939 0.000000 0.000000 0.000000 0.000000 -0.161193
  4   14.875443 0.000000 -0.000001 -0.069553 0.037104 0.289644
  5   0.000006 -0.000004 -4.427393 0.085645 3.056249 -0.394056
  6   18.465939 0.000000 0.000000 0.000000 0.000000 -0.406346
  7   14.875442 0.000000 0.000000 -0.083839 0.012978 0.050504
  8   2.251301 -0.007574 0.156258 -0.025206 -0.003860 0.025182
  9   9.514219 -0.009357 0.000000 0.010687 -0.043612 0.051003
 10   11.751820 -0.001633 0.000000 0.110414 -0.050300 0.384546
 11   -1.914365 1.046254 2.649729 0.748800 -1.325988 2.020276
 12   4.640941 0.000000 -0.000001 -0.691316 0.958740 -0.925537
 13   10.828049 0.000000 0.000000 0.000000 0.000000 -0.895708
 14   9.393337 -0.000001 0.000000 -1.734779 -0.188142 0.145439
 15   1.442245 0.107454 -1.746177 1.620496 0.464871 0.224208
 16   1.063452 0.000000 0.000001 0.000000 0.000000 0.199056
 17   1.376307 -0.000001 0.000001 0.000000 0.000000 0.199049
 18   4.172846 -0.251366 -1.312744 0.008014 0.038002 0.148178
 19   1.215374 0.000002 0.000000 0.000000 0.000000 0.645758
 20   1.215371 -0.000002 0.000001 0.000000 0.000000 0.743187
 21   4.220534 -0.244854 -0.431465 0.001333 0.026242 0.148339
 22   1.350417 0.000000 0.000001 0.000000 0.000000 0.809814
 23   1.350410 -0.000001 -0.000001 0.000000 0.000000 1.026264
 24   -2.176092 0.460311 -2.610662 0.511496 1.261844 3.244968
 25   4.640942 0.000000 0.000001 0.008227 -0.797311 -0.669099
 26   10.828047 0.000000 0.000001 0.000000 0.000000 -1.149633
 27   9.393339 0.000000 0.000000 2.046195 0.031134 0.344220
 28   1.442245 0.107455 1.746178 -1.824688 -0.519685 0.497787
 29   1.063450 -0.000001 0.000000 0.000000 0.000000 0.366073
 30   1.376307 0.000000 0.000000 0.000000 0.000000 0.809957
 31   4.172847 -0.251365 1.312745 0.001166 -0.096055 0.052486
 32   1.215373 -0.000001 0.000000 0.000000 0.000000 0.132225
 33   1.215372 0.000000 0.000000 0.000000 0.000000 1.150537
 34   4.220534 -0.244853 0.431466 0.001184 -0.026242 0.052569
 35   1.350416 0.000000 -0.000001 0.000000 0.000000 0.977083
 36   1.350410 0.000000 0.000001 0.000000 0.000000 1.516669
 37   2.110540 -0.000001 0.000000 0.022939 0.124163 -0.205445
 38   0.891923 2.373051 -0.014527 -3.141592 -0.000001 1.413797
 39   7.228122 5.709445 3.726568 3.140796 -1.570796 0.000000
 40   2.450426 5.076128 0.001325 3.140791 -1.570796 0.000000
 41   6.312404 -4.528058 0.001311 3.140791 -1.570796 0.000000
 42   2.233309 1.152535 -7.309138 -1.059987 -1.616988 -0.996370
 43   4.262825 -0.232720 -1.392178 0.001224 0.078478 0.052970
time 14
  0   1.242139 4.562413 38.467918 -0.033460 0.045958 -1.710056
  1   -0.909857 0.390637 0.000000 -0.000030 -1.509817 -1.570772
  2   -0.000007 0.000008 4.427393 -0.159341 -3.208500 0.080380
  3   18.465939 0.000000 0.000000 0.000000 0.000000 -0.208055
  4   14.875443 0.000000 -0.000001 -0.025295 0.023631 0.320654
  5   0.000006 -0.000004 -4.427393 0.088229 3.059605 -0.393776
  6   18.465939 0.000000 0.000000 0.000000 0.000000 -0.436407
  7   14.875442 0.000000 0.000000 -0.036950 0.018778 0.084908
  8   2.251301 -0.007574 0.136726 -0.046712 0.002887 0.031567
  9   9.514219 -0.009357 0.000000 0.010252 -0.075167 0.078345
 10   11.751820 -0.001633 0.000000 0.044019 0.031806 0.303645
 11   -2.179998 0.690774 2.555976 0.236900 -1.299525 2.607260
 12   4.640941 0.000000 -0.000001 -0.844915 0.599401 -1.395772
 13   10.828049 0.000000 0.000000 0.000000 0.000000 -0.748912
 14   9.393337 -0.000001 0.000000 -1.882752 -0.333034 0.280926
 15   1.442245 0.107454 -1.746177 1.578909 0.406772 0.155246
 16   1.063452 0.000000 0.000001 0.000000 0.000000 0.199056
 17   1.376307 -0.000001 0.000001 0.000000 0.000000 0.199049
 18   4.172846 -0.251366 -1.312744 0.008002 -0.004460 0.147858
 19   1.215374 0.000002 0.000000 0.000000 0.000000 0.645758
 20   1.215371 -0.000002 0.000001 0.000000 0.000000 0.814810
 21   4.220534 -0.244854 -0.431465 0.001333 0.026242 0.148339
 22   1.350417 0.000000 0.000001 0.000000 0.000000 0.769995
 23   1.350410 -0.000001 -0.000001 0.000000 0.000000 1.145679
 24   -2.015931 0.460311 -2.735666 0.555966 1.313906 3.373756
 25   4.640942 0.000000 0.000001 0.489761 -0.577005 -1.357837
 26   10.828047 0.000000 0.000001 0.000000 0.000000 -0.852080
 27   9.393339 0.000000 0.000000 2.117609 0.078340 0.358817
 28   1.442245 0.107455 1.746178 -1.883237 -0.499573 0.590272
 29   1.063450 -0.000001 0.000000 0.000000 0.000000 0.366373
 30   1.376307 0.000000 0.000000 0.000000 0.000000 0.811059
 31   4.172847 -0.251365 1.312745 0.001190 -0.096055 0.052286
 32   1.215373 -0.000001 0.000000 0.000000 0.000000 0.131302
 33   1.215372 0.000000 0.000000 0.000000 0.000000 1.151460
 34   4.220534 -0.244853 0.431466 0.001184 -0.026242 0.052369
 35   1.350416 0.000000 -0.000001 0.000000 0.000000 0.977251
 36   1.350410 0.000000 0.000001 0.000000 0.000000 1.517862
 37   2.110540 -0.000001 0.000000 0.093044 0.124889 -0.129328
 38   0.891923 2.373051 -0.014527 -3.141592 -0.000001 1.413797
 39   7.228122 5.709445 3.726568 3.140796 -1.570796 0.000000
 40   2.450426 5.076128 0.001325 3.140791 -1.570796 0.000000
 41   6.312404 -4.528058 0.001311 3.140791 -1.570796 0.000000
 42   2.233309 1.152535 -7.309138 -1.081750 -1.606707 -0.973105
 43   4.262825 -0.232720 -1.392178 0.001200 0.078478 0.052612
time 15
  0   1.242139 4.011860 38.409325 -0.032789 0.051710 -1.633642
  1   -1.105175 0.261727 0.000000 -0.000030 -1.518469 -1.570772
  2   -0.000007 0.000008 4.427393 -0.158768 -3.176311 0.060131
  3   18.465939 0.000000 0.000000 0.000000 0.000000 -0.249361
  4   14.875443 0.000000 -0.000001 0.046828 0.003730 0.344277
  5   0.000006 -0.000004 -4.427393 0.090429 3.059698 -0.388067
  6   18.465939 0.000000 0.000000 0.000000 0.000000 -0.464631
  7   14.875442 0.000000 0.000000 0.038121 0.027184 0.123363
  8   2.255207 -0.007574 0.117194 -0.065613 0.009934 0.038847
  9   9.514219 -0.009357 0.000000 0.009117 -0.105404 0.104605
 10   11.751820 -0.001633 0.000000 -0.025347 0.102407 0.222100
 11   -2.398755 0.347014 2.427066 -0.087951 -1.222806 3.000712
 12   4.640941 0.000000 -0.000001 -0.792062 0.274226 -1.729730
 13   10.828049 0.000000 0.000000 0.000000 0.000000 -0.616638
 14   9.393337 -0.000001 0.000000 -2.045739 -0.447161 0.433411
 15   1.442245 0.107454 -1.746177 1.545041 0.350655 0.094987
 16   1.063452 0.000000 0.000001 0.000000 0.000000 0.199056
 17   1.376307 -0.000001 0.000001 0.000000 0.000000 0.199049
 18   4.172846 -0.251366 -1.312744 0.008014 -0.043889 0.147537
 19   1.215374 0.000002 0.000000 0.000000 0.000000 0.645758
 20   1.215371 -0.000002 0.000001 0.000000 0.000000 0.881369
 21   4.220534 -0.244854 -0.431465 0.001333 0.026242 0.148339
 22   1.350417 0.000000 0.000001 0.000000 0.000000 0.733035
 23   1.350410 -0.000001 -0.000001 0.000000 0.000000 1.256600
 24   -1.859676 0.479843 -2.841138 0.655180 1.362210 3.547813
 25   4.640942 0.000000 0.000001 0.723248 -0.212130 -1.799777
 26   10.828047 0.000000 0.000001 0.000000 0.000000 -0.570965
 27   9.393339 0.000000 0.000000 2.186863 0.121479 0.376033
 28   1.442245 0.107455 1.746178 -1.937605 -0.475472 0.678379
 29   1.063450 -0.000001 0.000000 0.000000 0.000000 0.366516
 30   1.376307 0.000000 0.000000 0.000000 0.000000 0.811565
 31   4.172847 -0.251365 1.312745 0.001190 -0.096055 0.052246
 32   1.215373 -0.000001 0.000000 0.000000 0.000000 0.130882
 33   1.215372 0.000000 0.000000 0.000000 0.000000 1.151880
 34   4.220534 -0.244853 0.431466 0.001184 -0.026242 0.052329
 35   1.350416 0.000000 -0.000001 0.000000 0.000000 0.977377
 36   1.350410 0.000000 0.000001 0.000000 0.000000 1.518434
 37   2.110540 -0.000001 0.000000 0.155328 0.123827 -0.054457
 38   0.891923 2.373051 -0.014527 -3.141592 -0.000001 1.413797
 39   7.228122 5.709445 3.726568 3.140796 -1.570796 0.000000
 40   2.450426 5.076128 0.001325 3.140791 -1.570796 0.000000
 41   6.312404 -4.528058 0.001311 3.140791 -1.570796 0.000000
 42   2.233309 1.152535 -7.309138 -1.116073 -1.597154 -0.935096
 43   4.262825 -0.232720 -1.392178 0.001188 0.078478 0.052453
end
