version 1
nodes
  0 "Bip01" -1
  1 "Bip01 Pelvis" 0
  2 "Bip01 L Thigh" 1
  3 "Bip01 L Calf" 2
  4 "Bip01 L Foot" 3
  5 "Bip01 R Thigh" 1
  6 "Bip01 R Calf" 5
  7 "Bip01 R Foot" 6
  8 "Bip01 Spine" 1
  9 "Bip01 Spine1" 8
 10 "Bip01 Neck" 9
 11 "Bip01 L Clavicle" 10
 12 "Bip01 L UpperArm" 11
 13 "Bip01 L Forearm" 12
 14 "Bip01 L Hand" 13
 15 "Bip01 L Finger0" 14
 16 "Bip01 L Finger01" 15
 17 "Bip01 L Finger02" 16
 18 "Bip01 L Finger1" 14
 19 "Bip01 L Finger11" 18
 20 "Bip01 L Finger12" 19
 21 "Bip01 L Finger2" 14
 22 "Bip01 L Finger21" 21
 23 "Bip01 L Finger22" 22
 24 "Bip01 R Clavicle" 10
 25 "Bip01 R UpperArm" 24
 26 "Bip01 R Forearm" 25
 27 "Bip01 R Hand" 26
 28 "Bip01 R Finger0" 27
 29 "Bip01 R Finger01" 28
 30 "Bip01 R Finger02" 29
 31 "Bip01 R Finger1" 27
 32 "Bip01 R Finger11" 31
 33 "Bip01 R Finger12" 32
 34 "Bip01 R Finger2" 27
 35 "Bip01 R Finger21" 34
 36 "Bip01 R Finger22" 35
 37 "Bip01 Head" 10
 38 "Bone05" 37
 39 "Bone08" 9
 40 "Bone16" 8
 41 "Bone01" 8
 42 "Bone03" 1
 43 "Bip01 R Finger4" 27
end
skeleton
time 0
  0   0.410528 0.350683 12.553066 -1.570700 -1.569970 -0.000095
  1   -7.328022 2.711020 0.000000 -1.570795 -1.570451 0.000000
  2   -0.000007 0.000008 4.427393 0.085137 -3.026808 -0.367378
  3   18.465939 0.000000 0.000000 0.000000 0.000000 -0.780266
  4   14.875443 0.000000 -0.000001 -0.137976 -0.022790 -0.382112
  5   0.000006 -0.000004 -4.427393 0.223896 3.049445 0.036442
  6   18.465939 0.000000 0.000000 0.000000 0.000000 -0.032677
  7   14.875442 0.000000 0.000000 0.380554 0.214813 -0.228289
  8   2.259113 -0.007574 0.000003 -0.386897 0.206505 0.727896
  9   9.514219 -0.009357 0.000000 -0.018406 0.097435 0.100665
 10   11.751820 -0.001633 0.000000 0.000000 -0.000001 0.082388
 11   -2.176092 0.108725 2.649729 0.949052 -1.235879 2.136656
 12   4.640941 0.000000 -0.000001 0.825024 0.973067 0.413047
 13   10.828049 0.000000 0.000000 0.000000 0.000000 -1.617787
 14   9.393337 -0.000001 0.000000 -1.569611 0.191279 0.000037
 15   1.442245 0.107454 -1.746177 1.686435 0.539209 0.325885
 16   1.063452 0.000000 0.000001 0.000000 0.000000 0.199056
 17   1.376307 -0.000001 0.000001 0.000000 0.000000 0.199049
 18   4.172846 -0.251366 -1.312744 0.008050 0.095731 0.148659
 19   1.215374 0.000002 0.000000 0.000000 0.000000 0.645758
 20   1.215371 -0.000002 0.000001 0.000000 0.000000 0.645758
 21   4.220534 -0.244854 -0.431465 0.001333 0.026242 0.148339
 22   1.350417 0.000000 0.000001 0.000000 0.000000 0.863926
 23   1.350410 -0.000001 -0.000001 0.000000 0.000000 0.863926
 24   -2.176092 0.108738 -2.649726 -0.353333 1.210653 2.726101
 25   4.640942 0.000000 0.000001 -0.851681 -0.333476 0.833104
 26   10.828047 0.000000 0.000001 0.000000 0.000000 -1.613589
 27   9.393339 0.000000 0.000000 1.574637 -0.033802 -0.148395
 28   1.442245 0.107455 1.746178 -1.686405 -0.539236 0.325898
 29   1.063450 -0.000001 0.000000 0.000000 0.000000 0.199056
 30   1.376307 0.000000 0.000000 0.000000 0.000000 0.199059
 31   4.172847 -0.251365 1.312745 -0.008050 -0.095731 0.148659
 32   1.215373 -0.000001 0.000000 0.000000 0.000000 0.645746
 33   1.215372 0.000000 0.000000 0.000000 0.000000 0.645746
 34   4.220534 -0.244853 0.431466 -0.001333 -0.026242 0.148339
 35   1.350416 0.000000 -0.000001 0.000000 0.000000 0.863937
 36   1.350410 0.000000 0.000001 0.000000 0.000000 0.863925
 37   2.110540 -0.000001 0.000000 0.296349 -0.191286 0.132569
 38   0.891923 2.373051 -0.014527 -3.141592 -0.000001 1.413797
 39   7.228122 5.709445 3.726568 3.140796 -1.570796 0.000000
 40   2.450426 5.076128 0.001325 4.853666 -1.406523 -2.472300
 41   6.312404 -4.528058 0.001311 3.140791 -1.570796 0.000000
 42   2.233309 1.152535 -7.309138 -1.442423 -1.596979 -0.215607
 43   4.262825 -0.232720 -1.392178 0.016840 0.076668 0.253759
time 1
  0   0.410528 0.350683 12.592130 -1.570700 -1.569970 -0.000095
  1   -7.367085 2.734458 0.000000 -1.570795 -1.570451 0.000000
  2   -0.000007 0.000008 4.427393 0.084946 -3.027552 -0.367528
  3   18.465939 0.000000 0.000000 0.000000 0.000000 -0.780705
  4   14.875443 0.000000 -0.000001 -0.138545 -0.022279 -0.381875
  5   0.000006 -0.000004 -4.427393 0.223992 3.048979 0.037378
  6   18.465939 0.000000 0.000000 0.000000 0.000000 -0.030511
  7   14.875442 0.000000 0.000000 0.380379 0.215459 -0.229677
  8   2.259113 -0.007574 0.000003 -0.385700 0.208830 0.733752
  9   9.514219 -0.009357 0.000000 -0.018406 0.097435 0.100665
 10   11.751820 -0.001633 0.000000 0.000000 -0.000001 0.082388
 11   -2.176092 0.108725 2.649729 0.949052 -1.235879 2.136656
 12   4.640941 0.000000 -0.000001 0.829985 0.969829 0.421477
 13   10.828049 0.000000 0.000000 0.000000 0.000000 -1.624804
 14   9.393337 -0.000001 0.000000 -1.569611 0.191279 0.000037
 15   1.442245 0.107454 -1.746177 1.686435 0.539209 0.325885
 16   1.063452 0.000000 0.000001 0.000000 0.000000 0.199056
 17   1.376307 -0.000001 0.000001 0.000000 0.000000 0.199049
 18   4.172846 -0.251366 -1.312744 0.008050 0.095731 0.148659
 19   1.215374 0.000002 0.000000 0.000000 0.000000 0.645758
 20   1.215371 -0.000002 0.000001 0.000000 0.000000 0.645758
 21   4.220534 -0.244854 -0.431465 0.001333 0.026242 0.148339
 22   1.350417 0.000000 0.000001 0.000000 0.000000 0.863926
 23   1.350410 -0.000001 -0.000001 0.000000 0.000000 0.863926
 24   -2.176092 0.108738 -2.649726 -0.353333 1.210653 2.726101
 25   4.640942 0.000000 0.000001 -0.849881 -0.333407 0.834224
 26   10.828047 0.000000 0.000001 0.000000 0.000000 -1.612021
 27   9.393339 0.000000 0.000000 1.573280 -0.033086 -0.156008
 28   1.442245 0.107455 1.746178 -1.686405 -0.539236 0.325898
 29   1.063450 -0.000001 0.000000 0.000000 0.000000 0.199056
 30   1.376307 0.000000 0.000000 0.000000 0.000000 0.199059
 31   4.172847 -0.251365 1.312745 -0.008050 -0.095731 0.148659
 32   1.215373 -0.000001 0.000000 0.000000 0.000000 0.645746
 33   1.215372 0.000000 0.000000 0.000000 0.000000 0.645746
 34   4.220534 -0.244853 0.431466 -0.001333 -0.026242 0.148339
 35   1.350416 0.000000 -0.000001 0.000000 0.000000 0.863937
 36   1.350410 0.000000 0.000001 0.000000 0.000000 0.863925
 37   2.110540 -0.000001 0.000000 0.292296 -0.198493 0.150416
 38   0.891923 2.373051 -0.014527 -3.141592 -0.000001 1.413797
 39   7.228122 5.709445 3.726568 3.140796 -1.570796 0.000000
 40   2.450426 5.076128 0.001325 4.837692 -1.399668 -2.466904
 41   6.312404 -4.528058 0.001311 3.140791 -1.570796 0.000000
 42   2.233309 1.152535 -7.309138 -1.442423 -1.596979 -0.215607
 43   4.262825 -0.232720 -1.392178 0.016840 0.076668 0.253759
time 2
  0   0.410528 0.350683 12.639006 -1.570700 -1.569970 -0.000095
  1   -7.413961 2.761803 0.000000 -1.570795 -1.570451 0.000000
  2   -0.000007 0.000008 4.427393 0.084660 -3.028296 -0.367727
  3   18.465939 0.000000 0.000000 0.000000 0.000000 -0.781290
  4   14.875443 0.000000 -0.000001 -0.139143 -0.021704 -0.381599
  5   0.000006 -0.000004 -4.427393 0.224087 3.048420 0.038407
  6   18.465939 0.000000 0.000000 0.000000 0.000000 -0.028082
  7   14.875442 0.000000 0.000000 0.380203 0.216182 -0.231216
  8   2.259113 -0.007574 0.000003 -0.384356 0.211383 0.740171
  9   9.514219 -0.009357 0.000000 -0.018406 0.097435 0.100665
 10   11.751820 -0.001633 0.000000 0.000000 -0.000001 0.082388
 11   -2.176092 0.108725 2.649729 0.949052 -1.235879 2.136656
 12   4.640941 0.000000 -0.000001 0.835339 0.966179 0.430667
 13   10.828049 0.000000 0.000000 0.000000 0.000000 -1.632430
 14   9.393337 -0.000001 0.000000 -1.569611 0.191248 0.000037
 15   1.442245 0.107454 -1.746177 1.686435 0.539209 0.325885
 16   1.063452 0.000000 0.000001 0.000000 0.000000 0.199056
 17   1.376307 -0.000001 0.000001 0.000000 0.000000 0.199049
 18   4.172846 -0.251366 -1.312744 0.008050 0.095731 0.148659
 19   1.215374 0.000002 0.000000 0.000000 0.000000 0.645758
 20   1.215371 -0.000002 0.000001 0.000000 0.000000 0.645758
 21   4.220534 -0.244854 -0.431465 0.001333 0.026242 0.148339
 22   1.350417 0.000000 0.000001 0.000000 0.000000 0.863926
 23   1.350410 -0.000001 -0.000001 0.000000 0.000000 0.863926
 24   -2.176092 0.108738 -2.649726 -0.353333 1.210653 2.726101
 25   4.640942 0.000000 0.000001 -0.847874 -0.333337 0.835414
 26   10.828047 0.000000 0.000001 0.000000 0.000000 -1.610278
 27   9.393339 0.000000 0.000000 1.571822 -0.032273 -0.164398
 28   1.442245 0.107455 1.746178 -1.686405 -0.539236 0.325898
 29   1.063450 -0.000001 0.000000 0.000000 0.000000 0.199056
 30   1.376307 0.000000 0.000000 0.000000 0.000000 0.199059
 31   4.172847 -0.251365 1.312745 -0.008050 -0.095731 0.148659
 32   1.215373 -0.000001 0.000000 0.000000 0.000000 0.645746
 33   1.215372 0.000000 0.000000 0.000000 0.000000 0.645746
 34   4.220534 -0.244853 0.431466 -0.001333 -0.026242 0.148339
 35   1.350416 0.000000 -0.000001 0.000000 0.000000 0.863937
 36   1.350410 0.000000 0.000001 0.000000 0.000000 0.863925
 37   2.110540 -0.000001 0.000000 0.287670 -0.206314 0.170112
 38   0.891923 2.373051 -0.014527 -3.141592 -0.000001 1.413797
 39   7.228122 5.709445 3.726568 3.140796 -1.570796 0.000000
 40   2.450426 5.076128 0.001325 4.821104 -1.392094 -2.461782
 41   6.312404 -4.528058 0.001311 3.140791 -1.570796 0.000000
 42   2.233309 1.152535 -7.309138 -1.442423 -1.596979 -0.215607
 43   4.262825 -0.232720 -1.392178 0.016840 0.076668 0.253759
time 3
  0   0.410528 0.350683 12.685883 -1.570700 -1.569970 -0.000095
  1   -7.460838 2.789148 0.000000 -1.570795 -1.570451 0.000000
  2   -0.000007 0.000008 4.427393 0.084374 -3.029134 -0.367977
  3   18.465939 0.000000 0.000000 0.000000 0.000000 -0.781802
  4   14.875443 0.000000 -0.000001 -0.139769 -0.021108 -0.381283
  5   0.000006 -0.000004 -4.427393 0.224183 3.047861 0.039530
  6   18.465939 0.000000 0.000000 0.000000 0.000000 -0.025523
  7   14.875442 0.000000 0.000000 0.379993 0.216962 -0.232866
  8   2.259113 -0.007574 0.000003 -0.382907 0.214104 0.747087
  9   9.514219 -0.009357 0.000000 -0.018406 0.097435 0.100665
 10   11.751820 -0.001633 0.000000 0.000000 -0.000001 0.082388
 11   -2.176092 0.108725 2.649729 0.949052 -1.235879 2.136656
 12   4.640941 0.000000 -0.000001 0.840939 0.962322 0.440443
 13   10.828049 0.000000 0.000000 0.000000 0.000000 -1.640667
 14   9.393337 -0.000001 0.000000 -1.569611 0.191279 0.000037
 15   1.442245 0.107454 -1.746177 1.686435 0.539209 0.325885
 16   1.063452 0.000000 0.000001 0.000000 0.000000 0.199056
 17   1.376307 -0.000001 0.000001 0.000000 0.000000 0.199049
 18   4.172846 -0.251366 -1.312744 0.008050 0.095731 0.148659
 19   1.215374 0.000002 0.000000 0.000000 0.000000 0.645758
 20   1.215371 -0.000002 0.000001 0.000000 0.000000 0.645758
 21   4.220534 -0.244854 -0.431465 0.001333 0.026242 0.148339
 22   1.350417 0.000000 0.000001 0.000000 0.000000 0.863926
 23   1.350410 -0.000001 -0.000001 0.000000 0.000000 0.863926
 24   -2.176092 0.108738 -2.649726 -0.353333 1.210653 2.726101
 25   4.640942 0.000000 0.000001 -0.845816 -0.333267 0.836744
 26   10.828047 0.000000 0.000001 0.000000 0.000000 -1.608420
 27   9.393339 0.000000 0.000000 1.570214 -0.031460 -0.173321
 28   1.442245 0.107455 1.746178 -1.686405 -0.539236 0.325898
 29   1.063450 -0.000001 0.000000 0.000000 0.000000 0.199056
 30   1.376307 0.000000 0.000000 0.000000 0.000000 0.199059
 31   4.172847 -0.251365 1.312745 -0.008050 -0.095731 0.148659
 32   1.215373 -0.000001 0.000000 0.000000 0.000000 0.645746
 33   1.215372 0.000000 0.000000 0.000000 0.000000 0.645746
 34   4.220534 -0.244853 0.431466 -0.001333 -0.026242 0.148339
 35   1.350416 0.000000 -0.000001 0.000000 0.000000 0.863937
 36   1.350410 0.000000 0.000001 0.000000 0.000000 0.863925
 37   2.110540 -0.000001 0.000000 0.282424 -0.214526 0.191270
 38   0.891923 2.373051 -0.014527 -3.141592 -0.000001 1.413797
 39   7.228122 5.709445 3.726568 3.140796 -1.570796 0.000000
 40   2.450426 5.076128 0.001325 4.804341 -1.383992 -2.457392
 41   6.312404 -4.528058 0.001311 3.140791 -1.570796 0.000000
 42   2.233309 1.152535 -7.309138 -1.442423 -1.596979 -0.215607
 43   4.262825 -0.232720 -1.392178 0.016840 0.076668 0.253759
time 4
  0   0.410528 0.350683 12.732759 -1.570700 -1.569970 -0.000095
  1   -7.507714 2.816492 0.000000 -1.570795 -1.570451 0.000000
  2   -0.000007 0.000008 4.427393 0.084087 -3.030064 -0.368176
  3   18.465939 0.000000 0.000000 0.000000 0.000000 -0.782386
  4   14.875443 0.000000 -0.000001 -0.140452 -0.020470 -0.380967
  5   0.000006 -0.000004 -4.427393 0.224279 3.047302 0.040653
  6   18.465939 0.000000 0.000000 0.000000 0.000000 -0.022897
  7   14.875442 0.000000 0.000000 0.379782 0.217761 -0.234592
  8   2.259113 -0.007574 0.000003 -0.381352 0.216932 0.754267
  9   9.514219 -0.009357 0.000000 -0.018406 0.097435 0.100665
 10   11.751820 -0.001633 0.000000 0.000000 -0.000001 0.082388
 11   -2.176092 0.108725 2.649729 0.949052 -1.235879 2.136656
 12   4.640941 0.000000 -0.000001 0.846735 0.958258 0.450570
 13   10.828049 0.000000 0.000000 0.000000 0.000000 -1.649209
 14   9.393337 -0.000001 0.000000 -1.569611 0.191248 0.000037
 15   1.442245 0.107454 -1.746177 1.686435 0.539209 0.325885
 16   1.063452 0.000000 0.000001 0.000000 0.000000 0.199056
 17   1.376307 -0.000001 0.000001 0.000000 0.000000 0.199049
 18   4.172846 -0.251366 -1.312744 0.008050 0.095731 0.148659
 19   1.215374 0.000002 0.000000 0.000000 0.000000 0.645758
 20   1.215371 -0.000002 0.000001 0.000000 0.000000 0.645758
 21   4.220534 -0.244854 -0.431465 0.001333 0.026242 0.148339
 22   1.350417 0.000000 0.000001 0.000000 0.000000 0.863926
 23   1.350410 -0.000001 -0.000001 0.000000 0.000000 0.863926
 24   -2.176092 0.108738 -2.649726 -0.353333 1.210653 2.726101
 25   4.640942 0.000000 0.000001 -0.843604 -0.333197 0.838144
 26   10.828047 0.000000 0.000001 0.000000 0.000000 -1.606503
 27   9.393339 0.000000 0.000000 1.568606 -0.030614 -0.182632
 28   1.442245 0.107455 1.746178 -1.686405 -0.539236 0.325898
 29   1.063450 -0.000001 0.000000 0.000000 0.000000 0.199056
 30   1.376307 0.000000 0.000000 0.000000 0.000000 0.199059
 31   4.172847 -0.251365 1.312745 -0.008050 -0.095731 0.148659
 32   1.215373 -0.000001 0.000000 0.000000 0.000000 0.645746
 33   1.215372 0.000000 0.000000 0.000000 0.000000 0.645746
 34   4.220534 -0.244853 0.431466 -0.001333 -0.026242 0.148339
 35   1.350416 0.000000 -0.000001 0.000000 0.000000 0.863937
 36   1.350410 0.000000 0.000001 0.000000 0.000000 0.863925
 37   2.110540 -0.000001 0.000000 0.276701 -0.222990 0.213374
 38   0.891923 2.373051 -0.014527 -3.141592 -0.000001 1.413797
 39   7.228122 5.709445 3.726568 3.140796 -1.570796 0.000000
 40   2.450426 5.076128 0.001325 4.787753 -1.375531 -2.453642
 41   6.312404 -4.528058 0.001311 3.140791 -1.570796 0.000000
 42   2.233309 1.152535 -7.309138 -1.442423 -1.596979 -0.215607
 43   4.262825 -0.232720 -1.392178 0.016840 0.076668 0.253759
time 5
  0   0.410528 0.350683 12.783542 -1.570700 -1.569970 -0.000095
  1   -7.558497 2.847743 0.000000 -1.570795 -1.570451 0.000000
  2   -0.000007 0.000008 4.427393 0.083801 -3.030901 -0.368426
  3   18.465939 0.000000 0.000000 0.000000 0.000000 -0.783044
  4   14.875443 0.000000 -0.000001 -0.141135 -0.019831 -0.380651
  5   0.000006 -0.000004 -4.427393 0.224374 3.046649 0.041870
  6   18.465939 0.000000 0.000000 0.000000 0.000000 -0.020140
  7   14.875442 0.000000 0.000000 0.379572 0.218578 -0.236318
  8   2.259113 -0.007574 0.000003 -0.379777 0.219808 0.761612
  9   9.514219 -0.009357 0.000000 -0.018406 0.097435 0.100665
 10   11.751820 -0.001633 0.000000 0.000000 -0.000001 0.082388
 11   -2.176092 0.108725 2.649729 0.949052 -1.235879 2.136656
 12   4.640941 0.000000 -0.000001 0.852531 0.954194 0.460873
 13   10.828049 0.000000 0.000000 0.000000 0.000000 -1.657933
 14   9.393337 -0.000001 0.000000 -1.569611 0.191279 0.000037
 15   1.442245 0.107454 -1.746177 1.686435 0.539209 0.325885
 16   1.063452 0.000000 0.000001 0.000000 0.000000 0.199056
 17   1.376307 -0.000001 0.000001 0.000000 0.000000 0.199049
 18   4.172846 -0.251366 -1.312744 0.008050 0.095731 0.148659
 19   1.215374 0.000002 0.000000 0.000000 0.000000 0.645758
 20   1.215371 -0.000002 0.000001 0.000000 0.000000 0.645758
 21   4.220534 -0.244854 -0.431465 0.001333 0.026242 0.148339
 22   1.350417 0.000000 0.000001 0.000000 0.000000 0.863926
 23   1.350410 -0.000001 -0.000001 0.000000 0.000000 0.863926
 24   -2.176092 0.108738 -2.649726 -0.353333 1.210653 2.726101
 25   4.640942 0.000000 0.000001 -0.841391 -0.333197 0.839614
 26   10.828047 0.000000 0.000001 0.000000 0.000000 -1.604528
 27   9.393339 0.000000 0.000000 1.566897 -0.029768 -0.192137
 28   1.442245 0.107455 1.746178 -1.686405 -0.539236 0.325898
 29   1.063450 -0.000001 0.000000 0.000000 0.000000 0.199056
 30   1.376307 0.000000 0.000000 0.000000 0.000000 0.199059
 31   4.172847 -0.251365 1.312745 -0.008050 -0.095731 0.148659
 32   1.215373 -0.000001 0.000000 0.000000 0.000000 0.645746
 33   1.215372 0.000000 0.000000 0.000000 0.000000 0.645746
 34   4.220534 -0.244853 0.431466 -0.001333 -0.026242 0.148339
 35   1.350416 0.000000 -0.000001 0.000000 0.000000 0.863937
 36   1.350410 0.000000 0.000001 0.000000 0.000000 0.863925
 37   2.110540 -0.000001 0.000000 0.270596 -0.231426 0.236081
 38   0.891923 2.373051 -0.014527 -3.141592 -0.000001 1.413797
 39   7.228122 5.709445 3.726568 3.140796 -1.570796 0.000000
 40   2.450426 5.076128 0.001325 4.771691 -1.366890 -2.450715
 41   6.312404 -4.528058 0.001311 3.140791 -1.570796 0.000000
 42   2.233309 1.152535 -7.309138 -1.442423 -1.596979 -0.215607
 43   4.262825 -0.232720 -1.392178 0.016840 0.076668 0.253759
time 6
  0   0.410528 0.350683 12.830418 -1.570700 -1.569970 -0.000095
  1   -7.605373 2.875088 0.000000 -1.570795 -1.570451 0.000000
  2   -0.000007 0.000008 4.427393 0.083515 -3.031832 -0.368625
  3   18.465939 0.000000 0.000000 0.000000 0.000000 -0.783629
  4   14.875443 0.000000 -0.000001 -0.141818 -0.019193 -0.380335
  5   0.000006 -0.000004 -4.427393 0.224470 3.046090 0.043087
  6   18.465939 0.000000 0.000000 0.000000 0.000000 -0.017449
  7   14.875442 0.000000 0.000000 0.379326 0.219415 -0.238081
  8   2.259113 -0.007574 0.000003 -0.378160 0.222661 0.768991
  9   9.514219 -0.009357 0.000000 -0.018406 0.097435 0.100665
 10   11.751820 -0.001633 0.000000 0.000000 -0.000001 0.082388
 11   -2.176092 0.108725 2.649729 0.949052 -1.235879 2.136656
 12   4.640941 0.000000 -0.000001 0.858229 0.950061 0.471058
 13   10.828049 0.000000 0.000000 0.000000 0.000000 -1.666658
 14   9.393337 -0.000001 0.000000 -1.569611 0.191248 0.000037
 15   1.442245 0.107454 -1.746177 1.686435 0.539209 0.325885
 16   1.063452 0.000000 0.000001 0.000000 0.000000 0.199056
 17   1.376307 -0.000001 0.000001 0.000000 0.000000 0.199049
 18   4.172846 -0.251366 -1.312744 0.008050 0.095731 0.148659
 19   1.215374 0.000002 0.000000 0.000000 0.000000 0.645758
 20   1.215371 -0.000002 0.000001 0.000000 0.000000 0.645758
 21   4.220534 -0.244854 -0.431465 0.001333 0.026242 0.148339
 22   1.350417 0.000000 0.000001 0.000000 0.000000 0.863926
 23   1.350410 -0.000001 -0.000001 0.000000 0.000000 0.863926
 24   -2.176092 0.108738 -2.649726 -0.353333 1.210653 2.726101
 25   4.640942 0.000000 0.000001 -0.839179 -0.333197 0.841084
 26   10.828047 0.000000 0.000001 0.000000 0.000000 -1.602553
 27   9.393339 0.000000 0.000000 1.565138 -0.028922 -0.201642
 28   1.442245 0.107455 1.746178 -1.686405 -0.539236 0.325898
 29   1.063450 -0.000001 0.000000 0.000000 0.000000 0.199056
 30   1.376307 0.000000 0.000000 0.000000 0.000000 0.199059
 31   4.172847 -0.251365 1.312745 -0.008050 -0.095731 0.148659
 32   1.215373 -0.000001 0.000000 0.000000 0.000000 0.645746
 33   1.215372 0.000000 0.000000 0.000000 0.000000 0.645746
 34   4.220534 -0.244853 0.431466 -0.001333 -0.026242 0.148339
 35   1.350416 0.000000 -0.000001 0.000000 0.000000 0.863937
 36   1.350410 0.000000 0.000001 0.000000 0.000000 0.863925
 37   2.110540 -0.000001 0.000000 0.264253 -0.239722 0.258873
 38   0.891923 2.373051 -0.014527 -3.141592 -0.000001 1.413797
 39   7.228122 5.709445 3.726568 3.140796 -1.570796 0.000000
 40   2.450426 5.076128 0.001325 4.756420 -1.358237 -2.448612
 41   6.312404 -4.528058 0.001311 3.140791 -1.570796 0.000000
 42   2.233309 1.152535 -7.309138 -1.442423 -1.596979 -0.215607
 43   4.262825 -0.232720 -1.392178 0.016840 0.076668 0.253759
time 7
  0   0.410528 0.350683 12.877295 -1.570700 -1.569970 -0.000095
  1   -7.652250 2.906339 0.000000 -1.570795 -1.570451 0.000000
  2   -0.000007 0.000008 4.427393 0.083228 -3.032762 -0.368875
  3   18.465939 0.000000 0.000000 0.000000 0.000000 -0.784214
  4   14.875443 0.000000 -0.000001 -0.142473 -0.018554 -0.380058
  5   0.000006 -0.000004 -4.427393 0.224566 3.045437 0.044210
  6   18.465939 0.000000 0.000000 0.000000 0.000000 -0.014758
  7   14.875442 0.000000 0.000000 0.379115 0.220214 -0.239807
  8   2.259113 -0.007574 0.000003 -0.376543 0.225453 0.776204
  9   9.514219 -0.009357 0.000000 -0.018406 0.097435 0.100665
 10   11.751820 -0.001633 0.000000 0.000000 -0.000001 0.082388
 11   -2.176092 0.108725 2.649729 0.949052 -1.235879 2.136656
 12   4.640941 0.000000 -0.000001 0.863681 0.946066 0.481010
 13   10.828049 0.000000 0.000000 0.000000 0.000000 -1.675200
 14   9.393337 -0.000001 0.000000 -1.569611 0.191279 0.000037
 15   1.442245 0.107454 -1.746177 1.686435 0.539209 0.325885
 16   1.063452 0.000000 0.000001 0.000000 0.000000 0.199056
 17   1.376307 -0.000001 0.000001 0.000000 0.000000 0.199049
 18   4.172846 -0.251366 -1.312744 0.008050 0.095731 0.148659
 19   1.215374 0.000002 0.000000 0.000000 0.000000 0.645758
 20   1.215371 -0.000002 0.000001 0.000000 0.000000 0.645758
 21   4.220534 -0.244854 -0.431465 0.001333 0.026242 0.148339
 22   1.350417 0.000000 0.000001 0.000000 0.000000 0.863926
 23   1.350410 -0.000001 -0.000001 0.000000 0.000000 0.863926
 24   -2.176092 0.108738 -2.649726 -0.353333 1.210653 2.726101
 25   4.640942 0.000000 0.000001 -0.837018 -0.333197 0.842484
 26   10.828047 0.000000 0.000001 0.000000 0.000000 -1.600579
 27   9.393339 0.000000 0.000000 1.563429 -0.028109 -0.211002
 28   1.442245 0.107455 1.746178 -1.686405 -0.539236 0.325898
 29   1.063450 -0.000001 0.000000 0.000000 0.000000 0.199056
 30   1.376307 0.000000 0.000000 0.000000 0.000000 0.199059
 31   4.172847 -0.251365 1.312745 -0.008050 -0.095731 0.148659
 32   1.215373 -0.000001 0.000000 0.000000 0.000000 0.645746
 33   1.215372 0.000000 0.000000 0.000000 0.000000 0.645746
 34   4.220534 -0.244853 0.431466 -0.001333 -0.026242 0.148339
 35   1.350416 0.000000 -0.000001 0.000000 0.000000 0.863937
 36   1.350410 0.000000 0.000001 0.000000 0.000000 0.863925
 37   2.110540 -0.000001 0.000000 0.257720 -0.247655 0.281321
 38   0.891923 2.373051 -0.014527 -3.141592 -0.000001 1.413797
 39   7.228122 5.709445 3.726568 3.140796 -1.570796 0.000000
 40   2.450426 5.076128 0.001325 4.742025 -1.349752 -2.447240
 41   6.312404 -4.528058 0.001311 3.140791 -1.570796 0.000000
 42   2.233309 1.152535 -7.309138 -1.442423 -1.596979 -0.215607
 43   4.262825 -0.232720 -1.392178 0.016840 0.076668 0.253759
time 8
  0   0.410528 0.350683 12.924170 -1.570700 -1.569970 -0.000095
  1   -7.699126 2.933683 0.000000 -1.570795 -1.570451 0.000000
  2   -0.000007 0.000008 4.427393 0.082942 -3.033599 -0.369074
  3   18.465939 0.000000 0.000000 0.000000 0.000000 -0.784799
  4   14.875443 0.000000 -0.000001 -0.143127 -0.017958 -0.379742
  5   0.000006 -0.000004 -4.427393 0.224661 3.044878 0.045333
  6   18.465939 0.000000 0.000000 0.000000 0.000000 -0.012198
  7   14.875442 0.000000 0.000000 0.378940 0.220994 -0.241420
  8   2.259113 -0.007574 0.000003 -0.374989 0.228126 0.783152
  9   9.514219 -0.009357 0.000000 -0.018406 0.097435 0.100665
 10   11.751820 -0.001633 0.000000 0.000000 -0.000001 0.082388
 11   -2.176092 0.108725 2.649729 0.949052 -1.235879 2.136656
 12   4.640941 0.000000 -0.000001 0.868888 0.942209 0.490493
 13   10.828049 0.000000 0.000000 0.000000 0.000000 -1.683437
 14   9.393337 -0.000001 0.000000 -1.569611 0.191248 0.000037
 15   1.442245 0.107454 -1.746177 1.686435 0.539209 0.325885
 16   1.063452 0.000000 0.000001 0.000000 0.000000 0.199056
 17   1.376307 -0.000001 0.000001 0.000000 0.000000 0.199049
 18   4.172846 -0.251366 -1.312744 0.008050 0.095731 0.148659
 19   1.215374 0.000002 0.000000 0.000000 0.000000 0.645758
 20   1.215371 -0.000002 0.000001 0.000000 0.000000 0.645758
 21   4.220534 -0.244854 -0.431465 0.001333 0.026242 0.148339
 22   1.350417 0.000000 0.000001 0.000000 0.000000 0.863926
 23   1.350410 -0.000001 -0.000001 0.000000 0.000000 0.863926
 24   -2.176092 0.108738 -2.649726 -0.353333 1.210653 2.726101
 25   4.640942 0.000000 0.000001 -0.834960 -0.333267 0.843884
 26   10.828047 0.000000 0.000001 0.000000 0.000000 -1.598720
 27   9.393339 0.000000 0.000000 1.561821 -0.027360 -0.219925
 28   1.442245 0.107455 1.746178 -1.686405 -0.539236 0.325898
 29   1.063450 -0.000001 0.000000 0.000000 0.000000 0.199056
 30   1.376307 0.000000 0.000000 0.000000 0.000000 0.199059
 31   4.172847 -0.251365 1.312745 -0.008050 -0.095731 0.148659
 32   1.215373 -0.000001 0.000000 0.000000 0.000000 0.645746
 33   1.215372 0.000000 0.000000 0.000000 0.000000 0.645746
 34   4.220534 -0.244853 0.431466 -0.001333 -0.026242 0.148339
 35   1.350416 0.000000 -0.000001 0.000000 0.000000 0.863937
 36   1.350410 0.000000 0.000001 0.000000 0.000000 0.863925
 37   2.110540 -0.000001 0.000000 0.251234 -0.255113 0.302952
 38   0.891923 2.373051 -0.014527 -3.141592 -0.000001 1.413797
 39   7.228122 5.709445 3.726568 3.140796 -1.570796 0.000000
 40   2.450426 5.076128 0.001325 4.728860 -1.341615 -2.446417
 41   6.312404 -4.528058 0.001311 3.140791 -1.570796 0.000000
 42   2.233309 1.152535 -7.309138 -1.442423 -1.596979 -0.215607
 43   4.262825 -0.232720 -1.392178 0.016840 0.076668 0.253759
time 9
  0   0.410528 0.350683 12.967141 -1.570700 -1.569970 -0.000095
  1   -7.742096 2.957121 0.000000 -1.570795 -1.570451 0.000000
  2   -0.000007 0.000008 4.427393 0.082751 -3.034343 -0.369274
  3   18.465939 0.000000 0.000000 0.000000 0.000000 -0.785311
  4   14.875443 0.000000 -0.000001 -0.143725 -0.017405 -0.379466
  5   0.000006 -0.000004 -4.427393 0.224757 3.044412 0.046362
  6   18.465939 0.000000 0.000000 0.000000 0.000000 -0.009835
  7   14.875442 0.000000 0.000000 0.378729 0.221716 -0.242959
  8   2.259113 -0.007574 0.000003 -0.373519 0.230606 0.789637
  9   9.514219 -0.009357 0.000000 -0.018406 0.097435 0.100665
 10   11.751820 -0.001633 0.000000 0.000000 -0.000001 0.082388
 11   -2.176092 0.108725 2.649729 0.949052 -1.235879 2.136656
 12   4.640941 0.000000 -0.000001 0.873653 0.938627 0.499332
 13   10.828049 0.000000 0.000000 0.000000 0.000000 -1.691124
 14   9.393337 -0.000001 0.000000 -1.569611 0.191279 0.000037
 15   1.442245 0.107454 -1.746177 1.686435 0.539209 0.325885
 16   1.063452 0.000000 0.000001 0.000000 0.000000 0.199056
 17   1.376307 -0.000001 0.000001 0.000000 0.000000 0.199049
 18   4.172846 -0.251366 -1.312744 0.008050 0.095731 0.148659
 19   1.215374 0.000002 0.000000 0.000000 0.000000 0.645758
 20   1.215371 -0.000002 0.000001 0.000000 0.000000 0.645758
 21   4.220534 -0.244854 -0.431465 0.001333 0.026242 0.148339
 22   1.350417 0.000000 0.000001 0.000000 0.000000 0.863926
 23   1.350410 -0.000001 -0.000001 0.000000 0.000000 0.863926
 24   -2.176092 0.108738 -2.649726 -0.353333 1.210653 2.726101
 25   4.640942 0.000000 0.000001 -0.833056 -0.333337 0.845213
 26   10.828047 0.000000 0.000001 0.000000 0.000000 -1.596978
 27   9.393339 0.000000 0.000000 1.560263 -0.026677 -0.228315
 28   1.442245 0.107455 1.746178 -1.686405 -0.539236 0.325898
 29   1.063450 -0.000001 0.000000 0.000000 0.000000 0.199056
 30   1.376307 0.000000 0.000000 0.000000 0.000000 0.199059
 31   4.172847 -0.251365 1.312745 -0.008050 -0.095731 0.148659
 32   1.215373 -0.000001 0.000000 0.000000 0.000000 0.645746
 33   1.215372 0.000000 0.000000 0.000000 0.000000 0.645746
 34   4.220534 -0.244853 0.431466 -0.001333 -0.026242 0.148339
 35   1.350416 0.000000 -0.000001 0.000000 0.000000 0.863937
 36   1.350410 0.000000 0.000001 0.000000 0.000000 0.863925
 37   2.110540 -0.000001 0.000000 0.244939 -0.261929 0.323294
 38   0.891923 2.373051 -0.014527 -3.141592 -0.000001 1.413797
 39   7.228122 5.709445 3.726568 3.140796 -1.570796 0.000000
 40   2.450426 5.076128 0.001325 4.716924 -1.334005 -2.446051
 41   6.312404 -4.528058 0.001311 3.140791 -1.570796 0.000000
 42   2.233309 1.152535 -7.309138 -1.442423 -1.596979 -0.215607
 43   4.262825 -0.232720 -1.392178 0.016840 0.076668 0.253759
time 10
  0   0.410528 0.350683 13.002298 -1.570700 -1.569970 -0.000095
  1   -7.777254 2.980560 0.000000 -1.570795 -1.570451 0.000000
  2   -0.000007 0.000008 4.427393 0.082464 -3.035088 -0.369473
  3   18.465939 0.000000 0.000000 0.000000 0.000000 -0.785822
  4   14.875443 0.000000 -0.000001 -0.144266 -0.016873 -0.379229
  5   0.000006 -0.000004 -4.427393 0.224853 3.043946 0.047298
  6   18.465939 0.000000 0.000000 0.000000 0.000000 -0.007669
  7   14.875442 0.000000 0.000000 0.378589 0.222363 -0.244384
  8   2.259113 -0.007574 0.000003 -0.372154 0.232860 0.795560
  9   9.514219 -0.009357 0.000000 -0.018406 0.097435 0.100665
 10   11.751820 -0.001633 0.000000 0.000000 -0.000001 0.082388
 11   -2.176092 0.108725 2.649729 0.949052 -1.235879 2.136656
 12   4.640941 0.000000 -0.000001 0.877926 0.935390 0.507293
 13   10.828049 0.000000 0.000000 0.000000 0.000000 -1.698079
 14   9.393337 -0.000001 0.000000 -1.569611 0.191279 0.000037
 15   1.442245 0.107454 -1.746177 1.686435 0.539209 0.325885
 16   1.063452 0.000000 0.000001 0.000000 0.000000 0.199056
 17   1.376307 -0.000001 0.000001 0.000000 0.000000 0.199049
 18   4.172846 -0.251366 -1.312744 0.008050 0.095731 0.148659
 19   1.215374 0.000002 0.000000 0.000000 0.000000 0.645758
 20   1.215371 -0.000002 0.000001 0.000000 0.000000 0.645758
 21   4.220534 -0.244854 -0.431465 0.001333 0.026242 0.148339
 22   1.350417 0.000000 0.000001 0.000000 0.000000 0.863926
 23   1.350410 -0.000001 -0.000001 0.000000 0.000000 0.863926
 24   -2.176092 0.108738 -2.649726 -0.353333 1.210653 2.726101
 25   4.640942 0.000000 0.000001 -0.831358 -0.333337 0.846403
 26   10.828047 0.000000 0.000001 0.000000 0.000000 -1.595410
 27   9.393339 0.000000 0.000000 1.558906 -0.026027 -0.235880
 28   1.442245 0.107455 1.746178 -1.686405 -0.539236 0.325898
 29   1.063450 -0.000001 0.000000 0.000000 0.000000 0.199056
 30   1.376307 0.000000 0.000000 0.000000 0.000000 0.199059
 31   4.172847 -0.251365 1.312745 -0.008050 -0.095731 0.148659
 32   1.215373 -0.000001 0.000000 0.000000 0.000000 0.645746
 33   1.215372 0.000000 0.000000 0.000000 0.000000 0.645746
 34   4.220534 -0.244853 0.431466 -0.001333 -0.026242 0.148339
 35   1.350416 0.000000 -0.000001 0.000000 0.000000 0.863937
 36   1.350410 0.000000 0.000001 0.000000 0.000000 0.863925
 37   2.110540 -0.000001 0.000000 0.239025 -0.267990 0.341828
 38   0.891923 2.373051 -0.014527 -3.141592 -0.000001 1.413797
 39   7.228122 5.709445 3.726568 3.140796 -1.570796 0.000000
 40   2.450426 5.076128 0.001325 1.564921 -1.814515 0.695383
 41   6.312404 -4.528058 0.001311 3.140791 -1.570796 0.000000
 42   2.233309 1.152535 -7.309138 -1.442423 -1.596979 -0.215607
 43   4.262825 -0.232720 -1.392178 0.016840 0.076668 0.253759
time 11
  0   0.410528 0.350683 13.037456 -1.570700 -1.569970 -0.000095
  1   -7.812411 3.000092 0.000000 -1.570795 -1.570451 0.000000
  2   -0.000007 0.000008 4.427393 0.082274 -3.035739 -0.369623
  3   18.465939 0.000000 0.000000 0.000000 0.000000 -0.786188
  4   14.875443 0.000000 -0.000001 -0.144750 -0.016426 -0.378992
  5   0.000006 -0.000004 -4.427393 0.224948 3.043480 0.048140
  6   18.465939 0.000000 0.000000 0.000000 0.000000 -0.005766
  7   14.875442 0.000000 0.000000 0.378414 0.222952 -0.245585
  8   2.259113 -0.007574 0.000003 -0.370957 0.234825 0.800722
  9   9.514219 -0.009357 0.000000 -0.018406 0.097435 0.100665
 10   11.751820 -0.001633 0.000000 0.000000 -0.000001 0.082388
 11   -2.176092 0.108725 2.649729 0.949052 -1.235879 2.136656
 12   4.640941 0.000000 -0.000001 0.881610 0.932566 0.514259
 13   10.828049 0.000000 0.000000 0.000000 0.000000 -1.704181
 14   9.393337 -0.000001 0.000000 -1.569611 0.191248 0.000037
 15   1.442245 0.107454 -1.746177 1.686435 0.539209 0.325885
 16   1.063452 0.000000 0.000001 0.000000 0.000000 0.199056
 17   1.376307 -0.000001 0.000001 0.000000 0.000000 0.199049
 18   4.172846 -0.251366 -1.312744 0.008050 0.095731 0.148659
 19   1.215374 0.000002 0.000000 0.000000 0.000000 0.645758
 20   1.215371 -0.000002 0.000001 0.000000 0.000000 0.645758
 21   4.220534 -0.244854 -0.431465 0.001333 0.026242 0.148339
 22   1.350417 0.000000 0.000001 0.000000 0.000000 0.863926
 23   1.350410 -0.000001 -0.000001 0.000000 0.000000 0.863926
 24   -2.176092 0.108738 -2.649726 -0.353333 1.210653 2.726101
 25   4.640942 0.000000 0.000001 -0.829815 -0.333407 0.847453
 26   10.828047 0.000000 0.000001 0.000000 0.000000 -1.594015
 27   9.393339 0.000000 0.000000 1.557650 -0.025506 -0.242572
 28   1.442245 0.107455 1.746178 -1.686405 -0.539236 0.325898
 29   1.063450 -0.000001 0.000000 0.000000 0.000000 0.199056
 30   1.376307 0.000000 0.000000 0.000000 0.000000 0.199059
 31   4.172847 -0.251365 1.312745 -0.008050 -0.095731 0.148659
 32   1.215373 -0.000001 0.000000 0.000000 0.000000 0.645746
 33   1.215372 0.000000 0.000000 0.000000 0.000000 0.645746
 34   4.220534 -0.244853 0.431466 -0.001333 -0.026242 0.148339
 35   1.350416 0.000000 -0.000001 0.000000 0.000000 0.863937
 36   1.350410 0.000000 0.000001 0.000000 0.000000 0.863925
 37   2.110540 -0.000001 0.000000 0.233732 -0.273186 0.358127
 38   0.891923 2.373051 -0.014527 -3.141592 -0.000001 1.413797
 39   7.228122 5.709445 3.726568 3.140796 -1.570796 0.000000
 40   2.450426 5.076128 0.001325 1.555881 -1.820567 0.695109
 41   6.312404 -4.528058 0.001311 3.140791 -1.570796 0.000000
 42   2.233309 1.152535 -7.309138 -1.442423 -1.596979 -0.215607
 43   4.262825 -0.232720 -1.392178 0.016840 0.076668 0.253759
time 12
  0   0.410528 0.350683 13.060894 -1.570700 -1.569970 -0.000095
  1   -7.839756 3.015717 0.000000 -1.570795 -1.570451 0.000000
  2   -0.000007 0.000008 4.427393 0.082083 -3.036297 -0.369772
  3   18.465939 0.000000 0.000000 0.000000 0.000000 -0.786554
  4   14.875443 0.000000 -0.000001 -0.145148 -0.016064 -0.378834
  5   0.000006 -0.000004 -4.427393 0.225044 3.043107 0.048889
  6   18.465939 0.000000 0.000000 0.000000 0.000000 -0.004191
  7   14.875442 0.000000 0.000000 0.378308 0.223428 -0.246598
  8   2.259113 -0.007574 0.000003 -0.369949 0.236443 0.805023
  9   9.514219 -0.009357 0.000000 -0.018406 0.097435 0.100665
 10   11.751820 -0.001633 0.000000 0.000000 -0.000001 0.082388
 11   -2.176092 0.108725 2.649729 0.949052 -1.235879 2.136656
 12   4.640941 0.000000 -0.000001 0.884656 0.930224 0.519996
 13   10.828049 0.000000 0.000000 0.000000 0.000000 -1.709245
 14   9.393337 -0.000001 0.000000 -1.569611 0.191248 0.000037
 15   1.442245 0.107454 -1.746177 1.686435 0.539209 0.325885
 16   1.063452 0.000000 0.000001 0.000000 0.000000 0.199056
 17   1.376307 -0.000001 0.000001 0.000000 0.000000 0.199049
 18   4.172846 -0.251366 -1.312744 0.008050 0.095731 0.148659
 19   1.215374 0.000002 0.000000 0.000000 0.000000 0.645758
 20   1.215371 -0.000002 0.000001 0.000000 0.000000 0.645758
 21   4.220534 -0.244854 -0.431465 0.001333 0.026242 0.148339
 22   1.350417 0.000000 0.000001 0.000000 0.000000 0.863926
 23   1.350410 -0.000001 -0.000001 0.000000 0.000000 0.863926
 24   -2.176092 0.108738 -2.649726 -0.353333 1.210653 2.726101
 25   4.640942 0.000000 0.000001 -0.828580 -0.333476 0.848363
 26   10.828047 0.000000 0.000001 0.000000 0.000000 -1.592854
 27   9.393339 0.000000 0.000000 1.556645 -0.025083 -0.248052
 28   1.442245 0.107455 1.746178 -1.686405 -0.539236 0.325898
 29   1.063450 -0.000001 0.000000 0.000000 0.000000 0.199056
 30   1.376307 0.000000 0.000000 0.000000 0.000000 0.199059
 31   4.172847 -0.251365 1.312745 -0.008050 -0.095731 0.148659
 32   1.215373 -0.000001 0.000000 0.000000 0.000000 0.645746
 33   1.215372 0.000000 0.000000 0.000000 0.000000 0.645746
 34   4.220534 -0.244853 0.431466 -0.001333 -0.026242 0.148339
 35   1.350416 0.000000 -0.000001 0.000000 0.000000 0.863937
 36   1.350410 0.000000 0.000001 0.000000 0.000000 0.863925
 37   2.110540 -0.000001 0.000000 0.229249 -0.277404 0.371673
 38   0.891923 2.373051 -0.014527 -3.141592 -0.000001 1.413797
 39   7.228122 5.709445 3.726568 3.140796 -1.570796 0.000000
 40   2.450426 5.076128 0.001325 1.548684 -1.825576 0.694651
 41   6.312404 -4.528058 0.001311 3.140791 -1.570796 0.000000
 42   2.233309 1.152535 -7.309138 -1.442423 -1.596979 -0.215607
 43   4.262825 -0.232720 -1.392178 0.016840 0.076668 0.253759
time 13
  0   0.410528 0.350683 13.084332 -1.570700 -1.569970 -0.000095
  1   -7.859288 3.027436 0.000000 -1.570795 -1.570451 0.000000
  2   -0.000007 0.000008 4.427393 0.081987 -3.036669 -0.369872
  3   18.465939 0.000000 0.000000 0.000000 0.000000 -0.786846
  4   14.875443 0.000000 -0.000001 -0.145433 -0.015787 -0.378676
  5   0.000006 -0.000004 -4.427393 0.225044 3.042921 0.049357
  6   18.465939 0.000000 0.000000 0.000000 0.000000 -0.002944
  7   14.875442 0.000000 0.000000 0.378203 0.223789 -0.247386
  8   2.259113 -0.007574 0.000003 -0.369193 0.237665 0.808266
  9   9.514219 -0.009357 0.000000 -0.018406 0.097435 0.100665
 10   11.751820 -0.001633 0.000000 0.000000 -0.000001 0.082388
 11   -2.176092 0.108725 2.649729 0.949052 -1.235879 2.136656
 12   4.640941 0.000000 -0.000001 0.886915 0.928433 0.524328
 13   10.828049 0.000000 0.000000 0.000000 0.000000 -1.713027
 14   9.393337 -0.000001 0.000000 -1.569611 0.191248 0.000037
 15   1.442245 0.107454 -1.746177 1.686435 0.539209 0.325885
 16   1.063452 0.000000 0.000001 0.000000 0.000000 0.199056
 17   1.376307 -0.000001 0.000001 0.000000 0.000000 0.199049
 18   4.172846 -0.251366 -1.312744 0.008050 0.095731 0.148659
 19   1.215374 0.000002 0.000000 0.000000 0.000000 0.645758
 20   1.215371 -0.000002 0.000001 0.000000 0.000000 0.645758
 21   4.220534 -0.244854 -0.431465 0.001333 0.026242 0.148339
 22   1.350417 0.000000 0.000001 0.000000 0.000000 0.863926
 23   1.350410 -0.000001 -0.000001 0.000000 0.000000 0.863926
 24   -2.176092 0.108738 -2.649726 -0.353333 1.210653 2.726101
 25   4.640942 0.000000 0.000001 -0.827654 -0.333546 0.848993
 26   10.828047 0.000000 0.000001 0.000000 0.000000 -1.591983
 27   9.393339 0.000000 0.000000 1.555841 -0.024758 -0.252223
 28   1.442245 0.107455 1.746178 -1.686405 -0.539236 0.325898
 29   1.063450 -0.000001 0.000000 0.000000 0.000000 0.199056
 30   1.376307 0.000000 0.000000 0.000000 0.000000 0.199059
 31   4.172847 -0.251365 1.312745 -0.008050 -0.095731 0.148659
 32   1.215373 -0.000001 0.000000 0.000000 0.000000 0.645746
 33   1.215372 0.000000 0.000000 0.000000 0.000000 0.645746
 34   4.220534 -0.244853 0.431466 -0.001333 -0.026242 0.148339
 35   1.350416 0.000000 -0.000001 0.000000 0.000000 0.863937
 36   1.350410 0.000000 0.000001 0.000000 0.000000 0.863925
 37   2.110540 -0.000001 0.000000 0.225815 -0.280560 0.381909
 38   0.891923 2.373051 -0.014527 -3.141592 -0.000001 1.413797
 39   7.228122 5.709445 3.726568 3.140796 -1.570796 0.000000
 40   2.450426 5.076128 0.001325 1.543243 -1.829376 0.694286
 41   6.312404 -4.528058 0.001311 3.140791 -1.570796 0.000000
 42   2.233309 1.152535 -7.309138 -1.442423 -1.596979 -0.215607
 43   4.262825 -0.232720 -1.392178 0.016840 0.076668 0.253759
time 14
  0   0.410528 0.350683 13.096051 -1.570700 -1.569970 -0.000095
  1   -7.871006 3.035249 0.000000 -1.570795 -1.570451 0.000000
  2   -0.000007 0.000008 4.427393 0.081892 -3.036855 -0.369922
  3   18.465939 0.000000 0.000000 0.000000 0.000000 -0.786992
  4   14.875443 0.000000 -0.000001 -0.145632 -0.015596 -0.378597
  5   0.000006 -0.000004 -4.427393 0.225140 3.042734 0.049731
  6   18.465939 0.000000 0.000000 0.000000 0.000000 -0.002222
  7   14.875442 0.000000 0.000000 0.378168 0.224017 -0.247836
  8   2.259113 -0.007574 0.000003 -0.368709 0.238444 0.810350
  9   9.514219 -0.009357 0.000000 -0.018406 0.097435 0.100665
 10   11.751820 -0.001633 0.000000 0.000000 -0.000001 0.082388
 11   -2.176092 0.108725 2.649729 0.949052 -1.235879 2.136656
 12   4.640941 0.000000 -0.000001 0.888340 0.927331 0.527021
 13   10.828049 0.000000 0.000000 0.000000 0.000000 -1.715468
 14   9.393337 -0.000001 0.000000 -1.569611 0.191248 0.000037
 15   1.442245 0.107454 -1.746177 1.686435 0.539209 0.325885
 16   1.063452 0.000000 0.000001 0.000000 0.000000 0.199056
 17   1.376307 -0.000001 0.000001 0.000000 0.000000 0.199049
 18   4.172846 -0.251366 -1.312744 0.008050 0.095731 0.148659
 19   1.215374 0.000002 0.000000 0.000000 0.000000 0.645758
 20   1.215371 -0.000002 0.000001 0.000000 0.000000 0.645758
 21   4.220534 -0.244854 -0.431465 0.001333 0.026242 0.148339
 22   1.350417 0.000000 0.000001 0.000000 0.000000 0.863926
 23   1.350410 -0.000001 -0.000001 0.000000 0.000000 0.863926
 24   -2.176092 0.108738 -2.649726 -0.353333 1.210653 2.726101
 25   4.640942 0.000000 0.000001 -0.827036 -0.333616 0.849413
 26   10.828047 0.000000 0.000001 0.000000 0.000000 -1.591460
 27   9.393339 0.000000 0.000000 1.555388 -0.024530 -0.254890
 28   1.442245 0.107455 1.746178 -1.686405 -0.539236 0.325898
 29   1.063450 -0.000001 0.000000 0.000000 0.000000 0.199056
 30   1.376307 0.000000 0.000000 0.000000 0.000000 0.199059
 31   4.172847 -0.251365 1.312745 -0.008050 -0.095731 0.148659
 32   1.215373 -0.000001 0.000000 0.000000 0.000000 0.645746
 33   1.215372 0.000000 0.000000 0.000000 0.000000 0.645746
 34   4.220534 -0.244853 0.431466 -0.001333 -0.026242 0.148339
 35   1.350416 0.000000 -0.000001 0.000000 0.000000 0.863937
 36   1.350410 0.000000 0.000001 0.000000 0.000000 0.863925
 37   2.110540 -0.000001 0.000000 0.223621 -0.282515 0.388445
 38   0.891923 2.373051 -0.014527 -3.141592 -0.000001 1.413797
 39   7.228122 5.709445 3.726568 3.140796 -1.570796 0.000000
 40   2.450426 5.076128 0.001325 1.539820 -1.831784 0.694011
 41   6.312404 -4.528058 0.001311 3.140791 -1.570796 0.000000
 42   2.233309 1.152535 -7.309138 -1.442423 -1.596979 -0.215607
 43   4.262825 -0.232720 -1.392178 0.016840 0.076668 0.253759
time 15
  0   0.410528 0.350683 13.099957 -1.570700 -1.569970 -0.000095
  1   -7.874913 3.039155 0.000000 -1.570795 -1.570451 0.000000
  2   -0.000007 0.000008 4.427393 0.081892 -3.036948 -0.369922
  3   18.465939 0.000000 0.000000 0.000000 0.000000 -0.787065
  4   14.875443 0.000000 -0.000001 -0.145689 -0.015553 -0.378557
  5   0.000006 -0.000004 -4.427393 0.225140 3.042641 0.049825
  6   18.465939 0.000000 0.000000 0.000000 0.000000 -0.001959
  7   14.875442 0.000000 0.000000 0.378133 0.224093 -0.248023
  8   2.259113 -0.007574 0.000003 -0.368541 0.238708 0.811045
  9   9.514219 -0.009357 0.000000 -0.018406 0.097435 0.100665
 10   11.751820 -0.001633 0.000000 0.000000 -0.000001 0.082388
 11   -2.176092 0.108725 2.649729 0.949052 -1.235879 2.136656
 12   4.640941 0.000000 -0.000001 0.888880 0.926918 0.528016
 13   10.828049 0.000000 0.000000 0.000000 0.000000 -1.716322
 14   9.393337 -0.000001 0.000000 -1.569611 0.191279 0.000037
 15   1.442245 0.107454 -1.746177 1.686435 0.539209 0.325885
 16   1.063452 0.000000 0.000001 0.000000 0.000000 0.199056
 17   1.376307 -0.000001 0.000001 0.000000 0.000000 0.199049
 18   4.172846 -0.251366 -1.312744 0.008050 0.095731 0.148659
 19   1.215374 0.000002 0.000000 0.000000 0.000000 0.645758
 20   1.215371 -0.000002 0.000001 0.000000 0.000000 0.645758
 21   4.220534 -0.244854 -0.431465 0.001333 0.026242 0.148339
 22   1.350417 0.000000 0.000001 0.000000 0.000000 0.863926
 23   1.350410 -0.000001 -0.000001 0.000000 0.000000 0.863926
 24   -2.176092 0.108738 -2.649726 -0.353333 1.210653 2.726101
 25   4.640942 0.000000 0.000001 -0.826830 -0.333616 0.849623
 26   10.828047 0.000000 0.000001 0.000000 0.000000 -1.591286
 27   9.393339 0.000000 0.000000 1.555187 -0.024465 -0.255812
 28   1.442245 0.107455 1.746178 -1.686405 -0.539236 0.325898
 29   1.063450 -0.000001 0.000000 0.000000 0.000000 0.199056
 30   1.376307 0.000000 0.000000 0.000000 0.000000 0.199059
 31   4.172847 -0.251365 1.312745 -0.008050 -0.095731 0.148659
 32   1.215373 -0.000001 0.000000 0.000000 0.000000 0.645746
 33   1.215372 0.000000 0.000000 0.000000 0.000000 0.645746
 34   4.220534 -0.244853 0.431466 -0.001333 -0.026242 0.148339
 35   1.350416 0.000000 -0.000001 0.000000 0.000000 0.863937
 36   1.350410 0.000000 0.000001 0.000000 0.000000 0.863925
 37   2.110540 -0.000001 0.000000 0.222858 -0.283214 0.390724
 38   0.891923 2.373051 -0.014527 -3.141592 -0.000001 1.413797
 39   7.228122 5.709445 3.726568 3.140796 -1.570796 0.000000
 40   2.450426 5.076128 0.001325 1.538679 -1.832623 0.693920
 41   6.312404 -4.528058 0.001311 3.140791 -1.570796 0.000000
 42   2.233309 1.152535 -7.309138 -1.442423 -1.596979 -0.215607
 43   4.262825 -0.232720 -1.392178 0.016840 0.076668 0.253759
time 16
  0   0.410528 0.350683 13.096051 -1.570700 -1.569970 -0.000095
  1   -7.871006 3.035249 0.000000 -1.570795 -1.570451 0.000000
  2   -0.000007 0.000008 4.427393 0.081892 -3.036855 -0.369922
  3   18.465939 0.000000 0.000000 0.000000 0.000000 -0.786992
  4   14.875443 0.000000 -0.000001 -0.145632 -0.015596 -0.378597
  5   0.000006 -0.000004 -4.427393 0.225140 3.042734 0.049731
  6   18.465939 0.000000 0.000000 0.000000 0.000000 -0.002222
  7   14.875442 0.000000 0.000000 0.378168 0.224017 -0.247836
  8   2.259113 -0.007574 0.000003 -0.368709 0.238444 0.810317
  9   9.514219 -0.009357 0.000000 -0.018406 0.097435 0.100665
 10   11.751820 -0.001633 0.000000 0.000000 -0.000001 0.082388
 11   -2.176092 0.108725 2.649729 0.949052 -1.235879 2.136656
 12   4.640941 0.000000 -0.000001 0.888340 0.927331 0.527021
 13   10.828049 0.000000 0.000000 0.000000 0.000000 -1.715468
 14   9.393337 -0.000001 0.000000 -1.569611 0.191248 0.000037
 15   1.442245 0.107454 -1.746177 1.686435 0.539209 0.325885
 16   1.063452 0.000000 0.000001 0.000000 0.000000 0.199056
 17   1.376307 -0.000001 0.000001 0.000000 0.000000 0.199049
 18   4.172846 -0.251366 -1.312744 0.008050 0.095731 0.148659
 19   1.215374 0.000002 0.000000 0.000000 0.000000 0.645758
 20   1.215371 -0.000002 0.000001 0.000000 0.000000 0.645758
 21   4.220534 -0.244854 -0.431465 0.001333 0.026242 0.148339
 22   1.350417 0.000000 0.000001 0.000000 0.000000 0.863926
 23   1.350410 -0.000001 -0.000001 0.000000 0.000000 0.863926
 24   -2.176092 0.108738 -2.649726 -0.353333 1.210653 2.726101
 25   4.640942 0.000000 0.000001 -0.827036 -0.333616 0.849413
 26   10.828047 0.000000 0.000001 0.000000 0.000000 -1.591460
 27   9.393339 0.000000 0.000000 1.555388 -0.024530 -0.254890
 28   1.442245 0.107455 1.746178 -1.686405 -0.539236 0.325898
 29   1.063450 -0.000001 0.000000 0.000000 0.000000 0.199056
 30   1.376307 0.000000 0.000000 0.000000 0.000000 0.199059
 31   4.172847 -0.251365 1.312745 -0.008050 -0.095731 0.148659
 32   1.215373 -0.000001 0.000000 0.000000 0.000000 0.645746
 33   1.215372 0.000000 0.000000 0.000000 0.000000 0.645746
 34   4.220534 -0.244853 0.431466 -0.001333 -0.026242 0.148339
 35   1.350416 0.000000 -0.000001 0.000000 0.000000 0.863937
 36   1.350410 0.000000 0.000001 0.000000 0.000000 0.863925
 37   2.110540 -0.000001 0.000000 0.223621 -0.282515 0.388445
 38   0.891923 2.373051 -0.014527 -3.141592 -0.000001 1.413797
 39   7.228122 5.709445 3.726568 3.140796 -1.570796 0.000000
 40   2.450426 5.076128 0.001325 1.539820 -1.831784 0.694011
 41   6.312404 -4.528058 0.001311 3.140791 -1.570796 0.000000
 42   2.233309 1.152535 -7.309138 -1.442423 -1.596979 -0.215607
 43   4.262825 -0.232720 -1.392178 0.016840 0.076668 0.253759
time 17
  0   0.410528 0.350683 13.084332 -1.570700 -1.569970 -0.000095
  1   -7.859288 3.027436 0.000000 -1.570795 -1.570451 0.000000
  2   -0.000007 0.000008 4.427393 0.081987 -3.036669 -0.369872
  3   18.465939 0.000000 0.000000 0.000000 0.000000 -0.786846
  4   14.875443 0.000000 -0.000001 -0.145433 -0.015787 -0.378676
  5   0.000006 -0.000004 -4.427393 0.225044 3.042921 0.049357
  6   18.465939 0.000000 0.000000 0.000000 0.000000 -0.002944
  7   14.875442 0.000000 0.000000 0.378203 0.223789 -0.247386
  8   2.259113 -0.007574 0.000003 -0.369193 0.237665 0.808266
  9   9.514219 -0.009357 0.000000 -0.018406 0.097435 0.100665
 10   11.751820 -0.001633 0.000000 0.000000 -0.000001 0.082388
 11   -2.176092 0.108725 2.649729 0.949052 -1.235879 2.136656
 12   4.640941 0.000000 -0.000001 0.886915 0.928433 0.524328
 13   10.828049 0.000000 0.000000 0.000000 0.000000 -1.713027
 14   9.393337 -0.000001 0.000000 -1.569611 0.191279 0.000037
 15   1.442245 0.107454 -1.746177 1.686435 0.539209 0.325885
 16   1.063452 0.000000 0.000001 0.000000 0.000000 0.199056
 17   1.376307 -0.000001 0.000001 0.000000 0.000000 0.199049
 18   4.172846 -0.251366 -1.312744 0.008050 0.095731 0.148659
 19   1.215374 0.000002 0.000000 0.000000 0.000000 0.645758
 20   1.215371 -0.000002 0.000001 0.000000 0.000000 0.645758
 21   4.220534 -0.244854 -0.431465 0.001333 0.026242 0.148339
 22   1.350417 0.000000 0.000001 0.000000 0.000000 0.863926
 23   1.350410 -0.000001 -0.000001 0.000000 0.000000 0.863926
 24   -2.176092 0.108738 -2.649726 -0.353333 1.210653 2.726101
 25   4.640942 0.000000 0.000001 -0.827654 -0.333546 0.848993
 26   10.828047 0.000000 0.000001 0.000000 0.000000 -1.591983
 27   9.393339 0.000000 0.000000 1.555841 -0.024758 -0.252223
 28   1.442245 0.107455 1.746178 -1.686405 -0.539236 0.325898
 29   1.063450 -0.000001 0.000000 0.000000 0.000000 0.199056
 30   1.376307 0.000000 0.000000 0.000000 0.000000 0.199059
 31   4.172847 -0.251365 1.312745 -0.008050 -0.095731 0.148659
 32   1.215373 -0.000001 0.000000 0.000000 0.000000 0.645746
 33   1.215372 0.000000 0.000000 0.000000 0.000000 0.645746
 34   4.220534 -0.244853 0.431466 -0.001333 -0.026242 0.148339
 35   1.350416 0.000000 -0.000001 0.000000 0.000000 0.863937
 36   1.350410 0.000000 0.000001 0.000000 0.000000 0.863925
 37   2.110540 -0.000001 0.000000 0.225815 -0.280560 0.381909
 38   0.891923 2.373051 -0.014527 -3.141592 -0.000001 1.413797
 39   7.228122 5.709445 3.726568 3.140796 -1.570796 0.000000
 40   2.450426 5.076128 0.001325 1.543243 -1.829376 0.694286
 41   6.312404 -4.528058 0.001311 3.140791 -1.570796 0.000000
 42   2.233309 1.152535 -7.309138 -1.442423 -1.596979 -0.215607
 43   4.262825 -0.232720 -1.392178 0.016840 0.076668 0.253759
time 18
  0   0.410528 0.350683 13.060894 -1.570700 -1.569970 -0.000095
  1   -7.839756 3.015717 0.000000 -1.570795 -1.570451 0.000000
  2   -0.000007 0.000008 4.427393 0.082083 -3.036297 -0.369772
  3   18.465939 0.000000 0.000000 0.000000 0.000000 -0.786554
  4   14.875443 0.000000 -0.000001 -0.145148 -0.016064 -0.378834
  5   0.000006 -0.000004 -4.427393 0.225044 3.043107 0.048889
  6   18.465939 0.000000 0.000000 0.000000 0.000000 -0.004191
  7   14.875442 0.000000 0.000000 0.378308 0.223428 -0.246598
  8   2.259113 -0.007574 0.000003 -0.369949 0.236443 0.805023
  9   9.514219 -0.009357 0.000000 -0.018406 0.097435 0.100665
 10   11.751820 -0.001633 0.000000 0.000000 -0.000001 0.082388
 11   -2.176092 0.108725 2.649729 0.949052 -1.235879 2.136656
 12   4.640941 0.000000 -0.000001 0.884656 0.930224 0.519996
 13   10.828049 0.000000 0.000000 0.000000 0.000000 -1.709245
 14   9.393337 -0.000001 0.000000 -1.569611 0.191279 0.000037
 15   1.442245 0.107454 -1.746177 1.686435 0.539209 0.325885
 16   1.063452 0.000000 0.000001 0.000000 0.000000 0.199056
 17   1.376307 -0.000001 0.000001 0.000000 0.000000 0.199049
 18   4.172846 -0.251366 -1.312744 0.008050 0.095731 0.148659
 19   1.215374 0.000002 0.000000 0.000000 0.000000 0.645758
 20   1.215371 -0.000002 0.000001 0.000000 0.000000 0.645758
 21   4.220534 -0.244854 -0.431465 0.001333 0.026242 0.148339
 22   1.350417 0.000000 0.000001 0.000000 0.000000 0.863926
 23   1.350410 -0.000001 -0.000001 0.000000 0.000000 0.863926
 24   -2.176092 0.108738 -2.649726 -0.353333 1.210653 2.726101
 25   4.640942 0.000000 0.000001 -0.828580 -0.333476 0.848363
 26   10.828047 0.000000 0.000001 0.000000 0.000000 -1.592854
 27   9.393339 0.000000 0.000000 1.556645 -0.025083 -0.248052
 28   1.442245 0.107455 1.746178 -1.686405 -0.539236 0.325898
 29   1.063450 -0.000001 0.000000 0.000000 0.000000 0.199056
 30   1.376307 0.000000 0.000000 0.000000 0.000000 0.199059
 31   4.172847 -0.251365 1.312745 -0.008050 -0.095731 0.148659
 32   1.215373 -0.000001 0.000000 0.000000 0.000000 0.645746
 33   1.215372 0.000000 0.000000 0.000000 0.000000 0.645746
 34   4.220534 -0.244853 0.431466 -0.001333 -0.026242 0.148339
 35   1.350416 0.000000 -0.000001 0.000000 0.000000 0.863937
 36   1.350410 0.000000 0.000001 0.000000 0.000000 0.863925
 37   2.110540 -0.000001 0.000000 0.229249 -0.277404 0.371673
 38   0.891923 2.373051 -0.014527 -3.141592 -0.000001 1.413797
 39   7.228122 5.709445 3.726568 3.140796 -1.570796 0.000000
 40   2.450426 5.076128 0.001325 1.548684 -1.825576 0.694651
 41   6.312404 -4.528058 0.001311 3.140791 -1.570796 0.000000
 42   2.233309 1.152535 -7.309138 -1.442423 -1.596979 -0.215607
 43   4.262825 -0.232720 -1.392178 0.016840 0.076668 0.253759
time 19
  0   0.410528 0.350683 13.037456 -1.570700 -1.569970 -0.000095
  1   -7.812411 3.000092 0.000000 -1.570795 -1.570451 0.000000
  2   -0.000007 0.000008 4.427393 0.082274 -3.035739 -0.369623
  3   18.465939 0.000000 0.000000 0.000000 0.000000 -0.786188
  4   14.875443 0.000000 -0.000001 -0.144750 -0.016426 -0.378992
  5   0.000006 -0.000004 -4.427393 0.224948 3.043480 0.048140
  6   18.465939 0.000000 0.000000 0.000000 0.000000 -0.005766
  7   14.875442 0.000000 0.000000 0.378414 0.222952 -0.245585
  8   2.259113 -0.007574 0.000003 -0.370957 0.234825 0.800722
  9   9.514219 -0.009357 0.000000 -0.018406 0.097435 0.100665
 10   11.751820 -0.001633 0.000000 0.000000 -0.000001 0.082388
 11   -2.176092 0.108725 2.649729 0.949052 -1.235879 2.136656
 12   4.640941 0.000000 -0.000001 0.881610 0.932566 0.514259
 13   10.828049 0.000000 0.000000 0.000000 0.000000 -1.704181
 14   9.393337 -0.000001 0.000000 -1.569611 0.191279 0.000037
 15   1.442245 0.107454 -1.746177 1.686435 0.539209 0.325885
 16   1.063452 0.000000 0.000001 0.000000 0.000000 0.199056
 17   1.376307 -0.000001 0.000001 0.000000 0.000000 0.199049
 18   4.172846 -0.251366 -1.312744 0.008050 0.095731 0.148659
 19   1.215374 0.000002 0.000000 0.000000 0.000000 0.645758
 20   1.215371 -0.000002 0.000001 0.000000 0.000000 0.645758
 21   4.220534 -0.244854 -0.431465 0.001333 0.026242 0.148339
 22   1.350417 0.000000 0.000001 0.000000 0.000000 0.863926
 23   1.350410 -0.000001 -0.000001 0.000000 0.000000 0.863926
 24   -2.176092 0.108738 -2.649726 -0.353333 1.210653 2.726101
 25   4.640942 0.000000 0.000001 -0.829815 -0.333407 0.847453
 26   10.828047 0.000000 0.000001 0.000000 0.000000 -1.594015
 27   9.393339 0.000000 0.000000 1.557650 -0.025506 -0.242572
 28   1.442245 0.107455 1.746178 -1.686405 -0.539236 0.325898
 29   1.063450 -0.000001 0.000000 0.000000 0.000000 0.199056
 30   1.376307 0.000000 0.000000 0.000000 0.000000 0.199059
 31   4.172847 -0.251365 1.312745 -0.008050 -0.095731 0.148659
 32   1.215373 -0.000001 0.000000 0.000000 0.000000 0.645746
 33   1.215372 0.000000 0.000000 0.000000 0.000000 0.645746
 34   4.220534 -0.244853 0.431466 -0.001333 -0.026242 0.148339
 35   1.350416 0.000000 -0.000001 0.000000 0.000000 0.863937
 36   1.350410 0.000000 0.000001 0.000000 0.000000 0.863925
 37   2.110540 -0.000001 0.000000 0.233732 -0.273186 0.358127
 38   0.891923 2.373051 -0.014527 -3.141592 -0.000001 1.413797
 39   7.228122 5.709445 3.726568 3.140796 -1.570796 0.000000
 40   2.450426 5.076128 0.001325 1.555881 -1.820567 0.695109
 41   6.312404 -4.528058 0.001311 3.140791 -1.570796 0.000000
 42   2.233309 1.152535 -7.309138 -1.442423 -1.596979 -0.215607
 43   4.262825 -0.232720 -1.392178 0.016840 0.076668 0.253759
time 20
  0   0.410528 0.350683 13.002298 -1.570700 -1.569970 -0.000095
  1   -7.777254 2.980560 0.000000 -1.570795 -1.570451 0.000000
  2   -0.000007 0.000008 4.427393 0.082464 -3.035088 -0.369473
  3   18.465939 0.000000 0.000000 0.000000 0.000000 -0.785822
  4   14.875443 0.000000 -0.000001 -0.144266 -0.016873 -0.379229
  5   0.000006 -0.000004 -4.427393 0.224853 3.043946 0.047298
  6   18.465939 0.000000 0.000000 0.000000 0.000000 -0.007669
  7   14.875442 0.000000 0.000000 0.378589 0.222363 -0.244384
  8   2.259113 -0.007574 0.000003 -0.372154 0.232860 0.795560
  9   9.514219 -0.009357 0.000000 -0.018406 0.097435 0.100665
 10   11.751820 -0.001633 0.000000 0.000000 -0.000001 0.082388
 11   -2.176092 0.108725 2.649729 0.949052 -1.235879 2.136656
 12   4.640941 0.000000 -0.000001 0.877926 0.935390 0.507293
 13   10.828049 0.000000 0.000000 0.000000 0.000000 -1.698079
 14   9.393337 -0.000001 0.000000 -1.569611 0.191248 0.000037
 15   1.442245 0.107454 -1.746177 1.686435 0.539209 0.325885
 16   1.063452 0.000000 0.000001 0.000000 0.000000 0.199056
 17   1.376307 -0.000001 0.000001 0.000000 0.000000 0.199049
 18   4.172846 -0.251366 -1.312744 0.008050 0.095731 0.148659
 19   1.215374 0.000002 0.000000 0.000000 0.000000 0.645758
 20   1.215371 -0.000002 0.000001 0.000000 0.000000 0.645758
 21   4.220534 -0.244854 -0.431465 0.001333 0.026242 0.148339
 22   1.350417 0.000000 0.000001 0.000000 0.000000 0.863926
 23   1.350410 -0.000001 -0.000001 0.000000 0.000000 0.863926
 24   -2.176092 0.108738 -2.649726 -0.353333 1.210653 2.726101
 25   4.640942 0.000000 0.000001 -0.831358 -0.333337 0.846403
 26   10.828047 0.000000 0.000001 0.000000 0.000000 -1.595410
 27   9.393339 0.000000 0.000000 1.558906 -0.026027 -0.235880
 28   1.442245 0.107455 1.746178 -1.686405 -0.539236 0.325898
 29   1.063450 -0.000001 0.000000 0.000000 0.000000 0.199056
 30   1.376307 0.000000 0.000000 0.000000 0.000000 0.199059
 31   4.172847 -0.251365 1.312745 -0.008050 -0.095731 0.148659
 32   1.215373 -0.000001 0.000000 0.000000 0.000000 0.645746
 33   1.215372 0.000000 0.000000 0.000000 0.000000 0.645746
 34   4.220534 -0.244853 0.431466 -0.001333 -0.026242 0.148339
 35   1.350416 0.000000 -0.000001 0.000000 0.000000 0.863937
 36   1.350410 0.000000 0.000001 0.000000 0.000000 0.863925
 37   2.110540 -0.000001 0.000000 0.239025 -0.267990 0.341828
 38   0.891923 2.373051 -0.014527 -3.141592 -0.000001 1.413797
 39   7.228122 5.709445 3.726568 3.140796 -1.570796 0.000000
 40   2.450426 5.076128 0.001325 1.564921 -1.814515 0.695383
 41   6.312404 -4.528058 0.001311 3.140791 -1.570796 0.000000
 42   2.233309 1.152535 -7.309138 -1.442423 -1.596979 -0.215607
 43   4.262825 -0.232720 -1.392178 0.016840 0.076668 0.253759
time 21
  0   0.410528 0.350683 12.967141 -1.570700 -1.569970 -0.000095
  1   -7.742096 2.957121 0.000000 -1.570795 -1.570451 0.000000
  2   -0.000007 0.000008 4.427393 0.082751 -3.034343 -0.369274
  3   18.465939 0.000000 0.000000 0.000000 0.000000 -0.785311
  4   14.875443 0.000000 -0.000001 -0.143725 -0.017405 -0.379466
  5   0.000006 -0.000004 -4.427393 0.224757 3.044412 0.046362
  6   18.465939 0.000000 0.000000 0.000000 0.000000 -0.009835
  7   14.875442 0.000000 0.000000 0.378729 0.221716 -0.242959
  8   2.259113 -0.007574 0.000003 -0.373519 0.230606 0.789637
  9   9.514219 -0.009357 0.000000 -0.018406 0.097435 0.100665
 10   11.751820 -0.001633 0.000000 0.000000 -0.000001 0.082388
 11   -2.176092 0.108725 2.649729 0.949052 -1.235879 2.136656
 12   4.640941 0.000000 -0.000001 0.873653 0.938627 0.499332
 13   10.828049 0.000000 0.000000 0.000000 0.000000 -1.691124
 14   9.393337 -0.000001 0.000000 -1.569611 0.191248 0.000037
 15   1.442245 0.107454 -1.746177 1.686435 0.539209 0.325885
 16   1.063452 0.000000 0.000001 0.000000 0.000000 0.199056
 17   1.376307 -0.000001 0.000001 0.000000 0.000000 0.199049
 18   4.172846 -0.251366 -1.312744 0.008050 0.095731 0.148659
 19   1.215374 0.000002 0.000000 0.000000 0.000000 0.645758
 20   1.215371 -0.000002 0.000001 0.000000 0.000000 0.645758
 21   4.220534 -0.244854 -0.431465 0.001333 0.026242 0.148339
 22   1.350417 0.000000 0.000001 0.000000 0.000000 0.863926
 23   1.350410 -0.000001 -0.000001 0.000000 0.000000 0.863926
 24   -2.176092 0.108738 -2.649726 -0.353333 1.210653 2.726101
 25   4.640942 0.000000 0.000001 -0.833056 -0.333337 0.845213
 26   10.828047 0.000000 0.000001 0.000000 0.000000 -1.596978
 27   9.393339 0.000000 0.000000 1.560263 -0.026677 -0.228315
 28   1.442245 0.107455 1.746178 -1.686405 -0.539236 0.325898
 29   1.063450 -0.000001 0.000000 0.000000 0.000000 0.199056
 30   1.376307 0.000000 0.000000 0.000000 0.000000 0.199059
 31   4.172847 -0.251365 1.312745 -0.008050 -0.095731 0.148659
 32   1.215373 -0.000001 0.000000 0.000000 0.000000 0.645746
 33   1.215372 0.000000 0.000000 0.000000 0.000000 0.645746
 34   4.220534 -0.244853 0.431466 -0.001333 -0.026242 0.148339
 35   1.350416 0.000000 -0.000001 0.000000 0.000000 0.863937
 36   1.350410 0.000000 0.000001 0.000000 0.000000 0.863925
 37   2.110540 -0.000001 0.000000 0.244939 -0.261929 0.323294
 38   0.891923 2.373051 -0.014527 -3.141592 -0.000001 1.413797
 39   7.228122 5.709445 3.726568 3.140796 -1.570796 0.000000
 40   2.450426 5.076128 0.001325 4.716924 -1.334005 -2.446051
 41   6.312404 -4.528058 0.001311 3.140791 -1.570796 0.000000
 42   2.233309 1.152535 -7.309138 -1.442423 -1.596979 -0.215607
 43   4.262825 -0.232720 -1.392178 0.016840 0.076668 0.253759
time 22
  0   0.410528 0.350683 12.924170 -1.570700 -1.569970 -0.000095
  1   -7.699126 2.933683 0.000000 -1.570795 -1.570451 0.000000
  2   -0.000007 0.000008 4.427393 0.082942 -3.033599 -0.369074
  3   18.465939 0.000000 0.000000 0.000000 0.000000 -0.784799
  4   14.875443 0.000000 -0.000001 -0.143127 -0.017958 -0.379742
  5   0.000006 -0.000004 -4.427393 0.224661 3.044878 0.045333
  6   18.465939 0.000000 0.000000 0.000000 0.000000 -0.012198
  7   14.875442 0.000000 0.000000 0.378940 0.220994 -0.241420
  8   2.259113 -0.007574 0.000003 -0.374989 0.228126 0.783152
  9   9.514219 -0.009357 0.000000 -0.018406 0.097435 0.100665
 10   11.751820 -0.001633 0.000000 0.000000 -0.000001 0.082388
 11   -2.176092 0.108725 2.649729 0.949052 -1.235879 2.136656
 12   4.640941 0.000000 -0.000001 0.868888 0.942209 0.490493
 13   10.828049 0.000000 0.000000 0.000000 0.000000 -1.683437
 14   9.393337 -0.000001 0.000000 -1.569611 0.191248 0.000037
 15   1.442245 0.107454 -1.746177 1.686435 0.539209 0.325885
 16   1.063452 0.000000 0.000001 0.000000 0.000000 0.199056
 17   1.376307 -0.000001 0.000001 0.000000 0.000000 0.199049
 18   4.172846 -0.251366 -1.312744 0.008050 0.095731 0.148659
 19   1.215374 0.000002 0.000000 0.000000 0.000000 0.645758
 20   1.215371 -0.000002 0.000001 0.000000 0.000000 0.645758
 21   4.220534 -0.244854 -0.431465 0.001333 0.026242 0.148339
 22   1.350417 0.000000 0.000001 0.000000 0.000000 0.863926
 23   1.350410 -0.000001 -0.000001 0.000000 0.000000 0.863926
 24   -2.176092 0.108738 -2.649726 -0.353333 1.210653 2.726101
 25   4.640942 0.000000 0.000001 -0.834960 -0.333267 0.843884
 26   10.828047 0.000000 0.000001 0.000000 0.000000 -1.598720
 27   9.393339 0.000000 0.000000 1.561821 -0.027360 -0.219925
 28   1.442245 0.107455 1.746178 -1.686405 -0.539236 0.325898
 29   1.063450 -0.000001 0.000000 0.000000 0.000000 0.199056
 30   1.376307 0.000000 0.000000 0.000000 0.000000 0.199059
 31   4.172847 -0.251365 1.312745 -0.008050 -0.095731 0.148659
 32   1.215373 -0.000001 0.000000 0.000000 0.000000 0.645746
 33   1.215372 0.000000 0.000000 0.000000 0.000000 0.645746
 34   4.220534 -0.244853 0.431466 -0.001333 -0.026242 0.148339
 35   1.350416 0.000000 -0.000001 0.000000 0.000000 0.863937
 36   1.350410 0.000000 0.000001 0.000000 0.000000 0.863925
 37   2.110540 -0.000001 0.000000 0.251234 -0.255113 0.302952
 38   0.891923 2.373051 -0.014527 -3.141592 -0.000001 1.413797
 39   7.228122 5.709445 3.726568 3.140796 -1.570796 0.000000
 40   2.450426 5.076128 0.001325 4.728860 -1.341615 -2.446417
 41   6.312404 -4.528058 0.001311 3.140791 -1.570796 0.000000
 42   2.233309 1.152535 -7.309138 -1.442423 -1.596979 -0.215607
 43   4.262825 -0.232720 -1.392178 0.016840 0.076668 0.253759
time 23
  0   0.410528 0.350683 12.877295 -1.570700 -1.569970 -0.000095
  1   -7.652250 2.906339 0.000000 -1.570795 -1.570451 0.000000
  2   -0.000007 0.000008 4.427393 0.083228 -3.032762 -0.368875
  3   18.465939 0.000000 0.000000 0.000000 0.000000 -0.784214
  4   14.875443 0.000000 -0.000001 -0.142473 -0.018554 -0.380058
  5   0.000006 -0.000004 -4.427393 0.224566 3.045437 0.044210
  6   18.465939 0.000000 0.000000 0.000000 0.000000 -0.014758
  7   14.875442 0.000000 0.000000 0.379115 0.220214 -0.239807
  8   2.259113 -0.007574 0.000003 -0.376543 0.225453 0.776204
  9   9.514219 -0.009357 0.000000 -0.018406 0.097435 0.100665
 10   11.751820 -0.001633 0.000000 0.000000 -0.000001 0.082388
 11   -2.176092 0.108725 2.649729 0.949052 -1.235879 2.136656
 12   4.640941 0.000000 -0.000001 0.863681 0.946066 0.481010
 13   10.828049 0.000000 0.000000 0.000000 0.000000 -1.675200
 14   9.393337 -0.000001 0.000000 -1.569611 0.191248 0.000037
 15   1.442245 0.107454 -1.746177 1.686435 0.539209 0.325885
 16   1.063452 0.000000 0.000001 0.000000 0.000000 0.199056
 17   1.376307 -0.000001 0.000001 0.000000 0.000000 0.199049
 18   4.172846 -0.251366 -1.312744 0.008050 0.095731 0.148659
 19   1.215374 0.000002 0.000000 0.000000 0.000000 0.645758
 20   1.215371 -0.000002 0.000001 0.000000 0.000000 0.645758
 21   4.220534 -0.244854 -0.431465 0.001333 0.026242 0.148339
 22   1.350417 0.000000 0.000001 0.000000 0.000000 0.863926
 23   1.350410 -0.000001 -0.000001 0.000000 0.000000 0.863926
 24   -2.176092 0.108738 -2.649726 -0.353333 1.210653 2.726101
 25   4.640942 0.000000 0.000001 -0.837018 -0.333197 0.842484
 26   10.828047 0.000000 0.000001 0.000000 0.000000 -1.600579
 27   9.393339 0.000000 0.000000 1.563429 -0.028109 -0.211002
 28   1.442245 0.107455 1.746178 -1.686405 -0.539236 0.325898
 29   1.063450 -0.000001 0.000000 0.000000 0.000000 0.199056
 30   1.376307 0.000000 0.000000 0.000000 0.000000 0.199059
 31   4.172847 -0.251365 1.312745 -0.008050 -0.095731 0.148659
 32   1.215373 -0.000001 0.000000 0.000000 0.000000 0.645746
 33   1.215372 0.000000 0.000000 0.000000 0.000000 0.645746
 34   4.220534 -0.244853 0.431466 -0.001333 -0.026242 0.148339
 35   1.350416 0.000000 -0.000001 0.000000 0.000000 0.863937
 36   1.350410 0.000000 0.000001 0.000000 0.000000 0.863925
 37   2.110540 -0.000001 0.000000 0.257720 -0.247655 0.281321
 38   0.891923 2.373051 -0.014527 -3.141592 -0.000001 1.413797
 39   7.228122 5.709445 3.726568 3.140796 -1.570796 0.000000
 40   2.450426 5.076128 0.001325 4.742025 -1.349752 -2.447240
 41   6.312404 -4.528058 0.001311 3.140791 -1.570796 0.000000
 42   2.233309 1.152535 -7.309138 -1.442423 -1.596979 -0.215607
 43   4.262825 -0.232720 -1.392178 0.016840 0.076668 0.253759
time 24
  0   0.410528 0.350683 12.830418 -1.570700 -1.569970 -0.000095
  1   -7.605373 2.875088 0.000000 -1.570795 -1.570451 0.000000
  2   -0.000007 0.000008 4.427393 0.083515 -3.031832 -0.368625
  3   18.465939 0.000000 0.000000 0.000000 0.000000 -0.783629
  4   14.875443 0.000000 -0.000001 -0.141818 -0.019193 -0.380335
  5   0.000006 -0.000004 -4.427393 0.224470 3.046090 0.043087
  6   18.465939 0.000000 0.000000 0.000000 0.000000 -0.017449
  7   14.875442 0.000000 0.000000 0.379326 0.219415 -0.238081
  8   2.259113 -0.007574 0.000003 -0.378160 0.222661 0.768991
  9   9.514219 -0.009357 0.000000 -0.018406 0.097435 0.100665
 10   11.751820 -0.001633 0.000000 0.000000 -0.000001 0.082388
 11   -2.176092 0.108725 2.649729 0.949052 -1.235879 2.136656
 12   4.640941 0.000000 -0.000001 0.858229 0.950061 0.471058
 13   10.828049 0.000000 0.000000 0.000000 0.000000 -1.666658
 14   9.393337 -0.000001 0.000000 -1.569611 0.191279 0.000037
 15   1.442245 0.107454 -1.746177 1.686435 0.539209 0.325885
 16   1.063452 0.000000 0.000001 0.000000 0.000000 0.199056
 17   1.376307 -0.000001 0.000001 0.000000 0.000000 0.199049
 18   4.172846 -0.251366 -1.312744 0.008050 0.095731 0.148659
 19   1.215374 0.000002 0.000000 0.000000 0.000000 0.645758
 20   1.215371 -0.000002 0.000001 0.000000 0.000000 0.645758
 21   4.220534 -0.244854 -0.431465 0.001333 0.026242 0.148339
 22   1.350417 0.000000 0.000001 0.000000 0.000000 0.863926
 23   1.350410 -0.000001 -0.000001 0.000000 0.000000 0.863926
 24   -2.176092 0.108738 -2.649726 -0.353333 1.210653 2.726101
 25   4.640942 0.000000 0.000001 -0.839179 -0.333197 0.841084
 26   10.828047 0.000000 0.000001 0.000000 0.000000 -1.602553
 27   9.393339 0.000000 0.000000 1.565138 -0.028922 -0.201642
 28   1.442245 0.107455 1.746178 -1.686405 -0.539236 0.325898
 29   1.063450 -0.000001 0.000000 0.000000 0.000000 0.199056
 30   1.376307 0.000000 0.000000 0.000000 0.000000 0.199059
 31   4.172847 -0.251365 1.312745 -0.008050 -0.095731 0.148659
 32   1.215373 -0.000001 0.000000 0.000000 0.000000 0.645746
 33   1.215372 0.000000 0.000000 0.000000 0.000000 0.645746
 34   4.220534 -0.244853 0.431466 -0.001333 -0.026242 0.148339
 35   1.350416 0.000000 -0.000001 0.000000 0.000000 0.863937
 36   1.350410 0.000000 0.000001 0.000000 0.000000 0.863925
 37   2.110540 -0.000001 0.000000 0.264253 -0.239722 0.258873
 38   0.891923 2.373051 -0.014527 -3.141592 -0.000001 1.413797
 39   7.228122 5.709445 3.726568 3.140796 -1.570796 0.000000
 40   2.450426 5.076128 0.001325 4.756420 -1.358237 -2.448612
 41   6.312404 -4.528058 0.001311 3.140791 -1.570796 0.000000
 42   2.233309 1.152535 -7.309138 -1.442423 -1.596979 -0.215607
 43   4.262825 -0.232720 -1.392178 0.016840 0.076668 0.253759
time 25
  0   0.410528 0.350683 12.783542 -1.570700 -1.569970 -0.000095
  1   -7.558497 2.847743 0.000000 -1.570795 -1.570451 0.000000
  2   -0.000007 0.000008 4.427393 0.083801 -3.030901 -0.368426
  3   18.465939 0.000000 0.000000 0.000000 0.000000 -0.783044
  4   14.875443 0.000000 -0.000001 -0.141135 -0.019831 -0.380651
  5   0.000006 -0.000004 -4.427393 0.224374 3.046649 0.041870
  6   18.465939 0.000000 0.000000 0.000000 0.000000 -0.020140
  7   14.875442 0.000000 0.000000 0.379572 0.218578 -0.236318
  8   2.259113 -0.007574 0.000003 -0.379777 0.219808 0.761612
  9   9.514219 -0.009357 0.000000 -0.018406 0.097435 0.100665
 10   11.751820 -0.001633 0.000000 0.000000 -0.000001 0.082388
 11   -2.176092 0.108725 2.649729 0.949052 -1.235879 2.136656
 12   4.640941 0.000000 -0.000001 0.852531 0.954194 0.460873
 13   10.828049 0.000000 0.000000 0.000000 0.000000 -1.657933
 14   9.393337 -0.000001 0.000000 -1.569611 0.191248 0.000037
 15   1.442245 0.107454 -1.746177 1.686435 0.539209 0.325885
 16   1.063452 0.000000 0.000001 0.000000 0.000000 0.199056
 17   1.376307 -0.000001 0.000001 0.000000 0.000000 0.199049
 18   4.172846 -0.251366 -1.312744 0.008050 0.095731 0.148659
 19   1.215374 0.000002 0.000000 0.000000 0.000000 0.645758
 20   1.215371 -0.000002 0.000001 0.000000 0.000000 0.645758
 21   4.220534 -0.244854 -0.431465 0.001333 0.026242 0.148339
 22   1.350417 0.000000 0.000001 0.000000 0.000000 0.863926
 23   1.350410 -0.000001 -0.000001 0.000000 0.000000 0.863926
 24   -2.176092 0.108738 -2.649726 -0.353333 1.210653 2.726101
 25   4.640942 0.000000 0.000001 -0.841391 -0.333197 0.839614
 26   10.828047 0.000000 0.000001 0.000000 0.000000 -1.604528
 27   9.393339 0.000000 0.000000 1.566897 -0.029768 -0.192137
 28   1.442245 0.107455 1.746178 -1.686405 -0.539236 0.325898
 29   1.063450 -0.000001 0.000000 0.000000 0.000000 0.199056
 30   1.376307 0.000000 0.000000 0.000000 0.000000 0.199059
 31   4.172847 -0.251365 1.312745 -0.008050 -0.095731 0.148659
 32   1.215373 -0.000001 0.000000 0.000000 0.000000 0.645746
 33   1.215372 0.000000 0.000000 0.000000 0.000000 0.645746
 34   4.220534 -0.244853 0.431466 -0.001333 -0.026242 0.148339
 35   1.350416 0.000000 -0.000001 0.000000 0.000000 0.863937
 36   1.350410 0.000000 0.000001 0.000000 0.000000 0.863925
 37   2.110540 -0.000001 0.000000 0.270596 -0.231426 0.236081
 38   0.891923 2.373051 -0.014527 -3.141592 -0.000001 1.413797
 39   7.228122 5.709445 3.726568 3.140796 -1.570796 0.000000
 40   2.450426 5.076128 0.001325 4.771691 -1.366890 -2.450715
 41   6.312404 -4.528058 0.001311 3.140791 -1.570796 0.000000
 42   2.233309 1.152535 -7.309138 -1.442423 -1.596979 -0.215607
 43   4.262825 -0.232720 -1.392178 0.016840 0.076668 0.253759
time 26
  0   0.410528 0.350683 12.732759 -1.570700 -1.569970 -0.000095
  1   -7.507714 2.816492 0.000000 -1.570795 -1.570451 0.000000
  2   -0.000007 0.000008 4.427393 0.084087 -3.030064 -0.368176
  3   18.465939 0.000000 0.000000 0.000000 0.000000 -0.782386
  4   14.875443 0.000000 -0.000001 -0.140452 -0.020470 -0.380967
  5   0.000006 -0.000004 -4.427393 0.224279 3.047302 0.040653
  6   18.465939 0.000000 0.000000 0.000000 0.000000 -0.022897
  7   14.875442 0.000000 0.000000 0.379782 0.217761 -0.234592
  8   2.259113 -0.007574 0.000003 -0.381352 0.216932 0.754267
  9   9.514219 -0.009357 0.000000 -0.018406 0.097435 0.100665
 10   11.751820 -0.001633 0.000000 0.000000 -0.000001 0.082388
 11   -2.176092 0.108725 2.649729 0.949052 -1.235879 2.136656
 12   4.640941 0.000000 -0.000001 0.846735 0.958258 0.450570
 13   10.828049 0.000000 0.000000 0.000000 0.000000 -1.649209
 14   9.393337 -0.000001 0.000000 -1.569611 0.191279 0.000037
 15   1.442245 0.107454 -1.746177 1.686435 0.539209 0.325885
 16   1.063452 0.000000 0.000001 0.000000 0.000000 0.199056
 17   1.376307 -0.000001 0.000001 0.000000 0.000000 0.199049
 18   4.172846 -0.251366 -1.312744 0.008050 0.095731 0.148659
 19   1.215374 0.000002 0.000000 0.000000 0.000000 0.645758
 20   1.215371 -0.000002 0.000001 0.000000 0.000000 0.645758
 21   4.220534 -0.244854 -0.431465 0.001333 0.026242 0.148339
 22   1.350417 0.000000 0.000001 0.000000 0.000000 0.863926
 23   1.350410 -0.000001 -0.000001 0.000000 0.000000 0.863926
 24   -2.176092 0.108738 -2.649726 -0.353333 1.210653 2.726101
 25   4.640942 0.000000 0.000001 -0.843604 -0.333197 0.838144
 26   10.828047 0.000000 0.000001 0.000000 0.000000 -1.606503
 27   9.393339 0.000000 0.000000 1.568606 -0.030614 -0.182632
 28   1.442245 0.107455 1.746178 -1.686405 -0.539236 0.325898
 29   1.063450 -0.000001 0.000000 0.000000 0.000000 0.199056
 30   1.376307 0.000000 0.000000 0.000000 0.000000 0.199059
 31   4.172847 -0.251365 1.312745 -0.008050 -0.095731 0.148659
 32   1.215373 -0.000001 0.000000 0.000000 0.000000 0.645746
 33   1.215372 0.000000 0.000000 0.000000 0.000000 0.645746
 34   4.220534 -0.244853 0.431466 -0.001333 -0.026242 0.148339
 35   1.350416 0.000000 -0.000001 0.000000 0.000000 0.863937
 36   1.350410 0.000000 0.000001 0.000000 0.000000 0.863925
 37   2.110540 -0.000001 0.000000 0.276701 -0.222990 0.213374
 38   0.891923 2.373051 -0.014527 -3.141592 -0.000001 1.413797
 39   7.228122 5.709445 3.726568 3.140796 -1.570796 0.000000
 40   2.450426 5.076128 0.001325 4.787753 -1.375531 -2.453642
 41   6.312404 -4.528058 0.001311 3.140791 -1.570796 0.000000
 42   2.233309 1.152535 -7.309138 -1.442423 -1.596979 -0.215607
 43   4.262825 -0.232720 -1.392178 0.016840 0.076668 0.253759
time 27
  0   0.410528 0.350683 12.685883 -1.570700 -1.569970 -0.000095
  1   -7.460838 2.789148 0.000000 -1.570795 -1.570451 0.000000
  2   -0.000007 0.000008 4.427393 0.084374 -3.029134 -0.367977
  3   18.465939 0.000000 0.000000 0.000000 0.000000 -0.781802
  4   14.875443 0.000000 -0.000001 -0.139769 -0.021108 -0.381283
  5   0.000006 -0.000004 -4.427393 0.224183 3.047861 0.039530
  6   18.465939 0.000000 0.000000 0.000000 0.000000 -0.025523
  7   14.875442 0.000000 0.000000 0.379993 0.216962 -0.232866
  8   2.259113 -0.007574 0.000003 -0.382907 0.214104 0.747087
  9   9.514219 -0.009357 0.000000 -0.018406 0.097435 0.100665
 10   11.751820 -0.001633 0.000000 0.000000 -0.000001 0.082388
 11   -2.176092 0.108725 2.649729 0.949052 -1.235879 2.136656
 12   4.640941 0.000000 -0.000001 0.840939 0.962322 0.440443
 13   10.828049 0.000000 0.000000 0.000000 0.000000 -1.640667
 14   9.393337 -0.000001 0.000000 -1.569611 0.191248 0.000037
 15   1.442245 0.107454 -1.746177 1.686435 0.539209 0.325885
 16   1.063452 0.000000 0.000001 0.000000 0.000000 0.199056
 17   1.376307 -0.000001 0.000001 0.000000 0.000000 0.199049
 18   4.172846 -0.251366 -1.312744 0.008050 0.095731 0.148659
 19   1.215374 0.000002 0.000000 0.000000 0.000000 0.645758
 20   1.215371 -0.000002 0.000001 0.000000 0.000000 0.645758
 21   4.220534 -0.244854 -0.431465 0.001333 0.026242 0.148339
 22   1.350417 0.000000 0.000001 0.000000 0.000000 0.863926
 23   1.350410 -0.000001 -0.000001 0.000000 0.000000 0.863926
 24   -2.176092 0.108738 -2.649726 -0.353333 1.210653 2.726101
 25   4.640942 0.000000 0.000001 -0.845816 -0.333267 0.836744
 26   10.828047 0.000000 0.000001 0.000000 0.000000 -1.608420
 27   9.393339 0.000000 0.000000 1.570214 -0.031460 -0.173321
 28   1.442245 0.107455 1.746178 -1.686405 -0.539236 0.325898
 29   1.063450 -0.000001 0.000000 0.000000 0.000000 0.199056
 30   1.376307 0.000000 0.000000 0.000000 0.000000 0.199059
 31   4.172847 -0.251365 1.312745 -0.008050 -0.095731 0.148659
 32   1.215373 -0.000001 0.000000 0.000000 0.000000 0.645746
 33   1.215372 0.000000 0.000000 0.000000 0.000000 0.645746
 34   4.220534 -0.244853 0.431466 -0.001333 -0.026242 0.148339
 35   1.350416 0.000000 -0.000001 0.000000 0.000000 0.863937
 36   1.350410 0.000000 0.000001 0.000000 0.000000 0.863925
 37   2.110540 -0.000001 0.000000 0.282424 -0.214526 0.191270
 38   0.891923 2.373051 -0.014527 -3.141592 -0.000001 1.413797
 39   7.228122 5.709445 3.726568 3.140796 -1.570796 0.000000
 40   2.450426 5.076128 0.001325 4.804341 -1.383992 -2.457301
 41   6.312404 -4.528058 0.001311 3.140791 -1.570796 0.000000
 42   2.233309 1.152535 -7.309138 -1.442423 -1.596979 -0.215607
 43   4.262825 -0.232720 -1.392178 0.016840 0.076668 0.253759
time 28
  0   0.410528 0.350683 12.639006 -1.570700 -1.569970 -0.000095
  1   -7.413961 2.761803 0.000000 -1.570795 -1.570451 0.000000
  2   -0.000007 0.000008 4.427393 0.084660 -3.028296 -0.367727
  3   18.465939 0.000000 0.000000 0.000000 0.000000 -0.781290
  4   14.875443 0.000000 -0.000001 -0.139143 -0.021704 -0.381599
  5   0.000006 -0.000004 -4.427393 0.224087 3.048420 0.038407
  6   18.465939 0.000000 0.000000 0.000000 0.000000 -0.028082
  7   14.875442 0.000000 0.000000 0.380203 0.216182 -0.231216
  8   2.259113 -0.007574 0.000003 -0.384356 0.211383 0.740171
  9   9.514219 -0.009357 0.000000 -0.018406 0.097435 0.100665
 10   11.751820 -0.001633 0.000000 0.000000 -0.000001 0.082388
 11   -2.176092 0.108725 2.649729 0.949052 -1.235879 2.136656
 12   4.640941 0.000000 -0.000001 0.835339 0.966179 0.430667
 13   10.828049 0.000000 0.000000 0.000000 0.000000 -1.632430
 14   9.393337 -0.000001 0.000000 -1.569611 0.191248 0.000037
 15   1.442245 0.107454 -1.746177 1.686435 0.539209 0.325885
 16   1.063452 0.000000 0.000001 0.000000 0.000000 0.199056
 17   1.376307 -0.000001 0.000001 0.000000 0.000000 0.199049
 18   4.172846 -0.251366 -1.312744 0.008050 0.095731 0.148659
 19   1.215374 0.000002 0.000000 0.000000 0.000000 0.645758
 20   1.215371 -0.000002 0.000001 0.000000 0.000000 0.645758
 21   4.220534 -0.244854 -0.431465 0.001333 0.026242 0.148339
 22   1.350417 0.000000 0.000001 0.000000 0.000000 0.863926
 23   1.350410 -0.000001 -0.000001 0.000000 0.000000 0.863926
 24   -2.176092 0.108738 -2.649726 -0.353333 1.210653 2.726101
 25   4.640942 0.000000 0.000001 -0.847874 -0.333337 0.835414
 26   10.828047 0.000000 0.000001 0.000000 0.000000 -1.610278
 27   9.393339 0.000000 0.000000 1.571822 -0.032273 -0.164398
 28   1.442245 0.107455 1.746178 -1.686405 -0.539236 0.325898
 29   1.063450 -0.000001 0.000000 0.000000 0.000000 0.199056
 30   1.376307 0.000000 0.000000 0.000000 0.000000 0.199059
 31   4.172847 -0.251365 1.312745 -0.008050 -0.095731 0.148659
 32   1.215373 -0.000001 0.000000 0.000000 0.000000 0.645746
 33   1.215372 0.000000 0.000000 0.000000 0.000000 0.645746
 34   4.220534 -0.244853 0.431466 -0.001333 -0.026242 0.148339
 35   1.350416 0.000000 -0.000001 0.000000 0.000000 0.863937
 36   1.350410 0.000000 0.000001 0.000000 0.000000 0.863925
 37   2.110540 -0.000001 0.000000 0.287670 -0.206314 0.170112
 38   0.891923 2.373051 -0.014527 -3.141592 -0.000001 1.413797
 39   7.228122 5.709445 3.726568 3.140796 -1.570796 0.000000
 40   2.450426 5.076128 0.001325 4.821104 -1.392094 -2.461782
 41   6.312404 -4.528058 0.001311 3.140791 -1.570796 0.000000
 42   2.233309 1.152535 -7.309138 -1.442423 -1.596979 -0.215607
 43   4.262825 -0.232720 -1.392178 0.016840 0.076668 0.253759
time 29
  0   0.410528 0.350683 12.592130 -1.570700 -1.569970 -0.000095
  1   -7.367085 2.734458 0.000000 -1.570795 -1.570451 0.000000
  2   -0.000007 0.000008 4.427393 0.084946 -3.027552 -0.367528
  3   18.465939 0.000000 0.000000 0.000000 0.000000 -0.780705
  4   14.875443 0.000000 -0.000001 -0.138545 -0.022279 -0.381875
  5   0.000006 -0.000004 -4.427393 0.223992 3.048979 0.037378
  6   18.465939 0.000000 0.000000 0.000000 0.000000 -0.030511
  7   14.875442 0.000000 0.000000 0.380379 0.215459 -0.229677
  8   2.259113 -0.007574 0.000003 -0.385700 0.208830 0.733752
  9   9.514219 -0.009357 0.000000 -0.018406 0.097435 0.100665
 10   11.751820 -0.001633 0.000000 0.000000 -0.000001 0.082388
 11   -2.176092 0.108725 2.649729 0.949052 -1.235879 2.136656
 12   4.640941 0.000000 -0.000001 0.829985 0.969829 0.421477
 13   10.828049 0.000000 0.000000 0.000000 0.000000 -1.624804
 14   9.393337 -0.000001 0.000000 -1.569611 0.191248 0.000037
 15   1.442245 0.107454 -1.746177 1.686435 0.539209 0.325885
 16   1.063452 0.000000 0.000001 0.000000 0.000000 0.199056
 17   1.376307 -0.000001 0.000001 0.000000 0.000000 0.199049
 18   4.172846 -0.251366 -1.312744 0.008050 0.095731 0.148659
 19   1.215374 0.000002 0.000000 0.000000 0.000000 0.645758
 20   1.215371 -0.000002 0.000001 0.000000 0.000000 0.645758
 21   4.220534 -0.244854 -0.431465 0.001333 0.026242 0.148339
 22   1.350417 0.000000 0.000001 0.000000 0.000000 0.863926
 23   1.350410 -0.000001 -0.000001 0.000000 0.000000 0.863926
 24   -2.176092 0.108738 -2.649726 -0.353333 1.210653 2.726101
 25   4.640942 0.000000 0.000001 -0.849881 -0.333407 0.834224
 26   10.828047 0.000000 0.000001 0.000000 0.000000 -1.612021
 27   9.393339 0.000000 0.000000 1.573280 -0.033086 -0.156008
 28   1.442245 0.107455 1.746178 -1.686405 -0.539236 0.325898
 29   1.063450 -0.000001 0.000000 0.000000 0.000000 0.199056
 30   1.376307 0.000000 0.000000 0.000000 0.000000 0.199059
 31   4.172847 -0.251365 1.312745 -0.008050 -0.095731 0.148659
 32   1.215373 -0.000001 0.000000 0.000000 0.000000 0.645746
 33   1.215372 0.000000 0.000000 0.000000 0.000000 0.645746
 34   4.220534 -0.244853 0.431466 -0.001333 -0.026242 0.148339
 35   1.350416 0.000000 -0.000001 0.000000 0.000000 0.863937
 36   1.350410 0.000000 0.000001 0.000000 0.000000 0.863925
 37   2.110540 -0.000001 0.000000 0.292296 -0.198493 0.150416
 38   0.891923 2.373051 -0.014527 -3.141592 -0.000001 1.413797
 39   7.228122 5.709445 3.726568 3.140796 -1.570796 0.000000
 40   2.450426 5.076128 0.001325 4.837692 -1.399668 -2.466904
 41   6.312404 -4.528058 0.001311 3.140791 -1.570796 0.000000
 42   2.233309 1.152535 -7.309138 -1.442423 -1.596979 -0.215607
 43   4.262825 -0.232720 -1.392178 0.016840 0.076668 0.253759
time 30
  0   0.410528 0.350683 12.553066 -1.570700 -1.569970 -0.000095
  1   -7.328022 2.711020 0.000000 -1.570795 -1.570451 0.000000
  2   -0.000007 0.000008 4.427393 0.085137 -3.026808 -0.367378
  3   18.465939 0.000000 0.000000 0.000000 0.000000 -0.780266
  4   14.875443 0.000000 -0.000001 -0.137976 -0.022790 -0.382112
  5   0.000006 -0.000004 -4.427393 0.223896 3.049445 0.036442
  6   18.465939 0.000000 0.000000 0.000000 0.000000 -0.032677
  7   14.875442 0.000000 0.000000 0.380554 0.214813 -0.228289
  8   2.259113 -0.007574 0.000003 -0.386897 0.206505 0.727896
  9   9.514219 -0.009357 0.000000 -0.018406 0.097435 0.100665
 10   11.751820 -0.001633 0.000000 0.000000 -0.000001 0.082388
 11   -2.176092 0.108725 2.649729 0.949052 -1.235879 2.136656
 12   4.640941 0.000000 -0.000001 0.825024 0.973067 0.413047
 13   10.828049 0.000000 0.000000 0.000000 0.000000 -1.617787
 14   9.393337 -0.000001 0.000000 -1.569611 0.191279 0.000037
 15   1.442245 0.107454 -1.746177 1.686435 0.539209 0.325885
 16   1.063452 0.000000 0.000001 0.000000 0.000000 0.199056
 17   1.376307 -0.000001 0.000001 0.000000 0.000000 0.199049
 18   4.172846 -0.251366 -1.312744 0.008050 0.095731 0.148659
 19   1.215374 0.000002 0.000000 0.000000 0.000000 0.645758
 20   1.215371 -0.000002 0.000001 0.000000 0.000000 0.645758
 21   4.220534 -0.244854 -0.431465 0.001333 0.026242 0.148339
 22   1.350417 0.000000 0.000001 0.000000 0.000000 0.863926
 23   1.350410 -0.000001 -0.000001 0.000000 0.000000 0.863926
 24   -2.176092 0.108738 -2.649726 -0.353333 1.210653 2.726101
 25   4.640942 0.000000 0.000001 -0.851681 -0.333476 0.833104
 26   10.828047 0.000000 0.000001 0.000000 0.000000 -1.613589
 27   9.393339 0.000000 0.000000 1.574637 -0.033802 -0.148395
 28   1.442245 0.107455 1.746178 -1.686405 -0.539236 0.325898
 29   1.063450 -0.000001 0.000000 0.000000 0.000000 0.199056
 30   1.376307 0.000000 0.000000 0.000000 0.000000 0.199059
 31   4.172847 -0.251365 1.312745 -0.008050 -0.095731 0.148659
 32   1.215373 -0.000001 0.000000 0.000000 0.000000 0.645746
 33   1.215372 0.000000 0.000000 0.000000 0.000000 0.645746
 34   4.220534 -0.244853 0.431466 -0.001333 -0.026242 0.148339
 35   1.350416 0.000000 -0.000001 0.000000 0.000000 0.863937
 36   1.350410 0.000000 0.000001 0.000000 0.000000 0.863925
 37   2.110540 -0.000001 0.000000 0.296349 -0.191286 0.132569
 38   0.891923 2.373051 -0.014527 -3.141592 -0.000001 1.413797
 39   7.228122 5.709445 3.726568 3.140796 -1.570796 0.000000
 40   2.450426 5.076128 0.001325 4.853666 -1.406523 -2.472300
 41   6.312404 -4.528058 0.001311 3.140791 -1.570796 0.000000
 42   2.233309 1.152535 -7.309138 -1.442423 -1.596979 -0.215607
 43   4.262825 -0.232720 -1.392178 0.016840 0.076668 0.253759
end
