version 1
nodes
  0 "Bip01" -1
  1 "Bip01 Pelvis" 0
  2 "Bip01 L Thigh" 1
  3 "Bip01 L Calf" 2
  4 "Bip01 L Foot" 3
  5 "Bip01 R Thigh" 1
  6 "Bip01 R Calf" 5
  7 "Bip01 R Foot" 6
  8 "Bip01 Spine" 1
  9 "Bip01 Spine1" 8
 10 "Bip01 Neck" 9
 11 "Bip01 L Clavicle" 10
 12 "Bip01 L UpperArm" 11
 13 "Bip01 L Forearm" 12
 14 "Bip01 L Hand" 13
 15 "Bip01 L Finger0" 14
 16 "Bip01 L Finger01" 15
 17 "Bip01 L Finger02" 16
 18 "Bip01 L Finger1" 14
 19 "Bip01 L Finger11" 18
 20 "Bip01 L Finger12" 19
 21 "Bip01 L Finger2" 14
 22 "Bip01 L Finger21" 21
 23 "Bip01 L Finger22" 22
 24 "Bip01 R Clavicle" 10
 25 "Bip01 R UpperArm" 24
 26 "Bip01 R Forearm" 25
 27 "Bip01 R Hand" 26
 28 "Bip01 R Finger0" 27
 29 "Bip01 R Finger01" 28
 30 "Bip01 R Finger02" 29
 31 "Bip01 R Finger1" 27
 32 "Bip01 R Finger11" 31
 33 "Bip01 R Finger12" 32
 34 "Bip01 R Finger2" 27
 35 "Bip01 R Finger21" 34
 36 "Bip01 R Finger22" 35
 37 "Bip01 Head" 10
 38 "Bone05" 37
 39 "Bone08" 9
 40 "Bone16" 8
 41 "Bone01" 8
 42 "Bone03" 1
 43 "Bip01 R Finger4" 27
end
skeleton
time 0
  0   1.708652 6.792152 38.421043 0.000000 0.000000 -1.701715
  1   0.164395 -0.125004 0.000000 -1.570795 -1.570451 0.000000
  2   -0.000007 0.000008 4.427393 -0.170796 -3.152960 0.000882
  3   18.465939 0.000000 0.000000 0.000000 0.000000 -0.416557
  4   14.875443 0.000000 -0.000001 0.018451 0.017437 0.402071
  5   0.000006 -0.000004 -4.427393 0.106024 3.095677 -0.362237
  6   18.465939 0.000000 0.000000 0.000000 0.000000 -0.394334
  7   14.875442 0.000000 0.000000 -0.002065 0.005199 0.029344
  8   2.255207 -0.007574 0.000003 0.122100 -0.017403 -0.001322
  9   9.514219 -0.009357 0.000000 -0.008787 0.002361 -0.095902
 10   11.751820 -0.001633 0.000000 0.000024 0.043599 0.439975
 11   -2.117496 0.858748 2.563789 0.697276 -1.395375 2.006330
 12   4.640941 0.000000 -0.000001 0.738474 1.089884 0.724820
 13   10.828049 0.000000 0.000000 0.000000 0.000000 -0.470452
 14   9.393337 -0.000001 0.000000 -1.569611 0.034172 0.000037
 15   1.442245 0.107454 -1.746177 1.686435 0.539209 0.325885
 16   1.063452 0.000000 0.000001 0.000000 0.000000 0.199056
 17   1.376307 -0.000001 0.000001 0.000000 0.000000 0.199049
 18   4.172846 -0.251366 -1.312744 0.008050 0.095731 0.148659
 19   1.215374 0.000002 0.000000 0.000000 0.000000 0.645758
 20   1.215371 -0.000002 0.000001 0.000000 0.000000 0.645758
 21   4.220534 -0.244854 -0.431465 0.001333 0.026242 0.148339
 22   1.350417 0.000000 0.000001 0.000000 0.000000 0.863926
 23   1.350410 -0.000001 -0.000001 0.000000 0.000000 0.863926
 24   -1.887021 0.858761 -2.731760 -0.942471 1.461434 1.764317
 25   4.640942 0.000000 0.000001 -0.601473 -1.183875 0.506934
 26   10.828047 0.000000 0.000001 0.000000 0.000000 -0.234266
 27   9.393339 0.000000 0.000000 1.569611 -0.034192 0.000001
 28   1.442245 0.107455 1.746178 -1.686405 -0.539236 0.325898
 29   1.063450 -0.000001 0.000000 0.000000 0.000000 0.199056
 30   1.376307 0.000000 0.000000 0.000000 0.000000 0.199059
 31   4.172847 -0.251365 1.312745 -0.008050 -0.095731 0.148659
 32   1.215373 -0.000001 0.000000 0.000000 0.000000 0.645746
 33   1.215372 0.000000 0.000000 0.000000 0.000000 0.645746
 34   4.220534 -0.244853 0.431466 -0.001333 -0.026242 0.148339
 35   1.350416 0.000000 -0.000001 0.000000 0.000000 0.863937
 36   1.350410 0.000000 0.000001 0.000000 0.000000 0.863925
 37   2.110540 -0.000001 0.000000 0.002432 -0.010503 -0.153668
 38   0.891923 2.373051 -0.014527 -3.141592 -0.000001 1.413797
 39   7.228122 5.709445 3.726568 3.140796 -1.570796 0.000000
 40   2.450426 5.076128 0.001325 3.140791 -1.570796 0.000000
 41   6.312404 -4.528058 0.001311 3.140791 -1.570796 0.000000
 42   2.233309 1.152535 -7.309138 -1.972214 -1.570796 0.000000
 43   4.262825 -0.232720 -1.392178 0.016840 0.076668 0.253759
time 1
  0   1.708652 7.673037 38.475731 -0.046786 -0.037328 -1.605646
  1   1.152706 0.585955 0.000000 -0.000030 -1.396353 -1.570772
  2   -0.000007 0.000008 4.427393 -0.142635 -3.300789 0.136287
  3   18.465939 0.000000 0.000000 0.000000 0.000000 -0.172963
  4   14.875443 0.000000 -0.000001 0.106029 0.024631 0.257449
  5   0.000006 -0.000004 -4.427393 0.040774 2.932003 -0.377772
  6   18.465939 0.000000 0.000000 0.000000 0.000000 -0.536043
  7   14.875442 0.000000 0.000000 0.092555 0.048084 0.121187
  8   2.223956 -0.007574 0.386734 0.529343 -0.163063 -0.093173
  9   9.514219 -0.009357 0.000000 0.077515 0.050072 -0.143853
 10   11.751820 -0.001633 0.000000 0.214956 -0.309359 0.383661
 11   -1.144811 1.397827 2.915362 1.679189 -0.936940 1.132380
 12   4.640941 0.000000 -0.000001 1.143912 0.470185 0.965469
 13   10.828049 0.000000 0.000000 0.000000 0.000000 -0.806569
 14   9.393337 -0.000001 0.000000 -1.569611 0.034172 0.000037
 15   1.442245 0.107454 -1.746177 1.686435 0.539209 0.325885
 16   1.063452 0.000000 0.000001 0.000000 0.000000 0.199056
 17   1.376307 -0.000001 0.000001 0.000000 0.000000 0.199049
 18   4.172846 -0.251366 -1.312744 0.008050 0.095731 0.148659
 19   1.215374 0.000002 0.000000 0.000000 0.000000 0.645758
 20   1.215371 -0.000002 0.000001 0.000000 0.000000 0.645758
 21   4.220534 -0.244854 -0.431465 0.001333 0.026242 0.148339
 22   1.350417 0.000000 0.000001 0.000000 0.000000 0.863926
 23   1.350410 -0.000001 -0.000001 0.000000 0.000000 0.863926
 24   -2.754235 0.327495 -2.016894 0.112270 1.197570 2.804323
 25   4.640942 0.000000 0.000001 -0.881883 -0.423440 1.781168
 26   10.828047 0.000000 0.000001 0.000000 0.000000 -1.662145
 27   9.393339 0.000000 0.000000 1.569611 -0.034192 0.000001
 28   1.442245 0.107455 1.746178 -1.686405 -0.539236 0.325898
 29   1.063450 -0.000001 0.000000 0.000000 0.000000 0.199056
 30   1.376307 0.000000 0.000000 0.000000 0.000000 0.199059
 31   4.172847 -0.251365 1.312745 -0.008050 -0.095731 0.148659
 32   1.215373 -0.000001 0.000000 0.000000 0.000000 0.645746
 33   1.215372 0.000000 0.000000 0.000000 0.000000 0.645746
 34   4.220534 -0.244853 0.431466 -0.001333 -0.026242 0.148339
 35   1.350416 0.000000 -0.000001 0.000000 0.000000 0.863937
 36   1.350410 0.000000 0.000001 0.000000 0.000000 0.863925
 37   2.110540 -0.000001 0.000000 0.040632 0.116397 0.123108
 38   0.891923 2.373051 -0.014527 -3.141592 -0.000001 1.413797
 39   7.228122 5.709445 3.726568 2.617249 -1.570796 0.000000
 40   2.450426 5.076128 0.001325 3.140791 -1.570796 0.000000
 41   6.312404 -4.528058 0.001311 3.236777 -1.570796 0.000000
 42   2.233309 1.152535 -7.309138 -1.147423 -1.727866 -0.850941
 43   4.262825 -0.232720 -1.392178 0.016840 0.076668 0.253759
time 2
  0   1.992617 8.306172 38.100719 -0.052731 -0.056760 -1.593278
  1   1.277710 0.636738 0.000000 -0.000030 -1.402964 -1.570772
  2   -0.000007 0.000008 4.427393 -0.157336 -3.283020 0.047065
  3   18.465939 0.000000 0.000000 0.000000 0.000000 -0.383951
  4   14.875443 0.000000 -0.000001 0.118325 0.035933 0.361659
  5   0.000006 -0.000004 -4.427393 0.038669 2.930604 -0.391810
  6   18.465939 0.000000 0.000000 0.000000 0.000000 -0.578051
  7   14.875442 0.000000 0.000000 0.101996 0.058734 0.128578
  8   2.223956 -0.007574 0.371108 0.536190 -0.153763 -0.103364
  9   9.514219 -0.009357 0.000000 0.047129 0.053032 -0.150434
 10   11.751820 -0.001633 0.000000 0.306302 -0.375766 0.350269
 11   -0.957305 1.616584 2.868486 1.743689 -0.854067 1.081267
 12   4.640941 0.000000 -0.000001 1.171665 0.484305 0.975655
 13   10.828049 0.000000 0.000000 0.000000 0.000000 -0.636162
 14   9.393337 -0.000001 0.000000 -1.569611 0.034172 0.000037
 15   1.442245 0.107454 -1.746177 1.686435 0.539209 0.325885
 16   1.063452 0.000000 0.000001 0.000000 0.000000 0.199056
 17   1.376307 -0.000001 0.000001 0.000000 0.000000 0.199049
 18   4.172846 -0.251366 -1.312744 0.008050 0.095731 0.148659
 19   1.215374 0.000002 0.000000 0.000000 0.000000 0.645758
 20   1.215371 -0.000002 0.000001 0.000000 0.000000 0.645758
 21   4.220534 -0.244854 -0.431465 0.001333 0.026242 0.148339
 22   1.350417 0.000000 0.000001 0.000000 0.000000 0.863926
 23   1.350410 -0.000001 -0.000001 0.000000 0.000000 0.863926
 24   -2.898770 0.136083 -1.833295 0.425627 1.111554 3.111433
 25   4.640942 0.000000 0.000001 -0.839024 -0.251672 1.789008
 26   10.828047 0.000000 0.000001 0.000000 0.000000 -1.960046
 27   9.393339 0.000000 0.000000 1.569611 -0.034192 0.000001
 28   1.442245 0.107455 1.746178 -1.686405 -0.539236 0.325898
 29   1.063450 -0.000001 0.000000 0.000000 0.000000 0.199056
 30   1.376307 0.000000 0.000000 0.000000 0.000000 0.199059
 31   4.172847 -0.251365 1.312745 -0.008050 -0.095731 0.148659
 32   1.215373 -0.000001 0.000000 0.000000 0.000000 0.645746
 33   1.215372 0.000000 0.000000 0.000000 0.000000 0.645746
 34   4.220534 -0.244853 0.431466 -0.001333 -0.026242 0.148339
 35   1.350416 0.000000 -0.000001 0.000000 0.000000 0.863937
 36   1.350410 0.000000 0.000001 0.000000 0.000000 0.863925
 37   2.110540 -0.000001 0.000000 0.228056 0.141258 0.095929
 38   0.891923 2.373051 -0.014527 -3.141592 -0.000001 1.413797
 39   7.228122 5.709445 3.726568 2.860311 -1.570796 0.000000
 40   2.450426 5.076128 0.001325 3.140791 -1.570796 0.000000
 41   6.312404 -4.528058 0.001311 3.233103 -1.570796 0.000000
 42   2.233309 1.152535 -7.309138 -1.148573 -1.724692 -0.865110
 43   4.262825 -0.232720 -1.392178 0.016840 0.076668 0.253759
time 3
  0   2.195449 8.553922 37.815556 -0.046882 -0.063471 -1.604400
  1   1.203489 0.484390 0.000000 -0.000030 -1.420771 -1.570772
  2   -0.000007 0.000008 4.427393 -0.164877 -3.267018 0.001481
  3   18.465939 0.000000 0.000000 0.000000 0.000000 -0.484913
  4   14.875443 0.000000 -0.000001 0.108050 0.040083 0.410683
  5   0.000006 -0.000004 -4.427393 0.041348 2.942255 -0.410808
  6   18.465939 0.000000 0.000000 0.000000 0.000000 -0.606537
  7   14.875442 0.000000 0.000000 0.089396 0.055691 0.130717
  8   2.231769 -0.007574 0.332044 0.457497 -0.143708 -0.093073
  9   9.514219 -0.009357 0.000000 0.008062 0.045098 -0.145498
 10   11.751820 -0.001633 0.000000 0.309430 -0.344019 0.353329
 11   -1.054964 1.620490 2.829422 1.738832 -0.922166 1.059488
 12   4.640941 0.000000 -0.000001 1.163020 0.625644 0.985430
 13   10.828049 0.000000 0.000000 0.000000 0.000000 -0.375883
 14   9.393337 -0.000001 0.000000 -1.569611 0.034172 0.000037
 15   1.442245 0.107454 -1.746177 1.686435 0.539209 0.325885
 16   1.063452 0.000000 0.000001 0.000000 0.000000 0.199056
 17   1.376307 -0.000001 0.000001 0.000000 0.000000 0.199049
 18   4.172846 -0.251366 -1.312744 0.008050 0.095731 0.148659
 19   1.215374 0.000002 0.000000 0.000000 0.000000 0.645758
 20   1.215371 -0.000002 0.000001 0.000000 0.000000 0.645758
 21   4.220534 -0.244854 -0.431465 0.001333 0.026242 0.148339
 22   1.350417 0.000000 0.000001 0.000000 0.000000 0.863926
 23   1.350410 -0.000001 -0.000001 0.000000 0.000000 0.863926
 24   -2.840175 0.104832 -1.919235 0.578663 1.109249 3.270905
 25   4.640942 0.000000 0.000001 -0.831358 -0.266387 1.577907
 26   10.828047 0.000000 0.000001 0.000000 0.000000 -1.881462
 27   9.393339 0.000000 0.000000 1.569611 -0.034192 0.000001
 28   1.442245 0.107455 1.746178 -1.686405 -0.539236 0.325898
 29   1.063450 -0.000001 0.000000 0.000000 0.000000 0.199056
 30   1.376307 0.000000 0.000000 0.000000 0.000000 0.199059
 31   4.172847 -0.251365 1.312745 -0.008050 -0.095731 0.148659
 32   1.215373 -0.000001 0.000000 0.000000 0.000000 0.645746
 33   1.215372 0.000000 0.000000 0.000000 0.000000 0.645746
 34   4.220534 -0.244853 0.431466 -0.001333 -0.026242 0.148339
 35   1.350416 0.000000 -0.000001 0.000000 0.000000 0.863937
 36   1.350410 0.000000 0.000001 0.000000 0.000000 0.863925
 37   2.110540 -0.000001 0.000000 0.327634 0.117906 0.027251
 38   0.891923 2.373051 -0.014527 -3.141592 -0.000001 1.413797
 39   7.228122 5.709445 3.726568 3.140796 -1.570796 0.000000
 40   2.450426 5.076128 0.001325 3.140791 -1.570796 0.000000
 41   6.312404 -4.528058 0.001311 3.223305 -1.570796 0.000000
 42   2.233309 1.152535 -7.309138 -1.148765 -1.718779 -0.865397
 43   4.262825 -0.232720 -1.392178 0.016840 0.076668 0.253759
time 4
  0   2.154883 8.333700 37.858524 -0.038733 -0.055801 -1.620411
  1   1.058953 0.351573 0.000000 -0.000030 -1.446711 -1.570772
  2   -0.000007 0.000008 4.427393 -0.166023 -3.245713 -0.005701
  3   18.465939 0.000000 0.000000 0.000000 0.000000 -0.492808
  4   14.875443 0.000000 -0.000001 0.092823 0.036316 0.418425
  5   0.000006 -0.000004 -4.427393 0.052829 2.967981 -0.408469
  6   18.465939 0.000000 0.000000 0.000000 0.000000 -0.586715
  7   14.875442 0.000000 0.000000 0.074410 0.046449 0.120024
  8   2.239582 -0.007574 0.273449 0.394555 -0.124185 -0.078416
  9   9.514219 -0.009357 0.000000 -0.000897 0.037620 -0.137554
 10   11.751820 -0.001633 0.000000 0.193431 -0.227720 0.393377
 11   -1.390912 1.335325 2.837235 1.691785 -1.120435 1.065672
 12   4.640941 0.000000 -0.000001 1.149413 0.774215 0.954991
 13   10.828049 0.000000 0.000000 0.000000 0.000000 -0.196690
 14   9.393337 -0.000001 0.000000 -1.569611 0.034172 0.000037
 15   1.442245 0.107454 -1.746177 1.686435 0.539209 0.325885
 16   1.063452 0.000000 0.000001 0.000000 0.000000 0.199056
 17   1.376307 -0.000001 0.000001 0.000000 0.000000 0.199049
 18   4.172846 -0.251366 -1.312744 0.008050 0.095731 0.148659
 19   1.215374 0.000002 0.000000 0.000000 0.000000 0.645758
 20   1.215371 -0.000002 0.000001 0.000000 0.000000 0.645758
 21   4.220534 -0.244854 -0.431465 0.001333 0.026242 0.148339
 22   1.350417 0.000000 0.000001 0.000000 0.000000 0.863926
 23   1.350410 -0.000001 -0.000001 0.000000 0.000000 0.863926
 24   -2.582355 0.347027 -2.231744 0.395863 1.235698 3.100288
 25   4.640942 0.000000 0.000001 -0.850858 -0.394219 1.418811
 26   10.828047 0.000000 0.000001 0.000000 0.000000 -1.632291
 27   9.393339 0.000000 0.000000 1.569611 -0.034192 0.000001
 28   1.442245 0.107455 1.746178 -1.686405 -0.539236 0.325898
 29   1.063450 -0.000001 0.000000 0.000000 0.000000 0.199056
 30   1.376307 0.000000 0.000000 0.000000 0.000000 0.199059
 31   4.172847 -0.251365 1.312745 -0.008050 -0.095731 0.148659
 32   1.215373 -0.000001 0.000000 0.000000 0.000000 0.645746
 33   1.215372 0.000000 0.000000 0.000000 0.000000 0.645746
 34   4.220534 -0.244853 0.431466 -0.001333 -0.026242 0.148339
 35   1.350416 0.000000 -0.000001 0.000000 0.000000 0.863937
 36   1.350410 0.000000 0.000001 0.000000 0.000000 0.863925
 37   2.110540 -0.000001 0.000000 0.222953 0.064134 0.001492
 38   0.891923 2.373051 -0.014527 -3.141592 -0.000001 1.413797
 39   7.228122 5.709445 3.726568 3.188667 -1.570796 0.000000
 40   2.450426 5.076128 0.001325 3.140791 -1.570796 0.000000
 41   6.312404 -4.528058 0.001311 3.209068 -1.570796 0.000000
 42   2.233309 1.152535 -7.309138 -1.149053 -1.691635 -0.857259
 43   4.262825 -0.232720 -1.392178 0.016840 0.076668 0.253759
time 5
  0   2.073750 8.003368 37.971809 -0.029242 -0.043912 -1.639587
  1   0.867541 0.210944 0.000000 -0.000030 -1.477725 -1.570772
  2   -0.000007 0.000008 4.427393 -0.166787 -3.220781 -0.007247
  3   18.465939 0.000000 0.000000 0.000000 0.000000 -0.484401
  4   14.875443 0.000000 -0.000001 0.074920 0.031016 0.419610
  5   0.000006 -0.000004 -4.427393 0.067084 2.999765 -0.400795
  6   18.465939 0.000000 0.000000 0.000000 0.000000 -0.551402
  7   14.875442 0.000000 0.000000 0.056686 0.035438 0.103517
  8   2.247394 -0.007574 0.207041 0.326950 -0.099245 -0.060681
  9   9.514219 -0.009357 0.000000 -0.004882 0.029206 -0.127877
 10   11.751820 -0.001633 0.000000 0.040172 -0.066228 0.426956
 11   -1.836238 0.944688 2.739575 1.561420 -1.307286 1.161785
 12   4.640941 0.000000 -0.000001 1.130306 0.900262 0.998133
 13   10.828049 0.000000 0.000000 0.000000 0.000000 -0.480458
 14   9.393337 -0.000001 0.000000 -1.569611 0.034172 0.000037
 15   1.442245 0.107454 -1.746177 1.686435 0.539209 0.325885
 16   1.063452 0.000000 0.000001 0.000000 0.000000 0.199056
 17   1.376307 -0.000001 0.000001 0.000000 0.000000 0.199049
 18   4.172846 -0.251366 -1.312744 0.008050 0.095731 0.148659
 19   1.215374 0.000002 0.000000 0.000000 0.000000 0.645758
 20   1.215371 -0.000002 0.000001 0.000000 0.000000 0.645758
 21   4.220534 -0.244854 -0.431465 0.001333 0.026242 0.148339
 22   1.350417 0.000000 0.000001 0.000000 0.000000 0.863926
 23   1.350410 -0.000001 -0.000001 0.000000 0.000000 0.863926
 24   -2.183905 0.729851 -2.544254 -0.266280 1.358098 2.448160
 25   4.640942 0.000000 0.000001 -0.863515 -0.570101 1.249077
 26   10.828047 0.000000 0.000001 0.000000 0.000000 -1.312900
 27   9.393339 0.000000 0.000000 1.569611 -0.034192 0.000001
 28   1.442245 0.107455 1.746178 -1.686405 -0.539236 0.325898
 29   1.063450 -0.000001 0.000000 0.000000 0.000000 0.199056
 30   1.376307 0.000000 0.000000 0.000000 0.000000 0.199059
 31   4.172847 -0.251365 1.312745 -0.008050 -0.095731 0.148659
 32   1.215373 -0.000001 0.000000 0.000000 0.000000 0.645746
 33   1.215372 0.000000 0.000000 0.000000 0.000000 0.645746
 34   4.220534 -0.244853 0.431466 -0.001333 -0.026242 0.148339
 35   1.350416 0.000000 -0.000001 0.000000 0.000000 0.863937
 36   1.350410 0.000000 0.000001 0.000000 0.000000 0.863925
 37   2.110540 -0.000001 0.000000 0.050457 0.002011 -0.039234
 38   0.891923 2.373051 -0.014527 -3.141592 -0.000001 1.413797
 39   7.228122 5.709445 3.726568 3.194651 -1.570796 0.000000
 40   2.450426 5.076128 0.001325 3.140791 -1.570796 0.000000
 41   6.312404 -4.528058 0.001311 3.191973 -1.570796 0.000000
 42   2.233309 1.152535 -7.309138 -1.152217 -1.662277 -0.845579
 43   4.262825 -0.232720 -1.392178 0.016840 0.076668 0.253759
time 6
  0   1.952051 7.590454 38.124157 -0.019175 -0.029466 -1.660392
  1   0.644878 0.082034 0.000000 -0.000030 -1.510795 -1.570772
  2   -0.000007 0.000008 4.427393 -0.167550 -3.195197 -0.005252
  3   18.465939 0.000000 0.000000 0.000000 0.000000 -0.465174
  4   14.875443 0.000000 -0.000001 0.055651 0.025461 0.415937
  5   0.000006 -0.000004 -4.427393 0.081818 3.033973 -0.389284
  6   18.465939 0.000000 0.000000 0.000000 0.000000 -0.504078
  7   14.875442 0.000000 0.000000 0.037243 0.024160 0.081869
  8   2.251301 -0.007574 0.132820 0.257456 -0.071297 -0.041060
  9   9.514219 -0.009357 0.000000 -0.006082 0.020242 -0.117226
 10   11.751820 -0.001633 0.000000 -0.066898 0.059407 0.437049
 11   -2.156560 0.682962 2.579414 0.857842 -1.444597 1.844263
 12   4.640941 0.000000 -0.000001 1.034816 0.975477 0.948025
 13   10.828049 0.000000 0.000000 0.000000 0.000000 -0.509073
 14   9.393337 -0.000001 0.000000 -1.569611 0.034172 0.000037
 15   1.442245 0.107454 -1.746177 1.686435 0.539209 0.325885
 16   1.063452 0.000000 0.000001 0.000000 0.000000 0.199056
 17   1.376307 -0.000001 0.000001 0.000000 0.000000 0.199049
 18   4.172846 -0.251366 -1.312744 0.008050 0.095731 0.148659
 19   1.215374 0.000002 0.000000 0.000000 0.000000 0.645758
 20   1.215371 -0.000002 0.000001 0.000000 0.000000 0.645758
 21   4.220534 -0.244854 -0.431465 0.001333 0.026242 0.148339
 22   1.350417 0.000000 0.000001 0.000000 0.000000 0.863926
 23   1.350410 -0.000001 -0.000001 0.000000 0.000000 0.863926
 24   -1.844051 1.034548 -2.700509 -1.023247 1.349127 1.693319
 25   4.640942 0.000000 0.000001 -0.851270 -0.776111 1.063244
 26   10.828047 0.000000 0.000001 0.000000 0.000000 -0.953317
 27   9.393339 0.000000 0.000000 1.569611 -0.034192 0.000001
 28   1.442245 0.107455 1.746178 -1.686405 -0.539236 0.325898
 29   1.063450 -0.000001 0.000000 0.000000 0.000000 0.199056
 30   1.376307 0.000000 0.000000 0.000000 0.000000 0.199059
 31   4.172847 -0.251365 1.312745 -0.008050 -0.095731 0.148659
 32   1.215373 -0.000001 0.000000 0.000000 0.000000 0.645746
 33   1.215372 0.000000 0.000000 0.000000 0.000000 0.645746
 34   4.220534 -0.244853 0.431466 -0.001333 -0.026242 0.148339
 35   1.350416 0.000000 -0.000001 0.000000 0.000000 0.863937
 36   1.350410 0.000000 0.000001 0.000000 0.000000 0.863925
 37   2.110540 -0.000001 0.000000 -0.068150 -0.033576 -0.095612
 38   0.891923 2.373051 -0.014527 -3.141592 -0.000001 1.413797
 39   7.228122 5.709445 3.726568 3.176700 -1.570796 0.000000
 40   2.450426 5.076128 0.001325 3.140791 -1.570796 0.000000
 41   6.312404 -4.528058 0.001311 3.173807 -1.570796 0.000000
 42   2.233309 1.152535 -7.309138 -1.163242 -1.631667 -0.825569
 43   4.262825 -0.232720 -1.392178 0.016840 0.076668 0.253759
time 7
  0   1.830351 7.177539 38.284321 -0.009204 -0.014254 -1.681581
  1   0.406590 -0.031251 0.000000 -0.000030 -1.542829 -1.570772
  2   -0.000007 0.000008 4.427393 -0.168696 -3.171752 -0.001811
  3   18.465939 0.000000 0.000000 0.000000 0.000000 -0.440317
  4   14.875443 0.000000 -0.000001 0.036240 0.020715 0.409261
  5   0.000006 -0.000004 -4.427393 0.095308 3.067155 -0.375526
  6   18.465939 0.000000 0.000000 0.000000 0.000000 -0.449337
  7   14.875442 0.000000 0.000000 0.017238 0.013814 0.056207
  8   2.255207 -0.007574 0.058599 0.188486 -0.043038 -0.020843
  9   9.514219 -0.009357 0.000000 -0.006676 0.011146 -0.106337
 10   11.751820 -0.001633 0.000000 -0.056292 0.073405 0.439116
 11   -2.191718 0.714212 2.540351 0.557501 -1.431095 2.141603
 12   4.640941 0.000000 -0.000001 0.901553 1.037124 0.853194
 13   10.828049 0.000000 0.000000 0.000000 0.000000 -0.489732
 14   9.393337 -0.000001 0.000000 -1.569611 0.034172 0.000037
 15   1.442245 0.107454 -1.746177 1.686435 0.539209 0.325885
 16   1.063452 0.000000 0.000001 0.000000 0.000000 0.199056
 17   1.376307 -0.000001 0.000001 0.000000 0.000000 0.199049
 18   4.172846 -0.251366 -1.312744 0.008050 0.095731 0.148659
 19   1.215374 0.000002 0.000000 0.000000 0.000000 0.645758
 20   1.215371 -0.000002 0.000001 0.000000 0.000000 0.645758
 21   4.220534 -0.244854 -0.431465 0.001333 0.026242 0.148339
 22   1.350417 0.000000 0.000001 0.000000 0.000000 0.863926
 23   1.350410 -0.000001 -0.000001 0.000000 0.000000 0.863926
 24   -1.804987 1.011110 -2.735666 -1.134797 1.383621 1.577052
 25   4.640942 0.000000 0.000001 -0.785258 -0.990280 0.837164
 26   10.828047 0.000000 0.000001 0.000000 0.000000 -0.583743
 27   9.393339 0.000000 0.000000 1.569611 -0.034192 0.000001
 28   1.442245 0.107455 1.746178 -1.686405 -0.539236 0.325898
 29   1.063450 -0.000001 0.000000 0.000000 0.000000 0.199056
 30   1.376307 0.000000 0.000000 0.000000 0.000000 0.199059
 31   4.172847 -0.251365 1.312745 -0.008050 -0.095731 0.148659
 32   1.215373 -0.000001 0.000000 0.000000 0.000000 0.645746
 33   1.215372 0.000000 0.000000 0.000000 0.000000 0.645746
 34   4.220534 -0.244853 0.431466 -0.001333 -0.026242 0.148339
 35   1.350416 0.000000 -0.000001 0.000000 0.000000 0.863937
 36   1.350410 0.000000 0.000001 0.000000 0.000000 0.863925
 37   2.110540 -0.000001 0.000000 -0.054749 -0.027458 -0.130532
 38   0.891923 2.373051 -0.014527 -3.141592 -0.000001 1.413797
 39   7.228122 5.709445 3.726568 3.152764 -1.570796 0.000000
 40   2.450426 5.076128 0.001325 3.140791 -1.570796 0.000000
 41   6.312404 -4.528058 0.001311 3.156151 -1.570796 0.000000
 42   2.233309 1.152535 -7.309138 -1.206385 -1.600765 -0.773199
 43   4.262825 -0.232720 -1.392178 0.016840 0.076668 0.253759
time 8
  0   1.708652 6.792152 38.421043 0.000000 0.000000 -1.701715
  1   0.164395 -0.125004 0.000000 -1.570795 -1.570451 0.000000
  2   -0.000007 0.000008 4.427393 -0.170796 -3.152960 0.000882
  3   18.465939 0.000000 0.000000 0.000000 0.000000 -0.416557
  4   14.875443 0.000000 -0.000001 0.018451 0.017437 0.402071
  5   0.000006 -0.000004 -4.427393 0.106024 3.095677 -0.362237
  6   18.465939 0.000000 0.000000 0.000000 0.000000 -0.394334
  7   14.875442 0.000000 0.000000 -0.002065 0.005199 0.029344
  8   2.255207 -0.007574 0.000003 0.122100 -0.017403 -0.001322
  9   9.514219 -0.009357 0.000000 -0.008787 0.002361 -0.095902
 10   11.751820 -0.001633 0.000000 0.000024 0.043599 0.439975
 11   -2.117496 0.858748 2.563789 0.697276 -1.395375 2.006330
 12   4.640941 0.000000 -0.000001 0.738474 1.089884 0.724820
 13   10.828049 0.000000 0.000000 0.000000 0.000000 -0.470452
 14   9.393337 -0.000001 0.000000 -1.569611 0.034172 0.000037
 15   1.442245 0.107454 -1.746177 1.686435 0.539209 0.325885
 16   1.063452 0.000000 0.000001 0.000000 0.000000 0.199056
 17   1.376307 -0.000001 0.000001 0.000000 0.000000 0.199049
 18   4.172846 -0.251366 -1.312744 0.008050 0.095731 0.148659
 19   1.215374 0.000002 0.000000 0.000000 0.000000 0.645758
 20   1.215371 -0.000002 0.000001 0.000000 0.000000 0.645758
 21   4.220534 -0.244854 -0.431465 0.001333 0.026242 0.148339
 22   1.350417 0.000000 0.000001 0.000000 0.000000 0.863926
 23   1.350410 -0.000001 -0.000001 0.000000 0.000000 0.863926
 24   -1.887021 0.858761 -2.731760 -0.942471 1.461434 1.764317
 25   4.640942 0.000000 0.000001 -0.601473 -1.183875 0.506934
 26   10.828047 0.000000 0.000001 0.000000 0.000000 -0.234266
 27   9.393339 0.000000 0.000000 1.569611 -0.034192 0.000001
 28   1.442245 0.107455 1.746178 -1.686405 -0.539236 0.325898
 29   1.063450 -0.000001 0.000000 0.000000 0.000000 0.199056
 30   1.376307 0.000000 0.000000 0.000000 0.000000 0.199059
 31   4.172847 -0.251365 1.312745 -0.008050 -0.095731 0.148659
 32   1.215373 -0.000001 0.000000 0.000000 0.000000 0.645746
 33   1.215372 0.000000 0.000000 0.000000 0.000000 0.645746
 34   4.220534 -0.244853 0.431466 -0.001333 -0.026242 0.148339
 35   1.350416 0.000000 -0.000001 0.000000 0.000000 0.863937
 36   1.350410 0.000000 0.000001 0.000000 0.000000 0.863925
 37   2.110540 -0.000001 0.000000 0.002432 -0.010503 -0.153668
 38   0.891923 2.373051 -0.014527 -3.141592 -0.000001 1.413797
 39   7.228122 5.709445 3.726568 3.140796 -1.570796 0.000000
 40   2.450426 5.076128 0.001325 3.140791 -1.570796 0.000000
 41   6.312404 -4.528058 0.001311 3.140791 -1.570796 0.000000
 42   2.233309 1.152535 -7.309138 0.296705 -1.567971 -2.267420
 43   4.262825 -0.232720 -1.392178 0.016840 0.076668 0.253759
end
