version 1
nodes
  0 "Bip01" -1
  1 "Bip01 Pelvis" 0
  2 "Bip01 L Thigh" 1
  3 "Bip01 L Calf" 2
  4 "Bip01 L Foot" 3
  5 "Bip01 R Thigh" 1
  6 "Bip01 R Calf" 5
  7 "Bip01 R Foot" 6
  8 "Bip01 Spine" 1
  9 "Bip01 Spine1" 8
 10 "Bip01 Neck" 9
 11 "Bip01 L Clavicle" 10
 12 "Bip01 L UpperArm" 11
 13 "Bip01 L Forearm" 12
 14 "Bip01 L Hand" 13
 15 "Bip01 L Finger0" 14
 16 "Bip01 L Finger01" 15
 17 "Bip01 L Finger02" 16
 18 "Bip01 L Finger1" 14
 19 "Bip01 L Finger11" 18
 20 "Bip01 L Finger12" 19
 21 "Bip01 L Finger2" 14
 22 "Bip01 L Finger21" 21
 23 "Bip01 L Finger22" 22
 24 "Bip01 R Clavicle" 10
 25 "Bip01 R UpperArm" 24
 26 "Bip01 R Forearm" 25
 27 "Bip01 R Hand" 26
 28 "Bip01 R Finger0" 27
 29 "Bip01 R Finger01" 28
 30 "Bip01 R Finger02" 29
 31 "Bip01 R Finger1" 27
 32 "Bip01 R Finger11" 31
 33 "Bip01 R Finger12" 32
 34 "Bip01 R Finger2" 27
 35 "Bip01 R Finger21" 34
 36 "Bip01 R Finger22" 35
 37 "Bip01 Head" 10
 38 "Bone05" 37
 39 "Bone08" 9
 40 "Bone16" 8
 41 "Bone01" 8
 42 "Bone03" 1
 43 "Bip01 R Finger4" 27
end
skeleton
time 0
  0   1.708652 0.763598 38.772617 0.000000 0.000000 -1.701715
  1   -0.011392 -0.148442 0.000000 -1.570795 -1.570451 0.000000
  2   -0.000007 0.000008 4.427393 -0.172705 -3.054531 -0.042906
  3   18.465939 0.000000 0.000000 0.000000 0.000000 -0.327293
  4   14.875443 0.000000 -0.000001 -0.087342 -0.071892 0.252590
  5   0.000006 -0.000004 -4.427393 0.120280 2.981403 -0.049658
  6   18.465939 0.000000 0.000000 0.000000 0.000000 -0.240613
  7   14.875442 0.000000 0.000000 -0.016208 0.152796 0.171311
  8   2.255207 -0.007574 0.000003 0.122100 -0.017403 -0.001322
  9   9.514219 -0.009357 0.000000 -0.008668 0.002732 -0.052281
 10   11.751820 -0.001633 0.000000 0.000024 0.043599 0.439975
 11   -2.117496 0.858748 2.563789 0.666392 -1.215188 2.056413
 12   4.640941 0.000000 -0.000001 1.144649 0.692800 1.165493
 13   10.828049 0.000000 0.000000 0.000000 0.000000 -1.268858
 14   9.393337 -0.000001 0.000000 -1.421016 0.028441 -0.447257
 15   1.442245 0.107454 -1.746177 1.710740 0.781590 0.365230
 16   1.063452 0.000000 0.000001 0.000000 0.000000 0.199056
 17   1.376307 -0.000001 0.000001 0.000000 0.000000 0.600473
 18   4.172846 -0.251366 -1.312744 -0.005361 -0.000073 0.008928
 19   1.215374 0.000002 0.000000 0.000000 0.000000 0.506106
 20   1.215371 -0.000002 0.000001 0.000000 0.000000 0.506106
 21   4.220534 -0.244854 -0.431465 -0.004372 0.025906 -0.069865
 22   1.350417 0.000000 0.000001 0.000000 0.000000 0.532308
 23   1.350410 -0.000001 -0.000001 0.000000 0.000000 0.532308
 24   -1.887021 0.858761 -2.731760 -1.068947 1.168974 1.681692
 25   4.640942 0.000000 0.000001 -1.152981 -0.582794 0.930116
 26   10.828047 0.000000 0.000001 0.000000 0.000000 -1.211257
 27   9.393339 0.000000 0.000000 1.199672 0.059763 -0.598915
 28   1.442245 0.107455 1.746178 -2.047067 -0.542719 0.863657
 29   1.063450 -0.000001 0.000000 0.000000 0.000000 -0.054011
 30   1.376307 0.000000 0.000000 0.000000 0.000000 0.600477
 31   4.172847 -0.251365 1.312745 -0.014726 -0.094940 0.218785
 32   1.215373 -0.000001 0.000000 0.000000 0.000000 0.715581
 33   1.215372 0.000000 0.000000 0.000000 0.000000 0.715581
 34   4.220534 -0.244853 0.431466 -0.001333 -0.026242 0.148339
 35   1.350416 0.000000 -0.000001 0.000000 0.000000 0.863937
 36   1.350410 0.000000 0.000001 0.000000 0.000000 0.863925
 37   2.110540 -0.000001 0.000000 0.004340 -0.010168 -0.197275
 38   0.891923 2.373051 -0.014527 -3.141592 -0.000001 1.413797
 39   7.228122 5.709445 3.726568 3.140796 -1.570796 0.000000
 40   2.450426 5.076128 0.001325 3.140791 -1.570796 0.000000
 41   6.312404 -4.528058 0.001311 3.140791 -1.570796 0.000000
 42   2.233309 1.152535 -7.309138 -1.319706 -1.649317 -0.434374
 43   4.262825 -0.232720 -1.392178 0.016840 0.076668 0.253759
time 1
  0   1.708652 0.763598 38.772617 0.000000 0.000000 -1.701715
  1   0.039391 -0.140629 0.000000 -1.570795 -1.570451 0.000000
  2   -0.000007 0.000008 4.427393 -0.172896 -3.054811 -0.040362
  3   18.465939 0.000000 0.000000 0.000000 0.000000 -0.325100
  4   14.875443 0.000000 -0.000001 -0.087342 -0.071977 0.252985
  5   0.000006 -0.000004 -4.427393 0.120662 2.981403 -0.046944
  6   18.465939 0.000000 0.000000 0.000000 0.000000 -0.238119
  7   14.875442 0.000000 0.000000 -0.016173 0.153195 0.171461
  8   2.255207 -0.007574 0.000003 0.122100 -0.016803 -0.006219
  9   9.514219 -0.009357 0.000000 -0.008668 0.002721 -0.052281
 10   11.751820 -0.001633 0.000000 0.000024 0.043599 0.439975
 11   -2.117496 0.858748 2.563789 0.666392 -1.215188 2.056413
 12   4.640941 0.000000 -0.000001 1.143372 0.694867 1.163034
 13   10.828049 0.000000 0.000000 0.000000 0.000000 -1.266479
 14   9.393337 -0.000001 0.000000 -1.421078 0.028441 -0.447159
 15   1.442245 0.107454 -1.746177 1.710740 0.781590 0.365230
 16   1.063452 0.000000 0.000001 0.000000 0.000000 0.199056
 17   1.376307 -0.000001 0.000001 0.000000 0.000000 0.600473
 18   4.172846 -0.251366 -1.312744 -0.005361 -0.000073 0.008928
 19   1.215374 0.000002 0.000000 0.000000 0.000000 0.506106
 20   1.215371 -0.000002 0.000001 0.000000 0.000000 0.506106
 21   4.220534 -0.244854 -0.431465 -0.004372 0.025906 -0.069865
 22   1.350417 0.000000 0.000001 0.000000 0.000000 0.532308
 23   1.350410 -0.000001 -0.000001 0.000000 0.000000 0.532308
 24   -1.887021 0.858761 -2.731760 -1.068947 1.168974 1.681692
 25   4.640942 0.000000 0.000001 -1.152261 -0.583561 0.927526
 26   10.828047 0.000000 0.000001 0.000000 0.000000 -1.210851
 27   9.393339 0.000000 0.000000 1.198918 0.060024 -0.599788
 28   1.442245 0.107455 1.746178 -2.047067 -0.542719 0.863657
 29   1.063450 -0.000001 0.000000 0.000000 0.000000 -0.054011
 30   1.376307 0.000000 0.000000 0.000000 0.000000 0.600477
 31   4.172847 -0.251365 1.312745 -0.014726 -0.094940 0.218785
 32   1.215373 -0.000001 0.000000 0.000000 0.000000 0.715581
 33   1.215372 0.000000 0.000000 0.000000 0.000000 0.715581
 34   4.220534 -0.244853 0.431466 -0.001333 -0.026242 0.148339
 35   1.350416 0.000000 -0.000001 0.000000 0.000000 0.863937
 36   1.350410 0.000000 0.000001 0.000000 0.000000 0.863925
 37   2.110540 -0.000001 0.000000 0.004197 -0.010251 -0.194823
 38   0.891923 2.373051 -0.014527 -3.141592 -0.000001 1.413797
 39   7.228122 5.709445 3.726568 3.140796 -1.570796 0.000000
 40   2.450426 5.076128 0.001325 3.140791 -1.570796 0.000000
 41   6.312404 -4.528058 0.001311 3.145690 -1.570796 0.000000
 42   2.233309 1.152535 -7.309138 -1.318172 -1.649346 -0.434661
 43   4.262825 -0.232720 -1.392178 0.016840 0.076668 0.253759
time 2
  0   1.708652 0.763598 38.772617 0.000000 0.000000 -1.701715
  1   0.097986 -0.132817 0.000000 -1.570795 -1.570451 0.000000
  2   -0.000007 0.000008 4.427393 -0.173087 -3.055276 -0.037570
  3   18.465939 0.000000 0.000000 0.000000 0.000000 -0.322760
  4   14.875443 0.000000 -0.000001 -0.087370 -0.072084 0.253459
  5   0.000006 -0.000004 -4.427393 0.121141 2.981310 -0.043949
  6   18.465939 0.000000 0.000000 0.000000 0.000000 -0.235362
  7   14.875442 0.000000 0.000000 -0.016173 0.153614 0.171649
  8   2.255207 -0.007574 0.000003 0.122100 -0.016144 -0.011612
  9   9.514219 -0.009357 0.000000 -0.008682 0.002709 -0.052281
 10   11.751820 -0.001633 0.000000 0.000024 0.043599 0.439975
 11   -2.117496 0.858748 2.563789 0.666392 -1.215188 2.056413
 12   4.640941 0.000000 -0.000001 1.141947 0.697071 1.160400
 13   10.828049 0.000000 0.000000 0.000000 0.000000 -1.263916
 14   9.393337 -0.000001 0.000000 -1.421140 0.028472 -0.447013
 15   1.442245 0.107454 -1.746177 1.710740 0.781590 0.365230
 16   1.063452 0.000000 0.000001 0.000000 0.000000 0.199056
 17   1.376307 -0.000001 0.000001 0.000000 0.000000 0.600473
 18   4.172846 -0.251366 -1.312744 -0.005361 -0.000073 0.008928
 19   1.215374 0.000002 0.000000 0.000000 0.000000 0.506106
 20   1.215371 -0.000002 0.000001 0.000000 0.000000 0.506106
 21   4.220534 -0.244854 -0.431465 -0.004372 0.025906 -0.069865
 22   1.350417 0.000000 0.000001 0.000000 0.000000 0.532308
 23   1.350410 -0.000001 -0.000001 0.000000 0.000000 0.532308
 24   -1.887021 0.858761 -2.731760 -1.068947 1.168974 1.681692
 25   4.640942 0.000000 0.000001 -1.151489 -0.584398 0.924726
 26   10.828047 0.000000 0.000001 0.000000 0.000000 -1.210444
 27   9.393339 0.000000 0.000000 1.198164 0.060251 -0.600807
 28   1.442245 0.107455 1.746178 -2.047067 -0.542719 0.863657
 29   1.063450 -0.000001 0.000000 0.000000 0.000000 -0.054011
 30   1.376307 0.000000 0.000000 0.000000 0.000000 0.600477
 31   4.172847 -0.251365 1.312745 -0.014726 -0.094940 0.218785
 32   1.215373 -0.000001 0.000000 0.000000 0.000000 0.715581
 33   1.215372 0.000000 0.000000 0.000000 0.000000 0.715581
 34   4.220534 -0.244853 0.431466 -0.001333 -0.026242 0.148339
 35   1.350416 0.000000 -0.000001 0.000000 0.000000 0.863937
 36   1.350410 0.000000 0.000001 0.000000 0.000000 0.863925
 37   2.110540 -0.000001 0.000000 0.004054 -0.010335 -0.192114
 38   0.891923 2.373051 -0.014527 -3.141592 -0.000001 1.413797
 39   7.228122 5.709445 3.726568 3.140796 -1.570796 0.000000
 40   2.450426 5.076128 0.001325 3.140791 -1.570796 0.000000
 41   6.312404 -4.528058 0.001311 3.151150 -1.570796 0.000000
 42   2.233309 1.152535 -7.309138 -1.316542 -1.649404 -0.434949
 43   4.262825 -0.232720 -1.392178 0.016840 0.076668 0.253759
time 3
  0   1.708652 0.763598 38.772617 0.000000 0.000000 -1.701715
  1   0.160488 -0.125004 0.000000 -1.570795 -1.570451 0.000000
  2   -0.000007 0.000008 4.427393 -0.173373 -3.055648 -0.034577
  3   18.465939 0.000000 0.000000 0.000000 0.000000 -0.320202
  4   14.875443 0.000000 -0.000001 -0.087370 -0.072190 0.253933
  5   0.000006 -0.000004 -4.427393 0.121523 2.981217 -0.040767
  6   18.465939 0.000000 0.000000 0.000000 0.000000 -0.232474
  7   14.875442 0.000000 0.000000 -0.016138 0.154070 0.171874
  8   2.255207 -0.007574 0.000003 0.122079 -0.015437 -0.017369
  9   9.514219 -0.009357 0.000000 -0.008682 0.002685 -0.052281
 10   11.751820 -0.001633 0.000000 0.000024 0.043599 0.439975
 11   -2.117496 0.858748 2.563789 0.666392 -1.215188 2.056413
 12   4.640941 0.000000 -0.000001 1.140473 0.699481 1.157532
 13   10.828049 0.000000 0.000000 0.000000 0.000000 -1.261171
 14   9.393337 -0.000001 0.000000 -1.421140 0.028472 -0.446866
 15   1.442245 0.107454 -1.746177 1.710740 0.781590 0.365230
 16   1.063452 0.000000 0.000001 0.000000 0.000000 0.199056
 17   1.376307 -0.000001 0.000001 0.000000 0.000000 0.600473
 18   4.172846 -0.251366 -1.312744 -0.005361 -0.000073 0.008928
 19   1.215374 0.000002 0.000000 0.000000 0.000000 0.506106
 20   1.215371 -0.000002 0.000001 0.000000 0.000000 0.506106
 21   4.220534 -0.244854 -0.431465 -0.004372 0.025906 -0.069865
 22   1.350417 0.000000 0.000001 0.000000 0.000000 0.532308
 23   1.350410 -0.000001 -0.000001 0.000000 0.000000 0.532308
 24   -1.887021 0.858761 -2.731760 -1.068947 1.168974 1.681692
 25   4.640942 0.000000 0.000001 -1.150666 -0.585374 0.921786
 26   10.828047 0.000000 0.000001 0.000000 0.000000 -1.209980
 27   9.393339 0.000000 0.000000 1.197310 0.060544 -0.601825
 28   1.442245 0.107455 1.746178 -2.047067 -0.542719 0.863657
 29   1.063450 -0.000001 0.000000 0.000000 0.000000 -0.054011
 30   1.376307 0.000000 0.000000 0.000000 0.000000 0.600477
 31   4.172847 -0.251365 1.312745 -0.014726 -0.094940 0.218785
 32   1.215373 -0.000001 0.000000 0.000000 0.000000 0.715581
 33   1.215372 0.000000 0.000000 0.000000 0.000000 0.715581
 34   4.220534 -0.244853 0.431466 -0.001333 -0.026242 0.148339
 35   1.350416 0.000000 -0.000001 0.000000 0.000000 0.863937
 36   1.350410 0.000000 0.000001 0.000000 0.000000 0.863925
 37   2.110540 -0.000001 0.000000 0.003911 -0.010419 -0.189190
 38   0.891923 2.373051 -0.014527 -3.141592 -0.000001 1.413797
 39   7.228122 5.709445 3.726568 3.140796 -1.570796 0.000000
 40   2.450426 5.076128 0.001325 3.140791 -1.570796 0.000000
 41   6.312404 -4.528058 0.001311 3.156967 -1.570796 0.000000
 42   2.233309 1.152535 -7.309138 -1.314721 -1.649433 -0.435236
 43   4.262825 -0.232720 -1.392178 0.016840 0.076668 0.253759
time 4
  0   1.708652 0.763598 38.772617 0.000000 0.000000 -1.701715
  1   0.222990 -0.117191 0.000000 -1.570795 -1.570451 0.000000
  2   -0.000007 0.000008 4.427393 -0.173564 -3.056113 -0.031435
  3   18.465939 0.000000 0.000000 0.000000 0.000000 -0.317570
  4   14.875443 0.000000 -0.000001 -0.087370 -0.072297 0.254407
  5   0.000006 -0.000004 -4.427393 0.122002 2.981123 -0.037491
  6   18.465939 0.000000 0.000000 0.000000 0.000000 -0.229390
  7   14.875442 0.000000 0.000000 -0.016103 0.154565 0.172061
  8   2.255207 -0.007574 0.000003 0.122058 -0.014694 -0.023391
  9   9.514219 -0.009357 0.000000 -0.008682 0.002661 -0.052281
 10   11.751820 -0.001633 0.000000 0.000024 0.043599 0.439975
 11   -2.117496 0.858748 2.563789 0.666392 -1.215188 2.056413
 12   4.640941 0.000000 -0.000001 1.138902 0.702030 1.154546
 13   10.828049 0.000000 0.000000 0.000000 0.000000 -1.258303
 14   9.393337 -0.000001 0.000000 -1.421203 0.028472 -0.446720
 15   1.442245 0.107454 -1.746177 1.710740 0.781590 0.365230
 16   1.063452 0.000000 0.000001 0.000000 0.000000 0.199056
 17   1.376307 -0.000001 0.000001 0.000000 0.000000 0.600473
 18   4.172846 -0.251366 -1.312744 -0.005361 -0.000073 0.008928
 19   1.215374 0.000002 0.000000 0.000000 0.000000 0.506106
 20   1.215371 -0.000002 0.000001 0.000000 0.000000 0.506106
 21   4.220534 -0.244854 -0.431465 -0.004372 0.025906 -0.069865
 22   1.350417 0.000000 0.000001 0.000000 0.000000 0.532308
 23   1.350410 -0.000001 -0.000001 0.000000 0.000000 0.532308
 24   -1.887021 0.858761 -2.731760 -1.068947 1.168974 1.681692
 25   4.640942 0.000000 0.000001 -1.149791 -0.586350 0.918637
 26   10.828047 0.000000 0.000001 0.000000 0.000000 -1.209515
 27   9.393339 0.000000 0.000000 1.196455 0.060804 -0.602941
 28   1.442245 0.107455 1.746178 -2.047067 -0.542719 0.863657
 29   1.063450 -0.000001 0.000000 0.000000 0.000000 -0.054011
 30   1.376307 0.000000 0.000000 0.000000 0.000000 0.600477
 31   4.172847 -0.251365 1.312745 -0.014726 -0.094940 0.218785
 32   1.215373 -0.000001 0.000000 0.000000 0.000000 0.715581
 33   1.215372 0.000000 0.000000 0.000000 0.000000 0.715581
 34   4.220534 -0.244853 0.431466 -0.001333 -0.026242 0.148339
 35   1.350416 0.000000 -0.000001 0.000000 0.000000 0.863937
 36   1.350410 0.000000 0.000001 0.000000 0.000000 0.863925
 37   2.110540 -0.000001 0.000000 0.003768 -0.010503 -0.186180
 38   0.891923 2.373051 -0.014527 -3.141592 -0.000001 1.413797
 39   7.228122 5.709445 3.726568 3.140796 -1.570796 0.000000
 40   2.450426 5.076128 0.001325 3.140791 -1.570796 0.000000
 41   6.312404 -4.528058 0.001311 3.163040 -1.570796 0.000000
 42   2.233309 1.152535 -7.309138 -1.312899 -1.649462 -0.435619
 43   4.262825 -0.232720 -1.392178 0.016840 0.076668 0.253759
time 5
  0   1.708652 0.763598 38.772617 0.000000 0.000000 -1.701715
  1   0.289399 -0.109378 0.000000 -1.570795 -1.570451 0.000000
  2   -0.000007 0.000008 4.427393 -0.173851 -3.056578 -0.028243
  3   18.465939 0.000000 0.000000 0.000000 0.000000 -0.314865
  4   14.875443 0.000000 -0.000001 -0.087399 -0.072403 0.254920
  5   0.000006 -0.000004 -4.427393 0.122480 2.981030 -0.034029
  6   18.465939 0.000000 0.000000 0.000000 0.000000 -0.226305
  7   14.875442 0.000000 0.000000 -0.016103 0.155059 0.172286
  8   2.255207 -0.007574 0.000003 0.122058 -0.013939 -0.029545
  9   9.514219 -0.009357 0.000000 -0.008682 0.002649 -0.052281
 10   11.751820 -0.001633 0.000000 0.000024 0.043599 0.439975
 11   -2.117496 0.858748 2.563789 0.666392 -1.215188 2.056413
 12   4.640941 0.000000 -0.000001 1.137281 0.704578 1.151502
 13   10.828049 0.000000 0.000000 0.000000 0.000000 -1.255375
 14   9.393337 -0.000001 0.000000 -1.421265 0.028502 -0.446573
 15   1.442245 0.107454 -1.746177 1.710740 0.781590 0.365230
 16   1.063452 0.000000 0.000001 0.000000 0.000000 0.199056
 17   1.376307 -0.000001 0.000001 0.000000 0.000000 0.600473
 18   4.172846 -0.251366 -1.312744 -0.005361 -0.000073 0.008928
 19   1.215374 0.000002 0.000000 0.000000 0.000000 0.506106
 20   1.215371 -0.000002 0.000001 0.000000 0.000000 0.506106
 21   4.220534 -0.244854 -0.431465 -0.004372 0.025906 -0.069865
 22   1.350417 0.000000 0.000001 0.000000 0.000000 0.532308
 23   1.350410 -0.000001 -0.000001 0.000000 0.000000 0.532308
 24   -1.887021 0.858761 -2.731760 -1.068947 1.168974 1.681692
 25   4.640942 0.000000 0.000001 -1.148916 -0.587327 0.915487
 26   10.828047 0.000000 0.000001 0.000000 0.000000 -1.209050
 27   9.393339 0.000000 0.000000 1.195551 0.061097 -0.604056
 28   1.442245 0.107455 1.746178 -2.047067 -0.542719 0.863657
 29   1.063450 -0.000001 0.000000 0.000000 0.000000 -0.054011
 30   1.376307 0.000000 0.000000 0.000000 0.000000 0.600477
 31   4.172847 -0.251365 1.312745 -0.014726 -0.094940 0.218785
 32   1.215373 -0.000001 0.000000 0.000000 0.000000 0.715581
 33   1.215372 0.000000 0.000000 0.000000 0.000000 0.715581
 34   4.220534 -0.244853 0.431466 -0.001333 -0.026242 0.148339
 35   1.350416 0.000000 -0.000001 0.000000 0.000000 0.863937
 36   1.350410 0.000000 0.000001 0.000000 0.000000 0.863925
 37   2.110540 -0.000001 0.000000 0.003624 -0.010587 -0.183083
 38   0.891923 2.373051 -0.014527 -3.141592 -0.000001 1.413797
 39   7.228122 5.709445 3.726568 3.140796 -1.570796 0.000000
 40   2.450426 5.076128 0.001325 3.140791 -1.570796 0.000000
 41   6.312404 -4.528058 0.001311 3.169214 -1.570796 0.000000
 42   2.233309 1.152535 -7.309138 -1.310982 -1.649491 -0.435906
 43   4.262825 -0.232720 -1.392178 0.016840 0.076668 0.253759
time 6
  0   1.708652 0.763598 38.772617 0.000000 0.000000 -1.701715
  1   0.355807 -0.101566 0.000000 -1.570795 -1.570451 0.000000
  2   -0.000007 0.000008 4.427393 -0.174137 -3.056950 -0.025051
  3   18.465939 0.000000 0.000000 0.000000 0.000000 -0.312160
  4   14.875443 0.000000 -0.000001 -0.087399 -0.072509 0.255434
  5   0.000006 -0.000004 -4.427393 0.123054 2.981030 -0.030660
  6   18.465939 0.000000 0.000000 0.000000 0.000000 -0.223154
  7   14.875442 0.000000 0.000000 -0.016068 0.155535 0.172511
  8   2.255207 -0.007574 0.000003 0.122016 -0.013196 -0.035667
  9   9.514219 -0.009357 0.000000 -0.008682 0.002625 -0.052281
 10   11.751820 -0.001633 0.000000 0.000024 0.043599 0.439975
 11   -2.117496 0.858748 2.563789 0.666392 -1.215188 2.056413
 12   4.640941 0.000000 -0.000001 1.135660 0.707127 1.148458
 13   10.828049 0.000000 0.000000 0.000000 0.000000 -1.252446
 14   9.393337 -0.000001 0.000000 -1.421327 0.028502 -0.446427
 15   1.442245 0.107454 -1.746177 1.710740 0.781590 0.365230
 16   1.063452 0.000000 0.000001 0.000000 0.000000 0.199056
 17   1.376307 -0.000001 0.000001 0.000000 0.000000 0.600473
 18   4.172846 -0.251366 -1.312744 -0.005361 -0.000073 0.008928
 19   1.215374 0.000002 0.000000 0.000000 0.000000 0.506106
 20   1.215371 -0.000002 0.000001 0.000000 0.000000 0.506106
 21   4.220534 -0.244854 -0.431465 -0.004372 0.025906 -0.069865
 22   1.350417 0.000000 0.000001 0.000000 0.000000 0.532308
 23   1.350410 -0.000001 -0.000001 0.000000 0.000000 0.532308
 24   -1.887021 0.858761 -2.731760 -1.068947 1.168974 1.681692
 25   4.640942 0.000000 0.000001 -1.148042 -0.588373 0.912337
 26   10.828047 0.000000 0.000001 0.000000 0.000000 -1.208586
 27   9.393339 0.000000 0.000000 1.194646 0.061390 -0.605171
 28   1.442245 0.107455 1.746178 -2.047067 -0.542719 0.863657
 29   1.063450 -0.000001 0.000000 0.000000 0.000000 -0.054011
 30   1.376307 0.000000 0.000000 0.000000 0.000000 0.600477
 31   4.172847 -0.251365 1.312745 -0.014726 -0.094940 0.218785
 32   1.215373 -0.000001 0.000000 0.000000 0.000000 0.715581
 33   1.215372 0.000000 0.000000 0.000000 0.000000 0.715581
 34   4.220534 -0.244853 0.431466 -0.001333 -0.026242 0.148339
 35   1.350416 0.000000 -0.000001 0.000000 0.000000 0.863937
 36   1.350410 0.000000 0.000001 0.000000 0.000000 0.863925
 37   2.110540 -0.000001 0.000000 0.003481 -0.010670 -0.179987
 38   0.891923 2.373051 -0.014527 -3.141592 -0.000001 1.413797
 39   7.228122 5.709445 3.726568 3.140796 -1.570796 0.000000
 40   2.450426 5.076128 0.001325 3.140791 -1.570796 0.000000
 41   6.312404 -4.528058 0.001311 3.175389 -1.570796 0.000000
 42   2.233309 1.152535 -7.309138 -1.309160 -1.649550 -0.436289
 43   4.262825 -0.232720 -1.392178 0.016840 0.076668 0.253759
time 7
  0   1.708652 0.763598 38.772617 0.000000 0.000000 -1.701715
  1   0.422215 -0.093753 0.000000 -1.570795 -1.570451 0.000000
  2   -0.000007 0.000008 4.427393 -0.174328 -3.057415 -0.021959
  3   18.465939 0.000000 0.000000 0.000000 0.000000 -0.309528
  4   14.875443 0.000000 -0.000001 -0.087399 -0.072637 0.255948
  5   0.000006 -0.000004 -4.427393 0.123533 2.980937 -0.027290
  6   18.465939 0.000000 0.000000 0.000000 0.000000 -0.220135
  7   14.875442 0.000000 0.000000 -0.016033 0.156029 0.172737
  8   2.255207 -0.007574 0.000003 0.121995 -0.012453 -0.041688
  9   9.514219 -0.009357 0.000000 -0.008682 0.002601 -0.052281
 10   11.751820 -0.001633 0.000000 0.000024 0.043599 0.439975
 11   -2.117496 0.858748 2.563789 0.666392 -1.215188 2.056413
 12   4.640941 0.000000 -0.000001 1.134039 0.709675 1.145473
 13   10.828049 0.000000 0.000000 0.000000 0.000000 -1.249578
 14   9.393337 -0.000001 0.000000 -1.421389 0.028502 -0.446231
 15   1.442245 0.107454 -1.746177 1.710740 0.781590 0.365230
 16   1.063452 0.000000 0.000001 0.000000 0.000000 0.199056
 17   1.376307 -0.000001 0.000001 0.000000 0.000000 0.600473
 18   4.172846 -0.251366 -1.312744 -0.005361 -0.000073 0.008928
 19   1.215374 0.000002 0.000000 0.000000 0.000000 0.506106
 20   1.215371 -0.000002 0.000001 0.000000 0.000000 0.506106
 21   4.220534 -0.244854 -0.431465 -0.004372 0.025906 -0.069865
 22   1.350417 0.000000 0.000001 0.000000 0.000000 0.532308
 23   1.350410 -0.000001 -0.000001 0.000000 0.000000 0.532308
 24   -1.887021 0.858761 -2.731760 -1.068947 1.168974 1.681692
 25   4.640942 0.000000 0.000001 -1.147219 -0.589349 0.909188
 26   10.828047 0.000000 0.000001 0.000000 0.000000 -1.208063
 27   9.393339 0.000000 0.000000 1.193792 0.061650 -0.606287
 28   1.442245 0.107455 1.746178 -2.047067 -0.542719 0.863657
 29   1.063450 -0.000001 0.000000 0.000000 0.000000 -0.054011
 30   1.376307 0.000000 0.000000 0.000000 0.000000 0.600477
 31   4.172847 -0.251365 1.312745 -0.014726 -0.094940 0.218785
 32   1.215373 -0.000001 0.000000 0.000000 0.000000 0.715581
 33   1.215372 0.000000 0.000000 0.000000 0.000000 0.715581
 34   4.220534 -0.244853 0.431466 -0.001333 -0.026242 0.148339
 35   1.350416 0.000000 -0.000001 0.000000 0.000000 0.863937
 36   1.350410 0.000000 0.000001 0.000000 0.000000 0.863925
 37   2.110540 -0.000001 0.000000 0.003338 -0.010754 -0.176977
 38   0.891923 2.373051 -0.014527 -3.141592 -0.000001 1.413797
 39   7.228122 5.709445 3.726568 3.140796 -1.570796 0.000000
 40   2.450426 5.076128 0.001325 3.140791 -1.570796 0.000000
 41   6.312404 -4.528058 0.001311 3.181461 -1.570796 0.000000
 42   2.233309 1.152535 -7.309138 -1.307242 -1.649579 -0.436576
 43   4.262825 -0.232720 -1.392178 0.016840 0.076668 0.253759
time 8
  0   1.708652 0.763598 38.772617 0.000000 0.000000 -1.701715
  1   0.484717 -0.085940 0.000000 -1.570795 -1.570451 0.000000
  2   -0.000007 0.000008 4.427393 -0.174614 -3.057881 -0.018967
  3   18.465939 0.000000 0.000000 0.000000 0.000000 -0.307042
  4   14.875443 0.000000 -0.000001 -0.087427 -0.072722 0.256422
  5   0.000006 -0.000004 -4.427393 0.123915 2.980844 -0.024109
  6   18.465939 0.000000 0.000000 0.000000 0.000000 -0.217181
  7   14.875442 0.000000 0.000000 -0.015998 0.156485 0.172924
  8   2.255207 -0.007574 0.000003 0.121974 -0.011746 -0.047446
  9   9.514219 -0.009357 0.000000 -0.008682 0.002589 -0.052281
 10   11.751820 -0.001633 0.000000 0.000024 0.043599 0.439975
 11   -2.117496 0.858748 2.563789 0.666392 -1.215188 2.056413
 12   4.640941 0.000000 -0.000001 1.132516 0.712086 1.142605
 13   10.828049 0.000000 0.000000 0.000000 0.000000 -1.246772
 14   9.393337 -0.000001 0.000000 -1.421389 0.028532 -0.446085
 15   1.442245 0.107454 -1.746177 1.710740 0.781590 0.365230
 16   1.063452 0.000000 0.000001 0.000000 0.000000 0.199056
 17   1.376307 -0.000001 0.000001 0.000000 0.000000 0.600473
 18   4.172846 -0.251366 -1.312744 -0.005361 -0.000073 0.008928
 19   1.215374 0.000002 0.000000 0.000000 0.000000 0.506106
 20   1.215371 -0.000002 0.000001 0.000000 0.000000 0.506106
 21   4.220534 -0.244854 -0.431465 -0.004372 0.025906 -0.069865
 22   1.350417 0.000000 0.000001 0.000000 0.000000 0.532308
 23   1.350410 -0.000001 -0.000001 0.000000 0.000000 0.532308
 24   -1.887021 0.858761 -2.731760 -1.068947 1.168974 1.681692
 25   4.640942 0.000000 0.000001 -1.146395 -0.590326 0.906248
 26   10.828047 0.000000 0.000001 0.000000 0.000000 -1.207656
 27   9.393339 0.000000 0.000000 1.192938 0.061911 -0.607354
 28   1.442245 0.107455 1.746178 -2.047067 -0.542719 0.863657
 29   1.063450 -0.000001 0.000000 0.000000 0.000000 -0.054011
 30   1.376307 0.000000 0.000000 0.000000 0.000000 0.600477
 31   4.172847 -0.251365 1.312745 -0.014726 -0.094940 0.218785
 32   1.215373 -0.000001 0.000000 0.000000 0.000000 0.715581
 33   1.215372 0.000000 0.000000 0.000000 0.000000 0.715581
 34   4.220534 -0.244853 0.431466 -0.001333 -0.026242 0.148339
 35   1.350416 0.000000 -0.000001 0.000000 0.000000 0.863937
 36   1.350410 0.000000 0.000001 0.000000 0.000000 0.863925
 37   2.110540 -0.000001 0.000000 0.003195 -0.010838 -0.174052
 38   0.891923 2.373051 -0.014527 -3.141592 -0.000001 1.413797
 39   7.228122 5.709445 3.726568 3.140796 -1.570796 0.000000
 40   2.450426 5.076128 0.001325 3.140791 -1.570796 0.000000
 41   6.312404 -4.528058 0.001311 3.187279 -1.570796 0.000000
 42   2.233309 1.152535 -7.309138 -1.305517 -1.649608 -0.436959
 43   4.262825 -0.232720 -1.392178 0.016840 0.076668 0.253759
time 9
  0   1.708652 0.763598 38.772617 0.000000 0.000000 -1.701715
  1   0.543313 -0.078127 0.000000 -1.570795 -1.570451 0.000000
  2   -0.000007 0.000008 4.427393 -0.174805 -3.058253 -0.016124
  3   18.465939 0.000000 0.000000 0.000000 0.000000 -0.304630
  4   14.875443 0.000000 -0.000001 -0.087427 -0.072829 0.256856
  5   0.000006 -0.000004 -4.427393 0.124394 2.980751 -0.021114
  6   18.465939 0.000000 0.000000 0.000000 0.000000 -0.214490
  7   14.875442 0.000000 0.000000 -0.015963 0.156904 0.173112
  8   2.255207 -0.007574 0.000003 0.121932 -0.011087 -0.052839
  9   9.514219 -0.009357 0.000000 -0.008682 0.002565 -0.052281
 10   11.751820 -0.001633 0.000000 0.000024 0.043599 0.439975
 11   -2.117496 0.858748 2.563789 0.666392 -1.215188 2.056413
 12   4.640941 0.000000 -0.000001 1.131091 0.714359 1.139912
 13   10.828049 0.000000 0.000000 0.000000 0.000000 -1.244209
 14   9.393337 -0.000001 0.000000 -1.421452 0.028532 -0.445987
 15   1.442245 0.107454 -1.746177 1.710740 0.781590 0.365230
 16   1.063452 0.000000 0.000001 0.000000 0.000000 0.199056
 17   1.376307 -0.000001 0.000001 0.000000 0.000000 0.600473
 18   4.172846 -0.251366 -1.312744 -0.005361 -0.000073 0.008928
 19   1.215374 0.000002 0.000000 0.000000 0.000000 0.506106
 20   1.215371 -0.000002 0.000001 0.000000 0.000000 0.506106
 21   4.220534 -0.244854 -0.431465 -0.004372 0.025906 -0.069865
 22   1.350417 0.000000 0.000001 0.000000 0.000000 0.532308
 23   1.350410 -0.000001 -0.000001 0.000000 0.000000 0.532308
 24   -1.887021 0.858761 -2.731760 -1.068947 1.168974 1.681692
 25   4.640942 0.000000 0.000001 -1.145624 -0.591232 0.903448
 26   10.828047 0.000000 0.000001 0.000000 0.000000 -1.207192
 27   9.393339 0.000000 0.000000 1.192133 0.062171 -0.608324
 28   1.442245 0.107455 1.746178 -2.047067 -0.542719 0.863657
 29   1.063450 -0.000001 0.000000 0.000000 0.000000 -0.054011
 30   1.376307 0.000000 0.000000 0.000000 0.000000 0.600477
 31   4.172847 -0.251365 1.312745 -0.014726 -0.094940 0.218785
 32   1.215373 -0.000001 0.000000 0.000000 0.000000 0.715581
 33   1.215372 0.000000 0.000000 0.000000 0.000000 0.715581
 34   4.220534 -0.244853 0.431466 -0.001333 -0.026242 0.148339
 35   1.350416 0.000000 -0.000001 0.000000 0.000000 0.863937
 36   1.350410 0.000000 0.000001 0.000000 0.000000 0.863925
 37   2.110540 -0.000001 0.000000 0.003052 -0.010922 -0.171343
 38   0.891923 2.373051 -0.014527 -3.141592 -0.000001 1.413797
 39   7.228122 5.709445 3.726568 3.140796 -1.570796 0.000000
 40   2.450426 5.076128 0.001325 3.140791 -1.570796 0.000000
 41   6.312404 -4.528058 0.001311 3.192688 -1.570796 0.000000
 42   2.233309 1.152535 -7.309138 -1.303887 -1.649637 -0.437246
 43   4.262825 -0.232720 -1.392178 0.016840 0.076668 0.253759
time 10
  0   1.708652 0.763598 38.772617 0.000000 0.000000 -1.701715
  1   0.594095 -0.074221 0.000000 -1.570795 -1.570451 0.000000
  2   -0.000007 0.000008 4.427393 -0.174996 -3.058625 -0.013581
  3   18.465939 0.000000 0.000000 0.000000 0.000000 -0.302510
  4   14.875443 0.000000 -0.000001 -0.087427 -0.072914 0.257251
  5   0.000006 -0.000004 -4.427393 0.124776 2.980751 -0.018400
  6   18.465939 0.000000 0.000000 0.000000 0.000000 -0.211996
  7   14.875442 0.000000 0.000000 -0.015963 0.157303 0.173299
  8   2.255207 -0.007574 0.000003 0.121890 -0.010488 -0.057736
  9   9.514219 -0.009357 0.000000 -0.008682 0.002553 -0.052281
 10   11.751820 -0.001633 0.000000 0.000024 0.043599 0.439975
 11   -2.117496 0.858748 2.563789 0.666392 -1.215188 2.056413
 12   4.640941 0.000000 -0.000001 1.129765 0.716425 1.137512
 13   10.828049 0.000000 0.000000 0.000000 0.000000 -1.241891
 14   9.393337 -0.000001 0.000000 -1.421514 0.028532 -0.445841
 15   1.442245 0.107454 -1.746177 1.710740 0.781590 0.365230
 16   1.063452 0.000000 0.000001 0.000000 0.000000 0.199056
 17   1.376307 -0.000001 0.000001 0.000000 0.000000 0.600473
 18   4.172846 -0.251366 -1.312744 -0.005361 -0.000073 0.008928
 19   1.215374 0.000002 0.000000 0.000000 0.000000 0.506106
 20   1.215371 -0.000002 0.000001 0.000000 0.000000 0.506106
 21   4.220534 -0.244854 -0.431465 -0.004372 0.025906 -0.069865
 22   1.350417 0.000000 0.000001 0.000000 0.000000 0.532308
 23   1.350410 -0.000001 -0.000001 0.000000 0.000000 0.532308
 24   -1.887021 0.858761 -2.731760 -1.068947 1.168974 1.681692
 25   4.640942 0.000000 0.000001 -1.144955 -0.592139 0.900928
 26   10.828047 0.000000 0.000001 0.000000 0.000000 -1.206843
 27   9.393339 0.000000 0.000000 1.191430 0.062399 -0.609196
 28   1.442245 0.107455 1.746178 -2.047067 -0.542719 0.863657
 29   1.063450 -0.000001 0.000000 0.000000 0.000000 -0.054011
 30   1.376307 0.000000 0.000000 0.000000 0.000000 0.600477
 31   4.172847 -0.251365 1.312745 -0.014726 -0.094940 0.218785
 32   1.215373 -0.000001 0.000000 0.000000 0.000000 0.715581
 33   1.215372 0.000000 0.000000 0.000000 0.000000 0.715581
 34   4.220534 -0.244853 0.431466 -0.001333 -0.026242 0.148339
 35   1.350416 0.000000 -0.000001 0.000000 0.000000 0.863937
 36   1.350410 0.000000 0.000001 0.000000 0.000000 0.863925
 37   2.110540 -0.000001 0.000000 0.002957 -0.010978 -0.168892
 38   0.891923 2.373051 -0.014527 -3.141592 -0.000001 1.413797
 39   7.228122 5.709445 3.726568 3.140796 -1.570796 0.000000
 40   2.450426 5.076128 0.001325 3.140791 -1.570796 0.000000
 41   6.312404 -4.528058 0.001311 3.197638 -1.570796 0.000000
 42   2.233309 1.152535 -7.309138 -1.302353 -1.649666 -0.437534
 43   4.262825 -0.232720 -1.392178 0.016840 0.076668 0.253759
time 11
  0   1.708652 0.763598 38.772617 0.000000 0.000000 -1.701715
  1   0.640972 -0.066408 0.000000 -1.570795 -1.570451 0.000000
  2   -0.000007 0.000008 4.427393 -0.175187 -3.058904 -0.011386
  3   18.465939 0.000000 0.000000 0.000000 0.000000 -0.300609
  4   14.875443 0.000000 -0.000001 -0.087456 -0.072999 0.257607
  5   0.000006 -0.000004 -4.427393 0.125159 2.980657 -0.016060
  6   18.465939 0.000000 0.000000 0.000000 0.000000 -0.209830
  7   14.875442 0.000000 0.000000 -0.015928 0.157646 0.173449
  8   2.255207 -0.007574 0.000003 0.121869 -0.009960 -0.062037
  9   9.514219 -0.009357 0.000000 -0.008682 0.002541 -0.052281
 10   11.751820 -0.001633 0.000000 0.000024 0.043599 0.439975
 11   -2.117496 0.858748 2.563789 0.666392 -1.215188 2.056413
 12   4.640941 0.000000 -0.000001 1.128636 0.718216 1.135346
 13   10.828049 0.000000 0.000000 0.000000 0.000000 -1.239817
 14   9.393337 -0.000001 0.000000 -1.421514 0.028562 -0.445743
 15   1.442245 0.107454 -1.746177 1.710740 0.781590 0.365230
 16   1.063452 0.000000 0.000001 0.000000 0.000000 0.199056
 17   1.376307 -0.000001 0.000001 0.000000 0.000000 0.600473
 18   4.172846 -0.251366 -1.312744 -0.005361 -0.000073 0.008928
 19   1.215374 0.000002 0.000000 0.000000 0.000000 0.506106
 20   1.215371 -0.000002 0.000001 0.000000 0.000000 0.506106
 21   4.220534 -0.244854 -0.431465 -0.004372 0.025906 -0.069865
 22   1.350417 0.000000 0.000001 0.000000 0.000000 0.532308
 23   1.350410 -0.000001 -0.000001 0.000000 0.000000 0.532308
 24   -1.887021 0.858761 -2.731760 -1.068947 1.168974 1.681692
 25   4.640942 0.000000 0.000001 -1.144337 -0.592836 0.898759
 26   10.828047 0.000000 0.000001 0.000000 0.000000 -1.206495
 27   9.393339 0.000000 0.000000 1.190827 0.062594 -0.610021
 28   1.442245 0.107455 1.746178 -2.047067 -0.542719 0.863657
 29   1.063450 -0.000001 0.000000 0.000000 0.000000 -0.054011
 30   1.376307 0.000000 0.000000 0.000000 0.000000 0.600477
 31   4.172847 -0.251365 1.312745 -0.014726 -0.094940 0.218785
 32   1.215373 -0.000001 0.000000 0.000000 0.000000 0.715581
 33   1.215372 0.000000 0.000000 0.000000 0.000000 0.715581
 34   4.220534 -0.244853 0.431466 -0.001333 -0.026242 0.148339
 35   1.350416 0.000000 -0.000001 0.000000 0.000000 0.863937
 36   1.350410 0.000000 0.000001 0.000000 0.000000 0.863925
 37   2.110540 -0.000001 0.000000 0.002814 -0.011062 -0.166699
 38   0.891923 2.373051 -0.014527 -3.141592 -0.000001 1.413797
 39   7.228122 5.709445 3.726568 3.140796 -1.570796 0.000000
 40   2.450426 5.076128 0.001325 3.140791 -1.570796 0.000000
 41   6.312404 -4.528058 0.001311 3.201975 -1.570796 0.000000
 42   2.233309 1.152535 -7.309138 -1.301011 -1.649695 -0.437725
 43   4.262825 -0.232720 -1.392178 0.016840 0.076668 0.253759
time 12
  0   1.708652 0.763598 38.772617 0.000000 0.000000 -1.701715
  1   0.680035 -0.062502 0.000000 -1.570795 -1.570451 0.000000
  2   -0.000007 0.000008 4.427393 -0.175283 -3.059183 -0.009541
  3   18.465939 0.000000 0.000000 0.000000 0.000000 -0.299074
  4   14.875443 0.000000 -0.000001 -0.087456 -0.073063 0.257923
  5   0.000006 -0.000004 -4.427393 0.125446 2.980657 -0.014095
  6   18.465939 0.000000 0.000000 0.000000 0.000000 -0.207992
  7   14.875442 0.000000 0.000000 -0.015893 0.157931 0.173562
  8   2.255207 -0.007574 0.000003 0.121848 -0.009529 -0.065578
  9   9.514219 -0.009357 0.000000 -0.008682 0.002529 -0.052281
 10   11.751820 -0.001633 0.000000 0.000024 0.043599 0.439975
 11   -2.117496 0.858748 2.563789 0.666392 -1.215188 2.056413
 12   4.640941 0.000000 -0.000001 1.127653 0.719663 1.133590
 13   10.828049 0.000000 0.000000 0.000000 0.000000 -1.238108
 14   9.393337 -0.000001 0.000000 -1.421576 0.028562 -0.445645
 15   1.442245 0.107454 -1.746177 1.710740 0.781590 0.365230
 16   1.063452 0.000000 0.000001 0.000000 0.000000 0.199056
 17   1.376307 -0.000001 0.000001 0.000000 0.000000 0.600473
 18   4.172846 -0.251366 -1.312744 -0.005361 -0.000073 0.008928
 19   1.215374 0.000002 0.000000 0.000000 0.000000 0.506106
 20   1.215371 -0.000002 0.000001 0.000000 0.000000 0.506106
 21   4.220534 -0.244854 -0.431465 -0.004372 0.025906 -0.069865
 22   1.350417 0.000000 0.000001 0.000000 0.000000 0.532308
 23   1.350410 -0.000001 -0.000001 0.000000 0.000000 0.532308
 24   -1.887021 0.858761 -2.731760 -1.068947 1.168974 1.681692
 25   4.640942 0.000000 0.000001 -1.143874 -0.593464 0.896939
 26   10.828047 0.000000 0.000001 0.000000 0.000000 -1.206204
 27   9.393339 0.000000 0.000000 1.190274 0.062756 -0.610651
 28   1.442245 0.107455 1.746178 -2.047067 -0.542719 0.863657
 29   1.063450 -0.000001 0.000000 0.000000 0.000000 -0.054011
 30   1.376307 0.000000 0.000000 0.000000 0.000000 0.600477
 31   4.172847 -0.251365 1.312745 -0.014726 -0.094940 0.218785
 32   1.215373 -0.000001 0.000000 0.000000 0.000000 0.715581
 33   1.215372 0.000000 0.000000 0.000000 0.000000 0.715581
 34   4.220534 -0.244853 0.431466 -0.001333 -0.026242 0.148339
 35   1.350416 0.000000 -0.000001 0.000000 0.000000 0.863937
 36   1.350410 0.000000 0.000001 0.000000 0.000000 0.863925
 37   2.110540 -0.000001 0.000000 0.002766 -0.011089 -0.164935
 38   0.891923 2.373051 -0.014527 -3.141592 -0.000001 1.413797
 39   7.228122 5.709445 3.726568 3.140796 -1.570796 0.000000
 40   2.450426 5.076128 0.001325 3.140791 -1.570796 0.000000
 41   6.312404 -4.528058 0.001311 3.205547 -1.570796 0.000000
 42   2.233309 1.152535 -7.309138 -1.299956 -1.649724 -0.437917
 43   4.262825 -0.232720 -1.392178 0.016840 0.076668 0.253759
time 13
  0   1.708652 0.763598 38.772617 0.000000 0.000000 -1.701715
  1   0.707380 -0.058596 0.000000 -1.570795 -1.570451 0.000000
  2   -0.000007 0.000008 4.427393 -0.175378 -3.059369 -0.008145
  3   18.465939 0.000000 0.000000 0.000000 0.000000 -0.297831
  4   14.875443 0.000000 -0.000001 -0.087456 -0.073105 0.258120
  5   0.000006 -0.000004 -4.427393 0.125638 2.980564 -0.012597
  6   18.465939 0.000000 0.000000 0.000000 0.000000 -0.206679
  7   14.875442 0.000000 0.000000 -0.015893 0.158140 0.173674
  8   2.255207 -0.007574 0.000003 0.121806 -0.009193 -0.068291
  9   9.514219 -0.009357 0.000000 -0.008695 0.002517 -0.052281
 10   11.751820 -0.001633 0.000000 0.000024 0.043599 0.439975
 11   -2.117496 0.858748 2.563789 0.666392 -1.215188 2.056413
 12   4.640941 0.000000 -0.000001 1.126916 0.720834 1.132243
 13   10.828049 0.000000 0.000000 0.000000 0.000000 -1.236827
 14   9.393337 -0.000001 0.000000 -1.421576 0.028562 -0.445596
 15   1.442245 0.107454 -1.746177 1.710740 0.781590 0.365230
 16   1.063452 0.000000 0.000001 0.000000 0.000000 0.199056
 17   1.376307 -0.000001 0.000001 0.000000 0.000000 0.600473
 18   4.172846 -0.251366 -1.312744 -0.005361 -0.000073 0.008928
 19   1.215374 0.000002 0.000000 0.000000 0.000000 0.506106
 20   1.215371 -0.000002 0.000001 0.000000 0.000000 0.506106
 21   4.220534 -0.244854 -0.431465 -0.004372 0.025906 -0.069865
 22   1.350417 0.000000 0.000001 0.000000 0.000000 0.532308
 23   1.350410 -0.000001 -0.000001 0.000000 0.000000 0.532308
 24   -1.887021 0.858761 -2.731760 -1.068947 1.168974 1.681692
 25   4.640942 0.000000 0.000001 -1.143463 -0.593952 0.895539
 26   10.828047 0.000000 0.000001 0.000000 0.000000 -1.205972
 27   9.393339 0.000000 0.000000 1.189872 0.062887 -0.611136
 28   1.442245 0.107455 1.746178 -2.047067 -0.542719 0.863657
 29   1.063450 -0.000001 0.000000 0.000000 0.000000 -0.054011
 30   1.376307 0.000000 0.000000 0.000000 0.000000 0.600477
 31   4.172847 -0.251365 1.312745 -0.014726 -0.094940 0.218785
 32   1.215373 -0.000001 0.000000 0.000000 0.000000 0.715581
 33   1.215372 0.000000 0.000000 0.000000 0.000000 0.715581
 34   4.220534 -0.244853 0.431466 -0.001333 -0.026242 0.148339
 35   1.350416 0.000000 -0.000001 0.000000 0.000000 0.863937
 36   1.350410 0.000000 0.000001 0.000000 0.000000 0.863925
 37   2.110540 -0.000001 0.000000 0.002671 -0.011145 -0.163559
 38   0.891923 2.373051 -0.014527 -3.141592 -0.000001 1.413797
 39   7.228122 5.709445 3.726568 3.140796 -1.570796 0.000000
 40   2.450426 5.076128 0.001325 3.140791 -1.570796 0.000000
 41   6.312404 -4.528058 0.001311 3.208251 -1.570796 0.000000
 42   2.233309 1.152535 -7.309138 -1.299093 -1.649753 -0.438108
 43   4.262825 -0.232720 -1.392178 0.016840 0.076668 0.253759
time 14
  0   1.708652 0.763598 38.772617 0.000000 0.000000 -1.701715
  1   0.726912 -0.058596 0.000000 -1.570795 -1.570451 0.000000
  2   -0.000007 0.000008 4.427393 -0.175474 -3.059462 -0.007247
  3   18.465939 0.000000 0.000000 0.000000 0.000000 -0.297100
  4   14.875443 0.000000 -0.000001 -0.087456 -0.073148 0.258278
  5   0.000006 -0.000004 -4.427393 0.125733 2.980564 -0.011662
  6   18.465939 0.000000 0.000000 0.000000 0.000000 -0.205826
  7   14.875442 0.000000 0.000000 -0.015893 0.158273 0.173712
  8   2.255207 -0.007574 0.000003 0.121806 -0.008989 -0.069978
  9   9.514219 -0.009357 0.000000 -0.008695 0.002517 -0.052281
 10   11.751820 -0.001633 0.000000 0.000024 0.043599 0.439975
 11   -2.117496 0.858748 2.563789 0.666392 -1.215188 2.056413
 12   4.640941 0.000000 -0.000001 1.126474 0.721523 1.131365
 13   10.828049 0.000000 0.000000 0.000000 0.000000 -1.236034
 14   9.393337 -0.000001 0.000000 -1.421576 0.028562 -0.445548
 15   1.442245 0.107454 -1.746177 1.710740 0.781590 0.365230
 16   1.063452 0.000000 0.000001 0.000000 0.000000 0.199056
 17   1.376307 -0.000001 0.000001 0.000000 0.000000 0.600473
 18   4.172846 -0.251366 -1.312744 -0.005361 -0.000073 0.008928
 19   1.215374 0.000002 0.000000 0.000000 0.000000 0.506106
 20   1.215371 -0.000002 0.000001 0.000000 0.000000 0.506106
 21   4.220534 -0.244854 -0.431465 -0.004372 0.025906 -0.069865
 22   1.350417 0.000000 0.000001 0.000000 0.000000 0.532308
 23   1.350410 -0.000001 -0.000001 0.000000 0.000000 0.532308
 24   -1.887021 0.858761 -2.731760 -1.068947 1.168974 1.681692
 25   4.640942 0.000000 0.000001 -1.143257 -0.594231 0.894699
 26   10.828047 0.000000 0.000001 0.000000 0.000000 -1.205856
 27   9.393339 0.000000 0.000000 1.189621 0.062952 -0.611427
 28   1.442245 0.107455 1.746178 -2.047067 -0.542719 0.863657
 29   1.063450 -0.000001 0.000000 0.000000 0.000000 -0.054011
 30   1.376307 0.000000 0.000000 0.000000 0.000000 0.600477
 31   4.172847 -0.251365 1.312745 -0.014726 -0.094940 0.218785
 32   1.215373 -0.000001 0.000000 0.000000 0.000000 0.715581
 33   1.215372 0.000000 0.000000 0.000000 0.000000 0.715581
 34   4.220534 -0.244853 0.431466 -0.001333 -0.026242 0.148339
 35   1.350416 0.000000 -0.000001 0.000000 0.000000 0.863937
 36   1.350410 0.000000 0.000001 0.000000 0.000000 0.863925
 37   2.110540 -0.000001 0.000000 0.002623 -0.011173 -0.162699
 38   0.891923 2.373051 -0.014527 -3.141592 -0.000001 1.413797
 39   7.228122 5.709445 3.726568 3.140796 -1.570796 0.000000
 40   2.450426 5.076128 0.001325 3.140791 -1.570796 0.000000
 41   6.312404 -4.528058 0.001311 3.209986 -1.570796 0.000000
 42   2.233309 1.152535 -7.309138 -1.298614 -1.649753 -0.438204
 43   4.262825 -0.232720 -1.392178 0.016840 0.076668 0.253759
time 15
  0   1.708652 0.763598 38.772617 0.000000 0.000000 -1.701715
  1   0.730818 -0.058596 0.000000 -1.570795 -1.570451 0.000000
  2   -0.000007 0.000008 4.427393 -0.175474 -3.059555 -0.006948
  3   18.465939 0.000000 0.000000 0.000000 0.000000 -0.296880
  4   14.875443 0.000000 -0.000001 -0.087456 -0.073148 0.258318
  5   0.000006 -0.000004 -4.427393 0.125829 2.980564 -0.011287
  6   18.465939 0.000000 0.000000 0.000000 0.000000 -0.205498
  7   14.875442 0.000000 0.000000 -0.015857 0.158330 0.173750
  8   2.255207 -0.007574 0.000003 0.121806 -0.008918 -0.070574
  9   9.514219 -0.009357 0.000000 -0.008695 0.002505 -0.052281
 10   11.751820 -0.001633 0.000000 0.000024 0.043599 0.439975
 11   -2.117496 0.858748 2.563789 0.666392 -1.215188 2.056413
 12   4.640941 0.000000 -0.000001 1.126327 0.721798 1.131073
 13   10.828049 0.000000 0.000000 0.000000 0.000000 -1.235729
 14   9.393337 -0.000001 0.000000 -1.421576 0.028562 -0.445548
 15   1.442245 0.107454 -1.746177 1.710740 0.781590 0.365230
 16   1.063452 0.000000 0.000001 0.000000 0.000000 0.199056
 17   1.376307 -0.000001 0.000001 0.000000 0.000000 0.600473
 18   4.172846 -0.251366 -1.312744 -0.005361 -0.000073 0.008928
 19   1.215374 0.000002 0.000000 0.000000 0.000000 0.506106
 20   1.215371 -0.000002 0.000001 0.000000 0.000000 0.506106
 21   4.220534 -0.244854 -0.431465 -0.004372 0.025906 -0.069865
 22   1.350417 0.000000 0.000001 0.000000 0.000000 0.532308
 23   1.350410 -0.000001 -0.000001 0.000000 0.000000 0.532308
 24   -1.887021 0.858761 -2.731760 -1.068947 1.168974 1.681692
 25   4.640942 0.000000 0.000001 -1.143154 -0.594370 0.894419
 26   10.828047 0.000000 0.000001 0.000000 0.000000 -1.205798
 27   9.393339 0.000000 0.000000 1.189570 0.062984 -0.611573
 28   1.442245 0.107455 1.746178 -2.047067 -0.542719 0.863657
 29   1.063450 -0.000001 0.000000 0.000000 0.000000 -0.054011
 30   1.376307 0.000000 0.000000 0.000000 0.000000 0.600477
 31   4.172847 -0.251365 1.312745 -0.014726 -0.094940 0.218785
 32   1.215373 -0.000001 0.000000 0.000000 0.000000 0.715581
 33   1.215372 0.000000 0.000000 0.000000 0.000000 0.715581
 34   4.220534 -0.244853 0.431466 -0.001333 -0.026242 0.148339
 35   1.350416 0.000000 -0.000001 0.000000 0.000000 0.863937
 36   1.350410 0.000000 0.000001 0.000000 0.000000 0.863925
 37   2.110540 -0.000001 0.000000 0.002623 -0.011173 -0.162398
 38   0.891923 2.373051 -0.014527 -3.141592 -0.000001 1.413797
 39   7.228122 5.709445 3.726568 3.140796 -1.570796 0.000000
 40   2.450426 5.076128 0.001325 3.140791 -1.570796 0.000000
 41   6.312404 -4.528058 0.001311 3.210599 -1.570796 0.000000
 42   2.233309 1.152535 -7.309138 -1.298422 -1.649753 -0.438204
 43   4.262825 -0.232720 -1.392178 0.016840 0.076668 0.253759
time 16
  0   1.708652 0.763598 38.772617 0.000000 0.000000 -1.701715
  1   0.726912 -0.058596 0.000000 -1.570795 -1.570451 0.000000
  2   -0.000007 0.000008 4.427393 -0.175474 -3.059462 -0.007247
  3   18.465939 0.000000 0.000000 0.000000 0.000000 -0.297100
  4   14.875443 0.000000 -0.000001 -0.087456 -0.073148 0.258278
  5   0.000006 -0.000004 -4.427393 0.125733 2.980564 -0.011662
  6   18.465939 0.000000 0.000000 0.000000 0.000000 -0.205826
  7   14.875442 0.000000 0.000000 -0.015893 0.158273 0.173712
  8   2.255207 -0.007574 0.000003 0.121806 -0.008989 -0.069978
  9   9.514219 -0.009357 0.000000 -0.008695 0.002517 -0.052281
 10   11.751820 -0.001633 0.000000 0.000024 0.043599 0.439975
 11   -2.117496 0.858748 2.563789 0.666392 -1.215188 2.056413
 12   4.640941 0.000000 -0.000001 1.126474 0.721523 1.131365
 13   10.828049 0.000000 0.000000 0.000000 0.000000 -1.236034
 14   9.393337 -0.000001 0.000000 -1.421576 0.028562 -0.445548
 15   1.442245 0.107454 -1.746177 1.710740 0.781590 0.365230
 16   1.063452 0.000000 0.000001 0.000000 0.000000 0.199056
 17   1.376307 -0.000001 0.000001 0.000000 0.000000 0.600473
 18   4.172846 -0.251366 -1.312744 -0.005361 -0.000073 0.008928
 19   1.215374 0.000002 0.000000 0.000000 0.000000 0.506106
 20   1.215371 -0.000002 0.000001 0.000000 0.000000 0.506106
 21   4.220534 -0.244854 -0.431465 -0.004372 0.025906 -0.069865
 22   1.350417 0.000000 0.000001 0.000000 0.000000 0.532308
 23   1.350410 -0.000001 -0.000001 0.000000 0.000000 0.532308
 24   -1.887021 0.858761 -2.731760 -1.068947 1.168974 1.681692
 25   4.640942 0.000000 0.000001 -1.143257 -0.594231 0.894699
 26   10.828047 0.000000 0.000001 0.000000 0.000000 -1.205856
 27   9.393339 0.000000 0.000000 1.189621 0.062952 -0.611427
 28   1.442245 0.107455 1.746178 -2.047067 -0.542719 0.863657
 29   1.063450 -0.000001 0.000000 0.000000 0.000000 -0.054011
 30   1.376307 0.000000 0.000000 0.000000 0.000000 0.600477
 31   4.172847 -0.251365 1.312745 -0.014726 -0.094940 0.218785
 32   1.215373 -0.000001 0.000000 0.000000 0.000000 0.715581
 33   1.215372 0.000000 0.000000 0.000000 0.000000 0.715581
 34   4.220534 -0.244853 0.431466 -0.001333 -0.026242 0.148339
 35   1.350416 0.000000 -0.000001 0.000000 0.000000 0.863937
 36   1.350410 0.000000 0.000001 0.000000 0.000000 0.863925
 37   2.110540 -0.000001 0.000000 0.002623 -0.011173 -0.162699
 38   0.891923 2.373051 -0.014527 -3.141592 -0.000001 1.413797
 39   7.228122 5.709445 3.726568 3.140796 -1.570796 0.000000
 40   2.450426 5.076128 0.001325 3.140791 -1.570796 0.000000
 41   6.312404 -4.528058 0.001311 3.209986 -1.570796 0.000000
 42   2.233309 1.152535 -7.309138 -1.298614 -1.649753 -0.438204
 43   4.262825 -0.232720 -1.392178 0.016840 0.076668 0.253759
time 17
  0   1.708652 0.763598 38.772617 0.000000 0.000000 -1.701715
  1   0.707380 -0.058596 0.000000 -1.570795 -1.570451 0.000000
  2   -0.000007 0.000008 4.427393 -0.175378 -3.059369 -0.008145
  3   18.465939 0.000000 0.000000 0.000000 0.000000 -0.297831
  4   14.875443 0.000000 -0.000001 -0.087456 -0.073105 0.258120
  5   0.000006 -0.000004 -4.427393 0.125638 2.980564 -0.012597
  6   18.465939 0.000000 0.000000 0.000000 0.000000 -0.206679
  7   14.875442 0.000000 0.000000 -0.015893 0.158140 0.173674
  8   2.255207 -0.007574 0.000003 0.121806 -0.009193 -0.068291
  9   9.514219 -0.009357 0.000000 -0.008695 0.002517 -0.052281
 10   11.751820 -0.001633 0.000000 0.000024 0.043599 0.439975
 11   -2.117496 0.858748 2.563789 0.666392 -1.215188 2.056413
 12   4.640941 0.000000 -0.000001 1.126916 0.720834 1.132243
 13   10.828049 0.000000 0.000000 0.000000 0.000000 -1.236827
 14   9.393337 -0.000001 0.000000 -1.421576 0.028562 -0.445596
 15   1.442245 0.107454 -1.746177 1.710740 0.781590 0.365230
 16   1.063452 0.000000 0.000001 0.000000 0.000000 0.199056
 17   1.376307 -0.000001 0.000001 0.000000 0.000000 0.600473
 18   4.172846 -0.251366 -1.312744 -0.005361 -0.000073 0.008928
 19   1.215374 0.000002 0.000000 0.000000 0.000000 0.506106
 20   1.215371 -0.000002 0.000001 0.000000 0.000000 0.506106
 21   4.220534 -0.244854 -0.431465 -0.004372 0.025906 -0.069865
 22   1.350417 0.000000 0.000001 0.000000 0.000000 0.532308
 23   1.350410 -0.000001 -0.000001 0.000000 0.000000 0.532308
 24   -1.887021 0.858761 -2.731760 -1.068947 1.168974 1.681692
 25   4.640942 0.000000 0.000001 -1.143463 -0.593952 0.895539
 26   10.828047 0.000000 0.000001 0.000000 0.000000 -1.205972
 27   9.393339 0.000000 0.000000 1.189872 0.062887 -0.611136
 28   1.442245 0.107455 1.746178 -2.047067 -0.542719 0.863657
 29   1.063450 -0.000001 0.000000 0.000000 0.000000 -0.054011
 30   1.376307 0.000000 0.000000 0.000000 0.000000 0.600477
 31   4.172847 -0.251365 1.312745 -0.014726 -0.094940 0.218785
 32   1.215373 -0.000001 0.000000 0.000000 0.000000 0.715581
 33   1.215372 0.000000 0.000000 0.000000 0.000000 0.715581
 34   4.220534 -0.244853 0.431466 -0.001333 -0.026242 0.148339
 35   1.350416 0.000000 -0.000001 0.000000 0.000000 0.863937
 36   1.350410 0.000000 0.000001 0.000000 0.000000 0.863925
 37   2.110540 -0.000001 0.000000 0.002671 -0.011145 -0.163559
 38   0.891923 2.373051 -0.014527 -3.141592 -0.000001 1.413797
 39   7.228122 5.709445 3.726568 3.140796 -1.570796 0.000000
 40   2.450426 5.076128 0.001325 3.140791 -1.570796 0.000000
 41   6.312404 -4.528058 0.001311 3.208251 -1.570796 0.000000
 42   2.233309 1.152535 -7.309138 -1.299093 -1.649753 -0.438108
 43   4.262825 -0.232720 -1.392178 0.016840 0.076668 0.253759
time 18
  0   1.708652 0.763598 38.772617 0.000000 0.000000 -1.701715
  1   0.680035 -0.062502 0.000000 -1.570795 -1.570451 0.000000
  2   -0.000007 0.000008 4.427393 -0.175283 -3.059183 -0.009541
  3   18.465939 0.000000 0.000000 0.000000 0.000000 -0.299074
  4   14.875443 0.000000 -0.000001 -0.087456 -0.073063 0.257923
  5   0.000006 -0.000004 -4.427393 0.125446 2.980657 -0.014095
  6   18.465939 0.000000 0.000000 0.000000 0.000000 -0.207992
  7   14.875442 0.000000 0.000000 -0.015893 0.157931 0.173562
  8   2.255207 -0.007574 0.000003 0.121848 -0.009529 -0.065578
  9   9.514219 -0.009357 0.000000 -0.008682 0.002529 -0.052281
 10   11.751820 -0.001633 0.000000 0.000024 0.043599 0.439975
 11   -2.117496 0.858748 2.563789 0.666392 -1.215188 2.056413
 12   4.640941 0.000000 -0.000001 1.127653 0.719663 1.133590
 13   10.828049 0.000000 0.000000 0.000000 0.000000 -1.238108
 14   9.393337 -0.000001 0.000000 -1.421576 0.028562 -0.445645
 15   1.442245 0.107454 -1.746177 1.710740 0.781590 0.365230
 16   1.063452 0.000000 0.000001 0.000000 0.000000 0.199056
 17   1.376307 -0.000001 0.000001 0.000000 0.000000 0.600473
 18   4.172846 -0.251366 -1.312744 -0.005361 -0.000073 0.008928
 19   1.215374 0.000002 0.000000 0.000000 0.000000 0.506106
 20   1.215371 -0.000002 0.000001 0.000000 0.000000 0.506106
 21   4.220534 -0.244854 -0.431465 -0.004372 0.025906 -0.069865
 22   1.350417 0.000000 0.000001 0.000000 0.000000 0.532308
 23   1.350410 -0.000001 -0.000001 0.000000 0.000000 0.532308
 24   -1.887021 0.858761 -2.731760 -1.068947 1.168974 1.681692
 25   4.640942 0.000000 0.000001 -1.143874 -0.593464 0.896939
 26   10.828047 0.000000 0.000001 0.000000 0.000000 -1.206204
 27   9.393339 0.000000 0.000000 1.190274 0.062756 -0.610651
 28   1.442245 0.107455 1.746178 -2.047067 -0.542719 0.863657
 29   1.063450 -0.000001 0.000000 0.000000 0.000000 -0.054011
 30   1.376307 0.000000 0.000000 0.000000 0.000000 0.600477
 31   4.172847 -0.251365 1.312745 -0.014726 -0.094940 0.218785
 32   1.215373 -0.000001 0.000000 0.000000 0.000000 0.715581
 33   1.215372 0.000000 0.000000 0.000000 0.000000 0.715581
 34   4.220534 -0.244853 0.431466 -0.001333 -0.026242 0.148339
 35   1.350416 0.000000 -0.000001 0.000000 0.000000 0.863937
 36   1.350410 0.000000 0.000001 0.000000 0.000000 0.863925
 37   2.110540 -0.000001 0.000000 0.002766 -0.011089 -0.164935
 38   0.891923 2.373051 -0.014527 -3.141592 -0.000001 1.413797
 39   7.228122 5.709445 3.726568 3.140796 -1.570796 0.000000
 40   2.450426 5.076128 0.001325 3.140791 -1.570796 0.000000
 41   6.312404 -4.528058 0.001311 3.205547 -1.570796 0.000000
 42   2.233309 1.152535 -7.309138 -1.299956 -1.649724 -0.437917
 43   4.262825 -0.232720 -1.392178 0.016840 0.076668 0.253759
time 19
  0   1.708652 0.763598 38.772617 0.000000 0.000000 -1.701715
  1   0.640972 -0.066408 0.000000 -1.570795 -1.570451 0.000000
  2   -0.000007 0.000008 4.427393 -0.175187 -3.058904 -0.011386
  3   18.465939 0.000000 0.000000 0.000000 0.000000 -0.300609
  4   14.875443 0.000000 -0.000001 -0.087456 -0.072999 0.257607
  5   0.000006 -0.000004 -4.427393 0.125159 2.980657 -0.016060
  6   18.465939 0.000000 0.000000 0.000000 0.000000 -0.209830
  7   14.875442 0.000000 0.000000 -0.015928 0.157646 0.173449
  8   2.255207 -0.007574 0.000003 0.121869 -0.009960 -0.062037
  9   9.514219 -0.009357 0.000000 -0.008682 0.002541 -0.052281
 10   11.751820 -0.001633 0.000000 0.000024 0.043599 0.439975
 11   -2.117496 0.858748 2.563789 0.666392 -1.215188 2.056413
 12   4.640941 0.000000 -0.000001 1.128636 0.718216 1.135346
 13   10.828049 0.000000 0.000000 0.000000 0.000000 -1.239817
 14   9.393337 -0.000001 0.000000 -1.421514 0.028562 -0.445743
 15   1.442245 0.107454 -1.746177 1.710740 0.781590 0.365230
 16   1.063452 0.000000 0.000001 0.000000 0.000000 0.199056
 17   1.376307 -0.000001 0.000001 0.000000 0.000000 0.600473
 18   4.172846 -0.251366 -1.312744 -0.005361 -0.000073 0.008928
 19   1.215374 0.000002 0.000000 0.000000 0.000000 0.506106
 20   1.215371 -0.000002 0.000001 0.000000 0.000000 0.506106
 21   4.220534 -0.244854 -0.431465 -0.004372 0.025906 -0.069865
 22   1.350417 0.000000 0.000001 0.000000 0.000000 0.532308
 23   1.350410 -0.000001 -0.000001 0.000000 0.000000 0.532308
 24   -1.887021 0.858761 -2.731760 -1.068947 1.168974 1.681692
 25   4.640942 0.000000 0.000001 -1.144337 -0.592836 0.898759
 26   10.828047 0.000000 0.000001 0.000000 0.000000 -1.206495
 27   9.393339 0.000000 0.000000 1.190827 0.062594 -0.610021
 28   1.442245 0.107455 1.746178 -2.047067 -0.542719 0.863657
 29   1.063450 -0.000001 0.000000 0.000000 0.000000 -0.054011
 30   1.376307 0.000000 0.000000 0.000000 0.000000 0.600477
 31   4.172847 -0.251365 1.312745 -0.014726 -0.094940 0.218785
 32   1.215373 -0.000001 0.000000 0.000000 0.000000 0.715581
 33   1.215372 0.000000 0.000000 0.000000 0.000000 0.715581
 34   4.220534 -0.244853 0.431466 -0.001333 -0.026242 0.148339
 35   1.350416 0.000000 -0.000001 0.000000 0.000000 0.863937
 36   1.350410 0.000000 0.000001 0.000000 0.000000 0.863925
 37   2.110540 -0.000001 0.000000 0.002814 -0.011062 -0.166699
 38   0.891923 2.373051 -0.014527 -3.141592 -0.000001 1.413797
 39   7.228122 5.709445 3.726568 3.140796 -1.570796 0.000000
 40   2.450426 5.076128 0.001325 3.140791 -1.570796 0.000000
 41   6.312404 -4.528058 0.001311 3.201975 -1.570796 0.000000
 42   2.233309 1.152535 -7.309138 -1.301011 -1.649695 -0.437725
 43   4.262825 -0.232720 -1.392178 0.016840 0.076668 0.253759
time 20
  0   1.708652 0.763598 38.772617 0.000000 0.000000 -1.701715
  1   0.594095 -0.074221 0.000000 -1.570795 -1.570451 0.000000
  2   -0.000007 0.000008 4.427393 -0.174996 -3.058625 -0.013581
  3   18.465939 0.000000 0.000000 0.000000 0.000000 -0.302510
  4   14.875443 0.000000 -0.000001 -0.087427 -0.072914 0.257251
  5   0.000006 -0.000004 -4.427393 0.124776 2.980751 -0.018400
  6   18.465939 0.000000 0.000000 0.000000 0.000000 -0.211996
  7   14.875442 0.000000 0.000000 -0.015963 0.157303 0.173299
  8   2.255207 -0.007574 0.000003 0.121890 -0.010488 -0.057736
  9   9.514219 -0.009357 0.000000 -0.008682 0.002553 -0.052281
 10   11.751820 -0.001633 0.000000 0.000024 0.043599 0.439975
 11   -2.117496 0.858748 2.563789 0.666392 -1.215188 2.056413
 12   4.640941 0.000000 -0.000001 1.129765 0.716425 1.137512
 13   10.828049 0.000000 0.000000 0.000000 0.000000 -1.241891
 14   9.393337 -0.000001 0.000000 -1.421514 0.028532 -0.445841
 15   1.442245 0.107454 -1.746177 1.710740 0.781590 0.365230
 16   1.063452 0.000000 0.000001 0.000000 0.000000 0.199056
 17   1.376307 -0.000001 0.000001 0.000000 0.000000 0.600473
 18   4.172846 -0.251366 -1.312744 -0.005361 -0.000073 0.008928
 19   1.215374 0.000002 0.000000 0.000000 0.000000 0.506106
 20   1.215371 -0.000002 0.000001 0.000000 0.000000 0.506106
 21   4.220534 -0.244854 -0.431465 -0.004372 0.025906 -0.069865
 22   1.350417 0.000000 0.000001 0.000000 0.000000 0.532308
 23   1.350410 -0.000001 -0.000001 0.000000 0.000000 0.532308
 24   -1.887021 0.858761 -2.731760 -1.068947 1.168974 1.681692
 25   4.640942 0.000000 0.000001 -1.144955 -0.592139 0.900928
 26   10.828047 0.000000 0.000001 0.000000 0.000000 -1.206843
 27   9.393339 0.000000 0.000000 1.191430 0.062399 -0.609196
 28   1.442245 0.107455 1.746178 -2.047067 -0.542719 0.863657
 29   1.063450 -0.000001 0.000000 0.000000 0.000000 -0.054011
 30   1.376307 0.000000 0.000000 0.000000 0.000000 0.600477
 31   4.172847 -0.251365 1.312745 -0.014726 -0.094940 0.218785
 32   1.215373 -0.000001 0.000000 0.000000 0.000000 0.715581
 33   1.215372 0.000000 0.000000 0.000000 0.000000 0.715581
 34   4.220534 -0.244853 0.431466 -0.001333 -0.026242 0.148339
 35   1.350416 0.000000 -0.000001 0.000000 0.000000 0.863937
 36   1.350410 0.000000 0.000001 0.000000 0.000000 0.863925
 37   2.110540 -0.000001 0.000000 0.002957 -0.010978 -0.168892
 38   0.891923 2.373051 -0.014527 -3.141592 -0.000001 1.413797
 39   7.228122 5.709445 3.726568 3.140796 -1.570796 0.000000
 40   2.450426 5.076128 0.001325 3.140791 -1.570796 0.000000
 41   6.312404 -4.528058 0.001311 3.197638 -1.570796 0.000000
 42   2.233309 1.152535 -7.309138 -1.302353 -1.649666 -0.437534
 43   4.262825 -0.232720 -1.392178 0.016840 0.076668 0.253759
time 21
  0   1.708652 0.763598 38.772617 0.000000 0.000000 -1.701715
  1   0.543313 -0.078127 0.000000 -1.570795 -1.570451 0.000000
  2   -0.000007 0.000008 4.427393 -0.174805 -3.058253 -0.016124
  3   18.465939 0.000000 0.000000 0.000000 0.000000 -0.304630
  4   14.875443 0.000000 -0.000001 -0.087427 -0.072829 0.256856
  5   0.000006 -0.000004 -4.427393 0.124394 2.980751 -0.021114
  6   18.465939 0.000000 0.000000 0.000000 0.000000 -0.214490
  7   14.875442 0.000000 0.000000 -0.015963 0.156904 0.173112
  8   2.255207 -0.007574 0.000003 0.121932 -0.011087 -0.052839
  9   9.514219 -0.009357 0.000000 -0.008682 0.002565 -0.052281
 10   11.751820 -0.001633 0.000000 0.000024 0.043599 0.439975
 11   -2.117496 0.858748 2.563789 0.666392 -1.215188 2.056413
 12   4.640941 0.000000 -0.000001 1.131091 0.714359 1.139912
 13   10.828049 0.000000 0.000000 0.000000 0.000000 -1.244209
 14   9.393337 -0.000001 0.000000 -1.421452 0.028532 -0.445987
 15   1.442245 0.107454 -1.746177 1.710740 0.781590 0.365230
 16   1.063452 0.000000 0.000001 0.000000 0.000000 0.199056
 17   1.376307 -0.000001 0.000001 0.000000 0.000000 0.600473
 18   4.172846 -0.251366 -1.312744 -0.005361 -0.000073 0.008928
 19   1.215374 0.000002 0.000000 0.000000 0.000000 0.506106
 20   1.215371 -0.000002 0.000001 0.000000 0.000000 0.506106
 21   4.220534 -0.244854 -0.431465 -0.004372 0.025906 -0.069865
 22   1.350417 0.000000 0.000001 0.000000 0.000000 0.532308
 23   1.350410 -0.000001 -0.000001 0.000000 0.000000 0.532308
 24   -1.887021 0.858761 -2.731760 -1.068947 1.168974 1.681692
 25   4.640942 0.000000 0.000001 -1.145624 -0.591232 0.903448
 26   10.828047 0.000000 0.000001 0.000000 0.000000 -1.207192
 27   9.393339 0.000000 0.000000 1.192133 0.062171 -0.608324
 28   1.442245 0.107455 1.746178 -2.047067 -0.542719 0.863657
 29   1.063450 -0.000001 0.000000 0.000000 0.000000 -0.054011
 30   1.376307 0.000000 0.000000 0.000000 0.000000 0.600477
 31   4.172847 -0.251365 1.312745 -0.014726 -0.094940 0.218785
 32   1.215373 -0.000001 0.000000 0.000000 0.000000 0.715581
 33   1.215372 0.000000 0.000000 0.000000 0.000000 0.715581
 34   4.220534 -0.244853 0.431466 -0.001333 -0.026242 0.148339
 35   1.350416 0.000000 -0.000001 0.000000 0.000000 0.863937
 36   1.350410 0.000000 0.000001 0.000000 0.000000 0.863925
 37   2.110540 -0.000001 0.000000 0.003052 -0.010922 -0.171343
 38   0.891923 2.373051 -0.014527 -3.141592 -0.000001 1.413797
 39   7.228122 5.709445 3.726568 3.140796 -1.570796 0.000000
 40   2.450426 5.076128 0.001325 3.140791 -1.570796 0.000000
 41   6.312404 -4.528058 0.001311 3.192688 -1.570796 0.000000
 42   2.233309 1.152535 -7.309138 -1.303887 -1.649637 -0.437246
 43   4.262825 -0.232720 -1.392178 0.016840 0.076668 0.253759
time 22
  0   1.708652 0.763598 38.772617 0.000000 0.000000 -1.701715
  1   0.484717 -0.085940 0.000000 -1.570795 -1.570451 0.000000
  2   -0.000007 0.000008 4.427393 -0.174614 -3.057881 -0.018967
  3   18.465939 0.000000 0.000000 0.000000 0.000000 -0.307042
  4   14.875443 0.000000 -0.000001 -0.087427 -0.072722 0.256422
  5   0.000006 -0.000004 -4.427393 0.123915 2.980844 -0.024109
  6   18.465939 0.000000 0.000000 0.000000 0.000000 -0.217181
  7   14.875442 0.000000 0.000000 -0.015998 0.156485 0.172924
  8   2.255207 -0.007574 0.000003 0.121974 -0.011746 -0.047446
  9   9.514219 -0.009357 0.000000 -0.008682 0.002589 -0.052281
 10   11.751820 -0.001633 0.000000 0.000024 0.043599 0.439975
 11   -2.117496 0.858748 2.563789 0.666392 -1.215188 2.056413
 12   4.640941 0.000000 -0.000001 1.132516 0.712086 1.142605
 13   10.828049 0.000000 0.000000 0.000000 0.000000 -1.246772
 14   9.393337 -0.000001 0.000000 -1.421389 0.028532 -0.446085
 15   1.442245 0.107454 -1.746177 1.710740 0.781590 0.365230
 16   1.063452 0.000000 0.000001 0.000000 0.000000 0.199056
 17   1.376307 -0.000001 0.000001 0.000000 0.000000 0.600473
 18   4.172846 -0.251366 -1.312744 -0.005361 -0.000073 0.008928
 19   1.215374 0.000002 0.000000 0.000000 0.000000 0.506106
 20   1.215371 -0.000002 0.000001 0.000000 0.000000 0.506106
 21   4.220534 -0.244854 -0.431465 -0.004372 0.025906 -0.069865
 22   1.350417 0.000000 0.000001 0.000000 0.000000 0.532308
 23   1.350410 -0.000001 -0.000001 0.000000 0.000000 0.532308
 24   -1.887021 0.858761 -2.731760 -1.068947 1.168974 1.681692
 25   4.640942 0.000000 0.000001 -1.146395 -0.590326 0.906248
 26   10.828047 0.000000 0.000001 0.000000 0.000000 -1.207656
 27   9.393339 0.000000 0.000000 1.192938 0.061911 -0.607354
 28   1.442245 0.107455 1.746178 -2.047067 -0.542719 0.863657
 29   1.063450 -0.000001 0.000000 0.000000 0.000000 -0.054011
 30   1.376307 0.000000 0.000000 0.000000 0.000000 0.600477
 31   4.172847 -0.251365 1.312745 -0.014726 -0.094940 0.218785
 32   1.215373 -0.000001 0.000000 0.000000 0.000000 0.715581
 33   1.215372 0.000000 0.000000 0.000000 0.000000 0.715581
 34   4.220534 -0.244853 0.431466 -0.001333 -0.026242 0.148339
 35   1.350416 0.000000 -0.000001 0.000000 0.000000 0.863937
 36   1.350410 0.000000 0.000001 0.000000 0.000000 0.863925
 37   2.110540 -0.000001 0.000000 0.003195 -0.010838 -0.174052
 38   0.891923 2.373051 -0.014527 -3.141592 -0.000001 1.413797
 39   7.228122 5.709445 3.726568 3.140796 -1.570796 0.000000
 40   2.450426 5.076128 0.001325 3.140791 -1.570796 0.000000
 41   6.312404 -4.528058 0.001311 3.187279 -1.570796 0.000000
 42   2.233309 1.152535 -7.309138 -1.305517 -1.649608 -0.436959
 43   4.262825 -0.232720 -1.392178 0.016840 0.076668 0.253759
time 23
  0   1.708652 0.763598 38.772617 0.000000 0.000000 -1.701715
  1   0.422215 -0.093753 0.000000 -1.570795 -1.570451 0.000000
  2   -0.000007 0.000008 4.427393 -0.174328 -3.057415 -0.021959
  3   18.465939 0.000000 0.000000 0.000000 0.000000 -0.309528
  4   14.875443 0.000000 -0.000001 -0.087399 -0.072637 0.255948
  5   0.000006 -0.000004 -4.427393 0.123533 2.980937 -0.027290
  6   18.465939 0.000000 0.000000 0.000000 0.000000 -0.220135
  7   14.875442 0.000000 0.000000 -0.016033 0.156029 0.172737
  8   2.255207 -0.007574 0.000003 0.121995 -0.012453 -0.041688
  9   9.514219 -0.009357 0.000000 -0.008682 0.002601 -0.052281
 10   11.751820 -0.001633 0.000000 0.000024 0.043599 0.439975
 11   -2.117496 0.858748 2.563789 0.666392 -1.215188 2.056413
 12   4.640941 0.000000 -0.000001 1.134039 0.709675 1.145473
 13   10.828049 0.000000 0.000000 0.000000 0.000000 -1.249578
 14   9.393337 -0.000001 0.000000 -1.421389 0.028502 -0.446231
 15   1.442245 0.107454 -1.746177 1.710740 0.781590 0.365230
 16   1.063452 0.000000 0.000001 0.000000 0.000000 0.199056
 17   1.376307 -0.000001 0.000001 0.000000 0.000000 0.600473
 18   4.172846 -0.251366 -1.312744 -0.005361 -0.000073 0.008928
 19   1.215374 0.000002 0.000000 0.000000 0.000000 0.506106
 20   1.215371 -0.000002 0.000001 0.000000 0.000000 0.506106
 21   4.220534 -0.244854 -0.431465 -0.004372 0.025906 -0.069865
 22   1.350417 0.000000 0.000001 0.000000 0.000000 0.532308
 23   1.350410 -0.000001 -0.000001 0.000000 0.000000 0.532308
 24   -1.887021 0.858761 -2.731760 -1.068947 1.168974 1.681692
 25   4.640942 0.000000 0.000001 -1.147219 -0.589349 0.909188
 26   10.828047 0.000000 0.000001 0.000000 0.000000 -1.208063
 27   9.393339 0.000000 0.000000 1.193792 0.061650 -0.606287
 28   1.442245 0.107455 1.746178 -2.047067 -0.542719 0.863657
 29   1.063450 -0.000001 0.000000 0.000000 0.000000 -0.054011
 30   1.376307 0.000000 0.000000 0.000000 0.000000 0.600477
 31   4.172847 -0.251365 1.312745 -0.014726 -0.094940 0.218785
 32   1.215373 -0.000001 0.000000 0.000000 0.000000 0.715581
 33   1.215372 0.000000 0.000000 0.000000 0.000000 0.715581
 34   4.220534 -0.244853 0.431466 -0.001333 -0.026242 0.148339
 35   1.350416 0.000000 -0.000001 0.000000 0.000000 0.863937
 36   1.350410 0.000000 0.000001 0.000000 0.000000 0.863925
 37   2.110540 -0.000001 0.000000 0.003338 -0.010754 -0.176977
 38   0.891923 2.373051 -0.014527 -3.141592 -0.000001 1.413797
 39   7.228122 5.709445 3.726568 3.140796 -1.570796 0.000000
 40   2.450426 5.076128 0.001325 3.140791 -1.570796 0.000000
 41   6.312404 -4.528058 0.001311 3.181461 -1.570796 0.000000
 42   2.233309 1.152535 -7.309138 -1.307242 -1.649579 -0.436576
 43   4.262825 -0.232720 -1.392178 0.016840 0.076668 0.253759
time 24
  0   1.708652 0.763598 38.772617 0.000000 0.000000 -1.701715
  1   0.355807 -0.101566 0.000000 -1.570795 -1.570451 0.000000
  2   -0.000007 0.000008 4.427393 -0.174137 -3.056950 -0.025051
  3   18.465939 0.000000 0.000000 0.000000 0.000000 -0.312160
  4   14.875443 0.000000 -0.000001 -0.087399 -0.072509 0.255434
  5   0.000006 -0.000004 -4.427393 0.123054 2.981030 -0.030660
  6   18.465939 0.000000 0.000000 0.000000 0.000000 -0.223154
  7   14.875442 0.000000 0.000000 -0.016068 0.155535 0.172511
  8   2.255207 -0.007574 0.000003 0.122016 -0.013196 -0.035667
  9   9.514219 -0.009357 0.000000 -0.008682 0.002625 -0.052281
 10   11.751820 -0.001633 0.000000 0.000024 0.043599 0.439975
 11   -2.117496 0.858748 2.563789 0.666392 -1.215188 2.056413
 12   4.640941 0.000000 -0.000001 1.135660 0.707127 1.148458
 13   10.828049 0.000000 0.000000 0.000000 0.000000 -1.252446
 14   9.393337 -0.000001 0.000000 -1.421327 0.028502 -0.446427
 15   1.442245 0.107454 -1.746177 1.710740 0.781590 0.365230
 16   1.063452 0.000000 0.000001 0.000000 0.000000 0.199056
 17   1.376307 -0.000001 0.000001 0.000000 0.000000 0.600473
 18   4.172846 -0.251366 -1.312744 -0.005361 -0.000073 0.008928
 19   1.215374 0.000002 0.000000 0.000000 0.000000 0.506106
 20   1.215371 -0.000002 0.000001 0.000000 0.000000 0.506106
 21   4.220534 -0.244854 -0.431465 -0.004372 0.025906 -0.069865
 22   1.350417 0.000000 0.000001 0.000000 0.000000 0.532308
 23   1.350410 -0.000001 -0.000001 0.000000 0.000000 0.532308
 24   -1.887021 0.858761 -2.731760 -1.068947 1.168974 1.681692
 25   4.640942 0.000000 0.000001 -1.148042 -0.588373 0.912337
 26   10.828047 0.000000 0.000001 0.000000 0.000000 -1.208586
 27   9.393339 0.000000 0.000000 1.194646 0.061390 -0.605171
 28   1.442245 0.107455 1.746178 -2.047067 -0.542719 0.863657
 29   1.063450 -0.000001 0.000000 0.000000 0.000000 -0.054011
 30   1.376307 0.000000 0.000000 0.000000 0.000000 0.600477
 31   4.172847 -0.251365 1.312745 -0.014726 -0.094940 0.218785
 32   1.215373 -0.000001 0.000000 0.000000 0.000000 0.715581
 33   1.215372 0.000000 0.000000 0.000000 0.000000 0.715581
 34   4.220534 -0.244853 0.431466 -0.001333 -0.026242 0.148339
 35   1.350416 0.000000 -0.000001 0.000000 0.000000 0.863937
 36   1.350410 0.000000 0.000001 0.000000 0.000000 0.863925
 37   2.110540 -0.000001 0.000000 0.003481 -0.010670 -0.179987
 38   0.891923 2.373051 -0.014527 -3.141592 -0.000001 1.413797
 39   7.228122 5.709445 3.726568 3.140796 -1.570796 0.000000
 40   2.450426 5.076128 0.001325 3.140791 -1.570796 0.000000
 41   6.312404 -4.528058 0.001311 3.175389 -1.570796 0.000000
 42   2.233309 1.152535 -7.309138 -1.309160 -1.649550 -0.436289
 43   4.262825 -0.232720 -1.392178 0.016840 0.076668 0.253759
time 25
  0   1.708652 0.763598 38.772617 0.000000 0.000000 -1.701715
  1   0.289399 -0.109378 0.000000 -1.570795 -1.570451 0.000000
  2   -0.000007 0.000008 4.427393 -0.173851 -3.056578 -0.028243
  3   18.465939 0.000000 0.000000 0.000000 0.000000 -0.314865
  4   14.875443 0.000000 -0.000001 -0.087399 -0.072403 0.254920
  5   0.000006 -0.000004 -4.427393 0.122480 2.981030 -0.034029
  6   18.465939 0.000000 0.000000 0.000000 0.000000 -0.226305
  7   14.875442 0.000000 0.000000 -0.016103 0.155059 0.172286
  8   2.255207 -0.007574 0.000003 0.122058 -0.013939 -0.029545
  9   9.514219 -0.009357 0.000000 -0.008682 0.002649 -0.052281
 10   11.751820 -0.001633 0.000000 0.000024 0.043599 0.439975
 11   -2.117496 0.858748 2.563789 0.666392 -1.215188 2.056413
 12   4.640941 0.000000 -0.000001 1.137281 0.704578 1.151502
 13   10.828049 0.000000 0.000000 0.000000 0.000000 -1.255375
 14   9.393337 -0.000001 0.000000 -1.421265 0.028502 -0.446573
 15   1.442245 0.107454 -1.746177 1.710740 0.781590 0.365230
 16   1.063452 0.000000 0.000001 0.000000 0.000000 0.199056
 17   1.376307 -0.000001 0.000001 0.000000 0.000000 0.600473
 18   4.172846 -0.251366 -1.312744 -0.005361 -0.000073 0.008928
 19   1.215374 0.000002 0.000000 0.000000 0.000000 0.506106
 20   1.215371 -0.000002 0.000001 0.000000 0.000000 0.506106
 21   4.220534 -0.244854 -0.431465 -0.004372 0.025906 -0.069865
 22   1.350417 0.000000 0.000001 0.000000 0.000000 0.532308
 23   1.350410 -0.000001 -0.000001 0.000000 0.000000 0.532308
 24   -1.887021 0.858761 -2.731760 -1.068947 1.168974 1.681692
 25   4.640942 0.000000 0.000001 -1.148916 -0.587327 0.915487
 26   10.828047 0.000000 0.000001 0.000000 0.000000 -1.209050
 27   9.393339 0.000000 0.000000 1.195551 0.061097 -0.604056
 28   1.442245 0.107455 1.746178 -2.047067 -0.542719 0.863657
 29   1.063450 -0.000001 0.000000 0.000000 0.000000 -0.054011
 30   1.376307 0.000000 0.000000 0.000000 0.000000 0.600477
 31   4.172847 -0.251365 1.312745 -0.014726 -0.094940 0.218785
 32   1.215373 -0.000001 0.000000 0.000000 0.000000 0.715581
 33   1.215372 0.000000 0.000000 0.000000 0.000000 0.715581
 34   4.220534 -0.244853 0.431466 -0.001333 -0.026242 0.148339
 35   1.350416 0.000000 -0.000001 0.000000 0.000000 0.863937
 36   1.350410 0.000000 0.000001 0.000000 0.000000 0.863925
 37   2.110540 -0.000001 0.000000 0.003624 -0.010587 -0.183083
 38   0.891923 2.373051 -0.014527 -3.141592 -0.000001 1.413797
 39   7.228122 5.709445 3.726568 3.140796 -1.570796 0.000000
 40   2.450426 5.076128 0.001325 3.140791 -1.570796 0.000000
 41   6.312404 -4.528058 0.001311 3.169214 -1.570796 0.000000
 42   2.233309 1.152535 -7.309138 -1.310982 -1.649491 -0.435906
 43   4.262825 -0.232720 -1.392178 0.016840 0.076668 0.253759
time 26
  0   1.708652 0.763598 38.772617 0.000000 0.000000 -1.701715
  1   0.222990 -0.117191 0.000000 -1.570795 -1.570451 0.000000
  2   -0.000007 0.000008 4.427393 -0.173564 -3.056113 -0.031435
  3   18.465939 0.000000 0.000000 0.000000 0.000000 -0.317570
  4   14.875443 0.000000 -0.000001 -0.087370 -0.072297 0.254407
  5   0.000006 -0.000004 -4.427393 0.122002 2.981123 -0.037491
  6   18.465939 0.000000 0.000000 0.000000 0.000000 -0.229390
  7   14.875442 0.000000 0.000000 -0.016103 0.154565 0.172061
  8   2.255207 -0.007574 0.000003 0.122058 -0.014694 -0.023391
  9   9.514219 -0.009357 0.000000 -0.008682 0.002661 -0.052281
 10   11.751820 -0.001633 0.000000 0.000024 0.043599 0.439975
 11   -2.117496 0.858748 2.563789 0.666392 -1.215188 2.056413
 12   4.640941 0.000000 -0.000001 1.138902 0.702030 1.154546
 13   10.828049 0.000000 0.000000 0.000000 0.000000 -1.258303
 14   9.393337 -0.000001 0.000000 -1.421203 0.028472 -0.446720
 15   1.442245 0.107454 -1.746177 1.710740 0.781590 0.365230
 16   1.063452 0.000000 0.000001 0.000000 0.000000 0.199056
 17   1.376307 -0.000001 0.000001 0.000000 0.000000 0.600473
 18   4.172846 -0.251366 -1.312744 -0.005361 -0.000073 0.008928
 19   1.215374 0.000002 0.000000 0.000000 0.000000 0.506106
 20   1.215371 -0.000002 0.000001 0.000000 0.000000 0.506106
 21   4.220534 -0.244854 -0.431465 -0.004372 0.025906 -0.069865
 22   1.350417 0.000000 0.000001 0.000000 0.000000 0.532308
 23   1.350410 -0.000001 -0.000001 0.000000 0.000000 0.532308
 24   -1.887021 0.858761 -2.731760 -1.068947 1.168974 1.681692
 25   4.640942 0.000000 0.000001 -1.149791 -0.586350 0.918637
 26   10.828047 0.000000 0.000001 0.000000 0.000000 -1.209515
 27   9.393339 0.000000 0.000000 1.196455 0.060804 -0.602941
 28   1.442245 0.107455 1.746178 -2.047067 -0.542719 0.863657
 29   1.063450 -0.000001 0.000000 0.000000 0.000000 -0.054011
 30   1.376307 0.000000 0.000000 0.000000 0.000000 0.600477
 31   4.172847 -0.251365 1.312745 -0.014726 -0.094940 0.218785
 32   1.215373 -0.000001 0.000000 0.000000 0.000000 0.715581
 33   1.215372 0.000000 0.000000 0.000000 0.000000 0.715581
 34   4.220534 -0.244853 0.431466 -0.001333 -0.026242 0.148339
 35   1.350416 0.000000 -0.000001 0.000000 0.000000 0.863937
 36   1.350410 0.000000 0.000001 0.000000 0.000000 0.863925
 37   2.110540 -0.000001 0.000000 0.003768 -0.010503 -0.186180
 38   0.891923 2.373051 -0.014527 -3.141592 -0.000001 1.413797
 39   7.228122 5.709445 3.726568 3.140796 -1.570796 0.000000
 40   2.450426 5.076128 0.001325 3.140791 -1.570796 0.000000
 41   6.312404 -4.528058 0.001311 3.163040 -1.570796 0.000000
 42   2.233309 1.152535 -7.309138 -1.312899 -1.649462 -0.435619
 43   4.262825 -0.232720 -1.392178 0.016840 0.076668 0.253759
time 27
  0   1.708652 0.763598 38.772617 0.000000 0.000000 -1.701715
  1   0.160488 -0.125004 0.000000 -1.570795 -1.570451 0.000000
  2   -0.000007 0.000008 4.427393 -0.173373 -3.055648 -0.034577
  3   18.465939 0.000000 0.000000 0.000000 0.000000 -0.320202
  4   14.875443 0.000000 -0.000001 -0.087370 -0.072190 0.253933
  5   0.000006 -0.000004 -4.427393 0.121523 2.981217 -0.040767
  6   18.465939 0.000000 0.000000 0.000000 0.000000 -0.232474
  7   14.875442 0.000000 0.000000 -0.016138 0.154070 0.171874
  8   2.255207 -0.007574 0.000003 0.122079 -0.015437 -0.017369
  9   9.514219 -0.009357 0.000000 -0.008682 0.002685 -0.052281
 10   11.751820 -0.001633 0.000000 0.000024 0.043599 0.439975
 11   -2.117496 0.858748 2.563789 0.666392 -1.215188 2.056413
 12   4.640941 0.000000 -0.000001 1.140473 0.699481 1.157532
 13   10.828049 0.000000 0.000000 0.000000 0.000000 -1.261171
 14   9.393337 -0.000001 0.000000 -1.421140 0.028472 -0.446866
 15   1.442245 0.107454 -1.746177 1.710740 0.781590 0.365230
 16   1.063452 0.000000 0.000001 0.000000 0.000000 0.199056
 17   1.376307 -0.000001 0.000001 0.000000 0.000000 0.600473
 18   4.172846 -0.251366 -1.312744 -0.005361 -0.000073 0.008928
 19   1.215374 0.000002 0.000000 0.000000 0.000000 0.506106
 20   1.215371 -0.000002 0.000001 0.000000 0.000000 0.506106
 21   4.220534 -0.244854 -0.431465 -0.004372 0.025906 -0.069865
 22   1.350417 0.000000 0.000001 0.000000 0.000000 0.532308
 23   1.350410 -0.000001 -0.000001 0.000000 0.000000 0.532308
 24   -1.887021 0.858761 -2.731760 -1.068947 1.168974 1.681692
 25   4.640942 0.000000 0.000001 -1.150666 -0.585374 0.921786
 26   10.828047 0.000000 0.000001 0.000000 0.000000 -1.209980
 27   9.393339 0.000000 0.000000 1.197310 0.060544 -0.601825
 28   1.442245 0.107455 1.746178 -2.047067 -0.542719 0.863657
 29   1.063450 -0.000001 0.000000 0.000000 0.000000 -0.054011
 30   1.376307 0.000000 0.000000 0.000000 0.000000 0.600477
 31   4.172847 -0.251365 1.312745 -0.014726 -0.094940 0.218785
 32   1.215373 -0.000001 0.000000 0.000000 0.000000 0.715581
 33   1.215372 0.000000 0.000000 0.000000 0.000000 0.715581
 34   4.220534 -0.244853 0.431466 -0.001333 -0.026242 0.148339
 35   1.350416 0.000000 -0.000001 0.000000 0.000000 0.863937
 36   1.350410 0.000000 0.000001 0.000000 0.000000 0.863925
 37   2.110540 -0.000001 0.000000 0.003911 -0.010419 -0.189190
 38   0.891923 2.373051 -0.014527 -3.141592 -0.000001 1.413797
 39   7.228122 5.709445 3.726568 3.140796 -1.570796 0.000000
 40   2.450426 5.076128 0.001325 3.140791 -1.570796 0.000000
 41   6.312404 -4.528058 0.001311 3.156967 -1.570796 0.000000
 42   2.233309 1.152535 -7.309138 -1.314721 -1.649433 -0.435236
 43   4.262825 -0.232720 -1.392178 0.016840 0.076668 0.253759
time 28
  0   1.708652 0.763598 38.772617 0.000000 0.000000 -1.701715
  1   0.097986 -0.132817 0.000000 -1.570795 -1.570451 0.000000
  2   -0.000007 0.000008 4.427393 -0.173087 -3.055276 -0.037570
  3   18.465939 0.000000 0.000000 0.000000 0.000000 -0.322760
  4   14.875443 0.000000 -0.000001 -0.087370 -0.072084 0.253459
  5   0.000006 -0.000004 -4.427393 0.121141 2.981310 -0.043949
  6   18.465939 0.000000 0.000000 0.000000 0.000000 -0.235362
  7   14.875442 0.000000 0.000000 -0.016173 0.153614 0.171649
  8   2.255207 -0.007574 0.000003 0.122100 -0.016144 -0.011612
  9   9.514219 -0.009357 0.000000 -0.008682 0.002709 -0.052281
 10   11.751820 -0.001633 0.000000 0.000024 0.043599 0.439975
 11   -2.117496 0.858748 2.563789 0.666392 -1.215188 2.056413
 12   4.640941 0.000000 -0.000001 1.141947 0.697071 1.160400
 13   10.828049 0.000000 0.000000 0.000000 0.000000 -1.263916
 14   9.393337 -0.000001 0.000000 -1.421140 0.028472 -0.447013
 15   1.442245 0.107454 -1.746177 1.710740 0.781590 0.365230
 16   1.063452 0.000000 0.000001 0.000000 0.000000 0.199056
 17   1.376307 -0.000001 0.000001 0.000000 0.000000 0.600473
 18   4.172846 -0.251366 -1.312744 -0.005361 -0.000073 0.008928
 19   1.215374 0.000002 0.000000 0.000000 0.000000 0.506106
 20   1.215371 -0.000002 0.000001 0.000000 0.000000 0.506106
 21   4.220534 -0.244854 -0.431465 -0.004372 0.025906 -0.069865
 22   1.350417 0.000000 0.000001 0.000000 0.000000 0.532308
 23   1.350410 -0.000001 -0.000001 0.000000 0.000000 0.532308
 24   -1.887021 0.858761 -2.731760 -1.068947 1.168974 1.681692
 25   4.640942 0.000000 0.000001 -1.151489 -0.584398 0.924726
 26   10.828047 0.000000 0.000001 0.000000 0.000000 -1.210444
 27   9.393339 0.000000 0.000000 1.198164 0.060251 -0.600807
 28   1.442245 0.107455 1.746178 -2.047067 -0.542719 0.863657
 29   1.063450 -0.000001 0.000000 0.000000 0.000000 -0.054011
 30   1.376307 0.000000 0.000000 0.000000 0.000000 0.600477
 31   4.172847 -0.251365 1.312745 -0.014726 -0.094940 0.218785
 32   1.215373 -0.000001 0.000000 0.000000 0.000000 0.715581
 33   1.215372 0.000000 0.000000 0.000000 0.000000 0.715581
 34   4.220534 -0.244853 0.431466 -0.001333 -0.026242 0.148339
 35   1.350416 0.000000 -0.000001 0.000000 0.000000 0.863937
 36   1.350410 0.000000 0.000001 0.000000 0.000000 0.863925
 37   2.110540 -0.000001 0.000000 0.004054 -0.010335 -0.192114
 38   0.891923 2.373051 -0.014527 -3.141592 -0.000001 1.413797
 39   7.228122 5.709445 3.726568 3.140796 -1.570796 0.000000
 40   2.450426 5.076128 0.001325 3.140791 -1.570796 0.000000
 41   6.312404 -4.528058 0.001311 3.151150 -1.570796 0.000000
 42   2.233309 1.152535 -7.309138 -1.316542 -1.649404 -0.434949
 43   4.262825 -0.232720 -1.392178 0.016840 0.076668 0.253759
time 29
  0   1.708652 0.763598 38.772617 0.000000 0.000000 -1.701715
  1   0.039391 -0.140629 0.000000 -1.570795 -1.570451 0.000000
  2   -0.000007 0.000008 4.427393 -0.172896 -3.054811 -0.040362
  3   18.465939 0.000000 0.000000 0.000000 0.000000 -0.325173
  4   14.875443 0.000000 -0.000001 -0.087342 -0.071977 0.252985
  5   0.000006 -0.000004 -4.427393 0.120662 2.981403 -0.046944
  6   18.465939 0.000000 0.000000 0.000000 0.000000 -0.238119
  7   14.875442 0.000000 0.000000 -0.016173 0.153195 0.171461
  8   2.255207 -0.007574 0.000003 0.122100 -0.016803 -0.006219
  9   9.514219 -0.009357 0.000000 -0.008668 0.002721 -0.052281
 10   11.751820 -0.001633 0.000000 0.000024 0.043599 0.439975
 11   -2.117496 0.858748 2.563789 0.666392 -1.215188 2.056413
 12   4.640941 0.000000 -0.000001 1.143372 0.694867 1.163034
 13   10.828049 0.000000 0.000000 0.000000 0.000000 -1.266479
 14   9.393337 -0.000001 0.000000 -1.421078 0.028441 -0.447159
 15   1.442245 0.107454 -1.746177 1.710740 0.781590 0.365230
 16   1.063452 0.000000 0.000001 0.000000 0.000000 0.199056
 17   1.376307 -0.000001 0.000001 0.000000 0.000000 0.600473
 18   4.172846 -0.251366 -1.312744 -0.005361 -0.000073 0.008928
 19   1.215374 0.000002 0.000000 0.000000 0.000000 0.506106
 20   1.215371 -0.000002 0.000001 0.000000 0.000000 0.506106
 21   4.220534 -0.244854 -0.431465 -0.004372 0.025906 -0.069865
 22   1.350417 0.000000 0.000001 0.000000 0.000000 0.532308
 23   1.350410 -0.000001 -0.000001 0.000000 0.000000 0.532308
 24   -1.887021 0.858761 -2.731760 -1.068947 1.168974 1.681692
 25   4.640942 0.000000 0.000001 -1.152261 -0.583561 0.927526
 26   10.828047 0.000000 0.000001 0.000000 0.000000 -1.210851
 27   9.393339 0.000000 0.000000 1.198918 0.060024 -0.599788
 28   1.442245 0.107455 1.746178 -2.047067 -0.542719 0.863657
 29   1.063450 -0.000001 0.000000 0.000000 0.000000 -0.054011
 30   1.376307 0.000000 0.000000 0.000000 0.000000 0.600477
 31   4.172847 -0.251365 1.312745 -0.014726 -0.094940 0.218785
 32   1.215373 -0.000001 0.000000 0.000000 0.000000 0.715581
 33   1.215372 0.000000 0.000000 0.000000 0.000000 0.715581
 34   4.220534 -0.244853 0.431466 -0.001333 -0.026242 0.148339
 35   1.350416 0.000000 -0.000001 0.000000 0.000000 0.863937
 36   1.350410 0.000000 0.000001 0.000000 0.000000 0.863925
 37   2.110540 -0.000001 0.000000 0.004197 -0.010251 -0.194823
 38   0.891923 2.373051 -0.014527 -3.141592 -0.000001 1.413797
 39   7.228122 5.709445 3.726568 3.140796 -1.570796 0.000000
 40   2.450426 5.076128 0.001325 3.140791 -1.570796 0.000000
 41   6.312404 -4.528058 0.001311 3.145690 -1.570796 0.000000
 42   2.233309 1.152535 -7.309138 -1.318172 -1.649346 -0.434661
 43   4.262825 -0.232720 -1.392178 0.016840 0.076668 0.253759
time 30
  0   1.708652 0.763598 38.772617 0.000000 0.000000 -1.701715
  1   -0.011392 -0.148442 0.000000 -1.570795 -1.570451 0.000000
  2   -0.000007 0.000008 4.427393 -0.172705 -3.054531 -0.042906
  3   18.465939 0.000000 0.000000 0.000000 0.000000 -0.327293
  4   14.875443 0.000000 -0.000001 -0.087342 -0.071892 0.252590
  5   0.000006 -0.000004 -4.427393 0.120280 2.981403 -0.049658
  6   18.465939 0.000000 0.000000 0.000000 0.000000 -0.240613
  7   14.875442 0.000000 0.000000 -0.016208 0.152796 0.171311
  8   2.255207 -0.007574 0.000003 0.122100 -0.017403 -0.001322
  9   9.514219 -0.009357 0.000000 -0.008668 0.002732 -0.052281
 10   11.751820 -0.001633 0.000000 0.000024 0.043599 0.439975
 11   -2.117496 0.858748 2.563789 0.666392 -1.215188 2.056413
 12   4.640941 0.000000 -0.000001 1.144649 0.692800 1.165493
 13   10.828049 0.000000 0.000000 0.000000 0.000000 -1.268858
 14   9.393337 -0.000001 0.000000 -1.421016 0.028441 -0.447257
 15   1.442245 0.107454 -1.746177 1.710740 0.781590 0.365230
 16   1.063452 0.000000 0.000001 0.000000 0.000000 0.199056
 17   1.376307 -0.000001 0.000001 0.000000 0.000000 0.600473
 18   4.172846 -0.251366 -1.312744 -0.005361 -0.000073 0.008928
 19   1.215374 0.000002 0.000000 0.000000 0.000000 0.506106
 20   1.215371 -0.000002 0.000001 0.000000 0.000000 0.506106
 21   4.220534 -0.244854 -0.431465 -0.004372 0.025906 -0.069865
 22   1.350417 0.000000 0.000001 0.000000 0.000000 0.532308
 23   1.350410 -0.000001 -0.000001 0.000000 0.000000 0.532308
 24   -1.887021 0.858761 -2.731760 -1.068947 1.168974 1.681692
 25   4.640942 0.000000 0.000001 -1.152981 -0.582794 0.930116
 26   10.828047 0.000000 0.000001 0.000000 0.000000 -1.211257
 27   9.393339 0.000000 0.000000 1.199672 0.059763 -0.598915
 28   1.442245 0.107455 1.746178 -2.047067 -0.542719 0.863657
 29   1.063450 -0.000001 0.000000 0.000000 0.000000 -0.054011
 30   1.376307 0.000000 0.000000 0.000000 0.000000 0.600477
 31   4.172847 -0.251365 1.312745 -0.014726 -0.094940 0.218785
 32   1.215373 -0.000001 0.000000 0.000000 0.000000 0.715581
 33   1.215372 0.000000 0.000000 0.000000 0.000000 0.715581
 34   4.220534 -0.244853 0.431466 -0.001333 -0.026242 0.148339
 35   1.350416 0.000000 -0.000001 0.000000 0.000000 0.863937
 36   1.350410 0.000000 0.000001 0.000000 0.000000 0.863925
 37   2.110540 -0.000001 0.000000 0.004340 -0.010168 -0.197275
 38   0.891923 2.373051 -0.014527 -3.141592 -0.000001 1.413797
 39   7.228122 5.709445 3.726568 3.140796 -1.570796 0.000000
 40   2.450426 5.076128 0.001325 3.140791 -1.570796 0.000000
 41   6.312404 -4.528058 0.001311 3.140791 -1.570796 0.000000
 42   2.233309 1.152535 -7.309138 -1.319706 -1.649317 -0.434374
 43   4.262825 -0.232720 -1.392178 0.016840 0.076668 0.253759
end
