version 1
nodes
  0 "Bip01" -1
  1 "Bip01 Pelvis" 0
  2 "Bip01 L Thigh" 1
  3 "Bip01 L Calf" 2
  4 "Bip01 L Foot" 3
  5 "Bip01 R Thigh" 1
  6 "Bip01 R Calf" 5
  7 "Bip01 R Foot" 6
  8 "Bip01 Spine" 1
  9 "Bip01 Spine1" 8
 10 "Bip01 Neck" 9
 11 "Bip01 L Clavicle" 10
 12 "Bip01 L UpperArm" 11
 13 "Bip01 L Forearm" 12
 14 "Bip01 L Hand" 13
 15 "Bip01 L Finger0" 14
 16 "Bip01 L Finger01" 15
 17 "Bip01 L Finger02" 16
 18 "Bip01 L Finger1" 14
 19 "Bip01 L Finger11" 18
 20 "Bip01 L Finger12" 19
 21 "Bip01 L Finger2" 14
 22 "Bip01 L Finger21" 21
 23 "Bip01 L Finger22" 22
 24 "Bip01 R Clavicle" 10
 25 "Bip01 R UpperArm" 24
 26 "Bip01 R Forearm" 25
 27 "Bip01 R Hand" 26
 28 "Bip01 R Finger0" 27
 29 "Bip01 R Finger01" 28
 30 "Bip01 R Finger02" 29
 31 "Bip01 R Finger1" 27
 32 "Bip01 R Finger11" 31
 33 "Bip01 R Finger12" 32
 34 "Bip01 R Finger2" 27
 35 "Bip01 R Finger21" 34
 36 "Bip01 R Finger22" 35
 37 "Bip01 Head" 10
 38 "Bone05" 37
 39 "Bone08" 9
 40 "Bone16" 8
 41 "Bone01" 8
 42 "Bone03" 1
 43 "Bip01 R Finger4" 27
end
skeleton
time 0
  0   1.708652 6.792152 38.409325 0.000000 0.000000 -1.701715
  1   0.164395 -0.125004 0.000000 -1.570795 -1.570451 0.000000
  2   -0.000007 0.000008 4.427393 -0.170796 -3.152960 0.000882
  3   18.465939 0.000000 0.000000 0.000000 0.000000 -0.416557
  4   14.875443 0.000000 -0.000001 0.018451 0.017437 0.402071
  5   0.000006 -0.000004 -4.427393 0.106024 3.095677 -0.362237
  6   18.465939 0.000000 0.000000 0.000000 0.000000 -0.394334
  7   14.875442 0.000000 0.000000 -0.002065 0.005199 0.029344
  8   2.255207 -0.007574 0.000003 0.122100 -0.017403 -0.001322
  9   9.514219 -0.009357 0.000000 -0.008787 0.002361 -0.095902
 10   11.751820 -0.001633 0.000000 0.000024 0.043599 0.439975
 11   -2.117496 0.858748 2.563789 0.697276 -1.395375 2.006330
 12   4.640941 0.000000 -0.000001 0.738474 1.089884 0.724820
 13   10.828049 0.000000 0.000000 0.000000 0.000000 -0.470452
 14   9.393337 -0.000001 0.000000 -1.569611 0.034172 0.000037
 15   1.442245 0.107454 -1.746177 1.686435 0.539209 0.325885
 16   1.063452 0.000000 0.000001 0.000000 0.000000 0.199056
 17   1.376307 -0.000001 0.000001 0.000000 0.000000 0.199049
 18   4.172846 -0.251366 -1.312744 0.008050 0.095731 0.148659
 19   1.215374 0.000002 0.000000 0.000000 0.000000 0.645758
 20   1.215371 -0.000002 0.000001 0.000000 0.000000 0.645758
 21   4.220534 -0.244854 -0.431465 0.001333 0.026242 0.148339
 22   1.350417 0.000000 0.000001 0.000000 0.000000 0.863926
 23   1.350410 -0.000001 -0.000001 0.000000 0.000000 0.863926
 24   -1.887021 0.858761 -2.731760 -0.942471 1.461434 1.764317
 25   4.640942 0.000000 0.000001 -0.601473 -1.183875 0.506934
 26   10.828047 0.000000 0.000001 0.000000 0.000000 -0.234266
 27   9.393339 0.000000 0.000000 1.569611 -0.034192 0.000001
 28   1.442245 0.107455 1.746178 -1.686405 -0.539236 0.325898
 29   1.063450 -0.000001 0.000000 0.000000 0.000000 0.199056
 30   1.376307 0.000000 0.000000 0.000000 0.000000 0.199059
 31   4.172847 -0.251365 1.312745 -0.008050 -0.095731 0.148659
 32   1.215373 -0.000001 0.000000 0.000000 0.000000 0.645746
 33   1.215372 0.000000 0.000000 0.000000 0.000000 0.645746
 34   4.220534 -0.244853 0.431466 -0.001333 -0.026242 0.148339
 35   1.350416 0.000000 -0.000001 0.000000 0.000000 0.863937
 36   1.350410 0.000000 0.000001 0.000000 0.000000 0.863925
 37   2.110540 -0.000001 0.000000 0.002432 -0.010503 -0.153668
 38   0.891923 2.373051 -0.014527 -3.141592 -0.000001 1.413797
 39   7.228122 5.709445 3.726568 3.140796 -1.570796 0.000000
 40   2.450426 5.076128 0.001325 3.140791 -1.570796 0.000000
 41   6.312404 -4.528058 0.001311 3.140791 -1.570796 0.000000
 42   2.233309 1.152535 -7.309138 -1.954765 -1.570796 0.000000
 43   4.262825 -0.232720 -1.392178 0.016840 0.076668 0.253759
time 1
  0   2.418564 6.571931 38.620266 0.000000 0.000000 -1.575829
  1   -0.124677 -0.312510 0.000000 -3.141560 -1.540041 1.570772
  2   -0.000007 0.000008 4.427393 -0.169078 -3.112398 -0.005152
  3   18.465939 0.000000 0.000000 0.000000 0.000000 -0.415095
  4   14.875443 0.000000 -0.000001 0.099454 0.010094 0.393538
  5   0.000006 -0.000004 -4.427393 0.121332 3.111895 -0.286713
  6   18.465939 0.000000 0.000000 0.000000 0.000000 -0.262405
  7   14.875442 0.000000 0.000000 0.070971 0.024559 -0.029521
  8   2.255207 -0.007574 -0.066405 0.119958 -0.000708 0.019226
  9   9.514219 -0.009357 0.000000 -0.004684 -0.003883 -0.078086
 10   11.751820 -0.001633 0.000000 0.000024 0.043599 0.439975
 11   -2.117496 0.858748 2.563789 0.625567 -1.390938 2.078397
 12   4.640941 0.000000 -0.000001 0.740291 1.019146 0.748528
 13   10.828049 0.000000 0.000000 0.000000 0.000000 -0.626766
 14   9.393337 -0.000001 0.000000 -1.569611 0.034172 0.000037
 15   1.442245 0.107454 -1.746177 1.686435 0.539209 0.325885
 16   1.063452 0.000000 0.000001 0.000000 0.000000 0.199056
 17   1.376307 -0.000001 0.000001 0.000000 0.000000 0.199049
 18   4.172846 -0.251366 -1.312744 0.008050 0.095731 0.148659
 19   1.215374 0.000002 0.000000 0.000000 0.000000 0.645758
 20   1.215371 -0.000002 0.000001 0.000000 0.000000 0.645758
 21   4.220534 -0.244854 -0.431465 0.001333 0.026242 0.148339
 22   1.350417 0.000000 0.000001 0.000000 0.000000 0.863926
 23   1.350410 -0.000001 -0.000001 0.000000 0.000000 0.863926
 24   -1.887021 0.858761 -2.731760 -0.901029 1.477715 1.804426
 25   4.640942 0.000000 0.000001 -0.466464 -1.192523 0.342659
 26   10.828047 0.000000 0.000001 0.000000 0.000000 -0.364485
 27   9.393339 0.000000 0.000000 1.569611 -0.034192 0.000001
 28   1.442245 0.107455 1.746178 -1.686405 -0.539236 0.325898
 29   1.063450 -0.000001 0.000000 0.000000 0.000000 0.199056
 30   1.376307 0.000000 0.000000 0.000000 0.000000 0.199059
 31   4.172847 -0.251365 1.312745 -0.008050 -0.095731 0.148659
 32   1.215373 -0.000001 0.000000 0.000000 0.000000 0.645746
 33   1.215372 0.000000 0.000000 0.000000 0.000000 0.645746
 34   4.220534 -0.244853 0.431466 -0.001333 -0.026242 0.148339
 35   1.350416 0.000000 -0.000001 0.000000 0.000000 0.863937
 36   1.350410 0.000000 0.000001 0.000000 0.000000 0.863925
 37   2.110540 -0.000001 0.000000 0.006152 0.008045 -0.193232
 38   0.891923 2.373051 -0.014527 -3.141592 -0.000001 1.413797
 39   7.228122 5.709445 3.726568 3.140796 -1.570796 0.000000
 40   2.450426 5.076128 0.001325 3.140791 -1.570796 0.000000
 41   6.312404 -4.528058 0.001311 3.140791 -1.570796 0.000000
 42   2.233309 1.152535 -7.309138 -1.317693 -1.552214 -0.551560
 43   4.262825 -0.232720 -1.392178 0.016840 0.076668 0.253759
time 2
  0   3.250175 6.324182 38.866367 0.000000 0.000000 -1.431630
  1   -0.456718 -0.527360 0.000000 -0.000030 -1.636805 -1.570772
  2   -0.000007 0.000008 4.427393 -0.167455 -3.069975 -0.009641
  3   18.465939 0.000000 0.000000 0.000000 0.000000 -0.406395
  4   14.875443 0.000000 -0.000001 0.219194 0.005667 0.380265
  5   0.000006 -0.000004 -4.427393 0.142094 3.130350 -0.142121
  6   18.465939 0.000000 0.000000 0.000000 0.000000 -0.001959
  7   14.875442 0.000000 0.000000 0.174048 0.056205 -0.149765
  8   2.251301 -0.007574 -0.148439 0.118697 0.018431 0.042817
  9   9.514219 -0.009357 0.000000 -0.000132 -0.011134 -0.057693
 10   11.751820 -0.001633 0.000000 0.000024 0.043599 0.439975
 11   -2.117496 0.858748 2.563789 0.557880 -1.385467 2.146412
 12   4.640941 0.000000 -0.000001 0.729583 0.948890 0.765504
 13   10.828049 0.000000 0.000000 0.000000 0.000000 -0.788387
 14   9.393337 -0.000001 0.000000 -1.569611 0.034172 0.000037
 15   1.442245 0.107454 -1.746177 1.686435 0.539209 0.325885
 16   1.063452 0.000000 0.000001 0.000000 0.000000 0.199056
 17   1.376307 -0.000001 0.000001 0.000000 0.000000 0.199049
 18   4.172846 -0.251366 -1.312744 0.008050 0.095731 0.148659
 19   1.215374 0.000002 0.000000 0.000000 0.000000 0.645758
 20   1.215371 -0.000002 0.000001 0.000000 0.000000 0.645758
 21   4.220534 -0.244854 -0.431465 0.001333 0.026242 0.148339
 22   1.350417 0.000000 0.000001 0.000000 0.000000 0.863926
 23   1.350410 -0.000001 -0.000001 0.000000 0.000000 0.863926
 24   -1.887021 0.858761 -2.731760 -0.841457 1.494682 1.862697
 25   4.640942 0.000000 0.000001 -0.308200 -1.194336 0.156826
 26   10.828047 0.000000 0.000001 0.000000 0.000000 -0.499118
 27   9.393339 0.000000 0.000000 1.569611 -0.034192 0.000001
 28   1.442245 0.107455 1.746178 -1.686405 -0.539236 0.325898
 29   1.063450 -0.000001 0.000000 0.000000 0.000000 0.199056
 30   1.376307 0.000000 0.000000 0.000000 0.000000 0.199059
 31   4.172847 -0.251365 1.312745 -0.008050 -0.095731 0.148659
 32   1.215373 -0.000001 0.000000 0.000000 0.000000 0.645746
 33   1.215372 0.000000 0.000000 0.000000 0.000000 0.645746
 34   4.220534 -0.244853 0.431466 -0.001333 -0.026242 0.148339
 35   1.350416 0.000000 -0.000001 0.000000 0.000000 0.863937
 36   1.350410 0.000000 0.000001 0.000000 0.000000 0.863925
 37   2.110540 -0.000001 0.000000 0.009490 0.029330 -0.238559
 38   0.891923 2.373051 -0.014527 -3.141592 -0.000001 1.413797
 39   7.228122 5.709445 3.726568 3.140796 -1.570796 0.000000
 40   2.450426 5.076128 0.001325 3.140791 -1.570796 0.000000
 41   6.312404 -4.528058 0.001311 3.140791 -1.570796 0.000000
 42   2.233309 1.152535 -7.309138 -1.257293 -1.527196 -0.557879
 43   4.262825 -0.232720 -1.392178 0.016840 0.076668 0.253759
time 3
  0   4.081786 6.076433 39.120281 0.000000 0.000000 -1.282830
  1   -0.800478 -0.746117 0.000000 -0.000030 -1.673165 -1.570772
  2   -0.000007 0.000008 4.427393 -0.166405 -3.029413 -0.009192
  3   18.465939 0.000000 0.000000 0.000000 0.000000 -0.389142
  4   14.875443 0.000000 -0.000001 0.360223 0.003539 0.364345
  5   0.000006 -0.000004 -4.427393 0.157497 3.116742 -0.208849
  6   18.465939 0.000000 0.000000 0.000000 0.000000 -0.144850
  7   14.875442 0.000000 0.000000 0.109120 0.096332 -0.176853
  8   2.247394 -0.007574 -0.230473 0.118760 0.038170 0.067236
  9   9.514219 -0.009357 0.000000 0.004407 -0.018720 -0.036694
 10   11.751820 -0.001633 0.000000 0.000024 0.043599 0.439975
 11   -2.117496 0.858748 2.563789 0.494443 -1.379138 2.210098
 12   4.640941 0.000000 -0.000001 0.714700 0.880632 0.783182
 13   10.828049 0.000000 0.000000 0.000000 0.000000 -0.951290
 14   9.393337 -0.000001 0.000000 -1.569611 0.034172 0.000037
 15   1.442245 0.107454 -1.746177 1.686435 0.539209 0.325885
 16   1.063452 0.000000 0.000001 0.000000 0.000000 0.199056
 17   1.376307 -0.000001 0.000001 0.000000 0.000000 0.199049
 18   4.172846 -0.251366 -1.312744 0.008050 0.095731 0.148659
 19   1.215374 0.000002 0.000000 0.000000 0.000000 0.645758
 20   1.215371 -0.000002 0.000001 0.000000 0.000000 0.645758
 21   4.220534 -0.244854 -0.431465 0.001333 0.026242 0.148339
 22   1.350417 0.000000 0.000001 0.000000 0.000000 0.863926
 23   1.350410 -0.000001 -0.000001 0.000000 0.000000 0.863926
 24   -1.887021 0.858761 -2.731760 -0.748038 1.511441 1.954885
 25   4.640942 0.000000 0.000001 -0.145973 -1.185410 -0.030547
 26   10.828047 0.000000 0.000001 0.000000 0.000000 -0.634913
 27   9.393339 0.000000 0.000000 1.569611 -0.034192 0.000001
 28   1.442245 0.107455 1.746178 -1.686405 -0.539236 0.325898
 29   1.063450 -0.000001 0.000000 0.000000 0.000000 0.199056
 30   1.376307 0.000000 0.000000 0.000000 0.000000 0.199059
 31   4.172847 -0.251365 1.312745 -0.008050 -0.095731 0.148659
 32   1.215373 -0.000001 0.000000 0.000000 0.000000 0.645746
 33   1.215372 0.000000 0.000000 0.000000 0.000000 0.645746
 34   4.220534 -0.244853 0.431466 -0.001333 -0.026242 0.148339
 35   1.350416 0.000000 -0.000001 0.000000 0.000000 0.863937
 36   1.350410 0.000000 0.000001 0.000000 0.000000 0.863925
 37   2.110540 -0.000001 0.000000 0.012018 0.051257 -0.285348
 38   0.891923 2.373051 -0.014527 -3.141592 -0.000001 1.413797
 39   7.228122 5.709445 3.726568 3.140796 -1.570796 0.000000
 40   2.450426 5.076128 0.001325 3.140791 -1.570796 0.000000
 41   6.312404 -4.528058 0.001311 3.140791 -1.570796 0.000000
 42   2.233309 1.152535 -7.309138 -1.270907 -1.545457 -0.594261
 43   4.262825 -0.232720 -1.392178 0.016840 0.076668 0.253759
time 4
  0   4.872830 5.856212 39.358570 0.000000 0.000000 -1.143233
  1   -1.124707 -0.949248 0.000000 -0.000030 -1.707297 -1.570772
  2   -0.000007 0.000008 4.427393 -0.174519 -3.008666 0.049209
  3   18.465939 0.000000 0.000000 0.000000 0.000000 -0.283136
  4   14.875443 0.000000 -0.000001 0.394434 0.008519 0.319548
  5   0.000006 -0.000004 -4.427393 0.173284 3.092973 -0.314040
  6   18.465939 0.000000 0.000000 0.000000 0.000000 -0.363222
  7   14.875442 0.000000 0.000000 -0.000029 0.120751 -0.213807
  8   2.235675 -0.007574 -0.304694 0.120042 0.056626 0.090199
  9   9.514219 -0.009357 0.000000 0.008523 -0.025911 -0.017016
 10   11.751820 -0.001633 0.000000 0.000024 0.043599 0.439975
 11   -2.117496 0.858748 2.563789 0.435027 -1.372172 2.269662
 12   4.640941 0.000000 -0.000001 0.701388 0.815197 0.805719
 13   10.828049 0.000000 0.000000 0.000000 0.000000 -1.111630
 14   9.393337 -0.000001 0.000000 -1.569611 0.034172 0.000037
 15   1.442245 0.107454 -1.746177 1.686435 0.539209 0.325885
 16   1.063452 0.000000 0.000001 0.000000 0.000000 0.199056
 17   1.376307 -0.000001 0.000001 0.000000 0.000000 0.199049
 18   4.172846 -0.251366 -1.312744 0.008050 0.095731 0.148659
 19   1.215374 0.000002 0.000000 0.000000 0.000000 0.645758
 20   1.215371 -0.000002 0.000001 0.000000 0.000000 0.645758
 21   4.220534 -0.244854 -0.431465 0.001333 0.026242 0.148339
 22   1.350417 0.000000 0.000001 0.000000 0.000000 0.863926
 23   1.350410 -0.000001 -0.000001 0.000000 0.000000 0.863926
 24   -1.887021 0.858761 -2.731760 -0.587847 1.526912 2.114013
 25   4.640942 0.000000 0.000001 -0.001549 -1.166022 -0.197412
 26   10.828047 0.000000 0.000001 0.000000 0.000000 -0.768443
 27   9.393339 0.000000 0.000000 1.569611 -0.034192 0.000001
 28   1.442245 0.107455 1.746178 -1.686405 -0.539236 0.325898
 29   1.063450 -0.000001 0.000000 0.000000 0.000000 0.199056
 30   1.376307 0.000000 0.000000 0.000000 0.000000 0.199059
 31   4.172847 -0.251365 1.312745 -0.008050 -0.095731 0.148659
 32   1.215373 -0.000001 0.000000 0.000000 0.000000 0.645746
 33   1.215372 0.000000 0.000000 0.000000 0.000000 0.645746
 34   4.220534 -0.244853 0.431466 -0.001333 -0.026242 0.148339
 35   1.350416 0.000000 -0.000001 0.000000 0.000000 0.863937
 36   1.350410 0.000000 0.000001 0.000000 0.000000 0.863925
 37   2.110540 -0.000001 0.000000 0.013544 0.071760 -0.329341
 38   0.891923 2.373051 -0.014527 -3.141592 -0.000001 1.413797
 39   7.228122 5.709445 3.726568 3.140796 -1.570796 0.000000
 40   2.450426 5.076128 0.001325 3.140791 -1.570796 0.000000
 41   6.312404 -4.528058 0.001311 3.140791 -1.570796 0.000000
 42   2.233309 1.152535 -7.309138 -1.928496 -1.570796 0.000000
 43   4.262825 -0.232720 -1.392178 0.016840 0.076668 0.253759
time 5
  0   5.521892 5.663518 39.557796 0.000000 0.000000 -1.026551
  1   -1.394247 -1.117222 0.000000 -0.000030 -1.735825 -1.570772
  2   -0.000007 0.000008 4.427393 -0.187406 -2.998247 0.121325
  3   18.465939 0.000000 0.000000 0.000000 0.000000 -0.155125
  4   14.875443 0.000000 -0.000001 0.415582 0.014904 0.266732
  5   0.000006 -0.000004 -4.427393 0.187444 3.069112 -0.404257
  6   18.465939 0.000000 0.000000 0.000000 0.000000 -0.555603
  7   14.875442 0.000000 0.000000 -0.113144 0.108276 -0.383762
  8   2.227862 -0.007574 -0.371102 0.122058 0.071966 0.109522
  9   9.514219 -0.009357 0.000000 0.011861 -0.031987 -0.000563
 10   11.751820 -0.001633 0.000000 0.000024 0.043599 0.439975
 11   -2.117496 0.858748 2.563789 0.379330 -1.364745 2.325447
 12   4.640941 0.000000 -0.000001 0.693971 0.752793 0.835105
 13   10.828049 0.000000 0.000000 0.000000 0.000000 -1.265259
 14   9.393337 -0.000001 0.000000 -1.569611 0.034172 0.000037
 15   1.442245 0.107454 -1.746177 1.686435 0.539209 0.325885
 16   1.063452 0.000000 0.000001 0.000000 0.000000 0.199056
 17   1.376307 -0.000001 0.000001 0.000000 0.000000 0.199049
 18   4.172846 -0.251366 -1.312744 0.008050 0.095731 0.148659
 19   1.215374 0.000002 0.000000 0.000000 0.000000 0.645758
 20   1.215371 -0.000002 0.000001 0.000000 0.000000 0.645758
 21   4.220534 -0.244854 -0.431465 0.001333 0.026242 0.148339
 22   1.350417 0.000000 0.000001 0.000000 0.000000 0.863926
 23   1.350410 -0.000001 -0.000001 0.000000 0.000000 0.863926
 24   -1.887021 0.858761 -2.731760 -0.295737 1.539227 2.405231
 25   4.640942 0.000000 0.000001 0.108917 -1.139870 -0.328440
 26   10.828047 0.000000 0.000001 0.000000 0.000000 -0.896513
 27   9.393339 0.000000 0.000000 1.569611 -0.034192 0.000001
 28   1.442245 0.107455 1.746178 -1.686405 -0.539236 0.325898
 29   1.063450 -0.000001 0.000000 0.000000 0.000000 0.199056
 30   1.376307 0.000000 0.000000 0.000000 0.000000 0.199059
 31   4.172847 -0.251365 1.312745 -0.008050 -0.095731 0.148659
 32   1.215373 -0.000001 0.000000 0.000000 0.000000 0.645746
 33   1.215372 0.000000 0.000000 0.000000 0.000000 0.645746
 34   4.220534 -0.244853 0.431466 -0.001333 -0.026242 0.148339
 35   1.350416 0.000000 -0.000001 0.000000 0.000000 0.863937
 36   1.350410 0.000000 0.000001 0.000000 0.000000 0.863925
 37   2.110540 -0.000001 0.000000 0.014116 0.088827 -0.366196
 38   0.891923 2.373051 -0.014527 -3.141592 -0.000001 1.413797
 39   7.228122 5.709445 3.726568 3.140796 -1.570796 0.000000
 40   2.450426 5.076128 0.001325 3.140791 -1.570796 0.000000
 41   6.312404 -4.528058 0.001311 3.140791 -1.570796 0.000000
 42   2.233309 1.152535 -7.309138 -1.163817 -1.588242 -0.791007
 43   4.262825 -0.232720 -1.392178 0.016840 0.076668 0.253759
time 6
  0   5.988405 5.525880 39.690613 0.000000 0.000000 -0.946398
  1   -1.577846 -1.234413 0.000000 -0.000030 -1.755399 -1.570772
  2   -0.000007 0.000008 4.427393 -0.199721 -2.995177 0.182519
  3   18.465939 0.000000 0.000000 0.000000 0.000000 -0.047292
  4   14.875443 0.000000 -0.000001 0.426682 0.020332 0.222686
  5   0.000006 -0.000004 -4.427393 0.198733 3.056715 -0.468083
  6   18.465939 0.000000 0.000000 0.000000 0.000000 -0.687467
  7   14.875442 0.000000 0.000000 -0.162279 0.105461 -0.297959
  8   2.220050 -0.007574 -0.414072 0.123927 0.082441 0.122790
  9   9.514219 -0.009357 0.000000 0.014091 -0.036193 0.010673
 10   11.751820 -0.001633 0.000000 0.000024 0.043599 0.439975
 11   -2.117496 0.858748 2.563789 0.326744 -1.357016 2.377935
 12   4.640941 0.000000 -0.000001 0.696083 0.692800 0.871809
 13   10.828049 0.000000 0.000000 0.000000 0.000000 -1.408271
 14   9.393337 -0.000001 0.000000 -1.569611 0.034172 0.000037
 15   1.442245 0.107454 -1.746177 1.686435 0.539209 0.325885
 16   1.063452 0.000000 0.000001 0.000000 0.000000 0.199056
 17   1.376307 -0.000001 0.000001 0.000000 0.000000 0.199049
 18   4.172846 -0.251366 -1.312744 0.008050 0.095731 0.148659
 19   1.215374 0.000002 0.000000 0.000000 0.000000 0.645758
 20   1.215371 -0.000002 0.000001 0.000000 0.000000 0.645758
 21   4.220534 -0.244854 -0.431465 0.001333 0.026242 0.148339
 22   1.350417 0.000000 0.000001 0.000000 0.000000 0.863926
 23   1.350410 -0.000001 -0.000001 0.000000 0.000000 0.863926
 24   -1.887021 0.858761 -2.731760 0.180227 1.545478 2.880413
 25   4.640942 0.000000 0.000001 0.177914 -1.112463 -0.417052
 26   10.828047 0.000000 0.000001 0.000000 0.000000 -1.015638
 27   9.393339 0.000000 0.000000 1.569611 -0.034192 0.000001
 28   1.442245 0.107455 1.746178 -1.686405 -0.539236 0.325898
 29   1.063450 -0.000001 0.000000 0.000000 0.000000 0.199056
 30   1.376307 0.000000 0.000000 0.000000 0.000000 0.199059
 31   4.172847 -0.251365 1.312745 -0.008050 -0.095731 0.148659
 32   1.215373 -0.000001 0.000000 0.000000 0.000000 0.645746
 33   1.215372 0.000000 0.000000 0.000000 0.000000 0.645746
 34   4.220534 -0.244853 0.431466 -0.001333 -0.026242 0.148339
 35   1.350416 0.000000 -0.000001 0.000000 0.000000 0.863937
 36   1.350410 0.000000 0.000001 0.000000 0.000000 0.863925
 37   2.110540 -0.000001 0.000000 0.014212 0.100503 -0.391569
 38   0.891923 2.373051 -0.014527 -3.141592 -0.000001 1.413797
 39   7.228122 5.709445 3.726568 3.140796 -1.570796 0.000000
 40   2.450426 5.076128 0.001325 3.140791 -1.570796 0.000000
 41   6.312404 -4.528058 0.001311 3.140791 -1.570796 0.000000
 42   2.233309 1.152535 -7.309138 -1.136110 -1.614425 -0.906662
 43   4.262825 -0.232720 -1.392178 0.016840 0.076668 0.253759
time 7
  0   6.150671 5.470825 39.741394 0.000000 0.000000 -0.916676
  1   -1.644254 -1.273476 0.000000 -0.000030 -1.762671 -1.570772
  2   -0.000007 0.000008 4.427393 -0.205067 -2.995084 0.208253
  3   18.465939 0.000000 0.000000 0.000000 0.000000 -0.001965
  4   14.875443 0.000000 -0.000001 0.430353 0.022588 0.204238
  5   0.000006 -0.000004 -4.427393 0.201604 3.039006 -0.487924
  6   18.465939 0.000000 0.000000 0.000000 0.000000 -0.745358
  7   14.875442 0.000000 0.000000 -0.171369 0.131230 -0.145300
  8   2.216143 -0.007574 -0.429698 0.124725 0.086312 0.127720
  9   9.514219 -0.009357 0.000000 0.014909 -0.037763 0.014851
 10   11.751820 -0.001633 0.000000 0.000024 0.043599 0.439975
 11   -2.117496 0.858748 2.563789 0.276738 -1.349144 2.427743
 12   4.640941 0.000000 -0.000001 0.710672 0.633634 0.915595
 13   10.828049 0.000000 0.000000 0.000000 0.000000 -1.536702
 14   9.393337 -0.000001 0.000000 -1.569611 0.034172 0.000037
 15   1.442245 0.107454 -1.746177 1.686435 0.539209 0.325885
 16   1.063452 0.000000 0.000001 0.000000 0.000000 0.199056
 17   1.376307 -0.000001 0.000001 0.000000 0.000000 0.199049
 18   4.172846 -0.251366 -1.312744 0.008050 0.095731 0.148659
 19   1.215374 0.000002 0.000000 0.000000 0.000000 0.645758
 20   1.215371 -0.000002 0.000001 0.000000 0.000000 0.645758
 21   4.220534 -0.244854 -0.431465 0.001333 0.026242 0.148339
 22   1.350417 0.000000 0.000001 0.000000 0.000000 0.863926
 23   1.350410 -0.000001 -0.000001 0.000000 0.000000 0.863926
 24   -1.887021 0.858761 -2.731760 0.659614 1.544148 3.359240
 25   4.640942 0.000000 0.000001 0.202302 -1.088961 -0.461498
 26   10.828047 0.000000 0.000001 0.000000 0.000000 -1.122683
 27   9.393339 0.000000 0.000000 1.569611 -0.034192 0.000001
 28   1.442245 0.107455 1.746178 -1.686405 -0.539236 0.325898
 29   1.063450 -0.000001 0.000000 0.000000 0.000000 0.199056
 30   1.376307 0.000000 0.000000 0.000000 0.000000 0.199059
 31   4.172847 -0.251365 1.312745 -0.008050 -0.095731 0.148659
 32   1.215373 -0.000001 0.000000 0.000000 0.000000 0.645746
 33   1.215372 0.000000 0.000000 0.000000 0.000000 0.645746
 34   4.220534 -0.244853 0.431466 -0.001333 -0.026242 0.148339
 35   1.350416 0.000000 -0.000001 0.000000 0.000000 0.863937
 36   1.350410 0.000000 0.000001 0.000000 0.000000 0.863925
 37   2.110540 -0.000001 0.000000 0.014164 0.104805 -0.400986
 38   0.891923 2.373051 -0.014527 -3.141592 -0.000001 1.413797
 39   7.228122 5.709445 3.726568 3.140796 -1.570796 0.000000
 40   2.450426 5.076128 0.001325 3.140791 -1.570796 0.000000
 41   6.312404 -4.528058 0.001311 3.140791 -1.570796 0.000000
 42   2.233309 1.152535 -7.309138 -1.129015 -1.623133 -0.965446
 43   4.262825 -0.232720 -1.392178 0.016840 0.076668 0.253759
time 8
  0   5.826140 5.553408 39.647644 0.000000 0.000000 -0.973244
  1   -1.515344 -1.195349 0.000000 -0.000030 -1.748860 -1.570772
  2   -0.000007 0.000008 4.427393 -0.195807 -2.996107 0.163717
  3   18.465939 0.000000 0.000000 0.000000 0.000000 -0.079532
  4   14.875443 0.000000 -0.000001 0.429044 0.018288 0.235366
  5   0.000006 -0.000004 -4.427393 0.183330 3.011137 -0.313478
  6   18.465939 0.000000 0.000000 0.000000 0.000000 -0.493839
  7   14.875442 0.000000 0.000000 -0.007750 0.227669 0.099165
  8   2.223956 -0.007574 -0.398447 0.123255 0.078953 0.118356
  9   9.514219 -0.009357 0.000000 0.013352 -0.034791 0.006906
 10   11.751820 -0.001633 0.000000 0.000024 0.043599 0.439975
 11   -2.117496 0.858748 2.563789 0.209810 -1.346917 2.493834
 12   4.640941 0.000000 -0.000001 0.700062 0.667246 0.861799
 13   10.828049 0.000000 0.000000 0.000000 0.000000 -1.428771
 14   9.393337 -0.000001 0.000000 -1.569611 0.034172 0.000037
 15   1.442245 0.107454 -1.746177 1.686435 0.539209 0.325885
 16   1.063452 0.000000 0.000001 0.000000 0.000000 0.199056
 17   1.376307 -0.000001 0.000001 0.000000 0.000000 0.199049
 18   4.172846 -0.251366 -1.312744 0.008050 0.095731 0.148659
 19   1.215374 0.000002 0.000000 0.000000 0.000000 0.645758
 20   1.215371 -0.000002 0.000001 0.000000 0.000000 0.645758
 21   4.220534 -0.244854 -0.431465 0.001333 0.026242 0.148339
 22   1.350417 0.000000 0.000001 0.000000 0.000000 0.863926
 23   1.350410 -0.000001 -0.000001 0.000000 0.000000 0.863926
 24   -1.887021 0.858761 -2.731760 -0.079793 1.529819 2.620910
 25   4.640942 0.000000 0.000001 0.166389 -1.158560 -0.406413
 26   10.828047 0.000000 0.000001 0.000000 0.000000 -1.032714
 27   9.393339 0.000000 0.000000 1.569611 -0.034192 0.000001
 28   1.442245 0.107455 1.746178 -1.686405 -0.539236 0.325898
 29   1.063450 -0.000001 0.000000 0.000000 0.000000 0.199056
 30   1.376307 0.000000 0.000000 0.000000 0.000000 0.199059
 31   4.172847 -0.251365 1.312745 -0.008050 -0.095731 0.148659
 32   1.215373 -0.000001 0.000000 0.000000 0.000000 0.645746
 33   1.215372 0.000000 0.000000 0.000000 0.000000 0.645746
 34   4.220534 -0.244853 0.431466 -0.001333 -0.026242 0.148339
 35   1.350416 0.000000 -0.000001 0.000000 0.000000 0.863937
 36   1.350410 0.000000 0.000001 0.000000 0.000000 0.863925
 37   2.110540 -0.000001 0.000000 0.014212 0.096593 -0.383097
 38   0.891923 2.373051 -0.014527 -3.141592 -0.000001 1.413797
 39   7.228122 5.709445 3.726568 3.140796 -1.570796 0.000000
 40   2.450426 5.076128 0.001325 3.140791 -1.570796 0.000000
 41   6.312404 -4.528058 0.001311 3.140791 -1.570796 0.000000
 42   2.233309 1.152535 -7.309138 -1.191141 -1.649317 -0.711255
 43   4.262825 -0.232720 -1.392178 0.016840 0.076668 0.253759
time 9
  0   5.014812 5.801157 39.401543 0.000000 0.000000 -1.117634
  1   -1.183303 -0.984405 0.000000 -0.000030 -1.713549 -1.570772
  2   -0.000007 0.000008 4.427393 -0.178146 -3.006806 0.070654
  3   18.465939 0.000000 0.000000 0.000000 0.000000 -0.243146
  4   14.875443 0.000000 -0.000001 0.413077 0.009647 0.301969
  5   0.000006 -0.000004 -4.427393 0.172518 3.070604 -0.180492
  6   18.465939 0.000000 0.000000 0.000000 0.000000 -0.209764
  7   14.875442 0.000000 0.000000 0.181278 0.176017 -0.011250
  8   2.235675 -0.007574 -0.320319 0.120420 0.060006 0.094434
  9   9.514219 -0.009357 0.000000 0.009262 -0.027241 -0.013400
 10   11.751820 -0.001633 0.000000 0.000024 0.043599 0.439975
 11   -2.117496 0.858748 2.563789 0.143489 -1.349573 2.559100
 12   4.640941 0.000000 -0.000001 0.675256 0.766569 0.747591
 13   10.828049 0.000000 0.000000 0.000000 0.000000 -1.153301
 14   9.393337 -0.000001 0.000000 -1.569611 0.034172 0.000037
 15   1.442245 0.107454 -1.746177 1.686435 0.539209 0.325885
 16   1.063452 0.000000 0.000001 0.000000 0.000000 0.199056
 17   1.376307 -0.000001 0.000001 0.000000 0.000000 0.199049
 18   4.172846 -0.251366 -1.312744 0.008050 0.095731 0.148659
 19   1.215374 0.000002 0.000000 0.000000 0.000000 0.645758
 20   1.215371 -0.000002 0.000001 0.000000 0.000000 0.645758
 21   4.220534 -0.244854 -0.431465 0.001333 0.026242 0.148339
 22   1.350417 0.000000 0.000001 0.000000 0.000000 0.863926
 23   1.350410 -0.000001 -0.000001 0.000000 0.000000 0.863926
 24   -1.887021 0.858761 -2.731760 -0.528714 1.484174 2.175105
 25   4.640942 0.000000 0.000001 0.001590 -1.183806 -0.189643
 26   10.828047 0.000000 0.000001 0.000000 0.000000 -0.803176
 27   9.393339 0.000000 0.000000 1.569611 -0.034192 0.000001
 28   1.442245 0.107455 1.746178 -1.686405 -0.539236 0.325898
 29   1.063450 -0.000001 0.000000 0.000000 0.000000 0.199056
 30   1.376307 0.000000 0.000000 0.000000 0.000000 0.199059
 31   4.172847 -0.251365 1.312745 -0.008050 -0.095731 0.148659
 32   1.215373 -0.000001 0.000000 0.000000 0.000000 0.645746
 33   1.215372 0.000000 0.000000 0.000000 0.000000 0.645746
 34   4.220534 -0.244853 0.431466 -0.001333 -0.026242 0.148339
 35   1.350416 0.000000 -0.000001 0.000000 0.000000 0.863937
 36   1.350410 0.000000 0.000001 0.000000 0.000000 0.863925
 37   2.110540 -0.000001 0.000000 0.013735 0.075503 -0.337426
 38   0.891923 2.373051 -0.014527 -3.141592 -0.000001 1.413797
 39   7.228122 5.709445 3.726568 3.140796 -1.570796 0.000000
 40   2.450426 5.076128 0.001325 3.140791 -1.570796 0.000000
 41   6.312404 -4.528058 0.001311 3.140791 -1.570796 0.000000
 42   2.233309 1.152535 -7.309138 -0.867283 -1.589640 -0.928203
 43   4.262825 -0.232720 -1.392178 0.016840 0.076668 0.253759
time 10
  0   3.919520 6.131489 39.069500 0.000000 0.000000 -1.312360
  1   -0.730164 -0.703146 0.000000 -0.000030 -1.665965 -1.570772
  2   -0.000007 0.000008 4.427393 -0.166691 -3.035739 -0.009641
  3   18.465939 0.000000 0.000000 0.000000 0.000000 -0.388996
  4   14.875443 0.000000 -0.000001 0.365859 0.002900 0.363674
  5   0.000006 -0.000004 -4.427393 0.156541 3.124944 -0.100569
  6   18.465939 0.000000 0.000000 0.000000 0.000000 -0.001959
  7   14.875442 0.000000 0.000000 0.302009 0.105119 -0.148452
  8   2.247394 -0.007574 -0.214847 0.118634 0.034275 0.062372
  9   9.514219 -0.009357 0.000000 0.003510 -0.017210 -0.040850
 10   11.751820 -0.001633 0.000000 0.000024 0.043599 0.439975
 11   -2.117496 0.858748 2.563789 0.142654 -1.359608 2.559719
 12   4.640941 0.000000 -0.000001 0.661208 0.877119 0.659433
 13   10.828049 0.000000 0.000000 0.000000 0.000000 -0.869228
 14   9.393337 -0.000001 0.000000 -1.569611 0.034172 0.000037
 15   1.442245 0.107454 -1.746177 1.686435 0.539209 0.325885
 16   1.063452 0.000000 0.000001 0.000000 0.000000 0.199056
 17   1.376307 -0.000001 0.000001 0.000000 0.000000 0.199049
 18   4.172846 -0.251366 -1.312744 0.008050 0.095731 0.148659
 19   1.215374 0.000002 0.000000 0.000000 0.000000 0.645758
 20   1.215371 -0.000002 0.000001 0.000000 0.000000 0.645758
 21   4.220534 -0.244854 -0.431465 0.001333 0.026242 0.148339
 22   1.350417 0.000000 0.000001 0.000000 0.000000 0.863926
 23   1.350410 -0.000001 -0.000001 0.000000 0.000000 0.863926
 24   -1.887021 0.858761 -2.731760 -0.675252 1.444488 2.032213
 25   4.640942 0.000000 0.000001 -0.207766 -1.186874 0.072064
 26   10.828047 0.000000 0.000001 0.000000 0.000000 -0.566493
 27   9.393339 0.000000 0.000000 1.569611 -0.034192 0.000001
 28   1.442245 0.107455 1.746178 -1.686405 -0.539236 0.325898
 29   1.063450 -0.000001 0.000000 0.000000 0.000000 0.199056
 30   1.376307 0.000000 0.000000 0.000000 0.000000 0.199059
 31   4.172847 -0.251365 1.312745 -0.008050 -0.095731 0.148659
 32   1.215373 -0.000001 0.000000 0.000000 0.000000 0.645746
 33   1.215372 0.000000 0.000000 0.000000 0.000000 0.645746
 34   4.220534 -0.244853 0.431466 -0.001333 -0.026242 0.148339
 35   1.350416 0.000000 -0.000001 0.000000 0.000000 0.863937
 36   1.350410 0.000000 0.000001 0.000000 0.000000 0.863925
 37   2.110540 -0.000001 0.000000 0.011589 0.046928 -0.276102
 38   0.891923 2.373051 -0.014527 -3.141592 -0.000001 1.413797
 39   7.228122 5.709445 3.726568 3.140796 -1.570796 0.000000
 40   2.450426 5.076128 0.001325 3.140791 -1.570796 0.000000
 41   6.312404 -4.528058 0.001311 3.140791 -1.570796 0.000000
 42   2.233309 1.152535 -7.309138 -1.340031 -1.527196 -0.396557
 43   4.262825 -0.232720 -1.392178 0.016840 0.076668 0.253759
time 11
  0   2.743095 6.461820 38.717926 0.000000 0.000000 -1.519549
  1   -0.253587 -0.398450 0.000000 -0.000030 -1.615305 -1.570772
  2   -0.000007 0.000008 4.427393 -0.168505 -3.095373 -0.007397
  3   18.465939 0.000000 0.000000 0.000000 0.000000 -0.411513
  4   14.875443 0.000000 -0.000001 0.153333 0.008093 0.387652
  5   0.000006 -0.000004 -4.427393 0.127934 3.113573 -0.250120
  6   18.465939 0.000000 0.000000 0.000000 0.000000 -0.208123
  7   14.875442 0.000000 0.000000 0.118982 0.039507 -0.049368
  8   2.255207 -0.007574 -0.097656 0.119307 0.006746 0.028424
  9   9.514219 -0.009357 0.000000 -0.002889 -0.006699 -0.070119
 10   11.751820 -0.001633 0.000000 0.000024 0.043599 0.439975
 11   -2.117496 0.858748 2.563789 0.355200 -1.383289 2.348393
 12   4.640941 0.000000 -0.000001 0.695297 0.982365 0.675882
 13   10.828049 0.000000 0.000000 0.000000 0.000000 -0.659773
 14   9.393337 -0.000001 0.000000 -1.569611 0.034172 0.000037
 15   1.442245 0.107454 -1.746177 1.686435 0.539209 0.325885
 16   1.063452 0.000000 0.000001 0.000000 0.000000 0.199056
 17   1.376307 -0.000001 0.000001 0.000000 0.000000 0.199049
 18   4.172846 -0.251366 -1.312744 0.008050 0.095731 0.148659
 19   1.215374 0.000002 0.000000 0.000000 0.000000 0.645758
 20   1.215371 -0.000002 0.000001 0.000000 0.000000 0.645758
 21   4.220534 -0.244854 -0.431465 0.001333 0.026242 0.148339
 22   1.350417 0.000000 0.000001 0.000000 0.000000 0.863926
 23   1.350410 -0.000001 -0.000001 0.000000 0.000000 0.863926
 24   -1.887021 0.858761 -2.731760 -0.789348 1.447043 1.918423
 25   4.640942 0.000000 0.000001 -0.415630 -1.188618 0.304722
 26   10.828047 0.000000 0.000001 0.000000 0.000000 -0.392016
 27   9.393339 0.000000 0.000000 1.569611 -0.034192 0.000001
 28   1.442245 0.107455 1.746178 -1.686405 -0.539236 0.325898
 29   1.063450 -0.000001 0.000000 0.000000 0.000000 0.199056
 30   1.376307 0.000000 0.000000 0.000000 0.000000 0.199059
 31   4.172847 -0.251365 1.312745 -0.008050 -0.095731 0.148659
 32   1.215373 -0.000001 0.000000 0.000000 0.000000 0.645746
 33   1.215372 0.000000 0.000000 0.000000 0.000000 0.645746
 34   4.220534 -0.244853 0.431466 -0.001333 -0.026242 0.148339
 35   1.350416 0.000000 -0.000001 0.000000 0.000000 0.863937
 36   1.350410 0.000000 0.000001 0.000000 0.000000 0.863925
 37   2.110540 -0.000001 0.000000 0.007535 0.016341 -0.210907
 38   0.891923 2.373051 -0.014527 -3.141592 -0.000001 1.413797
 39   7.228122 5.709445 3.726568 3.140796 -1.570796 0.000000
 40   2.450426 5.076128 0.001325 3.140791 -1.570796 0.000000
 41   6.312404 -4.528058 0.001311 3.140791 -1.570796 0.000000
 42   2.233309 1.152535 -7.309138 -1.241857 -1.553350 -0.590718
 43   4.262825 -0.232720 -1.392178 0.016840 0.076668 0.253759
time 12
  0   1.708652 6.792152 38.409325 0.000000 0.000000 -1.701715
  1   0.164395 -0.125004 0.000000 -1.570795 -1.570451 0.000000
  2   -0.000007 0.000008 4.427393 -0.170796 -3.152960 0.000882
  3   18.465939 0.000000 0.000000 0.000000 0.000000 -0.416557
  4   14.875443 0.000000 -0.000001 0.018451 0.017437 0.402071
  5   0.000006 -0.000004 -4.427393 0.106024 3.095677 -0.362237
  6   18.465939 0.000000 0.000000 0.000000 0.000000 -0.394334
  7   14.875442 0.000000 0.000000 -0.002065 0.005199 0.029344
  8   2.255207 -0.007574 0.000003 0.122100 -0.017403 -0.001322
  9   9.514219 -0.009357 0.000000 -0.008787 0.002361 -0.095902
 10   11.751820 -0.001633 0.000000 0.000024 0.043599 0.439975
 11   -2.117496 0.858748 2.563789 0.697276 -1.395375 2.006330
 12   4.640941 0.000000 -0.000001 0.738474 1.089884 0.724820
 13   10.828049 0.000000 0.000000 0.000000 0.000000 -0.470452
 14   9.393337 -0.000001 0.000000 -1.569611 0.034172 0.000037
 15   1.442245 0.107454 -1.746177 1.686435 0.539209 0.325885
 16   1.063452 0.000000 0.000001 0.000000 0.000000 0.199056
 17   1.376307 -0.000001 0.000001 0.000000 0.000000 0.199049
 18   4.172846 -0.251366 -1.312744 0.008050 0.095731 0.148659
 19   1.215374 0.000002 0.000000 0.000000 0.000000 0.645758
 20   1.215371 -0.000002 0.000001 0.000000 0.000000 0.645758
 21   4.220534 -0.244854 -0.431465 0.001333 0.026242 0.148339
 22   1.350417 0.000000 0.000001 0.000000 0.000000 0.863926
 23   1.350410 -0.000001 -0.000001 0.000000 0.000000 0.863926
 24   -1.887021 0.858761 -2.731760 -0.942471 1.461434 1.764317
 25   4.640942 0.000000 0.000001 -0.601473 -1.183875 0.506934
 26   10.828047 0.000000 0.000001 0.000000 0.000000 -0.234266
 27   9.393339 0.000000 0.000000 1.569611 -0.034192 0.000001
 28   1.442245 0.107455 1.746178 -1.686405 -0.539236 0.325898
 29   1.063450 -0.000001 0.000000 0.000000 0.000000 0.199056
 30   1.376307 0.000000 0.000000 0.000000 0.000000 0.199059
 31   4.172847 -0.251365 1.312745 -0.008050 -0.095731 0.148659
 32   1.215373 -0.000001 0.000000 0.000000 0.000000 0.645746
 33   1.215372 0.000000 0.000000 0.000000 0.000000 0.645746
 34   4.220534 -0.244853 0.431466 -0.001333 -0.026242 0.148339
 35   1.350416 0.000000 -0.000001 0.000000 0.000000 0.863937
 36   1.350410 0.000000 0.000001 0.000000 0.000000 0.863925
 37   2.110540 -0.000001 0.000000 0.002432 -0.010503 -0.153668
 38   0.891923 2.373051 -0.014527 -3.141592 -0.000001 1.413797
 39   7.228122 5.709445 3.726568 3.140796 -1.570796 0.000000
 40   2.450426 5.076128 0.001325 3.140791 -1.570796 0.000000
 41   6.312404 -4.528058 0.001311 3.140791 -1.570796 0.000000
 42   2.233309 1.152535 -7.309138 -1.954765 -1.570796 0.000000
 43   4.262825 -0.232720 -1.392178 0.016840 0.076668 0.253759
end
