version 1
nodes
  0 "Receiver.b" -1
  1 "trigger" 0
  2 "bolt" 0
  3 "Mag" -1
  4 "SphereGizmo03" -1
  5 "Dummy04" 4
  6 "Bone24" 5
  7 "Bone25" 6
  8 "Bone26" 7
  9 "Bone43" 8
 10 "Bone44" 9
 11 "Bone45" 10
 12 "Bone39" 8
 13 "Bone40" 12
 14 "Bone41" 13
 15 "Bone35" 8
 16 "Bone36" 15
 17 "Bone37" 16
 18 "Bone31" 8
 19 "Bone32" 18
 20 "Bone33" 19
 21 "Bone27" 8
 22 "Bone28" 21
 23 "Bone29" 22
 24 "Dummy02" 4
 25 "Bone01" 24
 26 "Bone02" 25
 27 "Bone03" 26
 28 "Bone04" 27
 29 "Bone05" 28
 30 "Bone06" 29
 31 "Bone16" 27
 32 "Bone17" 31
 33 "Bone18" 32
 34 "Bone12" 27
 35 "Bone13" 34
 36 "Bone14" 35
 37 "Bone08" 27
 38 "Bone09" 37
 39 "Bone10" 38
 40 "Bone20" 27
 41 "Bone21" 40
 42 "Bone22" 41
end
skeleton
time 0
  0   -4.081718 -8.885842 -3.598324 1.570818 0.107018 -0.000273
  1   0.111793 -1.375723 0.632810 0.301837 0.031925 0.004855
  2   4.350997 -49.665867 -4.743345 0.000000 0.000000 0.000000
  3   -4.068120 -13.097697 -7.184452 1.263664 0.102043 -0.032450
  4   -0.489025 14.281685 -7.919792 0.000000 0.000000 -0.000062
  5   -15.338515 -10.040536 0.367200 0.133039 -0.034446 6.278172
  6   -0.003387 0.015761 0.000000 -0.051370 -0.091307 -0.228347
  7   8.473085 -0.000001 0.000000 -3.141592 0.000000 -1.005665
  8   8.737238 0.000001 0.000000 1.431937 -0.069902 0.343434
  9   2.259233 1.146023 -0.312235 0.000000 -1.249516 -0.011300
 10   1.066370 -0.000056 0.000000 0.073142 -1.064476 -0.076931
 11   0.974713 -0.000094 0.000000 -0.000084 -0.898400 -0.006746
 12   2.532812 0.476064 -0.312234 0.000000 -1.249516 -0.038272
 13   1.343066 -0.000036 0.000000 -0.000455 -1.065959 -0.035026
 14   0.892175 0.000001 0.000000 -0.000084 -0.905307 -0.029863
 15   2.587555 -0.113644 -0.312234 0.000000 -1.249516 -0.019515
 16   1.424858 -0.000001 0.000000 0.000000 -1.065959 -0.024985
 17   0.982678 -0.000001 0.000000 0.000000 -0.907239 -0.016613
 18   2.527048 -0.796803 -0.312234 0.000000 0.000000 -0.183889
 19   1.365153 0.000000 0.000000 0.104302 -1.790603 -0.157279
 20   0.951159 0.000001 0.000000 0.009983 -0.445132 -0.008037
 21   0.457618 -1.069485 0.220609 0.077480 -0.812912 -0.502659
 22   1.214084 0.000001 0.000000 0.000000 0.000000 0.751993
 23   0.888922 -0.000001 0.000000 0.000000 0.000000 0.199289
 24   9.624104 -17.857193 -1.635579 0.000000 2.896706 -0.000475
 25   -0.003387 0.018327 0.000000 0.121034 0.389387 -0.474334
 26   8.473085 0.000000 0.000000 0.000000 0.000000 -0.563573
 27   8.737236 0.000001 0.000000 0.003010 -0.134288 0.733983
 28   2.519908 -0.796944 0.238411 0.000000 1.162746 0.028362
 29   1.365153 0.000000 0.000001 0.022160 0.854590 -0.018054
 30   0.857406 0.000000 -0.000001 0.000000 0.000000 -0.008984
 31   2.258546 1.052112 0.238412 0.001103 1.133039 0.101600
 32   1.066371 -0.000056 0.000000 -0.036601 0.852968 -0.106784
 33   0.931743 -0.000095 0.000000 0.000000 0.000000 -0.006902
 34   2.529451 0.408675 0.238411 0.000000 1.163012 0.092136
 35   1.343065 -0.000036 0.000001 -0.006807 0.854468 -0.073065
 36   0.942958 0.000001 -0.000001 0.000000 0.000000 -0.030510
 37   2.586963 -0.188143 0.238411 0.000000 1.331637 0.049964
 38   1.424857 -0.000001 0.000000 0.004950 0.854872 -0.043981
 39   1.127214 -0.000002 0.000000 0.000000 0.000000 -0.016769
 40   0.463661 -1.047538 -0.337884 0.197866 0.639194 -1.135355
 41   1.214084 0.000000 0.000000 0.000000 0.000000 0.053309
 42   0.888923 0.000001 0.000000 0.000000 0.000000 0.200487
time 1
  0   -4.241879 -7.881906 -3.695983 1.552410 0.063468 -0.007900
  1   0.111793 -1.375723 0.632810 0.307733 0.032488 0.004951
  2   4.350997 -49.665867 -4.743345 0.000000 0.000000 0.000000
  3   -4.107184 -12.160169 -7.203984 1.246585 0.057880 -0.039943
  4   -0.489025 14.281685 -7.919792 0.000000 0.000000 -0.000062
  5   -15.338515 -10.040536 0.367200 0.133039 -0.034446 6.278172
  6   -0.003387 0.015761 0.000000 -0.048721 -0.073458 -0.109383
  7   8.473085 -0.000001 0.000000 -3.141592 0.000000 -1.149209
  8   8.737238 0.000001 0.000000 1.485815 -0.037386 0.317497
  9   2.259233 1.146023 -0.312235 0.000000 -1.249516 -0.011300
 10   1.066370 -0.000056 0.000000 0.073142 -1.064476 -0.076931
 11   0.974713 -0.000094 0.000000 -0.000084 -0.898400 -0.006746
 12   2.532812 0.476064 -0.312234 0.000000 -1.249516 -0.038272
 13   1.343066 -0.000036 0.000000 -0.000455 -1.065959 -0.035026
 14   0.892175 0.000001 0.000000 -0.000084 -0.905307 -0.029863
 15   2.587555 -0.113644 -0.312234 0.000000 -1.249516 -0.019515
 16   1.424858 -0.000001 0.000000 0.000000 -1.065959 -0.024985
 17   0.982678 -0.000001 0.000000 0.000000 -0.907239 -0.016613
 18   2.527048 -0.796803 -0.312234 0.000000 0.000000 -0.183889
 19   1.365153 0.000000 0.000000 0.111732 -1.801244 -0.165189
 20   0.951159 0.000001 0.000000 0.009983 -0.445132 -0.008037
 21   0.457618 -1.069485 0.220609 0.077480 -0.812912 -0.502659
 22   1.214084 0.000001 0.000000 0.000000 0.000000 0.751993
 23   0.888922 -0.000001 0.000000 0.000000 0.000000 0.199289
 24   9.624104 -17.857193 -1.635579 0.000000 2.896706 -0.000475
 25   -0.003387 0.018327 0.000000 0.167090 0.393745 -0.319722
 26   8.473085 0.000000 0.000000 0.000000 0.000000 -0.749550
 27   8.737236 0.000001 0.000000 0.042159 -0.193607 0.791830
 28   2.519908 -0.796944 0.238411 0.000000 1.162746 0.028362
 29   1.365153 0.000000 0.000001 0.022160 0.854590 -0.018054
 30   0.857406 0.000000 -0.000001 0.000000 0.000000 -0.008984
 31   2.258546 1.052112 0.238412 0.001103 1.133039 0.101600
 32   1.066371 -0.000056 0.000000 -0.036601 0.852968 -0.106784
 33   0.931743 -0.000095 0.000000 0.000000 0.000000 -0.006902
 34   2.529451 0.408675 0.238411 0.000000 1.163012 0.092136
 35   1.343065 -0.000036 0.000001 -0.006807 0.854468 -0.073065
 36   0.942958 0.000001 -0.000001 0.000000 0.000000 -0.030510
 37   2.586963 -0.188143 0.238411 0.000000 1.331637 0.049964
 38   1.424857 -0.000001 0.000000 0.004950 0.854872 -0.043981
 39   1.127214 -0.000002 0.000000 0.000000 0.000000 -0.016769
 40   0.463661 -1.047538 -0.337884 0.197866 0.639194 -1.135355
 41   1.214084 0.000000 0.000000 0.000000 0.000000 0.053309
 42   0.888923 0.000001 0.000000 0.000000 0.000000 0.200487
time 2
  0   -4.323913 -7.452205 -3.738953 1.544282 0.044668 -0.011276
  1   0.111793 -1.375723 0.632810 0.314912 0.033243 0.005059
  2   4.350997 -49.665867 -4.743345 0.000000 0.000000 0.000000
  3   -4.130622 -11.761719 -7.215703 1.239130 0.038838 -0.043315
  4   -0.489025 14.281685 -7.919792 0.000000 0.000000 -0.000062
  5   -15.338515 -10.040536 0.367200 0.133039 -0.034446 6.278172
  6   -0.003387 0.015761 0.000000 -0.046444 -0.066017 -0.061624
  7   8.473085 -0.000001 0.000000 -3.141592 0.000000 -1.203121
  8   8.737238 0.000001 0.000000 1.509510 -0.023277 0.311059
  9   2.259233 1.146023 -0.312235 0.000000 -1.249516 -0.011300
 10   1.066370 -0.000056 0.000000 0.073142 -1.064476 -0.076931
 11   0.974713 -0.000094 0.000000 -0.000084 -0.898400 -0.006746
 12   2.532812 0.476064 -0.312234 0.000000 -1.249516 -0.038272
 13   1.343066 -0.000036 0.000000 -0.000455 -1.065959 -0.035026
 14   0.892175 0.000001 0.000000 -0.000084 -0.905307 -0.029863
 15   2.587555 -0.113644 -0.312234 0.000000 -1.249516 -0.019515
 16   1.424858 -0.000001 0.000000 0.000000 -1.065959 -0.024985
 17   0.982678 -0.000001 0.000000 0.000000 -0.907239 -0.016613
 18   2.527048 -0.796803 -0.312234 0.000000 0.000000 -0.183889
 19   1.365153 0.000000 0.000000 0.121560 -1.815623 -0.175544
 20   0.951159 0.000001 0.000000 0.009983 -0.445132 -0.008037
 21   0.457618 -1.069485 0.220609 0.077480 -0.812912 -0.502659
 22   1.214084 0.000001 0.000000 0.000000 0.000000 0.751993
 23   0.888922 -0.000001 0.000000 0.000000 0.000000 0.199289
 24   9.624104 -17.857193 -1.635579 0.000000 2.896706 -0.000475
 25   -0.003387 0.018327 0.000000 0.183234 0.395966 -0.263222
 26   8.473085 0.000000 0.000000 0.000000 0.000000 -0.808880
 27   8.737236 0.000001 0.000000 0.059922 -0.219351 0.805387
 28   2.519908 -0.796944 0.238411 0.000000 1.162746 0.028362
 29   1.365153 0.000000 0.000001 0.022160 0.854590 -0.018054
 30   0.857406 0.000000 -0.000001 0.000000 0.000000 -0.008984
 31   2.258546 1.052112 0.238412 0.001103 1.133039 0.101600
 32   1.066371 -0.000056 0.000000 -0.036601 0.852968 -0.106784
 33   0.931743 -0.000095 0.000000 0.000000 0.000000 -0.006902
 34   2.529451 0.408675 0.238411 0.000000 1.163012 0.092136
 35   1.343065 -0.000036 0.000001 -0.006807 0.854468 -0.073065
 36   0.942958 0.000001 -0.000001 0.000000 0.000000 -0.030510
 37   2.586963 -0.188143 0.238411 0.000000 1.331637 0.049964
 38   1.424857 -0.000001 0.000000 0.004950 0.854872 -0.043981
 39   1.127214 -0.000002 0.000000 0.000000 0.000000 -0.016769
 40   0.463661 -1.047538 -0.337884 0.197866 0.639194 -1.135355
 41   1.214084 0.000000 0.000000 0.000000 0.000000 0.053309
 42   0.888923 0.000001 0.000000 0.000000 0.000000 0.200487
time 3
  0   -4.312194 -7.624085 -3.727234 1.546775 0.050630 -0.010213
  1   0.111793 -1.375723 0.632810 0.322427 0.034034 0.005179
  2   4.350997 -49.665867 -4.743345 0.000000 0.000000 0.000000
  3   -4.130622 -11.917974 -7.203984 1.241435 0.044903 -0.042191
  4   -0.489025 14.281685 -7.919792 0.000000 0.000000 -0.000062
  5   -15.338515 -10.040536 0.367200 0.133039 -0.034446 6.278172
  6   -0.003387 0.015761 0.000000 -0.047295 -0.068634 -0.080197
  7   8.473085 -0.000001 0.000000 -3.141592 0.000000 -1.183987
  8   8.737238 0.000001 0.000000 1.501805 -0.027929 0.311798
  9   2.259233 1.146023 -0.312235 0.000000 -1.249516 -0.011300
 10   1.066370 -0.000056 0.000000 0.073142 -1.064476 -0.076931
 11   0.974713 -0.000094 0.000000 -0.000084 -0.898400 -0.006746
 12   2.532812 0.476064 -0.312234 0.000000 -1.249516 -0.038272
 13   1.343066 -0.000036 0.000000 -0.000455 -1.065959 -0.035026
 14   0.892175 0.000001 0.000000 -0.000084 -0.905307 -0.029863
 15   2.587555 -0.113644 -0.312234 0.000000 -1.249516 -0.019515
 16   1.424858 -0.000001 0.000000 0.000000 -1.065959 -0.024985
 17   0.982678 -0.000001 0.000000 0.000000 -0.907239 -0.016613
 18   2.527048 -0.796803 -0.312234 0.000000 0.000000 -0.183889
 19   1.365153 0.000000 0.000000 0.132586 -1.831900 -0.187145
 20   0.951159 0.000001 0.000000 0.009983 -0.445132 -0.008037
 21   0.457618 -1.069485 0.220609 0.077480 -0.812912 -0.502659
 22   1.214084 0.000001 0.000000 0.000000 0.000000 0.751993
 23   0.888922 -0.000001 0.000000 0.000000 0.000000 0.199289
 24   9.624104 -17.857193 -1.635579 0.000000 2.896706 -0.000475
 25   -0.003387 0.018327 0.000000 0.176306 0.395471 -0.286264
 26   8.473085 0.000000 0.000000 0.000000 0.000000 -0.782910
 27   8.737236 0.000001 0.000000 0.054093 -0.210450 0.798639
 28   2.519908 -0.796944 0.238411 0.000000 1.162746 0.028362
 29   1.365153 0.000000 0.000001 0.022160 0.854590 -0.018054
 30   0.857406 0.000000 -0.000001 0.000000 0.000000 -0.008984
 31   2.258546 1.052112 0.238412 0.001103 1.133039 0.101600
 32   1.066371 -0.000056 0.000000 -0.036601 0.852968 -0.106784
 33   0.931743 -0.000095 0.000000 0.000000 0.000000 -0.006902
 34   2.529451 0.408675 0.238411 0.000000 1.163012 0.092136
 35   1.343065 -0.000036 0.000001 -0.006807 0.854468 -0.073065
 36   0.942958 0.000001 -0.000001 0.000000 0.000000 -0.030510
 37   2.586963 -0.188143 0.238411 0.000000 1.331637 0.049964
 38   1.424857 -0.000001 0.000000 0.004950 0.854872 -0.043981
 39   1.127214 -0.000002 0.000000 0.000000 0.000000 -0.016769
 40   0.463661 -1.047538 -0.337884 0.197866 0.639194 -1.135355
 41   1.214084 0.000000 0.000000 0.000000 0.000000 0.053309
 42   0.888923 0.000001 0.000000 0.000000 0.000000 0.200487
time 4
  0   -4.249692 -8.108475 -3.684264 1.555074 0.070396 -0.006712
  1   0.111793 -1.375723 0.632810 0.329198 0.034753 0.005239
  2   4.350997 -49.665867 -4.743345 0.000000 0.000000 0.000000
  3   -4.130622 -12.378925 -7.203984 1.248991 0.064942 -0.038819
  4   -0.489025 14.281685 -7.919792 0.000000 0.000000 -0.000062
  5   -15.338515 -10.040536 0.367200 0.133039 -0.034446 6.278172
  6   -0.003387 0.015761 0.000000 -0.049524 -0.076851 -0.135049
  7   8.473085 -0.000001 0.000000 -3.141592 0.000000 -1.123331
  8   8.737238 0.000001 0.000000 1.477067 -0.043029 0.317651
  9   2.259233 1.146023 -0.312235 0.000000 -1.249516 -0.011300
 10   1.066370 -0.000056 0.000000 0.073142 -1.064476 -0.076931
 11   0.974713 -0.000094 0.000000 -0.000084 -0.898400 -0.006746
 12   2.532812 0.476064 -0.312234 0.000000 -1.249516 -0.038272
 13   1.343066 -0.000036 0.000000 -0.000455 -1.065959 -0.035026
 14   0.892175 0.000001 0.000000 -0.000084 -0.905307 -0.029863
 15   2.587555 -0.113644 -0.312234 0.000000 -1.249516 -0.019515
 16   1.424858 -0.000001 0.000000 0.000000 -1.065959 -0.024985
 17   0.982678 -0.000001 0.000000 0.000000 -0.907239 -0.016613
 18   2.527048 -0.796803 -0.312234 0.000000 0.000000 -0.183889
 19   1.365153 0.000000 0.000000 0.143659 -1.848580 -0.198842
 20   0.951159 0.000001 0.000000 0.009983 -0.445132 -0.008037
 21   0.457618 -1.069485 0.220609 0.077480 -0.812912 -0.502659
 22   1.214084 0.000001 0.000000 0.000000 0.000000 0.751993
 23   0.888922 -0.000001 0.000000 0.000000 0.000000 0.199289
 24   9.624104 -17.857193 -1.635579 0.000000 2.896706 -0.000475
 25   -0.003387 0.018327 0.000000 0.155477 0.393591 -0.356471
 26   8.473085 0.000000 0.000000 0.000000 0.000000 -0.702693
 27   8.737236 0.000001 0.000000 0.035621 -0.182475 0.776617
 28   2.519908 -0.796944 0.238411 0.000000 1.162746 0.028362
 29   1.365153 0.000000 0.000001 0.022160 0.854590 -0.018054
 30   0.857406 0.000000 -0.000001 0.000000 0.000000 -0.008984
 31   2.258546 1.052112 0.238412 0.001103 1.133039 0.101600
 32   1.066371 -0.000056 0.000000 -0.036601 0.852968 -0.106784
 33   0.931743 -0.000095 0.000000 0.000000 0.000000 -0.006902
 34   2.529451 0.408675 0.238411 0.000000 1.163012 0.092136
 35   1.343065 -0.000036 0.000001 -0.006807 0.854468 -0.073065
 36   0.942958 0.000001 -0.000001 0.000000 0.000000 -0.030510
 37   2.586963 -0.188143 0.238411 0.000000 1.331637 0.049964
 38   1.424857 -0.000001 0.000000 0.004950 0.854872 -0.043981
 39   1.127214 -0.000002 0.000000 0.000000 0.000000 -0.016769
 40   0.463661 -1.047538 -0.337884 0.197866 0.639194 -1.135355
 41   1.214084 0.000000 0.000000 0.000000 0.000000 0.053309
 42   0.888923 0.000001 0.000000 0.000000 0.000000 0.200487
time 5
  0   -4.175471 -8.659273 -3.629575 1.564568 0.092815 -0.002711
  1   0.111793 -1.375723 0.632810 0.334255 0.035353 0.005310
  2   4.350997 -49.665867 -4.743345 0.000000 0.000000 0.000000
  3   -4.122809 -12.886753 -7.192265 1.257971 0.087727 -0.035010
  4   -0.489025 14.281685 -7.919792 0.000000 0.000000 -0.000062
  5   -15.338515 -10.040536 0.367200 0.133039 -0.034446 6.278172
  6   -0.003387 0.015761 0.000000 -0.051010 -0.086286 -0.199540
  7   8.473085 -0.000001 0.000000 -3.141592 0.000000 -1.047305
  8   8.737238 0.000001 0.000000 1.449317 -0.060180 0.329757
  9   2.259233 1.146023 -0.312235 0.000000 -1.249516 -0.011300
 10   1.066370 -0.000056 0.000000 0.073142 -1.064476 -0.076931
 11   0.974713 -0.000094 0.000000 -0.000084 -0.898400 -0.006746
 12   2.532812 0.476064 -0.312234 0.000000 -1.249516 -0.038272
 13   1.343066 -0.000036 0.000000 -0.000455 -1.065959 -0.035026
 14   0.892175 0.000001 0.000000 -0.000084 -0.905307 -0.029863
 15   2.587555 -0.113644 -0.312234 0.000000 -1.249516 -0.019515
 16   1.424858 -0.000001 0.000000 0.000000 -1.065959 -0.024985
 17   0.982678 -0.000001 0.000000 0.000000 -0.907239 -0.016613
 18   2.527048 -0.796803 -0.312234 0.000000 0.000000 -0.183889
 19   1.365153 0.000000 0.000000 0.153630 -1.863937 -0.209340
 20   0.951159 0.000001 0.000000 0.009983 -0.445132 -0.008037
 21   0.457618 -1.069485 0.220609 0.077480 -0.812912 -0.502659
 22   1.214084 0.000001 0.000000 0.000000 0.000000 0.751993
 23   0.888922 -0.000001 0.000000 0.000000 0.000000 0.199289
 24   9.624104 -17.857193 -1.635579 0.000000 2.896706 -0.000475
 25   -0.003387 0.018327 0.000000 0.129135 0.391540 -0.443382
 26   8.473085 0.000000 0.000000 0.000000 0.000000 -0.595395
 27   8.737236 0.000001 0.000000 0.015377 -0.151220 0.741896
 28   2.519908 -0.796944 0.238411 0.000000 1.162746 0.028362
 29   1.365153 0.000000 0.000001 0.022160 0.854590 -0.018054
 30   0.857406 0.000000 -0.000001 0.000000 0.000000 -0.008984
 31   2.258546 1.052112 0.238412 0.001103 1.133039 0.101600
 32   1.066371 -0.000056 0.000000 -0.036601 0.852968 -0.106784
 33   0.931743 -0.000095 0.000000 0.000000 0.000000 -0.006902
 34   2.529451 0.408675 0.238411 0.000000 1.163012 0.092136
 35   1.343065 -0.000036 0.000001 -0.006807 0.854468 -0.073065
 36   0.942958 0.000001 -0.000001 0.000000 0.000000 -0.030510
 37   2.586963 -0.188143 0.238411 0.000000 1.331637 0.049964
 38   1.424857 -0.000001 0.000000 0.004950 0.854872 -0.043981
 39   1.127214 -0.000002 0.000000 0.000000 0.000000 -0.016769
 40   0.463661 -1.047538 -0.337884 0.197866 0.639194 -1.135355
 41   1.214084 0.000000 0.000000 0.000000 0.000000 0.053309
 42   0.888923 0.000001 0.000000 0.000000 0.000000 0.200487
time 6
  0   -4.136407 -9.006940 -3.598324 1.570818 0.107018 -0.000273
  1   0.111793 -1.375723 0.632810 0.336844 0.035556 0.005358
  2   4.350997 -49.665867 -4.743345 0.000000 0.000000 0.000000
  3   -4.122809 -13.218795 -7.184452 1.263664 0.102043 -0.032450
  4   -0.489025 14.281685 -7.919792 0.000000 0.000000 -0.000062
  5   -15.338515 -10.040536 0.367200 0.133039 -0.034446 6.278172
  6   -0.003387 0.015761 0.000000 -0.051322 -0.092357 -0.241992
  7   8.473085 -0.000001 0.000000 -3.141592 0.000000 -0.994765
  8   8.737238 0.000001 0.000000 1.431937 -0.071137 0.340569
  9   2.259233 1.146023 -0.312235 0.000000 -1.249516 -0.011300
 10   1.066370 -0.000056 0.000000 0.073142 -1.064476 -0.076931
 11   0.974713 -0.000094 0.000000 -0.000084 -0.898400 -0.006746
 12   2.532812 0.476064 -0.312234 0.000000 -1.249516 -0.038272
 13   1.343066 -0.000036 0.000000 -0.000455 -1.065959 -0.035026
 14   0.892175 0.000001 0.000000 -0.000084 -0.905307 -0.029863
 15   2.587555 -0.113644 -0.312234 0.000000 -1.249516 -0.019515
 16   1.424858 -0.000001 0.000000 0.000000 -1.065959 -0.024985
 17   0.982678 -0.000001 0.000000 0.000000 -0.907239 -0.016613
 18   2.527048 -0.796803 -0.312234 0.000000 0.000000 -0.183889
 19   1.365153 0.000000 0.000000 0.161588 -1.876073 -0.217777
 20   0.951159 0.000001 0.000000 0.009983 -0.445132 -0.008037
 21   0.457618 -1.069485 0.220609 0.077480 -0.812912 -0.502659
 22   1.214084 0.000001 0.000000 0.000000 0.000000 0.751993
 23   0.888922 -0.000001 0.000000 0.000000 0.000000 0.199289
 24   9.624104 -17.857193 -1.635579 0.000000 2.896706 -0.000475
 25   -0.003387 0.018327 0.000000 0.109996 0.390259 -0.505237
 26   8.473085 0.000000 0.000000 0.000000 0.000000 -0.513427
 27   8.737236 0.000001 0.000000 0.002813 -0.131745 0.712390
 28   2.519908 -0.796944 0.238411 0.000000 1.162746 0.028362
 29   1.365153 0.000000 0.000001 0.022160 0.854590 -0.018054
 30   0.857406 0.000000 -0.000001 0.000000 0.000000 -0.008984
 31   2.258546 1.052112 0.238412 0.001103 1.133039 0.101600
 32   1.066371 -0.000056 0.000000 -0.036601 0.852968 -0.106784
 33   0.931743 -0.000095 0.000000 0.000000 0.000000 -0.006902
 34   2.529451 0.408675 0.238411 0.000000 1.163012 0.092136
 35   1.343065 -0.000036 0.000001 -0.006807 0.854468 -0.073065
 36   0.942958 0.000001 -0.000001 0.000000 0.000000 -0.030510
 37   2.586963 -0.188143 0.238411 0.000000 1.331637 0.049964
 38   1.424857 -0.000001 0.000000 0.004950 0.854872 -0.043981
 39   1.127214 -0.000002 0.000000 0.000000 0.000000 -0.016769
 40   0.463661 -1.047538 -0.337884 0.197866 0.639194 -1.135355
 41   1.214084 0.000000 0.000000 0.000000 0.000000 0.053309
 42   0.888923 0.000001 0.000000 0.000000 0.000000 0.200487
time 7
  0   -4.120782 -9.139756 -3.590511 1.573789 0.112362 0.000915
  1   0.111793 -1.375723 0.632810 0.335753 0.035448 0.005334
  2   4.350997 -49.665867 -4.743345 0.000000 0.000000 0.000000
  3   -4.122809 -13.324266 -7.184452 1.266375 0.107466 -0.031514
  4   -0.489025 14.281685 -7.919792 0.000000 0.000000 -0.000062
  5   -15.338515 -10.040536 0.367200 0.133039 -0.034446 6.278172
  6   -0.003387 0.015761 0.000000 -0.051358 -0.094731 -0.258345
  7   8.473085 -0.000001 0.000000 -3.141592 0.000000 -0.974298
  8   8.737238 0.000001 0.000000 1.425275 -0.075854 0.345036
  9   2.259233 1.146023 -0.312235 0.000000 -1.249516 -0.011300
 10   1.066370 -0.000056 0.000000 0.073142 -1.064476 -0.076931
 11   0.974713 -0.000094 0.000000 -0.000084 -0.898400 -0.006746
 12   2.532812 0.476064 -0.312234 0.000000 -1.249516 -0.038272
 13   1.343066 -0.000036 0.000000 -0.000455 -1.065959 -0.035026
 14   0.892175 0.000001 0.000000 -0.000084 -0.905307 -0.029863
 15   2.587555 -0.113644 -0.312234 0.000000 -1.249516 -0.019515
 16   1.424858 -0.000001 0.000000 0.000000 -1.065959 -0.024985
 17   0.982678 -0.000001 0.000000 0.000000 -0.907239 -0.016613
 18   2.527048 -0.796803 -0.312234 0.000000 0.000000 -0.183889
 19   1.365153 0.000000 0.000000 0.166526 -1.883550 -0.222907
 20   0.951159 0.000001 0.000000 0.009983 -0.445132 -0.008037
 21   0.457618 -1.069485 0.220609 0.077480 -0.812912 -0.502659
 22   1.214084 0.000001 0.000000 0.000000 0.000000 0.751993
 23   0.888922 -0.000001 0.000000 0.000000 0.000000 0.199289
 24   9.624104 -17.857193 -1.635579 0.000000 2.896706 -0.000475
 25   -0.003387 0.018327 0.000000 0.101487 0.389609 -0.531767
 26   8.473085 0.000000 0.000000 0.000000 0.000000 -0.476223
 27   8.737236 0.000001 0.000000 -0.002228 -0.124383 0.697974
 28   2.519908 -0.796944 0.238411 0.000000 1.162746 0.028362
 29   1.365153 0.000000 0.000001 0.022160 0.854590 -0.018054
 30   0.857406 0.000000 -0.000001 0.000000 0.000000 -0.008984
 31   2.258546 1.052112 0.238412 0.001103 1.133039 0.101600
 32   1.066371 -0.000056 0.000000 -0.036601 0.852968 -0.106784
 33   0.931743 -0.000095 0.000000 0.000000 0.000000 -0.006902
 34   2.529451 0.408675 0.238411 0.000000 1.163012 0.092136
 35   1.343065 -0.000036 0.000001 -0.006807 0.854468 -0.073065
 36   0.942958 0.000001 -0.000001 0.000000 0.000000 -0.030510
 37   2.586963 -0.188143 0.238411 0.000000 1.331637 0.049964
 38   1.424857 -0.000001 0.000000 0.004950 0.854872 -0.043981
 39   1.127214 -0.000002 0.000000 0.000000 0.000000 -0.016769
 40   0.463661 -1.047538 -0.337884 0.197866 0.639194 -1.135355
 41   1.214084 0.000000 0.000000 0.000000 0.000000 0.053309
 42   0.888923 0.000001 0.000000 0.000000 0.000000 0.200487
time 8
  0   -4.105156 -9.225697 -3.578792 1.576453 0.116019 0.001477
  1   0.111793 -1.375723 0.632810 0.330229 0.034861 0.005250
  2   4.350997 -49.665867 -4.743345 0.000000 0.000000 0.000000
  3   -4.122809 -13.418019 -7.192265 1.268849 0.111209 -0.030764
  4   -0.489025 14.281685 -7.919792 0.000000 0.000000 -0.000062
  5   -15.338515 -10.040536 0.367200 0.133039 -0.034446 6.278172
  6   -0.003387 0.015761 0.000000 -0.051370 -0.096359 -0.268850
  7   8.473085 -0.000001 0.000000 -3.141592 0.000000 -0.961163
  8   8.737238 0.000001 0.000000 1.420756 -0.079712 0.348332
  9   2.259233 1.146023 -0.312235 0.000000 -1.249516 -0.011300
 10   1.066370 -0.000056 0.000000 0.073142 -1.064476 -0.076931
 11   0.974713 -0.000094 0.000000 -0.000084 -0.898400 -0.006746
 12   2.532812 0.476064 -0.312234 0.000000 -1.249516 -0.038272
 13   1.343066 -0.000036 0.000000 -0.000455 -1.065959 -0.035026
 14   0.892175 0.000001 0.000000 -0.000084 -0.905307 -0.029863
 15   2.587555 -0.113644 -0.312234 0.000000 -1.249516 -0.019515
 16   1.424858 -0.000001 0.000000 0.000000 -1.065959 -0.024985
 17   0.982678 -0.000001 0.000000 0.000000 -0.907239 -0.016613
 18   2.527048 -0.796803 -0.312234 0.000000 0.000000 -0.183889
 19   1.365153 0.000000 0.000000 0.167149 -1.884700 -0.223578
 20   0.951159 0.000001 0.000000 0.009983 -0.445132 -0.008037
 21   0.457618 -1.069485 0.220609 0.077480 -0.812912 -0.502659
 22   1.214084 0.000001 0.000000 0.000000 0.000000 0.751993
 23   0.888922 -0.000001 0.000000 0.000000 0.000000 0.199289
 24   9.624104 -17.857193 -1.635579 0.000000 2.896706 -0.000475
 25   -0.003387 0.018327 0.000000 0.096549 0.388806 -0.547341
 26   8.473085 0.000000 0.000000 0.000000 0.000000 -0.455037
 27   8.737236 0.000001 0.000000 -0.006206 -0.119475 0.689938
 28   2.519908 -0.796944 0.238411 0.000000 1.162746 0.028362
 29   1.365153 0.000000 0.000001 0.022160 0.854590 -0.018054
 30   0.857406 0.000000 -0.000001 0.000000 0.000000 -0.008984
 31   2.258546 1.052112 0.238412 0.001103 1.133039 0.101600
 32   1.066371 -0.000056 0.000000 -0.036601 0.852968 -0.106784
 33   0.931743 -0.000095 0.000000 0.000000 0.000000 -0.006902
 34   2.529451 0.408675 0.238411 0.000000 1.163012 0.092136
 35   1.343065 -0.000036 0.000001 -0.006807 0.854468 -0.073065
 36   0.942958 0.000001 -0.000001 0.000000 0.000000 -0.030510
 37   2.586963 -0.188143 0.238411 0.000000 1.331637 0.049964
 38   1.424857 -0.000001 0.000000 0.004950 0.854872 -0.043981
 39   1.127214 -0.000002 0.000000 0.000000 0.000000 -0.016769
 40   0.463661 -1.047538 -0.337884 0.197866 0.639194 -1.135355
 41   1.214084 0.000000 0.000000 0.000000 0.000000 0.053309
 42   0.888923 0.000001 0.000000 0.000000 0.000000 0.200487
time 9
  0   -4.105156 -9.272573 -3.578792 1.578741 0.118195 0.002103
  1   0.111793 -1.375723 0.632810 0.319263 0.033759 0.005131
  2   4.350997 -49.665867 -4.743345 0.000000 0.000000 0.000000
  3   -4.118903 -13.449270 -7.196171 1.271187 0.113463 -0.030390
  4   -0.489025 14.281685 -7.919792 0.000000 0.000000 -0.000062
  5   -15.338515 -10.040536 0.367200 0.133039 -0.034446 6.278172
  6   -0.003387 0.015761 0.000000 -0.051453 -0.097348 -0.273940
  7   8.473085 -0.000001 0.000000 -3.141592 0.000000 -0.954380
  8   8.737238 0.000001 0.000000 1.418033 -0.082776 0.350396
  9   2.259233 1.146023 -0.312235 0.000000 -1.249516 -0.011300
 10   1.066370 -0.000056 0.000000 0.073142 -1.064476 -0.076931
 11   0.974713 -0.000094 0.000000 -0.000084 -0.898400 -0.006746
 12   2.532812 0.476064 -0.312234 0.000000 -1.249516 -0.038272
 13   1.343066 -0.000036 0.000000 -0.000455 -1.065959 -0.035026
 14   0.892175 0.000001 0.000000 -0.000084 -0.905307 -0.029863
 15   2.587555 -0.113644 -0.312234 0.000000 -1.249516 -0.019515
 16   1.424858 -0.000001 0.000000 0.000000 -1.065959 -0.024985
 17   0.982678 -0.000001 0.000000 0.000000 -0.907239 -0.016613
 18   2.527048 -0.796803 -0.312234 0.000000 0.000000 -0.183889
 19   1.365153 0.000000 0.000000 0.162595 -1.877568 -0.218736
 20   0.951159 0.000001 0.000000 0.009983 -0.445132 -0.008037
 21   0.457618 -1.069485 0.220609 0.077480 -0.812912 -0.502659
 22   1.214084 0.000001 0.000000 0.000000 0.000000 0.751993
 23   0.888922 -0.000001 0.000000 0.000000 0.000000 0.199289
 24   9.624104 -17.857193 -1.635579 0.000000 2.896706 -0.000475
 25   -0.003387 0.018327 0.000000 0.094116 0.388020 -0.554809
 26   8.473085 0.000000 0.000000 0.000000 0.000000 -0.445170
 27   8.737236 0.000001 0.000000 -0.009081 -0.116731 0.686380
 28   2.519908 -0.796944 0.238411 0.000000 1.162746 0.028362
 29   1.365153 0.000000 0.000001 0.022160 0.854590 -0.018054
 30   0.857406 0.000000 -0.000001 0.000000 0.000000 -0.008984
 31   2.258546 1.052112 0.238412 0.001103 1.133039 0.101600
 32   1.066371 -0.000056 0.000000 -0.036601 0.852968 -0.106784
 33   0.931743 -0.000095 0.000000 0.000000 0.000000 -0.006902
 34   2.529451 0.408675 0.238411 0.000000 1.163012 0.092136
 35   1.343065 -0.000036 0.000001 -0.006807 0.854468 -0.073065
 36   0.942958 0.000001 -0.000001 0.000000 0.000000 -0.030510
 37   2.586963 -0.188143 0.238411 0.000000 1.331637 0.049964
 38   1.424857 -0.000001 0.000000 0.004950 0.854872 -0.043981
 39   1.127214 -0.000002 0.000000 0.000000 0.000000 -0.016769
 40   0.463661 -1.047538 -0.337884 0.197866 0.639194 -1.135355
 41   1.214084 0.000000 0.000000 0.000000 0.000000 0.053309
 42   0.888923 0.000001 0.000000 0.000000 0.000000 0.200487
time 10
  0   -4.089531 -9.284292 -3.578792 1.580961 0.119045 0.002478
  1   0.111793 -1.375723 0.632810 0.301837 0.031925 0.004855
  2   4.350997 -49.665867 -4.743345 0.000000 0.000000 0.000000
  3   -4.118903 -13.449270 -7.203984 1.273288 0.114419 -0.029953
  4   -0.489025 14.281685 -7.919792 0.000000 0.000000 -0.000062
  5   -15.338515 -10.040536 0.367200 0.133039 -0.034446 6.278172
  6   -0.003387 0.015761 0.000000 -0.051597 -0.097789 -0.274698
  7   8.473085 -0.000001 0.000000 -3.141592 0.000000 -0.952929
  8   8.737238 0.000001 0.000000 1.416701 -0.085179 0.351320
  9   2.259233 1.146023 -0.312235 0.000000 -1.249516 -0.011300
 10   1.066370 -0.000056 0.000000 0.073142 -1.064476 -0.076931
 11   0.974713 -0.000094 0.000000 -0.000084 -0.898400 -0.006746
 12   2.532812 0.476064 -0.312234 0.000000 -1.249516 -0.038272
 13   1.343066 -0.000036 0.000000 -0.000455 -1.065959 -0.035026
 14   0.892175 0.000001 0.000000 -0.000084 -0.905307 -0.029863
 15   2.587555 -0.113644 -0.312234 0.000000 -1.249516 -0.019515
 16   1.424858 -0.000001 0.000000 0.000000 -1.065959 -0.024985
 17   0.982678 -0.000001 0.000000 0.000000 -0.907239 -0.016613
 18   2.527048 -0.796803 -0.312234 0.000000 0.000000 -0.183889
 19   1.365153 0.000000 0.000000 0.151521 -1.860601 -0.207183
 20   0.951159 0.000001 0.000000 0.009983 -0.445132 -0.008037
 21   0.457618 -1.069485 0.220609 0.077480 -0.812912 -0.502659
 22   1.214084 0.000001 0.000000 0.000000 0.000000 0.751993
 23   0.888922 -0.000001 0.000000 0.000000 0.000000 0.199289
 24   9.624104 -17.857193 -1.635579 0.000000 2.896706 -0.000475
 25   -0.003387 0.018327 0.000000 0.094128 0.387234 -0.554760
 26   8.473085 0.000000 0.000000 0.000000 0.000000 -0.446238
 27   8.737236 0.000001 0.000000 -0.011090 -0.115839 0.686932
 28   2.519908 -0.796944 0.238411 0.000000 1.162746 0.028362
 29   1.365153 0.000000 0.000001 0.022160 0.854590 -0.018054
 30   0.857406 0.000000 -0.000001 0.000000 0.000000 -0.008984
 31   2.258546 1.052112 0.238412 0.001103 1.133039 0.101600
 32   1.066371 -0.000056 0.000000 -0.036601 0.852968 -0.106784
 33   0.931743 -0.000095 0.000000 0.000000 0.000000 -0.006902
 34   2.529451 0.408675 0.238411 0.000000 1.163012 0.092136
 35   1.343065 -0.000036 0.000001 -0.006807 0.854468 -0.073065
 36   0.942958 0.000001 -0.000001 0.000000 0.000000 -0.030510
 37   2.586963 -0.188143 0.238411 0.000000 1.331637 0.049964
 38   1.424857 -0.000001 0.000000 0.004950 0.854872 -0.043981
 39   1.127214 -0.000002 0.000000 0.000000 0.000000 -0.016769
 40   0.463661 -1.047538 -0.337884 0.197866 0.639194 -1.135355
 41   1.214084 0.000000 0.000000 0.000000 0.000000 0.053309
 42   0.888923 0.000001 0.000000 0.000000 0.000000 0.200487
time 11
  0   -4.089531 -9.264760 -3.578792 1.582771 0.118929 0.002603
  1   0.111793 -1.375723 0.632810 0.278851 0.029492 0.004495
  2   4.350997 -49.665867 -4.743345 0.000000 0.000000 0.000000
  3   -4.111090 -13.433645 -7.215703 1.275118 0.114337 -0.029828
  4   -0.489025 14.281685 -7.919792 0.000000 0.000000 -0.000062
  5   -15.338515 -10.040536 0.367200 0.133039 -0.034446 6.278172
  6   -0.003387 0.015761 0.000000 -0.051837 -0.097774 -0.271720
  7   8.473085 -0.000001 0.000000 -3.141592 0.000000 -0.955909
  8   8.737238 0.000001 0.000000 1.416701 -0.086921 0.351474
  9   2.259233 1.146023 -0.312235 0.000000 -1.249516 -0.011300
 10   1.066370 -0.000056 0.000000 0.073142 -1.064476 -0.076931
 11   0.974713 -0.000094 0.000000 -0.000084 -0.898400 -0.006746
 12   2.532812 0.476064 -0.312234 0.000000 -1.249516 -0.038272
 13   1.343066 -0.000036 0.000000 -0.000455 -1.065959 -0.035026
 14   0.892175 0.000001 0.000000 -0.000084 -0.905307 -0.029863
 15   2.587555 -0.113644 -0.312234 0.000000 -1.249516 -0.019515
 16   1.424858 -0.000001 0.000000 0.000000 -1.065959 -0.024985
 17   0.982678 -0.000001 0.000000 0.000000 -0.907239 -0.016613
 18   2.527048 -0.796803 -0.312234 0.000000 0.000000 -0.183889
 19   1.365153 0.000000 0.000000 0.132729 -1.832245 -0.187337
 20   0.951159 0.000001 0.000000 0.009983 -0.445132 -0.008037
 21   0.457618 -1.069485 0.220609 0.077480 -0.812912 -0.502659
 22   1.214084 0.000001 0.000000 0.000000 0.000000 0.751993
 23   0.888922 -0.000001 0.000000 0.000000 0.000000 0.199289
 24   9.624104 -17.857193 -1.635579 0.000000 2.896706 -0.000475
 25   -0.003387 0.018327 0.000000 0.096106 0.386448 -0.548471
 26   8.473085 0.000000 0.000000 0.000000 0.000000 -0.456062
 27   8.737236 0.000001 0.000000 -0.012429 -0.116352 0.691165
 28   2.519908 -0.796944 0.238411 0.000000 1.162746 0.028362
 29   1.365153 0.000000 0.000001 0.022160 0.854590 -0.018054
 30   0.857406 0.000000 -0.000001 0.000000 0.000000 -0.008984
 31   2.258546 1.052112 0.238412 0.001103 1.133039 0.101600
 32   1.066371 -0.000056 0.000000 -0.036601 0.852968 -0.106784
 33   0.931743 -0.000095 0.000000 0.000000 0.000000 -0.006902
 34   2.529451 0.408675 0.238411 0.000000 1.163012 0.092136
 35   1.343065 -0.000036 0.000001 -0.006807 0.854468 -0.073065
 36   0.942958 0.000001 -0.000001 0.000000 0.000000 -0.030510
 37   2.586963 -0.188143 0.238411 0.000000 1.331637 0.049964
 38   1.424857 -0.000001 0.000000 0.004950 0.854872 -0.043981
 39   1.127214 -0.000002 0.000000 0.000000 0.000000 -0.016769
 40   0.463661 -1.047538 -0.337884 0.197866 0.639194 -1.135355
 41   1.214084 0.000000 0.000000 0.000000 0.000000 0.053309
 42   0.888923 0.000001 0.000000 0.000000 0.000000 0.200487
time 12
  0   -4.089531 -9.225697 -3.578792 1.584342 0.117963 0.002603
  1   0.111793 -1.375723 0.632810 0.251598 0.026676 0.004052
  2   4.350997 -49.665867 -4.743345 0.000000 0.000000 0.000000
  3   -4.107184 -13.386768 -7.223516 1.276847 0.113408 -0.029703
  4   -0.489025 14.281685 -7.919792 0.000000 0.000000 -0.000062
  5   -15.338515 -10.040536 0.367200 0.133039 -0.034446 6.278172
  6   -0.003387 0.015761 0.000000 -0.052041 -0.097394 -0.265926
  7   8.473085 -0.000001 0.000000 -3.141592 0.000000 -0.962300
  8   8.737238 0.000001 0.000000 1.417860 -0.088155 0.350858
  9   2.259233 1.146023 -0.312235 0.000000 -1.249516 -0.011300
 10   1.066370 -0.000056 0.000000 0.073142 -1.064476 -0.076931
 11   0.974713 -0.000094 0.000000 -0.000084 -0.898400 -0.006746
 12   2.532812 0.476064 -0.312234 0.000000 -1.249516 -0.038272
 13   1.343066 -0.000036 0.000000 -0.000455 -1.065959 -0.035026
 14   0.892175 0.000001 0.000000 -0.000084 -0.905307 -0.029863
 15   2.587555 -0.113644 -0.312234 0.000000 -1.249516 -0.019515
 16   1.424858 -0.000001 0.000000 0.000000 -1.065959 -0.024985
 17   0.982678 -0.000001 0.000000 0.000000 -0.907239 -0.016613
 18   2.527048 -0.796803 -0.312234 0.000000 0.000000 -0.183889
 19   1.365153 0.000000 0.000000 0.104302 -1.790603 -0.157279
 20   0.951159 0.000001 0.000000 0.009983 -0.445132 -0.008037
 21   0.457618 -1.069485 0.220609 0.077480 -0.812912 -0.502659
 22   1.214084 0.000001 0.000000 0.000000 0.000000 0.751993
 23   0.888922 -0.000001 0.000000 0.000000 0.000000 0.199289
 24   9.624104 -17.857193 -1.635579 0.000000 2.896706 -0.000475
 25   -0.003387 0.018327 0.000000 0.099461 0.385645 -0.537761
 26   8.473085 0.000000 0.000000 0.000000 0.000000 -0.472507
 27   8.737236 0.000001 0.000000 -0.013059 -0.118025 0.697974
 28   2.519908 -0.796944 0.238411 0.000000 1.162746 0.028362
 29   1.365153 0.000000 0.000001 0.022160 0.854590 -0.018054
 30   0.857406 0.000000 -0.000001 0.000000 0.000000 -0.008984
 31   2.258546 1.052112 0.238412 0.001103 1.133039 0.101600
 32   1.066371 -0.000056 0.000000 -0.036601 0.852968 -0.106784
 33   0.931743 -0.000095 0.000000 0.000000 0.000000 -0.006902
 34   2.529451 0.408675 0.238411 0.000000 1.163012 0.092136
 35   1.343065 -0.000036 0.000001 -0.006807 0.854468 -0.073065
 36   0.942958 0.000001 -0.000001 0.000000 0.000000 -0.030510
 37   2.586963 -0.188143 0.238411 0.000000 1.331637 0.049964
 38   1.424857 -0.000001 0.000000 0.004950 0.854872 -0.043981
 39   1.127214 -0.000002 0.000000 0.000000 0.000000 -0.016769
 40   0.463661 -1.047538 -0.337884 0.197866 0.639194 -1.135355
 41   1.214084 0.000000 0.000000 0.000000 0.000000 0.053309
 42   0.888923 0.000001 0.000000 0.000000 0.000000 0.200487
time 13
  0   -4.081718 -9.171007 -3.590511 1.585708 0.116392 0.002603
  1   0.111793 -1.375723 0.632810 0.220090 0.023284 0.003609
  2   4.350997 -49.665867 -4.743345 0.000000 0.000000 0.000000
  3   -4.099371 -13.324266 -7.239141 1.278134 0.111892 -0.029828
  4   -0.489025 14.281685 -7.919792 0.000000 0.000000 -0.000062
  5   -15.338515 -10.040536 0.367200 0.133039 -0.034446 6.278172
  6   -0.003387 0.015761 0.000000 -0.052208 -0.096755 -0.258399
  7   8.473085 -0.000001 0.000000 -3.141592 0.000000 -0.971122
  8   8.737238 0.000001 0.000000 1.419308 -0.088993 0.349749
  9   2.259233 1.146023 -0.312235 0.000000 -1.249516 -0.011300
 10   1.066370 -0.000056 0.000000 0.073142 -1.064476 -0.076931
 11   0.974713 -0.000094 0.000000 -0.000084 -0.898400 -0.006746
 12   2.532812 0.476064 -0.312234 0.000000 -1.249516 -0.038272
 13   1.343066 -0.000036 0.000000 -0.000455 -1.065959 -0.035026
 14   0.892175 0.000001 0.000000 -0.000084 -0.905307 -0.029863
 15   2.587555 -0.113644 -0.312234 0.000000 -1.249516 -0.019515
 16   1.424858 -0.000001 0.000000 0.000000 -1.065959 -0.024985
 17   0.982678 -0.000001 0.000000 0.000000 -0.907239 -0.016613
 18   2.527048 -0.796803 -0.312234 0.000000 0.000000 -0.183889
 19   1.365153 0.000000 0.000000 0.065232 -1.737803 -0.116388
 20   0.951159 0.000001 0.000000 0.009983 -0.445132 -0.008037
 21   0.457618 -1.069485 0.220609 0.077480 -0.812912 -0.502659
 22   1.214084 0.000001 0.000000 0.000000 0.000000 0.751993
 23   0.888922 -0.000001 0.000000 0.000000 0.000000 0.199289
 24   9.624104 -17.857193 -1.635579 0.000000 2.896706 -0.000475
 25   -0.003387 0.018327 0.000000 0.103848 0.384927 -0.523857
 26   8.473085 0.000000 0.000000 0.000000 0.000000 -0.493138
 27   8.737236 0.000001 0.000000 -0.013138 -0.120546 0.706378
 28   2.519908 -0.796944 0.238411 0.000000 1.162746 0.028362
 29   1.365153 0.000000 0.000001 0.022160 0.854590 -0.018054
 30   0.857406 0.000000 -0.000001 0.000000 0.000000 -0.008984
 31   2.258546 1.052112 0.238412 0.001103 1.133039 0.101600
 32   1.066371 -0.000056 0.000000 -0.036601 0.852968 -0.106784
 33   0.931743 -0.000095 0.000000 0.000000 0.000000 -0.006902
 34   2.529451 0.408675 0.238411 0.000000 1.163012 0.092136
 35   1.343065 -0.000036 0.000001 -0.006807 0.854468 -0.073065
 36   0.942958 0.000001 -0.000001 0.000000 0.000000 -0.030510
 37   2.586963 -0.188143 0.238411 0.000000 1.331637 0.049964
 38   1.424857 -0.000001 0.000000 0.004950 0.854872 -0.043981
 39   1.127214 -0.000002 0.000000 0.000000 0.000000 -0.016769
 40   0.463661 -1.047538 -0.337884 0.197866 0.639194 -1.135355
 41   1.214084 0.000000 0.000000 0.000000 0.000000 0.053309
 42   0.888923 0.000001 0.000000 0.000000 0.000000 0.200487
time 14
  0   -4.081718 -9.108505 -3.590511 1.586835 0.114448 0.002478
  1   0.111793 -1.375723 0.632810 0.184520 0.019581 0.002973
  2   4.350997 -49.665867 -4.743345 0.000000 0.000000 0.000000
  3   -4.091558 -13.261765 -7.246954 1.279286 0.109966 -0.029953
  4   -0.489025 14.281685 -7.919792 0.000000 0.000000 -0.000062
  5   -15.338515 -10.040536 0.367200 0.133039 -0.034446 6.278172
  6   -0.003387 0.015761 0.000000 -0.052400 -0.095948 -0.249898
  7   8.473085 -0.000001 0.000000 -3.141592 0.000000 -0.981081
  8   8.737238 0.000001 0.000000 1.421451 -0.089279 0.348486
  9   2.259233 1.146023 -0.312235 0.000000 -1.249516 -0.011300
 10   1.066370 -0.000056 0.000000 0.073142 -1.064476 -0.076931
 11   0.974713 -0.000094 0.000000 -0.000084 -0.898400 -0.006746
 12   2.532812 0.476064 -0.312234 0.000000 -1.249516 -0.038272
 13   1.343066 -0.000036 0.000000 -0.000455 -1.065959 -0.035026
 14   0.892175 0.000001 0.000000 -0.000084 -0.905307 -0.029863
 15   2.587555 -0.113644 -0.312234 0.000000 -1.249516 -0.019515
 16   1.424858 -0.000001 0.000000 0.000000 -1.065959 -0.024985
 17   0.982678 -0.000001 0.000000 0.000000 -0.907239 -0.016613
 18   2.527048 -0.796803 -0.312234 0.000000 0.000000 -0.183889
 19   1.365153 0.000000 0.000000 0.010594 -1.676778 -0.059629
 20   0.951159 0.000001 0.000000 0.009983 -0.445132 -0.008037
 21   0.457618 -1.069485 0.220609 0.077480 -0.812912 -0.502659
 22   1.214084 0.000001 0.000000 0.000000 0.000000 0.751993
 23   0.888922 -0.000001 0.000000 0.000000 0.000000 0.199289
 24   9.624104 -17.857193 -1.635579 0.000000 2.896706 -0.000475
 25   -0.003387 0.018327 0.000000 0.108522 0.384243 -0.508774
 26   8.473085 0.000000 0.000000 0.000000 0.000000 -0.515221
 27   8.737236 0.000001 0.000000 -0.012941 -0.123580 0.715273
 28   2.519908 -0.796944 0.238411 0.000000 1.162746 0.028362
 29   1.365153 0.000000 0.000001 0.022160 0.854590 -0.018054
 30   0.857406 0.000000 -0.000001 0.000000 0.000000 -0.008984
 31   2.258546 1.052112 0.238412 0.001103 1.133039 0.101600
 32   1.066371 -0.000056 0.000000 -0.036601 0.852968 -0.106784
 33   0.931743 -0.000095 0.000000 0.000000 0.000000 -0.006902
 34   2.529451 0.408675 0.238411 0.000000 1.163012 0.092136
 35   1.343065 -0.000036 0.000001 -0.006807 0.854468 -0.073065
 36   0.942958 0.000001 -0.000001 0.000000 0.000000 -0.030510
 37   2.586963 -0.188143 0.238411 0.000000 1.331637 0.049964
 38   1.424857 -0.000001 0.000000 0.004950 0.854872 -0.043981
 39   1.127214 -0.000002 0.000000 0.000000 0.000000 -0.016769
 40   0.463661 -1.047538 -0.337884 0.197866 0.639194 -1.135355
 41   1.214084 0.000000 0.000000 0.000000 0.000000 0.053309
 42   0.888923 0.000001 0.000000 0.000000 0.000000 0.200487
time 15
  0   -4.081718 -9.046003 -3.598324 1.587518 0.112362 0.002353
  1   0.111793 -1.375723 0.632810 0.144635 0.015302 0.002338
  2   4.350997 -49.665867 -4.743345 0.000000 0.000000 0.000000
  3   -4.087652 -13.195356 -7.254767 1.280167 0.107917 -0.030077
  4   -0.489025 14.281685 -7.919792 0.000000 0.000000 -0.000062
  5   -15.338515 -10.040536 0.367200 0.133039 -0.034446 6.278172
  6   -0.003387 0.015761 0.000000 -0.052616 -0.095065 -0.241126
  7   8.473085 -0.000001 0.000000 -3.141592 0.000000 -0.991354
  8   8.737238 0.000001 0.000000 1.424001 -0.089478 0.347069
  9   2.259233 1.146023 -0.312235 0.000000 -1.249516 -0.011300
 10   1.066370 -0.000056 0.000000 0.073142 -1.064476 -0.076931
 11   0.974713 -0.000094 0.000000 -0.000084 -0.898400 -0.006746
 12   2.532812 0.476064 -0.312234 0.000000 -1.249516 -0.038272
 13   1.343066 -0.000036 0.000000 -0.000455 -1.065959 -0.035026
 14   0.892175 0.000001 0.000000 -0.000084 -0.905307 -0.029863
 15   2.587555 -0.113644 -0.312234 0.000000 -1.249516 -0.019515
 16   1.424858 -0.000001 0.000000 0.000000 -1.065959 -0.024985
 17   0.982678 -0.000001 0.000000 0.000000 -0.907239 -0.016613
 18   2.527048 -0.796803 -0.312234 0.000000 0.000000 -0.183889
 19   1.365153 0.000000 0.000000 -0.125155 -1.607931 0.078757
 20   0.951159 0.000001 0.000000 0.009983 -0.445132 -0.008037
 21   0.457618 -1.069485 0.220609 0.077480 -0.812912 -0.502659
 22   1.214084 0.000001 0.000000 0.000000 0.000000 0.751993
 23   0.888922 -0.000001 0.000000 0.000000 0.000000 0.199289
 24   9.624104 -17.857193 -1.635579 0.000000 2.896706 -0.000475
 25   -0.003387 0.018327 0.000000 0.113220 0.383628 -0.493642
 26   8.473085 0.000000 0.000000 0.000000 0.000000 -0.537347
 27   8.737236 0.000001 0.000000 -0.012429 -0.126770 0.724168
 28   2.519908 -0.796944 0.238411 0.000000 1.162746 0.028362
 29   1.365153 0.000000 0.000001 0.022160 0.854590 -0.018054
 30   0.857406 0.000000 -0.000001 0.000000 0.000000 -0.008984
 31   2.258546 1.052112 0.238412 0.001103 1.133039 0.101600
 32   1.066371 -0.000056 0.000000 -0.036601 0.852968 -0.106784
 33   0.931743 -0.000095 0.000000 0.000000 0.000000 -0.006902
 34   2.529451 0.408675 0.238411 0.000000 1.163012 0.092136
 35   1.343065 -0.000036 0.000001 -0.006807 0.854468 -0.073065
 36   0.942958 0.000001 -0.000001 0.000000 0.000000 -0.030510
 37   2.586963 -0.188143 0.238411 0.000000 1.331637 0.049964
 38   1.424857 -0.000001 0.000000 0.004950 0.854872 -0.043981
 39   1.127214 -0.000002 0.000000 0.000000 0.000000 -0.016769
 40   0.463661 -1.047538 -0.337884 0.197866 0.639194 -1.135355
 41   1.214084 0.000000 0.000000 0.000000 0.000000 0.053309
 42   0.888923 0.000001 0.000000 0.000000 0.000000 0.200487
time 16
  0   -4.081718 -8.983501 -3.610043 1.588167 0.110353 0.002103
  1   0.111793 -1.375723 0.632810 0.100676 0.010652 0.001619
  2   4.350997 -49.665867 -4.743345 0.000000 0.000000 0.000000
  3   -4.079839 -13.132854 -7.270392 1.280777 0.105936 -0.030390
  4   -0.489025 14.281685 -7.919792 0.000000 0.000000 -0.000062
  5   -15.338515 -10.040536 0.367200 0.133039 -0.034446 6.278172
  6   -0.003387 0.015761 0.000000 -0.052736 -0.094213 -0.233058
  7   8.473085 -0.000001 0.000000 -3.141592 0.000000 -1.000764
  8   8.737238 0.000001 0.000000 1.426086 -0.089235 0.345652
  9   2.259233 1.146023 -0.312235 0.000000 -1.249516 -0.011300
 10   1.066370 -0.000056 0.000000 0.073142 -1.064476 -0.076931
 11   0.974713 -0.000094 0.000000 -0.000084 -0.898400 -0.006746
 12   2.532812 0.476064 -0.312234 0.000000 -1.249516 -0.038272
 13   1.343066 -0.000036 0.000000 -0.000455 -1.065959 -0.035026
 14   0.892175 0.000001 0.000000 -0.000084 -0.905307 -0.029863
 15   2.587555 -0.113644 -0.312234 0.000000 -1.249516 -0.019515
 16   1.424858 -0.000001 0.000000 0.000000 -1.065959 -0.024985
 17   0.982678 -0.000001 0.000000 0.000000 -0.907239 -0.016613
 18   2.527048 -0.796803 -0.312234 0.000000 0.000000 -0.183889
 19   1.365153 0.000000 0.000000 0.109264 -1.529996 -0.152821
 20   0.951159 0.000001 0.000000 0.009983 -0.445132 -0.008037
 21   0.457618 -1.069485 0.220609 0.077480 -0.812912 -0.502659
 22   1.214084 0.000001 0.000000 0.000000 0.000000 0.751993
 23   0.888922 -0.000001 0.000000 0.000000 0.000000 0.199289
 24   9.624104 -17.857193 -1.635579 0.000000 2.896706 -0.000475
 25   -0.003387 0.018327 0.000000 0.117186 0.383150 -0.480623
 26   8.473085 0.000000 0.000000 0.000000 0.000000 -0.556013
 27   8.737236 0.000001 0.000000 -0.011799 -0.129871 0.731284
 28   2.519908 -0.796944 0.238411 0.000000 1.162746 0.028362
 29   1.365153 0.000000 0.000001 0.022160 0.854590 -0.018054
 30   0.857406 0.000000 -0.000001 0.000000 0.000000 -0.008984
 31   2.258546 1.052112 0.238412 0.001103 1.133039 0.101600
 32   1.066371 -0.000056 0.000000 -0.036601 0.852968 -0.106784
 33   0.931743 -0.000095 0.000000 0.000000 0.000000 -0.006902
 34   2.529451 0.408675 0.238411 0.000000 1.163012 0.092136
 35   1.343065 -0.000036 0.000001 -0.006807 0.854468 -0.073065
 36   0.942958 0.000001 -0.000001 0.000000 0.000000 -0.030510
 37   2.586963 -0.188143 0.238411 0.000000 1.331637 0.049964
 38   1.424857 -0.000001 0.000000 0.004950 0.854872 -0.043981
 39   1.127214 -0.000002 0.000000 0.000000 0.000000 -0.016769
 40   0.463661 -1.047538 -0.337884 0.197866 0.639194 -1.135355
 41   1.214084 0.000000 0.000000 0.000000 0.000000 0.053309
 42   0.888923 0.000001 0.000000 0.000000 0.000000 0.200487
time 17
  0   -4.081718 -8.921000 -3.610043 1.588440 0.108602 0.001978
  1   0.111793 -1.375723 0.632810 0.052474 0.005607 0.000852
  2   4.350997 -49.665867 -4.743345 0.000000 0.000000 0.000000
  3   -4.075933 -13.074259 -7.270392 1.281320 0.104215 -0.030514
  4   -0.489025 14.281685 -7.919792 0.000000 0.000000 -0.000062
  5   -15.338515 -10.040536 0.367200 0.133039 -0.034446 6.278172
  6   -0.003387 0.015761 0.000000 -0.052808 -0.093483 -0.226181
  7   8.473085 -0.000001 0.000000 -3.141592 0.000000 -1.008488
  8   8.737238 0.000001 0.000000 1.428288 -0.089059 0.344728
  9   2.259233 1.146023 -0.312235 0.000000 -1.249516 -0.011300
 10   1.066370 -0.000056 0.000000 0.073142 -1.064476 -0.076931
 11   0.974713 -0.000094 0.000000 -0.000084 -0.898400 -0.006746
 12   2.532812 0.476064 -0.312234 0.000000 -1.249516 -0.038272
 13   1.343066 -0.000036 0.000000 -0.000455 -1.065959 -0.035026
 14   0.892175 0.000001 0.000000 -0.000084 -0.905307 -0.029863
 15   2.587555 -0.113644 -0.312234 0.000000 -1.249516 -0.019515
 16   1.424858 -0.000001 0.000000 0.000000 -1.065959 -0.024985
 17   0.982678 -0.000001 0.000000 0.000000 -0.907239 -0.016613
 18   2.527048 -0.796803 -0.312234 0.000000 0.000000 -0.183889
 19   1.365153 0.000000 0.000000 -0.031436 -1.444814 -0.009066
 20   0.951159 0.000001 0.000000 0.009983 -0.445132 -0.008037
 21   0.457618 -1.069485 0.220609 0.077480 -0.812912 -0.502659
 22   1.214084 0.000001 0.000000 0.000000 0.000000 0.751993
 23   0.888922 -0.000001 0.000000 0.000000 0.000000 0.199289
 24   9.624104 -17.857193 -1.635579 0.000000 2.896706 -0.000475
 25   -0.003387 0.018327 0.000000 0.120506 0.382791 -0.469814
 26   8.473085 0.000000 0.000000 0.000000 0.000000 -0.571390
 27   8.737236 0.000001 0.000000 -0.011090 -0.132392 0.737234
 28   2.519908 -0.796944 0.238411 0.000000 1.162746 0.028362
 29   1.365153 0.000000 0.000001 0.022160 0.854590 -0.018054
 30   0.857406 0.000000 -0.000001 0.000000 0.000000 -0.008984
 31   2.258546 1.052112 0.238412 0.001103 1.133039 0.101600
 32   1.066371 -0.000056 0.000000 -0.036601 0.852968 -0.106784
 33   0.931743 -0.000095 0.000000 0.000000 0.000000 -0.006902
 34   2.529451 0.408675 0.238411 0.000000 1.163012 0.092136
 35   1.343065 -0.000036 0.000001 -0.006807 0.854468 -0.073065
 36   0.942958 0.000001 -0.000001 0.000000 0.000000 -0.030510
 37   2.586963 -0.188143 0.238411 0.000000 1.331637 0.049964
 38   1.424857 -0.000001 0.000000 0.004950 0.854872 -0.043981
 39   1.127214 -0.000002 0.000000 0.000000 0.000000 -0.016769
 40   0.463661 -1.047538 -0.337884 0.197866 0.639194 -1.135355
 41   1.214084 0.000000 0.000000 0.000000 0.000000 0.053309
 42   0.888923 0.000001 0.000000 0.000000 0.000000 0.200487
time 18
  0   -4.081718 -8.889749 -3.610043 1.588611 0.107443 0.001853
  1   0.111793 -1.375723 0.632810 0.000005 0.000010 0.000001
  2   4.350997 -49.665867 -4.743345 0.000000 0.000000 0.000000
  3   -4.075933 -13.043008 -7.278205 1.281353 0.103040 -0.030639
  4   -0.489025 14.281685 -7.919792 0.000000 0.000000 -0.000062
  5   -15.338515 -10.040536 0.367200 0.133039 -0.034446 6.278172
  6   -0.003387 0.015761 0.000000 -0.052832 -0.092966 -0.221795
  7   8.473085 -0.000001 0.000000 -3.141592 0.000000 -1.013546
  8   8.737238 0.000001 0.000000 1.429446 -0.088662 0.344081
  9   2.259233 1.146023 -0.312235 0.000000 -1.249516 -0.011300
 10   1.066370 -0.000056 0.000000 0.073142 -1.064476 -0.076931
 11   0.974713 -0.000094 0.000000 -0.000084 -0.898400 -0.006746
 12   2.532812 0.476064 -0.312234 0.000000 -1.249516 -0.038272
 13   1.343066 -0.000036 0.000000 -0.000455 -1.065959 -0.035026
 14   0.892175 0.000001 0.000000 -0.000084 -0.905307 -0.029863
 15   2.587555 -0.113644 -0.312234 0.000000 -1.249516 -0.019515
 16   1.424858 -0.000001 0.000000 0.000000 -1.065959 -0.024985
 17   0.982678 -0.000001 0.000000 0.000000 -0.907239 -0.016613
 18   2.527048 -0.796803 -0.312234 0.000000 0.000000 -0.183889
 19   1.365153 0.000000 0.000000 -0.104925 -1.351350 0.067768
 20   0.951159 0.000001 0.000000 0.009983 -0.445132 -0.008037
 21   0.457618 -1.069485 0.220609 0.077480 -0.812912 -0.502659
 22   1.214084 0.000001 0.000000 0.000000 0.000000 0.751993
 23   0.888922 -0.000001 0.000000 0.000000 0.000000 0.199289
 24   9.624104 -17.857193 -1.635579 0.000000 2.896706 -0.000475
 25   -0.003387 0.018327 0.000000 0.122723 0.382569 -0.462641
 26   8.473085 0.000000 0.000000 0.000000 0.000000 -0.581556
 27   8.737236 0.000001 0.000000 -0.010499 -0.134154 0.741160
 28   2.519908 -0.796944 0.238411 0.000000 1.162746 0.028362
 29   1.365153 0.000000 0.000001 0.022160 0.854590 -0.018054
 30   0.857406 0.000000 -0.000001 0.000000 0.000000 -0.008984
 31   2.258546 1.052112 0.238412 0.001103 1.133039 0.101600
 32   1.066371 -0.000056 0.000000 -0.036601 0.852968 -0.106784
 33   0.931743 -0.000095 0.000000 0.000000 0.000000 -0.006902
 34   2.529451 0.408675 0.238411 0.000000 1.163012 0.092136
 35   1.343065 -0.000036 0.000001 -0.006807 0.854468 -0.073065
 36   0.942958 0.000001 -0.000001 0.000000 0.000000 -0.030510
 37   2.586963 -0.188143 0.238411 0.000000 1.331637 0.049964
 38   1.424857 -0.000001 0.000000 0.004950 0.854872 -0.043981
 39   1.127214 -0.000002 0.000000 0.000000 0.000000 -0.016769
 40   0.463661 -1.047538 -0.337884 0.197866 0.639194 -1.135355
 41   1.214084 0.000000 0.000000 0.000000 0.000000 0.053309
 42   0.888923 0.000001 0.000000 0.000000 0.000000 0.200487
time 19
  0   -4.081718 -8.885842 -3.621762 1.588440 0.106992 0.001602
  1   0.111793 -1.375723 0.632810 0.000005 0.000010 0.000001
  2   4.350997 -49.665867 -4.743345 0.000000 0.000000 0.000000
  3   -4.068120 -13.035195 -7.278205 1.281353 0.102576 -0.030764
  4   -0.489025 14.281685 -7.919792 0.000000 0.000000 -0.000062
  5   -15.338515 -10.040536 0.367200 0.133039 -0.034446 6.278172
  6   -0.003387 0.015761 0.000000 -0.052808 -0.092768 -0.220333
  7   8.473085 -0.000001 0.000000 -3.141592 0.000000 -1.014840
  8   8.737238 0.000001 0.000000 1.430141 -0.088376 0.344081
  9   2.259233 1.146023 -0.312235 0.000000 -1.249516 -0.011300
 10   1.066370 -0.000056 0.000000 0.073142 -1.064476 -0.076931
 11   0.974713 -0.000094 0.000000 -0.000084 -0.898400 -0.006746
 12   2.532812 0.476064 -0.312234 0.000000 -1.249516 -0.038272
 13   1.343066 -0.000036 0.000000 -0.000455 -1.065959 -0.035026
 14   0.892175 0.000001 0.000000 -0.000084 -0.905307 -0.029863
 15   2.587555 -0.113644 -0.312234 0.000000 -1.249516 -0.019515
 16   1.424858 -0.000001 0.000000 0.000000 -1.065959 -0.024985
 17   0.982678 -0.000001 0.000000 0.000000 -0.907239 -0.016613
 18   2.527048 -0.796803 -0.312234 0.000000 0.000000 -0.183889
 19   1.365153 0.000000 0.000000 -0.104925 -1.351350 0.067768
 20   0.951159 0.000001 0.000000 0.009983 -0.445132 -0.008037
 21   0.457618 -1.069485 0.220609 0.077480 -0.812912 -0.502659
 22   1.214084 0.000001 0.000000 0.000000 0.000000 0.751993
 23   0.888922 -0.000001 0.000000 0.000000 0.000000 0.199289
 24   9.624104 -17.857193 -1.635579 0.000000 2.896706 -0.000475
 25   -0.003387 0.018327 0.000000 0.123526 0.382552 -0.460283
 26   8.473085 0.000000 0.000000 0.000000 0.000000 -0.585144
 27   8.737236 0.000001 0.000000 -0.010184 -0.134779 0.742571
 28   2.519908 -0.796944 0.238411 0.000000 1.162746 0.028362
 29   1.365153 0.000000 0.000001 0.022160 0.854590 -0.018054
 30   0.857406 0.000000 -0.000001 0.000000 0.000000 -0.008984
 31   2.258546 1.052112 0.238412 0.001103 1.133039 0.101600
 32   1.066371 -0.000056 0.000000 -0.036601 0.852968 -0.106784
 33   0.931743 -0.000095 0.000000 0.000000 0.000000 -0.006902
 34   2.529451 0.408675 0.238411 0.000000 1.163012 0.092136
 35   1.343065 -0.000036 0.000001 -0.006807 0.854468 -0.073065
 36   0.942958 0.000001 -0.000001 0.000000 0.000000 -0.030510
 37   2.586963 -0.188143 0.238411 0.000000 1.331637 0.049964
 38   1.424857 -0.000001 0.000000 0.004950 0.854872 -0.043981
 39   1.127214 -0.000002 0.000000 0.000000 0.000000 -0.016769
 40   0.463661 -1.047538 -0.337884 0.197866 0.639194 -1.135355
 41   1.214084 0.000000 0.000000 0.000000 0.000000 0.053309
 42   0.888923 0.000001 0.000000 0.000000 0.000000 0.200487
time 20
  0   -4.081718 -8.885842 -3.621762 1.588167 0.106992 0.001602
  1   0.111793 -1.375723 0.632810 0.000005 0.000010 0.000001
  2   4.350997 -49.665867 -4.743345 0.000000 0.000000 0.000000
  3   -4.068120 -13.039102 -7.278205 1.280879 0.102576 -0.030764
  4   -0.489025 14.281685 -7.919792 0.000000 0.000000 -0.000062
  5   -15.338515 -10.040536 0.367200 0.133039 -0.034446 6.278172
  6   -0.003387 0.015761 0.000000 -0.052736 -0.092753 -0.221037
  7   8.473085 -0.000001 0.000000 -3.141592 0.000000 -1.014056
  8   8.737238 0.000001 0.000000 1.430141 -0.088023 0.344389
  9   2.259233 1.146023 -0.312235 0.000000 -1.249516 -0.011300
 10   1.066370 -0.000056 0.000000 0.073142 -1.064476 -0.076931
 11   0.974713 -0.000094 0.000000 -0.000084 -0.898400 -0.006746
 12   2.532812 0.476064 -0.312234 0.000000 -1.249516 -0.038272
 13   1.343066 -0.000036 0.000000 -0.000455 -1.065959 -0.035026
 14   0.892175 0.000001 0.000000 -0.000084 -0.905307 -0.029863
 15   2.587555 -0.113644 -0.312234 0.000000 -1.249516 -0.019515
 16   1.424858 -0.000001 0.000000 0.000000 -1.065959 -0.024985
 17   0.982678 -0.000001 0.000000 0.000000 -0.907239 -0.016613
 18   2.527048 -0.796803 -0.312234 0.000000 0.000000 -0.183889
 19   1.365153 0.000000 0.000000 -0.104925 -1.351350 0.067768
 20   0.951159 0.000001 0.000000 0.009983 -0.445132 -0.008037
 21   0.457618 -1.069485 0.220609 0.077480 -0.812912 -0.502659
 22   1.214084 0.000001 0.000000 0.000000 0.000000 0.751993
 23   0.888922 -0.000001 0.000000 0.000000 0.000000 0.199289
 24   9.624104 -17.857193 -1.635579 0.000000 2.896706 -0.000475
 25   -0.003387 0.018327 0.000000 0.123430 0.382705 -0.460774
 26   8.473085 0.000000 0.000000 0.000000 0.000000 -0.584546
 27   8.737236 0.000001 0.000000 -0.009987 -0.134712 0.742571
 28   2.519908 -0.796944 0.238411 0.000000 1.162746 0.028362
 29   1.365153 0.000000 0.000001 0.022160 0.854590 -0.018054
 30   0.857406 0.000000 -0.000001 0.000000 0.000000 -0.008984
 31   2.258546 1.052112 0.238412 0.001103 1.133039 0.101600
 32   1.066371 -0.000056 0.000000 -0.036601 0.852968 -0.106784
 33   0.931743 -0.000095 0.000000 0.000000 0.000000 -0.006902
 34   2.529451 0.408675 0.238411 0.000000 1.163012 0.092136
 35   1.343065 -0.000036 0.000001 -0.006807 0.854468 -0.073065
 36   0.942958 0.000001 -0.000001 0.000000 0.000000 -0.030510
 37   2.586963 -0.188143 0.238411 0.000000 1.331637 0.049964
 38   1.424857 -0.000001 0.000000 0.004950 0.854872 -0.043981
 39   1.127214 -0.000002 0.000000 0.000000 0.000000 -0.016769
 40   0.463661 -1.047538 -0.337884 0.197866 0.639194 -1.135355
 41   1.214084 0.000000 0.000000 0.000000 0.000000 0.053309
 42   0.888923 0.000001 0.000000 0.000000 0.000000 0.200487
time 21
  0   -4.081718 -8.889749 -3.610043 1.587484 0.106992 0.001477
  1   0.111793 -1.375723 0.632810 0.000005 0.000010 0.000001
  2   4.350997 -49.665867 -4.743345 0.000000 0.000000 0.000000
  3   -4.068120 -13.043008 -7.270392 1.280269 0.102562 -0.030764
  4   -0.489025 14.281685 -7.919792 0.000000 0.000000 -0.000062
  5   -15.338515 -10.040536 0.367200 0.133039 -0.034446 6.278172
  6   -0.003387 0.015761 0.000000 -0.052652 -0.092737 -0.221795
  7   8.473085 -0.000001 0.000000 -3.141592 0.000000 -1.012801
  8   8.737238 0.000001 0.000000 1.430141 -0.087340 0.344666
  9   2.259233 1.146023 -0.312235 0.000000 -1.249516 -0.011300
 10   1.066370 -0.000056 0.000000 0.073142 -1.064476 -0.076931
 11   0.974713 -0.000094 0.000000 -0.000084 -0.898400 -0.006746
 12   2.532812 0.476064 -0.312234 0.000000 -1.249516 -0.038272
 13   1.343066 -0.000036 0.000000 -0.000455 -1.065959 -0.035026
 14   0.892175 0.000001 0.000000 -0.000084 -0.905307 -0.029863
 15   2.587555 -0.113644 -0.312234 0.000000 -1.249516 -0.019515
 16   1.424858 -0.000001 0.000000 0.000000 -1.065959 -0.024985
 17   0.982678 -0.000001 0.000000 0.000000 -0.907239 -0.016613
 18   2.527048 -0.796803 -0.312234 0.000000 0.000000 -0.183889
 19   1.365153 0.000000 0.000000 -0.104925 -1.351350 0.067768
 20   0.951159 0.000001 0.000000 0.009983 -0.445132 -0.008037
 21   0.457618 -1.069485 0.220609 0.077480 -0.812912 -0.502659
 22   1.214084 0.000001 0.000000 0.000000 0.000000 0.751993
 23   0.888922 -0.000001 0.000000 0.000000 0.000000 0.199289
 24   9.624104 -17.857193 -1.635579 0.000000 2.896706 -0.000475
 25   -0.003387 0.018327 0.000000 0.123239 0.382911 -0.461904
 26   8.473085 0.000000 0.000000 0.000000 0.000000 -0.583051
 27   8.737236 0.000001 0.000000 -0.009593 -0.134578 0.742203
 28   2.519908 -0.796944 0.238411 0.000000 1.162746 0.028362
 29   1.365153 0.000000 0.000001 0.022160 0.854590 -0.018054
 30   0.857406 0.000000 -0.000001 0.000000 0.000000 -0.008984
 31   2.258546 1.052112 0.238412 0.001103 1.133039 0.101600
 32   1.066371 -0.000056 0.000000 -0.036601 0.852968 -0.106784
 33   0.931743 -0.000095 0.000000 0.000000 0.000000 -0.006902
 34   2.529451 0.408675 0.238411 0.000000 1.163012 0.092136
 35   1.343065 -0.000036 0.000001 -0.006807 0.854468 -0.073065
 36   0.942958 0.000001 -0.000001 0.000000 0.000000 -0.030510
 37   2.586963 -0.188143 0.238411 0.000000 1.331637 0.049964
 38   1.424857 -0.000001 0.000000 0.004950 0.854872 -0.043981
 39   1.127214 -0.000002 0.000000 0.000000 0.000000 -0.016769
 40   0.463661 -1.047538 -0.337884 0.197866 0.639194 -1.135355
 41   1.214084 0.000000 0.000000 0.000000 0.000000 0.053309
 42   0.888923 0.000001 0.000000 0.000000 0.000000 0.200487
time 22
  0   -4.081718 -8.889749 -3.610043 1.586596 0.106992 0.001415
  1   0.111793 -1.375723 0.632810 0.000005 0.000010 0.000001
  2   4.350997 -49.665867 -4.743345 0.000000 0.000000 0.000000
  3   -4.068120 -13.043008 -7.270392 1.279388 0.102535 -0.030951
  4   -0.489025 14.281685 -7.919792 0.000000 0.000000 -0.000062
  5   -15.338515 -10.040536 0.367200 0.133039 -0.034446 6.278172
  6   -0.003387 0.015761 0.000000 -0.052484 -0.092707 -0.223203
  7   8.473085 -0.000001 0.000000 -3.141592 0.000000 -1.011076
  8   8.737238 0.000001 0.000000 1.430199 -0.086524 0.344974
  9   2.259233 1.146023 -0.312235 0.000000 -1.249516 -0.011300
 10   1.066370 -0.000056 0.000000 0.073142 -1.064476 -0.076931
 11   0.974713 -0.000094 0.000000 -0.000084 -0.898400 -0.006746
 12   2.532812 0.476064 -0.312234 0.000000 -1.249516 -0.038272
 13   1.343066 -0.000036 0.000000 -0.000455 -1.065959 -0.035026
 14   0.892175 0.000001 0.000000 -0.000084 -0.905307 -0.029863
 15   2.587555 -0.113644 -0.312234 0.000000 -1.249516 -0.019515
 16   1.424858 -0.000001 0.000000 0.000000 -1.065959 -0.024985
 17   0.982678 -0.000001 0.000000 0.000000 -0.907239 -0.016613
 18   2.527048 -0.796803 -0.312234 0.000000 0.000000 -0.183889
 19   1.365153 0.000000 0.000000 -0.104925 -1.351350 0.067768
 20   0.951159 0.000001 0.000000 0.009983 -0.445132 -0.008037
 21   0.457618 -1.069485 0.220609 0.077480 -0.812912 -0.502659
 22   1.214084 0.000001 0.000000 0.000000 0.000000 0.751993
 23   0.888922 -0.000001 0.000000 0.000000 0.000000 0.199289
 24   9.624104 -17.857193 -1.635579 0.000000 2.896706 -0.000475
 25   -0.003387 0.018327 0.000000 0.122795 0.383235 -0.463525
 26   8.473085 0.000000 0.000000 0.000000 0.000000 -0.580787
 27   8.737236 0.000001 0.000000 -0.009042 -0.134422 0.741528
 28   2.519908 -0.796944 0.238411 0.000000 1.162746 0.028362
 29   1.365153 0.000000 0.000001 0.022160 0.854590 -0.018054
 30   0.857406 0.000000 -0.000001 0.000000 0.000000 -0.008984
 31   2.258546 1.052112 0.238412 0.001103 1.133039 0.101600
 32   1.066371 -0.000056 0.000000 -0.036601 0.852968 -0.106784
 33   0.931743 -0.000095 0.000000 0.000000 0.000000 -0.006902
 34   2.529451 0.408675 0.238411 0.000000 1.163012 0.092136
 35   1.343065 -0.000036 0.000001 -0.006807 0.854468 -0.073065
 36   0.942958 0.000001 -0.000001 0.000000 0.000000 -0.030510
 37   2.586963 -0.188143 0.238411 0.000000 1.331637 0.049964
 38   1.424857 -0.000001 0.000000 0.004950 0.854872 -0.043981
 39   1.127214 -0.000002 0.000000 0.000000 0.000000 -0.016769
 40   0.463661 -1.047538 -0.337884 0.197866 0.639194 -1.135355
 41   1.214084 0.000000 0.000000 0.000000 0.000000 0.053309
 42   0.888923 0.000001 0.000000 0.000000 0.000000 0.200487
time 23
  0   -4.081718 -8.905375 -3.610043 1.585469 0.107005 0.001290
  1   0.111793 -1.375723 0.632810 0.000005 0.000010 0.000001
  2   4.350997 -49.665867 -4.743345 0.000000 0.000000 0.000000
  3   -4.068120 -13.062540 -7.258673 1.278338 0.102494 -0.030951
  4   -0.489025 14.281685 -7.919792 0.000000 0.000000 -0.000062
  5   -15.338515 -10.040536 0.367200 0.133039 -0.034446 6.278172
  6   -0.003387 0.015761 0.000000 -0.052352 -0.092661 -0.224719
  7   8.473085 -0.000001 0.000000 -3.141592 0.000000 -1.009233
  8   8.737238 0.000001 0.000000 1.430315 -0.085356 0.345190
  9   2.259233 1.146023 -0.312235 0.000000 -1.249516 -0.011300
 10   1.066370 -0.000056 0.000000 0.073142 -1.064476 -0.076931
 11   0.974713 -0.000094 0.000000 -0.000084 -0.898400 -0.006746
 12   2.532812 0.476064 -0.312234 0.000000 -1.249516 -0.038272
 13   1.343066 -0.000036 0.000000 -0.000455 -1.065959 -0.035026
 14   0.892175 0.000001 0.000000 -0.000084 -0.905307 -0.029863
 15   2.587555 -0.113644 -0.312234 0.000000 -1.249516 -0.019515
 16   1.424858 -0.000001 0.000000 0.000000 -1.065959 -0.024985
 17   0.982678 -0.000001 0.000000 0.000000 -0.907239 -0.016613
 18   2.527048 -0.796803 -0.312234 0.000000 0.000000 -0.183889
 19   1.365153 0.000000 0.000000 -0.104925 -1.351350 0.067768
 20   0.951159 0.000001 0.000000 0.009983 -0.445132 -0.008037
 21   0.457618 -1.069485 0.220609 0.077480 -0.812912 -0.502659
 22   1.214084 0.000001 0.000000 0.000000 0.000000 0.751993
 23   0.888922 -0.000001 0.000000 0.000000 0.000000 0.199289
 24   9.624104 -17.857193 -1.635579 0.000000 2.896706 -0.000475
 25   -0.003387 0.018327 0.000000 0.122292 0.383645 -0.465785
 26   8.473085 0.000000 0.000000 0.000000 0.000000 -0.577797
 27   8.737236 0.000001 0.000000 -0.008254 -0.134221 0.740424
 28   2.519908 -0.796944 0.238411 0.000000 1.162746 0.028362
 29   1.365153 0.000000 0.000001 0.022160 0.854590 -0.018054
 30   0.857406 0.000000 -0.000001 0.000000 0.000000 -0.008984
 31   2.258546 1.052112 0.238412 0.001103 1.133039 0.101600
 32   1.066371 -0.000056 0.000000 -0.036601 0.852968 -0.106784
 33   0.931743 -0.000095 0.000000 0.000000 0.000000 -0.006902
 34   2.529451 0.408675 0.238411 0.000000 1.163012 0.092136
 35   1.343065 -0.000036 0.000001 -0.006807 0.854468 -0.073065
 36   0.942958 0.000001 -0.000001 0.000000 0.000000 -0.030510
 37   2.586963 -0.188143 0.238411 0.000000 1.331637 0.049964
 38   1.424857 -0.000001 0.000000 0.004950 0.854872 -0.043981
 39   1.127214 -0.000002 0.000000 0.000000 0.000000 -0.016769
 40   0.463661 -1.047538 -0.337884 0.197866 0.639194 -1.135355
 41   1.214084 0.000000 0.000000 0.000000 0.000000 0.053309
 42   0.888923 0.000001 0.000000 0.000000 0.000000 0.200487
time 24
  0   -4.081718 -8.913187 -3.610043 1.584103 0.107005 0.001165
  1   0.111793 -1.375723 0.632810 0.000005 0.000010 0.000001
  2   4.350997 -49.665867 -4.743345 0.000000 0.000000 0.000000
  3   -4.068120 -13.074259 -7.254767 1.276948 0.102453 -0.031201
  4   -0.489025 14.281685 -7.919792 0.000000 0.000000 -0.000062
  5   -15.338515 -10.040536 0.367200 0.133039 -0.034446 6.278172
  6   -0.003387 0.015761 0.000000 -0.052184 -0.092631 -0.226506
  7   8.473085 -0.000001 0.000000 -3.141592 0.000000 -1.006959
  8   8.737238 0.000001 0.000000 1.430489 -0.084033 0.345498
  9   2.259233 1.146023 -0.312235 0.000000 -1.249516 -0.011300
 10   1.066370 -0.000056 0.000000 0.073142 -1.064476 -0.076931
 11   0.974713 -0.000094 0.000000 -0.000084 -0.898400 -0.006746
 12   2.532812 0.476064 -0.312234 0.000000 -1.249516 -0.038272
 13   1.343066 -0.000036 0.000000 -0.000455 -1.065959 -0.035026
 14   0.892175 0.000001 0.000000 -0.000084 -0.905307 -0.029863
 15   2.587555 -0.113644 -0.312234 0.000000 -1.249516 -0.019515
 16   1.424858 -0.000001 0.000000 0.000000 -1.065959 -0.024985
 17   0.982678 -0.000001 0.000000 0.000000 -0.907239 -0.016613
 18   2.527048 -0.796803 -0.312234 0.000000 0.000000 -0.183889
 19   1.365153 0.000000 0.000000 -0.104925 -1.351350 0.067768
 20   0.951159 0.000001 0.000000 0.009983 -0.445132 -0.008037
 21   0.457618 -1.069485 0.220609 0.077480 -0.812912 -0.502659
 22   1.214084 0.000001 0.000000 0.000000 0.000000 0.751993
 23   0.888922 -0.000001 0.000000 0.000000 0.000000 0.199289
 24   9.624104 -17.857193 -1.635579 0.000000 2.896706 -0.000475
 25   -0.003387 0.018327 0.000000 0.121573 0.384175 -0.468684
 26   8.473085 0.000000 0.000000 0.000000 0.000000 -0.573782
 27   8.737236 0.000001 0.000000 -0.007309 -0.133931 0.739136
 28   2.519908 -0.796944 0.238411 0.000000 1.162746 0.028362
 29   1.365153 0.000000 0.000001 0.022160 0.854590 -0.018054
 30   0.857406 0.000000 -0.000001 0.000000 0.000000 -0.008984
 31   2.258546 1.052112 0.238412 0.001103 1.133039 0.101600
 32   1.066371 -0.000056 0.000000 -0.036601 0.852968 -0.106784
 33   0.931743 -0.000095 0.000000 0.000000 0.000000 -0.006902
 34   2.529451 0.408675 0.238411 0.000000 1.163012 0.092136
 35   1.343065 -0.000036 0.000001 -0.006807 0.854468 -0.073065
 36   0.942958 0.000001 -0.000001 0.000000 0.000000 -0.030510
 37   2.586963 -0.188143 0.238411 0.000000 1.331637 0.049964
 38   1.424857 -0.000001 0.000000 0.004950 0.854872 -0.043981
 39   1.127214 -0.000002 0.000000 0.000000 0.000000 -0.016769
 40   0.463661 -1.047538 -0.337884 0.197866 0.639194 -1.135355
 41   1.214084 0.000000 0.000000 0.000000 0.000000 0.053309
 42   0.888923 0.000001 0.000000 0.000000 0.000000 0.200487
time 25
  0   -4.081718 -8.921000 -3.610043 1.582566 0.107005 0.001040
  1   0.111793 -1.375723 0.632810 0.000005 0.000010 0.000001
  2   4.350997 -49.665867 -4.743345 0.000000 0.000000 0.000000
  3   -4.068120 -13.093791 -7.246954 1.275355 0.102398 -0.031326
  4   -0.489025 14.281685 -7.919792 0.000000 0.000000 -0.000062
  5   -15.338515 -10.040536 0.367200 0.133039 -0.034446 6.278172
  6   -0.003387 0.015761 0.000000 -0.052041 -0.092585 -0.228726
  7   8.473085 -0.000001 0.000000 -3.141592 0.000000 -1.004332
  8   8.737238 0.000001 0.000000 1.430895 -0.082402 0.345806
  9   2.259233 1.146023 -0.312235 0.000000 -1.249516 -0.011300
 10   1.066370 -0.000056 0.000000 0.073142 -1.064476 -0.076931
 11   0.974713 -0.000094 0.000000 -0.000084 -0.898400 -0.006746
 12   2.532812 0.476064 -0.312234 0.000000 -1.249516 -0.038272
 13   1.343066 -0.000036 0.000000 -0.000455 -1.065959 -0.035026
 14   0.892175 0.000001 0.000000 -0.000084 -0.905307 -0.029863
 15   2.587555 -0.113644 -0.312234 0.000000 -1.249516 -0.019515
 16   1.424858 -0.000001 0.000000 0.000000 -1.065959 -0.024985
 17   0.982678 -0.000001 0.000000 0.000000 -0.907239 -0.016613
 18   2.527048 -0.796803 -0.312234 0.000000 0.000000 -0.183889
 19   1.365153 0.000000 0.000000 -0.104925 -1.351350 0.067768
 20   0.951159 0.000001 0.000000 0.009983 -0.445132 -0.008037
 21   0.457618 -1.069485 0.220609 0.077480 -0.812912 -0.502659
 22   1.214084 0.000001 0.000000 0.000000 0.000000 0.751993
 23   0.888922 -0.000001 0.000000 0.000000 0.000000 0.199289
 24   9.624104 -17.857193 -1.635579 0.000000 2.896706 -0.000475
 25   -0.003387 0.018327 0.000000 0.120698 0.384790 -0.472074
 26   8.473085 0.000000 0.000000 0.000000 0.000000 -0.568998
 27   8.737236 0.000001 0.000000 -0.006206 -0.133641 0.737418
 28   2.519908 -0.796944 0.238411 0.000000 1.162746 0.028362
 29   1.365153 0.000000 0.000001 0.022160 0.854590 -0.018054
 30   0.857406 0.000000 -0.000001 0.000000 0.000000 -0.008984
 31   2.258546 1.052112 0.238412 0.001103 1.133039 0.101600
 32   1.066371 -0.000056 0.000000 -0.036601 0.852968 -0.106784
 33   0.931743 -0.000095 0.000000 0.000000 0.000000 -0.006902
 34   2.529451 0.408675 0.238411 0.000000 1.163012 0.092136
 35   1.343065 -0.000036 0.000001 -0.006807 0.854468 -0.073065
 36   0.942958 0.000001 -0.000001 0.000000 0.000000 -0.030510
 37   2.586963 -0.188143 0.238411 0.000000 1.331637 0.049964
 38   1.424857 -0.000001 0.000000 0.004950 0.854872 -0.043981
 39   1.127214 -0.000002 0.000000 0.000000 0.000000 -0.016769
 40   0.463661 -1.047538 -0.337884 0.197866 0.639194 -1.135355
 41   1.214084 0.000000 0.000000 0.000000 0.000000 0.053309
 42   0.888923 0.000001 0.000000 0.000000 0.000000 0.200487
time 26
  0   -4.081718 -8.921000 -3.610043 1.580756 0.107005 0.000915
  1   0.111793 -1.375723 0.632810 0.000005 0.000010 0.000001
  2   4.350997 -49.665867 -4.743345 0.000000 0.000000 0.000000
  3   -4.068120 -13.105510 -7.239141 1.273559 0.102330 -0.031514
  4   -0.489025 14.281685 -7.919792 0.000000 0.000000 -0.000062
  5   -15.338515 -10.040536 0.367200 0.133039 -0.034446 6.278172
  6   -0.003387 0.015761 0.000000 -0.051813 -0.092540 -0.231271
  7   8.473085 -0.000001 0.000000 -3.141592 0.000000 -1.001313
  8   8.737238 0.000001 0.000000 1.431010 -0.080528 0.346114
  9   2.259233 1.146023 -0.312235 0.000000 -1.249516 -0.011300
 10   1.066370 -0.000056 0.000000 0.073142 -1.064476 -0.076931
 11   0.974713 -0.000094 0.000000 -0.000084 -0.898400 -0.006746
 12   2.532812 0.476064 -0.312234 0.000000 -1.249516 -0.038272
 13   1.343066 -0.000036 0.000000 -0.000455 -1.065959 -0.035026
 14   0.892175 0.000001 0.000000 -0.000084 -0.905307 -0.029863
 15   2.587555 -0.113644 -0.312234 0.000000 -1.249516 -0.019515
 16   1.424858 -0.000001 0.000000 0.000000 -1.065959 -0.024985
 17   0.982678 -0.000001 0.000000 0.000000 -0.907239 -0.016613
 18   2.527048 -0.796803 -0.312234 0.000000 0.000000 -0.183889
 19   1.365153 0.000000 0.000000 -0.104925 -1.351350 0.067768
 20   0.951159 0.000001 0.000000 0.009983 -0.445132 -0.008037
 21   0.457618 -1.069485 0.220609 0.077480 -0.812912 -0.502659
 22   1.214084 0.000001 0.000000 0.000000 0.000000 0.751993
 23   0.888922 -0.000001 0.000000 0.000000 0.000000 0.199289
 24   9.624104 -17.857193 -1.635579 0.000000 2.896706 -0.000475
 25   -0.003387 0.018327 0.000000 0.119679 0.385491 -0.475857
 26   8.473085 0.000000 0.000000 0.000000 0.000000 -0.563573
 27   8.737236 0.000001 0.000000 -0.004985 -0.133329 0.735455
 28   2.519908 -0.796944 0.238411 0.000000 1.162746 0.028362
 29   1.365153 0.000000 0.000001 0.022160 0.854590 -0.018054
 30   0.857406 0.000000 -0.000001 0.000000 0.000000 -0.008984
 31   2.258546 1.052112 0.238412 0.001103 1.133039 0.101600
 32   1.066371 -0.000056 0.000000 -0.036601 0.852968 -0.106784
 33   0.931743 -0.000095 0.000000 0.000000 0.000000 -0.006902
 34   2.529451 0.408675 0.238411 0.000000 1.163012 0.092136
 35   1.343065 -0.000036 0.000001 -0.006807 0.854468 -0.073065
 36   0.942958 0.000001 -0.000001 0.000000 0.000000 -0.030510
 37   2.586963 -0.188143 0.238411 0.000000 1.331637 0.049964
 38   1.424857 -0.000001 0.000000 0.004950 0.854872 -0.043981
 39   1.127214 -0.000002 0.000000 0.000000 0.000000 -0.016769
 40   0.463661 -1.047538 -0.337884 0.197866 0.639194 -1.135355
 41   1.214084 0.000000 0.000000 0.000000 0.000000 0.053309
 42   0.888923 0.000001 0.000000 0.000000 0.000000 0.200487
time 27
  0   -4.081718 -8.948344 -3.610043 1.578570 0.107005 0.000665
  1   0.111793 -1.375723 0.632810 0.000005 0.000010 0.000001
  2   4.350997 -49.665867 -4.743345 0.000000 0.000000 0.000000
  3   -4.068120 -13.136761 -7.223516 1.271459 0.102248 -0.031763
  4   -0.489025 14.281685 -7.919792 0.000000 0.000000 -0.000062
  5   -15.338515 -10.040536 0.367200 0.133039 -0.034446 6.278172
  6   -0.003387 0.015761 0.000000 -0.051525 -0.092479 -0.233924
  7   8.473085 -0.000001 0.000000 -3.141592 0.000000 -0.997902
  8   8.737238 0.000001 0.000000 1.431126 -0.078411 0.346422
  9   2.259233 1.146023 -0.312235 0.000000 -1.249516 -0.011300
 10   1.066370 -0.000056 0.000000 0.073142 -1.064476 -0.076931
 11   0.974713 -0.000094 0.000000 -0.000084 -0.898400 -0.006746
 12   2.532812 0.476064 -0.312234 0.000000 -1.249516 -0.038272
 13   1.343066 -0.000036 0.000000 -0.000455 -1.065959 -0.035026
 14   0.892175 0.000001 0.000000 -0.000084 -0.905307 -0.029863
 15   2.587555 -0.113644 -0.312234 0.000000 -1.249516 -0.019515
 16   1.424858 -0.000001 0.000000 0.000000 -1.065959 -0.024985
 17   0.982678 -0.000001 0.000000 0.000000 -0.907239 -0.016613
 18   2.527048 -0.796803 -0.312234 0.000000 0.000000 -0.183889
 19   1.365153 0.000000 0.000000 -0.104925 -1.351350 0.067768
 20   0.951159 0.000001 0.000000 0.009983 -0.445132 -0.008037
 21   0.457618 -1.069485 0.220609 0.077480 -0.812912 -0.502659
 22   1.214084 0.000001 0.000000 0.000000 0.000000 0.751993
 23   0.888922 -0.000001 0.000000 0.000000 0.000000 0.199289
 24   9.624104 -17.857193 -1.635579 0.000000 2.896706 -0.000475
 25   -0.003387 0.018327 0.000000 0.118433 0.386345 -0.480623
 26   8.473085 0.000000 0.000000 0.000000 0.000000 -0.556568
 27   8.737236 0.000001 0.000000 -0.003528 -0.132927 0.732756
 28   2.519908 -0.796944 0.238411 0.000000 1.162746 0.028362
 29   1.365153 0.000000 0.000001 0.022160 0.854590 -0.018054
 30   0.857406 0.000000 -0.000001 0.000000 0.000000 -0.008984
 31   2.258546 1.052112 0.238412 0.001103 1.133039 0.101600
 32   1.066371 -0.000056 0.000000 -0.036601 0.852968 -0.106784
 33   0.931743 -0.000095 0.000000 0.000000 0.000000 -0.006902
 34   2.529451 0.408675 0.238411 0.000000 1.163012 0.092136
 35   1.343065 -0.000036 0.000001 -0.006807 0.854468 -0.073065
 36   0.942958 0.000001 -0.000001 0.000000 0.000000 -0.030510
 37   2.586963 -0.188143 0.238411 0.000000 1.331637 0.049964
 38   1.424857 -0.000001 0.000000 0.004950 0.854872 -0.043981
 39   1.127214 -0.000002 0.000000 0.000000 0.000000 -0.016769
 40   0.463661 -1.047538 -0.337884 0.197866 0.639194 -1.135355
 41   1.214084 0.000000 0.000000 0.000000 0.000000 0.053309
 42   0.888923 0.000001 0.000000 0.000000 0.000000 0.200487
time 28
  0   -4.081718 -8.967876 -3.610043 1.576248 0.107005 0.000415
  1   0.111793 -1.375723 0.632810 0.000005 0.000010 0.000001
  2   4.350997 -49.665867 -4.743345 0.000000 0.000000 0.000000
  3   -4.068120 -13.160199 -7.215703 1.269086 0.102207 -0.032076
  4   -0.489025 14.281685 -7.919792 0.000000 0.000000 -0.000062
  5   -15.338515 -10.040536 0.367200 0.133039 -0.034446 6.278172
  6   -0.003387 0.015761 0.000000 -0.051310 -0.092403 -0.237119
  7   8.473085 -0.000001 0.000000 -3.141592 0.000000 -0.994177
  8   8.737238 0.000001 0.000000 1.431648 -0.076097 0.346761
  9   2.259233 1.146023 -0.312235 0.000000 -1.249516 -0.011300
 10   1.066370 -0.000056 0.000000 0.073142 -1.064476 -0.076931
 11   0.974713 -0.000094 0.000000 -0.000084 -0.898400 -0.006746
 12   2.532812 0.476064 -0.312234 0.000000 -1.249516 -0.038272
 13   1.343066 -0.000036 0.000000 -0.000455 -1.065959 -0.035026
 14   0.892175 0.000001 0.000000 -0.000084 -0.905307 -0.029863
 15   2.587555 -0.113644 -0.312234 0.000000 -1.249516 -0.019515
 16   1.424858 -0.000001 0.000000 0.000000 -1.065959 -0.024985
 17   0.982678 -0.000001 0.000000 0.000000 -0.907239 -0.016613
 18   2.527048 -0.796803 -0.312234 0.000000 0.000000 -0.183889
 19   1.365153 0.000000 0.000000 -0.104925 -1.351350 0.067768
 20   0.951159 0.000001 0.000000 0.009983 -0.445132 -0.008037
 21   0.457618 -1.069485 0.220609 0.077480 -0.812912 -0.502659
 22   1.214084 0.000001 0.000000 0.000000 0.000000 0.751993
 23   0.888922 -0.000001 0.000000 0.000000 0.000000 0.199289
 24   9.624104 -17.857193 -1.635579 0.000000 2.896706 -0.000475
 25   -0.003387 0.018327 0.000000 0.117055 0.387251 -0.485683
 26   8.473085 0.000000 0.000000 0.000000 0.000000 -0.548965
 27   8.737236 0.000001 0.000000 -0.001795 -0.132481 0.730118
 28   2.519908 -0.796944 0.238411 0.000000 1.162746 0.028362
 29   1.365153 0.000000 0.000001 0.022160 0.854590 -0.018054
 30   0.857406 0.000000 -0.000001 0.000000 0.000000 -0.008984
 31   2.258546 1.052112 0.238412 0.001103 1.133039 0.101600
 32   1.066371 -0.000056 0.000000 -0.036601 0.852968 -0.106784
 33   0.931743 -0.000095 0.000000 0.000000 0.000000 -0.006902
 34   2.529451 0.408675 0.238411 0.000000 1.163012 0.092136
 35   1.343065 -0.000036 0.000001 -0.006807 0.854468 -0.073065
 36   0.942958 0.000001 -0.000001 0.000000 0.000000 -0.030510
 37   2.586963 -0.188143 0.238411 0.000000 1.331637 0.049964
 38   1.424857 -0.000001 0.000000 0.004950 0.854872 -0.043981
 39   1.127214 -0.000002 0.000000 0.000000 0.000000 -0.016769
 40   0.463661 -1.047538 -0.337884 0.197866 0.639194 -1.135355
 41   1.214084 0.000000 0.000000 0.000000 0.000000 0.053309
 42   0.888923 0.000001 0.000000 0.000000 0.000000 0.200487
time 29
  0   -4.081718 -8.983501 -3.598324 1.573789 0.107005 0.000165
  1   0.111793 -1.375723 0.632810 0.000005 0.000010 0.000001
  2   4.350997 -49.665867 -4.743345 0.000000 0.000000 0.000000
  3   -4.068120 -13.187544 -7.203984 1.266443 0.102125 -0.032200
  4   -0.489025 14.281685 -7.919792 0.000000 0.000000 -0.000062
  5   -15.338515 -10.040536 0.367200 0.133039 -0.034446 6.278172
  6   -0.003387 0.015761 0.000000 -0.051010 -0.092342 -0.240747
  7   8.473085 -0.000001 0.000000 -3.141592 0.000000 -0.990060
  8   8.737238 0.000001 0.000000 1.431880 -0.073517 0.347069
  9   2.259233 1.146023 -0.312235 0.000000 -1.249516 -0.011300
 10   1.066370 -0.000056 0.000000 0.073142 -1.064476 -0.076931
 11   0.974713 -0.000094 0.000000 -0.000084 -0.898400 -0.006746
 12   2.532812 0.476064 -0.312234 0.000000 -1.249516 -0.038272
 13   1.343066 -0.000036 0.000000 -0.000455 -1.065959 -0.035026
 14   0.892175 0.000001 0.000000 -0.000084 -0.905307 -0.029863
 15   2.587555 -0.113644 -0.312234 0.000000 -1.249516 -0.019515
 16   1.424858 -0.000001 0.000000 0.000000 -1.065959 -0.024985
 17   0.982678 -0.000001 0.000000 0.000000 -0.907239 -0.016613
 18   2.527048 -0.796803 -0.312234 0.000000 0.000000 -0.183889
 19   1.365153 0.000000 0.000000 -0.104925 -1.351350 0.067768
 20   0.951159 0.000001 0.000000 0.009983 -0.445132 -0.008037
 21   0.457618 -1.069485 0.220609 0.077480 -0.812912 -0.502659
 22   1.214084 0.000001 0.000000 0.000000 0.000000 0.751993
 23   0.888922 -0.000001 0.000000 0.000000 0.000000 0.199289
 24   9.624104 -17.857193 -1.635579 0.000000 2.896706 -0.000475
 25   -0.003387 0.018327 0.000000 0.115497 0.388242 -0.491382
 26   8.473085 0.000000 0.000000 0.000000 0.000000 -0.540636
 27   8.737236 0.000001 0.000000 -0.000062 -0.132035 0.727051
 28   2.519908 -0.796944 0.238411 0.000000 1.162746 0.028362
 29   1.365153 0.000000 0.000001 0.022160 0.854590 -0.018054
 30   0.857406 0.000000 -0.000001 0.000000 0.000000 -0.008984
 31   2.258546 1.052112 0.238412 0.001103 1.133039 0.101600
 32   1.066371 -0.000056 0.000000 -0.036601 0.852968 -0.106784
 33   0.931743 -0.000095 0.000000 0.000000 0.000000 -0.006902
 34   2.529451 0.408675 0.238411 0.000000 1.163012 0.092136
 35   1.343065 -0.000036 0.000001 -0.006807 0.854468 -0.073065
 36   0.942958 0.000001 -0.000001 0.000000 0.000000 -0.030510
 37   2.586963 -0.188143 0.238411 0.000000 1.331637 0.049964
 38   1.424857 -0.000001 0.000000 0.004950 0.854872 -0.043981
 39   1.127214 -0.000002 0.000000 0.000000 0.000000 -0.016769
 40   0.463661 -1.047538 -0.337884 0.197866 0.639194 -1.135355
 41   1.214084 0.000000 0.000000 0.000000 0.000000 0.053309
 42   0.888923 0.000001 0.000000 0.000000 0.000000 0.200487
time 30
  0   -4.081718 -9.006940 -3.598324 1.570818 0.107018 -0.000273
  1   0.111793 -1.375723 0.632810 0.000005 0.000010 0.000001
  2   4.350997 -49.665867 -4.743345 0.000000 0.000000 0.000000
  3   -4.068120 -13.218795 -7.184452 1.263664 0.102043 -0.032450
  4   -0.489025 14.281685 -7.919792 0.000000 0.000000 -0.000062
  5   -15.338515 -10.040536 0.367200 0.133039 -0.034446 6.278172
  6   -0.003387 0.015761 0.000000 -0.050650 -0.092266 -0.244375
  7   8.473085 -0.000001 0.000000 -3.141592 0.000000 -0.985590
  8   8.737238 0.000001 0.000000 1.431995 -0.070696 0.347408
  9   2.259233 1.146023 -0.312235 0.000000 -1.249516 -0.011300
 10   1.066370 -0.000056 0.000000 0.073142 -1.064476 -0.076931
 11   0.974713 -0.000094 0.000000 -0.000084 -0.898400 -0.006746
 12   2.532812 0.476064 -0.312234 0.000000 -1.249516 -0.038272
 13   1.343066 -0.000036 0.000000 -0.000455 -1.065959 -0.035026
 14   0.892175 0.000001 0.000000 -0.000084 -0.905307 -0.029863
 15   2.587555 -0.113644 -0.312234 0.000000 -1.249516 -0.019515
 16   1.424858 -0.000001 0.000000 0.000000 -1.065959 -0.024985
 17   0.982678 -0.000001 0.000000 0.000000 -0.907239 -0.016613
 18   2.527048 -0.796803 -0.312234 0.000000 0.000000 -0.183889
 19   1.365153 0.000000 0.000000 -0.104925 -1.351350 0.067768
 20   0.951159 0.000001 0.000000 0.009983 -0.445132 -0.008037
 21   0.457618 -1.069485 0.220609 0.077480 -0.812912 -0.502659
 22   1.214084 0.000001 0.000000 0.000000 0.000000 0.751993
 23   0.888922 -0.000001 0.000000 0.000000 0.000000 0.199289
 24   9.624104 -17.857193 -1.635579 0.000000 2.896706 -0.000475
 25   -0.003387 0.018327 0.000000 0.113771 0.389370 -0.497769
 26   8.473085 0.000000 0.000000 0.000000 0.000000 -0.531367
 27   8.737236 0.000001 0.000000 0.001868 -0.131455 0.723616
 28   2.519908 -0.796944 0.238411 0.000000 1.162746 0.028362
 29   1.365153 0.000000 0.000001 0.022160 0.854590 -0.018054
 30   0.857406 0.000000 -0.000001 0.000000 0.000000 -0.008984
 31   2.258546 1.052112 0.238412 0.001103 1.133039 0.101600
 32   1.066371 -0.000056 0.000000 -0.036601 0.852968 -0.106784
 33   0.931743 -0.000095 0.000000 0.000000 0.000000 -0.006902
 34   2.529451 0.408675 0.238411 0.000000 1.163012 0.092136
 35   1.343065 -0.000036 0.000001 -0.006807 0.854468 -0.073065
 36   0.942958 0.000001 -0.000001 0.000000 0.000000 -0.030510
 37   2.586963 -0.188143 0.238411 0.000000 1.331637 0.049964
 38   1.424857 -0.000001 0.000000 0.004950 0.854872 -0.043981
 39   1.127214 -0.000002 0.000000 0.000000 0.000000 -0.016769
 40   0.463661 -1.047538 -0.337884 0.197866 0.639194 -1.135355
 41   1.214084 0.000000 0.000000 0.000000 0.000000 0.053309
 42   0.888923 0.000001 0.000000 0.000000 0.000000 0.200487
end
