version 1
nodes
  0 "Bip01" -1
  1 "Bip01 Pelvis" 0
  2 "Bip01 L Thigh" 1
  3 "Bip01 L Calf" 2
  4 "Bip01 L Foot" 3
  5 "Bip01 L Toe0" 4
  6 "Bip01 R Thigh" 1
  7 "Bip01 R Calf" 6
  8 "Bip01 R Foot" 7
  9 "Bip01 R Toe0" 8
 10 "Bip01 Spine" 1
 11 "Bip01 Spine1" 10
 12 "Bip01 Spine2" 11
 13 "Bip01 Spine3" 12
 14 "Bip01 Neck" 13
 15 "Bip01 L Clavicle" 14
 16 "Bip01 L UpperArm" 15
 17 "Bip01 L Forearm" 16
 18 "Bip01 L Hand" 17
 19 "Bip01 R Clavicle" 14
 20 "Bip01 R UpperArm" 19
 21 "Bip01 R Forearm" 20
 22 "Bip01 R Hand" 21
 23 "Bip01 Head" 14
 24 "Bone05" 23
 25 "m4" 22
 26 "SHOTGUN" 22
end
skeleton
time 0
  0   0.412998 -0.006819 30.257172 0.000000 0.000000 -1.570844
  1   0.739623 0.000001 9.745319 -1.570795 -1.570451 0.000000
  2   -0.000008 0.000010 5.615750 -0.213208 3.222663 -0.285989
  3   15.693467 0.000000 0.000000 0.000000 0.000000 -0.671142
  4   22.146629 -0.000001 0.000000 0.188085 0.129451 -0.291596
  5   3.310129 5.734393 0.000000 0.000000 0.000000 1.570796
  6   0.000008 -0.000006 -5.615750 0.073059 3.054250 -0.195591
  7   15.693467 0.000000 0.000000 0.000000 0.000000 -1.141942
  8   22.146629 0.000000 0.000000 -0.106896 -0.039204 -0.083905
  9   3.310129 5.734393 0.000000 0.000000 0.000000 1.570796
 10   1.384163 -0.004728 0.000002 -0.000004 -0.000001 -0.060247
 11   5.939814 -0.004730 0.000000 0.000000 0.000000 -0.209330
 12   5.939809 -0.003975 0.000000 0.000000 0.000000 0.200609
 13   4.991439 -0.003975 0.000000 0.000000 0.000000 0.000000
 14   4.991436 -0.001575 0.000000 0.000000 0.000000 0.000000
 15   0.000005 0.001564 3.638375 -0.000010 -1.283555 3.140806
 16   8.842831 0.000000 -0.000002 -0.063462 0.364522 -1.220531
 17   9.341934 0.000000 -0.000001 0.000000 0.000000 -1.879508
 18   11.168404 -0.000001 0.000002 -2.458814 0.000001 -0.000011
 19   0.000005 0.001585 -3.638375 -0.000010 1.283575 3.140787
 20   8.842831 0.000000 0.000001 0.595902 -0.169224 -1.007271
 21   9.341937 0.000000 -0.000001 0.000000 0.000000 -1.274078
 22   11.168404 -0.000001 0.000001 1.568687 0.165692 -0.000040
 23   1.977383 0.000000 0.000000 0.000000 0.000000 0.042793
 24   3.723980 2.768054 -0.049087 0.000001 -3.141591 -1.570794
 25   12.421014 0.304721 4.492689 -0.091859 -0.075839 1.616818
 26   19.916998 1.704573 4.956909 2.262592 1.451744 0.734330
time 1
  0   0.397926 -0.006819 30.257172 0.000000 0.000000 -1.570844
  1   1.181042 0.000001 9.745319 -1.570795 -1.570451 0.000000
  2   -0.000008 0.000010 5.615750 -0.052151 3.190752 0.445065
  3   15.693467 0.000000 0.000000 0.000000 0.000000 -0.671142
  4   22.146629 -0.000001 0.000000 0.067344 0.024568 -0.434065
  5   3.310129 5.734393 0.000000 0.000000 0.000000 1.570796
  6   0.000008 -0.000006 -5.615750 -0.102587 3.055017 0.147639
  7   15.693467 0.000000 0.000000 0.000000 0.000000 -1.189281
  8   22.146629 0.000000 0.000000 -0.080665 0.107328 -0.324709
  9   3.310129 5.734393 0.000000 0.000000 0.000000 1.570796
 10   1.384163 -0.004728 0.000002 -0.000004 -0.000001 -0.060247
 11   5.939814 -0.004730 0.000000 0.000000 0.000000 -0.218662
 12   5.939809 -0.003975 0.000000 0.000000 0.000000 0.051545
 13   4.991439 -0.003975 0.000000 0.000000 0.000000 0.000000
 14   4.991436 -0.001575 0.000000 0.000000 0.000000 0.000000
 15   0.000005 0.001564 3.638375 -0.000010 -1.283555 3.140806
 16   8.842831 0.000000 -0.000002 0.493797 0.194195 -0.156168
 17   9.341934 0.000000 -0.000001 0.000000 0.000000 -0.781813
 18   11.168404 -0.000001 0.000002 -1.934307 0.000001 -0.000011
 19   0.000005 0.001585 -3.638375 -0.000010 1.283575 3.140787
 20   8.842831 0.000000 0.000001 -0.105942 -0.181086 0.041938
 21   9.341937 0.000000 -0.000001 0.000000 0.000000 -0.569129
 22   11.168404 -0.000001 0.000001 1.568687 0.165692 -0.000040
 23   1.977383 0.000000 0.000000 0.000000 0.000000 0.201202
 24   3.723980 2.768054 -0.049087 0.000001 -3.141591 -1.570794
 25   12.421014 0.304721 4.492689 -0.091859 -0.075839 1.616818
 26   19.916998 1.704573 4.956909 2.262592 1.451744 0.734330
time 2
  0   0.375318 -0.006819 30.257172 0.000000 0.000000 -1.570844
  1   1.388080 0.000001 9.745319 -1.570795 -1.570451 0.000000
  2   -0.000008 0.000010 5.615750 0.062602 3.233683 0.867411
  3   15.693467 0.000000 0.000000 0.000000 0.000000 -0.671142
  4   22.146629 -0.000001 0.000000 0.059866 -0.093937 -0.493522
  5   3.310129 5.734393 0.000000 0.000000 0.000000 1.570796
  6   0.000008 -0.000006 -5.615750 -0.223775 3.024338 0.335034
  7   15.693467 0.000000 0.000000 0.000000 0.000000 -1.141942
  8   22.146629 0.000000 0.000000 -0.124044 0.220150 -0.459731
  9   3.310129 5.734393 0.000000 0.000000 0.000000 1.570796
 10   1.384163 -0.004728 0.000002 -0.000004 -0.000001 -0.060247
 11   5.939814 -0.004730 0.000000 0.000000 0.000000 -0.209330
 12   5.939809 -0.003975 0.000000 0.000000 0.000000 -0.052332
 13   4.991439 -0.003975 0.000000 0.000000 0.000000 0.000000
 14   4.991436 -0.001575 0.000000 0.000000 0.000000 0.000000
 15   0.000005 0.001564 3.638375 -0.000010 -1.283555 3.140806
 16   8.842831 0.000000 -0.000002 0.638644 -0.153716 0.432971
 17   9.341934 0.000000 -0.000001 0.000000 0.000000 -0.016887
 18   11.168404 -0.000001 0.000002 -1.568718 0.000001 -0.000011
 19   0.000005 0.001585 -3.638375 -0.000010 1.283575 3.140787
 20   8.842831 0.000000 0.000001 -0.412318 0.146906 0.630212
 21   9.341937 0.000000 -0.000001 0.000000 0.000000 -0.077890
 22   11.168404 -0.000001 0.000001 1.568687 0.165692 -0.000040
 23   1.977383 0.000000 0.000000 0.000000 0.000000 0.295740
 24   3.723980 2.768054 -0.049087 0.000001 -3.141591 -1.570794
 25   12.421014 0.304721 4.492689 -0.091859 -0.075839 1.616818
 26   19.916998 1.704573 4.956909 2.262592 1.451744 0.734330
time 3
  0   0.352711 -0.006819 30.237568 0.000000 0.000000 -1.570844
  1   1.181042 0.000001 9.745319 -1.570795 -1.570451 0.000000
  2   -0.000008 0.000010 5.615750 0.111303 3.229850 0.711528
  3   15.693467 0.000000 0.000000 0.000000 0.000000 -0.671142
  4   22.146629 -0.000001 0.000000 0.022959 -0.140125 -0.390295
  5   3.310129 5.734393 0.000000 0.000000 0.000000 1.570796
  6   0.000008 -0.000006 -5.615750 -0.266344 3.027406 0.224154
  7   15.693467 0.000000 0.000000 0.000000 0.000000 -0.896464
  8   22.146629 0.000000 0.000000 -0.032774 0.287537 -0.378260
  9   3.310129 5.734393 0.000000 0.000000 0.000000 1.570796
 10   1.384163 -0.004728 0.000002 -0.000004 -0.000001 -0.060247
 11   5.939814 -0.004730 0.000000 0.000000 0.000000 -0.163418
 12   5.939809 -0.003975 0.000000 0.000000 0.000000 -0.070922
 13   4.991439 -0.003975 0.000000 0.000000 0.000000 0.000000
 14   4.991436 -0.001575 0.000000 0.000000 0.000000 0.000000
 15   0.000005 0.001564 3.638375 -0.000010 -1.283555 3.140806
 16   8.842831 0.000000 -0.000002 0.555705 -0.015761 0.585183
 17   9.341934 0.000000 -0.000001 0.000000 0.000000 0.153434
 18   11.168404 -0.000001 0.000002 -1.487444 0.000001 -0.000011
 19   0.000005 0.001585 -3.638375 -0.000010 1.283575 3.140787
 20   8.842831 0.000000 0.000001 -0.391597 -0.010672 0.740871
 21   9.341937 0.000000 -0.000001 0.000000 0.000000 0.031430
 22   11.168404 -0.000001 0.000001 1.568687 0.165692 -0.000040
 23   1.977383 0.000000 0.000000 0.000000 0.000000 0.268403
 24   3.723980 2.768054 -0.049087 0.000001 -3.141591 -1.570794
 25   12.421014 0.304721 4.492689 -0.091859 -0.075839 1.616818
 26   19.916998 1.704573 4.956909 2.262592 1.451744 0.734330
time 4
  0   0.330103 -0.006819 30.217964 0.000000 0.000000 -1.570844
  1   0.845095 0.000001 9.745319 -1.570795 -1.570451 0.000000
  2   -0.000008 0.000010 5.615750 0.141118 3.196214 0.390969
  3   15.693467 0.000000 0.000000 0.000000 0.000000 -0.671142
  4   22.146629 -0.000001 0.000000 -0.044123 -0.144781 -0.231818
  5   3.310129 5.734393 0.000000 0.000000 0.000000 1.570796
  6   0.000008 -0.000006 -5.615750 -0.293190 3.047155 0.021400
  7   15.693467 0.000000 0.000000 0.000000 0.000000 -0.579754
  8   22.146629 0.000000 0.000000 0.131039 0.279187 -0.227912
  9   3.310129 5.734393 0.000000 0.000000 0.000000 1.570796
 10   1.384163 -0.004728 0.000002 -0.000004 -0.000001 -0.060247
 11   5.939814 -0.004730 0.000000 0.000000 0.000000 -0.105994
 12   5.939809 -0.003975 0.000000 0.000000 0.000000 -0.064738
 13   4.991439 -0.003975 0.000000 0.000000 0.000000 0.000000
 14   4.991436 -0.001575 0.000000 0.000000 0.000000 0.000000
 15   0.000005 0.001564 3.638375 -0.000010 -1.283555 3.140806
 16   8.842831 0.000000 -0.000002 0.454202 0.285545 0.600486
 17   9.341934 0.000000 -0.000001 0.000000 0.000000 0.174755
 18   11.168404 -0.000001 0.000002 -1.477225 0.000001 -0.000011
 19   0.000005 0.001585 -3.638375 -0.000010 1.283575 3.140787
 20   8.842831 0.000000 0.000001 -0.316696 -0.343799 0.714945
 21   9.341937 0.000000 -0.000001 0.000000 0.000000 0.045087
 22   11.168404 -0.000001 0.000001 1.568687 0.165692 -0.000040
 23   1.977383 0.000000 0.000000 0.000000 0.000000 0.204830
 24   3.723980 2.768054 -0.049087 0.000001 -3.141591 -1.570794
 25   12.421014 0.304721 4.492689 -0.091859 -0.075839 1.616818
 26   19.916998 1.704573 4.956909 2.262592 1.451744 0.734330
time 5
  0   0.299959 -0.006819 30.198360 0.000000 0.000000 -1.570844
  1   0.462270 0.000001 9.745319 -1.570795 -1.570451 0.000000
  2   -0.000008 0.000010 5.615750 0.140638 3.149353 0.008382
  3   15.693467 0.000000 0.000000 0.000000 0.000000 -0.671142
  4   22.146629 -0.000001 0.000000 -0.098866 -0.100500 -0.064423
  5   3.310129 5.734393 0.000000 0.000000 0.000000 1.570796
  6   0.000008 -0.000006 -5.615750 -0.296354 3.074671 -0.206953
  7   15.693467 0.000000 0.000000 0.000000 0.000000 -0.253145
  8   22.146629 0.000000 0.000000 0.257170 0.163325 -0.074745
  9   3.310129 5.734393 0.000000 0.000000 0.000000 1.570796
 10   1.384163 -0.004728 0.000002 -0.000004 -0.000001 -0.060247
 11   5.939814 -0.004730 0.000000 0.000000 0.000000 -0.045377
 12   5.939809 -0.003975 0.000000 0.000000 0.000000 -0.049259
 13   4.991439 -0.003975 0.000000 0.000000 0.000000 0.000000
 14   4.991436 -0.001575 0.000000 0.000000 0.000000 0.000000
 15   0.000005 0.001564 3.638375 -0.000010 -1.283555 3.140806
 16   8.842831 0.000000 -0.000002 0.305697 0.634200 0.474178
 17   9.341934 0.000000 -0.000001 0.000000 0.000000 0.110874
 18   11.168404 -0.000001 0.000002 -1.507786 0.000001 -0.000011
 19   0.000005 0.001585 -3.638375 -0.000010 1.283575 3.140787
 20   8.842831 0.000000 0.000001 -0.144158 -0.719507 0.529752
 21   9.341937 0.000000 -0.000001 0.000000 0.000000 0.004117
 22   11.168404 -0.000001 0.000001 1.568687 0.165692 -0.000040
 23   1.977383 0.000000 0.000000 0.000000 0.000000 0.128732
 24   3.723980 2.768054 -0.049087 0.000001 -3.141591 -1.570794
 25   12.421014 0.304721 4.492689 -0.091859 -0.075839 1.616818
 26   19.916998 1.704573 4.956909 2.262592 1.451744 0.734330
time 6
  0   0.277351 -0.006819 30.178759 0.000000 0.000000 -1.570844
  1   0.122416 0.000001 9.745319 -1.570795 -1.570451 0.000000
  2   -0.000008 0.000010 5.615750 0.118206 3.112555 -0.335784
  3   15.693467 0.000000 0.000000 0.000000 0.000000 -0.671142
  4   22.146629 -0.000001 0.000000 -0.113973 -0.042944 0.070820
  5   3.310129 5.734393 0.000000 0.000000 0.000000 1.570796
  6   0.000008 -0.000006 -5.615750 -0.275836 3.096147 -0.396452
  7   15.693467 0.000000 0.000000 0.000000 0.000000 0.021734
  8   22.146629 0.000000 0.000000 0.278211 0.026709 0.050501
  9   3.310129 5.734393 0.000000 0.000000 0.000000 1.570796
 10   1.384163 -0.004728 0.000002 -0.000004 -0.000001 -0.060247
 11   5.939814 -0.004730 0.000000 0.000000 0.000000 0.010154
 12   5.939809 -0.003975 0.000000 0.000000 0.000000 -0.039964
 13   4.991439 -0.003975 0.000000 0.000000 0.000000 0.000000
 14   4.991436 -0.001575 0.000000 0.000000 0.000000 0.000000
 15   0.000005 0.001564 3.638375 -0.000010 -1.283555 3.140806
 16   8.842831 0.000000 -0.000002 0.058890 0.913924 0.207304
 17   9.341934 0.000000 -0.000001 0.000000 0.000000 0.025673
 18   11.168404 -0.000001 0.000002 -1.548375 0.000001 -0.000011
 19   0.000005 0.001585 -3.638375 -0.000010 1.283575 3.140787
 20   8.842831 0.000000 0.000001 0.199628 -0.991462 0.149451
 21   9.341937 0.000000 -0.000001 0.000000 0.000000 -0.050576
 22   11.168404 -0.000001 0.000001 1.568687 0.165692 -0.000040
 23   1.977383 0.000000 0.000000 0.000000 0.000000 0.063868
 24   3.723980 2.768054 -0.049087 0.000001 -3.141591 -1.570794
 25   12.421014 0.304721 4.492689 -0.091859 -0.075839 1.616818
 26   19.916998 1.704573 4.956909 2.262592 1.451744 0.734330
time 7
  0   0.254743 -0.006819 30.159155 0.000000 0.000000 -1.570844
  1   -0.088528 0.000001 9.745319 -1.570795 -1.570451 0.000000
  2   -0.000008 0.000010 5.615750 0.100854 3.094443 -0.540219
  3   15.693467 0.000000 0.000000 0.000000 0.000000 -0.671142
  4   22.146629 -0.000001 0.000000 -0.110832 -0.010600 0.137870
  5   3.310129 5.734393 0.000000 0.000000 0.000000 1.570796
  6   0.000008 -0.000006 -5.615750 -0.239019 3.102379 -0.482224
  7   15.693467 0.000000 0.000000 0.000000 0.000000 0.183773
  8   22.146629 0.000000 0.000000 0.238894 -0.040371 0.144919
  9   3.310129 5.734393 0.000000 0.000000 0.000000 1.570796
 10   1.384163 -0.004728 0.000002 -0.000004 -0.000001 -0.060247
 11   5.939814 -0.004730 0.000000 0.000000 0.000000 0.052318
 12   5.939809 -0.003975 0.000000 0.000000 0.000000 -0.052332
 13   4.991439 -0.003975 0.000000 0.000000 0.000000 0.000000
 14   4.991436 -0.001575 0.000000 0.000000 0.000000 0.000000
 15   0.000005 0.001564 3.638375 -0.000010 -1.283555 3.140806
 16   8.842831 0.000000 -0.000002 -0.189015 1.054111 -0.052031
 17   9.341934 0.000000 -0.000001 0.000000 0.000000 -0.016887
 18   11.168404 -0.000001 0.000002 -1.568718 0.000001 -0.000011
 19   0.000005 0.001585 -3.638375 -0.000010 1.283575 3.140787
 20   8.842831 0.000000 0.000001 0.518824 -1.088399 -0.191961
 21   9.341937 0.000000 -0.000001 0.000000 0.000000 -0.077890
 22   11.168404 -0.000001 0.000001 1.568687 0.165692 -0.000040
 23   1.977383 0.000000 0.000000 0.000000 0.000000 0.034045
 24   3.723980 2.768054 -0.049087 0.000001 -3.141591 -1.570794
 25   12.421014 0.304721 4.492689 -0.091859 -0.075839 1.616818
 26   19.916998 1.704573 4.956909 2.262592 1.451744 0.734330
time 8
  0   0.232135 -0.006819 30.139551 0.000000 0.000000 -1.570844
  1   0.005225 0.027346 9.745319 -1.570795 -1.570451 0.000000
  2   -0.000008 0.000010 5.615750 0.105359 3.105751 -0.430785
  3   15.693467 0.000000 0.000000 0.000000 0.000000 -0.687930
  4   22.146629 -0.000001 0.000000 -0.106606 -0.032097 0.068122
  5   3.310129 5.734393 0.000000 0.000000 0.000000 1.570796
  6   0.000008 -0.000006 -5.615750 -0.147649 3.085697 -0.299318
  7   15.693467 0.000000 0.000000 0.000000 0.000000 0.078079
  8   22.146629 0.000000 0.000000 0.157326 0.012556 0.206221
  9   3.310129 5.734393 0.000000 0.000000 0.000000 1.570796
 10   1.384163 -0.004728 0.000002 -0.000004 -0.000001 -0.060247
 11   5.939814 -0.004730 0.000000 0.000036 0.005117 0.066870
 12   5.939809 -0.003975 0.000000 0.000000 0.000000 -0.119731
 13   4.991439 -0.003975 0.000000 0.000000 0.000000 0.000000
 14   4.991436 -0.001575 0.000000 0.000000 0.000000 0.000000
 15   0.000005 0.001564 3.638375 -0.000010 -1.283555 3.140806
 16   8.842831 0.000000 -0.000002 -0.189197 1.122205 -0.040311
 17   9.341934 0.000000 -0.000001 0.000000 0.000000 -0.016887
 18   11.168404 -0.000001 0.000002 -1.568718 0.000001 -0.000011
 19   0.000005 0.001585 -3.638375 -0.000010 1.283575 3.140787
 20   8.842831 0.000000 0.000001 0.509875 -1.127262 -0.181381
 21   9.341937 0.000000 -0.000001 0.000000 0.000000 -0.077890
 22   11.168404 -0.000001 0.000001 1.568687 0.165692 -0.000040
 23   1.977383 0.000000 0.000000 0.000106 -0.005104 0.086931
 24   3.723980 2.768054 -0.049087 0.000001 -3.141591 -1.570794
 25   12.421014 0.304721 4.492689 -0.091859 -0.075839 1.616818
 26   19.916998 1.704573 4.956909 2.262592 1.451744 0.734330
time 9
  0   0.209527 -0.006819 30.119947 0.000000 0.000000 -1.570844
  1   0.302109 0.054690 9.745319 -1.570795 -1.570451 0.000000
  2   -0.000008 0.000010 5.615750 0.111303 3.139866 -0.120262
  3   15.693467 0.000000 0.000000 0.000000 0.000000 -0.704719
  4   22.146629 -0.000001 0.000000 -0.076954 -0.080539 -0.117934
  5   3.310129 5.734393 0.000000 0.000000 0.000000 1.570796
  6   0.000008 -0.000006 -5.615750 -0.009970 3.093462 0.053240
  7   15.693467 0.000000 0.000000 0.000000 0.000000 -0.227614
  8   22.146629 0.000000 0.000000 0.008913 0.048353 0.205781
  9   3.310129 5.734393 0.000000 0.000000 0.000000 1.570796
 10   1.384163 -0.004728 0.000002 -0.000004 -0.000001 -0.060247
 11   5.939814 -0.004730 0.000000 0.000036 0.010235 0.059585
 12   5.939809 -0.003975 0.000000 0.000000 0.000000 -0.218649
 13   4.991439 -0.003975 0.000000 0.000000 0.000000 0.000000
 14   4.991436 -0.001575 0.000000 0.000000 0.000000 0.000000
 15   0.000005 0.001564 3.638375 -0.000010 -1.283555 3.140806
 16   8.842831 0.000000 -0.000002 -0.006310 1.157926 0.157587
 17   9.341934 0.000000 -0.000001 0.000000 0.000000 -0.016887
 18   11.168404 -0.000001 0.000002 -1.568718 0.000001 -0.000011
 19   0.000005 0.001585 -3.638375 -0.000010 1.283575 3.140787
 20   8.842831 0.000000 0.000001 0.336369 -1.157892 -0.000286
 21   9.341937 0.000000 -0.000001 0.000000 0.000000 -0.077890
 22   11.168404 -0.000001 0.000001 1.568687 0.165692 -0.000040
 23   1.977383 0.000000 0.000000 0.000211 -0.010230 0.193100
 24   3.723980 2.768054 -0.049087 0.000001 -3.141591 -1.570794
 25   12.421014 0.304721 4.492689 -0.091859 -0.075839 1.616818
 26   19.916998 1.704573 4.956909 2.262592 1.451744 0.734330
time 10
  0   0.186919 -0.006819 30.100344 0.000000 0.000000 -1.570844
  1   0.497428 0.000001 9.745319 -1.570795 -1.570451 0.000000
  2   -0.000008 0.000010 5.615750 0.109673 3.160565 0.066874
  3   15.693467 0.000000 0.000000 0.000000 0.000000 -0.671142
  4   22.146629 -0.000001 0.000000 -0.043749 -0.102407 -0.322742
  5   3.310129 5.734393 0.000000 0.000000 0.000000 1.570796
  6   0.000008 -0.000006 -5.615750 0.083605 3.123183 0.239583
  7   15.693467 0.000000 0.000000 0.000000 0.000000 -0.461630
  8   22.146629 0.000000 0.000000 -0.085009 -0.010223 0.125278
  9   3.310129 5.734393 0.000000 0.000000 0.000000 1.570796
 10   1.384163 -0.004728 0.000002 -0.000004 -0.000001 -0.060247
 11   5.939814 -0.004730 0.000000 0.000000 0.000000 0.052318
 12   5.939809 -0.003975 0.000000 0.000000 0.000000 -0.279101
 13   4.991439 -0.003975 0.000000 0.000000 0.000000 0.000000
 14   4.991436 -0.001575 0.000000 0.000000 0.000000 0.000000
 15   0.000005 0.001564 3.638375 -0.000010 -1.283555 3.140806
 16   8.842831 0.000000 -0.000002 0.126833 1.148810 0.297556
 17   9.341934 0.000000 -0.000001 0.000000 0.000000 -0.016887
 18   11.168404 -0.000001 0.000002 -1.568718 0.000001 -0.000011
 19   0.000005 0.001585 -3.638375 -0.000010 1.283575 3.140787
 20   8.842831 0.000000 0.000001 0.210432 -1.181529 0.135154
 21   9.341937 0.000000 -0.000001 0.000000 0.000000 -0.077890
 22   11.168404 -0.000001 0.000001 1.568687 0.165692 -0.000040
 23   1.977383 0.000000 0.000000 0.000000 0.000000 0.260848
 24   3.723980 2.768054 -0.049087 0.000001 -3.141591 -1.570794
 25   12.421014 0.304721 4.492689 -0.091859 -0.075839 1.616818
 26   19.916998 1.704573 4.956909 2.262592 1.451744 0.734330
time 11
  0   0.164312 -0.006819 30.100344 0.000000 0.000000 -1.570844
  1   0.493521 -0.203130 9.745319 -1.570795 -1.570451 0.000000
  2   -0.000008 0.000010 5.615750 0.111111 3.147437 -0.051352
  3   15.693467 0.000000 0.000000 0.000000 0.000000 -0.534345
  4   22.146629 -0.000001 0.000000 -0.046367 -0.101268 -0.552614
  5   3.310129 5.734393 0.000000 0.000000 0.000000 1.570796
  6   0.000008 -0.000006 -5.615750 0.101438 3.111870 0.053872
  7   15.693467 0.000000 0.000000 0.000000 0.000000 -0.517454
  8   22.146629 0.000000 0.000000 -0.100183 -0.033954 -0.094034
  9   3.310129 5.734393 0.000000 0.000000 0.000000 1.570796
 10   1.384163 -0.004728 0.000002 -0.000004 -0.000001 -0.060247
 11   5.939814 -0.004730 0.000000 -0.000018 -0.036505 0.052318
 12   5.939809 -0.003975 0.000000 0.000000 0.000000 -0.278027
 13   4.991439 -0.003975 0.000000 0.000000 0.000000 0.000000
 14   4.991436 -0.001575 0.000000 0.000000 0.000000 0.000000
 15   0.000005 0.001564 3.638375 -0.000010 -1.283555 3.140806
 16   8.842831 0.000000 -0.000002 0.110007 1.112437 0.272249
 17   9.341934 0.000000 -0.000001 0.000000 0.000000 -0.016887
 18   11.168404 -0.000001 0.000002 -1.568718 0.000001 -0.000011
 19   0.000005 0.001585 -3.638375 -0.000010 1.283575 3.140787
 20   8.842831 0.000000 0.000001 0.225106 -1.224642 0.130198
 21   9.341937 0.000000 -0.000001 0.000000 0.000000 -0.077890
 22   11.168404 -0.000001 0.000001 1.568687 0.165692 -0.000040
 23   1.977383 0.000000 0.000000 -0.000634 0.036487 0.259754
 24   3.723980 2.768054 -0.049087 0.000001 -3.141591 -1.570794
 25   12.421014 0.304721 4.492689 -0.091859 -0.075839 1.616818
 26   19.916998 1.704573 4.956909 2.262592 1.451744 0.734330
time 12
  0   0.141704 -0.006819 30.080740 0.000000 0.000000 -1.570844
  1   0.423207 -0.492202 9.745319 -1.570795 -1.570451 0.000000
  2   -0.000008 0.000010 5.615750 0.109290 3.120700 -0.292871
  3   15.693467 0.000000 0.000000 0.000000 0.000000 -0.347183
  4   22.146629 -0.000001 0.000000 -0.064128 -0.091089 -0.798539
  5   3.310129 5.734393 0.000000 0.000000 0.000000 1.570796
  6   0.000008 -0.000006 -5.615750 0.074401 3.083012 -0.294478
  7   15.693467 0.000000 0.000000 0.000000 0.000000 -0.501600
  8   22.146629 0.000000 0.000000 -0.092173 -0.021582 -0.395523
  9   3.310129 5.734393 0.000000 0.000000 0.000000 1.570796
 10   1.384163 -0.004728 0.000002 -0.000004 -0.000001 -0.060247
 11   5.939814 -0.004730 0.000000 -0.000053 -0.087751 0.052318
 12   5.939809 -0.003975 0.000000 0.000000 0.000000 -0.249881
 13   4.991439 -0.003975 0.000000 0.000000 0.000000 0.000000
 14   4.991436 -0.001575 0.000000 0.000000 0.000000 0.000000
 15   0.000005 0.001564 3.638375 -0.000010 -1.283555 3.140806
 16   8.842831 0.000000 -0.000002 0.050934 1.056437 0.198271
 17   9.341934 0.000000 -0.000001 0.000000 0.000000 -0.016887
 18   11.168404 -0.000001 0.000002 -1.568718 0.000001 -0.000011
 19   0.000005 0.001585 -3.638375 -0.000010 1.283575 3.140787
 20   8.842831 0.000000 0.000001 0.304038 -1.275545 0.060238
 21   9.341937 0.000000 -0.000001 0.000000 0.000000 -0.077890
 22   11.168404 -0.000001 0.000001 1.568687 0.165692 -0.000040
 23   1.977383 0.000000 0.000000 -0.001533 0.087731 0.231572
 24   3.723980 2.768054 -0.049087 0.000001 -3.141591 -1.570794
 25   12.421014 0.304721 4.492689 -0.091859 -0.075839 1.616818
 26   19.916998 1.704573 4.956909 2.262592 1.451744 0.734330
time 13
  0   0.119096 -0.006819 30.080740 0.000000 0.000000 -1.570844
  1   0.325548 -0.765647 9.745319 -1.570795 -1.570451 0.000000
  2   -0.000008 0.000010 5.615750 0.105263 3.105272 -0.435946
  3   15.693467 0.000000 0.000000 0.000000 0.000000 -0.217571
  4   22.146629 -0.000001 0.000000 -0.076169 -0.081282 -0.932410
  5   3.310129 5.734393 0.000000 0.000000 0.000000 1.570796
  6   0.000008 -0.000006 -5.615750 0.048706 3.071124 -0.509506
  7   15.693467 0.000000 0.000000 0.000000 0.000000 -0.461630
  8   22.146629 0.000000 0.000000 -0.085009 -0.010223 -0.624788
  9   3.310129 5.734393 0.000000 0.000000 0.000000 1.570796
 10   1.384163 -0.004728 0.000002 -0.000004 -0.000001 -0.060247
 11   5.939814 -0.004730 0.000000 -0.000107 -0.135426 0.052337
 12   5.939809 -0.003975 0.000000 0.000000 0.000000 -0.211016
 13   4.991439 -0.003975 0.000000 0.000000 0.000000 0.000000
 14   4.991436 -0.001575 0.000000 0.000000 0.000000 0.000000
 15   0.000005 0.001564 3.638375 -0.000010 -1.283555 3.140806
 16   8.842831 0.000000 -0.000002 -0.010150 0.998855 0.124293
 17   9.341934 0.000000 -0.000001 0.000000 0.000000 -0.016887
 18   11.168404 -0.000001 0.000002 -1.568718 0.000001 -0.000011
 19   0.000005 0.001585 -3.638375 -0.000010 1.283575 3.140787
 20   8.842831 0.000000 0.000001 0.423445 -1.314762 -0.054996
 21   9.341937 0.000000 -0.000001 0.000000 0.000000 -0.077890
 22   11.168404 -0.000001 0.000001 1.568687 0.165692 -0.000040
 23   1.977383 0.000000 0.000000 -0.002326 0.135396 0.192603
 24   3.723980 2.768054 -0.049087 0.000001 -3.141591 -1.570794
 25   12.421014 0.304721 4.492689 -0.091859 -0.075839 1.616818
 26   19.916998 1.704573 4.956909 2.262592 1.451744 0.734330
time 14
  0   0.096488 -0.006819 30.080740 0.000000 0.000000 -1.570844
  1   0.239607 -0.914089 9.745319 -1.570795 -1.570451 0.000000
  2   -0.000008 0.000010 5.615750 0.106414 3.109105 -0.399915
  3   15.693467 0.000000 0.000000 0.000000 0.000000 -0.181220
  4   22.146629 -0.000001 0.000000 -0.078412 -0.079127 -0.904602
  5   3.310129 5.734393 0.000000 0.000000 0.000000 1.570796
  6   0.000008 -0.000006 -5.615750 0.050432 3.072466 -0.483697
  7   15.693467 0.000000 0.000000 0.000000 0.000000 -0.408560
  8   22.146629 0.000000 0.000000 -0.083881 -0.017315 -0.736030
  9   3.310129 5.734393 0.000000 0.000000 0.000000 1.570796
 10   1.384163 -0.004728 0.000002 -0.000004 -0.000001 -0.060247
 11   5.939814 -0.004730 0.000000 -0.000124 -0.161205 0.052337
 12   5.939809 -0.003975 0.000000 0.000000 0.000000 -0.177797
 13   4.991439 -0.003975 0.000000 0.000000 0.000000 0.000000
 14   4.991436 -0.001575 0.000000 0.000000 0.000000 0.000000
 15   0.000005 0.001564 3.638375 -0.000010 -1.283555 3.140806
 16   8.842831 0.000000 -0.000002 -0.052855 0.962017 0.075397
 17   9.341934 0.000000 -0.000001 0.000000 0.000000 -0.016887
 18   11.168404 -0.000001 0.000002 -1.568718 0.000001 -0.000011
 19   0.000005 0.001585 -3.638375 -0.000010 1.283575 3.140787
 20   8.842831 0.000000 0.000001 0.512132 -1.325917 -0.145162
 21   9.341937 0.000000 -0.000001 0.000000 0.000000 -0.077890
 22   11.168404 -0.000001 0.000001 1.568687 0.165692 -0.000040
 23   1.977383 0.000000 0.000000 -0.002802 0.161168 0.159301
 24   3.723980 2.768054 -0.049087 0.000001 -3.141591 -1.570794
 25   12.421014 0.304721 4.492689 -0.091859 -0.075839 1.616818
 26   19.916998 1.704573 4.956909 2.262592 1.451744 0.734330
time 15
  0   0.073880 -0.006819 30.080740 0.000000 0.000000 -1.570844
  1   0.169293 -0.863307 9.745319 -1.570795 -1.570451 0.000000
  2   -0.000008 0.000010 5.615750 0.109386 3.120988 -0.289717
  3   15.693467 0.000000 0.000000 0.000000 0.000000 -0.185275
  4   22.146629 -0.000001 0.000000 -0.078151 -0.079375 -0.792868
  5   3.310129 5.734393 0.000000 0.000000 0.000000 1.570796
  6   0.000008 -0.000006 -5.615750 0.058773 3.079273 -0.358019
  7   15.693467 0.000000 0.000000 0.000000 0.000000 -0.335169
  8   22.146629 0.000000 0.000000 -0.081286 -0.026955 -0.799798
  9   3.310129 5.734393 0.000000 0.000000 0.000000 1.570796
 10   1.384163 -0.004728 0.000002 -0.000004 -0.000001 -0.060247
 11   5.939814 -0.004730 0.000000 -0.000107 -0.151869 0.052337
 12   5.939809 -0.003975 0.000000 0.000000 0.000000 -0.150476
 13   4.991439 -0.003975 0.000000 0.000000 0.000000 0.000000
 14   4.991436 -0.001575 0.000000 0.000000 0.000000 0.000000
 15   0.000005 0.001564 3.638375 -0.000010 -1.283555 3.140806
 16   8.842831 0.000000 -0.000002 -0.091535 0.966576 0.037848
 17   9.341934 0.000000 -0.000001 0.000000 0.000000 -0.016887
 18   11.168404 -0.000001 0.000002 -1.568718 0.000001 -0.000011
 19   0.000005 0.001585 -3.638375 -0.000010 1.283575 3.140787
 20   8.842831 0.000000 0.000001 0.537207 -1.300421 -0.177759
 21   9.341937 0.000000 -0.000001 0.000000 0.000000 -0.077890
 22   11.168404 -0.000001 0.000001 1.568687 0.165692 -0.000040
 23   1.977383 0.000000 0.000000 -0.002643 0.151838 0.132013
 24   3.723980 2.768054 -0.049087 0.000001 -3.141591 -1.570794
 25   12.421014 0.304721 4.492689 -0.091859 -0.075839 1.616818
 26   19.916998 1.704573 4.956909 2.262592 1.451744 0.734330
time 16
  0   0.058808 -0.006819 30.100344 0.000000 0.000000 -1.570844
  1   0.098978 -0.652363 9.745319 -1.570795 -1.570451 0.000000
  2   -0.000008 0.000010 5.615750 0.111111 3.135266 -0.161646
  3   15.693467 0.000000 0.000000 0.000000 0.000000 -0.205406
  4   22.146629 -0.000001 0.000000 -0.076917 -0.080588 -0.659317
  5   3.310129 5.734393 0.000000 0.000000 0.000000 1.570796
  6   0.000008 -0.000006 -5.615750 0.067498 3.088956 -0.205620
  7   15.693467 0.000000 0.000000 0.000000 0.000000 -0.261779
  8   22.146629 0.000000 0.000000 -0.077619 -0.036195 -0.836879
  9   3.310129 5.734393 0.000000 0.000000 0.000000 1.570796
 10   1.384163 -0.004728 0.000002 -0.000004 -0.000001 -0.060247
 11   5.939814 -0.004730 0.000000 -0.000089 -0.114465 0.052337
 12   5.939809 -0.003975 0.000000 0.000000 0.000000 -0.123504
 13   4.991439 -0.003975 0.000000 0.000000 0.000000 0.000000
 14   4.991436 -0.001575 0.000000 0.000000 0.000000 0.000000
 15   0.000005 0.001564 3.638375 -0.000010 -1.283555 3.140806
 16   8.842831 0.000000 -0.000002 -0.132594 0.998855 0.001418
 17   9.341934 0.000000 -0.000001 0.000000 0.000000 -0.016887
 18   11.168404 -0.000001 0.000002 -1.568718 0.000001 -0.000011
 19   0.000005 0.001585 -3.638375 -0.000010 1.283575 3.140787
 20   8.842831 0.000000 0.000001 0.531563 -1.246596 -0.183192
 21   9.341937 0.000000 -0.000001 0.000000 0.000000 -0.077890
 22   11.168404 -0.000001 0.000001 1.568687 0.165692 -0.000040
 23   1.977383 0.000000 0.000000 -0.001956 0.114427 0.105123
 24   3.723980 2.768054 -0.049087 0.000001 -3.141591 -1.570794
 25   12.421014 0.304721 4.492689 -0.091859 -0.075839 1.616818
 26   19.916998 1.704573 4.956909 2.262592 1.451744 0.734330
time 17
  0   0.036200 -0.006819 30.119947 0.000000 0.000000 -1.570844
  1   0.048195 -0.347666 9.745319 -1.570795 -1.570451 0.000000
  2   -0.000008 0.000010 5.615750 0.111207 3.145137 -0.071901
  3   15.693467 0.000000 0.000000 0.000000 0.000000 -0.217571
  4   22.146629 -0.000001 0.000000 -0.076169 -0.081282 -0.566106
  5   3.310129 5.734393 0.000000 0.000000 0.000000 1.570796
  6   0.000008 -0.000006 -5.615750 0.072675 3.096435 -0.099719
  7   15.693467 0.000000 0.000000 0.000000 0.000000 -0.208709
  8   22.146629 0.000000 0.000000 -0.074291 -0.042581 -0.867882
  9   3.310129 5.734393 0.000000 0.000000 0.000000 1.570796
 10   1.384163 -0.004728 0.000002 -0.000004 -0.000001 -0.060247
 11   5.939814 -0.004730 0.000000 -0.000036 -0.061050 0.052318
 12   5.939809 -0.003975 0.000000 0.000000 0.000000 -0.104665
 13   4.991439 -0.003975 0.000000 0.000000 0.000000 0.000000
 14   4.991436 -0.001575 0.000000 0.000000 0.000000 0.000000
 15   0.000005 0.001564 3.638375 -0.000010 -1.283555 3.140806
 16   8.842831 0.000000 -0.000002 -0.152437 1.038948 -0.013736
 17   9.341934 0.000000 -0.000001 0.000000 0.000000 -0.016887
 18   11.168404 -0.000001 0.000002 -1.568718 0.000001 -0.000011
 19   0.000005 0.001585 -3.638375 -0.000010 1.283575 3.140787
 20   8.842831 0.000000 0.000001 0.500119 -1.178608 -0.162319
 21   9.341937 0.000000 -0.000001 0.000000 0.000000 -0.077890
 22   11.168404 -0.000001 0.000001 1.568687 0.165692 -0.000040
 23   1.977383 0.000000 0.000000 -0.001057 0.061036 0.086384
 24   3.723980 2.768054 -0.049087 0.000001 -3.141591 -1.570794
 25   12.421014 0.304721 4.492689 -0.091859 -0.075839 1.616818
 26   19.916998 1.704573 4.956909 2.262592 1.451744 0.734330
time 18
  0   0.021128 -0.006819 30.159155 0.000000 0.000000 -1.570844
  1   0.036476 0.160162 9.745319 -1.570795 -1.570451 0.000000
  2   -0.000008 0.000010 5.615750 0.111591 3.146191 -0.053646
  3   15.693467 0.000000 0.000000 0.000000 0.000000 -0.205904
  4   22.146629 -0.000001 0.000000 -0.077216 -0.080861 -0.559383
  5   3.310129 5.734393 0.000000 0.000000 0.000000 1.570796
  6   0.000008 -0.000006 -5.615750 0.073826 3.096914 -0.075313
  7   15.693467 0.000000 0.000000 0.000000 0.000000 -0.183029
  8   22.146629 0.000000 0.000000 -0.074291 -0.043870 -0.894657
  9   3.310129 5.734393 0.000000 0.000000 0.000000 1.570796
 10   1.384163 -0.004728 0.000002 -0.000004 -0.000001 -0.060247
 11   5.939814 -0.004730 0.000000 0.000018 0.028092 0.052318
 12   5.939809 -0.003975 0.000000 0.000000 0.000000 -0.099243
 13   4.991439 -0.003975 0.000000 0.000000 0.000000 0.000000
 14   4.991436 -0.001575 0.000000 0.000000 0.000000 0.000000
 15   0.000005 0.001564 3.638375 -0.000010 -1.283555 3.140806
 16   8.842831 0.000000 -0.000002 -0.143110 1.111135 0.002314
 17   9.341934 0.000000 -0.000001 0.000000 0.000000 -0.016887
 18   11.168404 -0.000001 0.000002 -1.568718 0.000001 -0.000011
 19   0.000005 0.001585 -3.638375 -0.000010 1.283575 3.140787
 20   8.842831 0.000000 0.000001 0.443117 -1.078749 -0.117617
 21   9.341937 0.000000 -0.000001 0.000000 0.000000 -0.077890
 22   11.168404 -0.000001 0.000001 1.568687 0.165692 -0.000040
 23   1.977383 0.000000 0.000000 0.000476 -0.028081 0.080966
 24   3.723980 2.768054 -0.049087 0.000001 -3.141591 -1.570794
 25   12.421014 0.304721 4.492689 -0.091859 -0.075839 1.616818
 26   19.916998 1.704573 4.956909 2.262592 1.451744 0.734330
time 19
  0   0.006056 -0.006819 30.198360 0.000000 0.000000 -1.570844
  1   0.040383 0.757837 9.745319 -1.570795 -1.570451 0.000000
  2   -0.000008 0.000010 5.615750 0.112166 3.143316 -0.069989
  3   15.693467 0.000000 0.000000 0.000000 0.000000 -0.194380
  4   22.146629 -0.000001 0.000000 -0.078263 -0.080464 -0.587602
  5   3.310129 5.734393 0.000000 0.000000 0.000000 1.570796
  6   0.000008 -0.000006 -5.615750 0.073155 3.094613 -0.089901
  7   15.693467 0.000000 0.000000 0.000000 0.000000 -0.181317
  8   22.146629 0.000000 0.000000 -0.075983 -0.042335 -0.898268
  9   3.310129 5.734393 0.000000 0.000000 0.000000 1.570796
 10   1.384163 -0.004728 0.000002 -0.000004 -0.000001 -0.060247
 11   5.939814 -0.004730 0.000000 0.000107 0.133245 0.052337
 12   5.939809 -0.003975 0.000000 0.000000 0.000000 -0.101954
 13   4.991439 -0.003975 0.000000 0.000000 0.000000 0.000000
 14   4.991436 -0.001575 0.000000 0.000000 0.000000 0.000000
 15   0.000005 0.001564 3.638375 -0.000010 -1.283555 3.140806
 16   8.842831 0.000000 -0.000002 -0.107812 1.199229 0.045238
 17   9.341934 0.000000 -0.000001 0.000000 0.000000 -0.016887
 18   11.168404 -0.000001 0.000002 -1.568718 0.000001 -0.000011
 19   0.000005 0.001585 -3.638375 -0.000010 1.283575 3.140787
 20   8.842831 0.000000 0.000001 0.394177 -0.966586 -0.082065
 21   9.341937 0.000000 -0.000001 0.000000 0.000000 -0.077890
 22   11.168404 -0.000001 0.000001 1.568687 0.165692 -0.000040
 23   1.977383 0.000000 0.000000 0.002326 -0.133225 0.083551
 24   3.723980 2.768054 -0.049087 0.000001 -3.141591 -1.570794
 25   12.421014 0.304721 4.492689 -0.091859 -0.075839 1.616818
 26   19.916998 1.704573 4.956909 2.262592 1.451744 0.734330
time 20
  0   -0.009016 -0.006819 30.257172 0.000000 0.000000 -1.570844
  1   0.048195 1.039095 9.745319 -1.570795 -1.570451 0.000000
  2   -0.000008 0.000010 5.615750 0.111207 3.145137 -0.071901
  3   15.693467 0.000000 0.000000 0.000000 0.000000 -0.217571
  4   22.146629 -0.000001 0.000000 -0.076169 -0.081282 -0.566106
  5   3.310129 5.734393 0.000000 0.000000 0.000000 1.570796
  6   0.000008 -0.000006 -5.615750 0.072675 3.096435 -0.099719
  7   15.693467 0.000000 0.000000 0.000000 0.000000 -0.208709
  8   22.146629 0.000000 0.000000 -0.074291 -0.042581 -0.867882
  9   3.310129 5.734393 0.000000 0.000000 0.000000 1.570796
 10   1.384163 -0.004728 0.000002 -0.000004 -0.000001 -0.060247
 11   5.939814 -0.004730 0.000000 0.000142 0.183160 0.052337
 12   5.939809 -0.003975 0.000000 0.000000 0.000000 -0.104665
 13   4.991439 -0.003975 0.000000 0.000000 0.000000 0.000000
 14   4.991436 -0.001575 0.000000 0.000000 0.000000 0.000000
 15   0.000005 0.001564 3.638375 -0.000010 -1.283555 3.140806
 16   8.842831 0.000000 -0.000002 -0.070412 1.236253 0.085027
 17   9.341934 0.000000 -0.000001 0.000000 0.000000 -0.016887
 18   11.168404 -0.000001 0.000002 -1.568718 0.000001 -0.000011
 19   0.000005 0.001585 -3.638375 -0.000010 1.283575 3.140787
 20   8.842831 0.000000 0.000001 0.375231 -0.914001 -0.069483
 21   9.341937 0.000000 -0.000001 0.000000 0.000000 -0.077890
 22   11.168404 -0.000001 0.000001 1.568687 0.165692 -0.000040
 23   1.977383 0.000000 0.000000 0.003225 -0.183130 0.086086
 24   3.723980 2.768054 -0.049087 0.000001 -3.141591 -1.570794
 25   12.421014 0.304721 4.492689 -0.091859 -0.075839 1.616818
 26   19.916998 1.704573 4.956909 2.262592 1.451744 0.734330
time 21
  0   -0.024087 -0.006819 30.355188 0.000000 0.000000 -1.570844
  1   0.048195 0.988312 9.745319 -1.570795 -1.570451 0.000000
  2   -0.000008 0.000010 5.615750 0.108427 3.154336 -0.036156
  3   15.693467 0.000000 0.000000 0.000000 0.000000 -0.278536
  4   22.146629 -0.000001 0.000000 -0.070709 -0.083312 -0.469145
  5   3.310129 5.734393 0.000000 0.000000 0.000000 1.570796
  6   0.000008 -0.000006 -5.615750 0.073155 3.103913 -0.086254
  7   15.693467 0.000000 0.000000 0.000000 0.000000 -0.259620
  8   22.146629 0.000000 0.000000 -0.068537 -0.045651 -0.803233
  9   3.310129 5.734393 0.000000 0.000000 0.000000 1.570796
 10   1.384163 -0.004728 0.000002 -0.000004 -0.000001 -0.060247
 11   5.939814 -0.004730 0.000000 0.000124 0.173741 0.052337
 12   5.939809 -0.003975 0.000000 0.000000 0.000000 -0.104665
 13   4.991439 -0.003975 0.000000 0.000000 0.000000 0.000000
 14   4.991436 -0.001575 0.000000 0.000000 0.000000 0.000000
 15   0.000005 0.001564 3.638375 -0.000010 -1.283555 3.140806
 16   8.842831 0.000000 -0.000002 -0.061085 1.221183 0.092342
 17   9.341934 0.000000 -0.000001 0.000000 0.000000 -0.016887
 18   11.168404 -0.000001 0.000002 -1.568718 0.000001 -0.000011
 19   0.000005 0.001585 -3.638375 -0.000010 1.283575 3.140787
 20   8.842831 0.000000 0.000001 0.376762 -0.923385 -0.069769
 21   9.341937 0.000000 -0.000001 0.000000 0.000000 -0.077890
 22   11.168404 -0.000001 0.000001 1.568687 0.165692 -0.000040
 23   1.977383 0.000000 0.000000 0.003013 -0.173708 0.086136
 24   3.723980 2.768054 -0.049087 0.000001 -3.141591 -1.570794
 25   12.421014 0.304721 4.492689 -0.091859 -0.075839 1.616818
 26   19.916998 1.704573 4.956909 2.262592 1.451744 0.734330
time 22
  0   -0.024087 -0.006819 30.531618 0.000000 0.000000 -1.570844
  1   0.048195 0.859402 9.745319 -1.570795 -1.570451 0.000000
  2   -0.000008 0.000010 5.615750 0.104209 3.166411 0.017557
  3   15.693467 0.000000 0.000000 0.000000 0.000000 -0.353158
  4   22.146629 -0.000001 0.000000 -0.064128 -0.085863 -0.340351
  5   3.310129 5.734393 0.000000 0.000000 0.000000 1.570796
  6   0.000008 -0.000006 -5.615750 0.073730 3.113404 -0.064863
  7   15.693467 0.000000 0.000000 0.000000 0.000000 -0.322144
  8   22.146629 0.000000 0.000000 -0.061599 -0.049396 -0.718943
  9   3.310129 5.734393 0.000000 0.000000 0.000000 1.570796
 10   1.384163 -0.004728 0.000002 -0.000004 -0.000001 -0.060247
 11   5.939814 -0.004730 0.000000 0.000107 0.150838 0.052337
 12   5.939809 -0.003975 0.000000 0.000000 0.000000 -0.104665
 13   4.991439 -0.003975 0.000000 0.000000 0.000000 0.000000
 14   4.991436 -0.001575 0.000000 0.000000 0.000000 0.000000
 15   0.000005 0.001564 3.638375 -0.000010 -1.283555 3.140806
 16   8.842831 0.000000 -0.000002 -0.063096 1.197462 0.088087
 17   9.341934 0.000000 -0.000001 0.000000 0.000000 -0.016887
 18   11.168404 -0.000001 0.000002 -1.568718 0.000001 -0.000011
 19   0.000005 0.001585 -3.638375 -0.000010 1.283575 3.140787
 20   8.842831 0.000000 0.000001 0.380632 -0.946047 -0.070532
 21   9.341937 0.000000 -0.000001 0.000000 0.000000 -0.077890
 22   11.168404 -0.000001 0.000001 1.568687 0.165692 -0.000040
 23   1.977383 0.000000 0.000000 0.002643 -0.150799 0.086185
 24   3.723980 2.768054 -0.049087 0.000001 -3.141591 -1.570794
 25   12.421014 0.304721 4.492689 -0.091859 -0.075839 1.616818
 26   19.916998 1.704573 4.956909 2.262592 1.451744 0.734330
time 23
  0   -0.024087 -0.006819 30.766859 0.000000 0.000000 -1.570844
  1   0.048195 0.671897 9.745319 -1.570795 -1.570451 0.000000
  2   -0.000008 0.000010 5.615750 0.098840 3.179252 0.074998
  3   15.693467 0.000000 0.000000 0.000000 0.000000 -0.436602
  4   22.146629 -0.000001 0.000000 -0.056986 -0.089182 -0.199117
  5   3.310129 5.734393 0.000000 0.000000 0.000000 1.570796
  6   0.000008 -0.000006 -5.615750 0.074018 3.123854 -0.042281
  7   15.693467 0.000000 0.000000 0.000000 0.000000 -0.392036
  8   22.146629 0.000000 0.000000 -0.053984 -0.053787 -0.626198
  9   3.310129 5.734393 0.000000 0.000000 0.000000 1.570796
 10   1.384163 -0.004728 0.000002 -0.000004 -0.000001 -0.060247
 11   5.939814 -0.004730 0.000000 0.000089 0.118120 0.052337
 12   5.939809 -0.003975 0.000000 0.000000 0.000000 -0.104665
 13   4.991439 -0.003975 0.000000 0.000000 0.000000 0.000000
 14   4.991436 -0.001575 0.000000 0.000000 0.000000 0.000000
 15   0.000005 0.001564 3.638375 -0.000010 -1.283555 3.140806
 16   8.842831 0.000000 -0.000002 -0.068400 1.165275 0.079876
 17   9.341934 0.000000 -0.000001 0.000000 0.000000 -0.016887
 18   11.168404 -0.000001 0.000002 -1.568718 0.000001 -0.000011
 19   0.000005 0.001585 -3.638375 -0.000010 1.283575 3.140787
 20   8.842831 0.000000 0.000001 0.386357 -0.978360 -0.072057
 21   9.341937 0.000000 -0.000001 0.000000 0.000000 -0.077890
 22   11.168404 -0.000001 0.000001 1.568687 0.165692 -0.000040
 23   1.977383 0.000000 0.000000 0.002062 -0.118099 0.086285
 24   3.723980 2.768054 -0.049087 0.000001 -3.141591 -1.570794
 25   12.421014 0.304721 4.492689 -0.091859 -0.075839 1.616818
 26   19.916998 1.704573 4.956909 2.262592 1.451744 0.734330
time 24
  0   -0.024087 -0.006819 31.041307 0.000000 0.000000 -1.570844
  1   0.048195 0.453140 9.745319 -1.570795 -1.570451 0.000000
  2   -0.000008 0.000010 5.615750 0.093088 3.191327 0.121830
  3   15.693467 0.000000 0.000000 0.000000 0.000000 -0.523746
  4   22.146629 -0.000001 0.000000 -0.049657 -0.093219 -0.064926
  5   3.310129 5.734393 0.000000 0.000000 0.000000 1.570796
  6   0.000008 -0.000006 -5.615750 0.074114 3.134496 -0.025308
  7   15.693467 0.000000 0.000000 0.000000 0.000000 -0.464756
  8   22.146629 0.000000 0.000000 -0.045974 -0.058668 -0.536271
  9   3.310129 5.734393 0.000000 0.000000 0.000000 1.570796
 10   1.384163 -0.004728 0.000002 -0.000004 -0.000001 -0.060247
 11   5.939814 -0.004730 0.000000 0.000053 0.079266 0.052318
 12   5.939809 -0.003975 0.000000 0.000000 0.000000 -0.104665
 13   4.991439 -0.003975 0.000000 0.000000 0.000000 0.000000
 14   4.991436 -0.001575 0.000000 0.000000 0.000000 0.000000
 15   0.000005 0.001564 3.638375 -0.000010 -1.283555 3.140806
 16   8.842831 0.000000 -0.000002 -0.073338 1.127042 0.071590
 17   9.341934 0.000000 -0.000001 0.000000 0.000000 -0.016887
 18   11.168404 -0.000001 0.000002 -1.568718 0.000001 -0.000011
 19   0.000005 0.001585 -3.638375 -0.000010 1.283575 3.140787
 20   8.842831 0.000000 0.000001 0.393694 -1.016869 -0.074249
 21   9.341937 0.000000 -0.000001 0.000000 0.000000 -0.077890
 22   11.168404 -0.000001 0.000001 1.568687 0.165692 -0.000040
 23   1.977383 0.000000 0.000000 0.001374 -0.079256 0.086334
 24   3.723980 2.768054 -0.049087 0.000001 -3.141591 -1.570794
 25   12.421014 0.304721 4.492689 -0.091859 -0.075839 1.616818
 26   19.916998 1.704573 4.956909 2.262592 1.451744 0.734330
time 25
  0   -0.016551 -0.006819 31.296152 0.000000 0.000000 -1.570844
  1   0.048195 0.214851 9.745319 -1.570795 -1.570451 0.000000
  2   -0.000008 0.000010 5.615750 0.088487 3.201005 0.143621
  3   15.693467 0.000000 0.000000 0.000000 0.000000 -0.609537
  4   22.146629 -0.000001 0.000000 -0.042515 -0.097751 0.042784
  5   3.310129 5.734393 0.000000 0.000000 0.000000 1.570796
  6   0.000008 -0.000006 -5.615750 0.074210 3.144180 -0.020820
  7   15.693467 0.000000 0.000000 0.000000 0.000000 -0.535988
  8   22.146629 0.000000 0.000000 -0.038076 -0.063764 -0.460260
  9   3.310129 5.734393 0.000000 0.000000 0.000000 1.570796
 10   1.384163 -0.004728 0.000002 -0.000004 -0.000001 -0.060247
 11   5.939814 -0.004730 0.000000 0.000018 0.037955 0.052318
 12   5.939809 -0.003975 0.000000 0.000000 0.000000 -0.104665
 13   4.991439 -0.003975 0.000000 0.000000 0.000000 0.000000
 14   4.991436 -0.001575 0.000000 0.000000 0.000000 0.000000
 15   0.000005 0.001564 3.638375 -0.000010 -1.283555 3.140806
 16   8.842831 0.000000 -0.000002 -0.078093 1.086856 0.063154
 17   9.341934 0.000000 -0.000001 0.000000 0.000000 -0.016887
 18   11.168404 -0.000001 0.000002 -1.568718 0.000001 -0.000011
 19   0.000005 0.001585 -3.638375 -0.000010 1.283575 3.140787
 20   8.842831 0.000000 0.000001 0.402159 -1.057768 -0.077490
 21   9.341937 0.000000 -0.000001 0.000000 0.000000 -0.077890
 22   11.168404 -0.000001 0.000001 1.568687 0.165692 -0.000040
 23   1.977383 0.000000 0.000000 0.000634 -0.037942 0.086384
 24   3.723980 2.768054 -0.049087 0.000001 -3.141591 -1.570794
 25   12.421014 0.304721 4.492689 -0.091859 -0.075839 1.616818
 26   19.916998 1.704573 4.956909 2.262592 1.451744 0.734330
time 26
  0   -0.009016 -0.006819 31.550995 0.000000 0.000000 -1.570844
  1   0.048195 -0.011718 9.745319 -1.570795 -1.570451 0.000000
  2   -0.000008 0.000010 5.615750 0.086282 3.206947 0.126035
  3   15.693467 0.000000 0.000000 0.000000 0.000000 -0.688997
  4   22.146629 -0.000001 0.000000 -0.035673 -0.102234 0.104482
  5   3.310129 5.734393 0.000000 0.000000 0.000000 1.570796
  6   0.000008 -0.000006 -5.615750 0.074305 3.152137 -0.035688
  7   15.693467 0.000000 0.000000 0.000000 0.000000 -0.601488
  8   22.146629 0.000000 0.000000 -0.030405 -0.068707 -0.409527
  9   3.310129 5.734393 0.000000 0.000000 0.000000 1.570796
 10   1.384163 -0.004728 0.000002 -0.000004 -0.000001 -0.060247
 11   5.939814 -0.004730 0.000000 0.000000 -0.002145 0.052318
 12   5.939809 -0.003975 0.000000 0.000000 0.000000 -0.104665
 13   4.991439 -0.003975 0.000000 0.000000 0.000000 0.000000
 14   4.991436 -0.001575 0.000000 0.000000 0.000000 0.000000
 15   0.000005 0.001564 3.638375 -0.000010 -1.283555 3.140806
 16   8.842831 0.000000 -0.000002 -0.082300 1.048251 0.055390
 17   9.341934 0.000000 -0.000001 0.000000 0.000000 -0.016887
 18   11.168404 -0.000001 0.000002 -1.568718 0.000001 -0.000011
 19   0.000005 0.001585 -3.638375 -0.000010 1.283575 3.140787
 20   8.842831 0.000000 0.000001 0.411351 -1.097428 -0.081588
 21   9.341937 0.000000 -0.000001 0.000000 0.000000 -0.077890
 22   11.168404 -0.000001 0.000001 1.568687 0.165692 -0.000040
 23   1.977383 0.000000 0.000000 0.000000 0.002148 0.086384
 24   3.723980 2.768054 -0.049087 0.000001 -3.141591 -1.570794
 25   12.421014 0.304721 4.492689 -0.091859 -0.075839 1.616818
 26   19.916998 1.704573 4.956909 2.262592 1.451744 0.734330
time 27
  0   -0.001480 -0.006819 31.766632 0.000000 0.000000 -1.570844
  1   0.048195 -0.210943 9.745319 -1.570795 -1.570451 0.000000
  2   -0.000008 0.000010 5.615750 0.092705 3.201293 -0.035391
  3   15.693467 0.000000 0.000000 0.000000 0.000000 -0.792502
  4   22.146629 -0.000001 0.000000 -0.027297 -0.106815 0.046260
  5   3.310129 5.734393 0.000000 0.000000 0.000000 1.570796
  6   0.000008 -0.000006 -5.615750 0.075648 3.155684 -0.129245
  7   15.693467 0.000000 0.000000 0.000000 0.000000 -0.688946
  8   22.146629 0.000000 0.000000 -0.021266 -0.073987 -0.415781
  9   3.310129 5.734393 0.000000 0.000000 0.000000 1.570796
 10   1.384163 -0.004728 0.000002 -0.000004 -0.000001 -0.060247
 11   5.939814 -0.004730 0.000000 -0.000018 -0.037368 0.052318
 12   5.939809 -0.003975 0.000000 0.000000 0.000000 -0.104665
 13   4.991439 -0.003975 0.000000 0.000000 0.000000 0.000000
 14   4.991436 -0.001575 0.000000 0.000000 0.000000 0.000000
 15   0.000005 0.001564 3.638375 -0.000010 -1.283555 3.140806
 16   8.842831 0.000000 -0.000002 -0.085683 1.014576 0.048896
 17   9.341934 0.000000 -0.000001 0.000000 0.000000 -0.016887
 18   11.168404 -0.000001 0.000002 -1.568718 0.000001 -0.000011
 19   0.000005 0.001585 -3.638375 -0.000010 1.283575 3.140787
 20   8.842831 0.000000 0.000001 0.420381 -1.132220 -0.086163
 21   9.341937 0.000000 -0.000001 0.000000 0.000000 -0.077890
 22   11.168404 -0.000001 0.000001 1.568687 0.165692 -0.000040
 23   1.977383 0.000000 0.000000 -0.000634 0.037365 0.086384
 24   3.723980 2.768054 -0.049087 0.000001 -3.141591 -1.570794
 25   12.421014 0.304721 4.492689 -0.091859 -0.075839 1.616818
 26   19.916998 1.704573 4.956909 2.262592 1.451744 0.734330
time 28
  0   0.006056 -0.006819 31.903856 0.000000 0.000000 -1.570844
  1   0.048195 -0.363291 9.745319 -1.570795 -1.570451 0.000000
  2   -0.000008 0.000010 5.615750 0.101812 3.184618 -0.296789
  3   15.693467 0.000000 0.000000 0.000000 0.000000 -0.890743
  4   22.146629 -0.000001 0.000000 -0.017687 -0.109143 -0.118072
  5   3.310129 5.734393 0.000000 0.000000 0.000000 1.570796
  6   0.000008 -0.000006 -5.615750 0.077565 3.155589 -0.272737
  7   15.693467 0.000000 0.000000 0.000000 0.000000 -0.770599
  8   22.146629 0.000000 0.000000 -0.011169 -0.078009 -0.478052
  9   3.310129 5.734393 0.000000 0.000000 0.000000 1.570796
 10   1.384163 -0.004728 0.000002 -0.000004 -0.000001 -0.060247
 11   5.939814 -0.004730 0.000000 -0.000036 -0.064046 0.052318
 12   5.939809 -0.003975 0.000000 0.000000 0.000000 -0.104665
 13   4.991439 -0.003975 0.000000 0.000000 0.000000 0.000000
 14   4.991436 -0.001575 0.000000 0.000000 0.000000 0.000000
 15   0.000005 0.001564 3.638375 -0.000010 -1.283555 3.140806
 16   8.842831 0.000000 -0.000002 -0.088152 0.989366 0.044044
 17   9.341934 0.000000 -0.000001 0.000000 0.000000 -0.016887
 18   11.168404 -0.000001 0.000002 -1.568718 0.000001 -0.000011
 19   0.000005 0.001585 -3.638375 -0.000010 1.283575 3.140787
 20   8.842831 0.000000 0.000001 0.427960 -1.158601 -0.090357
 21   9.341937 0.000000 -0.000001 0.000000 0.000000 -0.077890
 22   11.168404 -0.000001 0.000001 1.568687 0.165692 -0.000040
 23   1.977383 0.000000 0.000000 -0.001110 0.064038 0.086384
 24   3.723980 2.768054 -0.049087 0.000001 -3.141591 -1.570794
 25   12.421014 0.304721 4.492689 -0.091859 -0.075839 1.616818
 26   19.916998 1.704573 4.956909 2.262592 1.451744 0.734330
time 29
  0   0.006056 -0.006819 31.962667 0.000000 0.000000 -1.570844
  1   0.048195 -0.445325 9.745319 -1.570795 -1.570451 0.000000
  2   -0.000008 0.000010 5.615750 0.104880 3.173598 -0.452003
  3   15.693467 0.000000 0.000000 0.000000 0.000000 -0.889178
  4   22.146629 -0.000001 0.000000 -0.011853 -0.109044 -0.275634
  5   3.310129 5.734393 0.000000 0.000000 0.000000 1.570796
  6   0.000008 -0.000006 -5.615750 0.078332 3.156739 -0.340205
  7   15.693467 0.000000 0.000000 0.000000 0.000000 -0.758168
  8   22.146629 0.000000 0.000000 -0.004964 -0.079697 -0.558114
  9   3.310129 5.734393 0.000000 0.000000 0.000000 1.570796
 10   1.384163 -0.004728 0.000002 -0.000004 -0.000001 -0.060247
 11   5.939814 -0.004730 0.000000 -0.000053 -0.078499 0.052318
 12   5.939809 -0.003975 0.000000 0.000000 0.000000 -0.104665
 13   4.991439 -0.003975 0.000000 0.000000 0.000000 0.000000
 14   4.991436 -0.001575 0.000000 0.000000 0.000000 0.000000
 15   0.000005 0.001564 3.638375 -0.000010 -1.283555 3.140806
 16   8.842831 0.000000 -0.000002 -0.089798 0.975971 0.041207
 17   9.341934 0.000000 -0.000001 0.000000 0.000000 -0.016887
 18   11.168404 -0.000001 0.000002 -1.568718 0.000001 -0.000011
 19   0.000005 0.001585 -3.638375 -0.000010 1.283575 3.140787
 20   8.842831 0.000000 0.000001 0.432394 -1.172853 -0.093026
 21   9.341937 0.000000 -0.000001 0.000000 0.000000 -0.077890
 22   11.168404 -0.000001 0.000001 1.568687 0.165692 -0.000040
 23   1.977383 0.000000 0.000000 -0.001322 0.078471 0.086334
 24   3.723980 2.768054 -0.049087 0.000001 -3.141591 -1.570794
 25   12.421014 0.304721 4.492689 -0.091859 -0.075839 1.616818
 26   19.916998 1.704573 4.956909 2.262592 1.451744 0.734330
time 30
  0   0.006056 -0.006819 31.884253 0.000000 0.000000 -1.570844
  1   0.048195 -0.367198 9.745319 -1.570795 -1.570451 0.000000
  2   -0.000008 0.000010 5.615750 0.099320 3.189314 -0.270984
  3   15.693467 0.000000 0.000000 0.000000 0.000000 -0.569131
  4   22.146629 -0.000001 0.000000 -0.015181 -0.109168 -0.413804
  5   3.310129 5.734393 0.000000 0.000000 0.000000 1.570796
  6   0.000008 -0.000006 -5.615750 0.075648 3.167189 -0.157579
  7   15.693467 0.000000 0.000000 0.000000 0.000000 -0.428284
  8   22.146629 0.000000 0.000000 -0.008800 -0.079452 -0.704851
  9   3.310129 5.734393 0.000000 0.000000 0.000000 1.570796
 10   1.384163 -0.004728 0.000002 -0.000004 -0.000001 -0.060247
 11   5.939814 -0.004730 0.000000 -0.000036 -0.064225 0.052318
 12   5.939809 -0.003975 0.000000 0.000000 0.000000 -0.104665
 13   4.991439 -0.003975 0.000000 0.000000 0.000000 0.000000
 14   4.991436 -0.001575 0.000000 0.000000 0.000000 0.000000
 15   0.000005 0.001564 3.638375 -0.000010 -1.283555 3.140806
 16   8.842831 0.000000 -0.000002 -0.089889 0.990576 0.042476
 17   9.341934 0.000000 -0.000001 0.000000 0.000000 -0.016887
 18   11.168404 -0.000001 0.000002 -1.568718 0.000001 -0.000011
 19   0.000005 0.001585 -3.638375 -0.000010 1.283575 3.140787
 20   8.842831 0.000000 0.000001 0.428040 -1.158778 -0.090357
 21   9.341937 0.000000 -0.000001 0.000000 0.000000 -0.077890
 22   11.168404 -0.000001 0.000001 1.568687 0.165692 -0.000040
 23   1.977383 0.000000 0.000000 -0.001110 0.064199 0.086384
 24   3.723980 2.768054 -0.049087 0.000001 -3.141591 -1.570794
 25   12.421014 0.304721 4.492689 -0.091859 -0.075839 1.616818
 26   19.916998 1.704573 4.956909 2.262592 1.451744 0.734330
time 31
  0   -0.001480 -0.006819 31.649012 0.000000 0.000000 -1.570844
  1   0.048195 -0.109377 9.745319 -1.570795 -1.570451 0.000000
  2   -0.000008 0.000010 5.615750 0.090404 3.201676 -0.041508
  3   15.693467 0.000000 0.000000 0.000000 0.000000 -0.274125
  4   22.146629 -0.000001 0.000000 -0.024717 -0.105726 -0.478521
  5   3.310129 5.734393 0.000000 0.000000 0.000000 1.570796
  6   0.000008 -0.000006 -5.615750 0.071046 3.169394 0.027011
  7   15.693467 0.000000 0.000000 0.000000 0.000000 -0.157499
  8   22.146629 0.000000 0.000000 -0.018728 -0.073987 -0.790726
  9   3.310129 5.734393 0.000000 0.000000 0.000000 1.570796
 10   1.384163 -0.004728 0.000002 -0.000004 -0.000001 -0.060247
 11   5.939814 -0.004730 0.000000 0.000000 -0.019235 0.052318
 12   5.939809 -0.003975 0.000000 0.000000 0.000000 -0.104665
 13   4.991439 -0.003975 0.000000 0.000000 0.000000 0.000000
 14   4.991436 -0.001575 0.000000 0.000000 0.000000 0.000000
 15   0.000005 0.001564 3.638375 -0.000010 -1.283555 3.140806
 16   8.842831 0.000000 -0.000002 -0.088518 1.035320 0.048149
 17   9.341934 0.000000 -0.000001 0.000000 0.000000 -0.016887
 18   11.168404 -0.000001 0.000002 -1.568718 0.000001 -0.000011
 19   0.000005 0.001585 -3.638375 -0.000010 1.283575 3.140787
 20   8.842831 0.000000 0.000001 0.415624 -1.114337 -0.083685
 21   9.341937 0.000000 -0.000001 0.000000 0.000000 -0.077890
 22   11.168404 -0.000001 0.000001 1.568687 0.165692 -0.000040
 23   1.977383 0.000000 0.000000 -0.000317 0.019214 0.086384
 24   3.723980 2.768054 -0.049087 0.000001 -3.141591 -1.570794
 25   12.421014 0.304721 4.492689 -0.091859 -0.075839 1.616818
 26   19.916998 1.704573 4.956909 2.262592 1.451744 0.734330
time 32
  0   -0.009016 -0.006819 31.335358 0.000000 0.000000 -1.570844
  1   0.048195 0.218758 9.745319 -1.570795 -1.570451 0.000000
  2   -0.000008 0.000010 5.615750 0.097402 3.180977 -0.103058
  3   15.693467 0.000000 0.000000 0.000000 0.000000 -0.511012
  4   22.146629 -0.000001 0.000000 -0.038066 -0.097974 -0.303487
  5   3.310129 5.734393 0.000000 0.000000 0.000000 1.570796
  6   0.000008 -0.000006 -5.615750 0.071141 3.142166 -0.111572
  7   15.693467 0.000000 0.000000 0.000000 0.000000 -0.520580
  8   22.146629 0.000000 0.000000 -0.032492 -0.063365 -0.566833
  9   3.310129 5.734393 0.000000 0.000000 0.000000 1.570796
 10   1.384163 -0.004728 0.000002 -0.000004 -0.000001 -0.060247
 11   5.939814 -0.004730 0.000000 0.000018 0.038435 0.052318
 12   5.939809 -0.003975 0.000000 0.000000 0.000000 -0.104665
 13   4.991439 -0.003975 0.000000 0.000000 0.000000 0.000000
 14   4.991436 -0.001575 0.000000 0.000000 0.000000 0.000000
 15   0.000005 0.001564 3.638375 -0.000010 -1.283555 3.140806
 16   8.842831 0.000000 -0.000002 -0.085683 1.092530 0.056436
 17   9.341934 0.000000 -0.000001 0.000000 0.000000 -0.016887
 18   11.168404 -0.000001 0.000002 -1.568718 0.000001 -0.000011
 19   0.000005 0.001585 -3.638375 -0.000010 1.283575 3.140787
 20   8.842831 0.000000 0.000001 0.402079 -1.057237 -0.077394
 21   9.341937 0.000000 -0.000001 0.000000 0.000000 -0.077890
 22   11.168404 -0.000001 0.000001 1.568687 0.165692 -0.000040
 23   1.977383 0.000000 0.000000 0.000634 -0.038427 0.086384
 24   3.723980 2.768054 -0.049087 0.000001 -3.141591 -1.570794
 25   12.421014 0.304721 4.492689 -0.091859 -0.075839 1.616818
 26   19.916998 1.704573 4.956909 2.262592 1.451744 0.734330
time 33
  0   -0.009016 -0.006819 30.982496 0.000000 0.000000 -1.570844
  1   0.048195 0.515642 9.745319 -1.570795 -1.570451 0.000000
  2   -0.000008 0.000010 5.615750 0.104976 3.155007 -0.199876
  3   15.693467 0.000000 0.000000 0.000000 0.000000 -0.757431
  4   22.146629 -0.000001 0.000000 -0.053546 -0.091361 -0.154478
  5   3.310129 5.734393 0.000000 0.000000 0.000000 1.570796
  6   0.000008 -0.000006 -5.615750 0.067690 3.111966 -0.274350
  7   15.693467 0.000000 0.000000 0.000000 0.000000 -0.875474
  8   22.146629 0.000000 0.000000 -0.049471 -0.054984 -0.375353
  9   3.310129 5.734393 0.000000 0.000000 0.000000 1.570796
 10   1.384163 -0.004728 0.000002 -0.000004 -0.000001 -0.060247
 11   5.939814 -0.004730 0.000000 0.000071 0.090747 0.052318
 12   5.939809 -0.003975 0.000000 0.000000 0.000000 -0.104665
 13   4.991439 -0.003975 0.000000 0.000000 0.000000 0.000000
 14   4.991436 -0.001575 0.000000 0.000000 0.000000 0.000000
 15   0.000005 0.001564 3.638375 -0.000010 -1.283555 3.140806
 16   8.842831 0.000000 -0.000002 -0.081659 1.144345 0.065319
 17   9.341934 0.000000 -0.000001 0.000000 0.000000 -0.016887
 18   11.168404 -0.000001 0.000002 -1.568718 0.000001 -0.000011
 19   0.000005 0.001585 -3.638375 -0.000010 1.283575 3.140787
 20   8.842831 0.000000 0.000001 0.391436 -1.005538 -0.073582
 21   9.341937 0.000000 -0.000001 0.000000 0.000000 -0.077890
 22   11.168404 -0.000001 0.000001 1.568687 0.165692 -0.000040
 23   1.977383 0.000000 0.000000 0.001586 -0.090734 0.086334
 24   3.723980 2.768054 -0.049087 0.000001 -3.141591 -1.570794
 25   12.421014 0.304721 4.492689 -0.091859 -0.075839 1.616818
 26   19.916998 1.704573 4.956909 2.262592 1.451744 0.734330
time 34
  0   -0.016551 -0.006819 30.610033 0.000000 0.000000 -1.570844
  1   0.048195 0.777368 9.745319 -1.570795 -1.570451 0.000000
  2   -0.000008 0.000010 5.615750 0.108331 3.147628 -0.153713
  3   15.693467 0.000000 0.000000 0.000000 0.000000 -0.551418
  4   22.146629 -0.000001 0.000000 -0.065474 -0.086557 -0.314281
  5   3.310129 5.734393 0.000000 0.000000 0.000000 1.570796
  6   0.000008 -0.000006 -5.615750 0.068840 3.101420 -0.216771
  7   15.693467 0.000000 0.000000 0.000000 0.000000 -0.628656
  8   22.146629 0.000000 0.000000 -0.062727 -0.049243 -0.564808
  9   3.310129 5.734393 0.000000 0.000000 0.000000 1.570796
 10   1.384163 -0.004728 0.000002 -0.000004 -0.000001 -0.060247
 11   5.939814 -0.004730 0.000000 0.000107 0.136301 0.052337
 12   5.939809 -0.003975 0.000000 0.000000 0.000000 -0.104665
 13   4.991439 -0.003975 0.000000 0.000000 0.000000 0.000000
 14   4.991436 -0.001575 0.000000 0.000000 0.000000 0.000000
 15   0.000005 0.001564 3.638375 -0.000010 -1.283555 3.140806
 16   8.842831 0.000000 -0.000002 -0.077087 1.189648 0.074128
 17   9.341934 0.000000 -0.000001 0.000000 0.000000 -0.016887
 18   11.168404 -0.000001 0.000002 -1.568718 0.000001 -0.000011
 19   0.000005 0.001585 -3.638375 -0.000010 1.283575 3.140787
 20   8.842831 0.000000 0.000001 0.383132 -0.960389 -0.071199
 21   9.341937 0.000000 -0.000001 0.000000 0.000000 -0.077890
 22   11.168404 -0.000001 0.000001 1.568687 0.165692 -0.000040
 23   1.977383 0.000000 0.000000 0.002379 -0.136274 0.086235
 24   3.723980 2.768054 -0.049087 0.000001 -3.141591 -1.570794
 25   12.421014 0.304721 4.492689 -0.091859 -0.075839 1.616818
 26   19.916998 1.704573 4.956909 2.262592 1.451744 0.734330
time 35
  0   -0.016551 -0.006819 30.296379 0.000000 0.000000 -1.570844
  1   0.048195 1.039095 9.745319 -1.570795 -1.570451 0.000000
  2   -0.000008 0.000010 5.615750 0.111207 3.145137 -0.071901
  3   15.693467 0.000000 0.000000 0.000000 0.000000 -0.217571
  4   22.146629 -0.000001 0.000000 -0.076169 -0.081282 -0.566106
  5   3.310129 5.734393 0.000000 0.000000 0.000000 1.570796
  6   0.000008 -0.000006 -5.615750 0.072675 3.096435 -0.099719
  7   15.693467 0.000000 0.000000 0.000000 0.000000 -0.208709
  8   22.146629 0.000000 0.000000 -0.074291 -0.042581 -0.867882
  9   3.310129 5.734393 0.000000 0.000000 0.000000 1.570796
 10   1.384163 -0.004728 0.000002 -0.000004 -0.000001 -0.060247
 11   5.939814 -0.004730 0.000000 0.000142 0.183160 0.052337
 12   5.939809 -0.003975 0.000000 0.000000 0.000000 -0.104665
 13   4.991439 -0.003975 0.000000 0.000000 0.000000 0.000000
 14   4.991436 -0.001575 0.000000 0.000000 0.000000 0.000000
 15   0.000005 0.001564 3.638375 -0.000010 -1.283555 3.140806
 16   8.842831 0.000000 -0.000002 -0.070412 1.236253 0.085027
 17   9.341934 0.000000 -0.000001 0.000000 0.000000 -0.016887
 18   11.168404 -0.000001 0.000002 -1.568718 0.000001 -0.000011
 19   0.000005 0.001585 -3.638375 -0.000010 1.283575 3.140787
 20   8.842831 0.000000 0.000001 0.375231 -0.914001 -0.069483
 21   9.341937 0.000000 -0.000001 0.000000 0.000000 -0.077890
 22   11.168404 -0.000001 0.000001 1.568687 0.165692 -0.000040
 23   1.977383 0.000000 0.000000 0.003225 -0.183130 0.086086
 24   3.723980 2.768054 -0.049087 0.000001 -3.141591 -1.570794
 25   12.421014 0.304721 4.492689 -0.091859 -0.075839 1.616818
 26   19.916998 1.704573 4.956909 2.262592 1.451744 0.734330
end
