version 1
nodes
  0 "Bip01" -1
  1 "Bip01 Pelvis" 0
  2 "Bip01 L Thigh" 1
  3 "Bip01 L Calf" 2
  4 "Bip01 L Foot" 3
  5 "Bip01 L Toe0" 4
  6 "Bip01 R Thigh" 1
  7 "Bip01 R Calf" 6
  8 "Bip01 R Foot" 7
  9 "Bip01 R Toe0" 8
 10 "Bip01 Spine" 1
 11 "Bip01 Spine1" 10
 12 "Bip01 Spine2" 11
 13 "Bip01 Spine3" 12
 14 "Bip01 Neck" 13
 15 "Bip01 L Clavicle" 14
 16 "Bip01 L UpperArm" 15
 17 "Bip01 L Forearm" 16
 18 "Bip01 L Hand" 17
 19 "Bip01 R Clavicle" 14
 20 "Bip01 R UpperArm" 19
 21 "Bip01 R Forearm" 20
 22 "Bip01 R Hand" 21
 23 "Bip01 Head" 14
 24 "Bone05" 23
 25 "m4" 22
 26 "SHOTGUN" 22
end
skeleton
time 0
  0   0.345175 0.338338 30.119947 0.000000 0.000000 -1.570844
  1   -0.783861 2.961029 9.745319 -0.000032 -1.560828 -1.570770
  2   -0.000008 0.000010 5.615750 -0.044290 3.056495 -0.195862
  3   15.693467 0.000000 0.000000 0.000000 0.000000 -0.862643
  4   22.146629 -0.000001 0.000000 -0.008787 0.086012 0.249513
  5   3.310129 5.734393 0.000000 0.000000 0.000000 1.570796
  6   0.000008 -0.000006 -5.615750 -0.006614 3.054154 -0.326740
  7   15.693467 0.000000 0.000000 0.000000 0.000000 -0.069669
  8   22.146629 0.000000 0.000000 0.001918 0.078040 0.050853
  9   3.310129 5.734393 0.000000 0.000000 0.000000 1.570796
 10   1.384163 -0.004728 0.011721 -0.000004 0.279185 0.022849
 11   5.939814 -0.004730 0.000000 0.000000 -0.007622 0.005507
 12   5.939809 -0.003975 0.000000 0.000051 0.077217 0.005522
 13   4.991439 -0.003975 0.000000 0.000000 -0.009923 0.005517
 14   4.991436 -0.001575 0.000000 0.000000 0.000000 0.000000
 15   0.000005 0.001564 3.638375 -0.402293 -1.260119 3.525748
 16   8.842831 0.000000 -0.000002 0.042064 1.089833 -0.173412
 17   9.341934 0.000000 -0.000001 0.000000 0.000000 -0.670370
 18   11.168404 -0.000001 0.000002 -1.568718 -0.022011 -0.000011
 19   0.000005 0.001585 -3.638375 0.437075 1.267683 3.560231
 20   8.842831 0.000000 0.000001 -0.051116 -0.684982 -0.089880
 21   9.341937 0.000000 -0.000001 0.000000 0.000000 -0.002412
 22   11.168404 -0.000001 0.000001 1.568687 0.022052 -0.000040
 23   1.977383 0.000000 0.000000 -0.717024 0.138490 -0.078586
 24   3.723980 2.768054 -0.049087 0.000001 -3.141591 -1.570794
 25   12.421014 0.304721 4.492689 -0.091859 -0.075839 1.616818
 26   19.916998 1.704573 4.956909 2.262592 1.451744 0.734330
time 1
  0   0.345175 -0.862614 30.159155 0.000000 0.000000 -1.570844
  1   -0.779955 3.027437 9.745319 -0.000032 -1.565785 -1.570770
  2   -0.000008 0.000010 5.615750 -0.050425 3.060424 -0.251678
  3   15.693467 0.000000 0.000000 0.000000 0.000000 -0.977743
  4   22.146629 -0.000001 0.000000 -0.021202 0.088290 0.170571
  5   3.310129 5.734393 0.000000 0.000000 0.000000 1.570796
  6   0.000008 -0.000006 -5.615750 -0.008628 3.057318 -0.350655
  7   15.693467 0.000000 0.000000 0.000000 0.000000 -0.148195
  8   22.146629 0.000000 0.000000 -0.005528 0.079728 -0.008776
  9   3.310129 5.734393 0.000000 0.000000 0.000000 1.570796
 10   1.384163 -0.004728 0.003908 0.000097 0.290643 0.022720
 11   5.939814 -0.004730 0.000000 0.000000 -0.008952 0.005469
 12   5.939809 -0.003975 0.000000 0.000051 0.080788 0.005484
 13   4.991439 -0.003975 0.000000 0.000000 -0.009156 0.005483
 14   4.991436 -0.001575 0.000000 0.000000 0.000000 0.000000
 15   0.000005 0.001564 3.638375 -0.409483 -1.261752 3.532842
 16   8.842831 0.000000 -0.000002 0.041333 1.092251 -0.176324
 17   9.341934 0.000000 -0.000001 0.000000 0.000000 -0.682425
 18   11.168404 -0.000001 0.000002 -1.568718 -0.023064 -0.000011
 19   0.000005 0.001585 -3.638375 0.437842 1.267889 3.560998
 20   8.842831 0.000000 0.000001 -0.051923 -0.671968 -0.089213
 21   9.341937 0.000000 -0.000001 0.000000 0.000000 0.006582
 22   11.168404 -0.000001 0.000001 1.568687 0.023106 -0.000040
 23   1.977383 0.000000 0.000000 -0.749217 0.148998 -0.089471
 24   3.723980 2.768054 -0.049087 0.000001 -3.141591 -1.570794
 25   12.421014 0.304721 4.492689 -0.091859 -0.075839 1.616818
 26   19.916998 1.704573 4.956909 2.262592 1.451744 0.734330
time 2
  0   0.345174 -2.063565 30.296379 0.000000 0.000000 -1.570844
  1   -0.779955 3.070407 9.745319 -1.570795 -1.570451 0.000000
  2   -0.000008 0.000010 5.615750 -0.057807 3.066077 -0.323932
  3   15.693467 0.000000 0.000000 0.000000 0.000000 -1.095618
  4   22.146629 -0.000001 0.000000 -0.037430 0.087498 0.038393
  5   3.310129 5.734393 0.000000 0.000000 0.000000 1.570796
  6   0.000008 -0.000006 -5.615750 -0.003546 3.060770 -0.284239
  7   15.693467 0.000000 0.000000 0.000000 0.000000 -0.075028
  8   22.146629 0.000000 0.000000 -0.012918 0.079912 -0.129882
  9   3.310129 5.734393 0.000000 0.000000 0.000000 1.570796
 10   1.384163 -0.004728 0.000002 0.000198 0.300196 0.022623
 11   5.939814 -0.004730 0.000000 0.000000 -0.010007 0.005450
 12   5.939809 -0.003975 0.000000 0.000051 0.083628 0.005459
 13   4.991439 -0.003975 0.000000 0.000000 -0.008557 0.005449
 14   4.991436 -0.001575 0.000000 0.000000 0.000000 0.000000
 15   0.000005 0.001564 3.638375 -0.415331 -1.263057 3.538595
 16   8.842831 0.000000 -0.000002 0.047642 1.094298 -0.171322
 17   9.341934 0.000000 -0.000001 0.000000 0.000000 -0.691609
 18   11.168404 -0.000001 0.000002 -1.568718 -0.023925 -0.000011
 19   0.000005 0.001585 -3.638375 0.438513 1.267992 3.561670
 20   8.842831 0.000000 0.000001 -0.052568 -0.662319 -0.088737
 21   9.341937 0.000000 -0.000001 0.000000 0.000000 0.013710
 22   11.168404 -0.000001 0.000001 1.568687 0.023991 -0.000040
 23   1.977383 0.000000 0.000000 -0.745358 0.137798 -0.090266
 24   3.723980 2.768054 -0.049087 0.000001 -3.141591 -1.570794
 25   12.421014 0.304721 4.492689 -0.091859 -0.075839 1.616818
 26   19.916998 1.704573 4.956909 2.262592 1.451744 0.734330
time 3
  0   0.345174 -3.264517 30.453205 0.000000 0.000000 -1.570844
  1   -0.779955 3.097752 9.745319 -0.000032 -1.575819 -1.570770
  2   -0.000008 0.000010 5.615750 -0.062792 3.072019 -0.384049
  3   15.693467 0.000000 0.000000 0.000000 0.000000 -1.178919
  4   22.146629 -0.000001 0.000000 -0.053845 0.082495 -0.116242
  5   3.310129 5.734393 0.000000 0.000000 0.000000 1.570796
  6   0.000008 -0.000006 -5.615750 0.000864 3.065084 -0.214457
  7   15.693467 0.000000 0.000000 0.000000 0.000000 -0.001861
  8   22.146629 0.000000 0.000000 -0.017205 0.079636 -0.213379
  9   3.310129 5.734393 0.000000 0.000000 0.000000 1.570796
 10   1.384163 -0.004728 -0.003904 0.000299 0.307951 0.022590
 11   5.939814 -0.004730 0.000000 0.000000 -0.010810 0.005431
 12   5.939809 -0.003975 0.000000 0.000051 0.085786 0.005434
 13   4.991439 -0.003975 0.000000 0.000000 -0.008090 0.005433
 14   4.991436 -0.001575 0.000000 0.000000 0.000000 0.000000
 15   0.000005 0.001564 3.638375 -0.419742 -1.264037 3.543005
 16   8.842831 0.000000 -0.000002 0.060170 1.095879 -0.159304
 17   9.341934 0.000000 -0.000001 0.000000 0.000000 -0.698251
 18   11.168404 -0.000001 0.000002 -1.568718 -0.024595 -0.000011
 19   0.000005 0.001585 -3.638375 0.438993 1.268095 3.562149
 20   8.842831 0.000000 0.000001 -0.053132 -0.655679 -0.088355
 21   9.341937 0.000000 -0.000001 0.000000 0.000000 0.019172
 22   11.168404 -0.000001 0.000001 1.568687 0.024624 -0.000040
 23   1.977383 0.000000 0.000000 -0.727174 0.119716 -0.086688
 24   3.723980 2.768054 -0.049087 0.000001 -3.141591 -1.570794
 25   12.421014 0.304721 4.492689 -0.091859 -0.075839 1.616818
 26   19.916998 1.704573 4.956909 2.262592 1.451744 0.734330
time 4
  0   0.345174 -4.465468 30.570826 0.000000 0.000000 -1.570844
  1   -0.776049 3.109471 9.745319 -3.141558 -1.560828 1.570770
  2   -0.000008 0.000010 5.615750 -0.062984 3.076427 -0.410332
  3   15.693467 0.000000 0.000000 0.000000 0.000000 -1.215982
  4   22.146629 -0.000001 0.000000 -0.066484 0.074793 -0.243755
  5   3.310129 5.734393 0.000000 0.000000 0.000000 1.570796
  6   0.000008 -0.000006 -5.615750 -0.002012 3.069398 -0.236549
  7   15.693467 0.000000 0.000000 0.000000 0.000000 -0.095348
  8   22.146629 0.000000 0.000000 -0.014948 0.080618 -0.141860
  9   3.310129 5.734393 0.000000 0.000000 0.000000 1.570796
 10   1.384163 -0.004728 -0.011717 0.000400 0.313989 0.022558
 11   5.939814 -0.004730 0.000000 0.000000 -0.011385 0.005412
 12   5.939809 -0.003975 0.000000 0.000051 0.087344 0.005409
 13   4.991439 -0.003975 0.000000 0.000000 -0.007754 0.005416
 14   4.991436 -0.001575 0.000000 0.000000 0.000000 0.000000
 15   0.000005 0.001564 3.638375 -0.423001 -1.264726 3.546265
 16   8.842831 0.000000 -0.000002 0.078185 1.096902 -0.141014
 17   9.341934 0.000000 -0.000001 0.000000 0.000000 -0.702434
 18   11.168404 -0.000001 0.000002 -1.568718 -0.025073 -0.000011
 19   0.000005 0.001585 -3.638375 0.439280 1.268198 3.562437
 20   8.842831 0.000000 0.000001 -0.053535 -0.651784 -0.088070
 21   9.341937 0.000000 -0.000001 0.000000 0.000000 0.023036
 22   11.168404 -0.000001 0.000001 1.568687 0.025087 -0.000040
 23   1.977383 0.000000 0.000000 -0.716337 0.109439 -0.084302
 24   3.723980 2.768054 -0.049087 0.000001 -3.141591 -1.570794
 25   12.421014 0.304721 4.492689 -0.091859 -0.075839 1.616818
 26   19.916998 1.704573 4.956909 2.262592 1.451744 0.734330
time 5
  0   0.345174 -5.659376 30.649239 0.000000 0.000000 -1.570844
  1   -0.776049 3.105565 9.745319 -0.000032 -1.585490 -1.570770
  2   -0.000008 0.000010 5.615750 -0.058478 3.083902 -0.439387
  3   15.693467 0.000000 0.000000 0.000000 0.000000 -1.209651
  4   22.146629 -0.000001 0.000000 -0.069288 0.066571 -0.335366
  5   3.310129 5.734393 0.000000 0.000000 0.000000 1.570796
  6   0.000008 -0.000006 -5.615750 -0.004409 3.074096 -0.250716
  7   15.693467 0.000000 0.000000 0.000000 0.000000 -0.175288
  8   22.146629 0.000000 0.000000 -0.012410 0.081202 -0.075890
  9   3.310129 5.734393 0.000000 0.000000 0.000000 1.570796
 10   1.384163 -0.004728 -0.019530 0.000501 0.318336 0.022525
 11   5.939814 -0.004730 0.000000 0.000000 -0.011757 0.005392
 12   5.939809 -0.003975 0.000000 0.000051 0.088338 0.005409
 13   4.991439 -0.003975 0.000000 0.000000 -0.007550 0.005399
 14   4.991436 -0.001575 0.000000 0.000000 0.000000 0.000000
 15   0.000005 0.001564 3.638375 -0.425015 -1.265162 3.548279
 16   8.842831 0.000000 -0.000002 0.101046 1.097275 -0.117276
 17   9.341934 0.000000 -0.000001 0.000000 0.000000 -0.704484
 18   11.168404 -0.000001 0.000002 -1.568718 -0.025360 -0.000011
 19   0.000005 0.001585 -3.638375 0.439568 1.268249 3.562724
 20   8.842831 0.000000 0.000001 -0.053858 -0.650367 -0.087784
 21   9.341937 0.000000 -0.000001 0.000000 0.000000 0.025568
 22   11.168404 -0.000001 0.000001 1.568687 0.025383 -0.000040
 23   1.977383 0.000000 0.000000 -0.715544 0.114681 -0.077592
 24   3.723980 2.768054 -0.049087 0.000001 -3.141591 -1.570794
 25   12.421014 0.304721 4.492689 -0.091859 -0.075839 1.616818
 26   19.916998 1.704573 4.956909 2.262592 1.451744 0.734330
time 6
  0   0.345174 -6.860327 30.727654 0.000000 0.000000 -1.570844
  1   -0.776049 3.089939 9.745319 -0.000032 -1.589915 -1.570770
  2   -0.000008 0.000010 5.615750 -0.052247 3.091568 -0.465288
  3   15.693467 0.000000 0.000000 0.000000 0.000000 -1.188096
  4   22.146629 -0.000001 0.000000 -0.065400 0.062757 -0.354438
  5   3.310129 5.734393 0.000000 0.000000 0.000000 1.570796
  6   0.000008 -0.000006 -5.615750 -0.005080 3.078890 -0.236899
  7   15.693467 0.000000 0.000000 0.000000 0.000000 -0.207592
  8   22.146629 0.000000 0.000000 -0.009759 0.081294 -0.029562
  9   3.310129 5.734393 0.000000 0.000000 0.000000 1.570796
 10   1.384163 -0.004728 -0.023436 0.000602 0.321127 0.022558
 11   5.939814 -0.004730 0.000000 0.000000 -0.011949 0.005392
 12   5.939809 -0.003975 0.000000 0.000051 0.088842 0.005397
 13   4.991439 -0.003975 0.000000 0.000000 -0.007442 0.005399
 14   4.991436 -0.001575 0.000000 0.000000 0.000000 0.000000
 15   0.000005 0.001564 3.638375 -0.426069 -1.265379 3.549333
 16   8.842831 0.000000 -0.000002 0.127930 1.096902 -0.089058
 17   9.341934 0.000000 -0.000001 0.000000 0.000000 -0.704648
 18   11.168404 -0.000001 0.000002 -1.568718 -0.025552 -0.000011
 19   0.000005 0.001585 -3.638375 0.439664 1.268249 3.562820
 20   8.842831 0.000000 0.000001 -0.054100 -0.651076 -0.087593
 21   9.341937 0.000000 -0.000001 0.000000 0.000000 0.026833
 22   11.168404 -0.000001 0.000001 1.568687 0.025551 -0.000040
 23   1.977383 0.000000 0.000000 -0.715650 0.115628 -0.077890
 24   3.723980 2.768054 -0.049087 0.000001 -3.141591 -1.570794
 25   12.421014 0.304721 4.492689 -0.091859 -0.075839 1.616818
 26   19.916998 1.704573 4.956909 2.262592 1.451744 0.734330
time 7
  0   0.345174 -8.061278 30.806067 0.000000 0.000000 -1.570844
  1   -0.776049 3.062594 9.745319 -0.000032 -1.593952 -1.570770
  2   -0.000008 0.000010 5.615750 -0.044769 3.099043 -0.488130
  3   15.693467 0.000000 0.000000 0.000000 0.000000 -1.153950
  4   22.146629 -0.000001 0.000000 -0.057248 0.061642 -0.318214
  5   3.310129 5.734393 0.000000 0.000000 0.000000 1.570796
  6   0.000008 -0.000006 -5.615750 -0.005176 3.083587 -0.210179
  7   15.693467 0.000000 0.000000 0.000000 0.000000 -0.218162
  8   22.146629 0.000000 0.000000 -0.006995 0.080956 0.007783
  9   3.310129 5.734393 0.000000 0.000000 0.000000 1.570796
 10   1.384163 -0.004728 -0.031249 0.000703 0.322415 0.022558
 11   5.939814 -0.004730 0.000000 0.000000 -0.011973 0.005392
 12   5.939809 -0.003975 0.000000 0.000051 0.088914 0.005397
 13   4.991439 -0.003975 0.000000 0.000000 -0.007430 0.005399
 14   4.991436 -0.001575 0.000000 0.000000 0.000000 0.000000
 15   0.000005 0.001564 3.638375 -0.426261 -1.265416 3.549429
 16   8.842831 0.000000 -0.000002 0.157741 1.095786 -0.057257
 17   9.341934 0.000000 -0.000001 0.000000 0.000000 -0.703172
 18   11.168404 -0.000001 0.000002 -1.568718 -0.025552 -0.000011
 19   0.000005 0.001585 -3.638375 0.439664 1.268249 3.562820
 20   8.842831 0.000000 0.000001 -0.054261 -0.653732 -0.087402
 21   9.341937 0.000000 -0.000001 0.000000 0.000000 0.026967
 22   11.168404 -0.000001 0.000001 1.568687 0.025551 -0.000040
 23   1.977383 0.000000 0.000000 -0.715914 0.117591 -0.078735
 24   3.723980 2.768054 -0.049087 0.000001 -3.141591 -1.570794
 25   12.421014 0.304721 4.492689 -0.091859 -0.075839 1.616818
 26   19.916998 1.704573 4.956909 2.262592 1.451744 0.734330
time 8
  0   0.345174 -9.262230 30.884480 0.000000 0.000000 -1.570844
  1   -0.776049 3.031343 9.745319 -0.000032 -1.597458 -1.570770
  2   -0.000008 0.000010 5.615750 -0.036620 3.106134 -0.508297
  3   15.693467 0.000000 0.000000 0.000000 0.000000 -1.109916
  4   22.146629 -0.000001 0.000000 -0.046778 0.061197 -0.243938
  5   3.310129 5.734393 0.000000 0.000000 0.000000 1.570796
  6   0.000008 -0.000006 -5.615750 -0.005080 3.088094 -0.174481
  7   15.693467 0.000000 0.000000 0.000000 0.000000 -0.213323
  8   22.146629 0.000000 0.000000 -0.004287 0.080219 0.038786
  9   3.310129 5.734393 0.000000 0.000000 0.000000 1.570796
 10   1.384163 -0.004728 -0.035155 0.000770 0.322281 0.022623
 11   5.939814 -0.004730 0.000000 0.000000 -0.011853 0.005392
 12   5.939809 -0.003975 0.000000 0.000051 0.088602 0.005397
 13   4.991439 -0.003975 0.000000 0.000000 -0.007490 0.005399
 14   4.991436 -0.001575 0.000000 0.000000 0.000000 0.000000
 15   0.000005 0.001564 3.638375 -0.425590 -1.265270 3.548854
 16   8.842831 0.000000 -0.000002 0.189746 1.093833 -0.022843
 17   9.341934 0.000000 -0.000001 0.000000 0.000000 -0.700302
 18   11.168404 -0.000001 0.000002 -1.568718 -0.025456 -0.000011
 19   0.000005 0.001585 -3.638375 0.439568 1.268249 3.562724
 20   8.842831 0.000000 0.000001 -0.054342 -0.657892 -0.087307
 21   9.341937 0.000000 -0.000001 0.000000 0.000000 0.026234
 22   11.168404 -0.000001 0.000001 1.568687 0.025467 -0.000040
 23   1.977383 0.000000 0.000000 -0.716284 0.120501 -0.079928
 24   3.723980 2.768054 -0.049087 0.000001 -3.141591 -1.570794
 25   12.421014 0.304721 4.492689 -0.091859 -0.075839 1.616818
 26   19.916998 1.704573 4.956909 2.262592 1.451744 0.734330
time 9
  0   0.345174 -10.463181 30.943291 0.000000 0.000000 -1.570844
  1   -0.776049 2.988374 9.745319 -0.000032 -1.600384 -1.570770
  2   -0.000008 0.000010 5.615750 -0.028280 3.112459 -0.525883
  3   15.693467 0.000000 0.000000 0.000000 0.000000 -1.058769
  4   22.146629 -0.000001 0.000000 -0.035859 0.059909 -0.148806
  5   3.310129 5.734393 0.000000 0.000000 0.000000 1.570796
  6   0.000008 -0.000006 -5.615750 -0.004889 3.092312 -0.131209
  7   15.693467 0.000000 0.000000 0.000000 0.000000 -0.195460
  8   22.146629 0.000000 0.000000 -0.001579 0.079145 0.064329
  9   3.310129 5.734393 0.000000 0.000000 0.000000 1.570796
 10   1.384163 -0.004728 -0.039062 0.000871 0.320805 0.022655
 11   5.939814 -0.004730 0.000000 0.000000 -0.011625 0.005392
 12   5.939809 -0.003975 0.000000 0.000051 0.087991 0.005409
 13   4.991439 -0.003975 0.000000 0.000000 -0.007622 0.005399
 14   4.991436 -0.001575 0.000000 0.000000 0.000000 0.000000
 15   0.000005 0.001564 3.638375 -0.424344 -1.265017 3.547512
 16   8.842831 0.000000 -0.000002 0.222849 1.091042 0.013138
 17   9.341934 0.000000 -0.000001 0.000000 0.000000 -0.696201
 18   11.168404 -0.000001 0.000002 -1.568718 -0.025265 -0.000011
 19   0.000005 0.001585 -3.638375 0.439472 1.268198 3.562628
 20   8.842831 0.000000 0.000001 -0.054422 -0.663469 -0.087212
 21   9.341937 0.000000 -0.000001 0.000000 0.000000 0.024635
 22   11.168404 -0.000001 0.000001 1.568687 0.025298 -0.000040
 23   1.977383 0.000000 0.000000 -0.716760 0.124288 -0.081320
 24   3.723980 2.768054 -0.049087 0.000001 -3.141591 -1.570794
 25   12.421014 0.304721 4.492689 -0.091859 -0.075839 1.616818
 26   19.916998 1.704573 4.956909 2.262592 1.451744 0.734330
time 10
  0   0.345174 -11.657089 31.002100 0.000000 0.000000 -1.570844
  1   -0.779955 2.941497 9.745319 -0.000032 -1.602584 -1.570770
  2   -0.000008 0.000010 5.615750 -0.020227 3.117921 -0.541175
  3   15.693467 0.000000 0.000000 0.000000 0.000000 -1.003282
  4   22.146629 -0.000001 0.000000 -0.026100 0.057234 -0.050153
  5   3.310129 5.734393 0.000000 0.000000 0.000000 1.570796
  6   0.000008 -0.000006 -5.615750 -0.004697 3.095859 -0.080503
  7   15.693467 0.000000 0.000000 0.000000 0.000000 -0.164570
  8   22.146629 0.000000 0.000000 0.000959 0.077794 0.084322
  9   3.310129 5.734393 0.000000 0.000000 0.000000 1.570796
 10   1.384163 -0.004728 -0.042968 0.000905 0.318068 0.022720
 11   5.939814 -0.004730 0.000000 0.000000 -0.011301 0.005412
 12   5.939809 -0.003975 0.000000 0.000051 0.087104 0.005422
 13   4.991439 -0.003975 0.000000 0.000000 -0.007814 0.005416
 14   4.991436 -0.001575 0.000000 0.000000 0.000000 0.000000
 15   0.000005 0.001564 3.638375 -0.422522 -1.264617 3.545786
 16   8.842831 0.000000 -0.000002 0.256409 1.087507 0.049866
 17   9.341934 0.000000 -0.000001 0.000000 0.000000 -0.691199
 18   11.168404 -0.000001 0.000002 -1.568718 -0.024978 -0.000011
 19   0.000005 0.001585 -3.638375 0.439280 1.268146 3.562437
 20   8.842831 0.000000 0.000001 -0.054342 -0.669932 -0.087212
 21   9.341937 0.000000 -0.000001 0.000000 0.000000 0.022437
 22   11.168404 -0.000001 0.000001 1.568687 0.025003 -0.000040
 23   1.977383 0.000000 0.000000 -0.717341 0.128861 -0.082711
 24   3.723980 2.768054 -0.049087 0.000001 -3.141591 -1.570794
 25   12.421014 0.304721 4.492689 -0.091859 -0.075839 1.616818
 26   19.916998 1.704573 4.956909 2.262592 1.451744 0.734330
time 11
  0   0.345174 -12.858041 31.002100 0.000000 0.000000 -1.570844
  1   -0.779955 2.890714 9.745319 -0.000032 -1.603986 -1.570770
  2   -0.000008 0.000010 5.615750 -0.013229 3.122425 -0.554460
  3   15.693467 0.000000 0.000000 0.000000 0.000000 -0.946087
  4   22.146629 -0.000001 0.000000 -0.018696 0.053544 0.034826
  5   3.310129 5.734393 0.000000 0.000000 0.000000 1.570796
  6   0.000008 -0.000006 -5.615750 -0.004218 3.098640 -0.019558
  7   15.693467 0.000000 0.000000 0.000000 0.000000 -0.116264
  8   22.146629 0.000000 0.000000 0.003441 0.076259 0.097005
  9   3.310129 5.734393 0.000000 0.000000 0.000000 1.570796
 10   1.384163 -0.004728 -0.042968 0.000938 0.314150 0.022752
 11   5.939814 -0.004730 0.000000 0.000000 -0.010894 0.005431
 12   5.939809 -0.003975 0.000000 0.000051 0.086025 0.005422
 13   4.991439 -0.003975 0.000000 0.000000 -0.008042 0.005416
 14   4.991436 -0.001575 0.000000 0.000000 0.000000 0.000000
 15   0.000005 0.001564 3.638375 -0.420221 -1.264146 3.543485
 16   8.842831 0.000000 -0.000002 0.289329 1.083135 0.086370
 17   9.341934 0.000000 -0.000001 0.000000 0.000000 -0.685541
 18   11.168404 -0.000001 0.000002 -1.568718 -0.024691 -0.000011
 19   0.000005 0.001585 -3.638375 0.438993 1.268095 3.562149
 20   8.842831 0.000000 0.000001 -0.054342 -0.677191 -0.087212
 21   9.341937 0.000000 -0.000001 0.000000 0.000000 0.019772
 22   11.168404 -0.000001 0.000001 1.568687 0.024708 -0.000040
 23   1.977383 0.000000 0.000000 -0.717870 0.134149 -0.083904
 24   3.723980 2.768054 -0.049087 0.000001 -3.141591 -1.570794
 25   12.421014 0.304721 4.492689 -0.091859 -0.075839 1.616818
 26   19.916998 1.704573 4.956909 2.262592 1.451744 0.734330
time 12
  0   0.345174 -14.058992 31.002100 0.000000 0.000000 -1.570844
  1   -0.779955 2.836025 9.745319 -0.000032 -1.604470 -1.570770
  2   -0.000008 0.000010 5.615750 -0.007573 3.125492 -0.565737
  3   15.693467 0.000000 0.000000 0.000000 0.000000 -0.890031
  4   22.146629 -0.000001 0.000000 -0.014134 0.049631 0.088840
  5   3.310129 5.734393 0.000000 0.000000 0.000000 1.570796
  6   0.000008 -0.000006 -5.615750 -0.002396 3.100461 0.079891
  7   15.693467 0.000000 0.000000 0.000000 0.000000 -0.001861
  8   22.146629 0.000000 0.000000 0.005697 0.074571 0.082120
  9   3.310129 5.734393 0.000000 0.000000 0.000000 1.570796
 10   1.384163 -0.004728 -0.042968 0.000972 0.309105 0.022817
 11   5.939814 -0.004730 0.000000 0.000000 -0.010451 0.005431
 12   5.939809 -0.003975 0.000000 0.000051 0.084815 0.005447
 13   4.991439 -0.003975 0.000000 0.000000 -0.008305 0.005433
 14   4.991436 -0.001575 0.000000 0.000000 0.000000 0.000000
 15   0.000005 0.001564 3.638375 -0.417728 -1.263602 3.541088
 16   8.842831 0.000000 -0.000002 0.320968 1.078298 0.121755
 17   9.341934 0.000000 -0.000001 0.000000 0.000000 -0.679391
 18   11.168404 -0.000001 0.000002 -1.568718 -0.024308 -0.000011
 19   0.000005 0.001585 -3.638375 0.438705 1.268043 3.561861
 20   8.842831 0.000000 0.000001 -0.054180 -0.684982 -0.087212
 21   9.341937 0.000000 -0.000001 0.000000 0.000000 0.016708
 22   11.168404 -0.000001 0.000001 1.568687 0.024329 -0.000040
 23   1.977383 0.000000 0.000000 -0.718399 0.140084 -0.084749
 24   3.723980 2.768054 -0.049087 0.000001 -3.141591 -1.570794
 25   12.421014 0.304721 4.492689 -0.091859 -0.075839 1.616818
 26   19.916998 1.704573 4.956909 2.262592 1.451744 0.734330
time 13
  0   0.345174 -15.259943 30.943291 0.000000 0.000000 -1.570844
  1   -0.779955 2.785242 9.745319 -0.000032 -1.603986 -1.570770
  2   -0.000008 0.000010 5.615750 -0.003546 3.127887 -0.574530
  3   15.693467 0.000000 0.000000 0.000000 0.000000 -0.830774
  4   22.146629 -0.000001 0.000000 -0.010732 0.045916 0.120078
  5   3.310129 5.734393 0.000000 0.000000 0.000000 1.570796
  6   0.000008 -0.000006 -5.615750 -0.010833 3.101708 -0.072438
  7   15.693467 0.000000 0.000000 0.000000 0.000000 -0.312393
  8   22.146629 0.000000 0.000000 0.004400 0.074141 0.192393
  9   3.310129 5.734393 0.000000 0.000000 0.000000 1.570796
 10   1.384163 -0.004728 -0.042968 0.000938 0.303067 0.022849
 11   5.939814 -0.004730 0.000000 0.000000 -0.009971 0.005450
 12   5.939809 -0.003975 0.000000 0.000051 0.083521 0.005459
 13   4.991439 -0.003975 0.000000 0.000000 -0.008581 0.005449
 14   4.991436 -0.001575 0.000000 0.000000 0.000000 0.000000
 15   0.000005 0.001564 3.638375 -0.415140 -1.262985 3.538403
 16   8.842831 0.000000 -0.000002 0.350596 1.073088 0.155198
 17   9.341934 0.000000 -0.000001 0.000000 0.000000 -0.673076
 18   11.168404 -0.000001 0.000002 -1.568718 -0.023925 -0.000011
 19   0.000005 0.001585 -3.638375 0.438417 1.267992 3.561574
 20   8.842831 0.000000 0.000001 -0.054100 -0.692860 -0.087307
 21   9.341937 0.000000 -0.000001 0.000000 0.000000 0.013443
 22   11.168404 -0.000001 0.000001 1.568687 0.023949 -0.000040
 23   1.977383 0.000000 0.000000 -0.718927 0.146365 -0.085296
 24   3.723980 2.768054 -0.049087 0.000001 -3.141591 -1.570794
 25   12.421014 0.304721 4.492689 -0.091859 -0.075839 1.616818
 26   19.916998 1.704573 4.956909 2.262592 1.451744 0.734330
time 14
  0   0.345174 -16.453850 30.845274 0.000000 0.000000 -1.570844
  1   -0.783861 2.730553 9.745319 -0.000032 -1.602584 -1.570770
  2   -0.000008 0.000010 5.615750 -0.000958 3.129612 -0.578831
  3   15.693467 0.000000 0.000000 0.000000 0.000000 -0.762411
  4   22.146629 -0.000001 0.000000 -0.007217 0.042399 0.147109
  5   3.310129 5.734393 0.000000 0.000000 0.000000 1.570796
  6   0.000008 -0.000006 -5.615750 -0.014956 3.101899 -0.119287
  7   15.693467 0.000000 0.000000 0.000000 0.000000 -0.442575
  8   22.146629 0.000000 0.000000 0.003215 0.073680 0.229121
  9   3.310129 5.734393 0.000000 0.000000 0.000000 1.570796
 10   1.384163 -0.004728 -0.042968 0.000938 0.296278 0.022914
 11   5.939814 -0.004730 0.000000 0.000000 -0.009480 0.005469
 12   5.939809 -0.003975 0.000000 0.000051 0.082202 0.005472
 13   4.991439 -0.003975 0.000000 0.000000 -0.008857 0.005466
 14   4.991436 -0.001575 0.000000 0.000000 0.000000 0.000000
 15   0.000005 0.001564 3.638375 -0.412359 -1.262404 3.535719
 16   8.842831 0.000000 -0.000002 0.377755 1.067693 0.186103
 17   9.341934 0.000000 -0.000001 0.000000 0.000000 -0.666844
 18   11.168404 -0.000001 0.000002 -1.568718 -0.023542 -0.000011
 19   0.000005 0.001585 -3.638375 0.438130 1.267941 3.561286
 20   8.842831 0.000000 0.000001 -0.053938 -0.700562 -0.087307
 21   9.341937 0.000000 -0.000001 0.000000 0.000000 0.010112
 22   11.168404 -0.000001 0.000001 1.568687 0.023527 -0.000040
 23   1.977383 0.000000 0.000000 -0.719456 0.152577 -0.085743
 24   3.723980 2.768054 -0.049087 0.000001 -3.141591 -1.570794
 25   12.421014 0.304721 4.492689 -0.091859 -0.075839 1.616818
 26   19.916998 1.704573 4.956909 2.262592 1.451744 0.734330
time 15
  0   0.345174 -17.654802 30.708050 0.000000 0.000000 -1.570844
  1   -0.783861 2.683677 9.745319 -0.000032 -1.600384 -1.570770
  2   -0.000008 0.000010 5.615750 0.000384 3.130187 -0.576633
  3   15.693467 0.000000 0.000000 0.000000 0.000000 -0.685227
  4   22.146629 -0.000001 0.000000 -0.004188 0.039601 0.167964
  5   3.310129 5.734393 0.000000 0.000000 0.000000 1.570796
  6   0.000008 -0.000006 -5.615750 -0.018407 3.101324 -0.147690
  7   15.693467 0.000000 0.000000 0.000000 0.000000 -0.541347
  8   22.146629 0.000000 0.000000 0.002031 0.073250 0.253166
  9   3.310129 5.734393 0.000000 0.000000 0.000000 1.570796
 10   1.384163 -0.004728 -0.039062 0.000871 0.289033 0.022946
 11   5.939814 -0.004730 0.000000 0.000000 -0.009000 0.005469
 12   5.939809 -0.003975 0.000000 0.000051 0.080920 0.005484
 13   4.991439 -0.003975 0.000000 0.000000 -0.009132 0.005483
 14   4.991436 -0.001575 0.000000 0.000000 0.000000 0.000000
 15   0.000005 0.001564 3.638375 -0.409771 -1.261824 3.533130
 16   8.842831 0.000000 -0.000002 0.401713 1.062390 0.213798
 17   9.341934 0.000000 -0.000001 0.000000 0.000000 -0.660940
 18   11.168404 -0.000001 0.000002 -1.568718 -0.023159 -0.000011
 19   0.000005 0.001585 -3.638375 0.437842 1.267889 3.560998
 20   8.842831 0.000000 0.000001 -0.053777 -0.707999 -0.087402
 21   9.341937 0.000000 -0.000001 0.000000 0.000000 0.006915
 22   11.168404 -0.000001 0.000001 1.568687 0.023148 -0.000040
 23   1.977383 0.000000 0.000000 -0.719879 0.158535 -0.086091
 24   3.723980 2.768054 -0.049087 0.000001 -3.141591 -1.570794
 25   12.421014 0.304721 4.492689 -0.091859 -0.075839 1.616818
 26   19.916998 1.704573 4.956909 2.262592 1.451744 0.734330
time 16
  0   0.345174 -18.855753 30.570826 -0.000093 0.000000 -1.570844
  1   -0.783861 2.636800 9.745319 -0.000032 -1.597458 -1.570770
  2   -0.000008 0.000010 5.615750 0.000864 3.128654 -0.565929
  3   15.693467 0.000000 0.000000 0.000000 0.000000 -0.599507
  4   22.146629 -0.000001 0.000000 -0.002094 0.038164 0.180679
  5   3.310129 5.734393 0.000000 0.000000 0.000000 1.570796
  6   0.000008 -0.000006 -5.615750 -0.021667 3.099982 -0.166416
  7   15.693467 0.000000 0.000000 0.000000 0.000000 -0.623669
  8   22.146629 0.000000 0.000000 0.000846 0.072943 0.269108
  9   3.310129 5.734393 0.000000 0.000000 0.000000 1.570796
 10   1.384163 -0.004728 -0.035155 0.000804 0.281573 0.022979
 11   5.939814 -0.004730 0.000000 0.000000 -0.008569 0.005488
 12   5.939809 -0.003975 0.000000 0.000051 0.079745 0.005497
 13   4.991439 -0.003975 0.000000 0.000000 -0.009384 0.005483
 14   4.991436 -0.001575 0.000000 0.000000 0.000000 0.000000
 15   0.000005 0.001564 3.638375 -0.407470 -1.261280 3.530829
 16   8.842831 0.000000 -0.000002 0.422197 1.057460 0.237612
 17   9.341934 0.000000 -0.000001 0.000000 0.000000 -0.655446
 18   11.168404 -0.000001 0.000002 -1.568718 -0.022776 -0.000011
 19   0.000005 0.001585 -3.638375 0.437650 1.267838 3.560807
 20   8.842831 0.000000 0.000001 -0.053616 -0.714638 -0.087402
 21   9.341937 0.000000 -0.000001 0.000000 0.000000 0.003984
 22   11.168404 -0.000001 0.000001 1.568687 0.022811 -0.000040
 23   1.977383 0.000000 0.000000 -0.720302 0.163962 -0.086290
 24   3.723980 2.768054 -0.049087 0.000001 -3.141591 -1.570794
 25   12.421014 0.304721 4.492689 -0.091859 -0.075839 1.616818
 26   19.916998 1.704573 4.956909 2.262592 1.451744 0.734330
time 17
  0   0.345174 -20.056704 30.433601 -0.000093 0.000000 -1.570844
  1   -0.783861 2.601643 9.745319 -0.000032 -1.593952 -1.570770
  2   -0.000008 0.000010 5.615750 0.000768 3.124438 -0.544615
  3   15.693467 0.000000 0.000000 0.000000 0.000000 -0.505463
  4   22.146629 -0.000001 0.000000 -0.001010 0.038907 0.183332
  5   3.310129 5.734393 0.000000 0.000000 0.000000 1.570796
  6   0.000008 -0.000006 -5.615750 -0.024831 3.097873 -0.179110
  7   15.693467 0.000000 0.000000 0.000000 0.000000 -0.695124
  8   22.146629 0.000000 0.000000 -0.000564 0.072729 0.277652
  9   3.310129 5.734393 0.000000 0.000000 0.000000 1.570796
 10   1.384163 -0.004728 -0.031249 0.000737 0.274220 0.022979
 11   5.939814 -0.004730 0.000000 0.000000 -0.008185 0.005507
 12   5.939809 -0.003975 0.000000 0.000051 0.078727 0.005509
 13   4.991439 -0.003975 0.000000 0.000000 -0.009600 0.005500
 14   4.991436 -0.001575 0.000000 0.000000 0.000000 0.000000
 15   0.000005 0.001564 3.638375 -0.405361 -1.260808 3.528720
 16   8.842831 0.000000 -0.000002 0.438839 1.053181 0.257095
 17   9.341934 0.000000 -0.000001 0.000000 0.000000 -0.650854
 18   11.168404 -0.000001 0.000002 -1.568718 -0.022489 -0.000011
 19   0.000005 0.001585 -3.638375 0.437363 1.267786 3.560519
 20   8.842831 0.000000 0.000001 -0.053535 -0.720304 -0.087498
 21   9.341937 0.000000 -0.000001 0.000000 0.000000 0.001386
 22   11.168404 -0.000001 0.000001 1.568687 0.022473 -0.000040
 23   1.977383 0.000000 0.000000 -0.720619 0.168697 -0.086390
 24   3.723980 2.768054 -0.049087 0.000001 -3.141591 -1.570794
 25   12.421014 0.304721 4.492689 -0.091859 -0.075839 1.616818
 26   19.916998 1.704573 4.956909 2.262592 1.451744 0.734330
time 18
  0   0.345174 -21.257656 30.296379 -0.000186 0.000000 -1.570844
  1   -0.783861 2.574298 9.745319 -0.000032 -1.589915 -1.570770
  2   -0.000008 0.000010 5.615750 0.000001 3.113417 -0.493483
  3   15.693467 0.000000 0.000000 0.000000 0.000000 -0.376634
  4   22.146629 -0.000001 0.000000 -0.001084 0.046238 0.151499
  5   3.310129 5.734393 0.000000 0.000000 0.000000 1.570796
  6   0.000008 -0.000006 -5.615750 -0.027899 3.094996 -0.187666
  7   15.693467 0.000000 0.000000 0.000000 0.000000 -0.758541
  8   22.146629 0.000000 0.000000 -0.002369 0.072729 0.278357
  9   3.310129 5.734393 0.000000 0.000000 0.000000 1.570796
 10   1.384163 -0.004728 -0.023436 0.000636 0.267243 0.022979
 11   5.939814 -0.004730 0.000000 0.000000 -0.007886 0.005507
 12   5.939809 -0.003975 0.000000 0.000051 0.077924 0.005509
 13   4.991439 -0.003975 0.000000 0.000000 -0.009767 0.005517
 14   4.991436 -0.001575 0.000000 0.000000 0.000000 0.000000
 15   0.000005 0.001564 3.638375 -0.403731 -1.260445 3.527186
 16   8.842831 0.000000 -0.000002 0.451184 1.049832 0.271652
 17   9.341934 0.000000 -0.000001 0.000000 0.000000 -0.647245
 18   11.168404 -0.000001 0.000002 -1.568718 -0.022202 -0.000011
 19   0.000005 0.001585 -3.638375 0.437171 1.267735 3.560327
 20   8.842831 0.000000 0.000001 -0.053374 -0.724730 -0.087593
 21   9.341937 0.000000 -0.000001 0.000000 0.000000 -0.000613
 22   11.168404 -0.000001 0.000001 1.568687 0.022263 -0.000040
 23   1.977383 0.000000 0.000000 -0.720830 0.172461 -0.086340
 24   3.723980 2.768054 -0.049087 0.000001 -3.141591 -1.570794
 25   12.421014 0.304721 4.492689 -0.091859 -0.075839 1.616818
 26   19.916998 1.704573 4.956909 2.262592 1.451744 0.734330
time 19
  0   0.345174 -22.451563 30.198360 -0.000186 0.000000 -1.570844
  1   -0.787768 2.554766 9.745319 -0.000032 -1.585490 -1.570770
  2   -0.000008 0.000010 5.615750 -0.000670 3.097126 -0.416640
  3   15.693467 0.000000 0.000000 0.000000 0.000000 -0.224258
  4   22.146629 -0.000001 0.000000 -0.000673 0.058596 0.095426
  5   3.310129 5.734393 0.000000 0.000000 0.000000 1.570796
  6   0.000008 -0.000006 -5.615750 -0.030871 3.091545 -0.193627
  7   15.693467 0.000000 0.000000 0.000000 0.000000 -0.815630
  8   22.146629 0.000000 0.000000 -0.004738 0.072913 0.270077
  9   3.310129 5.734393 0.000000 0.000000 0.000000 1.570796
 10   1.384163 -0.004728 -0.019530 0.000535 0.260910 0.022979
 11   5.939814 -0.004730 0.000000 0.000000 -0.007694 0.005507
 12   5.939809 -0.003975 0.000000 0.000051 0.077408 0.005522
 13   4.991439 -0.003975 0.000000 0.000000 -0.009875 0.005517
 14   4.991436 -0.001575 0.000000 0.000000 0.000000 0.000000
 15   0.000005 0.001564 3.638375 -0.402676 -1.260228 3.526131
 16   8.842831 0.000000 -0.000002 0.458866 1.047693 0.280834
 17   9.341934 0.000000 -0.000001 0.000000 0.000000 -0.644867
 18   11.168404 -0.000001 0.000002 -1.568718 -0.022107 -0.000011
 19   0.000005 0.001585 -3.638375 0.437075 1.267735 3.560231
 20   8.842831 0.000000 0.000001 -0.053293 -0.727563 -0.087593
 21   9.341937 0.000000 -0.000001 0.000000 0.000000 -0.001945
 22   11.168404 -0.000001 0.000001 1.568687 0.022094 -0.000040
 23   1.977383 0.000000 0.000000 -0.720936 0.175070 -0.086091
 24   3.723980 2.768054 -0.049087 0.000001 -3.141591 -1.570794
 25   12.421014 0.304721 4.492689 -0.091859 -0.075839 1.616818
 26   19.916998 1.704573 4.956909 2.262592 1.451744 0.734330
time 20
  0   0.345174 -23.652515 30.119947 -0.000280 0.000000 -1.570844
  1   -0.787768 2.546954 9.745319 -3.141558 -1.560828 1.570770
  2   -0.000008 0.000010 5.615750 -0.000574 3.083519 -0.347157
  3   15.693467 0.000000 0.000000 0.000000 0.000000 -0.104961
  4   22.146629 -0.000001 0.000000 0.001458 0.067859 0.065149
  5   3.310129 5.734393 0.000000 0.000000 0.000000 1.570796
  6   0.000008 -0.000006 -5.615750 -0.033843 3.087327 -0.198046
  7   15.693467 0.000000 0.000000 0.000000 0.000000 -0.867212
  8   22.146629 0.000000 0.000000 -0.007841 0.073250 0.251317
  9   3.310129 5.734393 0.000000 0.000000 0.000000 1.570796
 10   1.384163 -0.004728 -0.011717 0.000400 0.255490 0.022979
 11   5.939814 -0.004730 0.000000 0.000000 -0.007622 0.005507
 12   5.939809 -0.003975 0.000000 0.000051 0.077217 0.005522
 13   4.991439 -0.003975 0.000000 0.000000 -0.009923 0.005517
 14   4.991436 -0.001575 0.000000 0.000000 0.000000 0.000000
 15   0.000005 0.001564 3.638375 -0.402293 -1.260119 3.525748
 16   8.842831 0.000000 -0.000002 0.461609 1.046855 0.284044
 17   9.341934 0.000000 -0.000001 0.000000 0.000000 -0.644047
 18   11.168404 -0.000001 0.000002 -1.568718 -0.022011 -0.000011
 19   0.000005 0.001585 -3.638375 0.437075 1.267683 3.560231
 20   8.842831 0.000000 0.000001 -0.053293 -0.728537 -0.087593
 21   9.341937 0.000000 -0.000001 0.000000 0.000000 -0.002412
 22   11.168404 -0.000001 0.000001 1.568687 0.022052 -0.000040
 23   1.977383 0.000000 0.000000 -0.720936 0.176294 -0.085694
 24   3.723980 2.768054 -0.049087 0.000001 -3.141591 -1.570794
 25   12.421014 0.304721 4.492689 -0.091859 -0.075839 1.616818
 26   19.916998 1.704573 4.956909 2.262592 1.451744 0.734330
time 21
  0   0.345174 -24.853466 30.159155 -0.000280 0.000000 -1.570844
  1   -0.787768 2.554766 9.745319 -0.000032 -1.575819 -1.570770
  2   -0.000008 0.000010 5.615750 -0.004601 3.078727 -0.364074
  3   15.693467 0.000000 0.000000 0.000000 0.000000 -0.171047
  4   22.146629 -0.000001 0.000000 -0.004973 0.068032 0.000432
  5   3.310129 5.734393 0.000000 0.000000 0.000000 1.570796
  6   0.000008 -0.000006 -5.615750 -0.040651 3.083587 -0.254082
  7   15.693467 0.000000 0.000000 0.000000 0.000000 -0.982731
  8   22.146629 0.000000 0.000000 -0.016866 0.074079 0.172664
  9   3.310129 5.734393 0.000000 0.000000 0.000000 1.570796
 10   1.384163 -0.004728 -0.003904 0.000299 0.251304 0.022946
 11   5.939814 -0.004730 0.000000 0.000000 -0.007586 0.005526
 12   5.939809 -0.003975 0.000000 0.000051 0.077277 0.005522
 13   4.991439 -0.003975 0.000000 0.000000 -0.009983 0.005517
 14   4.991436 -0.001575 0.000000 0.000000 0.000000 0.000000
 15   0.000005 0.001564 3.638375 -0.402293 -1.260119 3.525748
 16   8.842831 0.000000 -0.000002 0.458683 1.047507 0.280685
 17   9.341934 0.000000 -0.000001 0.000000 0.000000 -0.644867
 18   11.168404 -0.000001 0.000002 -1.568718 -0.022011 -0.000011
 19   0.000005 0.001585 -3.638375 0.437075 1.267735 3.560231
 20   8.842831 0.000000 0.000001 -0.053293 -0.727652 -0.087593
 21   9.341937 0.000000 -0.000001 0.000000 0.000000 -0.001945
 22   11.168404 -0.000001 0.000001 1.568687 0.022052 -0.000040
 23   1.977383 0.000000 0.000000 -0.720725 0.176410 -0.084650
 24   3.723980 2.768054 -0.049087 0.000001 -3.141591 -1.570794
 25   12.421014 0.304721 4.492689 -0.091859 -0.075839 1.616818
 26   19.916998 1.704573 4.956909 2.262592 1.451744 0.734330
time 22
  0   0.337637 -26.054419 30.296379 -0.000373 0.000000 -1.570844
  1   -0.787768 2.574298 9.745319 -1.570795 -1.570451 0.000000
  2   -0.000008 0.000010 5.615750 -0.004409 3.073552 -0.309405
  3   15.693467 0.000000 0.000000 0.000000 0.000000 -0.117410
  4   22.146629 -0.000001 0.000000 -0.011106 0.067735 -0.112583
  5   3.310129 5.734393 0.000000 0.000000 0.000000 1.570796
  6   0.000008 -0.000006 -5.615750 -0.049088 3.080040 -0.326669
  7   15.693467 0.000000 0.000000 0.000000 0.000000 -1.100780
  8   22.146629 0.000000 0.000000 -0.030066 0.073220 0.040724
  9   3.310129 5.734393 0.000000 0.000000 0.000000 1.570796
 10   1.384163 -0.004728 0.000002 0.000198 0.248325 0.022946
 11   5.939814 -0.004730 0.000000 0.000000 -0.007478 0.005526
 12   5.939809 -0.003975 0.000000 0.000051 0.077456 0.005534
 13   4.991439 -0.003975 0.000000 0.000000 -0.010163 0.005533
 14   4.991436 -0.001575 0.000000 0.000000 0.000000 0.000000
 15   0.000005 0.001564 3.638375 -0.402293 -1.260119 3.525748
 16   8.842831 0.000000 -0.000002 0.450361 1.049274 0.271130
 17   9.341934 0.000000 -0.000001 0.000000 0.000000 -0.647245
 18   11.168404 -0.000001 0.000002 -1.568718 -0.022107 -0.000011
 19   0.000005 0.001585 -3.638375 0.437171 1.267735 3.560327
 20   8.842831 0.000000 0.000001 -0.053213 -0.724907 -0.087688
 21   9.341937 0.000000 -0.000001 0.000000 0.000000 -0.000613
 22   11.168404 -0.000001 0.000001 1.568687 0.022136 -0.000040
 23   1.977383 0.000000 0.000000 -0.720249 0.175694 -0.083010
 24   3.723980 2.768054 -0.049087 0.000001 -3.141591 -1.570794
 25   12.421014 0.304721 4.492689 -0.091859 -0.075839 1.616818
 26   19.916998 1.704573 4.956909 2.262592 1.451744 0.734330
time 23
  0   0.337637 -27.248325 30.453205 -0.000373 0.000000 -1.570844
  1   -0.787768 2.605549 9.745319 -0.000032 -1.565785 -1.570770
  2   -0.000008 0.000010 5.615750 -0.001149 3.067802 -0.215072
  3   15.693467 0.000000 0.000000 0.000000 0.000000 -0.001883
  4   22.146629 -0.000001 0.000000 -0.014583 0.067784 -0.213707
  5   3.310129 5.734393 0.000000 0.000000 0.000000 1.570796
  6   0.000008 -0.000006 -5.615750 -0.056566 3.076109 -0.387054
  7   15.693467 0.000000 0.000000 0.000000 0.000000 -1.184145
  8   22.146629 0.000000 0.000000 -0.044225 0.069321 -0.113764
  9   3.310129 5.734393 0.000000 0.000000 0.000000 1.570796
 10   1.384163 -0.004728 0.003908 0.000063 0.246473 0.022979
 11   5.939814 -0.004730 0.000000 0.000000 -0.007311 0.005545
 12   5.939809 -0.003975 0.000000 0.000051 0.077744 0.005547
 13   4.991439 -0.003975 0.000000 0.000000 -0.010439 0.005550
 14   4.991436 -0.001575 0.000000 0.000000 0.000000 0.000000
 15   0.000005 0.001564 3.638375 -0.402293 -1.260119 3.525748
 16   8.842831 0.000000 -0.000002 0.437102 1.051879 0.256050
 17   9.341934 0.000000 -0.000001 0.000000 0.000000 -0.650854
 18   11.168404 -0.000001 0.000002 -1.568718 -0.022298 -0.000011
 19   0.000005 0.001585 -3.638375 0.437363 1.267786 3.560519
 20   8.842831 0.000000 0.000001 -0.053132 -0.720835 -0.087784
 21   9.341937 0.000000 -0.000001 0.000000 0.000000 0.001386
 22   11.168404 -0.000001 0.000001 1.568687 0.022263 -0.000040
 23   1.977383 0.000000 0.000000 -0.719720 0.173939 -0.081220
 24   3.723980 2.768054 -0.049087 0.000001 -3.141591 -1.570794
 25   12.421014 0.304721 4.492689 -0.091859 -0.075839 1.616818
 26   19.916998 1.704573 4.956909 2.262592 1.451744 0.734330
time 24
  0   0.337637 -28.449278 30.570826 -0.000466 0.000000 -1.570844
  1   -0.787768 2.648519 9.745319 -0.000032 -1.560828 -1.570770
  2   -0.000008 0.000010 5.615750 -0.008052 3.062053 -0.259228
  3   15.693467 0.000000 0.000000 0.000000 0.000000 -0.132633
  4   22.146629 -0.000001 0.000000 -0.012527 0.069493 -0.126716
  5   3.310129 5.734393 0.000000 0.000000 0.000000 1.570796
  6   0.000008 -0.000006 -5.615750 -0.060977 3.070644 -0.413634
  7   15.693467 0.000000 0.000000 0.000000 0.000000 -1.220914
  8   22.146629 0.000000 0.000000 -0.055789 0.063549 -0.241476
  9   3.310129 5.734393 0.000000 0.000000 0.000000 1.570796
 10   1.384163 -0.004728 0.011721 -0.000004 0.245668 0.023044
 11   5.939814 -0.004730 0.000000 0.000000 -0.007107 0.005565
 12   5.939809 -0.003975 0.000000 0.000051 0.078092 0.005572
 13   4.991439 -0.003975 0.000000 0.000000 -0.010786 0.005567
 14   4.991436 -0.001575 0.000000 0.000000 0.000000 0.000000
 15   0.000005 0.001564 3.638375 -0.402293 -1.260119 3.525748
 16   8.842831 0.000000 -0.000002 0.419362 1.055228 0.235895
 17   9.341934 0.000000 -0.000001 0.000000 0.000000 -0.655446
 18   11.168404 -0.000001 0.000002 -1.568718 -0.022394 -0.000011
 19   0.000005 0.001585 -3.638375 0.437650 1.267838 3.560807
 20   8.842831 0.000000 0.000001 -0.053052 -0.715523 -0.087974
 21   9.341937 0.000000 -0.000001 0.000000 0.000000 0.003984
 22   11.168404 -0.000001 0.000001 1.568687 0.022431 -0.000040
 23   1.977383 0.000000 0.000000 -0.719139 0.170890 -0.079828
 24   3.723980 2.768054 -0.049087 0.000001 -3.141591 -1.570794
 25   12.421014 0.304721 4.492689 -0.091859 -0.075839 1.616818
 26   19.916998 1.704573 4.956909 2.262592 1.451744 0.734330
time 25
  0   0.337637 -29.650229 30.649239 -0.000466 0.000000 -1.570844
  1   -0.787768 2.695396 9.745319 -0.000032 -1.556113 -1.570770
  2   -0.000008 0.000010 5.615750 -0.012174 3.056399 -0.264198
  3   15.693467 0.000000 0.000000 0.000000 0.000000 -0.196443
  4   22.146629 -0.000001 0.000000 -0.010395 0.071326 -0.067533
  5   3.310129 5.734393 0.000000 0.000000 0.000000 1.570796
  6   0.000008 -0.000006 -5.615750 -0.061648 3.068919 -0.442739
  7   15.693467 0.000000 0.000000 0.000000 0.000000 -1.214290
  8   22.146629 0.000000 0.000000 -0.058609 0.056918 -0.333252
  9   3.310129 5.734393 0.000000 0.000000 0.000000 1.570796
 10   1.384163 -0.004728 0.019534 -0.000105 0.245829 0.023076
 11   5.939814 -0.004730 0.000000 0.000000 -0.006867 0.005584
 12   5.939809 -0.003975 0.000000 0.000064 0.078499 0.005584
 13   4.991439 -0.003975 0.000000 0.000000 -0.011194 0.005584
 14   4.991436 -0.001575 0.000000 0.000000 0.000000 0.000000
 15   0.000005 0.001564 3.638375 -0.402293 -1.260119 3.525748
 16   8.842831 0.000000 -0.000002 0.397598 1.059135 0.211409
 17   9.341934 0.000000 -0.000001 0.000000 0.000000 -0.660940
 18   11.168404 -0.000001 0.000002 -1.568718 -0.022585 -0.000011
 19   0.000005 0.001585 -3.638375 0.437842 1.267889 3.560998
 20   8.842831 0.000000 0.000001 -0.052971 -0.709238 -0.088165
 21   9.341937 0.000000 -0.000001 0.000000 0.000000 0.006915
 22   11.168404 -0.000001 0.000001 1.568687 0.022642 -0.000040
 23   1.977383 0.000000 0.000000 -0.718716 0.166318 -0.079282
 24   3.723980 2.768054 -0.049087 0.000001 -3.141591 -1.570794
 25   12.421014 0.304721 4.492689 -0.091859 -0.075839 1.616818
 26   19.916998 1.704573 4.956909 2.262592 1.451744 0.734330
time 26
  0   0.337637 -30.851179 30.727654 -0.000559 0.000000 -1.570844
  1   -0.787768 2.750085 9.745319 -0.000032 -1.551689 -1.570770
  2   -0.000008 0.000010 5.615750 -0.014475 3.050745 -0.247472
  3   15.693467 0.000000 0.000000 0.000000 0.000000 -0.223689
  4   22.146629 -0.000001 0.000000 -0.008152 0.073134 -0.023351
  5   3.310129 5.734393 0.000000 0.000000 0.000000 1.570796
  6   0.000008 -0.000006 -5.615750 -0.060977 3.067864 -0.468618
  7   15.693467 0.000000 0.000000 0.000000 0.000000 -1.192258
  8   22.146629 0.000000 0.000000 -0.055732 0.054001 -0.352541
  9   3.310129 5.734393 0.000000 0.000000 0.000000 1.570796
 10   1.384163 -0.004728 0.023440 -0.000172 0.246822 0.023141
 11   5.939814 -0.004730 0.000000 0.000000 -0.006604 0.005603
 12   5.939809 -0.003975 0.000000 0.000064 0.078943 0.005609
 13   4.991439 -0.003975 0.000000 0.000000 -0.011625 0.005601
 14   4.991436 -0.001575 0.000000 0.000000 0.000000 0.000000
 15   0.000005 0.001564 3.638375 -0.402293 -1.260119 3.525748
 16   8.842831 0.000000 -0.000002 0.372451 1.063135 0.183117
 17   9.341934 0.000000 -0.000001 0.000000 0.000000 -0.666844
 18   11.168404 -0.000001 0.000002 -1.568718 -0.022776 -0.000011
 19   0.000005 0.001585 -3.638375 0.438130 1.267941 3.561286
 20   8.842831 0.000000 0.000001 -0.052810 -0.702333 -0.088355
 21   9.341937 0.000000 -0.000001 0.000000 0.000000 0.010112
 22   11.168404 -0.000001 0.000001 1.568687 0.022853 -0.000040
 23   1.977383 0.000000 0.000000 -0.718399 0.160360 -0.079679
 24   3.723980 2.768054 -0.049087 0.000001 -3.141591 -1.570794
 25   12.421014 0.304721 4.492689 -0.091859 -0.075839 1.616818
 26   19.916998 1.704573 4.956909 2.262592 1.451744 0.734330
time 27
  0   0.337637 -32.045086 30.806067 -0.000559 0.000000 -1.570844
  1   -0.791674 2.808681 9.745319 -0.000032 -1.547651 -1.570770
  2   -0.000008 0.000010 5.615750 -0.015434 3.045283 -0.218895
  3   15.693467 0.000000 0.000000 0.000000 0.000000 -0.230874
  4   22.146629 -0.000001 0.000000 -0.005796 0.074917 0.012552
  5   3.310129 5.734393 0.000000 0.000000 0.000000 1.570796
  6   0.000008 -0.000006 -5.615750 -0.059155 3.067481 -0.491412
  7   15.693467 0.000000 0.000000 0.000000 0.000000 -1.157647
  8   22.146629 0.000000 0.000000 -0.049245 0.053480 -0.316518
  9   3.310129 5.734393 0.000000 0.000000 0.000000 1.570796
 10   1.384163 -0.004728 0.031253 -0.000240 0.248566 0.023205
 11   5.939814 -0.004730 0.000000 0.000000 -0.006340 0.005622
 12   5.939809 -0.003975 0.000000 0.000064 0.079386 0.005634
 13   4.991439 -0.003975 0.000000 0.000000 -0.012080 0.005618
 14   4.991436 -0.001575 0.000000 0.000000 0.000000 0.000000
 15   0.000005 0.001564 3.638375 -0.402293 -1.260119 3.525748
 16   8.842831 0.000000 -0.000002 0.344286 1.067321 0.151689
 17   9.341934 0.000000 -0.000001 0.000000 0.000000 -0.673076
 18   11.168404 -0.000001 0.000002 -1.568718 -0.023064 -0.000011
 19   0.000005 0.001585 -3.638375 0.438417 1.267992 3.561574
 20   8.842831 0.000000 0.000001 -0.052729 -0.695074 -0.088546
 21   9.341937 0.000000 -0.000001 0.000000 0.000000 0.013443
 22   11.168404 -0.000001 0.000001 1.568687 0.023064 -0.000040
 23   1.977383 0.000000 0.000000 -0.718134 0.153640 -0.080624
 24   3.723980 2.768054 -0.049087 0.000001 -3.141591 -1.570794
 25   12.421014 0.304721 4.492689 -0.091859 -0.075839 1.616818
 26   19.916998 1.704573 4.956909 2.262592 1.451744 0.734330
time 28
  0   0.337637 -33.246037 30.884480 -0.000559 0.000000 -1.570844
  1   -0.791674 2.867276 9.745319 -0.000032 -1.544121 -1.570770
  2   -0.000008 0.000010 5.615750 -0.015146 3.040108 -0.181526
  3   15.693467 0.000000 0.000000 0.000000 0.000000 -0.223120
  4   22.146629 -0.000001 0.000000 -0.003365 0.076576 0.042281
  5   3.310129 5.734393 0.000000 0.000000 0.000000 1.570796
  6   0.000008 -0.000006 -5.615750 -0.056566 3.067481 -0.511399
  7   15.693467 0.000000 0.000000 0.000000 0.000000 -1.113062
  8   22.146629 0.000000 0.000000 -0.040728 0.053664 -0.242445
  9   3.310129 5.734393 0.000000 0.000000 0.000000 1.570796
 10   1.384163 -0.004728 0.035159 -0.000307 0.250955 0.023270
 11   5.939814 -0.004730 0.000000 0.000000 -0.006076 0.005641
 12   5.939809 -0.003975 0.000000 0.000064 0.079841 0.005647
 13   4.991439 -0.003975 0.000000 0.000000 -0.012524 0.005651
 14   4.991436 -0.001575 0.000000 0.000000 0.000000 0.000000
 15   0.000005 0.001564 3.638375 -0.402293 -1.260119 3.525748
 16   8.842831 0.000000 -0.000002 0.313744 1.071228 0.117873
 17   9.341934 0.000000 -0.000001 0.000000 0.000000 -0.679391
 18   11.168404 -0.000001 0.000002 -1.568718 -0.023255 -0.000011
 19   0.000005 0.001585 -3.638375 0.438705 1.268043 3.561861
 20   8.842831 0.000000 0.000001 -0.052568 -0.687637 -0.088737
 21   9.341937 0.000000 -0.000001 0.000000 0.000000 0.016708
 22   11.168404 -0.000001 0.000001 1.568687 0.023275 -0.000040
 23   1.977383 0.000000 0.000000 -0.717870 0.146458 -0.081866
 24   3.723980 2.768054 -0.049087 0.000001 -3.141591 -1.570794
 25   12.421014 0.304721 4.492689 -0.091859 -0.075839 1.616818
 26   19.916998 1.704573 4.956909 2.262592 1.451744 0.734330
time 29
  0   0.337637 -34.446987 30.943291 -0.000653 0.000000 -1.570844
  1   -0.791674 2.921965 9.745319 -0.000032 -1.541219 -1.570770
  2   -0.000008 0.000010 5.615750 -0.013612 3.035508 -0.136319
  3   15.693467 0.000000 0.000000 0.000000 0.000000 -0.202134
  4   22.146629 -0.000001 0.000000 -0.000823 0.078087 0.066521
  5   3.310129 5.734393 0.000000 0.000000 0.000000 1.570796
  6   0.000008 -0.000006 -5.615750 -0.053402 3.067960 -0.528792
  7   15.693467 0.000000 0.000000 0.000000 0.000000 -1.061331
  8   22.146629 0.000000 0.000000 -0.031702 0.053295 -0.147585
  9   3.310129 5.734393 0.000000 0.000000 0.000000 1.570796
 10   1.384163 -0.004728 0.039066 -0.000374 0.253933 0.023367
 11   5.939814 -0.004730 0.000000 0.000000 -0.005825 0.005660
 12   5.939809 -0.003975 0.000000 0.000064 0.080261 0.005672
 13   4.991439 -0.003975 0.000000 0.000000 -0.012943 0.005668
 14   4.991436 -0.001575 0.000000 0.000000 0.000000 0.000000
 15   0.000005 0.001564 3.638375 -0.402293 -1.260119 3.525748
 16   8.842831 0.000000 -0.000002 0.281464 1.074856 0.082339
 17   9.341934 0.000000 -0.000001 0.000000 0.000000 -0.685541
 18   11.168404 -0.000001 0.000002 -1.568718 -0.023446 -0.000011
 19   0.000005 0.001585 -3.638375 0.438993 1.268095 3.562149
 20   8.842831 0.000000 0.000001 -0.052406 -0.680378 -0.088927
 21   9.341937 0.000000 -0.000001 0.000000 0.000000 0.019772
 22   11.168404 -0.000001 0.000001 1.568687 0.023485 -0.000040
 23   1.977383 0.000000 0.000000 -0.717659 0.139206 -0.083258
 24   3.723980 2.768054 -0.049087 0.000001 -3.141591 -1.570794
 25   12.421014 0.304721 4.492689 -0.091859 -0.075839 1.616818
 26   19.916998 1.704573 4.956909 2.262592 1.451744 0.734330
time 30
  0   0.337637 -35.647942 30.982496 -0.000653 0.000000 -1.570844
  1   -0.791674 2.976654 9.745319 -0.000032 -1.539019 -1.570770
  2   -0.000008 0.000010 5.615750 -0.010832 3.031579 -0.083179
  3   15.693467 0.000000 0.000000 0.000000 0.000000 -0.167419
  4   22.146629 -0.000001 0.000000 0.001720 0.079399 0.084907
  5   3.310129 5.734393 0.000000 0.000000 0.000000 1.570796
  6   0.000008 -0.000006 -5.615750 -0.049855 3.068727 -0.543731
  7   15.693467 0.000000 0.000000 0.000000 0.000000 -1.005135
  8   22.146629 0.000000 0.000000 -0.023466 0.051883 -0.049203
  9   3.310129 5.734393 0.000000 0.000000 0.000000 1.570796
 10   1.384163 -0.004728 0.042972 -0.000408 0.257368 0.023400
 11   5.939814 -0.004730 0.000000 0.000000 -0.005597 0.005679
 12   5.939809 -0.003975 0.000000 0.000064 0.080632 0.005697
 13   4.991439 -0.003975 0.000000 -0.000014 -0.013315 0.005685
 14   4.991436 -0.001575 0.000000 0.000000 0.000000 0.000000
 15   0.000005 0.001564 3.638375 -0.402293 -1.260119 3.525748
 16   8.842831 0.000000 -0.000002 0.248179 1.077926 0.045985
 17   9.341934 0.000000 -0.000001 0.000000 0.000000 -0.691199
 18   11.168404 -0.000001 0.000002 -1.568718 -0.023638 -0.000011
 19   0.000005 0.001585 -3.638375 0.439280 1.268146 3.562437
 20   8.842831 0.000000 0.000001 -0.052245 -0.673473 -0.089118
 21   9.341937 0.000000 -0.000001 0.000000 0.000000 0.022437
 22   11.168404 -0.000001 0.000001 1.568687 0.023654 -0.000040
 23   1.977383 0.000000 0.000000 -0.717447 0.132255 -0.084600
 24   3.723980 2.768054 -0.049087 0.000001 -3.141591 -1.570794
 25   12.421014 0.304721 4.492689 -0.091859 -0.075839 1.616818
 26   19.916998 1.704573 4.956909 2.262592 1.451744 0.734330
time 31
  0   0.337637 -36.841850 31.002100 -0.000653 0.000000 -1.570844
  1   -0.791674 3.027437 9.745319 -0.000032 -1.537617 -1.570770
  2   -0.000008 0.000010 5.615750 -0.006326 3.028704 -0.018092
  3   15.693467 0.000000 0.000000 0.000000 0.000000 -0.112501
  4   22.146629 -0.000001 0.000000 0.004338 0.080489 0.094878
  5   3.310129 5.734393 0.000000 0.000000 0.000000 1.570796
  6   0.000008 -0.000006 -5.615750 -0.046212 3.069782 -0.556495
  7   15.693467 0.000000 0.000000 0.000000 0.000000 -0.947301
  8   22.146629 0.000000 0.000000 -0.017092 0.049703 0.035527
  9   3.310129 5.734393 0.000000 0.000000 0.000000 1.570796
 10   1.384163 -0.004728 0.042972 -0.000442 0.261152 0.023465
 11   5.939814 -0.004730 0.000000 0.000000 -0.005417 0.005698
 12   5.939809 -0.003975 0.000000 0.000064 0.080932 0.005709
 13   4.991439 -0.003975 0.000000 -0.000014 -0.013614 0.005702
 14   4.991436 -0.001575 0.000000 0.000000 0.000000 0.000000
 15   0.000005 0.001564 3.638375 -0.402293 -1.260119 3.525748
 16   8.842831 0.000000 -0.000002 0.214802 1.080530 0.009555
 17   9.341934 0.000000 -0.000001 0.000000 0.000000 -0.696201
 18   11.168404 -0.000001 0.000002 -1.568718 -0.023733 -0.000011
 19   0.000005 0.001585 -3.638375 0.439472 1.268198 3.562628
 20   8.842831 0.000000 0.000001 -0.052084 -0.667188 -0.089309
 21   9.341937 0.000000 -0.000001 0.000000 0.000000 0.024635
 22   11.168404 -0.000001 0.000001 1.568687 0.023780 -0.000040
 23   1.977383 0.000000 0.000000 -0.717183 0.125974 -0.085743
 24   3.723980 2.768054 -0.049087 0.000001 -3.141591 -1.570794
 25   12.421014 0.304721 4.492689 -0.091859 -0.075839 1.616818
 26   19.916998 1.704573 4.956909 2.262592 1.451744 0.734330
time 32
  0   0.337637 -38.042801 31.002100 -0.000653 0.000000 -1.570844
  1   -0.791674 3.074314 9.745319 -0.000032 -1.537133 -1.570770
  2   -0.000008 0.000010 5.615750 0.002110 3.027075 0.079681
  3   15.693467 0.000000 0.000000 0.000000 0.000000 -0.001883
  4   22.146629 -0.000001 0.000000 0.006918 0.081331 0.081660
  5   3.310129 5.734393 0.000000 0.000000 0.000000 1.570796
  6   0.000008 -0.000006 -5.615750 -0.042856 3.071028 -0.567225
  7   15.693467 0.000000 0.000000 0.000000 0.000000 -0.890435
  8   22.146629 0.000000 0.000000 -0.013143 0.047370 0.089255
  9   3.310129 5.734393 0.000000 0.000000 0.000000 1.570796
 10   1.384163 -0.004728 0.042972 -0.000442 0.265257 0.023497
 11   5.939814 -0.004730 0.000000 0.000000 -0.005297 0.005718
 12   5.939809 -0.003975 0.000000 0.000064 0.081148 0.005722
 13   4.991439 -0.003975 0.000000 -0.000014 -0.013830 0.005718
 14   4.991436 -0.001575 0.000000 0.000000 0.000000 0.000000
 15   0.000005 0.001564 3.638375 -0.402293 -1.260119 3.525748
 16   8.842831 0.000000 -0.000002 0.181973 1.082577 -0.025904
 17   9.341934 0.000000 -0.000001 0.000000 0.000000 -0.700302
 18   11.168404 -0.000001 0.000002 -1.568718 -0.023829 -0.000011
 19   0.000005 0.001585 -3.638375 0.439568 1.268249 3.562724
 20   8.842831 0.000000 0.000001 -0.051923 -0.661965 -0.089499
 21   9.341937 0.000000 -0.000001 0.000000 0.000000 0.026234
 22   11.168404 -0.000001 0.000001 1.568687 0.023907 -0.000040
 23   1.977383 0.000000 0.000000 -0.716918 0.120686 -0.086489
 24   3.723980 2.768054 -0.049087 0.000001 -3.141591 -1.570794
 25   12.421014 0.304721 4.492689 -0.091859 -0.075839 1.616818
 26   19.916998 1.704573 4.956909 2.262592 1.451744 0.734330
time 33
  0   0.337637 -39.243752 30.943291 -0.000559 0.000000 -1.570844
  1   -0.791674 3.109471 9.745319 -0.000032 -1.537617 -1.570770
  2   -0.000008 0.000010 5.615750 -0.017639 3.027075 -0.069129
  3   15.693467 0.000000 0.000000 0.000000 0.000000 -0.304999
  4   22.146629 -0.000001 0.000000 0.005796 0.083337 0.188957
  5   3.310129 5.734393 0.000000 0.000000 0.000000 1.570796
  6   0.000008 -0.000006 -5.615750 -0.039788 3.072945 -0.575711
  7   15.693467 0.000000 0.000000 0.000000 0.000000 -0.830740
  8   22.146629 0.000000 0.000000 -0.010210 0.045344 0.120434
  9   3.310129 5.734393 0.000000 0.000000 0.000000 1.570796
 10   1.384163 -0.004728 0.042972 -0.000408 0.269470 0.023529
 11   5.939814 -0.004730 0.000000 0.000000 -0.005225 0.005718
 12   5.939809 -0.003975 0.000000 0.000064 0.081256 0.005722
 13   4.991439 -0.003975 0.000000 -0.000014 -0.013938 0.005718
 14   4.991436 -0.001575 0.000000 0.000000 0.000000 0.000000
 15   0.000005 0.001564 3.638375 -0.402293 -1.260119 3.525748
 16   8.842831 0.000000 -0.000002 0.150608 1.084158 -0.059646
 17   9.341934 0.000000 -0.000001 0.000000 0.000000 -0.703172
 18   11.168404 -0.000001 0.000002 -1.568718 -0.023925 -0.000011
 19   0.000005 0.001585 -3.638375 0.439664 1.268249 3.562820
 20   8.842831 0.000000 0.000001 -0.051761 -0.657804 -0.089595
 21   9.341937 0.000000 -0.000001 0.000000 0.000000 0.026967
 22   11.168404 -0.000001 0.000001 1.568687 0.023949 -0.000040
 23   1.977383 0.000000 0.000000 -0.720513 0.119046 -0.087980
 24   3.723980 2.768054 -0.049087 0.000001 -3.141591 -1.570794
 25   12.421014 0.304721 4.492689 -0.091859 -0.075839 1.616818
 26   19.916998 1.704573 4.956909 2.262592 1.451744 0.734330
time 34
  0   0.337637 -40.444702 30.845274 -0.000559 0.000000 -1.570844
  1   -0.791674 3.132909 9.745319 -0.000032 -1.539019 -1.570770
  2   -0.000008 0.000010 5.615750 -0.026075 3.028417 -0.115961
  3   15.693467 0.000000 0.000000 0.000000 0.000000 -0.435037
  4   22.146629 -0.000001 0.000000 0.004898 0.085096 0.225821
  5   3.310129 5.734393 0.000000 0.000000 0.000000 1.570796
  6   0.000008 -0.000006 -5.615750 -0.036720 3.075438 -0.579779
  7   15.693467 0.000000 0.000000 0.000000 0.000000 -0.762411
  8   22.146629 0.000000 0.000000 -0.007051 0.043686 0.147562
  9   3.310129 5.734393 0.000000 0.000000 0.000000 1.570796
 10   1.384163 -0.004728 0.042972 -0.000374 0.273576 0.023529
 11   5.939814 -0.004730 0.000000 0.000000 -0.005249 0.005718
 12   5.939809 -0.003975 0.000000 0.000064 0.081232 0.005722
 13   4.991439 -0.003975 0.000000 -0.000014 -0.013914 0.005718
 14   4.991436 -0.001575 0.000000 0.000000 0.000000 0.000000
 15   0.000005 0.001564 3.638375 -0.402293 -1.260119 3.525748
 16   8.842831 0.000000 -0.000002 0.121529 1.085274 -0.090775
 17   9.341934 0.000000 -0.000001 0.000000 0.000000 -0.704648
 18   11.168404 -0.000001 0.000002 -1.568718 -0.023925 -0.000011
 19   0.000005 0.001585 -3.638375 0.439664 1.268249 3.562820
 20   8.842831 0.000000 0.000001 -0.051600 -0.655236 -0.089785
 21   9.341937 0.000000 -0.000001 0.000000 0.000000 0.026833
 22   11.168404 -0.000001 0.000001 1.568687 0.023907 -0.000040
 23   1.977383 0.000000 0.000000 -0.729553 0.122140 -0.090863
 24   3.723980 2.768054 -0.049087 0.000001 -3.141591 -1.570794
 25   12.421014 0.304721 4.492689 -0.091859 -0.075839 1.616818
 26   19.916998 1.704573 4.956909 2.262592 1.451744 0.734330
time 35
  0   0.337637 -41.652699 30.727654 -0.000466 0.000000 -1.570844
  1   -0.791674 3.148535 9.745319 -0.000032 -1.541219 -1.570770
  2   -0.000008 0.000010 5.615750 -0.032210 3.030908 -0.144060
  3   15.693467 0.000000 0.000000 0.000000 0.000000 -0.533349
  4   22.146629 -0.000001 0.000000 0.003964 0.086557 0.249878
  5   3.310129 5.734393 0.000000 0.000000 0.000000 1.570796
  6   0.000008 -0.000006 -5.615750 -0.033460 3.077547 -0.577114
  7   15.693467 0.000000 0.000000 0.000000 0.000000 -0.684852
  8   22.146629 0.000000 0.000000 -0.004287 0.042827 0.168348
  9   3.310129 5.734393 0.000000 0.000000 0.000000 1.570796
 10   1.384163 -0.004728 0.039066 -0.000341 0.277279 0.023497
 11   5.939814 -0.004730 0.000000 0.000000 -0.005345 0.005698
 12   5.939809 -0.003975 0.000000 0.000064 0.081052 0.005709
 13   4.991439 -0.003975 0.000000 -0.000014 -0.013734 0.005702
 14   4.991436 -0.001575 0.000000 0.000000 0.000000 0.000000
 15   0.000005 0.001564 3.638375 -0.402293 -1.260119 3.525748
 16   8.842831 0.000000 -0.000002 0.095742 1.086019 -0.118321
 17   9.341934 0.000000 -0.000001 0.000000 0.000000 -0.704484
 18   11.168404 -0.000001 0.000002 -1.568718 -0.023829 -0.000011
 19   0.000005 0.001585 -3.638375 0.439568 1.268249 3.562724
 20   8.842831 0.000000 0.000001 -0.051520 -0.654263 -0.089880
 21   9.341937 0.000000 -0.000001 0.000000 0.000000 0.025568
 22   11.168404 -0.000001 0.000001 1.568687 0.023865 -0.000040
 23   1.977383 0.000000 0.000000 -0.740865 0.128006 -0.094342
 24   3.723980 2.768054 -0.049087 0.000001 -3.141591 -1.570794
 25   12.421014 0.304721 4.492689 -0.091859 -0.075839 1.616818
 26   19.916998 1.704573 4.956909 2.262592 1.451744 0.734330
time 36
  0   0.345173 -42.860695 30.590429 -0.000466 0.000000 -1.570844
  1   -0.791674 3.144628 9.745319 -0.000032 -1.544121 -1.570770
  2   -0.000008 0.000010 5.615750 -0.036812 3.034454 -0.162315
  3   15.693467 0.000000 0.000000 0.000000 0.000000 -0.615157
  4   22.146629 -0.000001 0.000000 0.002730 0.087622 0.265886
  5   3.310129 5.734393 0.000000 0.000000 0.000000 1.570796
  6   0.000008 -0.000006 -5.615750 -0.029721 3.078698 -0.565191
  7   15.693467 0.000000 0.000000 0.000000 0.000000 -0.597543
  8   22.146629 0.000000 0.000000 -0.002144 0.043318 0.180591
  9   3.310129 5.734393 0.000000 0.000000 0.000000 1.570796
 10   1.384163 -0.004728 0.035159 -0.000273 0.280285 0.023465
 11   5.939814 -0.004730 0.000000 0.000000 -0.005549 0.005698
 12   5.939809 -0.003975 0.000000 0.000064 0.080716 0.005697
 13   4.991439 -0.003975 0.000000 -0.000014 -0.013399 0.005685
 14   4.991436 -0.001575 0.000000 0.000000 0.000000 0.000000
 15   0.000005 0.001564 3.638375 -0.402293 -1.260119 3.525748
 16   8.842831 0.000000 -0.000002 0.073795 1.086577 -0.141537
 17   9.341934 0.000000 -0.000001 0.000000 0.000000 -0.702434
 18   11.168404 -0.000001 0.000002 -1.568718 -0.023638 -0.000011
 19   0.000005 0.001585 -3.638375 0.439280 1.268198 3.562437
 20   8.842831 0.000000 0.000001 -0.051358 -0.655414 -0.089976
 21   9.341937 0.000000 -0.000001 0.000000 0.000000 0.023036
 22   11.168404 -0.000001 0.000001 1.568687 0.023696 -0.000040
 23   1.977383 0.000000 0.000000 -0.751226 0.134772 -0.097424
 24   3.723980 2.768054 -0.049087 0.000001 -3.141591 -1.570794
 25   12.421014 0.304721 4.492689 -0.091859 -0.075839 1.616818
 26   19.916998 1.704573 4.956909 2.262592 1.451744 0.734330
time 37
  0   0.345173 -44.068691 30.433601 -0.000373 0.000000 -1.570844
  1   -0.787768 3.129003 9.745319 -0.000032 -1.547651 -1.570770
  2   -0.000008 0.000010 5.615750 -0.040263 3.038766 -0.174357
  3   15.693467 0.000000 0.000000 0.000000 0.000000 -0.686152
  4   22.146629 -0.000001 0.000000 0.001010 0.088216 0.274576
  5   3.310129 5.734393 0.000000 0.000000 0.000000 1.570796
  6   0.000008 -0.000006 -5.615750 -0.025406 3.078123 -0.541486
  7   15.693467 0.000000 0.000000 0.000000 0.000000 -0.500037
  8   22.146629 0.000000 0.000000 -0.000790 0.045774 0.182088
  9   3.310129 5.734393 0.000000 0.000000 0.000000 1.570796
 10   1.384163 -0.004728 0.031253 -0.000206 0.282270 0.023367
 11   5.939814 -0.004730 0.000000 0.000000 -0.005872 0.005660
 12   5.939809 -0.003975 0.000000 0.000064 0.080177 0.005672
 13   4.991439 -0.003975 0.000000 0.000000 -0.012859 0.005668
 14   4.991436 -0.001575 0.000000 0.000000 0.000000 0.000000
 15   0.000005 0.001564 3.638375 -0.402293 -1.260119 3.525748
 16   8.842831 0.000000 -0.000002 0.056787 1.087135 -0.159453
 17   9.341934 0.000000 -0.000001 0.000000 0.000000 -0.698251
 18   11.168404 -0.000001 0.000002 -1.568718 -0.023446 -0.000011
 19   0.000005 0.001585 -3.638375 0.438993 1.268095 3.562149
 20   8.842831 0.000000 0.000001 -0.051278 -0.658689 -0.089976
 21   9.341937 0.000000 -0.000001 0.000000 0.000000 0.019172
 22   11.168404 -0.000001 0.000001 1.568687 0.023443 -0.000040
 23   1.977383 0.000000 0.000000 -0.757358 0.140523 -0.099064
 24   3.723980 2.768054 -0.049087 0.000001 -3.141591 -1.570794
 25   12.421014 0.304721 4.492689 -0.091859 -0.075839 1.616818
 26   19.916998 1.704573 4.956909 2.262592 1.451744 0.734330
time 38
  0   0.345173 -45.283730 30.315981 -0.000280 0.000000 -1.570844
  1   -0.787768 3.093845 9.745319 -0.000032 -1.551689 -1.570770
  2   -0.000008 0.000010 5.615750 -0.042468 3.044037 -0.182386
  3   15.693467 0.000000 0.000000 0.000000 0.000000 -0.749393
  4   22.146629 -0.000001 0.000000 -0.001384 0.088241 0.275491
  5   3.310129 5.734393 0.000000 0.000000 0.000000 1.570796
  6   0.000008 -0.000006 -5.615750 -0.019750 3.070644 -0.483487
  7   15.693467 0.000000 0.000000 0.000000 0.000000 -0.360104
  8   22.146629 0.000000 0.000000 -0.000790 0.055199 0.145888
  9   3.310129 5.734393 0.000000 0.000000 0.000000 1.570796
 10   1.384163 -0.004728 0.023440 -0.000139 0.282941 0.023238
 11   5.939814 -0.004730 0.000000 0.000000 -0.006316 0.005622
 12   5.939809 -0.003975 0.000000 0.000064 0.079434 0.005634
 13   4.991439 -0.003975 0.000000 0.000000 -0.012116 0.005634
 14   4.991436 -0.001575 0.000000 0.000000 0.000000 0.000000
 15   0.000005 0.001564 3.638375 -0.402293 -1.260119 3.525748
 16   8.842831 0.000000 -0.000002 0.045265 1.087786 -0.171248
 17   9.341934 0.000000 -0.000001 0.000000 0.000000 -0.691609
 18   11.168404 -0.000001 0.000002 -1.568718 -0.023064 -0.000011
 19   0.000005 0.001585 -3.638375 0.438513 1.267992 3.561670
 20   8.842831 0.000000 0.000001 -0.051197 -0.664620 -0.089976
 21   9.341937 0.000000 -0.000001 0.000000 0.000000 0.013710
 22   11.168404 -0.000001 0.000001 1.568687 0.023064 -0.000040
 23   1.977383 0.000000 0.000000 -0.756037 0.143386 -0.098170
 24   3.723980 2.768054 -0.049087 0.000001 -3.141591 -1.570794
 25   12.421014 0.304721 4.492689 -0.091859 -0.075839 1.616818
 26   19.916998 1.704573 4.956909 2.262592 1.451744 0.734330
time 39
  0   0.345173 -46.491726 30.198360 -0.000186 0.000000 -1.570844
  1   -0.787768 3.039156 9.745319 -0.000032 -1.556113 -1.570770
  2   -0.000008 0.000010 5.615750 -0.043715 3.049882 -0.187834
  3   15.693467 0.000000 0.000000 0.000000 0.000000 -0.806374
  4   22.146629 -0.000001 0.000000 -0.004637 0.087547 0.267487
  5   3.310129 5.734393 0.000000 0.000000 0.000000 1.570796
  6   0.000008 -0.000006 -5.615750 -0.012846 3.059140 -0.397363
  7   15.693467 0.000000 0.000000 0.000000 0.000000 -0.192780
  8   22.146629 0.000000 0.000000 -0.000282 0.069413 0.083970
  9   3.310129 5.734393 0.000000 0.000000 0.000000 1.570796
 10   1.384163 -0.004728 0.019534 -0.000071 0.282029 0.023076
 11   5.939814 -0.004730 0.000000 0.000000 -0.006891 0.005584
 12   5.939809 -0.003975 0.000000 0.000064 0.078451 0.005584
 13   4.991439 -0.003975 0.000000 0.000000 -0.011146 0.005584
 14   4.991436 -0.001575 0.000000 0.000000 0.000000 0.000000
 15   0.000005 0.001564 3.638375 -0.402293 -1.260119 3.525748
 16   8.842831 0.000000 -0.000002 0.040052 1.088623 -0.176249
 17   9.341934 0.000000 -0.000001 0.000000 0.000000 -0.682425
 18   11.168404 -0.000001 0.000002 -1.568718 -0.022585 -0.000011
 19   0.000005 0.001585 -3.638375 0.437842 1.267889 3.560998
 20   8.842831 0.000000 0.000001 -0.051116 -0.673296 -0.089976
 21   9.341937 0.000000 -0.000001 0.000000 0.000000 0.006582
 22   11.168404 -0.000001 0.000001 1.568687 0.022600 -0.000040
 23   1.977383 0.000000 0.000000 -0.743984 0.141493 -0.093796
 24   3.723980 2.768054 -0.049087 0.000001 -3.141591 -1.570794
 25   12.421014 0.304721 4.492689 -0.091859 -0.075839 1.616818
 26   19.916998 1.704573 4.956909 2.262592 1.451744 0.734330
time 40
  0   0.345172 -47.699722 30.119947 0.000000 0.000000 -1.570844
  1   -0.783861 2.961029 9.745319 -0.000032 -1.560828 -1.570770
  2   -0.000008 0.000010 5.615750 -0.044290 3.056495 -0.195862
  3   15.693467 0.000000 0.000000 0.000000 0.000000 -0.862643
  4   22.146629 -0.000001 0.000000 -0.008787 0.086012 0.249513
  5   3.310129 5.734393 0.000000 0.000000 0.000000 1.570796
  6   0.000008 -0.000006 -5.615750 -0.006614 3.054154 -0.326740
  7   15.693467 0.000000 0.000000 0.000000 0.000000 -0.069669
  8   22.146629 0.000000 0.000000 0.001918 0.078040 0.050853
  9   3.310129 5.734393 0.000000 0.000000 0.000000 1.570796
 10   1.384163 -0.004728 0.011721 -0.000004 0.279185 0.022849
 11   5.939814 -0.004730 0.000000 0.000000 -0.007622 0.005507
 12   5.939809 -0.003975 0.000000 0.000051 0.077217 0.005522
 13   4.991439 -0.003975 0.000000 0.000000 -0.009923 0.005517
 14   4.991436 -0.001575 0.000000 0.000000 0.000000 0.000000
 15   0.000005 0.001564 3.638375 -0.402293 -1.260119 3.525748
 16   8.842831 0.000000 -0.000002 0.042064 1.089833 -0.173412
 17   9.341934 0.000000 -0.000001 0.000000 0.000000 -0.670370
 18   11.168404 -0.000001 0.000002 -1.568718 -0.022011 -0.000011
 19   0.000005 0.001585 -3.638375 0.437075 1.267683 3.560231
 20   8.842831 0.000000 0.000001 -0.051116 -0.684982 -0.089880
 21   9.341937 0.000000 -0.000001 0.000000 0.000000 -0.002412
 22   11.168404 -0.000001 0.000001 1.568687 0.022052 -0.000040
 23   1.977383 0.000000 0.000000 -0.717024 0.138490 -0.078586
 24   3.723980 2.768054 -0.049087 0.000001 -3.141591 -1.570794
 25   12.421014 0.304721 4.492689 -0.091859 -0.075839 1.616818
 26   19.916998 1.704573 4.956909 2.262592 1.451744 0.734330
end
