version 1
nodes
  0 "Bip01" -1
  1 "Bip01 Pelvis" 0
  2 "Bip01 L Thigh" 1
  3 "Bip01 L Calf" 2
  4 "Bip01 L Foot" 3
  5 "Bip01 L Toe0" 4
  6 "Bip01 R Thigh" 1
  7 "Bip01 R Calf" 6
  8 "Bip01 R Foot" 7
  9 "Bip01 R Toe0" 8
 10 "Bip01 Spine" 1
 11 "Bip01 Spine1" 10
 12 "Bip01 Spine2" 11
 13 "Bip01 Spine3" 12
 14 "Bip01 Neck" 13
 15 "Bip01 L Clavicle" 14
 16 "Bip01 L UpperArm" 15
 17 "Bip01 L Forearm" 16
 18 "Bip01 L Hand" 17
 19 "Bip01 R Clavicle" 14
 20 "Bip01 R UpperArm" 19
 21 "Bip01 R Forearm" 20
 22 "Bip01 R Hand" 21
 23 "Bip01 Head" 14
 24 "Bone05" 23
 25 "m4" 22
 26 "SHOTGUN" 22
end
skeleton
time 0
  0   0.654150 15.666116 15.966297 0.000000 0.313934 -1.570844
  1   2.255294 0.097660 9.745319 -1.570795 -1.570451 0.000000
  2   -0.000008 0.000010 5.615750 0.130860 3.426204 -1.522826
  3   15.693467 0.000000 0.000000 0.000000 0.000000 -1.924153
  4   22.146629 -0.000001 0.000000 0.221327 -0.222447 0.709256
  5   3.310129 5.734393 0.000000 0.000000 0.000000 1.570796
  6   0.000008 -0.000006 -5.615750 2.972272 0.200951 1.313949
  7   15.693467 0.000000 0.000000 0.000000 0.000000 -1.814289
  8   22.146629 0.000000 0.000000 -0.177971 0.193226 0.370221
  9   3.310129 5.734393 0.000000 0.000000 0.000000 1.570796
 10   1.384163 -0.004728 0.000002 -0.174360 -0.080504 -0.428255
 11   5.939814 -0.004730 0.000000 -0.323475 0.073478 0.214780
 12   5.939809 -0.003975 0.000000 -0.294990 0.030764 0.100092
 13   4.991439 -0.003975 0.000000 0.000000 0.000000 0.104664
 14   4.991436 -0.001575 0.000000 0.000000 0.000000 0.000000
 15   0.000005 0.001564 3.638375 1.724456 -1.217601 1.406411
 16   8.842831 0.000000 -0.000002 0.003475 -1.373078 -2.331476
 17   9.341934 0.000000 -0.000001 0.000000 0.000000 -0.385819
 18   11.168404 -0.000001 0.000002 -1.432052 0.278115 0.798919
 19   0.000005 0.001585 -3.638375 -0.460200 1.252306 2.700825
 20   8.842831 0.000000 0.000001 0.440215 -0.993586 0.329117
 21   9.341937 0.000000 -0.000001 0.000000 0.000000 -0.566331
 22   11.168404 -0.000001 0.000001 1.568687 -0.261771 -0.000040
 23   1.977383 0.000000 0.000000 -0.577151 0.220195 -0.075156
 24   3.723980 2.768054 -0.049087 0.000001 -3.141591 -1.570794
 25   12.421014 0.304721 4.492689 -0.091859 -0.075839 1.616818
 26   19.916998 1.704573 4.956909 2.262592 1.451744 0.734330
time 1
  0   0.330103 16.870642 15.554626 0.000000 0.313934 -1.570844
  1   1.899814 0.203132 9.745319 -1.570795 -1.570451 0.000000
  2   -0.000008 0.000010 5.615750 -2.984926 5.989448 1.522674
  3   15.693467 0.000000 0.000000 0.000000 0.000000 -1.951612
  4   22.146629 -0.000001 0.000000 0.243463 -0.227574 0.641977
  5   3.310129 5.734393 0.000000 0.000000 0.000000 1.570796
  6   0.000008 -0.000006 -5.615750 2.988859 0.197596 1.250899
  7   15.693467 0.000000 0.000000 0.000000 0.000000 -1.813247
  8   22.146629 0.000000 0.000000 -0.187448 0.164921 0.306013
  9   3.310129 5.734393 0.000000 0.000000 0.000000 1.570796
 10   1.384163 -0.004728 0.000002 -0.158439 -0.073232 -0.429485
 11   5.939814 -0.004730 0.000000 -0.254074 0.070625 0.264555
 12   5.939809 -0.003975 0.000000 -0.280610 0.036925 0.126627
 13   4.991439 -0.003975 0.000000 0.000000 0.000000 0.104664
 14   4.991436 -0.001575 0.000000 0.000000 0.000000 0.000000
 15   0.000005 0.001564 3.638375 1.814673 -1.210817 1.310152
 16   8.842831 0.000000 -0.000002 -1.444722 -0.935771 -0.914764
 17   9.341934 0.000000 -0.000001 0.000000 0.000000 -0.684393
 18   11.168404 -0.000001 0.000002 -1.473882 0.328934 0.427929
 19   0.000005 0.001585 -3.638375 -0.460200 1.252306 2.700825
 20   8.842831 0.000000 0.000001 0.391678 -1.046614 0.346559
 21   9.341937 0.000000 -0.000001 0.000000 0.000000 -0.566331
 22   11.168404 -0.000001 0.000001 1.568687 -0.261771 -0.000040
 23   1.977383 0.000000 0.000000 -0.572552 0.266728 -0.202798
 24   3.723980 2.768054 -0.049087 0.000001 -3.141591 -1.570794
 25   12.421014 0.304721 4.492689 -0.091859 -0.075839 1.616818
 26   19.916998 1.704573 4.956909 2.262592 1.451744 0.734330
time 2
  0   0.013593 17.525736 15.123351 0.000000 0.313934 -1.570844
  1   1.052132 0.222664 9.745319 -1.570795 -1.570451 0.000000
  2   -0.000008 0.000010 5.615750 -2.954249 6.008901 1.439332
  3   15.693467 0.000000 0.000000 0.000000 0.000000 -1.961500
  4   22.146629 -0.000001 0.000000 0.236359 -0.233518 0.571360
  5   3.310129 5.734393 0.000000 0.000000 0.000000 1.570796
  6   0.000008 -0.000006 -5.615750 3.004774 0.180722 1.203840
  7   15.693467 0.000000 0.000000 0.000000 0.000000 -1.794118
  8   22.146629 0.000000 0.000000 -0.178366 0.139778 0.240131
  9   3.310129 5.734393 0.000000 0.000000 0.000000 1.570796
 10   1.384163 -0.004728 0.000002 -0.122558 -0.056783 -0.431817
 11   5.939814 -0.004730 0.000000 -0.102539 0.040843 0.376994
 12   5.939809 -0.003975 0.000000 -0.247792 0.048130 0.187129
 13   4.991439 -0.003975 0.000000 0.000000 0.000000 0.104664
 14   4.991436 -0.001575 0.000000 0.000000 0.000000 0.000000
 15   0.000005 0.001564 3.638375 1.873730 -1.204505 1.246969
 16   8.842831 0.000000 -0.000002 -1.532783 -0.147948 -0.870795
 17   9.341934 0.000000 -0.000001 0.000000 0.000000 -0.984935
 18   11.168404 -0.000001 0.000002 -1.568718 0.348936 -0.000011
 19   0.000005 0.001585 -3.638375 -0.460200 1.252306 2.700825
 20   8.842831 0.000000 0.000001 0.478028 -1.010406 0.123145
 21   9.341937 0.000000 -0.000001 0.000000 0.000000 -0.566331
 22   11.168404 -0.000001 0.000001 1.568687 -0.261771 -0.000040
 23   1.977383 0.000000 0.000000 -0.596815 0.245920 -0.384369
 24   3.723980 2.768054 -0.049087 0.000001 -3.141591 -1.570794
 25   12.421014 0.304721 4.492689 -0.091859 -0.075839 1.616818
 26   19.916998 1.704573 4.956909 2.262592 1.451744 0.734330
time 3
  0   -0.257701 17.680704 14.770491 0.000000 0.313934 -1.570844
  1   0.020851 -0.164067 9.745319 -1.570795 -1.570451 0.000000
  2   -0.000008 0.000010 5.615750 -2.925488 6.028162 1.378929
  3   15.693467 0.000000 0.000000 0.000000 0.000000 -1.946561
  4   22.146629 -0.000001 0.000000 0.227085 -0.245306 0.497679
  5   3.310129 5.734393 0.000000 0.000000 0.000000 1.570796
  6   0.000008 -0.000006 -5.615750 3.027785 0.160397 1.178522
  7   15.693467 0.000000 0.000000 0.000000 0.000000 -1.757051
  8   22.146629 0.000000 0.000000 -0.161274 0.112362 0.177860
  9   3.310129 5.734393 0.000000 0.000000 0.000000 1.570796
 10   1.384163 -0.004728 0.000002 -0.077387 -0.035932 -0.433922
 11   5.939814 -0.004730 0.000000 0.072367 -0.040700 0.510638
 12   5.939809 -0.003975 0.000000 -0.206068 0.056843 0.264610
 13   4.991439 -0.003975 0.000000 0.000000 0.000000 0.104664
 14   4.991436 -0.001575 0.000000 0.000000 0.000000 0.000000
 15   0.000005 0.001564 3.638375 1.902492 -1.191553 1.214947
 16   8.842831 0.000000 -0.000002 -1.396623 0.268056 -0.889831
 17   9.341934 0.000000 -0.000001 0.000000 0.000000 -1.032333
 18   11.168404 -0.000001 0.000002 -1.516859 0.335250 -0.075339
 19   0.000005 0.001585 -3.638375 -0.460200 1.252306 2.700825
 20   8.842831 0.000000 0.000001 0.570989 -0.921171 -0.147545
 21   9.341937 0.000000 -0.000001 0.000000 0.000000 -0.566331
 22   11.168404 -0.000001 0.000001 1.568687 -0.261771 -0.000040
 23   1.977383 0.000000 0.000000 -0.628797 0.202713 -0.588656
 24   3.723980 2.768054 -0.049087 0.000001 -3.141591 -1.570794
 25   12.421014 0.304721 4.492689 -0.091859 -0.075839 1.616818
 26   19.916998 1.704573 4.956909 2.262592 1.451744 0.734330
time 4
  0   -0.431028 17.384855 14.672473 0.000000 0.313934 -1.570844
  1   -0.795580 -0.957059 9.745319 -1.570795 -1.570451 0.000000
  2   -0.000008 0.000010 5.615750 -2.900946 6.037554 1.355035
  3   15.693467 0.000000 0.000000 0.000000 0.000000 -1.901460
  4   22.146629 -0.000001 0.000000 0.220953 -0.263361 0.429440
  5   3.310129 5.734393 0.000000 0.000000 0.000000 1.570796
  6   0.000008 -0.000006 -5.615750 3.058849 0.138633 1.182660
  7   15.693467 0.000000 0.000000 0.000000 0.000000 -1.702417
  8   22.146629 0.000000 0.000000 -0.138936 0.082061 0.127304
  9   3.310129 5.734393 0.000000 0.000000 0.000000 1.570796
 10   1.384163 -0.004728 0.000002 -0.031610 -0.014706 -0.435055
 11   5.939814 -0.004730 0.000000 0.224914 -0.166670 0.626557
 12   5.939809 -0.003975 0.000000 -0.164076 0.059492 0.343989
 13   4.991439 -0.003975 0.000000 0.000000 0.000000 0.104664
 14   4.991436 -0.001575 0.000000 0.000000 0.000000 0.000000
 15   0.000005 0.001564 3.638375 1.911696 -1.180924 1.203730
 16   8.842831 0.000000 -0.000002 -1.104094 0.536245 -0.700966
 17   9.341934 0.000000 -0.000001 0.000000 0.000000 -0.995349
 18   11.168404 -0.000001 0.000002 -1.444563 0.318407 -0.043645
 19   0.000005 0.001585 -3.638375 -0.460200 1.252306 2.700825
 20   8.842831 0.000000 0.000001 0.619929 -0.778909 -0.393358
 21   9.341937 0.000000 -0.000001 0.000000 0.000000 -0.566331
 22   11.168404 -0.000001 0.000001 1.568687 -0.261771 -0.000040
 23   1.977383 0.000000 0.000000 -0.645660 0.150199 -0.770525
 24   3.723980 2.768054 -0.049087 0.000001 -3.141591 -1.570794
 25   12.421014 0.304721 4.492689 -0.091859 -0.075839 1.616818
 26   19.916998 1.704573 4.956909 2.262592 1.451744 0.734330
time 5
  0   -0.521460 16.680454 16.005505 0.000000 0.313934 -1.570844
  1   -0.779955 -0.941434 9.745319 -1.570795 -1.570451 0.000000
  2   -0.000008 0.000010 5.615750 -2.914751 6.013213 1.442677
  3   15.693467 0.000000 0.000000 0.000000 0.000000 -1.852660
  4   22.146629 -0.000001 0.000000 0.223757 -0.272400 0.467996
  5   3.310129 5.734393 0.000000 0.000000 0.000000 1.570796
  6   0.000008 -0.000006 -5.615750 3.073038 0.140743 1.245990
  7   15.693467 0.000000 0.000000 0.000000 0.000000 -1.690657
  8   22.146629 0.000000 0.000000 -0.136454 0.076627 0.178477
  9   3.310129 5.734393 0.000000 0.000000 0.000000 1.570796
 10   1.384163 -0.004728 0.000002 -0.031745 -0.014438 -0.427056
 11   5.939814 -0.004730 0.000000 0.227400 -0.163242 0.611470
 12   5.939809 -0.003975 0.000000 -0.164114 0.059384 0.343352
 13   4.991439 -0.003975 0.000000 0.000000 0.000000 0.091848
 14   4.991436 -0.001575 0.000000 0.000000 0.000000 0.000000
 15   0.000005 0.001564 3.638375 1.873730 -1.204505 1.246969
 16   8.842831 0.000000 -0.000002 -0.841284 0.745457 -0.410800
 17   9.341934 0.000000 -0.000001 0.000000 0.000000 -0.935323
 18   11.168404 -0.000001 0.000002 -1.568718 0.348936 -0.000011
 19   0.000005 0.001585 -3.638375 -0.460200 1.252306 2.700825
 20   8.842831 0.000000 0.000001 0.564620 -0.670817 -0.491531
 21   9.341937 0.000000 -0.000001 0.000000 0.000000 -0.591912
 22   11.168404 -0.000001 0.000001 1.568687 -0.261771 -0.000040
 23   1.977383 0.000000 0.000000 -0.505734 0.110317 -0.743436
 24   3.723980 2.768054 -0.049087 0.000001 -3.141591 -1.570794
 25   12.421014 0.304721 4.492689 -0.091859 -0.075839 1.616818
 26   19.916998 1.704573 4.956909 2.262592 1.451744 0.734330
time 6
  0   -0.574212 15.659072 18.691170 -0.011002 0.258410 -1.655982
  1   -0.924491 -0.625018 9.745319 -1.570795 -1.570451 0.000000
  2   -0.000008 0.000010 5.615750 0.153868 3.460320 -1.493485
  3   15.693467 0.000000 0.000000 0.000000 0.000000 -1.603538
  4   22.146629 -0.000001 0.000000 0.252923 -0.244316 0.360515
  5   3.310129 5.734393 0.000000 0.000000 0.000000 1.570796
  6   0.000008 -0.000006 -5.615750 3.087612 0.192514 1.544616
  7   15.693467 0.000000 0.000000 0.000000 0.000000 -1.539485
  8   22.146629 0.000000 0.000000 -0.169172 0.106775 0.256513
  9   3.310129 5.734393 0.000000 0.000000 0.000000 1.570796
 10   1.384163 -0.004728 0.000002 -0.092332 -0.025360 -0.334634
 11   5.939814 -0.004730 0.000000 0.194760 -0.124029 0.502703
 12   5.939809 -0.003975 0.000000 -0.136413 0.044691 0.282662
 13   4.991439 -0.003975 0.000000 0.000000 0.000000 0.074071
 14   4.991436 -0.001575 0.000000 0.000000 0.000000 0.000000
 15   0.000005 0.001564 3.638375 1.746315 -1.269116 1.386373
 16   8.842831 0.000000 -0.000002 -0.706770 0.735689 -0.371161
 17   9.341934 0.000000 -0.000001 0.000000 0.000000 -0.861520
 18   11.168404 -0.000001 0.000002 -1.967638 0.449712 -0.005612
 19   0.000005 0.001585 -3.638375 -0.386091 1.262232 2.771292
 20   8.842831 0.000000 0.000001 0.559056 -0.587602 -0.749067
 21   9.341937 0.000000 -0.000001 0.000000 0.000000 -0.666657
 22   11.168404 -0.000001 0.000001 1.594975 -0.191447 0.112489
 23   1.977383 0.000000 0.000000 -0.262620 0.147936 -0.622157
 24   3.723980 2.768054 -0.049087 0.000001 -3.141591 -1.570794
 25   12.421014 0.304721 4.492689 -0.091859 -0.075839 1.616818
 26   19.916998 1.704573 4.956909 2.262592 1.451744 0.734330
time 7
  0   -0.589284 14.433413 21.945332 -0.017435 0.196197 -1.747928
  1   -1.053401 -0.339853 9.745319 -1.570795 -1.570451 0.000000
  2   -0.000008 0.000010 5.615750 0.064328 3.494914 -1.269361
  3   15.693467 0.000000 0.000000 0.000000 0.000000 -1.333430
  4   22.146629 -0.000001 0.000000 0.284221 -0.212739 0.239039
  5   3.310129 5.734393 0.000000 0.000000 0.000000 1.570796
  6   0.000008 -0.000006 -5.615750 -0.019941 2.895579 -1.247514
  7   15.693467 0.000000 0.000000 0.000000 0.000000 -1.359805
  8   22.146629 0.000000 0.000000 -0.198787 0.147299 0.339306
  9   3.310129 5.734393 0.000000 0.000000 0.000000 1.570796
 10   1.384163 -0.004728 0.000002 -0.160122 -0.030941 -0.232819
 11   5.939814 -0.004730 0.000000 0.153968 -0.085438 0.383208
 12   5.939809 -0.003975 0.000000 -0.104859 0.030465 0.215288
 13   4.991439 -0.003975 0.000000 0.000000 0.000000 0.055772
 14   4.991436 -0.001575 0.000000 0.000000 0.000000 0.000000
 15   0.000005 0.001564 3.638375 1.457067 -1.342615 1.686752
 16   8.842831 0.000000 -0.000002 -0.668089 0.581269 -0.512474
 17   9.341934 0.000000 -0.000001 0.000000 0.000000 -0.763854
 18   11.168404 -0.000001 0.000002 -2.543144 0.566279 -0.085166
 19   0.000005 0.001585 -3.638375 -0.299134 1.271232 2.854222
 20   8.842831 0.000000 0.000001 0.562201 -0.555644 -1.048351
 21   9.341937 0.000000 -0.000001 0.000000 0.000000 -0.746532
 22   11.168404 -0.000001 0.000001 1.632729 -0.117709 0.237521
 23   1.977383 0.000000 0.000000 -0.003753 0.196108 -0.462406
 24   3.723980 2.768054 -0.049087 0.000001 -3.141591 -1.570794
 25   12.421014 0.304721 4.492689 -0.091859 -0.075839 1.616818
 26   19.916998 1.704573 4.956909 2.262592 1.451744 0.734330
time 8
  0   -0.589284 13.102094 24.748617 -0.017902 0.130352 -1.843421
  1   -1.162779 -0.132816 9.745319 -1.570795 -1.570451 0.000000
  2   -0.000008 0.000010 5.615750 -0.035853 3.509576 -1.033482
  3   15.693467 0.000000 0.000000 0.000000 0.000000 -1.051442
  4   22.146629 -0.000001 0.000000 0.316080 -0.179577 0.110428
  5   3.310129 5.734393 0.000000 0.000000 0.000000 1.570796
  6   0.000008 -0.000006 -5.615750 0.039790 2.858284 -0.863116
  7   15.693467 0.000000 0.000000 0.000000 0.000000 -1.141123
  8   22.146629 0.000000 0.000000 -0.216555 0.188406 0.411265
  9   3.310129 5.734393 0.000000 0.000000 0.000000 1.570796
 10   1.384163 -0.004728 0.000002 -0.231816 -0.029358 -0.125792
 11   5.939814 -0.004730 0.000000 0.106357 -0.050467 0.256811
 12   5.939809 -0.003975 0.000000 -0.070663 0.017809 0.143879
 13   4.991439 -0.003975 0.000000 0.000000 0.000000 0.037187
 14   4.991436 -0.001575 0.000000 0.000000 0.000000 0.000000
 15   0.000005 0.001564 3.638375 0.914426 -1.382521 2.235066
 16   8.842831 0.000000 -0.000002 -0.623007 0.369453 -0.697233
 17   9.341934 0.000000 -0.000001 0.000000 0.000000 -0.674881
 18   11.168404 -0.000001 0.000002 -3.232109 0.624945 -0.252038
 19   0.000005 0.001585 -3.638375 -0.202590 1.278329 2.946644
 20   8.842831 0.000000 0.000001 0.616059 -0.567064 -1.396054
 21   9.341937 0.000000 -0.000001 0.000000 0.000000 -0.829338
 22   11.168404 -0.000001 0.000001 1.681856 -0.045742 0.371390
 23   1.977383 0.000000 0.000000 0.268435 0.244165 -0.265575
 24   3.723980 2.768054 -0.049087 0.000001 -3.141591 -1.570794
 25   12.421014 0.304721 4.492689 -0.091859 -0.075839 1.616818
 26   19.916998 1.704573 4.956909 2.262592 1.451744 0.734330
time 9
  0   -0.581748 11.770775 26.532526 -0.011841 0.063838 -1.939489
  1   -1.264345 -0.027344 9.745319 -1.570795 -1.570451 0.000000
  2   -0.000008 0.000010 5.615750 -0.138048 3.501622 -0.795118
  3   15.693467 0.000000 0.000000 0.000000 0.000000 -0.766395
  4   22.146629 -0.000001 0.000000 0.347003 -0.146812 -0.018640
  5   3.310129 5.734393 0.000000 0.000000 0.000000 1.570796
  6   0.000008 -0.000006 -5.615750 0.126846 2.856846 -0.418053
  7   15.693467 0.000000 0.000000 0.000000 0.000000 -0.833568
  8   22.146629 0.000000 0.000000 -0.218868 0.222821 0.453014
  9   3.310129 5.734393 0.000000 0.000000 0.000000 1.570796
 10   1.384163 -0.004728 0.000002 -0.303780 -0.019993 -0.017857
 11   5.939814 -0.004730 0.000000 0.054093 -0.021524 0.127583
 12   5.939809 -0.003975 0.000000 -0.035191 0.007514 0.071171
 13   4.991439 -0.003975 0.000000 0.000000 0.000000 0.018518
 14   4.991436 -0.001575 0.000000 0.000000 0.000000 0.000000
 15   0.000005 0.001564 3.638375 0.354336 -1.356184 2.794023
 16   8.842831 0.000000 -0.000002 -0.522145 0.179218 -0.835336
 17   9.341934 0.000000 -0.000001 0.000000 0.000000 -0.627073
 18   11.168404 -0.000001 0.000002 -3.900159 0.585132 -0.420826
 19   0.000005 0.001585 -3.638375 -0.100964 1.282753 3.043955
 20   8.842831 0.000000 0.000001 0.752074 -0.580874 -1.789984
 21   9.341937 0.000000 -0.000001 0.000000 0.000000 -0.912810
 22   11.168404 -0.000001 0.000001 1.740957 0.019817 0.510335
 23   1.977383 0.000000 0.000000 0.550614 0.280168 -0.040512
 24   3.723980 2.768054 -0.049087 0.000001 -3.141591 -1.570794
 25   12.421014 0.304721 4.492689 -0.091859 -0.075839 1.616818
 26   19.916998 1.704573 4.956909 2.262592 1.451744 0.734330
time 10
  0   -0.604356 10.545116 28.041988 0.000000 0.000000 -2.033353
  1   -1.373723 -0.035156 9.745319 -1.570795 -1.570451 0.000000
  2   -0.000008 0.000010 5.615750 -0.233053 3.472298 -0.563921
  3   15.693467 0.000000 0.000000 0.000000 0.000000 -0.487323
  4   22.146629 -0.000001 0.000000 0.375571 -0.116449 -0.141809
  5   3.310129 5.734393 0.000000 0.000000 0.000000 1.570796
  6   0.000008 -0.000006 -5.615750 0.212080 2.899510 0.054433
  7   15.693467 0.000000 0.000000 0.000000 0.000000 -0.482099
  8   22.146629 0.000000 0.000000 -0.205104 0.247995 0.484810
  9   3.310129 5.734393 0.000000 0.000000 0.000000 1.570796
 10   1.384163 -0.004728 0.000002 -0.372579 -0.003463 0.086548
 11   5.939814 -0.004730 0.000000 0.000000 0.000000 0.000000
 12   5.939809 -0.003975 0.000000 0.000000 0.000000 0.000000
 13   4.991439 -0.003975 0.000000 0.000000 0.000000 0.000000
 14   4.991436 -0.001575 0.000000 0.000000 0.000000 0.000000
 15   0.000005 0.001564 3.638375 -0.000010 -1.284244 3.140806
 16   8.842831 0.000000 -0.000002 -0.414972 -0.110832 -0.914689
 17   9.341934 0.000000 -0.000001 0.000000 0.000000 -0.853073
 18   11.168404 -0.000001 0.000002 -4.515872 0.471532 -0.520821
 19   0.000005 0.001585 -3.638375 -0.000010 1.284244 3.140787
 20   8.842831 0.000000 0.000001 0.953960 -0.539089 -2.198116
 21   9.341937 0.000000 -0.000001 0.000000 0.000000 -0.994883
 22   11.168404 -0.000001 0.000001 1.806863 0.075089 0.649563
 23   1.977383 0.000000 0.000000 0.835700 0.294324 0.196082
 24   3.723980 2.768054 -0.049087 0.000001 -3.141591 -1.570794
 25   12.421014 0.304721 4.492689 -0.091859 -0.075839 1.616818
 26   19.916998 1.704573 4.956909 2.262592 1.451744 0.734330
end
