version 1
nodes
  0 "Bip01" -1
  1 "Bip01 Pelvis" 0
  2 "Bip01 L Thigh" 1
  3 "Bip01 L Calf" 2
  4 "Bip01 L Foot" 3
  5 "Bip01 L Toe0" 4
  6 "Bip01 R Thigh" 1
  7 "Bip01 R Calf" 6
  8 "Bip01 R Foot" 7
  9 "Bip01 R Toe0" 8
 10 "Bip01 Spine" 1
 11 "Bip01 Spine1" 10
 12 "Bip01 Spine2" 11
 13 "Bip01 Spine3" 12
 14 "Bip01 Neck" 13
 15 "Bip01 L Clavicle" 14
 16 "Bip01 L UpperArm" 15
 17 "Bip01 L Forearm" 16
 18 "Bip01 L Hand" 17
 19 "Bip01 R Clavicle" 14
 20 "Bip01 R UpperArm" 19
 21 "Bip01 R Forearm" 20
 22 "Bip01 R Hand" 21
 23 "Bip01 Head" 14
 24 "Bone05" 23
 25 "m4" 22
 26 "SHOTGUN" 22
end
skeleton
time 0
  0   0.073880 -0.006819 28.041988 0.000000 0.000000 -2.033353
  1   -0.526041 0.000001 9.745319 -1.570795 -1.570451 0.000000
  2   -0.000008 0.000010 5.615750 -0.233053 3.472298 -0.563921
  3   15.693467 0.000000 0.000000 0.000000 0.000000 -0.487323
  4   22.146629 -0.000001 0.000000 0.114982 -0.144038 -0.143135
  5   3.310129 5.734393 0.000000 0.000000 0.000000 1.570796
  6   0.000008 -0.000006 -5.615750 0.212080 2.899510 0.054433
  7   15.693467 0.000000 0.000000 0.000000 0.000000 -0.482099
  8   22.146629 0.000000 0.000000 0.274883 0.248026 0.484986
  9   3.310129 5.734393 0.000000 0.000000 0.000000 1.570796
 10   1.384163 -0.004728 0.000002 -0.372579 -0.003463 0.086548
 11   5.939814 -0.004730 0.000000 0.000000 0.000000 0.000000
 12   5.939809 -0.003975 0.000000 0.000000 0.000000 0.000000
 13   4.991439 -0.003975 0.000000 0.000000 0.000000 0.000000
 14   4.991436 -0.001575 0.000000 0.000000 0.000000 0.000000
 15   0.000005 0.001564 3.638375 -0.000010 -1.284244 3.140806
 16   8.842831 0.000000 -0.000002 -0.414972 -0.110832 -0.914689
 17   9.341934 0.000000 -0.000001 0.000000 0.000000 -0.853073
 18   11.168404 -0.000001 0.000002 -4.515872 0.471532 -0.520821
 19   0.000005 0.001585 -3.638375 -0.000010 1.284244 3.140787
 20   8.842831 0.000000 0.000001 0.953960 -0.539089 -2.198116
 21   9.341937 0.000000 -0.000001 0.000000 0.000000 -0.994883
 22   11.168404 -0.000001 0.000001 1.806863 0.075089 0.649563
 23   1.977383 0.000000 0.000000 0.835700 0.294324 0.196082
 24   3.723980 2.768054 -0.049087 0.000001 -3.141591 -1.570794
 25   12.421014 0.304721 4.492689 -0.091859 -0.075839 1.616818
 26   19.916998 1.704573 4.956909 2.262592 1.451744 0.734330
time 1
  0   0.397926 -2.958261 27.689127 0.015664 -0.072439 -1.997495
  1   -0.526041 0.000001 9.745319 -0.000032 -1.575964 -1.570770
  2   -0.000008 0.000010 5.615750 -0.217906 3.450928 -0.573670
  3   15.693467 0.000000 0.000000 0.000000 0.000000 -0.681172
  4   22.146629 -0.000001 0.000000 0.087686 -0.117192 -0.022482
  5   3.310129 5.734393 0.000000 0.000000 0.000000 1.570796
  6   0.000008 -0.000006 -5.615750 0.174113 2.905262 -0.109398
  7   15.693467 0.000000 0.000000 0.000000 0.000000 -0.724450
  8   22.146629 0.000000 0.000000 0.225468 0.215484 0.536335
  9   3.310129 5.734393 0.000000 0.000000 0.000000 1.570796
 10   1.384163 -0.004728 -0.003904 -0.391664 -0.012103 0.148239
 11   5.939814 -0.004730 0.000000 0.000000 0.000000 0.011359
 12   5.939809 -0.003975 0.000000 0.000000 0.000000 0.004722
 13   4.991439 -0.003975 0.000000 0.000000 0.000000 0.013438
 14   4.991436 -0.001575 0.000000 0.000000 0.000000 -0.001594
 15   0.000005 0.001564 3.638375 -0.000010 -1.284135 3.142340
 16   8.842831 0.000000 -0.000002 -0.423020 0.174846 -0.418116
 17   9.341934 0.000000 -0.000001 0.000000 0.000000 -1.415369
 18   11.168404 -0.000001 0.000002 -4.170435 0.586089 -0.428147
 19   0.000005 0.001585 -3.638375 -0.000010 1.284141 3.142321
 20   8.842831 0.000000 0.000001 0.811494 -0.629918 -2.167521
 21   9.341937 0.000000 -0.000001 0.000000 0.000000 -1.086216
 22   11.168404 -0.000001 0.000001 1.802389 0.086515 0.635743
 23   1.977383 0.000000 0.000000 0.821269 0.248761 0.155424
 24   3.723980 2.768054 -0.049087 0.000001 -3.141591 -1.570794
 25   12.421014 0.304721 4.492689 -0.091859 -0.075839 1.616818
 26   19.916998 1.704573 4.956909 2.262592 1.451744 0.734330
time 2
  0   0.729508 -6.423917 27.493093 0.026573 -0.158353 -1.902961
  1   -0.526041 0.000001 9.745319 -0.000032 -1.581404 -1.570770
  2   -0.000008 0.000010 5.615750 -0.177833 3.392089 -0.542130
  3   15.693467 0.000000 0.000000 0.000000 0.000000 -0.816191
  4   22.146629 -0.000001 0.000000 0.039038 -0.087646 0.077635
  5   3.310129 5.734393 0.000000 0.000000 0.000000 1.570796
  6   0.000008 -0.000006 -5.615750 0.113231 2.949460 -0.306962
  7   15.693467 0.000000 0.000000 0.000000 0.000000 -0.968663
  8   22.146629 0.000000 0.000000 0.151741 0.152979 0.555096
  9   3.310129 5.734393 0.000000 0.000000 0.000000 1.570796
 10   1.384163 -0.004728 -0.011717 -0.399608 -0.020717 0.212423
 11   5.939814 -0.004730 0.000000 0.000000 0.000000 0.023176
 12   5.939809 -0.003975 0.000000 0.000000 0.000000 0.009420
 13   4.991439 -0.003975 0.000000 0.000000 0.000000 0.026877
 14   4.991436 -0.001575 0.000000 0.000000 0.000000 -0.003398
 15   0.000005 0.001564 3.638375 -0.000010 -1.283954 3.144162
 16   8.842831 0.000000 -0.000002 -0.378486 0.347034 -0.274340
 17   9.341934 0.000000 -0.000001 0.000000 0.000000 -1.686800
 18   11.168404 -0.000001 0.000002 -3.382337 0.576519 -0.123936
 19   0.000005 0.001585 -3.638375 -0.000010 1.283987 3.144142
 20   8.842831 0.000000 0.000001 0.548011 -0.718356 -1.847268
 21   9.341937 0.000000 -0.000001 0.000000 0.000000 -1.265551
 22   11.168404 -0.000001 0.000001 1.819914 0.072644 0.462203
 23   1.977383 0.000000 0.000000 0.714910 0.168650 0.071870
 24   3.723980 2.768054 -0.049087 0.000001 -3.141591 -1.570794
 25   12.421014 0.304721 4.492689 -0.091859 -0.075839 1.616818
 26   19.916998 1.704573 4.956909 2.262592 1.451744 0.734330
time 3
  0   1.091234 -9.981145 27.453886 0.025920 -0.246273 -1.779471
  1   -0.526041 0.000001 9.745319 -3.141558 -1.554518 1.570770
  2   -0.000008 0.000010 5.615750 -0.121463 3.325488 -0.486315
  3   15.693467 0.000000 0.000000 0.000000 0.000000 -0.916921
  4   22.146629 -0.000001 0.000000 -0.014508 -0.063054 0.165220
  5   3.310129 5.734393 0.000000 0.000000 0.000000 1.570796
  6   0.000008 -0.000006 -5.615750 0.054842 3.020407 -0.517501
  7   15.693467 0.000000 0.000000 0.000000 0.000000 -1.206698
  8   22.146629 0.000000 0.000000 0.081117 0.086114 0.556593
  9   3.310129 5.734393 0.000000 0.000000 0.000000 1.570796
 10   1.384163 -0.004728 -0.019530 -0.398329 -0.030190 0.277806
 11   5.939814 -0.004730 0.000000 0.000000 0.000000 0.035357
 12   5.939809 -0.003975 0.000000 0.000000 0.000000 0.014154
 13   4.991439 -0.003975 0.000000 0.000000 0.000000 0.040450
 14   4.991436 -0.001575 0.000000 0.000000 0.000000 -0.005322
 15   0.000005 0.001564 3.638375 -0.000010 -1.283809 3.146079
 16   8.842831 0.000000 -0.000002 -0.307160 0.512617 -0.167888
 17   9.341934 0.000000 -0.000001 0.000000 0.000000 -1.936254
 18   11.168404 -0.000001 0.000002 -2.586789 0.357836 0.086619
 19   0.000005 0.001585 -3.638375 -0.000010 1.283781 3.146060
 20   8.842831 0.000000 0.000001 0.303958 -0.707290 -1.511860
 21   9.341937 0.000000 -0.000001 0.000000 0.000000 -1.373405
 22   11.168404 -0.000001 0.000001 1.841168 0.060755 0.283210
 23   1.977383 0.000000 0.000000 0.576358 0.084545 -0.008502
 24   3.723980 2.768054 -0.049087 0.000001 -3.141591 -1.570794
 25   12.421014 0.304721 4.492689 -0.091859 -0.075839 1.616818
 26   19.916998 1.704573 4.956909 2.262592 1.451744 0.734330
time 4
  0   1.520784 -13.200260 27.493093 0.014172 -0.324160 -1.657612
  1   -0.526041 0.000001 9.745319 -0.000032 -1.592864 -1.570770
  2   -0.000008 0.000010 5.615750 -0.063271 3.272973 -0.419890
  3   15.693467 0.000000 0.000000 0.000000 0.000000 -0.992184
  4   22.146629 -0.000001 0.000000 -0.057659 -0.046040 0.241280
  5   3.310129 5.734393 0.000000 0.000000 0.000000 1.570796
  6   0.000008 -0.000006 -5.615750 0.015437 3.097393 -0.726287
  7   15.693467 0.000000 0.000000 0.000000 0.000000 -1.430665
  8   22.146629 0.000000 0.000000 0.027133 0.035674 0.555536
  9   3.310129 5.734393 0.000000 0.000000 0.000000 1.570796
 10   1.384163 -0.004728 -0.027343 -0.389779 -0.041219 0.343123
 11   5.939814 -0.004730 0.000000 0.000000 0.000000 0.047805
 12   5.939809 -0.003975 0.000000 0.000000 0.000000 0.018964
 13   4.991439 -0.003975 0.000000 0.000000 0.000000 0.054241
 14   4.991436 -0.001575 0.000000 0.000000 0.000000 -0.007187
 15   0.000005 0.001564 3.638375 -0.000010 -1.283627 3.147997
 16   8.842831 0.000000 -0.000002 -0.246716 0.634293 -0.112647
 17   9.341934 0.000000 -0.000001 0.000000 0.000000 -2.119039
 18   11.168404 -0.000001 0.000002 -1.963244 0.096374 0.083671
 19   0.000005 0.001585 -3.638375 -0.000010 1.283627 3.147977
 20   8.842831 0.000000 0.000001 0.119245 -0.640187 -1.205523
 21   9.341937 0.000000 -0.000001 0.000000 0.000000 -1.465538
 22   11.168404 -0.000001 0.000001 1.864287 0.052829 0.107319
 23   1.977383 0.000000 0.000000 0.459902 0.031984 -0.059102
 24   3.723980 2.768054 -0.049087 0.000001 -3.141591 -1.570794
 25   12.421014 0.304721 4.492689 -0.091859 -0.075839 1.616818
 26   19.916998 1.704573 4.956909 2.262592 1.451744 0.734330
time 5
  0   2.040765 -15.665666 27.571507 0.000000 -0.381308 -1.570844
  1   -0.526041 0.000001 9.745319 -0.000032 -1.598691 -1.570770
  2   -0.000008 0.000010 5.615750 -0.027417 3.245853 -0.357862
  3   15.693467 0.000000 0.000000 0.000000 0.000000 -1.043901
  4   22.146629 -0.000001 0.000000 -0.075196 -0.032641 0.302750
  5   3.310129 5.734393 0.000000 0.000000 0.000000 1.570796
  6   0.000008 -0.000006 -5.615750 0.000193 3.153863 -0.923500
  7   15.693467 0.000000 0.000000 0.000000 0.000000 -1.632674
  8   22.146629 0.000000 0.000000 -0.004795 0.011267 0.570157
  9   3.310129 5.734393 0.000000 0.000000 0.000000 1.570796
 10   1.384163 -0.004728 -0.035155 -0.375979 -0.054207 0.407146
 11   5.939814 -0.004730 0.000000 0.000000 0.000000 0.060388
 12   5.939809 -0.003975 0.000000 0.000000 0.000000 0.023899
 13   4.991439 -0.003975 0.000000 0.000000 0.000000 0.068369
 14   4.991436 -0.001575 0.000000 0.000000 0.000000 -0.009051
 15   0.000005 0.001564 3.638375 -0.000010 -1.283555 3.149818
 16   8.842831 0.000000 -0.000002 -0.253574 0.680805 -0.141089
 17   9.341934 0.000000 -0.000001 0.000000 0.000000 -2.190546
 18   11.168404 -0.000001 0.000002 -1.568718 -0.049956 -0.000011
 19   0.000005 0.001585 -3.638375 -0.000010 1.283575 3.149799
 20   8.842831 0.000000 0.000001 0.076030 -0.559627 -1.048351
 21   9.341937 0.000000 -0.000001 0.000000 0.000000 -1.521363
 22   11.168404 -0.000001 0.000001 1.882931 0.049962 -0.000040
 23   1.977383 0.000000 0.000000 0.408678 0.064476 -0.060145
 24   3.723980 2.768054 -0.049087 0.000001 -3.141591 -1.570794
 25   12.421014 0.304721 4.492689 -0.091859 -0.075839 1.616818
 26   19.916998 1.704573 4.956909 2.262592 1.451744 0.734330
time 6
  0   2.734073 -17.116732 27.591110 -0.007366 -0.404148 -1.535465
  1   -0.526041 0.000001 9.745319 -0.000032 -1.604494 -1.570770
  2   -0.000008 0.000010 5.615750 -0.018214 3.228892 -0.321639
  3   15.693467 0.000000 0.000000 0.000000 0.000000 -1.073921
  4   22.146629 -0.000001 0.000000 -0.088433 -0.015380 0.347709
  5   3.310129 5.734393 0.000000 0.000000 0.000000 1.570796
  6   0.000008 -0.000006 -5.615750 0.002686 3.175339 -1.123239
  7   15.693467 0.000000 0.000000 0.000000 0.000000 -1.831260
  8   22.146629 0.000000 0.000000 -0.015174 0.007706 0.619480
  9   3.310129 5.734393 0.000000 0.000000 0.000000 1.570796
 10   1.384163 -0.004728 -0.042968 -0.358981 -0.069234 0.468739
 11   5.939814 -0.004730 0.000000 0.000000 0.000000 0.073028
 12   5.939809 -0.003975 0.000000 0.000000 0.000000 0.029008
 13   4.991439 -0.003975 0.000000 0.000000 0.000000 0.082985
 14   4.991436 -0.001575 0.000000 0.000000 0.000000 -0.010855
 15   0.000005 0.001564 3.638375 -0.000010 -1.283518 3.151640
 16   8.842831 0.000000 -0.000002 -0.336056 0.646944 -0.253363
 17   9.341934 0.000000 -0.000001 0.000000 0.000000 -2.145936
 18   11.168404 -0.000001 0.000002 -1.403210 -0.097425 -0.048362
 19   0.000005 0.001585 -3.638375 -0.000010 1.283524 3.151621
 20   8.842831 0.000000 0.000001 0.131097 -0.489337 -1.022998
 21   9.341937 0.000000 -0.000001 0.000000 0.000000 -1.538817
 22   11.168404 -0.000001 0.000001 1.904930 0.050468 -0.041404
 23   1.977383 0.000000 0.000000 0.391022 0.120686 -0.062680
 24   3.723980 2.768054 -0.049087 0.000001 -3.141591 -1.570794
 25   12.421014 0.304721 4.492689 -0.091859 -0.075839 1.616818
 26   19.916998 1.704573 4.956909 2.262592 1.451744 0.734330
time 7
  0   3.593172 -17.835222 27.532299 -0.008298 -0.400326 -1.532109
  1   -0.526041 0.000001 9.745319 -0.000032 -1.610152 -1.570770
  2   -0.000008 0.000010 5.615750 -0.019364 3.205701 -0.309214
  3   15.693467 0.000000 0.000000 0.000000 0.000000 -1.087722
  4   22.146629 -0.000001 0.000000 -0.118123 0.007900 0.378444
  5   3.310129 5.734393 0.000000 0.000000 0.000000 1.570796
  6   0.000008 -0.000006 -5.615750 0.011219 3.172079 -1.329990
  7   15.693467 0.000000 0.000000 0.000000 0.000000 -2.019276
  8   22.146629 0.000000 0.000000 -0.013425 0.012219 0.688445
  9   3.310129 5.734393 0.000000 0.000000 0.000000 1.570796
 10   1.384163 -0.004728 -0.050781 -0.340839 -0.086059 0.526803
 11   5.939814 -0.004730 0.000000 0.000000 0.000000 0.085629
 12   5.939809 -0.003975 0.000000 0.000000 0.000000 0.034368
 13   4.991439 -0.003975 0.000000 0.000000 0.000000 0.098155
 14   4.991436 -0.001575 0.000000 0.000000 0.000000 -0.012659
 15   0.000005 0.001564 3.638375 -0.000010 -1.283482 3.153462
 16   8.842831 0.000000 -0.000002 -0.439479 0.554664 -0.399005
 17   9.341934 0.000000 -0.000001 0.000000 0.000000 -2.029737
 18   11.168404 -0.000001 0.000002 -1.356317 -0.109292 -0.063300
 19   0.000005 0.001585 -3.638375 -0.000010 1.283524 3.153442
 20   8.842831 0.000000 0.000001 0.209707 -0.419489 -1.039773
 21   9.341937 0.000000 -0.000001 0.000000 0.000000 -1.536819
 22   11.168404 -0.000001 0.000001 1.935693 0.052871 -0.063872
 23   1.977383 0.000000 0.000000 0.368080 0.130523 -0.092354
 24   3.723980 2.768054 -0.049087 0.000001 -3.141591 -1.570794
 25   12.421014 0.304721 4.492689 -0.091859 -0.075839 1.616818
 26   19.916998 1.704573 4.956909 2.262592 1.451744 0.734330
time 8
  0   4.482415 -18.208555 27.493093 -0.006247 -0.392107 -1.543135
  1   -0.526041 0.000001 9.745319 -0.000032 -1.615616 -1.570770
  2   -0.000008 0.000010 5.615750 -0.027417 3.181935 -0.300994
  3   15.693467 0.000000 0.000000 0.000000 0.000000 -1.089713
  4   22.146629 -0.000001 0.000000 -0.148374 0.033706 0.397424
  5   3.310129 5.734393 0.000000 0.000000 0.000000 1.570796
  6   0.000008 -0.000006 -5.615750 0.018313 3.157123 -1.519840
  7   15.693467 0.000000 0.000000 0.000000 0.000000 -2.150054
  8   22.146629 0.000000 0.000000 -0.006600 0.017315 0.745255
  9   3.310129 5.734393 0.000000 0.000000 0.000000 1.570796
 10   1.384163 -0.004728 -0.058594 -0.323504 -0.104145 0.580398
 11   5.939814 -0.004730 0.000000 0.000000 0.000000 0.098097
 12   5.939809 -0.003975 0.000000 0.000000 0.000000 0.040002
 13   4.991439 -0.003975 0.000000 0.000000 0.000000 0.114032
 14   4.991436 -0.001575 0.000000 0.000000 0.000000 -0.014494
 15   0.000005 0.001564 3.638375 -0.000010 -1.283518 3.155283
 16   8.842831 0.000000 -0.000002 -0.531838 0.417639 -0.541438
 17   9.341934 0.000000 -0.000001 0.000000 0.000000 -1.870569
 18   11.168404 -0.000001 0.000002 -1.389839 -0.100870 -0.052588
 19   0.000005 0.001585 -3.638375 -0.000010 1.283524 3.155264
 20   8.842831 0.000000 0.000001 0.299040 -0.350084 -1.076088
 21   9.341937 0.000000 -0.000001 0.000000 0.000000 -1.525760
 22   11.168404 -0.000001 0.000001 1.965057 0.055485 -0.069042
 23   1.977383 0.000000 0.000000 0.348627 0.126551 -0.122276
 24   3.723980 2.768054 -0.049087 0.000001 -3.141591 -1.570794
 25   12.421014 0.304721 4.492689 -0.091859 -0.075839 1.616818
 26   19.916998 1.704573 4.956909 2.262592 1.451744 0.734330
time 9
  0   5.243547 -18.617107 27.571507 -0.004942 -0.401568 -1.550614
  1   -0.526041 0.000001 9.745319 -0.000032 -1.620790 -1.570770
  2   -0.000008 0.000010 5.615750 -0.038154 3.164686 -0.274998
  3   15.693467 0.000000 0.000000 0.000000 0.000000 -1.084663
  4   22.146629 -0.000001 0.000000 -0.163892 0.056516 0.409316
  5   3.310129 5.734393 0.000000 0.000000 0.000000 1.570796
  6   0.000008 -0.000006 -5.615750 -3.118674 6.278964 1.472169
  7   15.693467 0.000000 0.000000 0.000000 0.000000 -2.177222
  8   22.146629 0.000000 0.000000 -0.001467 0.020170 0.758202
  9   3.310129 5.734393 0.000000 0.000000 0.000000 1.570796
 10   1.384163 -0.004728 -0.066406 -0.308930 -0.122715 0.628682
 11   5.939814 -0.004730 0.000000 0.000000 0.000000 0.110297
 12   5.939809 -0.003975 0.000000 0.000000 0.000000 0.045986
 13   4.991439 -0.003975 0.000000 0.000000 0.000000 0.130734
 14   4.991436 -0.001575 0.000000 0.000000 0.000000 -0.016177
 15   0.000005 0.001564 3.638375 -0.000010 -1.283518 3.156913
 16   8.842831 0.000000 -0.000002 -0.599506 0.257917 -0.663043
 17   9.341934 0.000000 -0.000001 0.000000 0.000000 -1.697378
 18   11.168404 -0.000001 0.000002 -1.463186 -0.081251 -0.030034
 19   0.000005 0.001585 -3.638375 -0.000010 1.283524 3.156893
 20   8.842831 0.000000 0.000001 0.392404 -0.285902 -1.114213
 21   9.341937 0.000000 -0.000001 0.000000 0.000000 -1.515967
 22   11.168404 -0.000001 0.000001 1.982955 0.056497 -0.058889
 23   1.977383 0.000000 0.000000 0.329068 0.128814 -0.163829
 24   3.723980 2.768054 -0.049087 0.000001 -3.141591 -1.570794
 25   12.421014 0.304721 4.492689 -0.091859 -0.075839 1.616818
 26   19.916998 1.704573 4.956909 2.262592 1.451744 0.734330
time 10
  0   5.755992 -19.448301 28.100798 -0.003357 -0.464068 -1.558763
  1   -0.526041 0.000001 9.745319 -0.000032 -1.620790 -1.570770
  2   -0.000008 0.000010 5.615750 -0.053110 3.152228 -0.181048
  3   15.693467 0.000000 0.000000 0.000000 0.000000 -1.053291
  4   22.146629 -0.000001 0.000000 -0.169501 0.071128 0.410139
  5   3.310129 5.734393 0.000000 0.000000 0.000000 1.570796
  6   0.000008 -0.000006 -5.615750 -3.119345 6.279731 1.463402
  7   15.693467 0.000000 0.000000 0.000000 0.000000 -1.885000
  8   22.146629 0.000000 0.000000 0.002369 0.020907 0.663695
  9   3.310129 5.734393 0.000000 0.000000 0.000000 1.570796
 10   1.384163 -0.004728 -0.066406 -0.301861 -0.144504 0.671299
 11   5.939814 -0.004730 0.000000 0.000000 0.000000 0.122172
 12   5.939809 -0.003975 0.000000 0.000000 0.000000 0.052357
 13   4.991439 -0.003975 0.000000 0.000000 0.000000 0.148343
 14   4.991436 -0.001575 0.000000 0.000000 0.000000 -0.017440
 15   0.000005 0.001564 3.638375 -0.000010 -1.283555 3.158255
 16   8.842831 0.000000 -0.000002 -0.643034 0.101171 -0.758596
 17   9.341934 0.000000 -0.000001 0.000000 0.000000 -1.539030
 18   11.168404 -0.000001 0.000002 -1.535864 -0.060101 -0.009052
 19   0.000005 0.001585 -3.638375 -0.000010 1.283575 3.158236
 20   8.842831 0.000000 0.000001 0.487945 -0.237035 -1.140901
 21   9.341937 0.000000 -0.000001 0.000000 0.000000 -1.517966
 22   11.168404 -0.000001 0.000001 1.979413 0.054642 -0.035293
 23   1.977383 0.000000 0.000000 0.306126 0.156896 -0.229340
 24   3.723980 2.768054 -0.049087 0.000001 -3.141591 -1.570794
 25   12.421014 0.304721 4.492689 -0.091859 -0.075839 1.616818
 26   19.916998 1.704573 4.956909 2.262592 1.451744 0.734330
time 11
  0   5.869031 -21.131821 28.963348 0.000000 -0.536030 -1.570844
  1   -0.526041 0.000001 9.745319 -0.000032 -1.620790 -1.570770
  2   -0.000008 0.000010 5.615750 -0.067202 3.149449 -0.035105
  3   15.693467 0.000000 0.000000 0.000000 0.000000 -0.991544
  4   22.146629 -0.000001 0.000000 -0.168828 0.072589 0.423174
  5   3.310129 5.734393 0.000000 0.000000 0.000000 1.570796
  6   0.000008 -0.000006 -5.615750 -3.119824 6.279347 1.487037
  7   15.693467 0.000000 0.000000 0.000000 0.000000 -1.391290
  8   22.146629 0.000000 0.000000 0.007672 0.020016 0.452309
  9   3.310129 5.734393 0.000000 0.000000 0.000000 1.570796
 10   1.384163 -0.004728 -0.066406 -0.263052 -0.166723 0.519744
 11   5.939814 -0.004730 0.000000 0.000000 0.000000 0.128214
 12   5.939809 -0.003975 0.000000 0.000000 0.000000 0.072396
 13   4.991439 -0.003975 0.000000 0.000000 0.000000 0.199338
 14   4.991436 -0.001575 0.000000 0.000000 0.000000 -0.018222
 15   0.000005 0.001564 3.638375 -0.000010 -1.283555 3.159022
 16   8.842831 0.000000 -0.000002 -0.604901 0.104892 -0.807865
 17   9.341934 0.000000 -0.000001 0.000000 0.000000 -1.424308
 18   11.168404 -0.000001 0.000002 -1.568718 -0.049956 -0.000011
 19   0.000005 0.001585 -3.638375 -0.000010 1.283575 3.159003
 20   8.842831 0.000000 0.000001 0.488187 -0.310690 -1.057978
 21   9.341937 0.000000 -0.000001 0.000000 0.000000 -1.542081
 22   11.168404 -0.000001 0.000001 1.943990 0.049962 -0.000040
 23   1.977383 0.000000 0.000000 0.254691 0.179758 -0.199468
 24   3.723980 2.768054 -0.049087 0.000001 -3.141591 -1.570794
 25   12.421014 0.304721 4.492689 -0.091859 -0.075839 1.616818
 26   19.916998 1.704573 4.956909 2.262592 1.451744 0.734330
time 12
  0   5.658025 -23.336597 29.571053 0.000000 -0.536030 -1.570844
  1   -0.526041 0.000001 9.745319 -0.000032 -1.620790 -1.570770
  2   -0.000008 0.000010 5.615750 -0.074105 3.156732 0.083122
  3   15.693467 0.000000 0.000000 0.000000 0.000000 -0.906393
  4   22.146629 -0.000001 0.000000 -0.153609 0.061717 0.456287
  5   3.310129 5.734393 0.000000 0.000000 0.000000 1.570796
  6   0.000008 -0.000006 -5.615750 -3.119824 0.000479 1.301255
  7   15.693467 0.000000 0.000000 0.000000 0.000000 -0.847413
  8   22.146629 0.000000 0.000000 0.013031 0.017438 -0.001994
  9   3.310129 5.734393 0.000000 0.000000 0.000000 1.570796
 10   1.384163 -0.004728 -0.066406 -0.197786 -0.170212 0.222559
 11   5.939814 -0.004730 0.000000 0.000000 0.000000 0.128157
 12   5.939809 -0.003975 0.000000 0.000000 0.000000 0.068048
 13   4.991439 -0.003975 0.000000 0.000000 0.000000 0.188439
 14   4.991436 -0.001575 0.000000 0.000000 0.000000 -0.018643
 15   0.000005 0.001564 3.638375 -0.000010 -1.283555 3.159406
 16   8.842831 0.000000 -0.000002 -0.427134 0.346848 -0.748219
 17   9.341934 0.000000 -0.000001 0.000000 0.000000 -1.398395
 18   11.168404 -0.000001 0.000002 -1.537202 -0.059048 -0.007725
 19   0.000005 0.001585 -3.638375 -0.000010 1.283575 3.159386
 20   8.842831 0.000000 0.000001 0.327823 -0.598756 -0.716470
 21   9.341937 0.000000 -0.000001 0.000000 0.000000 -1.643074
 22   11.168404 -0.000001 0.000001 1.783931 0.043216 0.102148
 23   1.977383 0.000000 0.000000 0.172543 0.191120 0.016450
 24   3.723980 2.768054 -0.049087 0.000001 -3.141591 -1.570794
 25   12.421014 0.304721 4.492689 -0.091859 -0.075839 1.616818
 26   19.916998 1.704573 4.956909 2.262592 1.451744 0.734330
time 13
  0   5.318907 -25.266659 29.571053 -0.030955 -0.428613 -1.485513
  1   -0.526041 0.000001 9.745319 -0.000032 -1.620790 -1.570770
  2   -0.000008 0.000010 5.615750 -0.056177 3.204072 0.098987
  3   15.693467 0.000000 0.000000 0.000000 0.000000 -0.824158
  4   22.146629 -0.000001 0.000000 -0.074561 0.032641 0.495438
  5   3.310129 5.734393 0.000000 0.000000 0.000000 1.570796
  6   0.000008 -0.000006 -5.615750 0.020039 3.157410 -1.523277
  7   15.693467 0.000000 0.000000 0.000000 0.000000 -0.215929
  8   22.146629 0.000000 0.000000 0.020307 0.004237 -0.039603
  9   3.310129 5.734393 0.000000 0.000000 0.000000 1.570796
 10   1.384163 -0.004728 -0.066406 -0.133362 -0.151079 -0.090947
 11   5.939814 -0.004730 0.000000 0.000000 0.000000 0.126742
 12   5.939809 -0.003975 0.000000 0.000000 0.000000 0.059241
 13   4.991439 -0.003975 0.000000 0.000000 0.000000 0.166222
 14   4.991436 -0.001575 0.000000 0.000000 0.000000 -0.018824
 15   0.000005 0.001564 3.638375 -0.000010 -1.283518 3.159598
 16   8.842831 0.000000 -0.000002 -0.171915 0.614944 -0.577121
 17   9.341934 0.000000 -0.000001 0.000000 0.000000 -1.431770
 18   11.168404 -0.000001 0.000002 -1.505590 -0.067948 -0.015686
 19   0.000005 0.001585 -3.638375 -0.000010 1.283575 3.159578
 20   8.842831 0.000000 0.000001 -0.040151 -0.795198 -0.098173
 21   9.341937 0.000000 -0.000001 0.000000 0.000000 -1.791099
 22   11.168404 -0.000001 0.000001 1.538017 0.065140 0.257357
 23   1.977383 0.000000 0.000000 0.084527 0.196847 0.249763
 24   3.723980 2.768054 -0.049087 0.000001 -3.141591 -1.570794
 25   12.421014 0.304721 4.492689 -0.091859 -0.075839 1.616818
 26   19.916998 1.704573 4.956909 2.262592 1.451744 0.734330
time 14
  0   5.032540 -26.154203 29.492640 -0.043169 -0.338399 -1.441314
  1   -0.526041 0.000001 9.745319 -0.000032 -1.620790 -1.570770
  2   -0.000008 0.000010 5.615750 -0.052534 3.236175 0.087709
  3   15.693467 0.000000 0.000000 0.000000 0.000000 -0.759637
  4   22.146629 -0.000001 0.000000 -0.027671 0.009312 0.508747
  5   3.310129 5.734393 0.000000 0.000000 0.000000 1.570796
  6   0.000008 -0.000006 -5.615750 2.981668 0.097312 1.498679
  7   15.693467 0.000000 0.000000 0.000000 0.000000 -0.303535
  8   22.146629 0.000000 0.000000 0.211817 0.172596 -0.052286
  9   3.310129 5.734393 0.000000 0.000000 0.000000 1.570796
 10   1.384163 -0.004728 -0.066406 -0.111316 -0.128779 -0.247133
 11   5.939814 -0.004730 0.000000 0.000000 0.000000 0.122172
 12   5.939809 -0.003975 0.000000 0.000000 0.000000 0.052357
 13   4.991439 -0.003975 0.000000 0.000000 0.000000 0.148343
 14   4.991436 -0.001575 0.000000 0.000000 0.000000 -0.018914
 15   0.000005 0.001564 3.638375 -0.000010 -1.283555 3.159693
 16   8.842831 0.000000 -0.000002 -0.010973 0.723782 -0.454247
 17   9.341934 0.000000 -0.000001 0.000000 0.000000 -1.441282
 18   11.168404 -0.000001 0.000002 -1.568718 -0.049956 -0.000011
 19   0.000005 0.001585 -3.638375 -0.000010 1.283575 3.159674
 20   8.842831 0.000000 0.000001 -0.278399 -0.801040 0.281651
 21   9.341937 0.000000 -0.000001 0.000000 0.000000 -1.869774
 22   11.168404 -0.000001 0.000001 1.392781 0.099922 0.360297
 23   1.977383 0.000000 0.000000 0.050061 0.194215 0.355088
 24   3.723980 2.768054 -0.049087 0.000001 -3.141591 -1.570794
 25   12.421014 0.304721 4.492689 -0.091859 -0.075839 1.616818
 26   19.916998 1.704573 4.956909 2.262592 1.451744 0.734330
time 15
  0   4.836605 -26.020369 29.453432 -0.036549 -0.310685 -1.470652
  1   -0.526041 0.000001 9.745319 -0.000032 -1.620790 -1.570770
  2   -0.000008 0.000010 5.615750 -0.074296 3.237804 0.079968
  3   15.693467 0.000000 0.000000 0.000000 0.000000 -0.738509
  4   22.146629 -0.000001 0.000000 -0.037692 0.005795 0.507329
  5   3.310129 5.734393 0.000000 0.000000 0.000000 1.570796
  6   0.000008 -0.000006 -5.615750 3.014937 0.075932 1.461368
  7   15.693467 0.000000 0.000000 0.000000 0.000000 -0.365761
  8   22.146629 0.000000 0.000000 0.158567 0.154483 -0.106717
  9   3.310129 5.734393 0.000000 0.000000 0.000000 1.570796
 10   1.384163 -0.004728 -0.066406 -0.120841 -0.117536 -0.263098
 11   5.939814 -0.004730 0.000000 0.000000 0.000000 0.115307
 12   5.939809 -0.003975 0.000000 0.000000 0.000000 0.048609
 13   4.991439 -0.003975 0.000000 0.000000 0.000000 0.137999
 14   4.991436 -0.001575 0.000000 0.000000 0.000000 -0.019004
 15   0.000005 0.001564 3.638375 -0.000010 -1.283591 3.159789
 16   8.842831 0.000000 -0.000002 -0.019020 0.715596 -0.474999
 17   9.341934 0.000000 -0.000001 0.000000 0.000000 -1.410367
 18   11.168404 -0.000001 0.000002 -1.713024 -0.004976 0.031487
 19   0.000005 0.001585 -3.638375 -0.000010 1.283575 3.159770
 20   8.842831 0.000000 0.000001 -0.316293 -0.817772 0.319014
 21   9.341937 0.000000 -0.000001 0.000000 0.000000 -1.868242
 22   11.168404 -0.000001 0.000001 1.368823 0.114130 0.401567
 23   1.977383 0.000000 0.000000 0.079452 0.181051 0.351360
 24   3.723980 2.768054 -0.049087 0.000001 -3.141591 -1.570794
 25   12.421014 0.304721 4.492689 -0.091859 -0.075839 1.616818
 26   19.916998 1.704573 4.956909 2.262592 1.451744 0.734330
time 16
  0   4.640670 -25.492067 29.316208 -0.030209 -0.284787 -1.502004
  1   -0.526041 0.000001 9.745319 -0.000032 -1.620790 -1.570770
  2   -0.000008 0.000010 5.615750 -0.105166 3.244033 0.047759
  3   15.693467 0.000000 0.000000 0.000000 0.000000 -0.745480
  4   22.146629 -0.000001 0.000000 -0.041244 0.002229 0.507146
  5   3.310129 5.734393 0.000000 0.000000 0.000000 1.570796
  6   0.000008 -0.000006 -5.615750 3.089817 0.033364 1.436752
  7   15.693467 0.000000 0.000000 0.000000 0.000000 -0.430666
  8   22.146629 0.000000 0.000000 0.074630 0.088140 -0.162647
  9   3.310129 5.734393 0.000000 0.000000 0.000000 1.570796
 10   1.384163 -0.004728 -0.066406 -0.132689 -0.107151 -0.269348
 11   5.939814 -0.004730 0.000000 0.000000 0.000000 0.108251
 12   5.939809 -0.003975 0.000000 0.000000 0.000000 0.044987
 13   4.991439 -0.003975 0.000000 0.000000 0.000000 0.127942
 14   4.991436 -0.001575 0.000000 0.000000 0.000000 -0.018974
 15   0.000005 0.001564 3.638375 -0.000010 -1.283627 3.159789
 16   8.842831 0.000000 -0.000002 -0.038498 0.699503 -0.504785
 17   9.341934 0.000000 -0.000001 0.000000 0.000000 -1.377976
 18   11.168404 -0.000001 0.000002 -1.861819 0.046130 0.057087
 19   0.000005 0.001585 -3.638375 -0.000010 1.283575 3.159770
 20   8.842831 0.000000 0.000001 -0.347979 -0.838310 0.325400
 21   9.341937 0.000000 -0.000001 0.000000 0.000000 -1.854119
 22   11.168404 -0.000001 0.000001 1.365654 0.123658 0.433530
 23   1.977383 0.000000 0.000000 0.131310 0.160106 0.348378
 24   3.723980 2.768054 -0.049087 0.000001 -3.141591 -1.570794
 25   12.421014 0.304721 4.492689 -0.091859 -0.075839 1.616818
 26   19.916998 1.704573 4.956909 2.262592 1.451744 0.734330
time 17
  0   4.437200 -24.674961 29.100571 -0.024335 -0.260417 -1.535273
  1   -0.526041 0.000001 9.745319 -0.000032 -1.620790 -1.570770
  2   -0.000008 0.000010 5.615750 -0.141020 3.255149 -0.001462
  3   15.693467 0.000000 0.000000 0.000000 0.000000 -0.771801
  4   22.146629 -0.000001 0.000000 -0.039786 -0.001114 0.507100
  5   3.310129 5.734393 0.000000 0.000000 0.000000 1.570796
  6   0.000008 -0.000006 -5.615750 -3.124618 6.280785 1.376507
  7   15.693467 0.000000 0.000000 0.000000 0.000000 -0.613918
  8   22.146629 0.000000 0.000000 0.017600 0.019709 -0.142036
  9   3.310129 5.734393 0.000000 0.000000 0.000000 1.570796
 10   1.384163 -0.004728 -0.066406 -0.146389 -0.097410 -0.266919
 11   5.939814 -0.004730 0.000000 0.000000 0.000000 0.101003
 12   5.939809 -0.003975 0.000000 0.000000 0.000000 0.041464
 13   4.991439 -0.003975 0.000000 0.000000 0.000000 0.118119
 14   4.991436 -0.001575 0.000000 0.000000 0.000000 -0.018914
 15   0.000005 0.001564 3.638375 -0.000010 -1.283664 3.159693
 16   8.842831 0.000000 -0.000002 -0.066754 0.675317 -0.541139
 17   9.341934 0.000000 -0.000001 0.000000 0.000000 -1.344273
 18   11.168404 -0.000001 0.000002 -2.015103 0.102404 0.075366
 19   0.000005 0.001585 -3.638375 -0.000010 1.283575 3.159674
 20   8.842831 0.000000 0.000001 -0.371038 -0.864603 0.302525
 21   9.341937 0.000000 -0.000001 0.000000 0.000000 -1.829137
 22   11.168404 -0.000001 0.000001 1.378891 0.128675 0.458160
 23   1.977383 0.000000 0.000000 0.197229 0.134911 0.343258
 24   3.723980 2.768054 -0.049087 0.000001 -3.141591 -1.570794
 25   12.421014 0.304721 4.492689 -0.091859 -0.075839 1.616818
 26   19.916998 1.704573 4.956909 2.262592 1.451744 0.734330
time 18
  0   4.233728 -23.660624 28.865330 -0.018741 -0.237481 -1.570077
  1   -0.526041 0.000001 9.745319 -0.000032 -1.620790 -1.570770
  2   -0.000008 0.000010 5.615750 -0.178121 3.270673 -0.059094
  3   15.693467 0.000000 0.000000 0.000000 0.000000 -0.807583
  4   22.146629 -0.000001 0.000000 -0.034775 -0.003888 0.505454
  5   3.310129 5.734393 0.000000 0.000000 0.000000 1.570796
  6   0.000008 -0.000006 -5.615750 -3.108415 6.281361 1.138126
  7   15.693467 0.000000 0.000000 0.000000 0.000000 -1.427539
  8   22.146629 0.000000 0.000000 0.042138 0.012894 0.267435
  9   3.310129 5.734393 0.000000 0.000000 0.000000 1.570796
 10   1.384163 -0.004728 -0.066406 -0.161603 -0.088125 -0.256848
 11   5.939814 -0.004730 0.000000 0.000000 0.000000 0.093622
 12   5.939809 -0.003975 0.000000 0.000000 0.000000 0.038053
 13   4.991439 -0.003975 0.000000 0.000000 0.000000 0.108516
 14   4.991436 -0.001575 0.000000 0.000000 0.000000 -0.018793
 15   0.000005 0.001564 3.638375 -0.000010 -1.283700 3.159598
 16   8.842831 0.000000 -0.000002 -0.100954 0.643037 -0.581525
 17   9.341934 0.000000 -0.000001 0.000000 0.000000 -1.309257
 18   11.168404 -0.000001 0.000002 -2.173257 0.162697 0.085047
 19   0.000005 0.001585 -3.638375 -0.000010 1.283575 3.159578
 20   8.842831 0.000000 0.000001 -0.381439 -0.897446 0.251151
 21   9.341937 0.000000 -0.000001 0.000000 0.000000 -1.794963
 22   11.168404 -0.000001 0.000001 1.403874 0.129898 0.477526
 23   1.977383 0.000000 0.000000 0.268911 0.108769 0.333317
 24   3.723980 2.768054 -0.049087 0.000001 -3.141591 -1.570794
 25   12.421014 0.304721 4.492689 -0.091859 -0.075839 1.616818
 26   19.916998 1.704573 4.956909 2.262592 1.451744 0.734330
time 19
  0   4.015186 -22.561756 28.630089 -0.013706 -0.215692 -1.606318
  1   -0.526041 0.000001 9.745319 -0.000032 -1.620790 -1.570770
  2   -0.000008 0.000010 5.615750 -0.212729 3.288785 -0.117777
  3   15.693467 0.000000 0.000000 0.000000 0.000000 -0.843792
  4   22.146629 -0.000001 0.000000 -0.027484 -0.005969 0.501109
  5   3.310129 5.734393 0.000000 0.000000 0.000000 1.570796
  6   0.000008 -0.000006 -5.615750 -3.116373 6.279059 1.312196
  7   15.693467 0.000000 0.000000 0.000000 0.000000 -1.617043
  8   22.146629 0.000000 0.000000 0.025497 0.021674 0.420161
  9   3.310129 5.734393 0.000000 0.000000 0.000000 1.570796
 10   1.384163 -0.004728 -0.066406 -0.178028 -0.079055 -0.240171
 11   5.939814 -0.004730 0.000000 0.000000 0.000000 0.086088
 12   5.939809 -0.003975 0.000000 0.000000 0.000000 0.034717
 13   4.991439 -0.003975 0.000000 0.000000 0.000000 0.099097
 14   4.991436 -0.001575 0.000000 0.000000 0.000000 -0.018673
 15   0.000005 0.001564 3.638375 -0.000010 -1.283772 3.159502
 16   8.842831 0.000000 -0.000002 -0.138538 0.602758 -0.623703
 17   9.341934 0.000000 -0.000001 0.000000 0.000000 -1.273258
 18   11.168404 -0.000001 0.000002 -2.336856 0.225287 0.084801
 19   0.000005 0.001585 -3.638375 -0.000010 1.283575 3.159482
 20   8.842831 0.000000 0.000001 -0.373134 -0.936575 0.170134
 21   9.341937 0.000000 -0.000001 0.000000 0.000000 -1.753326
 22   11.168404 -0.000001 0.000001 1.436594 0.128422 0.493226
 23   1.977383 0.000000 0.000000 0.338160 0.085053 0.316467
 24   3.723980 2.768054 -0.049087 0.000001 -3.141591 -1.570794
 25   12.421014 0.304721 4.492689 -0.091859 -0.075839 1.616818
 26   19.916998 1.704573 4.956909 2.262592 1.451744 0.734330
time 20
  0   3.796643 -21.484022 28.434055 -0.009044 -0.194859 -1.643806
  1   -0.526041 0.000001 9.745319 -0.000032 -1.620790 -1.570770
  2   -0.000008 0.000010 5.615750 -0.241777 3.306993 -0.171395
  3   15.693467 0.000000 0.000000 0.000000 0.000000 -0.873527
  4   22.146629 -0.000001 0.000000 -0.019182 -0.007776 0.493928
  5   3.310129 5.734393 0.000000 0.000000 0.000000 1.570796
  6   0.000008 -0.000006 -5.615750 -3.130371 6.277621 1.557310
  7   15.693467 0.000000 0.000000 0.000000 0.000000 -1.696835
  8   22.146629 0.000000 0.000000 0.003836 0.030976 0.468780
  9   3.310129 5.734393 0.000000 0.000000 0.000000 1.570796
 10   1.384163 -0.004728 -0.066406 -0.195363 -0.069958 -0.217923
 11   5.939814 -0.004730 0.000000 0.000000 0.000000 0.078420
 12   5.939809 -0.003975 0.000000 0.000000 0.000000 0.031457
 13   4.991439 -0.003975 0.000000 0.000000 0.000000 0.089847
 14   4.991436 -0.001575 0.000000 0.000000 0.000000 -0.018583
 15   0.000005 0.001564 3.638375 -0.000010 -1.283809 3.159406
 16   8.842831 0.000000 -0.000002 -0.177218 0.555036 -0.665507
 17   9.341934 0.000000 -0.000001 0.000000 0.000000 -1.236356
 18   11.168404 -0.000001 0.000002 -2.506661 0.288260 0.073598
 19   0.000005 0.001585 -3.638375 -0.000010 1.283575 3.159386
 20   8.842831 0.000000 0.000001 -0.337982 -0.980396 0.056140
 21   9.341937 0.000000 -0.000001 0.000000 0.000000 -1.705895
 22   11.168404 -0.000001 0.000001 1.472484 0.125471 0.507327
 23   1.977383 0.000000 0.000000 0.396943 0.067225 0.291416
 24   3.723980 2.768054 -0.049087 0.000001 -3.141591 -1.570794
 25   12.421014 0.304721 4.492689 -0.091859 -0.075839 1.616818
 26   19.916998 1.704573 4.956909 2.262592 1.451744 0.734330
time 21
  0   3.563028 -20.518991 28.296831 -0.004942 -0.174790 -1.682156
  1   -0.526041 0.000001 9.745319 -0.000032 -1.620790 -1.570770
  2   -0.000008 0.000010 5.615750 -0.262292 3.321750 -0.214881
  3   15.693467 0.000000 0.000000 0.000000 0.000000 -0.891596
  4   22.146629 -0.000001 0.000000 -0.010956 -0.009956 0.484690
  5   3.310129 5.734393 0.000000 0.000000 0.000000 1.570796
  6   0.000008 -0.000006 -5.615750 -0.003355 3.148494 -1.393601
  7   15.693467 0.000000 0.000000 0.000000 0.000000 -1.885595
  8   22.146629 0.000000 0.000000 -0.010887 0.041261 0.421570
  9   3.310129 5.734393 0.000000 0.000000 0.000000 1.570796
 10   1.384163 -0.004728 -0.066406 -0.213371 -0.060620 -0.191142
 11   5.939814 -0.004730 0.000000 0.000000 0.000000 0.070676
 12   5.939809 -0.003975 0.000000 0.000000 0.000000 0.028259
 13   4.991439 -0.003975 0.000000 0.000000 0.000000 0.080748
 14   4.991436 -0.001575 0.000000 0.000000 0.000000 -0.018493
 15   0.000005 0.001564 3.638375 -0.000010 -1.283845 3.159310
 16   8.842831 0.000000 -0.000002 -0.215168 0.500431 -0.705370
 17   9.341934 0.000000 -0.000001 0.000000 0.000000 -1.198799
 18   11.168404 -0.000001 0.000002 -2.683821 0.349510 0.050552
 19   0.000005 0.001585 -3.638375 -0.000010 1.283575 3.159290
 20   8.842831 0.000000 0.000001 -0.265016 -1.025456 -0.097124
 21   9.341937 0.000000 -0.000001 0.000000 0.000000 -1.654266
 22   11.168404 -0.000001 0.000001 1.507628 0.122225 0.521711
 23   1.977383 0.000000 0.000000 0.443938 0.049766 0.257567
 24   3.723980 2.768054 -0.049087 0.000001 -3.141591 -1.570794
 25   12.421014 0.304721 4.492689 -0.091859 -0.075839 1.616818
 26   19.916998 1.704573 4.956909 2.262592 1.451744 0.734330
time 22
  0   3.291734 -19.828678 28.218418 -0.001399 -0.155295 -1.721274
  1   -0.526041 0.000001 9.745319 -0.000032 -1.620790 -1.570770
  2   -0.000008 0.000010 5.615750 -0.275905 3.332675 -0.243554
  3   15.693467 0.000000 0.000000 0.000000 0.000000 -0.898141
  4   22.146629 -0.000001 0.000000 -0.001982 -0.014463 0.478424
  5   3.310129 5.734393 0.000000 0.000000 0.000000 1.570796
  6   0.000008 -0.000006 -5.615750 -0.019174 3.147823 -1.206136
  7   15.693467 0.000000 0.000000 0.000000 0.000000 -2.077408
  8   22.146629 0.000000 0.000000 -0.030687 0.047647 0.327240
  9   3.310129 5.734393 0.000000 0.000000 0.000000 1.570796
 10   1.384163 -0.004728 -0.066406 -0.231782 -0.050906 -0.160798
 11   5.939814 -0.004730 0.000000 0.000000 0.000000 0.062855
 12   5.939809 -0.003975 0.000000 0.000000 0.000000 0.025098
 13   4.991439 -0.003975 0.000000 0.000000 0.000000 0.071733
 14   4.991436 -0.001575 0.000000 0.000000 0.000000 -0.018403
 15   0.000005 0.001564 3.638375 -0.000010 -1.283881 3.159118
 16   8.842831 0.000000 -0.000002 -0.251196 0.439872 -0.742322
 17   9.341934 0.000000 -0.000001 0.000000 0.000000 -1.160586
 18   11.168404 -0.000001 0.000002 -2.869099 0.406549 0.015025
 19   0.000005 0.001585 -3.638375 -0.000010 1.283575 3.159099
 20   8.842831 0.000000 0.000001 -0.141981 -1.065382 -0.297568
 21   9.341937 0.000000 -0.000001 0.000000 0.000000 -1.600239
 22   11.168404 -0.000001 0.000001 1.537551 0.119948 0.538350
 23   1.977383 0.000000 0.000000 0.485223 0.028820 0.217306
 24   3.723980 2.768054 -0.049087 0.000001 -3.141591 -1.570794
 25   12.421014 0.304721 4.492689 -0.091859 -0.075839 1.616818
 26   19.916998 1.704573 4.956909 2.262592 1.451744 0.734330
time 23
  0   2.975224 -19.039749 28.159609 0.001399 -0.136277 -1.760967
  1   -0.526041 0.000001 9.745319 -0.000032 -1.620790 -1.570770
  2   -0.000008 0.000010 5.615750 -0.283958 3.344749 -0.274425
  3   15.693467 0.000000 0.000000 0.000000 0.000000 -0.903832
  4   22.146629 -0.000001 0.000000 0.009124 -0.020407 0.468545
  5   3.310129 5.734393 0.000000 0.000000 0.000000 1.570796
  6   0.000008 -0.000006 -5.615750 -0.034227 3.142646 -0.991740
  7   15.693467 0.000000 0.000000 0.000000 0.000000 -2.135167
  8   22.146629 0.000000 0.000000 -0.050261 0.048629 0.243302
  9   3.310129 5.734393 0.000000 0.000000 0.000000 1.570796
 10   1.384163 -0.004728 -0.066406 -0.250329 -0.040628 -0.127961
 11   5.939814 -0.004730 0.000000 0.000000 0.000000 0.054976
 12   5.939809 -0.003975 0.000000 0.000000 0.000000 0.021975
 13   4.991439 -0.003975 0.000000 0.000000 0.000000 0.062802
 14   4.991436 -0.001575 0.000000 0.000000 0.000000 -0.018282
 15   0.000005 0.001564 3.638375 -0.000010 -1.283954 3.159022
 16   8.842831 0.000000 -0.000002 -0.284299 0.374476 -0.775616
 17   9.341934 0.000000 -0.000001 0.000000 0.000000 -1.121962
 18   11.168404 -0.000001 0.000002 -3.062972 0.456794 -0.032933
 19   0.000005 0.001585 -3.638375 -0.000010 1.283575 3.159003
 20   8.842831 0.000000 0.000001 0.040716 -1.090081 -0.559394
 21   9.341937 0.000000 -0.000001 0.000000 0.000000 -1.540683
 22   11.168404 -0.000001 0.000001 1.565517 0.117756 0.555930
 23   1.977383 0.000000 0.000000 0.523390 0.009976 0.174262
 24   3.723980 2.768054 -0.049087 0.000001 -3.141591 -1.570794
 25   12.421014 0.304721 4.492689 -0.091859 -0.075839 1.616818
 26   19.916998 1.704573 4.956909 2.262592 1.451744 0.734330
time 24
  0   2.613497 -17.412580 28.120401 0.003729 -0.117355 -1.800852
  1   -0.526041 0.000001 9.745319 -0.000032 -1.620790 -1.570770
  2   -0.000008 0.000010 5.615750 -0.282328 3.363244 -0.332630
  3   15.693467 0.000000 0.000000 0.000000 0.000000 -0.915214
  4   22.146629 -0.000001 0.000000 0.021576 -0.025757 0.436849
  5   3.310129 5.734393 0.000000 0.000000 0.000000 1.570796
  6   0.000008 -0.000006 -5.615750 -0.054073 3.136030 -0.671863
  7   15.693467 0.000000 0.000000 0.000000 0.000000 -1.827240
  8   22.146629 0.000000 0.000000 -0.066901 0.057685 0.185259
  9   3.310129 5.734393 0.000000 0.000000 0.000000 1.570796
 10   1.384163 -0.004728 -0.066406 -0.268808 -0.029787 -0.093635
 11   5.939814 -0.004730 0.000000 0.000000 0.000000 0.047060
 12   5.939809 -0.003975 0.000000 0.000000 0.000000 0.018877
 13   4.991439 -0.003975 0.000000 0.000000 0.000000 0.053905
 14   4.991436 -0.001575 0.000000 0.000000 0.000000 -0.018162
 15   0.000005 0.001564 3.638375 -0.000010 -1.283990 3.158926
 16   8.842831 0.000000 -0.000002 -0.314018 0.305452 -0.805177
 17   9.341934 0.000000 -0.000001 0.000000 0.000000 -1.083092
 18   11.168404 -0.000001 0.000002 -3.265153 0.497755 -0.092488
 19   0.000005 0.001585 -3.638375 -0.000010 1.283575 3.158907
 20   8.842831 0.000000 0.000001 0.266789 -1.085389 -0.872594
 21   9.341937 0.000000 -0.000001 0.000000 0.000000 -1.472533
 22   11.168404 -0.000001 0.000001 1.596653 0.114130 0.571817
 23   1.977383 0.000000 0.000000 0.560605 -0.001339 0.132808
 24   3.723980 2.768054 -0.049087 0.000001 -3.141591 -1.570794
 25   12.421014 0.304721 4.492689 -0.091859 -0.075839 1.616818
 26   19.916998 1.704573 4.956909 2.262592 1.451744 0.734330
time 25
  0   2.214092 -14.940131 28.081194 0.005315 -0.098624 -1.840832
  1   -0.526041 0.000001 9.745319 -0.000032 -1.620790 -1.570770
  2   -0.000008 0.000010 5.615750 -0.269674 3.387585 -0.412626
  3   15.693467 0.000000 0.000000 0.000000 0.000000 -0.921332
  4   22.146629 -0.000001 0.000000 0.034027 -0.032741 0.378535
  5   3.310129 5.734393 0.000000 0.000000 0.000000 1.570796
  6   0.000008 -0.000006 -5.615750 -0.051389 3.112829 -0.394558
  7   15.693467 0.000000 0.000000 0.000000 0.000000 -1.421956
  8   22.146629 0.000000 0.000000 -0.050938 0.075369 0.170726
  9   3.310129 5.734393 0.000000 0.000000 0.000000 1.570796
 10   1.384163 -0.004728 -0.066406 -0.287017 -0.018302 -0.058855
 11   5.939814 -0.004730 0.000000 0.000000 0.000000 0.039124
 12   5.939809 -0.003975 0.000000 0.000000 0.000000 0.015778
 13   4.991439 -0.003975 0.000000 0.000000 0.000000 0.045041
 14   4.991436 -0.001575 0.000000 0.000000 0.000000 -0.018042
 15   0.000005 0.001564 3.638375 -0.000010 -1.284026 3.158831
 16   8.842831 0.000000 -0.000002 -0.340080 0.234009 -0.830932
 17   9.341934 0.000000 -0.000001 0.000000 0.000000 -1.044059
 18   11.168404 -0.000001 0.000002 -3.474307 0.527136 -0.161674
 19   0.000005 0.001585 -3.638375 -0.000010 1.283575 3.158811
 20   8.842831 0.000000 0.000001 0.489799 -1.042984 -1.189892
 21   9.341937 0.000000 -0.000001 0.000000 0.000000 -1.397854
 22   11.168404 -0.000001 0.000001 1.630118 0.109323 0.586295
 23   1.977383 0.000000 0.000000 0.598666 -0.000115 0.097717
 24   3.723980 2.768054 -0.049087 0.000001 -3.141591 -1.570794
 25   12.421014 0.304721 4.492689 -0.091859 -0.075839 1.616818
 26   19.916998 1.704573 4.956909 2.262592 1.451744 0.734330
time 26
  0   1.799614 -12.164789 28.081194 0.006060 -0.079702 -1.880621
  1   -0.526041 0.000001 9.745319 -0.000032 -1.620790 -1.570770
  2   -0.000008 0.000010 5.615750 -0.250213 3.413459 -0.489660
  3   15.693467 0.000000 0.000000 0.000000 0.000000 -0.908385
  4   22.146629 -0.000001 0.000000 0.046516 -0.044678 0.304168
  5   3.310129 5.734393 0.000000 0.000000 0.000000 1.570796
  6   0.000008 -0.000006 -5.615750 -0.012751 3.077547 -0.261446
  7   15.693467 0.000000 0.000000 0.000000 0.000000 -1.187718
  8   22.146629 0.000000 0.000000 -0.006036 0.099591 0.206926
  9   3.310129 5.734393 0.000000 0.000000 0.000000 1.570796
 10   1.384163 -0.004728 -0.066406 -0.304756 -0.006200 -0.024625
 11   5.939814 -0.004730 0.000000 0.000000 0.000000 0.031207
 12   5.939809 -0.003975 0.000000 0.000000 0.000000 0.012680
 13   4.991439 -0.003975 0.000000 0.000000 0.000000 0.036161
 14   4.991436 -0.001575 0.000000 0.000000 0.000000 -0.017921
 15   0.000005 0.001564 3.638375 -0.000010 -1.284063 3.158735
 16   8.842831 0.000000 -0.000002 -0.362392 0.161636 -0.853177
 17   9.341934 0.000000 -0.000001 0.000000 0.000000 -1.005107
 18   11.168404 -0.000001 0.000002 -3.687949 0.543118 -0.237346
 19   0.000005 0.001585 -3.638375 -0.000010 1.283575 3.158715
 20   8.842831 0.000000 0.000001 0.669513 -0.966497 -1.470304
 21   9.341937 0.000000 -0.000001 0.000000 0.000000 -1.318579
 22   11.168404 -0.000001 0.000001 1.665169 0.103505 0.599644
 23   1.977383 0.000000 0.000000 0.639369 0.018313 0.074505
 24   3.723980 2.768054 -0.049087 0.000001 -3.141591 -1.570794
 25   12.421014 0.304721 4.492689 -0.091859 -0.075839 1.616818
 26   19.916998 1.704573 4.956909 2.262592 1.451744 0.734330
time 27
  0   1.370065 -9.171082 28.061592 0.006060 -0.060589 -1.919931
  1   -0.526041 0.000001 9.745319 -0.000032 -1.620790 -1.570770
  2   -0.000008 0.000010 5.615750 -0.227205 3.440004 -0.555606
  3   15.693467 0.000000 0.000000 0.000000 0.000000 -0.869401
  4   22.146629 -0.000001 0.000000 0.059791 -0.062608 0.215302
  5   3.310129 5.734393 0.000000 0.000000 0.000000 1.570796
  6   0.000008 -0.000006 -5.615750 0.037681 3.043129 -0.158912
  7   15.693467 0.000000 0.000000 0.000000 0.000000 -0.977372
  8   22.146629 0.000000 0.000000 0.047835 0.130660 0.258187
  9   3.310129 5.734393 0.000000 0.000000 0.000000 1.570796
 10   1.384163 -0.004728 -0.066406 -0.321855 0.006412 0.008018
 11   5.939814 -0.004730 0.000000 0.000000 0.000000 0.023310
 12   5.939809 -0.003975 0.000000 0.000000 0.000000 0.009569
 13   4.991439 -0.003975 0.000000 0.000000 0.000000 0.027247
 14   4.991436 -0.001575 0.000000 0.000000 0.000000 -0.017801
 15   0.000005 0.001564 3.638375 -0.000010 -1.284135 3.158543
 16   8.842831 0.000000 -0.000002 -0.381047 0.089543 -0.872213
 17   9.341934 0.000000 -0.000001 0.000000 0.000000 -0.966402
 18   11.168404 -0.000001 0.000002 -3.902546 0.544937 -0.315229
 19   0.000005 0.001585 -3.638375 -0.000010 1.283575 3.158523
 20   8.842831 0.000000 0.000001 0.795531 -0.866993 -1.702487
 21   9.341937 0.000000 -0.000001 0.000000 0.000000 -1.236639
 22   11.168404 -0.000001 0.000001 1.701152 0.096971 0.612335
 23   1.977383 0.000000 0.000000 0.682769 0.066509 0.076741
 24   3.723980 2.768054 -0.049087 0.000001 -3.141591 -1.570794
 25   12.421014 0.304721 4.492689 -0.091859 -0.075839 1.616818
 26   19.916998 1.704573 4.956909 2.262592 1.451744 0.734330
time 28
  0   0.932979 -6.078760 28.061592 0.005035 -0.040998 -1.958665
  1   -0.526041 0.000001 9.745319 -0.000032 -1.620790 -1.570770
  2   -0.000008 0.000010 5.615750 -0.205347 3.467027 -0.602438
  3   15.693467 0.000000 0.000000 0.000000 0.000000 -0.798691
  4   22.146629 -0.000001 0.000000 0.075159 -0.086383 0.113675
  5   3.310129 5.734393 0.000000 0.000000 0.000000 1.570796
  6   0.000008 -0.000006 -5.615750 0.095590 3.011203 -0.072718
  7   15.693467 0.000000 0.000000 0.000000 0.000000 -0.780796
  8   22.146629 0.000000 0.000000 0.111634 0.167285 0.318432
  9   3.310129 5.734393 0.000000 0.000000 0.000000 1.570796
 10   1.384163 -0.004728 -0.066406 -0.338180 0.019481 0.038102
 11   5.939814 -0.004730 0.000000 0.000000 0.000000 0.015451
 12   5.939809 -0.003975 0.000000 0.000000 0.000000 0.006421
 13   4.991439 -0.003975 0.000000 0.000000 0.000000 0.018265
 14   4.991436 -0.001575 0.000000 0.000000 0.000000 -0.017681
 15   0.000005 0.001564 3.638375 -0.000010 -1.284171 3.158447
 16   8.842831 0.000000 -0.000002 -0.396044 0.019216 -0.888487
 17   9.341934 0.000000 -0.000001 0.000000 0.000000 -0.928024
 18   11.168404 -0.000001 0.000002 -4.114183 0.532687 -0.390950
 19   0.000005 0.001585 -3.638375 -0.000010 1.283575 3.158427
 20   8.842831 0.000000 0.000001 0.876478 -0.756423 -1.894162
 21   9.341937 0.000000 -0.000001 0.000000 0.000000 -1.154100
 22   11.168404 -0.000001 0.000001 1.737228 0.089888 0.624650
 23   1.977383 0.000000 0.000000 0.729235 0.140846 0.108006
 24   3.723980 2.768054 -0.049087 0.000001 -3.141591 -1.570794
 25   12.421014 0.304721 4.492689 -0.091859 -0.075839 1.616818
 26   19.916998 1.704573 4.956909 2.262592 1.451744 0.734330
time 29
  0   0.503430 -2.986437 28.041988 0.003077 -0.020833 -1.996536
  1   -0.526041 0.000001 9.745319 -0.000032 -1.620790 -1.570770
  2   -0.000008 0.000010 5.615750 -0.191159 3.494530 -0.622127
  3   15.693467 0.000000 0.000000 0.000000 0.000000 -0.690207
  4   22.146629 -0.000001 0.000000 0.093556 -0.114542 0.000386
  5   3.310129 5.734393 0.000000 0.000000 0.000000 1.570796
  6   0.000008 -0.000006 -5.615750 0.157335 2.983591 0.011020
  7   15.693467 0.000000 0.000000 0.000000 0.000000 -0.587644
  8   22.146629 0.000000 0.000000 0.186771 0.206827 0.381847
  9   3.310129 5.734393 0.000000 0.000000 0.000000 1.570796
 10   1.384163 -0.004728 -0.066406 -0.353663 0.032844 0.064657
 11   5.939814 -0.004730 0.000000 0.000000 0.000000 0.007687
 12   5.939809 -0.003975 0.000000 0.000000 0.000000 0.003236
 13   4.991439 -0.003975 0.000000 0.000000 0.000000 0.009200
 14   4.991436 -0.001575 0.000000 0.000000 0.000000 -0.017561
 15   0.000005 0.001564 3.638375 -0.000010 -1.284208 3.158351
 16   8.842831 0.000000 -0.000002 -0.407291 -0.048040 -0.902521
 17   9.341934 0.000000 -0.000001 0.000000 0.000000 -0.890221
 18   11.168404 -0.000001 0.000002 -4.319421 0.507612 -0.460480
 19   0.000005 0.001585 -3.638375 -0.000010 1.283575 3.158332
 20   8.842831 0.000000 0.000001 0.925418 -0.644702 -2.056385
 21   9.341937 0.000000 -0.000001 0.000000 0.000000 -1.072826
 22   11.168404 -0.000001 0.000001 1.772745 0.082552 0.636872
 23   1.977383 0.000000 0.000000 0.780670 0.222527 0.157909
 24   3.723980 2.768054 -0.049087 0.000001 -3.141591 -1.570794
 25   12.421014 0.304721 4.492689 -0.091859 -0.075839 1.616818
 26   19.916998 1.704573 4.956909 2.262592 1.451744 0.734330
time 30
  0   0.073880 -0.006819 28.041988 0.000000 0.000000 -2.033353
  1   -0.526041 0.000001 9.745319 -0.000032 -1.620790 -1.570770
  2   -0.000008 0.000010 5.615750 -0.192980 3.520979 -0.603967
  3   15.693467 0.000000 0.000000 0.000000 0.000000 -0.532567
  4   22.146629 -0.000001 0.000000 0.115281 -0.144880 -0.126761
  5   3.310129 5.734393 0.000000 0.000000 0.000000 1.570796
  6   0.000008 -0.000006 -5.615750 0.219463 2.963170 0.105770
  7   15.693467 0.000000 0.000000 0.000000 0.000000 -0.387570
  8   22.146629 0.000000 0.000000 0.274093 0.245478 0.443061
  9   3.310129 5.734393 0.000000 0.000000 0.000000 1.570796
 10   1.384163 -0.004728 -0.066406 -0.368237 0.046315 0.086645
 11   5.939814 -0.004730 0.000000 0.000000 0.000000 0.000000
 12   5.939809 -0.003975 0.000000 0.000000 0.000000 0.000000
 13   4.991439 -0.003975 0.000000 0.000000 0.000000 0.000000
 14   4.991436 -0.001575 0.000000 0.000000 0.000000 -0.017440
 15   0.000005 0.001564 3.638375 -0.000010 -1.284244 3.158255
 16   8.842831 0.000000 -0.000002 -0.414972 -0.110832 -0.914689
 17   9.341934 0.000000 -0.000001 0.000000 0.000000 -0.853073
 18   11.168404 -0.000001 0.000002 -4.515872 0.471532 -0.520821
 19   0.000005 0.001585 -3.638375 -0.000010 1.283575 3.158236
 20   8.842831 0.000000 0.000001 0.953234 -0.539532 -2.197735
 21   9.341937 0.000000 -0.000001 0.000000 0.000000 -0.994883
 22   11.168404 -0.000001 0.000001 1.806863 0.075089 0.649563
 23   1.977383 0.000000 0.000000 0.835700 0.294324 0.213529
 24   3.723980 2.768054 -0.049087 0.000001 -3.141591 -1.570794
 25   12.421014 0.304721 4.492689 -0.091859 -0.075839 1.616818
 26   19.916998 1.704573 4.956909 2.262592 1.451744 0.734330
end
