version 1
nodes
  0 "Bip01" -1
  1 "Bip01 Pelvis" 0
  2 "Bip01 L Thigh" 1
  3 "Bip01 L Calf" 2
  4 "Bip01 L Foot" 3
  5 "Bip01 R Thigh" 1
  6 "Bip01 R Calf" 5
  7 "Bip01 R Foot" 6
  8 "Bip01 Spine" 1
  9 "Bip01 Spine1" 8
 10 "Bip01 Neck" 9
 11 "Bip01 L Clavicle" 10
 12 "Bip01 L UpperArm" 11
 13 "Bip01 L Forearm" 12
 14 "Bip01 L Hand" 13
 15 "Bip01 L Finger0" 14
 16 "Bip01 L Finger01" 15
 17 "Bip01 L Finger02" 16
 18 "Bip01 L Finger1" 14
 19 "Bip01 L Finger11" 18
 20 "Bip01 L Finger12" 19
 21 "Bip01 L Finger2" 14
 22 "Bip01 L Finger21" 21
 23 "Bip01 L Finger22" 22
 24 "Bip01 R Clavicle" 10
 25 "Bip01 R UpperArm" 24
 26 "Bip01 R Forearm" 25
 27 "Bip01 R Hand" 26
 28 "Bip01 R Finger0" 27
 29 "Bip01 R Finger01" 28
 30 "Bip01 R Finger02" 29
 31 "Bip01 R Finger1" 27
 32 "Bip01 R Finger11" 31
 33 "Bip01 R Finger12" 32
 34 "Bip01 R Finger2" 27
 35 "Bip01 R Finger21" 34
 36 "Bip01 R Finger22" 35
 37 "Bip01 Head" 10
 38 "Bone05" 37
 39 "Bone08" 9
 40 "Bone16" 8
 41 "Bone01" 8
 42 "Bone03" 1
 43 "Bip01 R Finger4" 27
end
skeleton
time 0
  0   113.408173 57.580654 4.666106 0.000000 -1.517620 -1.570843
  1   -0.245774 0.000000 0.000000 -1.570795 -1.570451 0.000000
  2   -0.000007 0.000008 4.427393 -0.375084 -3.074068 -0.059613
  3   18.465939 0.000000 0.000000 0.000000 0.000000 -0.113673
  4   14.875443 0.000000 -0.000001 -0.393678 -0.206918 -0.163856
  5   0.000006 -0.000004 -4.427393 0.407592 3.005358 -0.042919
  6   18.465939 0.000000 0.000000 0.000000 0.000000 -0.075275
  7   14.875442 0.000000 0.000000 0.533714 0.298814 -0.238832
  8   2.255207 -0.007574 0.000003 -0.000004 -0.000001 0.000796
  9   9.514219 -0.009357 0.000000 0.000000 0.000000 0.000000
 10   11.751820 -0.001633 0.000000 0.000000 -0.000001 -0.135648
 11   -2.144841 -0.363945 2.649729 0.088019 -1.370041 3.190190
 12   4.640941 0.000000 -0.000001 0.041459 0.894752 0.425399
 13   10.828049 0.000000 0.000000 0.000000 0.000000 -0.264475
 14   9.393337 -0.000001 0.000000 -1.875026 0.034172 0.000037
 15   1.442245 0.107454 -1.746177 1.686435 0.539209 0.325885
 16   1.063452 0.000000 0.000001 0.000000 0.000000 0.199056
 17   1.376307 -0.000001 0.000001 0.000000 0.000000 0.199049
 18   4.172846 -0.251366 -1.312744 0.008050 0.095731 0.148659
 19   1.215374 0.000002 0.000000 0.000000 0.000000 0.645758
 20   1.215371 -0.000002 0.000001 0.000000 0.000000 0.645758
 21   4.220534 -0.244854 -0.431465 0.001333 0.026242 0.148339
 22   1.350417 0.000000 0.000001 0.000000 0.000000 0.863926
 23   1.350410 -0.000001 -0.000001 0.000000 0.000000 0.863926
 24   -2.144841 -0.363932 -2.649726 -0.673276 1.317104 2.618984
 25   4.640942 0.000000 0.000001 -0.935496 -0.523934 0.464238
 26   10.828047 0.000000 0.000001 0.000000 0.000000 -0.343111
 27   9.393339 0.000000 0.000000 1.009049 0.215890 -0.099948
 28   1.442245 0.107455 1.746178 -1.686405 -0.539236 0.325898
 29   1.063450 -0.000001 0.000000 0.000000 0.000000 0.199056
 30   1.376307 0.000000 0.000000 0.000000 0.000000 0.199059
 31   4.172847 -0.251365 1.312745 -0.008050 -0.095731 0.148659
 32   1.215373 -0.000001 0.000000 0.000000 0.000000 0.645746
 33   1.215372 0.000000 0.000000 0.000000 0.000000 0.645746
 34   4.220534 -0.244853 0.431466 -0.001333 -0.026242 0.148339
 35   1.350416 0.000000 -0.000001 0.000000 0.000000 0.863937
 36   1.350410 0.000000 0.000001 0.000000 0.000000 0.863925
 37   2.110540 -0.000001 0.000000 0.349047 0.000000 -0.135348
 38   0.891923 2.373051 -0.014527 -3.141592 -0.000001 1.413797
 39   7.228122 5.709445 3.726568 3.140796 -1.570796 0.000000
 40   2.450426 5.076128 0.001325 3.140791 -1.570796 0.000000
 41   6.312404 -4.528058 0.001311 3.140791 -1.570796 0.000000
 42   2.233309 1.152535 -7.309138 -1.442519 -1.649317 -0.215607
 43   4.262825 -0.232720 -1.392178 0.016840 0.076668 0.253759
time 1
  0   113.408173 57.580654 4.666106 0.000000 -1.517620 -1.570843
  1   -0.245774 0.000000 0.000000 -1.570795 -1.570451 0.000000
  2   -0.000007 0.000008 4.427393 -0.375084 -3.074068 -0.059613
  3   18.465939 0.000000 0.000000 0.000000 0.000000 -0.113673
  4   14.875443 0.000000 -0.000001 -0.393678 -0.206918 -0.163856
  5   0.000006 -0.000004 -4.427393 0.407592 3.005358 -0.042919
  6   18.465939 0.000000 0.000000 0.000000 0.000000 -0.075275
  7   14.875442 0.000000 0.000000 0.533714 0.298814 -0.238832
  8   2.255207 -0.007574 0.000003 -0.000004 -0.000001 0.000796
  9   9.514219 -0.009357 0.000000 0.000000 0.000000 0.000000
 10   11.751820 -0.001633 0.000000 0.000000 -0.000001 -0.135648
 11   -2.144841 -0.363945 2.649729 0.088019 -1.370041 3.190190
 12   4.640941 0.000000 -0.000001 0.041459 0.894752 0.425399
 13   10.828049 0.000000 0.000000 0.000000 0.000000 -0.264475
 14   9.393337 -0.000001 0.000000 -1.875026 0.034172 0.000037
 15   1.442245 0.107454 -1.746177 1.686435 0.539209 0.325885
 16   1.063452 0.000000 0.000001 0.000000 0.000000 0.199056
 17   1.376307 -0.000001 0.000001 0.000000 0.000000 0.199049
 18   4.172846 -0.251366 -1.312744 0.008050 0.095731 0.148659
 19   1.215374 0.000002 0.000000 0.000000 0.000000 0.645758
 20   1.215371 -0.000002 0.000001 0.000000 0.000000 0.645758
 21   4.220534 -0.244854 -0.431465 0.001333 0.026242 0.148339
 22   1.350417 0.000000 0.000001 0.000000 0.000000 0.863926
 23   1.350410 -0.000001 -0.000001 0.000000 0.000000 0.863926
 24   -2.144841 -0.363932 -2.649726 -0.673276 1.317104 2.618984
 25   4.640942 0.000000 0.000001 -0.935496 -0.523934 0.464238
 26   10.828047 0.000000 0.000001 0.000000 0.000000 -0.343111
 27   9.393339 0.000000 0.000000 1.009049 0.215890 -0.099948
 28   1.442245 0.107455 1.746178 -1.686405 -0.539236 0.325898
 29   1.063450 -0.000001 0.000000 0.000000 0.000000 0.199056
 30   1.376307 0.000000 0.000000 0.000000 0.000000 0.199059
 31   4.172847 -0.251365 1.312745 -0.008050 -0.095731 0.148659
 32   1.215373 -0.000001 0.000000 0.000000 0.000000 0.645746
 33   1.215372 0.000000 0.000000 0.000000 0.000000 0.645746
 34   4.220534 -0.244853 0.431466 -0.001333 -0.026242 0.148339
 35   1.350416 0.000000 -0.000001 0.000000 0.000000 0.863937
 36   1.350410 0.000000 0.000001 0.000000 0.000000 0.863925
 37   2.110540 -0.000001 0.000000 0.349047 0.000000 -0.135348
 38   0.891923 2.373051 -0.014527 -3.141592 -0.000001 1.413797
 39   7.228122 5.709445 3.726568 3.140796 -1.570796 0.000000
 40   2.450426 5.076128 0.001325 3.140791 -1.570796 0.000000
 41   6.312404 -4.528058 0.001311 3.140791 -1.570796 0.000000
 42   2.233309 1.152535 -7.309138 -1.442519 -1.649317 -0.215607
 43   4.262825 -0.232720 -1.392178 0.016840 0.076668 0.253759
end
