version 1
nodes
  0 "Bip01" -1
  1 "Bip01 Pelvis" 0
  2 "Bip01 L Thigh" 1
  3 "Bip01 L Calf" 2
  4 "Bip01 L Foot" 3
  5 "Bip01 R Thigh" 1
  6 "Bip01 R Calf" 5
  7 "Bip01 R Foot" 6
  8 "Bip01 Spine" 1
  9 "Bip01 Spine1" 8
 10 "Bip01 Neck" 9
 11 "Bip01 L Clavicle" 10
 12 "Bip01 L UpperArm" 11
 13 "Bip01 L Forearm" 12
 14 "Bip01 L Hand" 13
 15 "Bip01 L Finger0" 14
 16 "Bip01 L Finger01" 15
 17 "Bip01 L Finger02" 16
 18 "Bip01 L Finger1" 14
 19 "Bip01 L Finger11" 18
 20 "Bip01 L Finger12" 19
 21 "Bip01 L Finger2" 14
 22 "Bip01 L Finger21" 21
 23 "Bip01 L Finger22" 22
 24 "Bip01 R Clavicle" 10
 25 "Bip01 R UpperArm" 24
 26 "Bip01 R Forearm" 25
 27 "Bip01 R Hand" 26
 28 "Bip01 R Finger0" 27
 29 "Bip01 R Finger01" 28
 30 "Bip01 R Finger02" 29
 31 "Bip01 R Finger1" 27
 32 "Bip01 R Finger11" 31
 33 "Bip01 R Finger12" 32
 34 "Bip01 R Finger2" 27
 35 "Bip01 R Finger21" 34
 36 "Bip01 R Finger22" 35
 37 "Bip01 Head" 10
 38 "Bone05" 37
 39 "Bone08" 9
 40 "Bone16" 8
 41 "Bone01" 8
 42 "Bone03" 1
 43 "Bip01 R Finger4" 27
end
skeleton
time 0
  0   1.708652 6.792152 38.370258 0.000000 0.000000 -1.701715
  1   0.164395 -0.125004 0.000000 -1.570795 -1.570451 0.000000
  2   -0.000007 0.000008 4.427393 -0.170796 -3.152960 0.000882
  3   18.465939 0.000000 0.000000 0.000000 0.000000 -0.416557
  4   14.875443 0.000000 -0.000001 0.018451 0.017437 0.402071
  5   0.000006 -0.000004 -4.427393 0.106024 3.095677 -0.362237
  6   18.465939 0.000000 0.000000 0.000000 0.000000 -0.394334
  7   14.875442 0.000000 0.000000 -0.002065 0.005199 0.029344
  8   2.255207 -0.007574 0.000003 0.122100 -0.017403 -0.001322
  9   9.514219 -0.009357 0.000000 -0.008787 0.002361 -0.095902
 10   11.751820 -0.001633 0.000000 0.000024 0.043599 0.439975
 11   -2.117496 0.858748 2.563789 0.697276 -1.395375 2.006330
 12   4.640941 0.000000 -0.000001 0.738474 1.089884 0.724820
 13   10.828049 0.000000 0.000000 0.000000 0.000000 -0.470452
 14   9.393337 -0.000001 0.000000 -1.569611 0.034172 0.000037
 15   1.442245 0.107454 -1.746177 1.686435 0.539209 0.325885
 16   1.063452 0.000000 0.000001 0.000000 0.000000 0.199056
 17   1.376307 -0.000001 0.000001 0.000000 0.000000 0.199049
 18   4.172846 -0.251366 -1.312744 0.008050 0.095731 0.148659
 19   1.215374 0.000002 0.000000 0.000000 0.000000 0.645758
 20   1.215371 -0.000002 0.000001 0.000000 0.000000 0.645758
 21   4.220534 -0.244854 -0.431465 0.001333 0.026242 0.148339
 22   1.350417 0.000000 0.000001 0.000000 0.000000 0.863926
 23   1.350410 -0.000001 -0.000001 0.000000 0.000000 0.863926
 24   -1.887021 0.858761 -2.731760 -0.942471 1.461434 1.764317
 25   4.640942 0.000000 0.000001 -0.601473 -1.183875 0.506934
 26   10.828047 0.000000 0.000001 0.000000 0.000000 -0.234266
 27   9.393339 0.000000 0.000000 1.569611 -0.034192 0.000001
 28   1.442245 0.107455 1.746178 -1.686405 -0.539236 0.325898
 29   1.063450 -0.000001 0.000000 0.000000 0.000000 0.199056
 30   1.376307 0.000000 0.000000 0.000000 0.000000 0.199059
 31   4.172847 -0.251365 1.312745 -0.008050 -0.095731 0.148659
 32   1.215373 -0.000001 0.000000 0.000000 0.000000 0.645746
 33   1.215372 0.000000 0.000000 0.000000 0.000000 0.645746
 34   4.220534 -0.244853 0.431466 -0.001333 -0.026242 0.148339
 35   1.350416 0.000000 -0.000001 0.000000 0.000000 0.863937
 36   1.350410 0.000000 0.000001 0.000000 0.000000 0.863925
 37   2.110540 -0.000001 0.000000 0.002432 -0.010503 -0.153668
 38   0.891923 2.373051 -0.014527 -3.141592 -0.000001 1.413797
 39   7.228122 5.709445 3.726568 3.140796 -1.570796 0.000000
 40   2.450426 5.076128 0.001325 3.140791 -1.570796 0.000000
 41   6.312404 -4.528058 0.001311 3.140791 -1.570796 0.000000
 42   2.233309 1.152535 -7.309138 -1.140137 -1.535904 -0.884450
 43   4.262825 -0.232720 -1.392178 0.016840 0.076668 0.253759
time 1
  0   0.471378 7.975841 37.967903 0.034898 0.007159 -1.700948
  1   0.172208 -0.671896 0.000000 -0.000030 -1.519590 -1.570772
  2   -0.000007 0.000008 4.427393 -0.194280 -3.168310 -0.063853
  3   18.465939 0.000000 0.000000 0.000000 0.000000 -0.481111
  4   14.875443 0.000000 -0.000001 0.041449 -0.040668 0.397054
  5   0.000006 -0.000004 -4.427393 0.100953 3.064172 -0.471920
  6   18.465939 0.000000 0.000000 0.000000 0.000000 -0.545298
  7   14.875442 0.000000 0.000000 -0.011751 -0.061857 0.085958
  8   2.255207 -0.007574 0.113288 0.121848 -0.091407 -0.027461
  9   9.514219 -0.009357 0.000000 -0.007296 -0.061577 -0.021302
 10   11.751820 -0.001633 0.000000 0.000024 0.043599 0.467702
 11   -2.094058 0.913437 2.563789 0.597415 -1.411533 2.077710
 12   4.640941 0.000000 -0.000001 0.536246 1.007781 0.511918
 13   10.828049 0.000000 0.000000 0.000000 0.000000 -0.469415
 14   9.393337 -0.000001 0.000000 -1.569611 0.034172 0.000037
 15   1.442245 0.107454 -1.746177 1.686435 0.539209 0.325885
 16   1.063452 0.000000 0.000001 0.000000 0.000000 0.199056
 17   1.376307 -0.000001 0.000001 0.000000 0.000000 0.199049
 18   4.172846 -0.251366 -1.312744 0.008050 0.095731 0.148659
 19   1.215374 0.000002 0.000000 0.000000 0.000000 0.645758
 20   1.215371 -0.000002 0.000001 0.000000 0.000000 0.645758
 21   4.220534 -0.244854 -0.431465 0.001333 0.026242 0.148339
 22   1.350417 0.000000 0.000001 0.000000 0.000000 0.863926
 23   1.350410 -0.000001 -0.000001 0.000000 0.000000 0.863926
 24   -1.863582 0.913450 -2.731760 -0.869334 1.470239 1.808829
 25   4.640942 0.000000 0.000001 -0.419695 -1.151307 0.340979
 26   10.828047 0.000000 0.000001 0.000000 0.000000 -0.251864
 27   9.393339 0.000000 0.000000 1.569611 -0.034192 0.000001
 28   1.442245 0.107455 1.746178 -1.686405 -0.539236 0.325898
 29   1.063450 -0.000001 0.000000 0.000000 0.000000 0.199056
 30   1.376307 0.000000 0.000000 0.000000 0.000000 0.199059
 31   4.172847 -0.251365 1.312745 -0.008050 -0.095731 0.148659
 32   1.215373 -0.000001 0.000000 0.000000 0.000000 0.645746
 33   1.215372 0.000000 0.000000 0.000000 0.000000 0.645746
 34   4.220534 -0.244853 0.431466 -0.001333 -0.026242 0.148339
 35   1.350416 0.000000 -0.000001 0.000000 0.000000 0.863937
 36   1.350410 0.000000 0.000001 0.000000 0.000000 0.863925
 37   2.110540 -0.000001 0.000000 0.003958 -0.028520 -0.446055
 38   0.891923 2.373051 -0.014527 -3.141592 -0.000001 1.413797
 39   7.228122 5.709445 3.726568 3.147825 -1.570796 0.000000
 40   2.450426 5.076128 0.001325 3.136754 -1.570796 0.000000
 41   6.312404 -4.528058 0.001311 3.156202 -1.570796 0.000000
 42   2.233309 1.152535 -7.309138 -1.134864 -1.578427 -0.972244
 43   4.262825 -0.232720 -1.392178 0.016840 0.076668 0.253759
time 2
  0   -1.009295 9.242112 37.620235 0.073343 0.021541 -1.699222
  1   0.140957 -1.281289 0.000000 -0.000030 -1.455536 -1.570772
  2   -0.000007 0.000008 4.427393 -0.223109 -3.193987 -0.110982
  3   18.465939 0.000000 0.000000 0.000000 0.000000 -0.479868
  4   14.875443 0.000000 -0.000001 0.067150 -0.106394 0.346450
  5   0.000006 -0.000004 -4.427393 0.086889 3.034066 -0.566256
  6   18.465939 0.000000 0.000000 0.000000 0.000000 -0.634432
  7   14.875442 0.000000 0.000000 -0.019507 -0.140495 0.107043
  8   2.243488 -0.007574 0.257823 0.125355 -0.180345 -0.053071
  9   9.514219 -0.009357 0.000000 -0.011413 -0.137032 0.060529
 10   11.751820 -0.001633 0.000000 0.000024 0.043599 0.505308
 11   -2.058901 0.987658 2.563789 0.476914 -1.428725 2.159808
 12   4.640941 0.000000 -0.000001 0.371350 0.902742 0.343446
 13   10.828049 0.000000 0.000000 0.000000 0.000000 -0.467341
 14   9.393337 -0.000001 0.000000 -1.569611 0.034172 0.000037
 15   1.442245 0.107454 -1.746177 1.686435 0.539209 0.325885
 16   1.063452 0.000000 0.000001 0.000000 0.000000 0.199056
 17   1.376307 -0.000001 0.000001 0.000000 0.000000 0.199049
 18   4.172846 -0.251366 -1.312744 0.008050 0.095731 0.148659
 19   1.215374 0.000002 0.000000 0.000000 0.000000 0.645758
 20   1.215371 -0.000002 0.000001 0.000000 0.000000 0.645758
 21   4.220534 -0.244854 -0.431465 0.001333 0.026242 0.148339
 22   1.350417 0.000000 0.000001 0.000000 0.000000 0.863926
 23   1.350410 -0.000001 -0.000001 0.000000 0.000000 0.863926
 24   -1.824519 0.987671 -2.731760 -0.766081 1.479563 1.873498
 25   4.640942 0.000000 0.000001 -0.251809 -1.115810 0.192873
 26   10.828047 0.000000 0.000001 0.000000 0.000000 -0.269986
 27   9.393339 0.000000 0.000000 1.569611 -0.034192 0.000001
 28   1.442245 0.107455 1.746178 -1.686405 -0.539236 0.325898
 29   1.063450 -0.000001 0.000000 0.000000 0.000000 0.199056
 30   1.376307 0.000000 0.000000 0.000000 0.000000 0.199059
 31   4.172847 -0.251365 1.312745 -0.008050 -0.095731 0.148659
 32   1.215373 -0.000001 0.000000 0.000000 0.000000 0.645746
 33   1.215372 0.000000 0.000000 0.000000 0.000000 0.645746
 34   4.220534 -0.244853 0.431466 -0.001333 -0.026242 0.148339
 35   1.350416 0.000000 -0.000001 0.000000 0.000000 0.863937
 36   1.350410 0.000000 0.000001 0.000000 0.000000 0.863925
 37   2.110540 -0.000001 0.000000 0.015452 -0.081090 -0.298507
 38   0.891923 2.373051 -0.014527 -3.141592 -0.000001 1.413797
 39   7.228122 5.709445 3.726568 3.158463 -1.570796 0.000000
 40   2.450426 5.076128 0.001325 3.132716 -1.570796 0.000000
 41   6.312404 -4.528058 0.001311 3.171408 -1.570796 0.000000
 42   2.233309 1.152535 -7.309138 -1.264675 -1.601639 -0.941702
 43   4.262825 -0.232720 -1.392178 0.016840 0.076668 0.253759
time 3
  0   -2.388552 10.480857 37.307728 0.110159 0.032215 -1.697304
  1   0.121425 -1.843806 0.000000 -0.000030 -1.397891 -1.570772
  2   -0.000007 0.000008 4.427393 -0.254993 -3.219664 -0.137315
  3   18.465939 0.000000 0.000000 0.000000 0.000000 -0.441852
  4   14.875443 0.000000 -0.000001 0.095128 -0.165372 0.274356
  5   0.000006 -0.000004 -4.427393 0.073303 3.012162 -0.634948
  6   18.465939 0.000000 0.000000 0.000000 0.000000 -0.676571
  7   14.875442 0.000000 0.000000 -0.028492 -0.215673 0.104342
  8   2.223956 -0.007574 0.386734 0.132601 -0.261553 -0.080269
  9   9.514219 -0.009357 0.000000 -0.021071 -0.206135 0.140238
 10   11.751820 -0.001633 0.000000 0.000024 0.043599 0.545302
 11   -2.015931 1.065786 2.567695 0.326668 -1.442179 2.269387
 12   4.640941 0.000000 -0.000001 0.253265 0.791641 0.227190
 13   10.828049 0.000000 0.000000 0.000000 0.000000 -0.465815
 14   9.393337 -0.000001 0.000000 -1.569611 0.034172 0.000037
 15   1.442245 0.107454 -1.746177 1.686435 0.539209 0.325885
 16   1.063452 0.000000 0.000001 0.000000 0.000000 0.199056
 17   1.376307 -0.000001 0.000001 0.000000 0.000000 0.199049
 18   4.172846 -0.251366 -1.312744 0.008050 0.095731 0.148659
 19   1.215374 0.000002 0.000000 0.000000 0.000000 0.645758
 20   1.215371 -0.000002 0.000001 0.000000 0.000000 0.645758
 21   4.220534 -0.244854 -0.431465 0.001333 0.026242 0.148339
 22   1.350417 0.000000 0.000001 0.000000 0.000000 0.863926
 23   1.350410 -0.000001 -0.000001 0.000000 0.000000 0.863926
 24   -1.785455 1.065799 -2.727853 -0.651809 1.486915 1.946836
 25   4.640942 0.000000 0.000001 -0.118189 -1.070968 0.084312
 26   10.828047 0.000000 0.000001 0.000000 0.000000 -0.287817
 27   9.393339 0.000000 0.000000 1.569611 -0.034192 0.000001
 28   1.442245 0.107455 1.746178 -1.686405 -0.539236 0.325898
 29   1.063450 -0.000001 0.000000 0.000000 0.000000 0.199056
 30   1.376307 0.000000 0.000000 0.000000 0.000000 0.199059
 31   4.172847 -0.251365 1.312745 -0.008050 -0.095731 0.148659
 32   1.215373 -0.000001 0.000000 0.000000 0.000000 0.645746
 33   1.215372 0.000000 0.000000 0.000000 0.000000 0.645746
 34   4.220534 -0.244853 0.431466 -0.001333 -0.026242 0.148339
 35   1.350416 0.000000 -0.000001 0.000000 0.000000 0.863937
 36   1.350410 0.000000 0.000001 0.000000 0.000000 0.863925
 37   2.110540 -0.000001 0.000000 0.032859 -0.171565 -0.070455
 38   0.891923 2.373051 -0.014527 -3.141592 -0.000001 1.413797
 39   7.228122 5.709445 3.726568 3.171760 -1.570796 0.000000
 40   2.450426 5.076128 0.001325 3.128591 -1.570796 0.000000
 41   6.312404 -4.528058 0.001311 3.186717 -1.570796 0.000000
 42   2.233309 1.152535 -7.309138 -1.296313 -1.631492 -0.988232
 43   4.262825 -0.232720 -1.392178 0.016840 0.076668 0.253759
time 4
  0   -3.321578 11.526907 36.987404 0.139784 0.028572 -1.697400
  1   0.168301 -2.250069 0.000000 -0.000030 -1.365929 -1.570772
  2   -0.000007 0.000008 4.427393 -0.284968 -3.229433 -0.154671
  3   18.465939 0.000000 0.000000 0.000000 0.000000 -0.430301
  4   14.875443 0.000000 -0.000001 0.123789 -0.204939 0.224424
  5   0.000006 -0.000004 -4.427393 0.071485 3.001536 -0.671915
  6   18.465939 0.000000 0.000000 0.000000 0.000000 -0.697050
  7   14.875442 0.000000 0.000000 -0.039056 -0.272193 0.095038
  8   2.208331 -0.007574 0.457048 0.141547 -0.312439 -0.110345
  9   9.514219 -0.009357 0.000000 -0.032048 -0.251533 0.207153
 10   11.751820 -0.001633 0.000000 0.000024 0.043599 0.583176
 11   -1.972961 1.136100 2.567695 0.157299 -1.447110 2.400400
 12   4.640941 0.000000 -0.000001 0.179879 0.693145 0.155832
 13   10.828049 0.000000 0.000000 0.000000 0.000000 -0.466303
 14   9.393337 -0.000001 0.000000 -1.569611 0.034172 0.000037
 15   1.442245 0.107454 -1.746177 1.686435 0.539209 0.325885
 16   1.063452 0.000000 0.000001 0.000000 0.000000 0.199056
 17   1.376307 -0.000001 0.000001 0.000000 0.000000 0.199049
 18   4.172846 -0.251366 -1.312744 0.008050 0.095731 0.148659
 19   1.215374 0.000002 0.000000 0.000000 0.000000 0.645758
 20   1.215371 -0.000002 0.000001 0.000000 0.000000 0.645758
 21   4.220534 -0.244854 -0.431465 0.001333 0.026242 0.148339
 22   1.350417 0.000000 0.000001 0.000000 0.000000 0.863926
 23   1.350410 -0.000001 -0.000001 0.000000 0.000000 0.863926
 24   -1.742485 1.136113 -2.727853 -0.565985 1.490715 1.994168
 25   4.640942 0.000000 0.000001 -0.035044 -1.013154 0.029297
 26   10.828047 0.000000 0.000001 0.000000 0.000000 -0.304661
 27   9.393339 0.000000 0.000000 1.569611 -0.034192 0.000001
 28   1.442245 0.107455 1.746178 -1.686405 -0.539236 0.325898
 29   1.063450 -0.000001 0.000000 0.000000 0.000000 0.199056
 30   1.376307 0.000000 0.000000 0.000000 0.000000 0.199059
 31   4.172847 -0.251365 1.312745 -0.008050 -0.095731 0.148659
 32   1.215373 -0.000001 0.000000 0.000000 0.000000 0.645746
 33   1.215372 0.000000 0.000000 0.000000 0.000000 0.645746
 34   4.220534 -0.244853 0.431466 -0.001333 -0.026242 0.148339
 35   1.350416 0.000000 -0.000001 0.000000 0.000000 0.863937
 36   1.350410 0.000000 0.000001 0.000000 0.000000 0.863925
 37   2.110540 -0.000001 0.000000 0.034290 -0.275420 0.145814
 38   0.891923 2.373051 -0.014527 -3.141592 -0.000001 1.413797
 39   7.228122 5.709445 3.726568 3.186578 -1.570796 0.000000
 40   2.450426 5.076128 0.001325 3.124554 -1.570796 0.000000
 41   6.312404 -4.528058 0.001311 3.202587 -1.570796 0.000000
 42   2.233309 1.152535 -7.309138 -1.352686 -1.635628 -0.945053
 43   4.262825 -0.232720 -1.392178 0.016840 0.076668 0.253759
time 5
  0   -3.504127 12.270153 36.588955 0.156945 0.000000 -1.701715
  1   0.332369 -2.410230 0.000000 -0.000030 -1.378906 -1.570772
  2   -0.000007 0.000008 4.427393 -0.278381 -3.207942 -0.183747
  3   18.465939 0.000000 0.000000 0.000000 0.000000 -0.524902
  4   14.875443 0.000000 -0.000001 0.119975 -0.215581 0.257093
  5   0.000006 -0.000004 -4.427393 0.063544 3.014399 -0.675284
  6   18.465939 0.000000 0.000000 0.000000 0.000000 -0.726520
  7   14.875442 0.000000 0.000000 -0.021262 -0.286761 0.089372
  8   2.216143 -0.007574 0.425797 0.147449 -0.310690 -0.143201
  9   9.514219 -0.009357 0.000000 -0.037181 -0.256746 0.248869
 10   11.751820 -0.001633 0.000000 0.000024 0.043599 0.614420
 11   -1.937804 1.194696 2.571602 0.008495 -1.439826 2.517536
 12   4.640941 0.000000 -0.000001 0.151390 0.624404 0.121002
 13   10.828049 0.000000 0.000000 0.000000 0.000000 -0.470452
 14   9.393337 -0.000001 0.000000 -1.569611 0.034172 0.000037
 15   1.442245 0.107454 -1.746177 1.686435 0.539209 0.325885
 16   1.063452 0.000000 0.000001 0.000000 0.000000 0.199056
 17   1.376307 -0.000001 0.000001 0.000000 0.000000 0.199049
 18   4.172846 -0.251366 -1.312744 0.008050 0.095731 0.148659
 19   1.215374 0.000002 0.000000 0.000000 0.000000 0.645758
 20   1.215371 -0.000002 0.000001 0.000000 0.000000 0.645758
 21   4.220534 -0.244854 -0.431465 0.001333 0.026242 0.148339
 22   1.350417 0.000000 0.000001 0.000000 0.000000 0.863926
 23   1.350410 -0.000001 -0.000001 0.000000 0.000000 0.863926
 24   -1.707328 1.194709 -2.723947 -0.558302 1.490196 1.970571
 25   4.640942 0.000000 0.000001 -0.010141 -0.937905 0.031887
 26   10.828047 0.000000 0.000001 0.000000 0.000000 -0.319820
 27   9.393339 0.000000 0.000000 1.569611 -0.034192 0.000001
 28   1.442245 0.107455 1.746178 -1.686405 -0.539236 0.325898
 29   1.063450 -0.000001 0.000000 0.000000 0.000000 0.199056
 30   1.376307 0.000000 0.000000 0.000000 0.000000 0.199059
 31   4.172847 -0.251365 1.312745 -0.008050 -0.095731 0.148659
 32   1.215373 -0.000001 0.000000 0.000000 0.000000 0.645746
 33   1.215372 0.000000 0.000000 0.000000 0.000000 0.645746
 34   4.220534 -0.244853 0.431466 -0.001333 -0.026242 0.148339
 35   1.350416 0.000000 -0.000001 0.000000 0.000000 0.863937
 36   1.350410 0.000000 0.000001 0.000000 0.000000 0.863925
 37   2.110540 -0.000001 0.000000 0.014832 -0.346259 0.264335
 38   0.891923 2.373051 -0.014527 -3.141592 -0.000001 1.413797
 39   7.228122 5.709445 3.726568 3.202060 -1.570796 0.000000
 40   2.450426 5.076128 0.001325 3.120517 -1.570796 0.000000
 41   6.312404 -4.528058 0.001311 3.219325 -1.570796 0.000000
 42   2.233309 1.152535 -7.309138 -1.405032 -1.638948 -0.902449
 43   4.262825 -0.232720 -1.392178 0.016840 0.076668 0.253759
time 6
  0   -2.591383 12.380264 35.960030 0.164903 -0.042570 -1.708618
  1   0.945669 -1.121128 0.000000 -0.000030 -1.461069 -1.570772
  2   -0.000007 0.000008 4.427393 -0.227691 -3.190731 -0.222149
  3   18.465939 0.000000 0.000000 0.000000 0.000000 -0.739472
  4   14.875443 0.000000 -0.000001 0.065186 -0.155496 0.415818
  5   0.000006 -0.000004 -4.427393 0.064597 3.013094 -0.667797
  6   18.465939 0.000000 0.000000 0.000000 0.000000 -0.825172
  7   14.875442 0.000000 0.000000 -0.017682 -0.217289 0.142197
  8   2.243488 -0.007574 0.242198 0.141358 -0.183809 -0.184726
  9   9.514219 -0.009357 0.000000 -0.007072 -0.053847 0.192822
 10   11.751820 -0.001633 0.000000 0.000024 0.043599 0.626901
 11   -1.922178 1.214228 2.571602 0.009709 -1.392783 2.503865
 12   4.640941 0.000000 -0.000001 0.312406 0.717183 0.198975
 13   10.828049 0.000000 0.000000 0.000000 0.000000 -0.518042
 14   9.393337 -0.000001 0.000000 -1.569611 0.034172 0.000037
 15   1.442245 0.107454 -1.746177 1.686435 0.539209 0.325885
 16   1.063452 0.000000 0.000001 0.000000 0.000000 0.199056
 17   1.376307 -0.000001 0.000001 0.000000 0.000000 0.199049
 18   4.172846 -0.251366 -1.312744 0.008050 0.095731 0.148659
 19   1.215374 0.000002 0.000000 0.000000 0.000000 0.645758
 20   1.215371 -0.000002 0.000001 0.000000 0.000000 0.645758
 21   4.220534 -0.244854 -0.431465 0.001333 0.026242 0.148339
 22   1.350417 0.000000 0.000001 0.000000 0.000000 0.863926
 23   1.350410 -0.000001 -0.000001 0.000000 0.000000 0.863926
 24   -1.691702 1.214241 -2.723947 -0.827541 1.475971 1.690636
 25   4.640942 0.000000 0.000001 -0.117366 -0.762302 0.161375
 26   10.828047 0.000000 0.000001 0.000000 0.000000 -0.321911
 27   9.393339 0.000000 0.000000 1.569611 -0.034192 0.000001
 28   1.442245 0.107455 1.746178 -1.686405 -0.539236 0.325898
 29   1.063450 -0.000001 0.000000 0.000000 0.000000 0.199056
 30   1.376307 0.000000 0.000000 0.000000 0.000000 0.199059
 31   4.172847 -0.251365 1.312745 -0.008050 -0.095731 0.148659
 32   1.215373 -0.000001 0.000000 0.000000 0.000000 0.645746
 33   1.215372 0.000000 0.000000 0.000000 0.000000 0.645746
 34   4.220534 -0.244853 0.431466 -0.001333 -0.026242 0.148339
 35   1.350416 0.000000 -0.000001 0.000000 0.000000 0.863937
 36   1.350410 0.000000 0.000001 0.000000 0.000000 0.863925
 37   2.110540 -0.000001 0.000000 -0.105015 -0.327572 0.150631
 38   0.891923 2.373051 -0.014527 -3.141592 -0.000001 1.413797
 39   7.228122 5.709445 3.726568 3.217257 -1.570796 0.000000
 40   2.450426 5.076128 0.001325 3.116391 -1.570796 0.000000
 41   6.312404 -4.528058 0.001311 3.237849 -1.570796 0.000000
 42   2.233309 1.152535 -7.309138 -1.494865 -1.628813 -0.796081
 43   4.262825 -0.232720 -1.392178 0.016840 0.076668 0.253759
time 7
  0   -0.806463 11.912294 35.358448 0.170368 -0.082455 -1.715329
  1   1.930074 -0.171880 0.000000 -0.000030 -1.599539 -1.570772
  2   -0.000007 0.000008 4.427393 -0.166500 -3.154169 -0.214618
  3   18.465939 0.000000 0.000000 0.000000 0.000000 -0.908497
  4   14.875443 0.000000 -0.000001 0.003281 -0.072765 0.576953
  5   0.000006 -0.000004 -4.427393 0.089185 3.044039 -0.617728
  6   18.465939 0.000000 0.000000 0.000000 0.000000 -0.891399
  7   14.875442 0.000000 0.000000 -0.020560 -0.123284 0.203426
  8   2.255207 -0.007574 -0.062499 0.114749 -0.038184 -0.239254
  9   9.514219 -0.009357 0.000000 0.003193 0.140867 0.079190
 10   11.751820 -0.001633 0.000000 0.000024 0.043599 0.626176
 11   -1.926084 1.214228 2.571602 0.002955 -1.335467 2.511353
 12   4.640941 0.000000 -0.000001 0.491645 0.785993 0.308967
 13   10.828049 0.000000 0.000000 0.000000 0.000000 -0.515601
 14   9.393337 -0.000001 0.000000 -1.569611 0.034172 0.000037
 15   1.442245 0.107454 -1.746177 1.686435 0.539209 0.325885
 16   1.063452 0.000000 0.000001 0.000000 0.000000 0.199056
 17   1.376307 -0.000001 0.000001 0.000000 0.000000 0.199049
 18   4.172846 -0.251366 -1.312744 0.008050 0.095731 0.148659
 19   1.215374 0.000002 0.000000 0.000000 0.000000 0.645758
 20   1.215371 -0.000002 0.000001 0.000000 0.000000 0.645758
 21   4.220534 -0.244854 -0.431465 0.001333 0.026242 0.148339
 22   1.350417 0.000000 0.000001 0.000000 0.000000 0.863926
 23   1.350410 -0.000001 -0.000001 0.000000 0.000000 0.863926
 24   -1.691702 1.214241 -2.723947 -1.060650 1.431384 1.462023
 25   4.640942 0.000000 0.000001 -0.286384 -0.587675 0.362747
 26   10.828047 0.000000 0.000001 0.000000 0.000000 -0.332133
 27   9.393339 0.000000 0.000000 1.569611 -0.034192 0.000001
 28   1.442245 0.107455 1.746178 -1.686405 -0.539236 0.325898
 29   1.063450 -0.000001 0.000000 0.000000 0.000000 0.199056
 30   1.376307 0.000000 0.000000 0.000000 0.000000 0.199059
 31   4.172847 -0.251365 1.312745 -0.008050 -0.095731 0.148659
 32   1.215373 -0.000001 0.000000 0.000000 0.000000 0.645746
 33   1.215372 0.000000 0.000000 0.000000 0.000000 0.645746
 34   4.220534 -0.244853 0.431466 -0.001333 -0.026242 0.148339
 35   1.350416 0.000000 -0.000001 0.000000 0.000000 0.863937
 36   1.350410 0.000000 0.000001 0.000000 0.000000 0.863925
 37   2.110540 -0.000001 0.000000 -0.108353 -0.318996 -0.152765
 38   0.891923 2.373051 -0.014527 -3.141592 -0.000001 1.413797
 39   7.228122 5.709445 3.726568 3.231220 -1.570796 0.000000
 40   2.450426 5.076128 0.001325 3.112354 -1.570796 0.000000
 41   6.312404 -4.528058 0.001311 3.261985 -1.570796 0.000000
 42   2.233309 1.152535 -7.309138 1.193305 -1.539895 2.834586
 43   4.262825 -0.232720 -1.392178 0.016840 0.076668 0.253759
time 8
  0   1.323272 11.416797 35.065472 0.173915 -0.121509 -1.722041
  1   3.133235 -1.984436 0.000000 -0.000030 -1.758000 -1.570772
  2   -0.000007 0.000008 4.427393 -0.077721 -3.036204 -0.174869
  3   18.465939 0.000000 0.000000 0.000000 0.000000 -1.025176
  4   14.875443 0.000000 -0.000001 -0.067504 -0.059739 0.704114
  5   0.000006 -0.000004 -4.427393 0.141711 3.174158 -0.538929
  6   18.465939 0.000000 0.000000 0.000000 0.000000 -0.907152
  7   14.875442 0.000000 0.000000 -0.000906 -0.099227 0.252912
  8   2.216143 -0.007574 -0.417978 0.075203 -0.023431 -0.305463
  9   9.514219 -0.009357 0.000000 -0.014579 0.037859 -0.037387
 10   11.751820 -0.001633 0.000000 0.000024 0.043599 0.623385
 11   -1.926084 1.210321 2.571602 -0.147519 -1.299588 2.660641
 12   4.640941 0.000000 -0.000001 0.355484 0.633014 0.218585
 13   10.828049 0.000000 0.000000 0.000000 0.000000 -0.333175
 14   9.393337 -0.000001 0.000000 -1.569611 0.034172 0.000037
 15   1.442245 0.107454 -1.746177 1.686435 0.539209 0.325885
 16   1.063452 0.000000 0.000001 0.000000 0.000000 0.199056
 17   1.376307 -0.000001 0.000001 0.000000 0.000000 0.199049
 18   4.172846 -0.251366 -1.312744 0.008050 0.095731 0.148659
 19   1.215374 0.000002 0.000000 0.000000 0.000000 0.645758
 20   1.215371 -0.000002 0.000001 0.000000 0.000000 0.645758
 21   4.220534 -0.244854 -0.431465 0.001333 0.026242 0.148339
 22   1.350417 0.000000 0.000001 0.000000 0.000000 0.863926
 23   1.350410 -0.000001 -0.000001 0.000000 0.000000 0.863926
 24   -1.695609 1.210334 -2.723947 -1.105252 1.354505 1.428175
 25   4.640942 0.000000 0.000001 -0.518070 -0.520307 0.607375
 26   10.828047 0.000000 0.000001 0.000000 0.000000 -0.377321
 27   9.393339 0.000000 0.000000 1.569611 -0.034192 0.000001
 28   1.442245 0.107455 1.746178 -1.686405 -0.539236 0.325898
 29   1.063450 -0.000001 0.000000 0.000000 0.000000 0.199056
 30   1.376307 0.000000 0.000000 0.000000 0.000000 0.199059
 31   4.172847 -0.251365 1.312745 -0.008050 -0.095731 0.148659
 32   1.215373 -0.000001 0.000000 0.000000 0.000000 0.645746
 33   1.215372 0.000000 0.000000 0.000000 0.000000 0.645746
 34   4.220534 -0.244853 0.431466 -0.001333 -0.026242 0.148339
 35   1.350416 0.000000 -0.000001 0.000000 0.000000 0.863937
 36   1.350410 0.000000 0.000001 0.000000 0.000000 0.863925
 37   2.110540 -0.000001 0.000000 0.051124 -0.115643 -0.486522
 38   0.891923 2.373051 -0.014527 -3.141592 -0.000001 1.413797
 39   7.228122 5.709445 3.726568 3.242808 -1.570796 0.000000
 40   2.450426 5.076128 0.001325 3.108229 -1.570796 0.000000
 41   6.312404 -4.528058 0.001311 3.295052 -1.570796 0.000000
 42   2.233309 1.152535 -7.309138 -0.844370 -1.459772 -1.306186
 43   4.262825 -0.232720 -1.392178 0.016840 0.076668 0.253759
time 9
  0   3.412440 11.361741 34.635773 0.175737 -0.161778 -1.728944
  1   4.172329 -4.464980 0.000000 -0.000030 -1.900093 -1.570772
  2   -0.000007 0.000008 4.427393 0.008768 -2.908470 -0.149434
  3   18.465939 0.000000 0.000000 0.000000 0.000000 -1.139955
  4   14.875443 0.000000 -0.000001 -0.139968 -0.069721 0.812117
  5   0.000006 -0.000004 -4.427393 0.181799 3.323292 -0.491854
  6   18.465939 0.000000 0.000000 0.000000 0.000000 -0.920476
  7   14.875442 0.000000 0.000000 0.026047 -0.102498 0.280637
  8   2.134109 -0.007574 -0.726582 0.035468 -0.076115 -0.365980
  9   9.514219 -0.009357 0.000000 -0.016229 -0.155248 -0.158293
 10   11.751820 -0.001633 0.000000 0.000024 0.043599 0.617989
 11   -1.933897 1.198602 2.571602 -0.295337 -1.264410 2.807868
 12   4.640941 0.000000 -0.000001 0.198103 0.393868 0.054679
 13   10.828049 0.000000 0.000000 0.000000 0.000000 -0.099071
 14   9.393337 -0.000001 0.000000 -1.569611 0.034172 0.000037
 15   1.442245 0.107454 -1.746177 1.686435 0.539209 0.325885
 16   1.063452 0.000000 0.000001 0.000000 0.000000 0.199056
 17   1.376307 -0.000001 0.000001 0.000000 0.000000 0.199049
 18   4.172846 -0.251366 -1.312744 0.008050 0.095731 0.148659
 19   1.215374 0.000002 0.000000 0.000000 0.000000 0.645758
 20   1.215371 -0.000002 0.000001 0.000000 0.000000 0.645758
 21   4.220534 -0.244854 -0.431465 0.001333 0.026242 0.148339
 22   1.350417 0.000000 0.000001 0.000000 0.000000 0.863926
 23   1.350410 -0.000001 -0.000001 0.000000 0.000000 0.863926
 24   -1.703421 1.198615 -2.723947 -1.117544 1.268593 1.433197
 25   4.640942 0.000000 0.000001 -0.776974 -0.459146 0.808677
 26   10.828047 0.000000 0.000001 0.000000 0.000000 -0.433195
 27   9.393339 0.000000 0.000000 1.569611 -0.034192 0.000001
 28   1.442245 0.107455 1.746178 -1.686405 -0.539236 0.325898
 29   1.063450 -0.000001 0.000000 0.000000 0.000000 0.199056
 30   1.376307 0.000000 0.000000 0.000000 0.000000 0.199059
 31   4.172847 -0.251365 1.312745 -0.008050 -0.095731 0.148659
 32   1.215373 -0.000001 0.000000 0.000000 0.000000 0.645746
 33   1.215372 0.000000 0.000000 0.000000 0.000000 0.645746
 34   4.220534 -0.244853 0.431466 -0.001333 -0.026242 0.148339
 35   1.350416 0.000000 -0.000001 0.000000 0.000000 0.863937
 36   1.350410 0.000000 0.000001 0.000000 0.000000 0.863925
 37   2.110540 -0.000001 0.000000 -0.003720 0.191481 -0.806905
 38   0.891923 2.373051 -0.014527 -3.141592 -0.000001 1.413797
 39   7.228122 5.709445 3.726568 3.251166 -1.570796 0.000000
 40   2.450426 5.076128 0.001325 3.104192 -1.570796 0.000000
 41   6.312404 -4.528058 0.001311 3.333528 -1.570796 0.000000
 42   2.233309 1.152535 -7.309138 -0.994506 -1.294780 -1.115950
 43   4.262825 -0.232720 -1.392178 0.016840 0.076668 0.253759
time 10
  0   4.953963 12.270153 33.694336 0.176408 -0.205179 -1.736326
  1   4.699689 -5.777520 0.000000 -0.000030 -1.989455 -1.570772
  2   -0.000007 0.000008 4.427393 0.048194 -2.826974 -0.178261
  3   18.465939 0.000000 0.000000 0.000000 0.000000 -1.280321
  4   14.875443 0.000000 -0.000001 -0.162681 -0.069764 0.886304
  5   0.000006 -0.000004 -4.427393 0.233655 3.394037 -0.502991
  6   18.465939 0.000000 0.000000 0.000000 0.000000 -0.961959
  7   14.875442 0.000000 0.000000 0.012500 -0.104989 0.276510
  8   2.059889 -0.007574 -0.914087 0.009216 -0.117845 -0.402145
  9   9.514219 -0.009357 0.000000 -0.002942 -0.258615 -0.246250
 10   11.751820 -0.001633 0.000000 0.000024 0.043599 0.614420
 11   -1.937804 1.194696 2.571602 -0.306112 -1.251210 2.820784
 12   4.640941 0.000000 -0.000001 0.192552 0.218503 -0.012464
 13   10.828049 0.000000 0.000000 0.000000 0.000000 -0.002610
 14   9.393337 -0.000001 0.000000 -1.569611 0.034172 0.000037
 15   1.442245 0.107454 -1.746177 1.686435 0.539209 0.325885
 16   1.063452 0.000000 0.000001 0.000000 0.000000 0.199056
 17   1.376307 -0.000001 0.000001 0.000000 0.000000 0.199049
 18   4.172846 -0.251366 -1.312744 0.008050 0.095731 0.148659
 19   1.215374 0.000002 0.000000 0.000000 0.000000 0.645758
 20   1.215371 -0.000002 0.000001 0.000000 0.000000 0.645758
 21   4.220534 -0.244854 -0.431465 0.001333 0.026242 0.148339
 22   1.350417 0.000000 0.000001 0.000000 0.000000 0.863926
 23   1.350410 -0.000001 -0.000001 0.000000 0.000000 0.863926
 24   -1.707328 1.194709 -2.723947 -1.128519 1.223134 1.433266
 25   4.640942 0.000000 0.000001 -0.922221 -0.432436 0.868241
 26   10.828047 0.000000 0.000001 0.000000 0.000000 -0.471471
 27   9.393339 0.000000 0.000000 1.569611 -0.034192 0.000001
 28   1.442245 0.107455 1.746178 -1.686405 -0.539236 0.325898
 29   1.063450 -0.000001 0.000000 0.000000 0.000000 0.199056
 30   1.376307 0.000000 0.000000 0.000000 0.000000 0.199059
 31   4.172847 -0.251365 1.312745 -0.008050 -0.095731 0.148659
 32   1.215373 -0.000001 0.000000 0.000000 0.000000 0.645746
 33   1.215372 0.000000 0.000000 0.000000 0.000000 0.645746
 34   4.220534 -0.244853 0.431466 -0.001333 -0.026242 0.148339
 35   1.350416 0.000000 -0.000001 0.000000 0.000000 0.863937
 36   1.350410 0.000000 0.000001 0.000000 0.000000 0.863925
 37   2.110540 -0.000001 0.000000 -0.165582 0.312432 -0.998533
 38   0.891923 2.373051 -0.014527 -3.141592 -0.000001 1.413797
 39   7.228122 5.709445 3.726568 3.255346 -1.570796 0.000000
 40   2.450426 5.076128 0.001325 3.100154 -1.570796 0.000000
 41   6.312404 -4.528058 0.001311 3.380271 -1.570796 0.000000
 42   2.233309 1.152535 -7.309138 -0.998820 -1.230297 -1.074399
 43   4.262825 -0.232720 -1.392178 0.016840 0.076668 0.253759
time 11
  0   5.968122 14.004395 32.331013 0.176504 -0.253565 -1.744572
  1   4.949697 -5.340007 0.000000 -0.000030 -2.026836 -1.570772
  2   -0.000007 0.000008 4.427393 0.051917 -2.825206 -0.241549
  3   18.465939 0.000000 0.000000 0.000000 0.000000 -1.419078
  4   14.875443 0.000000 -0.000001 -0.161144 -0.029750 0.916840
  5   0.000006 -0.000004 -4.427393 0.248772 3.385741 -0.541362
  6   18.465939 0.000000 0.000000 0.000000 0.000000 -1.006723
  7   14.875442 0.000000 0.000000 -0.003293 -0.076539 0.232427
  8   2.024731 -0.007574 -0.992215 -0.004057 -0.076798 -0.411277
  9   9.514219 -0.009357 0.000000 -0.002573 -0.154314 -0.270171
 10   11.751820 -0.001633 0.000000 0.000024 0.043599 0.611896
 11   -1.941710 1.186883 2.567695 -0.065263 -1.276926 2.591665
 12   4.640941 0.000000 -0.000001 0.381469 0.205279 0.146993
 13   10.828049 0.000000 0.000000 0.000000 0.000000 -0.156971
 14   9.393337 -0.000001 0.000000 -1.569611 0.034172 0.000037
 15   1.442245 0.107454 -1.746177 1.686435 0.539209 0.325885
 16   1.063452 0.000000 0.000001 0.000000 0.000000 0.199056
 17   1.376307 -0.000001 0.000001 0.000000 0.000000 0.199049
 18   4.172846 -0.251366 -1.312744 0.008050 0.095731 0.148659
 19   1.215374 0.000002 0.000000 0.000000 0.000000 0.645758
 20   1.215371 -0.000002 0.000001 0.000000 0.000000 0.645758
 21   4.220534 -0.244854 -0.431465 0.001333 0.026242 0.148339
 22   1.350417 0.000000 0.000001 0.000000 0.000000 0.863926
 23   1.350410 -0.000001 -0.000001 0.000000 0.000000 0.863926
 24   -1.711234 1.186896 -2.723947 -1.150601 1.257254 1.407260
 25   4.640942 0.000000 0.000001 -0.870307 -0.464237 0.767800
 26   10.828047 0.000000 0.000001 0.000000 0.000000 -0.451665
 27   9.393339 0.000000 0.000000 1.569611 -0.034192 0.000001
 28   1.442245 0.107455 1.746178 -1.686405 -0.539236 0.325898
 29   1.063450 -0.000001 0.000000 0.000000 0.000000 0.199056
 30   1.376307 0.000000 0.000000 0.000000 0.000000 0.199059
 31   4.172847 -0.251365 1.312745 -0.008050 -0.095731 0.148659
 32   1.215373 -0.000001 0.000000 0.000000 0.000000 0.645746
 33   1.215372 0.000000 0.000000 0.000000 0.000000 0.645746
 34   4.220534 -0.244853 0.431466 -0.001333 -0.026242 0.148339
 35   1.350416 0.000000 -0.000001 0.000000 0.000000 0.863937
 36   1.350410 0.000000 0.000001 0.000000 0.000000 0.863925
 37   2.110540 -0.000001 0.000000 -0.151084 0.179973 -1.076370
 38   0.891923 2.373051 -0.014527 -3.141592 -0.000001 1.413797
 39   7.228122 5.709445 3.726568 3.254396 -1.570796 0.000000
 40   2.450426 5.076128 0.001325 3.096029 -1.570796 0.000000
 41   6.312404 -4.528058 0.001311 3.380373 -1.570796 0.000000
 42   2.233309 1.152535 -7.309138 -1.046565 -1.253015 -1.097089
 43   4.262825 -0.232720 -1.392178 0.016840 0.076668 0.253759
time 12
  0   6.840299 16.041441 30.913002 0.176600 -0.308919 -1.754064
  1   4.926259 -4.031373 0.000000 -0.000030 -2.041380 -1.570772
  2   -0.000007 0.000008 4.427393 0.032442 -2.869955 -0.312219
  3   18.465939 0.000000 0.000000 0.000000 0.000000 -1.524061
  4   14.875443 0.000000 -0.000001 -0.163819 0.042637 0.897523
  5   0.000006 -0.000004 -4.427393 0.240543 3.342586 -0.567005
  6   18.465939 0.000000 0.000000 0.000000 0.000000 -1.000881
  7   14.875442 0.000000 0.000000 -0.030457 -0.032608 0.136457
  8   2.009106 -0.007574 -1.019559 -0.010610 0.007837 -0.406347
  9   9.514219 -0.009357 0.000000 -0.008880 0.038542 -0.257139
 10   11.751820 -0.001633 0.000000 0.000024 0.043599 0.607682
 11   -1.945616 1.182977 2.567695 0.358387 -1.285879 2.184060
 12   4.640941 0.000000 -0.000001 0.661355 0.227664 0.365983
 13   10.828049 0.000000 0.000000 0.000000 0.000000 -0.448915
 14   9.393337 -0.000001 0.000000 -1.569611 0.034172 0.000037
 15   1.442245 0.107454 -1.746177 1.686435 0.539209 0.325885
 16   1.063452 0.000000 0.000001 0.000000 0.000000 0.199056
 17   1.376307 -0.000001 0.000001 0.000000 0.000000 0.199049
 18   4.172846 -0.251366 -1.312744 0.008050 0.095731 0.148659
 19   1.215374 0.000002 0.000000 0.000000 0.000000 0.645758
 20   1.215371 -0.000002 0.000001 0.000000 0.000000 0.645758
 21   4.220534 -0.244854 -0.431465 0.001333 0.026242 0.148339
 22   1.350417 0.000000 0.000001 0.000000 0.000000 0.863926
 23   1.350410 -0.000001 -0.000001 0.000000 0.000000 0.863926
 24   -1.715140 1.179083 -2.723947 -1.191911 1.331537 1.358827
 25   4.640942 0.000000 0.000001 -0.725059 -0.515774 0.561949
 26   10.828047 0.000000 0.000001 0.000000 0.000000 -0.414261
 27   9.393339 0.000000 0.000000 1.569611 -0.034192 0.000001
 28   1.442245 0.107455 1.746178 -1.686405 -0.539236 0.325898
 29   1.063450 -0.000001 0.000000 0.000000 0.000000 0.199056
 30   1.376307 0.000000 0.000000 0.000000 0.000000 0.199059
 31   4.172847 -0.251365 1.312745 -0.008050 -0.095731 0.148659
 32   1.215373 -0.000001 0.000000 0.000000 0.000000 0.645746
 33   1.215372 0.000000 0.000000 0.000000 0.000000 0.645746
 34   4.220534 -0.244853 0.431466 -0.001333 -0.026242 0.148339
 35   1.350416 0.000000 -0.000001 0.000000 0.000000 0.863937
 36   1.350410 0.000000 0.000001 0.000000 0.000000 0.863925
 37   2.110540 -0.000001 0.000000 -0.017598 -0.051229 -1.193772
 38   0.891923 2.373051 -0.014527 -3.141592 -0.000001 1.413797
 39   7.228122 5.709445 3.726568 3.247272 -1.570796 0.000000
 40   2.450426 5.076128 0.001325 3.091992 -1.570796 0.000000
 41   6.312404 -4.528058 0.001311 3.375321 -1.570796 0.000000
 42   2.233309 1.152535 -7.309138 -1.012243 -1.294430 -1.109823
 43   4.262825 -0.232720 -1.392178 0.016840 0.076668 0.253759
time 13
  0   7.550211 18.381290 29.518427 0.177462 -0.373157 -1.765377
  1   4.805161 -3.226661 0.000000 -0.000030 -2.039296 -1.570772
  2   -0.000007 0.000008 4.427393 0.020701 -2.910610 -0.387527
  3   18.465939 0.000000 0.000000 0.000000 0.000000 -1.600239
  4   14.875443 0.000000 -0.000001 -0.179673 0.091484 0.835147
  5   0.000006 -0.000004 -4.427393 0.232315 3.313132 -0.578796
  6   18.465939 0.000000 0.000000 0.000000 0.000000 -0.948963
  7   14.875442 0.000000 0.000000 -0.053095 -0.017432 0.003007
  8   2.013012 -0.007574 -1.015653 -0.010211 0.050131 -0.401516
  9   9.514219 -0.009357 0.000000 -0.011004 0.142353 -0.244778
 10   11.751820 -0.001633 0.000000 0.000024 0.043599 0.603307
 11   -1.949523 1.171258 2.567695 0.639074 -1.257937 1.914888
 12   4.640941 0.000000 -0.000001 0.753652 0.160508 0.490142
 13   10.828049 0.000000 0.000000 0.000000 0.000000 -0.728229
 14   9.393337 -0.000001 0.000000 -1.569611 0.034172 0.000037
 15   1.442245 0.107454 -1.746177 1.686435 0.539209 0.325885
 16   1.063452 0.000000 0.000001 0.000000 0.000000 0.199056
 17   1.376307 -0.000001 0.000001 0.000000 0.000000 0.199049
 18   4.172846 -0.251366 -1.312744 0.008050 0.095731 0.148659
 19   1.215374 0.000002 0.000000 0.000000 0.000000 0.645758
 20   1.215371 -0.000002 0.000001 0.000000 0.000000 0.645758
 21   4.220534 -0.244854 -0.431465 0.001333 0.026242 0.148339
 22   1.350417 0.000000 0.000001 0.000000 0.000000 0.863926
 23   1.350410 -0.000001 -0.000001 0.000000 0.000000 0.863926
 24   -1.719047 1.171271 -2.723947 -1.218865 1.376975 1.330896
 25   4.640942 0.000000 0.000001 -0.637129 -0.544716 0.436590
 26   10.828047 0.000000 0.000001 0.000000 0.000000 -0.451898
 27   9.393339 0.000000 0.000000 1.569611 -0.034192 0.000001
 28   1.442245 0.107455 1.746178 -1.686405 -0.539236 0.325898
 29   1.063450 -0.000001 0.000000 0.000000 0.000000 0.199056
 30   1.376307 0.000000 0.000000 0.000000 0.000000 0.199059
 31   4.172847 -0.251365 1.312745 -0.008050 -0.095731 0.148659
 32   1.215373 -0.000001 0.000000 0.000000 0.000000 0.645746
 33   1.215372 0.000000 0.000000 0.000000 0.000000 0.645746
 34   4.220534 -0.244853 0.431466 -0.001333 -0.026242 0.148339
 35   1.350416 0.000000 -0.000001 0.000000 0.000000 0.863937
 36   1.350410 0.000000 0.000001 0.000000 0.000000 0.863925
 37   2.110540 -0.000001 0.000000 0.077783 -0.160504 -1.294102
 38   0.891923 2.373051 -0.014527 -3.141592 -0.000001 1.413797
 39   7.228122 5.709445 3.726568 3.232929 -1.570796 0.000000
 40   2.450426 5.076128 0.001325 3.087867 -1.570796 0.000000
 41   6.312404 -4.528058 0.001311 3.367667 -1.570796 0.000000
 42   2.233309 1.152535 -7.309138 -1.015406 -1.332322 -1.140460
 43   4.262825 -0.232720 -1.392178 0.016840 0.076668 0.253759
time 14
  0   8.178990 21.079000 27.951973 0.180051 -0.448134 -1.779183
  1   4.996573 -3.605579 0.000000 -0.000030 -2.026836 -1.570772
  2   -0.000007 0.000008 4.427393 0.026715 -2.907261 -0.459045
  3   18.465939 0.000000 0.000000 0.000000 0.000000 -1.668740
  4   14.875443 0.000000 -0.000001 -0.182946 0.085078 0.759301
  5   0.000006 -0.000004 -4.427393 0.242457 3.317326 -0.581230
  6   18.465939 0.000000 0.000000 0.000000 0.000000 -0.889233
  7   14.875442 0.000000 0.000000 -0.059938 -0.049248 -0.131231
  8   2.024731 -0.007574 -0.992215 -0.007922 0.018599 -0.414321
  9   9.514219 -0.009357 0.000000 -0.010489 0.084887 -0.259347
 10   11.751820 -0.001633 0.000000 0.000024 0.043599 0.600274
 11   -1.953429 1.167351 2.567695 0.574271 -1.239664 1.984551
 12   4.640941 0.000000 -0.000001 0.240052 0.007873 0.550553
 13   10.828049 0.000000 0.000000 0.000000 0.000000 -0.991131
 14   9.393337 -0.000001 0.000000 -1.569611 0.034172 0.000037
 15   1.442245 0.107454 -1.746177 1.686435 0.539209 0.325885
 16   1.063452 0.000000 0.000001 0.000000 0.000000 0.199056
 17   1.376307 -0.000001 0.000001 0.000000 0.000000 0.199049
 18   4.172846 -0.251366 -1.312744 0.008050 0.095731 0.148659
 19   1.215374 0.000002 0.000000 0.000000 0.000000 0.645758
 20   1.215371 -0.000002 0.000001 0.000000 0.000000 0.645758
 21   4.220534 -0.244854 -0.431465 0.001333 0.026242 0.148339
 22   1.350417 0.000000 0.000001 0.000000 0.000000 0.863926
 23   1.350410 -0.000001 -0.000001 0.000000 0.000000 0.863926
 24   -1.722953 1.167364 -2.723947 -1.127773 1.316917 1.433472
 25   4.640942 0.000000 0.000001 -0.686625 -0.374832 0.651891
 26   10.828047 0.000000 0.000001 0.000000 0.000000 -0.745326
 27   9.393339 0.000000 0.000000 1.569611 -0.034192 0.000001
 28   1.442245 0.107455 1.746178 -1.686405 -0.539236 0.325898
 29   1.063450 -0.000001 0.000000 0.000000 0.000000 0.199056
 30   1.376307 0.000000 0.000000 0.000000 0.000000 0.199059
 31   4.172847 -0.251365 1.312745 -0.008050 -0.095731 0.148659
 32   1.215373 -0.000001 0.000000 0.000000 0.000000 0.645746
 33   1.215372 0.000000 0.000000 0.000000 0.000000 0.645746
 34   4.220534 -0.244853 0.431466 -0.001333 -0.026242 0.148339
 35   1.350416 0.000000 -0.000001 0.000000 0.000000 0.863937
 36   1.350410 0.000000 0.000001 0.000000 0.000000 0.863925
 37   2.110540 -0.000001 0.000000 0.018218 -0.103269 -1.280813
 38   0.891923 2.373051 -0.014527 -3.141592 -0.000001 1.413797
 39   7.228122 5.709445 3.726568 3.210608 -1.570796 0.000000
 40   2.450426 5.076128 0.001325 3.083830 -1.570796 0.000000
 41   6.312404 -4.528058 0.001311 3.359859 -1.570796 0.000000
 42   2.233309 1.152535 -7.309138 -1.004477 -1.331477 -1.145151
 43   4.262825 -0.232720 -1.392178 0.016840 0.076668 0.253759
time 15
  0   8.746920 24.051985 26.002695 0.185708 -0.535702 -1.796633
  1   5.273926 -4.425916 0.000000 -0.000030 -2.010222 -1.570772
  2   -0.000007 0.000008 4.427393 -0.003260 -2.837114 -0.539739
  3   18.465939 0.000000 0.000000 0.000000 0.000000 -1.727445
  4   14.875443 0.000000 -0.000001 -0.108546 0.077458 0.658725
  5   0.000006 -0.000004 -4.427393 0.246093 3.204637 -0.701769
  6   18.465939 0.000000 0.000000 0.000000 0.000000 -0.846767
  7   14.875442 0.000000 0.000000 -0.085734 -0.124863 -0.199926
  8   2.040357 -0.007574 -0.957057 -0.004456 -0.040137 -0.436026
  9   9.514219 -0.009357 0.000000 -0.006478 -0.044259 -0.283636
 10   11.751820 -0.001633 0.000000 0.000024 0.043599 0.600113
 11   -1.953429 1.167351 2.567695 0.415981 -1.237978 2.139885
 12   4.640941 0.000000 -0.000001 -0.257094 -0.125958 0.594046
 13   10.828049 0.000000 0.000000 0.000000 0.000000 -1.116816
 14   9.393337 -0.000001 0.000000 -1.569611 0.034172 0.000037
 15   1.442245 0.107454 -1.746177 1.686435 0.539209 0.325885
 16   1.063452 0.000000 0.000001 0.000000 0.000000 0.199056
 17   1.376307 -0.000001 0.000001 0.000000 0.000000 0.199049
 18   4.172846 -0.251366 -1.312744 0.008050 0.095731 0.148659
 19   1.215374 0.000002 0.000000 0.000000 0.000000 0.645758
 20   1.215371 -0.000002 0.000001 0.000000 0.000000 0.645758
 21   4.220534 -0.244854 -0.431465 0.001333 0.026242 0.148339
 22   1.350417 0.000000 0.000001 0.000000 0.000000 0.863926
 23   1.350410 -0.000001 -0.000001 0.000000 0.000000 0.863926
 24   -1.722953 1.167364 -2.723947 -1.062669 1.261844 1.508392
 25   4.640942 0.000000 0.000001 -0.784177 -0.250766 0.865932
 26   10.828047 0.000000 0.000001 0.000000 0.000000 -1.001873
 27   9.393339 0.000000 0.000000 1.569611 -0.034192 0.000001
 28   1.442245 0.107455 1.746178 -1.686405 -0.539236 0.325898
 29   1.063450 -0.000001 0.000000 0.000000 0.000000 0.199056
 30   1.376307 0.000000 0.000000 0.000000 0.000000 0.199059
 31   4.172847 -0.251365 1.312745 -0.008050 -0.095731 0.148659
 32   1.215373 -0.000001 0.000000 0.000000 0.000000 0.645746
 33   1.215372 0.000000 0.000000 0.000000 0.000000 0.645746
 34   4.220534 -0.244853 0.431466 -0.001333 -0.026242 0.148339
 35   1.350416 0.000000 -0.000001 0.000000 0.000000 0.863937
 36   1.350410 0.000000 0.000001 0.000000 0.000000 0.863925
 37   2.110540 -0.000001 0.000000 -0.096621 0.033548 -1.192912
 38   0.891923 2.373051 -0.014527 -3.141592 -0.000001 1.413797
 39   7.228122 5.709445 3.726568 3.023397 -1.570796 0.000000
 40   2.450426 5.076128 0.001325 3.079705 -1.570796 0.000000
 41   6.312404 -4.528058 0.001311 3.354450 -1.570796 0.000000
 42   2.233309 1.152535 -7.309138 -0.970826 -1.447860 -1.268560
 43   4.262825 -0.232720 -1.392178 0.016840 0.076668 0.253759
time 16
  0   9.274282 27.382832 23.666687 0.196637 -0.637652 -1.819547
  1   5.250487 -5.261879 0.000000 -0.000030 -1.995678 -1.570772
  2   -0.000007 0.000008 4.427393 0.037311 -2.813949 -0.638986
  3   18.465939 0.000000 0.000000 0.000000 0.000000 -1.754861
  4   14.875443 0.000000 -0.000001 -0.104675 0.052981 0.489097
  5   0.000006 -0.000004 -4.427393 0.231454 3.075264 -0.843179
  6   18.465939 0.000000 0.000000 0.000000 0.000000 -0.809157
  7   14.875442 0.000000 0.000000 -0.128306 -0.203482 -0.242508
  8   2.052076 -0.007574 -0.925807 0.001844 -0.095590 -0.440890
  9   9.514219 -0.009357 0.000000 -0.000647 -0.180344 -0.289287
 10   11.751820 -0.001633 0.000000 0.000024 0.043599 0.604327
 11   -1.949523 1.175164 2.567695 0.308380 -1.258939 2.238265
 12   4.640941 0.000000 -0.000001 -0.247368 -0.245118 0.671141
 13   10.828049 0.000000 0.000000 0.000000 0.000000 -1.001625
 14   9.393337 -0.000001 0.000000 -1.569611 0.034172 0.000037
 15   1.442245 0.107454 -1.746177 1.686435 0.539209 0.325885
 16   1.063452 0.000000 0.000001 0.000000 0.000000 0.199056
 17   1.376307 -0.000001 0.000001 0.000000 0.000000 0.199049
 18   4.172846 -0.251366 -1.312744 0.008050 0.095731 0.148659
 19   1.215374 0.000002 0.000000 0.000000 0.000000 0.645758
 20   1.215371 -0.000002 0.000001 0.000000 0.000000 0.645758
 21   4.220534 -0.244854 -0.431465 0.001333 0.026242 0.148339
 22   1.350417 0.000000 0.000001 0.000000 0.000000 0.863926
 23   1.350410 -0.000001 -0.000001 0.000000 0.000000 0.863926
 24   -1.719047 1.175177 -2.723947 -1.007970 1.304810 1.552491
 25   4.640942 0.000000 0.000001 -0.919752 -0.433622 0.876361
 26   10.828047 0.000000 0.000001 0.000000 0.000000 -0.965456
 27   9.393339 0.000000 0.000000 1.569611 -0.034192 0.000001
 28   1.442245 0.107455 1.746178 -1.686405 -0.539236 0.325898
 29   1.063450 -0.000001 0.000000 0.000000 0.000000 0.199056
 30   1.376307 0.000000 0.000000 0.000000 0.000000 0.199059
 31   4.172847 -0.251365 1.312745 -0.008050 -0.095731 0.148659
 32   1.215373 -0.000001 0.000000 0.000000 0.000000 0.645746
 33   1.215372 0.000000 0.000000 0.000000 0.000000 0.645746
 34   4.220534 -0.244853 0.431466 -0.001333 -0.026242 0.148339
 35   1.350416 0.000000 -0.000001 0.000000 0.000000 0.863937
 36   1.350410 0.000000 0.000001 0.000000 0.000000 0.863925
 37   2.110540 -0.000001 0.000000 -0.178983 0.203800 -1.090433
 38   0.891923 2.373051 -0.014527 -3.141592 -0.000001 1.413797
 39   7.228122 5.709445 3.726568 2.713277 -1.570796 0.000000
 40   2.450426 5.076128 0.001325 3.075667 -1.570796 0.000000
 41   6.312404 -4.528058 0.001311 3.359604 -1.570796 0.000000
 42   2.233309 1.152535 -7.309138 0.859189 -1.549331 3.040619
 43   4.262825 -0.232720 -1.392178 0.016840 0.076668 0.253759
time 17
  0   9.801645 30.988953 21.002542 0.216483 -0.755710 -1.851378
  1   4.699689 -5.777520 0.000000 -0.000030 -1.989455 -1.570772
  2   -0.000007 0.000008 4.427393 0.006095 -2.862512 -0.716089
  3   18.465939 0.000000 0.000000 0.000000 0.000000 -1.649440
  4   14.875443 0.000000 -0.000001 -0.113356 0.230405 0.575412
  5   0.000006 -0.000004 -4.427393 0.209258 2.969006 -0.951739
  6   18.465939 0.000000 0.000000 0.000000 0.000000 -0.799049
  7   14.875442 0.000000 0.000000 -0.180353 -0.259451 -0.230615
  8   2.059889 -0.007574 -0.914087 0.009216 -0.117845 -0.402145
  9   9.514219 -0.009357 0.000000 -0.002942 -0.258615 -0.246250
 10   11.751820 -0.001633 0.000000 0.000024 0.043599 0.614420
 11   -1.937804 1.194696 2.571602 0.169592 -1.285418 2.361378
 12   4.640941 0.000000 -0.000001 -0.131493 -0.249870 0.736352
 13   10.828049 0.000000 0.000000 0.000000 0.000000 -0.803030
 14   9.393337 -0.000001 0.000000 -1.569611 0.034172 0.000037
 15   1.442245 0.107454 -1.746177 1.686435 0.539209 0.325885
 16   1.063452 0.000000 0.000001 0.000000 0.000000 0.199056
 17   1.376307 -0.000001 0.000001 0.000000 0.000000 0.199049
 18   4.172846 -0.251366 -1.312744 0.008050 0.095731 0.148659
 19   1.215374 0.000002 0.000000 0.000000 0.000000 0.645758
 20   1.215371 -0.000002 0.000001 0.000000 0.000000 0.645758
 21   4.220534 -0.244854 -0.431465 0.001333 0.026242 0.148339
 22   1.350417 0.000000 0.000001 0.000000 0.000000 0.863926
 23   1.350410 -0.000001 -0.000001 0.000000 0.000000 0.863926
 24   -1.707328 1.194709 -2.723947 -0.911346 1.375231 1.629406
 25   4.640942 0.000000 0.000001 -0.943162 -0.688309 0.807487
 26   10.828047 0.000000 0.000001 0.000000 0.000000 -0.842671
 27   9.393339 0.000000 0.000000 1.569611 -0.034192 0.000001
 28   1.442245 0.107455 1.746178 -1.686405 -0.539236 0.325898
 29   1.063450 -0.000001 0.000000 0.000000 0.000000 0.199056
 30   1.376307 0.000000 0.000000 0.000000 0.000000 0.199059
 31   4.172847 -0.251365 1.312745 -0.008050 -0.095731 0.148659
 32   1.215373 -0.000001 0.000000 0.000000 0.000000 0.645746
 33   1.215372 0.000000 0.000000 0.000000 0.000000 0.645746
 34   4.220534 -0.244853 0.431466 -0.001333 -0.026242 0.148339
 35   1.350416 0.000000 -0.000001 0.000000 0.000000 0.863937
 36   1.350410 0.000000 0.000001 0.000000 0.000000 0.863925
 37   2.110540 -0.000001 0.000000 -0.166536 0.329639 -1.001586
 38   0.891923 2.373051 -0.014527 -3.141592 -0.000001 1.413797
 39   7.228122 5.709445 3.726568 2.323467 -1.570796 0.000000
 40   2.450426 5.076128 0.001325 3.071630 -1.570796 0.000000
 41   6.312404 -4.528058 0.001311 3.345163 -1.570796 0.000000
 42   2.233309 1.152535 -7.309138 -1.425453 -1.700780 -1.071144
 43   4.262825 -0.232720 -1.392178 0.016840 0.076668 0.253759
time 18
  0   9.943628 38.476471 14.271868 0.497873 -1.237273 -2.176209
  1   1.863665 -5.390790 0.000000 -0.000030 -1.990548 -1.570772
  2   -0.000007 0.000008 4.427393 0.029960 -2.843812 -0.774041
  3   18.465939 0.000000 0.000000 0.000000 0.000000 -1.114001
  4   14.875443 0.000000 -0.000001 -0.119703 0.054833 -0.096068
  5   0.000006 -0.000004 -4.427393 0.217199 2.948035 -0.857404
  6   18.465939 0.000000 0.000000 0.000000 0.000000 -0.933801
  7   14.875442 0.000000 0.000000 -0.209553 -0.228452 -0.002808
  8   2.059889 -0.007574 -0.917994 0.030049 -0.054052 -0.203884
  9   9.514219 -0.009357 0.000000 -0.026362 -0.160534 0.019007
 10   11.751820 -0.001633 0.000000 0.000024 0.043599 0.723585
 11   -1.797174 1.386108 2.575508 0.031183 -1.313743 2.386385
 12   4.640941 0.000000 -0.000001 -0.068030 0.140808 0.634789
 13   10.828049 0.000000 0.000000 0.000000 0.000000 -0.586925
 14   9.393337 -0.000001 0.000000 -1.569611 0.034172 0.000037
 15   1.442245 0.107454 -1.746177 1.686435 0.539209 0.325885
 16   1.063452 0.000000 0.000001 0.000000 0.000000 0.199056
 17   1.376307 -0.000001 0.000001 0.000000 0.000000 0.199049
 18   4.172846 -0.251366 -1.312744 0.008050 0.095731 0.148659
 19   1.215374 0.000002 0.000000 0.000000 0.000000 0.645758
 20   1.215371 -0.000002 0.000001 0.000000 0.000000 0.645758
 21   4.220534 -0.244854 -0.431465 0.001333 0.026242 0.148339
 22   1.350417 0.000000 0.000001 0.000000 0.000000 0.863926
 23   1.350410 -0.000001 -0.000001 0.000000 0.000000 0.863926
 24   -1.566698 1.386121 -2.720041 -0.751155 1.440979 1.672748
 25   4.640942 0.000000 0.000001 -0.240129 -0.880092 0.219400
 26   10.828047 0.000000 0.000001 0.000000 0.000000 -0.710593
 27   9.393339 0.000000 0.000000 1.569611 -0.034192 0.000001
 28   1.442245 0.107455 1.746178 -1.686405 -0.539236 0.325898
 29   1.063450 -0.000001 0.000000 0.000000 0.000000 0.199056
 30   1.376307 0.000000 0.000000 0.000000 0.000000 0.199059
 31   4.172847 -0.251365 1.312745 -0.008050 -0.095731 0.148659
 32   1.215373 -0.000001 0.000000 0.000000 0.000000 0.645746
 33   1.215372 0.000000 0.000000 0.000000 0.000000 0.645746
 34   4.220534 -0.244853 0.431466 -0.001333 -0.026242 0.148339
 35   1.350416 0.000000 -0.000001 0.000000 0.000000 0.863937
 36   1.350410 0.000000 0.000001 0.000000 0.000000 0.863925
 37   2.110540 -0.000001 0.000000 0.238596 0.176789 -0.455903
 38   0.891923 2.373051 -0.014527 -3.141592 -0.000001 1.413797
 39   7.228122 5.709445 3.726568 2.120488 -1.570796 0.000000
 40   2.450426 5.076128 0.001325 3.067505 -1.570796 0.000000
 41   6.312404 -4.528058 0.001311 3.330364 -1.570796 0.000000
 42   2.233309 1.152535 -7.309138 -1.396500 -1.713508 -1.007859
 43   4.262825 -0.232720 -1.392178 0.016840 0.076668 0.253759
time 19
  0   9.801646 46.349377 8.615446 -0.581091 -1.859585 -1.139781
  1   -1.284868 -4.304819 0.000000 -0.000030 -1.989455 -1.570772
  2   -0.000007 0.000008 4.427393 0.036070 -2.815717 -0.749504
  3   18.465939 0.000000 0.000000 0.000000 0.000000 -0.658031
  4   14.875443 0.000000 -0.000001 -0.108717 -0.126103 -0.575205
  5   0.000006 -0.000004 -4.427393 0.230880 2.964532 -0.679589
  6   18.465939 0.000000 0.000000 0.000000 0.000000 -0.965372
  7   14.875442 0.000000 0.000000 -0.214011 -0.200173 0.203989
  8   2.063795 -0.007574 -0.914087 0.084633 0.015986 0.019160
  9   9.514219 -0.009357 0.000000 -0.011743 -0.016251 0.209036
 10   11.751820 -0.001633 0.000000 0.000024 0.043599 0.736550
 11   -1.777642 1.405640 2.575508 -0.013208 -1.338425 2.416820
 12   4.640941 0.000000 -0.000001 -0.012082 0.531005 0.465439
 13   10.828049 0.000000 0.000000 0.000000 0.000000 -0.419019
 14   9.393337 -0.000001 0.000000 -1.569611 0.034172 0.000037
 15   1.442245 0.107454 -1.746177 1.686435 0.539209 0.325885
 16   1.063452 0.000000 0.000001 0.000000 0.000000 0.199056
 17   1.376307 -0.000001 0.000001 0.000000 0.000000 0.199049
 18   4.172846 -0.251366 -1.312744 0.008050 0.095731 0.148659
 19   1.215374 0.000002 0.000000 0.000000 0.000000 0.645758
 20   1.215371 -0.000002 0.000001 0.000000 0.000000 0.645758
 21   4.220534 -0.244854 -0.431465 0.001333 0.026242 0.148339
 22   1.350417 0.000000 0.000001 0.000000 0.000000 0.863926
 23   1.350410 -0.000001 -0.000001 0.000000 0.000000 0.863926
 24   -1.547167 1.405653 -2.716134 -0.579023 1.485150 1.827955
 25   4.640942 0.000000 0.000001 0.374819 -0.717739 -0.245568
 26   10.828047 0.000000 0.000001 0.000000 0.000000 -0.646007
 27   9.393339 0.000000 0.000000 1.569611 -0.034192 0.000001
 28   1.442245 0.107455 1.746178 -1.686405 -0.539236 0.325898
 29   1.063450 -0.000001 0.000000 0.000000 0.000000 0.199056
 30   1.376307 0.000000 0.000000 0.000000 0.000000 0.199059
 31   4.172847 -0.251365 1.312745 -0.008050 -0.095731 0.148659
 32   1.215373 -0.000001 0.000000 0.000000 0.000000 0.645746
 33   1.215372 0.000000 0.000000 0.000000 0.000000 0.645746
 34   4.220534 -0.244853 0.431466 -0.001333 -0.026242 0.148339
 35   1.350416 0.000000 -0.000001 0.000000 0.000000 0.863937
 36   1.350410 0.000000 0.000001 0.000000 0.000000 0.863925
 37   2.110540 -0.000001 0.000000 0.244510 -0.122850 0.157856
 38   0.891923 2.373051 -0.014527 -3.141592 -0.000001 1.413797
 39   7.228122 5.709445 3.726568 2.619909 -1.570796 0.000000
 40   2.450426 5.076128 0.001325 3.063468 -1.570796 0.000000
 41   6.312404 -4.528058 0.001311 3.315260 -1.570796 0.000000
 42   2.233309 1.152535 -7.309138 -1.317788 -1.722769 -0.922459
 43   4.262825 -0.232720 -1.392178 0.016840 0.076668 0.253759
time 20
  0   9.801646 48.579117 7.724793 -0.796136 -1.791320 -0.917731
  1   -0.659849 -4.160283 0.000000 -0.000030 -1.981091 -1.570772
  2   -0.000007 0.000008 4.427393 -0.050418 -2.806134 -0.486375
  3   18.465939 0.000000 0.000000 0.000000 0.000000 -0.670605
  4   14.875443 0.000000 -0.000001 -0.133251 -0.124826 -0.032309
  5   0.000006 -0.000004 -4.427393 0.265036 2.998926 -0.359336
  6   18.465939 0.000000 0.000000 0.000000 0.000000 -0.652220
  7   14.875442 0.000000 0.000000 -0.244720 -0.129465 0.347344
  8   2.071608 -0.007574 -0.898462 0.149129 0.007322 0.074052
  9   9.514219 -0.009357 0.000000 -0.008734 0.000419 -0.091269
 10   11.751820 -0.001633 0.000000 0.000024 0.043599 0.345867
 11   -2.183905 0.667336 2.559883 0.768225 -1.311278 2.035940
 12   4.640941 0.000000 -0.000001 0.262205 0.488438 0.742440
 13   10.828049 0.000000 0.000000 0.000000 0.000000 -0.507975
 14   9.393337 -0.000001 0.000000 -1.569611 0.034172 0.000037
 15   1.442245 0.107454 -1.746177 1.686435 0.539209 0.325885
 16   1.063452 0.000000 0.000001 0.000000 0.000000 0.199056
 17   1.376307 -0.000001 0.000001 0.000000 0.000000 0.199049
 18   4.172846 -0.251366 -1.312744 0.008050 0.095731 0.148659
 19   1.215374 0.000002 0.000000 0.000000 0.000000 0.645758
 20   1.215371 -0.000002 0.000001 0.000000 0.000000 0.645758
 21   4.220534 -0.244854 -0.431465 0.001333 0.026242 0.148339
 22   1.350417 0.000000 0.000001 0.000000 0.000000 0.863926
 23   1.350410 -0.000001 -0.000001 0.000000 0.000000 0.863926
 24   -1.957335 0.667349 -2.735666 -1.223826 1.399216 1.582211
 25   4.640942 0.000000 0.000001 -0.270383 -0.706511 0.684158
 26   10.828047 0.000000 0.000001 0.000000 0.000000 -0.975910
 27   9.393339 0.000000 0.000000 1.569611 -0.034192 0.000001
 28   1.442245 0.107455 1.746178 -1.686405 -0.539236 0.325898
 29   1.063450 -0.000001 0.000000 0.000000 0.000000 0.199056
 30   1.376307 0.000000 0.000000 0.000000 0.000000 0.199059
 31   4.172847 -0.251365 1.312745 -0.008050 -0.095731 0.148659
 32   1.215373 -0.000001 0.000000 0.000000 0.000000 0.645746
 33   1.215372 0.000000 0.000000 0.000000 0.000000 0.645746
 34   4.220534 -0.244853 0.431466 -0.001333 -0.026242 0.148339
 35   1.350416 0.000000 -0.000001 0.000000 0.000000 0.863937
 36   1.350410 0.000000 0.000001 0.000000 0.000000 0.863925
 37   2.110540 -0.000001 0.000000 0.195341 0.060755 0.205418
 38   0.891923 2.373051 -0.014527 -3.141592 -0.000001 1.413797
 39   7.228122 5.709445 3.726568 3.116670 -1.570796 0.000000
 40   2.450426 5.076128 0.001325 3.059342 -1.570796 0.000000
 41   6.312404 -4.528058 0.001311 3.299900 -1.570796 0.000000
 42   2.233309 1.152535 -7.309138 -1.170241 -1.658578 -0.828825
 43   4.262825 -0.232720 -1.392178 0.016840 0.076668 0.253759
time 21
  0   9.801646 49.487530 8.142775 1.349040 -1.409790 -3.048016
  1   0.980826 -3.886837 0.000000 -0.000030 -1.972008 -1.570772
  2   -0.000007 0.000008 4.427393 -0.144258 -2.828555 -0.195217
  3   18.465939 0.000000 0.000000 0.000000 0.000000 -0.822522
  4   14.875443 0.000000 -0.000001 -0.155025 -0.072297 0.718020
  5   0.000006 -0.000004 -4.427393 0.288955 3.038074 -0.073990
  6   18.465939 0.000000 0.000000 0.000000 0.000000 -0.348782
  7   14.875442 0.000000 0.000000 -0.251423 -0.062789 0.464961
  8   2.079421 -0.007574 -0.878930 0.203481 -0.014862 0.065780
  9   9.510313 -0.009357 0.000000 -0.007336 -0.013519 -0.488690
 10   11.751820 -0.001633 0.000000 0.000024 0.043611 -0.100753
 11   -2.269845 -0.289724 2.555976 0.902461 -1.160655 2.367424
 12   4.640941 0.000000 -0.000001 0.541404 0.218503 0.974718
 13   10.828049 0.000000 0.000000 0.000000 0.000000 -0.684788
 14   9.393337 -0.000001 0.000000 -1.569611 0.034172 0.000037
 15   1.442245 0.107454 -1.746177 1.686435 0.539209 0.325885
 16   1.063452 0.000000 0.000001 0.000000 0.000000 0.199056
 17   1.376307 -0.000001 0.000001 0.000000 0.000000 0.199049
 18   4.172846 -0.251366 -1.312744 0.008050 0.095731 0.148659
 19   1.215374 0.000002 0.000000 0.000000 0.000000 0.645758
 20   1.215371 -0.000002 0.000001 0.000000 0.000000 0.645758
 21   4.220534 -0.244854 -0.431465 0.001333 0.026242 0.148339
 22   1.350417 0.000000 0.000001 0.000000 0.000000 0.863926
 23   1.350410 -0.000001 -0.000001 0.000000 0.000000 0.863926
 24   -2.043275 -0.289711 -2.739573 -0.619411 1.243942 2.655996
 25   4.640942 0.000000 0.000001 -0.512256 -0.229216 1.194832
 26   10.828047 0.000000 0.000001 0.000000 0.000000 -1.299251
 27   9.393339 0.000000 0.000000 1.569611 -0.034192 0.000001
 28   1.442245 0.107455 1.746178 -1.686405 -0.539236 0.325898
 29   1.063450 -0.000001 0.000000 0.000000 0.000000 0.199056
 30   1.376307 0.000000 0.000000 0.000000 0.000000 0.199059
 31   4.172847 -0.251365 1.312745 -0.008050 -0.095731 0.148659
 32   1.215373 -0.000001 0.000000 0.000000 0.000000 0.645746
 33   1.215372 0.000000 0.000000 0.000000 0.000000 0.645746
 34   4.220534 -0.244853 0.431466 -0.001333 -0.026242 0.148339
 35   1.350416 0.000000 -0.000001 0.000000 0.000000 0.863937
 36   1.350410 0.000000 0.000001 0.000000 0.000000 0.863925
 37   2.110540 -0.000001 0.000000 -0.009490 0.152766 0.169940
 38   0.891923 2.373051 -0.014527 -3.141592 -0.000001 1.413797
 39   7.228122 5.709445 3.726568 2.833431 -1.570796 0.000000
 40   2.450426 5.076128 0.001325 3.055305 -1.570796 0.000000
 41   6.312404 -4.528058 0.001311 3.284285 -1.570796 0.000000
 42   2.233309 1.152535 -7.309138 -0.838234 -1.627094 -0.935288
 43   4.262825 -0.232720 -1.392178 0.016840 0.076668 0.253759
time 22
  0   9.801646 52.322876 8.439659 1.543472 -1.413689 3.038430
  1   1.910542 -3.652455 0.000000 -0.000030 -1.972008 -1.570772
  2   -0.000007 0.000008 4.427393 -0.148744 -2.831253 -0.181602
  3   18.465939 0.000000 0.000000 0.000000 0.000000 -0.874136
  4   14.875443 0.000000 -0.000001 -0.154825 -0.071509 0.782766
  5   0.000006 -0.000004 -4.427393 0.288955 3.045437 -0.092427
  6   18.465939 0.000000 0.000000 0.000000 0.000000 -0.438507
  7   14.875442 0.000000 0.000000 -0.254617 -0.074846 0.539359
  8   2.079421 -0.007574 -0.878930 0.192266 -0.002710 -0.000031
  9   9.510313 -0.009357 0.000000 -0.007178 -0.013243 -0.558462
 10   11.751820 -0.001633 0.000000 0.000024 0.043611 -0.135648
 11   -2.258126 -0.363945 2.555976 0.781884 -1.141078 2.529009
 12   4.640941 0.000000 -0.000001 0.597155 0.120076 0.976708
 13   10.828049 0.000000 0.000000 0.000000 0.000000 -0.814683
 14   9.393337 -0.000001 0.000000 -1.569611 0.034172 0.000037
 15   1.442245 0.107454 -1.746177 1.686435 0.539209 0.325885
 16   1.063452 0.000000 0.000001 0.000000 0.000000 0.199056
 17   1.376307 -0.000001 0.000001 0.000000 0.000000 0.199049
 18   4.172846 -0.251366 -1.312744 0.008050 0.095731 0.148659
 19   1.215374 0.000002 0.000000 0.000000 0.000000 0.645758
 20   1.215371 -0.000002 0.000001 0.000000 0.000000 0.645758
 21   4.220534 -0.244854 -0.431465 0.001333 0.026242 0.148339
 22   1.350417 0.000000 0.000001 0.000000 0.000000 0.863926
 23   1.350410 -0.000001 -0.000001 0.000000 0.000000 0.863926
 24   -2.031556 -0.363932 -2.739573 -0.743604 1.258562 2.566835
 25   4.640942 0.000000 0.000001 -0.608779 -0.231378 1.147236
 26   10.828047 0.000000 0.000001 0.000000 0.000000 -1.138365
 27   9.393339 0.000000 0.000000 1.569611 -0.034192 0.000001
 28   1.442245 0.107455 1.746178 -1.686405 -0.539236 0.325898
 29   1.063450 -0.000001 0.000000 0.000000 0.000000 0.199056
 30   1.376307 0.000000 0.000000 0.000000 0.000000 0.199059
 31   4.172847 -0.251365 1.312745 -0.008050 -0.095731 0.148659
 32   1.215373 -0.000001 0.000000 0.000000 0.000000 0.645746
 33   1.215372 0.000000 0.000000 0.000000 0.000000 0.645746
 34   4.220534 -0.244853 0.431466 -0.001333 -0.026242 0.148339
 35   1.350416 0.000000 -0.000001 0.000000 0.000000 0.863937
 36   1.350410 0.000000 0.000001 0.000000 0.000000 0.863925
 37   2.110540 -0.000001 0.000000 0.058039 0.147710 0.748349
 38   0.891923 2.373051 -0.014527 -3.141592 -0.000001 1.413797
 39   7.228122 5.709445 3.726568 2.502890 -1.570796 0.000000
 40   2.450426 5.076128 0.001325 3.051268 -1.570796 0.000000
 41   6.312404 -4.528058 0.001311 3.268517 -1.570796 0.000000
 42   2.233309 1.152535 -7.309138 -0.901031 -1.626890 -0.838016
 43   4.262825 -0.232720 -1.392178 0.016840 0.076668 0.253759
time 23
  0   9.801646 54.139702 7.978707 -1.090852 -1.747983 -0.617253
  1   0.769882 -4.066530 0.000000 -0.000030 -1.990950 -1.570772
  2   -0.000007 0.000008 4.427393 -0.197621 -2.828648 -0.008693
  3   18.465939 0.000000 0.000000 0.000000 0.000000 -0.589602
  4   14.875443 0.000000 -0.000001 -0.145974 -0.102456 0.542743
  5   0.000006 -0.000004 -4.427393 0.291347 3.042082 -0.054431
  6   18.465939 0.000000 0.000000 0.000000 0.000000 -0.428662
  7   14.875442 0.000000 0.000000 -0.242439 -0.068665 0.457270
  8   2.059889 -0.007574 -0.917994 0.165279 0.011840 0.023329
  9   9.514219 -0.009357 0.000000 -0.008180 -0.014405 -0.312321
 10   11.751820 -0.001633 0.000000 0.000024 0.043611 0.142407
 11   -2.277658 0.237635 2.555976 0.596201 -1.186689 2.427400
 12   4.640941 0.000000 -0.000001 0.383581 0.232968 0.849681
 13   10.828049 0.000000 0.000000 0.000000 0.000000 -0.834024
 14   9.393337 -0.000001 0.000000 -1.569611 0.034172 0.000037
 15   1.442245 0.107454 -1.746177 1.686435 0.539209 0.325885
 16   1.063452 0.000000 0.000001 0.000000 0.000000 0.199056
 17   1.376307 -0.000001 0.000001 0.000000 0.000000 0.199049
 18   4.172846 -0.251366 -1.312744 0.008050 0.095731 0.148659
 19   1.215374 0.000002 0.000000 0.000000 0.000000 0.645758
 20   1.215371 -0.000002 0.000001 0.000000 0.000000 0.645758
 21   4.220534 -0.244854 -0.431465 0.001333 0.026242 0.148339
 22   1.350417 0.000000 0.000001 0.000000 0.000000 0.863926
 23   1.350410 -0.000001 -0.000001 0.000000 0.000000 0.863926
 24   -2.051088 0.237648 -2.739573 -0.960997 1.317457 2.061727
 25   4.640942 0.000000 0.000001 -0.415630 -0.577563 0.788868
 26   10.828047 0.000000 0.000001 0.000000 0.000000 -0.791966
 27   9.393339 0.000000 0.000000 1.569611 -0.034192 0.000001
 28   1.442245 0.107455 1.746178 -1.686405 -0.539236 0.325898
 29   1.063450 -0.000001 0.000000 0.000000 0.000000 0.199056
 30   1.376307 0.000000 0.000000 0.000000 0.000000 0.199059
 31   4.172847 -0.251365 1.312745 -0.008050 -0.095731 0.148659
 32   1.215373 -0.000001 0.000000 0.000000 0.000000 0.645746
 33   1.215372 0.000000 0.000000 0.000000 0.000000 0.645746
 34   4.220534 -0.244853 0.431466 -0.001333 -0.026242 0.148339
 35   1.350416 0.000000 -0.000001 0.000000 0.000000 0.863937
 36   1.350410 0.000000 0.000001 0.000000 0.000000 0.863925
 37   2.110540 -0.000001 0.000000 0.113980 0.133269 0.268463
 38   0.891923 2.373051 -0.014527 -3.141592 -0.000001 1.413797
 39   7.228122 5.709445 3.726568 2.646409 -1.570796 0.000000
 40   2.450426 5.076128 0.001325 3.047143 -1.570796 0.000000
 41   6.312404 -4.528058 0.001311 3.252596 -1.570796 0.000000
 42   2.233309 1.152535 -7.309138 -0.943023 -1.622929 -0.778657
 43   4.262825 -0.232720 -1.392178 0.016840 0.076668 0.253759
time 24
  0   9.801647 55.736305 7.302906 -0.754239 -1.801163 -0.960780
  1   -0.714538 -4.363414 0.000000 -0.000030 -1.981637 -1.570772
  2   -0.000007 0.000008 4.427393 -0.239815 -2.858605 0.145314
  3   18.465939 0.000000 0.000000 0.000000 0.000000 -0.323638
  4   14.875443 0.000000 -0.000001 -0.133820 -0.131488 0.303549
  5   0.000006 -0.000004 -4.427393 0.291347 3.005917 -0.021488
  6   18.465939 0.000000 0.000000 0.000000 0.000000 -0.421048
  7   14.875442 0.000000 0.000000 -0.232892 -0.058130 0.371167
  8   2.071608 -0.007574 -0.898462 0.142723 -0.005238 0.071504
  9   9.514219 -0.009357 0.000000 -0.009368 -0.015292 -0.069080
 10   11.751820 -0.001633 0.000000 0.000024 0.043599 0.371609
 11   -2.168279 0.722025 2.559883 0.076637 -1.434434 2.692587
 12   4.640941 0.000000 -0.000001 0.229785 0.524668 0.489556
 13   10.828049 0.000000 0.000000 0.000000 0.000000 -0.347696
 14   9.393337 -0.000001 0.000000 -1.569611 0.034172 0.000037
 15   1.442245 0.107454 -1.746177 1.686435 0.539209 0.325885
 16   1.063452 0.000000 0.000001 0.000000 0.000000 0.199056
 17   1.376307 -0.000001 0.000001 0.000000 0.000000 0.199049
 18   4.172846 -0.251366 -1.312744 0.008050 0.095731 0.148659
 19   1.215374 0.000002 0.000000 0.000000 0.000000 0.645758
 20   1.215371 -0.000002 0.000001 0.000000 0.000000 0.645758
 21   4.220534 -0.244854 -0.431465 0.001333 0.026242 0.148339
 22   1.350417 0.000000 0.000001 0.000000 0.000000 0.863926
 23   1.350410 -0.000001 -0.000001 0.000000 0.000000 0.863926
 24   -1.941710 0.718132 -2.735666 -0.484682 1.499147 2.286556
 25   4.640942 0.000000 0.000001 0.015842 -0.730222 0.128478
 26   10.828047 0.000000 0.000001 0.000000 0.000000 -0.002520
 27   9.393339 0.000000 0.000000 1.569611 -0.034192 0.000001
 28   1.442245 0.107455 1.746178 -1.686405 -0.539236 0.325898
 29   1.063450 -0.000001 0.000000 0.000000 0.000000 0.199056
 30   1.376307 0.000000 0.000000 0.000000 0.000000 0.199059
 31   4.172847 -0.251365 1.312745 -0.008050 -0.095731 0.148659
 32   1.215373 -0.000001 0.000000 0.000000 0.000000 0.645746
 33   1.215372 0.000000 0.000000 0.000000 0.000000 0.645746
 34   4.220534 -0.244853 0.431466 -0.001333 -0.026242 0.148339
 35   1.350416 0.000000 -0.000001 0.000000 0.000000 0.863937
 36   1.350410 0.000000 0.000001 0.000000 0.000000 0.863925
 37   2.110540 -0.000001 0.000000 0.135489 0.157180 -0.392816
 38   0.891923 2.373051 -0.014527 -3.141592 -0.000001 1.413797
 39   7.228122 5.709445 3.726568 2.926894 -1.570796 0.000000
 40   2.450426 5.076128 0.001325 3.043105 -1.570796 0.000000
 41   6.312404 -4.528058 0.001311 3.236573 -1.570796 0.000000
 42   2.233309 1.152535 -7.309138 -1.353645 -1.727517 -0.392153
 43   4.262825 -0.232720 -1.392178 0.016840 0.076668 0.253759
time 25
  0   9.801647 55.736305 7.818546 -0.754239 -1.801163 -0.960780
  1   -1.237992 -4.429823 0.000000 -0.000030 -1.812167 -1.570772
  2   -0.000007 0.000008 4.427393 -0.204971 -3.011643 0.050955
  3   18.465939 0.000000 0.000000 0.000000 0.000000 -0.486448
  4   14.875443 0.000000 -0.000001 -0.133365 -0.127316 0.376433
  5   0.000006 -0.000004 -4.427393 0.270394 2.816517 -0.073709
  6   18.465939 0.000000 0.000000 0.000000 0.000000 -0.524163
  7   14.875442 0.000000 0.000000 -0.232120 -0.052367 0.421741
  8   2.192705 -0.007574 -0.539076 0.134008 -0.187512 0.155911
  9   9.514219 -0.009357 0.000000 -0.008642 -0.015161 -0.156301
 10   11.751820 -0.001633 0.000000 0.000024 0.043599 0.371609
 11   -2.168279 0.722025 2.559883 0.076637 -1.434434 2.692587
 12   4.640941 0.000000 -0.000001 0.226494 0.525839 0.454434
 13   10.828049 0.000000 0.000000 0.000000 0.000000 -0.626766
 14   9.393337 -0.000001 0.000000 -1.569611 0.034172 0.000037
 15   1.442245 0.107454 -1.746177 1.686435 0.539209 0.325885
 16   1.063452 0.000000 0.000001 0.000000 0.000000 0.199056
 17   1.376307 -0.000001 0.000001 0.000000 0.000000 0.199049
 18   4.172846 -0.251366 -1.312744 0.008050 0.095731 0.148659
 19   1.215374 0.000002 0.000000 0.000000 0.000000 0.645758
 20   1.215371 -0.000002 0.000001 0.000000 0.000000 0.645758
 21   4.220534 -0.244854 -0.431465 0.001333 0.026242 0.148339
 22   1.350417 0.000000 0.000001 0.000000 0.000000 0.863926
 23   1.350410 -0.000001 -0.000001 0.000000 0.000000 0.863926
 24   -1.941710 0.718132 -2.735666 -0.484682 1.499147 2.286556
 25   4.640942 0.000000 0.000001 0.012549 -0.730013 0.150386
 26   10.828047 0.000000 0.000001 0.000000 0.000000 -0.264178
 27   9.393339 0.000000 0.000000 1.569611 -0.034192 0.000001
 28   1.442245 0.107455 1.746178 -1.686405 -0.539236 0.325898
 29   1.063450 -0.000001 0.000000 0.000000 0.000000 0.199056
 30   1.376307 0.000000 0.000000 0.000000 0.000000 0.199059
 31   4.172847 -0.251365 1.312745 -0.008050 -0.095731 0.148659
 32   1.215373 -0.000001 0.000000 0.000000 0.000000 0.645746
 33   1.215372 0.000000 0.000000 0.000000 0.000000 0.645746
 34   4.220534 -0.244853 0.431466 -0.001333 -0.026242 0.148339
 35   1.350416 0.000000 -0.000001 0.000000 0.000000 0.863937
 36   1.350410 0.000000 0.000001 0.000000 0.000000 0.863925
 37   2.110540 -0.000001 0.000000 0.133963 0.141509 -0.269737
 38   0.891923 2.373051 -0.014527 -3.141592 -0.000001 1.413797
 39   7.228122 5.709445 3.726568 3.122749 -1.570796 0.000000
 40   2.450426 5.076128 0.001325 3.038980 -1.570796 0.000000
 41   6.312404 -4.528058 0.001311 3.220499 -1.570796 0.000000
 42   2.233309 1.152535 -7.309138 -1.425166 -1.814105 -0.333368
 43   4.262825 -0.232720 -1.392178 0.016840 0.076668 0.253759
time 26
  0   9.801647 55.736305 7.896674 -0.754239 -1.801163 -0.960780
  1   -1.316119 -4.437635 0.000000 -0.000030 -1.796301 -1.570772
  2   -0.000007 0.000008 4.427393 -0.207740 -3.034436 0.081676
  3   18.465939 0.000000 0.000000 0.000000 0.000000 -0.407053
  4   14.875443 0.000000 -0.000001 -0.187130 -0.139746 0.289526
  5   0.000006 -0.000004 -4.427393 0.277857 2.808408 -0.048160
  6   18.465939 0.000000 0.000000 0.000000 0.000000 -0.456557
  7   14.875442 0.000000 0.000000 -0.170667 -0.054802 0.332937
  8   2.200518 -0.007574 -0.503919 0.133273 -0.203775 0.159054
  9   9.514219 -0.009357 0.000000 -0.008985 -0.014777 -0.143745
 10   11.751820 -0.001633 0.000000 0.000024 0.043599 0.371609
 11   -2.168279 0.722025 2.559883 0.071704 -1.425099 2.697533
 12   4.640941 0.000000 -0.000001 0.215786 0.520260 0.459644
 13   10.828049 0.000000 0.000000 0.000000 0.000000 -0.605777
 14   9.393337 -0.000001 0.000000 -1.682693 -0.001237 -0.000354
 15   1.442245 0.107454 -1.746177 1.686435 0.539209 0.325885
 16   1.063452 0.000000 0.000001 0.000000 0.000000 0.199056
 17   1.376307 -0.000001 0.000001 0.000000 0.000000 0.199049
 18   4.172846 -0.251366 -1.312744 0.008050 0.095731 0.148659
 19   1.215374 0.000002 0.000000 0.000000 0.000000 0.645758
 20   1.215371 -0.000002 0.000001 0.000000 0.000000 0.645758
 21   4.220534 -0.244854 -0.431465 0.001333 0.026242 0.148339
 22   1.350417 0.000000 0.000001 0.000000 0.000000 0.863926
 23   1.350410 -0.000001 -0.000001 0.000000 0.000000 0.863926
 24   -1.941710 0.718132 -2.735666 -0.400043 1.485067 2.371452
 25   4.640942 0.000000 0.000001 -0.027892 -0.713764 0.180204
 26   10.828047 0.000000 0.000001 0.000000 0.000000 -0.274981
 27   9.393339 0.000000 0.000000 1.569762 -0.036893 -0.018039
 28   1.442245 0.107455 1.746178 -1.686405 -0.539236 0.325898
 29   1.063450 -0.000001 0.000000 0.000000 0.000000 0.199056
 30   1.376307 0.000000 0.000000 0.000000 0.000000 0.199059
 31   4.172847 -0.251365 1.312745 -0.008050 -0.095731 0.148659
 32   1.215373 -0.000001 0.000000 0.000000 0.000000 0.645746
 33   1.215372 0.000000 0.000000 0.000000 0.000000 0.645746
 34   4.220534 -0.244853 0.431466 -0.001333 -0.026242 0.148339
 35   1.350416 0.000000 -0.000001 0.000000 0.000000 0.863937
 36   1.350410 0.000000 0.000001 0.000000 0.000000 0.863925
 37   2.110540 -0.000001 0.000000 0.197582 0.142207 -0.342544
 38   0.891923 2.373051 -0.014527 -3.141592 -0.000001 1.413797
 39   7.228122 5.709445 3.726568 3.174990 -1.570796 0.000000
 40   2.450426 5.076128 0.001325 3.034943 -1.570796 0.000000
 41   6.312404 -4.528058 0.001311 3.204424 -1.570796 0.000000
 42   2.233309 1.152535 -7.309138 -1.422673 -1.821852 -0.314124
 43   4.262825 -0.232720 -1.392178 0.016840 0.076668 0.253759
time 27
  0   9.801647 55.736305 7.931831 -0.754239 -1.801163 -0.960780
  1   -1.347370 -4.441542 0.000000 -0.000030 -1.796473 -1.570772
  2   -0.000007 0.000008 4.427393 -0.212226 -3.043740 0.125016
  3   18.465939 0.000000 0.000000 0.000000 0.000000 -0.302290
  4   14.875443 0.000000 -0.000001 -0.246046 -0.156305 0.186698
  5   0.000006 -0.000004 -4.427393 0.288955 2.819407 -0.014095
  6   18.465939 0.000000 0.000000 0.000000 0.000000 -0.371164
  7   14.875442 0.000000 0.000000 -0.102756 -0.054763 0.229538
  8   2.200518 -0.007574 -0.503919 0.135079 -0.202864 0.153197
  9   9.514219 -0.009357 0.000000 -0.009447 -0.014370 -0.120798
 10   11.751820 -0.001633 0.000000 0.000024 0.043599 0.371609
 11   -2.168279 0.722025 2.559883 0.067000 -1.414793 2.702274
 12   4.640941 0.000000 -0.000001 0.204243 0.514267 0.469010
 13   10.828049 0.000000 0.000000 0.000000 0.000000 -0.553429
 14   9.393337 -0.000001 0.000000 -1.807675 -0.040174 0.003895
 15   1.442245 0.107454 -1.746177 1.686435 0.539209 0.325885
 16   1.063452 0.000000 0.000001 0.000000 0.000000 0.199056
 17   1.376307 -0.000001 0.000001 0.000000 0.000000 0.199049
 18   4.172846 -0.251366 -1.312744 0.008050 0.095731 0.148659
 19   1.215374 0.000002 0.000000 0.000000 0.000000 0.645758
 20   1.215371 -0.000002 0.000001 0.000000 0.000000 0.645758
 21   4.220534 -0.244854 -0.431465 0.001333 0.026242 0.148339
 22   1.350417 0.000000 0.000001 0.000000 0.000000 0.863926
 23   1.350410 -0.000001 -0.000001 0.000000 0.000000 0.863926
 24   -1.941710 0.718132 -2.735666 -0.334325 1.468993 2.437497
 25   4.640942 0.000000 0.000001 -0.070854 -0.695074 0.209951
 26   10.828047 0.000000 0.000001 0.000000 0.000000 -0.259531
 27   9.393339 0.000000 0.000000 1.570013 -0.039918 -0.037971
 28   1.442245 0.107455 1.746178 -1.686405 -0.539236 0.325898
 29   1.063450 -0.000001 0.000000 0.000000 0.000000 0.199056
 30   1.376307 0.000000 0.000000 0.000000 0.000000 0.199059
 31   4.172847 -0.251365 1.312745 -0.008050 -0.095731 0.148659
 32   1.215373 -0.000001 0.000000 0.000000 0.000000 0.645746
 33   1.215372 0.000000 0.000000 0.000000 0.000000 0.645746
 34   4.220534 -0.244853 0.431466 -0.001333 -0.026242 0.148339
 35   1.350416 0.000000 -0.000001 0.000000 0.000000 0.863937
 36   1.350410 0.000000 0.000001 0.000000 0.000000 0.863925
 37   2.110540 -0.000001 0.000000 0.267783 0.149638 -0.435476
 38   0.891923 2.373051 -0.014527 -3.141592 -0.000001 1.413797
 39   7.228122 5.709445 3.726568 3.184678 -1.570796 0.000000
 40   2.450426 5.076128 0.001325 3.030906 -1.570796 0.000000
 41   6.312404 -4.528058 0.001311 3.188350 -1.570796 0.000000
 42   2.233309 1.152535 -7.309138 -1.409155 -1.811804 -0.298231
 43   4.262825 -0.232720 -1.392178 0.016840 0.076668 0.253759
time 28
  0   9.801647 55.736305 7.935738 -0.754239 -1.801163 -0.960780
  1   -1.355183 -4.445448 0.000000 -0.000030 -1.805815 -1.570772
  2   -0.000007 0.000008 4.427393 -0.218527 -3.045414 0.175537
  3   18.465939 0.000000 0.000000 0.000000 0.000000 -0.183125
  4   14.875443 0.000000 -0.000001 -0.307496 -0.176588 0.075456
  5   0.000006 -0.000004 -4.427393 0.300915 2.841777 0.024089
  6   18.465939 0.000000 0.000000 0.000000 0.000000 -0.275532
  7   14.875442 0.000000 0.000000 -0.031300 -0.051207 0.118111
  8   2.196611 -0.007574 -0.523450 0.138208 -0.192114 0.142245
  9   9.514219 -0.009357 0.000000 -0.009948 -0.013926 -0.091876
 10   11.751820 -0.001633 0.000000 0.000024 0.043599 0.371609
 11   -2.168279 0.722025 2.559883 0.062674 -1.403931 2.706671
 12   4.640941 0.000000 -0.000001 0.192110 0.508344 0.480717
 13   10.828049 0.000000 0.000000 0.000000 0.000000 -0.483204
 14   9.393337 -0.000001 0.000000 -1.939884 -0.080288 0.013664
 15   1.442245 0.107454 -1.746177 1.686435 0.539209 0.325885
 16   1.063452 0.000000 0.000001 0.000000 0.000000 0.199056
 17   1.376307 -0.000001 0.000001 0.000000 0.000000 0.199049
 18   4.172846 -0.251366 -1.312744 0.008050 0.095731 0.148659
 19   1.215374 0.000002 0.000000 0.000000 0.000000 0.645758
 20   1.215371 -0.000002 0.000001 0.000000 0.000000 0.645758
 21   4.220534 -0.244854 -0.431465 0.001333 0.026242 0.148339
 22   1.350417 0.000000 0.000001 0.000000 0.000000 0.863926
 23   1.350410 -0.000001 -0.000001 0.000000 0.000000 0.863926
 24   -1.941710 0.718132 -2.735666 -0.284498 1.451694 2.487650
 25   4.640942 0.000000 0.000001 -0.114485 -0.674291 0.239138
 26   10.828047 0.000000 0.000001 0.000000 0.000000 -0.229096
 27   9.393339 0.000000 0.000000 1.570315 -0.043074 -0.059018
 28   1.442245 0.107455 1.746178 -1.686405 -0.539236 0.325898
 29   1.063450 -0.000001 0.000000 0.000000 0.000000 0.199056
 30   1.376307 0.000000 0.000000 0.000000 0.000000 0.199059
 31   4.172847 -0.251365 1.312745 -0.008050 -0.095731 0.148659
 32   1.215373 -0.000001 0.000000 0.000000 0.000000 0.645746
 33   1.215372 0.000000 0.000000 0.000000 0.000000 0.645746
 34   4.220534 -0.244853 0.431466 -0.001333 -0.026242 0.148339
 35   1.350416 0.000000 -0.000001 0.000000 0.000000 0.863937
 36   1.350410 0.000000 0.000001 0.000000 0.000000 0.863925
 37   2.110540 -0.000001 0.000000 0.340940 0.164777 -0.539332
 38   0.891923 2.373051 -0.014527 -3.141592 -0.000001 1.413797
 39   7.228122 5.709445 3.726568 3.170051 -1.570796 0.000000
 40   2.450426 5.076128 0.001325 3.026781 -1.570796 0.000000
 41   6.312404 -4.528058 0.001311 3.172378 -1.570796 0.000000
 42   2.233309 1.152535 -7.309138 -1.389118 -1.791504 -0.284349
 43   4.262825 -0.232720 -1.392178 0.016840 0.076668 0.253759
time 29
  0   9.801647 55.736305 7.935738 -0.754239 -1.801163 -0.960780
  1   -1.355183 -4.445448 0.000000 -0.000030 -1.817456 -1.570772
  2   -0.000007 0.000008 4.427393 -0.225877 -3.045693 0.227853
  3   18.465939 0.000000 0.000000 0.000000 0.000000 -0.060305
  4   14.875443 0.000000 -0.000001 -0.369030 -0.199809 -0.036971
  5   0.000006 -0.000004 -4.427393 0.311630 2.867223 0.062927
  6   18.465939 0.000000 0.000000 0.000000 0.000000 -0.177471
  7   14.875442 0.000000 0.000000 0.040788 -0.043752 0.005145
  8   2.188799 -0.007574 -0.550795 0.141400 -0.178835 0.130102
  9   9.514219 -0.009357 0.000000 -0.010450 -0.013471 -0.061460
 10   11.751820 -0.001633 0.000000 0.000024 0.043599 0.371609
 11   -2.168279 0.722025 2.559883 0.058880 -1.392926 2.710587
 12   4.640941 0.000000 -0.000001 0.179879 0.502902 0.492952
 13   10.828049 0.000000 0.000000 0.000000 0.000000 -0.408525
 14   9.393337 -0.000001 0.000000 -2.074711 -0.119255 0.028853
 15   1.442245 0.107454 -1.746177 1.686435 0.539209 0.325885
 16   1.063452 0.000000 0.000001 0.000000 0.000000 0.199056
 17   1.376307 -0.000001 0.000001 0.000000 0.000000 0.199049
 18   4.172846 -0.251366 -1.312744 0.008050 0.095731 0.148659
 19   1.215374 0.000002 0.000000 0.000000 0.000000 0.645758
 20   1.215371 -0.000002 0.000001 0.000000 0.000000 0.645758
 21   4.220534 -0.244854 -0.431465 0.001333 0.026242 0.148339
 22   1.350417 0.000000 0.000001 0.000000 0.000000 0.863926
 23   1.350410 -0.000001 -0.000001 0.000000 0.000000 0.863926
 24   -1.941710 0.718132 -2.735666 -0.246964 1.433959 2.525419
 25   4.640942 0.000000 0.000001 -0.157087 -0.652114 0.267276
 26   10.828047 0.000000 0.000001 0.000000 0.000000 -0.194886
 27   9.393339 0.000000 0.000000 1.570717 -0.046262 -0.080307
 28   1.442245 0.107455 1.746178 -1.686405 -0.539236 0.325898
 29   1.063450 -0.000001 0.000000 0.000000 0.000000 0.199056
 30   1.376307 0.000000 0.000000 0.000000 0.000000 0.199059
 31   4.172847 -0.251365 1.312745 -0.008050 -0.095731 0.148659
 32   1.215373 -0.000001 0.000000 0.000000 0.000000 0.645746
 33   1.215372 0.000000 0.000000 0.000000 0.000000 0.645746
 34   4.220534 -0.244853 0.431466 -0.001333 -0.026242 0.148339
 35   1.350416 0.000000 -0.000001 0.000000 0.000000 0.863937
 36   1.350410 0.000000 0.000001 0.000000 0.000000 0.863925
 37   2.110540 -0.000001 0.000000 0.413573 0.186928 -0.645036
 38   0.891923 2.373051 -0.014527 -3.141592 -0.000001 1.413797
 39   7.228122 5.709445 3.726568 3.149344 -1.570796 0.000000
 40   2.450426 5.076128 0.001325 3.022743 -1.570796 0.000000
 41   6.312404 -4.528058 0.001311 3.156457 -1.570796 0.000000
 42   2.233309 1.152535 -7.309138 -1.366683 -1.768641 -0.271807
 43   4.262825 -0.232720 -1.392178 0.016840 0.076668 0.253759
time 30
  0   9.801647 55.736305 7.947456 -0.754239 -1.801163 -0.960780
  1   -1.366902 -4.445448 0.000000 -0.000030 -1.824512 -1.570772
  2   -0.000007 0.000008 4.427393 -0.232178 -3.050159 0.276479
  3   18.465939 0.000000 0.000000 0.000000 0.000000 0.055278
  4   14.875443 0.000000 -0.000001 -0.428260 -0.224776 -0.143472
  5   0.000006 -0.000004 -4.427393 0.320815 2.887542 0.099145
  6   18.465939 0.000000 0.000000 0.000000 0.000000 -0.084398
  7   14.875442 0.000000 0.000000 0.110559 -0.032608 -0.102905
  8   2.184892 -0.007574 -0.566421 0.143816 -0.170458 0.120540
  9   9.514219 -0.009357 0.000000 -0.010911 -0.013015 -0.034031
 10   11.751820 -0.001633 0.000000 0.000024 0.043599 0.371609
 11   -2.168279 0.722025 2.559883 0.055541 -1.382207 2.713953
 12   4.640941 0.000000 -0.000001 0.167796 0.498081 0.503898
 13   10.828049 0.000000 0.000000 0.000000 0.000000 -0.342754
 14   9.393337 -0.000001 0.000000 -2.207418 -0.154905 0.048781
 15   1.442245 0.107454 -1.746177 1.686435 0.539209 0.325885
 16   1.063452 0.000000 0.000001 0.000000 0.000000 0.199056
 17   1.376307 -0.000001 0.000001 0.000000 0.000000 0.199049
 18   4.172846 -0.251366 -1.312744 0.008050 0.095731 0.148659
 19   1.215374 0.000002 0.000000 0.000000 0.000000 0.645758
 20   1.215371 -0.000002 0.000001 0.000000 0.000000 0.645758
 21   4.220534 -0.244854 -0.431465 0.001333 0.026242 0.148339
 22   1.350417 0.000000 0.000001 0.000000 0.000000 0.863926
 23   1.350410 -0.000001 -0.000001 0.000000 0.000000 0.863926
 24   -1.941710 0.718132 -2.735666 -0.218780 1.416536 2.553970
 25   4.640942 0.000000 0.000001 -0.197116 -0.629519 0.294153
 26   10.828047 0.000000 0.000001 0.000000 0.000000 -0.168227
 27   9.393339 0.000000 0.000000 1.571169 -0.049353 -0.101063
 28   1.442245 0.107455 1.746178 -1.686405 -0.539236 0.325898
 29   1.063450 -0.000001 0.000000 0.000000 0.000000 0.199056
 30   1.376307 0.000000 0.000000 0.000000 0.000000 0.199059
 31   4.172847 -0.251365 1.312745 -0.008050 -0.095731 0.148659
 32   1.215373 -0.000001 0.000000 0.000000 0.000000 0.645746
 33   1.215372 0.000000 0.000000 0.000000 0.000000 0.645746
 34   4.220534 -0.244853 0.431466 -0.001333 -0.026242 0.148339
 35   1.350416 0.000000 -0.000001 0.000000 0.000000 0.863937
 36   1.350410 0.000000 0.000001 0.000000 0.000000 0.863925
 37   2.110540 -0.000001 0.000000 0.482772 0.213493 -0.743559
 38   0.891923 2.373051 -0.014527 -3.141592 -0.000001 1.413797
 39   7.228122 5.709445 3.726568 3.140796 -1.570796 0.000000
 40   2.450426 5.076128 0.001325 3.018618 -1.570796 0.000000
 41   6.312404 -4.528058 0.001311 3.140791 -1.570796 0.000000
 42   2.233309 1.152535 -7.309138 -1.347125 -1.750787 -0.258691
 43   4.262825 -0.232720 -1.392178 0.016840 0.076668 0.253759
end
