version 1
nodes
  0 "Bip01" -1
  1 "Bip01 Pelvis" 0
  2 "Bip01 L Thigh" 1
  3 "Bip01 L Calf" 2
  4 "Bip01 L Foot" 3
  5 "Bip01 R Thigh" 1
  6 "Bip01 R Calf" 5
  7 "Bip01 R Foot" 6
  8 "Bip01 Spine" 1
  9 "Bip01 Spine1" 8
 10 "Bip01 Neck" 9
 11 "Bip01 L Clavicle" 10
 12 "Bip01 L UpperArm" 11
 13 "Bip01 L Forearm" 12
 14 "Bip01 L Hand" 13
 15 "Bip01 L Finger0" 14
 16 "Bip01 L Finger01" 15
 17 "Bip01 L Finger02" 16
 18 "Bip01 L Finger1" 14
 19 "Bip01 L Finger11" 18
 20 "Bip01 L Finger12" 19
 21 "Bip01 L Finger2" 14
 22 "Bip01 L Finger21" 21
 23 "Bip01 L Finger22" 22
 24 "Bip01 R Clavicle" 10
 25 "Bip01 R UpperArm" 24
 26 "Bip01 R Forearm" 25
 27 "Bip01 R Hand" 26
 28 "Bip01 R Finger0" 27
 29 "Bip01 R Finger01" 28
 30 "Bip01 R Finger02" 29
 31 "Bip01 R Finger1" 27
 32 "Bip01 R Finger11" 31
 33 "Bip01 R Finger12" 32
 34 "Bip01 R Finger2" 27
 35 "Bip01 R Finger21" 34
 36 "Bip01 R Finger22" 35
 37 "Bip01 Head" 10
 38 "Bone05" 37
 39 "Bone08" 9
 40 "Bone16" 8
 41 "Bone01" 8
 42 "Bone03" 1
 43 "Bip01 R Finger4" 27
end
skeleton
time 0
  0   0.613360 1.121457 16.787571 0.000000 0.122085 -2.303533
  1   -2.890386 0.410169 0.000000 -1.570795 -1.570451 0.000000
  2   -0.000007 0.000008 4.427393 -0.302724 -2.300409 -0.884410
  3   18.465939 0.000000 0.000000 0.000000 0.000000 -2.470801
  4   14.875443 0.000000 -0.000001 -0.208590 -0.313807 1.431492
  5   0.000006 -0.000004 -4.427393 0.019055 3.168752 -0.734337
  6   18.465939 0.000000 0.000000 0.000000 0.000000 -2.368746
  7   14.875442 0.000000 0.000000 0.026574 0.019976 -0.458385
  8   2.255207 -0.007574 0.000003 -0.270527 -0.017223 0.244982
  9   9.514219 -0.009357 0.000000 -0.046852 0.137248 0.051458
 10   11.751820 -0.001633 0.000000 0.000000 -0.000001 0.239386
 11   -2.133122 0.444673 2.649729 -0.426689 -1.380267 3.321272
 12   4.640941 0.000000 -0.000001 -0.188276 0.839305 -0.689279
 13   10.828049 0.000000 0.000000 0.000000 0.000000 -0.583752
 14   9.393337 -0.000001 0.000000 -1.569611 0.034172 0.000037
 15   1.442245 0.107454 -1.746177 1.686435 0.539209 0.325885
 16   1.063452 0.000000 0.000001 0.000000 0.000000 0.199056
 17   1.376307 -0.000001 0.000001 0.000000 0.000000 0.199049
 18   4.172846 -0.251366 -1.312744 0.008050 0.095731 0.148659
 19   1.215374 0.000002 0.000000 0.000000 0.000000 0.645758
 20   1.215371 -0.000002 0.000001 0.000000 0.000000 0.645758
 21   4.220534 -0.244854 -0.431465 0.001333 0.026242 0.148339
 22   1.350417 0.000000 0.000001 0.000000 0.000000 0.863926
 23   1.350410 -0.000001 -0.000001 0.000000 0.000000 0.863926
 24   -2.133122 0.444686 -2.649726 -0.112103 1.413442 2.790701
 25   4.640942 0.000000 0.000001 -0.465435 -1.004367 0.116929
 26   10.828047 0.000000 0.000001 0.000000 0.000000 -0.601168
 27   9.393339 0.000000 0.000000 1.569611 -0.034192 0.000001
 28   1.442245 0.107455 1.746178 -1.686405 -0.539236 0.325898
 29   1.063450 -0.000001 0.000000 0.000000 0.000000 0.199056
 30   1.376307 0.000000 0.000000 0.000000 0.000000 0.199059
 31   4.172847 -0.251365 1.312745 -0.008050 -0.095731 0.148659
 32   1.215373 -0.000001 0.000000 0.000000 0.000000 0.645746
 33   1.215372 0.000000 0.000000 0.000000 0.000000 0.645746
 34   4.220534 -0.244853 0.431466 -0.001333 -0.026242 0.148339
 35   1.350416 0.000000 -0.000001 0.000000 0.000000 0.863937
 36   1.350410 0.000000 0.000001 0.000000 0.000000 0.863925
 37   2.110540 -0.000001 0.000000 -0.589599 0.416259 0.197979
 38   0.891923 2.373051 -0.014527 -3.141592 -0.000001 1.413797
 39   7.228122 5.709445 3.726568 3.140796 -1.570796 0.000000
 40   2.450426 5.076128 0.001325 2.652100 -1.570796 0.000000
 41   6.312404 -4.528058 0.001311 3.140791 -1.570796 0.000000
 42   2.233309 1.152535 -7.309138 -1.168036 -1.466121 -1.196276
 43   4.262825 -0.232720 -1.392178 0.016840 0.076668 0.253759
time 1
  0   0.613360 1.121457 16.783663 0.000000 0.122085 -2.303533
  1   -2.925543 0.417982 0.000000 -1.570795 -1.570451 0.000000
  2   -0.000007 0.000008 4.427393 -0.302724 -2.301525 -0.887252
  3   18.465939 0.000000 0.000000 0.000000 0.000000 -2.471313
  4   14.875443 0.000000 -0.000001 -0.208903 -0.311146 1.430662
  5   0.000006 -0.000004 -4.427393 0.018481 3.168193 -0.736864
  6   18.465939 0.000000 0.000000 0.000000 0.000000 -2.369402
  7   14.875442 0.000000 0.000000 0.025837 0.019710 -0.460336
  8   2.255207 -0.007574 0.000003 -0.270590 -0.016300 0.248324
  9   9.514219 -0.009357 0.000000 -0.046852 0.137248 0.051458
 10   11.751820 -0.001633 0.000000 0.000000 -0.000001 0.239386
 11   -2.133122 0.444673 2.649729 -0.426689 -1.380267 3.321272
 12   4.640941 0.000000 -0.000001 -0.192845 0.839442 -0.693142
 13   10.828049 0.000000 0.000000 0.000000 0.000000 -0.583752
 14   9.393337 -0.000001 0.000000 -1.569611 0.034172 0.000037
 15   1.442245 0.107454 -1.746177 1.686435 0.539209 0.325885
 16   1.063452 0.000000 0.000001 0.000000 0.000000 0.199056
 17   1.376307 -0.000001 0.000001 0.000000 0.000000 0.199049
 18   4.172846 -0.251366 -1.312744 0.008050 0.095731 0.148659
 19   1.215374 0.000002 0.000000 0.000000 0.000000 0.645758
 20   1.215371 -0.000002 0.000001 0.000000 0.000000 0.645758
 21   4.220534 -0.244854 -0.431465 0.001333 0.026242 0.148339
 22   1.350417 0.000000 0.000001 0.000000 0.000000 0.863926
 23   1.350410 -0.000001 -0.000001 0.000000 0.000000 0.863926
 24   -2.133122 0.444686 -2.649726 -0.112103 1.413442 2.790701
 25   4.640942 0.000000 0.000001 -0.460547 -1.006459 0.112240
 26   10.828047 0.000000 0.000001 0.000000 0.000000 -0.601168
 27   9.393339 0.000000 0.000000 1.569611 -0.034192 0.000001
 28   1.442245 0.107455 1.746178 -1.686405 -0.539236 0.325898
 29   1.063450 -0.000001 0.000000 0.000000 0.000000 0.199056
 30   1.376307 0.000000 0.000000 0.000000 0.000000 0.199059
 31   4.172847 -0.251365 1.312745 -0.008050 -0.095731 0.148659
 32   1.215373 -0.000001 0.000000 0.000000 0.000000 0.645746
 33   1.215372 0.000000 0.000000 0.000000 0.000000 0.645746
 34   4.220534 -0.244853 0.431466 -0.001333 -0.026242 0.148339
 35   1.350416 0.000000 -0.000001 0.000000 0.000000 0.863937
 36   1.350410 0.000000 0.000001 0.000000 0.000000 0.863925
 37   2.110540 -0.000001 0.000000 -0.577485 0.416203 0.194796
 38   0.891923 2.373051 -0.014527 -3.141592 -0.000001 1.413797
 39   7.228122 5.709445 3.726568 3.140796 -1.570796 0.000000
 40   2.450426 5.076128 0.001325 2.643499 -1.570796 0.000000
 41   6.312404 -4.528058 0.001311 3.140791 -1.570796 0.000000
 42   2.233309 1.152535 -7.309138 -1.169953 -1.466180 -1.197234
 43   4.262825 -0.232720 -1.392178 0.016840 0.076668 0.253759
time 2
  0   0.613360 1.121457 16.779757 0.000000 0.122085 -2.303533
  1   -2.964607 0.429701 0.000000 -1.570795 -1.570451 0.000000
  2   -0.000007 0.000008 4.427393 -0.302820 -2.302735 -0.890295
  3   18.465939 0.000000 0.000000 0.000000 0.000000 -2.471825
  4   14.875443 0.000000 -0.000001 -0.209273 -0.308230 1.429714
  5   0.000006 -0.000004 -4.427393 0.017907 3.167634 -0.739765
  6   18.465939 0.000000 0.000000 0.000000 0.000000 -2.370190
  7   14.875442 0.000000 0.000000 0.025030 0.019406 -0.462437
  8   2.255207 -0.007574 0.000003 -0.270653 -0.015281 0.251964
  9   9.514219 -0.009357 0.000000 -0.046852 0.137248 0.051458
 10   11.751820 -0.001633 0.000000 0.000000 -0.000001 0.239386
 11   -2.133122 0.444673 2.649729 -0.426689 -1.380267 3.321272
 12   4.640941 0.000000 -0.000001 -0.197855 0.839580 -0.697357
 13   10.828049 0.000000 0.000000 0.000000 0.000000 -0.583752
 14   9.393337 -0.000001 0.000000 -1.569611 0.034172 0.000037
 15   1.442245 0.107454 -1.746177 1.686435 0.539209 0.325885
 16   1.063452 0.000000 0.000001 0.000000 0.000000 0.199056
 17   1.376307 -0.000001 0.000001 0.000000 0.000000 0.199049
 18   4.172846 -0.251366 -1.312744 0.008050 0.095731 0.148659
 19   1.215374 0.000002 0.000000 0.000000 0.000000 0.645758
 20   1.215371 -0.000002 0.000001 0.000000 0.000000 0.645758
 21   4.220534 -0.244854 -0.431465 0.001333 0.026242 0.148339
 22   1.350417 0.000000 0.000001 0.000000 0.000000 0.863926
 23   1.350410 -0.000001 -0.000001 0.000000 0.000000 0.863926
 24   -2.133122 0.444686 -2.649726 -0.112103 1.413442 2.790701
 25   4.640942 0.000000 0.000001 -0.455145 -1.008621 0.106990
 26   10.828047 0.000000 0.000001 0.000000 0.000000 -0.601168
 27   9.393339 0.000000 0.000000 1.569611 -0.034192 0.000001
 28   1.442245 0.107455 1.746178 -1.686405 -0.539236 0.325898
 29   1.063450 -0.000001 0.000000 0.000000 0.000000 0.199056
 30   1.376307 0.000000 0.000000 0.000000 0.000000 0.199059
 31   4.172847 -0.251365 1.312745 -0.008050 -0.095731 0.148659
 32   1.215373 -0.000001 0.000000 0.000000 0.000000 0.645746
 33   1.215372 0.000000 0.000000 0.000000 0.000000 0.645746
 34   4.220534 -0.244853 0.431466 -0.001333 -0.026242 0.148339
 35   1.350416 0.000000 -0.000001 0.000000 0.000000 0.863937
 36   1.350410 0.000000 0.000001 0.000000 0.000000 0.863925
 37   2.110540 -0.000001 0.000000 -0.564227 0.416147 0.191270
 38   0.891923 2.373051 -0.014527 -3.141592 -0.000001 1.413797
 39   7.228122 5.709445 3.726568 3.140796 -1.570796 0.000000
 40   2.450426 5.076128 0.001325 2.633932 -1.570796 0.000000
 41   6.312404 -4.528058 0.001311 3.140791 -1.570796 0.000000
 42   2.233309 1.152535 -7.309138 -1.172062 -1.466296 -1.198382
 43   4.262825 -0.232720 -1.392178 0.016840 0.076668 0.253759
time 3
  0   0.613360 1.121457 16.775850 0.000000 0.122085 -2.303533
  1   -3.003671 0.441420 0.000000 -1.570795 -1.570451 0.000000
  2   -0.000007 0.000008 4.427393 -0.302915 -2.304037 -0.893586
  3   18.465939 0.000000 0.000000 0.000000 0.000000 -2.472409
  4   14.875443 0.000000 -0.000001 -0.209643 -0.305123 1.428687
  5   0.000006 -0.000004 -4.427393 0.017333 3.167074 -0.742854
  6   18.465939 0.000000 0.000000 0.000000 0.000000 -2.370977
  7   14.875442 0.000000 0.000000 0.024187 0.019101 -0.464725
  8   2.255207 -0.007574 0.000003 -0.270695 -0.014203 0.255868
  9   9.514219 -0.009357 0.000000 -0.046852 0.137248 0.051458
 10   11.751820 -0.001633 0.000000 0.000000 -0.000001 0.239386
 11   -2.133122 0.444673 2.649729 -0.426689 -1.380267 3.321272
 12   4.640941 0.000000 -0.000001 -0.203209 0.839718 -0.701806
 13   10.828049 0.000000 0.000000 0.000000 0.000000 -0.583752
 14   9.393337 -0.000001 0.000000 -1.569611 0.034172 0.000037
 15   1.442245 0.107454 -1.746177 1.686435 0.539209 0.325885
 16   1.063452 0.000000 0.000001 0.000000 0.000000 0.199056
 17   1.376307 -0.000001 0.000001 0.000000 0.000000 0.199049
 18   4.172846 -0.251366 -1.312744 0.008050 0.095731 0.148659
 19   1.215374 0.000002 0.000000 0.000000 0.000000 0.645758
 20   1.215371 -0.000002 0.000001 0.000000 0.000000 0.645758
 21   4.220534 -0.244854 -0.431465 0.001333 0.026242 0.148339
 22   1.350417 0.000000 0.000001 0.000000 0.000000 0.863926
 23   1.350410 -0.000001 -0.000001 0.000000 0.000000 0.863926
 24   -2.133122 0.444686 -2.649726 -0.112103 1.413442 2.790701
 25   4.640942 0.000000 0.000001 -0.449331 -1.010992 0.101391
 26   10.828047 0.000000 0.000001 0.000000 0.000000 -0.601168
 27   9.393339 0.000000 0.000000 1.569611 -0.034192 0.000001
 28   1.442245 0.107455 1.746178 -1.686405 -0.539236 0.325898
 29   1.063450 -0.000001 0.000000 0.000000 0.000000 0.199056
 30   1.376307 0.000000 0.000000 0.000000 0.000000 0.199059
 31   4.172847 -0.251365 1.312745 -0.008050 -0.095731 0.148659
 32   1.215373 -0.000001 0.000000 0.000000 0.000000 0.645746
 33   1.215372 0.000000 0.000000 0.000000 0.000000 0.645746
 34   4.220534 -0.244853 0.431466 -0.001333 -0.026242 0.148339
 35   1.350416 0.000000 -0.000001 0.000000 0.000000 0.863937
 36   1.350410 0.000000 0.000001 0.000000 0.000000 0.863925
 37   2.110540 -0.000001 0.000000 -0.550111 0.416064 0.187529
 38   0.891923 2.373051 -0.014527 -3.141592 -0.000001 1.413797
 39   7.228122 5.709445 3.726568 3.140796 -1.570796 0.000000
 40   2.450426 5.076128 0.001325 2.623839 -1.570796 0.000000
 41   6.312404 -4.528058 0.001311 3.140791 -1.570796 0.000000
 42   2.233309 1.152535 -7.309138 -1.174267 -1.466383 -1.199436
 43   4.262825 -0.232720 -1.392178 0.016840 0.076668 0.253759
time 4
  0   0.613360 1.121457 16.771944 0.000000 0.122085 -2.303533
  1   -3.046641 0.453139 0.000000 -1.570795 -1.570451 0.000000
  2   -0.000007 0.000008 4.427393 -0.302915 -2.305340 -0.896978
  3   18.465939 0.000000 0.000000 0.000000 0.000000 -2.473067
  4   14.875443 0.000000 -0.000001 -0.210070 -0.301888 1.427660
  5   0.000006 -0.000004 -4.427393 0.016663 3.166422 -0.746036
  6   18.465939 0.000000 0.000000 0.000000 0.000000 -2.371831
  7   14.875442 0.000000 0.000000 0.023310 0.018759 -0.467089
  8   2.255207 -0.007574 0.000003 -0.270758 -0.013076 0.259938
  9   9.514219 -0.009357 0.000000 -0.046852 0.137248 0.051458
 10   11.751820 -0.001633 0.000000 0.000000 -0.000001 0.239386
 11   -2.133122 0.444673 2.649729 -0.426689 -1.380267 3.321272
 12   4.640941 0.000000 -0.000001 -0.208809 0.839856 -0.706547
 13   10.828049 0.000000 0.000000 0.000000 0.000000 -0.583752
 14   9.393337 -0.000001 0.000000 -1.569611 0.034172 0.000037
 15   1.442245 0.107454 -1.746177 1.686435 0.539209 0.325885
 16   1.063452 0.000000 0.000001 0.000000 0.000000 0.199056
 17   1.376307 -0.000001 0.000001 0.000000 0.000000 0.199049
 18   4.172846 -0.251366 -1.312744 0.008050 0.095731 0.148659
 19   1.215374 0.000002 0.000000 0.000000 0.000000 0.645758
 20   1.215371 -0.000002 0.000001 0.000000 0.000000 0.645758
 21   4.220534 -0.244854 -0.431465 0.001333 0.026242 0.148339
 22   1.350417 0.000000 0.000001 0.000000 0.000000 0.863926
 23   1.350410 -0.000001 -0.000001 0.000000 0.000000 0.863926
 24   -2.133122 0.444686 -2.649726 -0.112103 1.413442 2.790701
 25   4.640942 0.000000 0.000001 -0.443208 -1.013433 0.095441
 26   10.828047 0.000000 0.000001 0.000000 0.000000 -0.601168
 27   9.393339 0.000000 0.000000 1.569611 -0.034192 0.000001
 28   1.442245 0.107455 1.746178 -1.686405 -0.539236 0.325898
 29   1.063450 -0.000001 0.000000 0.000000 0.000000 0.199056
 30   1.376307 0.000000 0.000000 0.000000 0.000000 0.199059
 31   4.172847 -0.251365 1.312745 -0.008050 -0.095731 0.148659
 32   1.215373 -0.000001 0.000000 0.000000 0.000000 0.645746
 33   1.215372 0.000000 0.000000 0.000000 0.000000 0.645746
 34   4.220534 -0.244853 0.431466 -0.001333 -0.026242 0.148339
 35   1.350416 0.000000 -0.000001 0.000000 0.000000 0.863937
 36   1.350410 0.000000 0.000001 0.000000 0.000000 0.863925
 37   2.110540 -0.000001 0.000000 -0.535327 0.416008 0.183572
 38   0.891923 2.373051 -0.014527 -3.141592 -0.000001 1.413797
 39   7.228122 5.709445 3.726568 3.140796 -1.570796 0.000000
 40   2.450426 5.076128 0.001325 2.613219 -1.570796 0.000000
 41   6.312404 -4.528058 0.001311 3.140791 -1.570796 0.000000
 42   2.233309 1.152535 -7.309138 -1.176664 -1.466500 -1.200680
 43   4.262825 -0.232720 -1.392178 0.016840 0.076668 0.253759
time 5
  0   0.613360 1.121457 16.764132 0.000000 0.122085 -2.303533
  1   -3.089611 0.464858 0.000000 -1.570795 -1.570451 0.000000
  2   -0.000007 0.000008 4.427393 -0.303011 -2.306735 -0.900519
  3   18.465939 0.000000 0.000000 0.000000 0.000000 -2.473652
  4   14.875443 0.000000 -0.000001 -0.210469 -0.298546 1.426593
  5   0.000006 -0.000004 -4.427393 0.015898 3.165769 -0.749218
  6   18.465939 0.000000 0.000000 0.000000 0.000000 -2.372684
  7   14.875442 0.000000 0.000000 0.022397 0.018417 -0.469527
  8   2.255207 -0.007574 0.000003 -0.270821 -0.011914 0.264140
  9   9.514219 -0.009357 0.000000 -0.046852 0.137248 0.051458
 10   11.751820 -0.001633 0.000000 0.000000 -0.000001 0.239386
 11   -2.133122 0.444673 2.649729 -0.426689 -1.380267 3.321272
 12   4.640941 0.000000 -0.000001 -0.214556 0.839993 -0.711347
 13   10.828049 0.000000 0.000000 0.000000 0.000000 -0.583752
 14   9.393337 -0.000001 0.000000 -1.569611 0.034172 0.000037
 15   1.442245 0.107454 -1.746177 1.686435 0.539209 0.325885
 16   1.063452 0.000000 0.000001 0.000000 0.000000 0.199056
 17   1.376307 -0.000001 0.000001 0.000000 0.000000 0.199049
 18   4.172846 -0.251366 -1.312744 0.008050 0.095731 0.148659
 19   1.215374 0.000002 0.000000 0.000000 0.000000 0.645758
 20   1.215371 -0.000002 0.000001 0.000000 0.000000 0.645758
 21   4.220534 -0.244854 -0.431465 0.001333 0.026242 0.148339
 22   1.350417 0.000000 0.000001 0.000000 0.000000 0.863926
 23   1.350410 -0.000001 -0.000001 0.000000 0.000000 0.863926
 24   -2.133122 0.444686 -2.649726 -0.112103 1.413442 2.790701
 25   4.640942 0.000000 0.000001 -0.436880 -1.015874 0.089282
 26   10.828047 0.000000 0.000001 0.000000 0.000000 -0.601168
 27   9.393339 0.000000 0.000000 1.569611 -0.034192 0.000001
 28   1.442245 0.107455 1.746178 -1.686405 -0.539236 0.325898
 29   1.063450 -0.000001 0.000000 0.000000 0.000000 0.199056
 30   1.376307 0.000000 0.000000 0.000000 0.000000 0.199059
 31   4.172847 -0.251365 1.312745 -0.008050 -0.095731 0.148659
 32   1.215373 -0.000001 0.000000 0.000000 0.000000 0.645746
 33   1.215372 0.000000 0.000000 0.000000 0.000000 0.645746
 34   4.220534 -0.244853 0.431466 -0.001333 -0.026242 0.148339
 35   1.350416 0.000000 -0.000001 0.000000 0.000000 0.863937
 36   1.350410 0.000000 0.000001 0.000000 0.000000 0.863925
 37   2.110540 -0.000001 0.000000 -0.520209 0.415952 0.179573
 38   0.891923 2.373051 -0.014527 -3.141592 -0.000001 1.413797
 39   7.228122 5.709445 3.726568 3.140796 -1.570796 0.000000
 40   2.450426 5.076128 0.001325 2.602336 -1.570796 0.000000
 41   6.312404 -4.528058 0.001311 3.140791 -1.570796 0.000000
 42   2.233309 1.152535 -7.309138 -1.179061 -1.466587 -1.201925
 43   4.262825 -0.232720 -1.392178 0.016840 0.076668 0.253759
time 6
  0   0.613360 1.121457 16.760225 0.000000 0.122085 -2.303533
  1   -3.132581 0.480483 0.000000 -1.570795 -1.570451 0.000000
  2   -0.000007 0.000008 4.427393 -0.303106 -2.308131 -0.904010
  3   18.465939 0.000000 0.000000 0.000000 0.000000 -2.474310
  4   14.875443 0.000000 -0.000001 -0.210924 -0.295205 1.425487
  5   0.000006 -0.000004 -4.427393 0.015228 3.165117 -0.752493
  6   18.465939 0.000000 0.000000 0.000000 0.000000 -2.373537
  7   14.875442 0.000000 0.000000 0.021485 0.018074 -0.471966
  8   2.255207 -0.007574 0.000003 -0.270863 -0.010739 0.268342
  9   9.514219 -0.009357 0.000000 -0.046852 0.137248 0.051458
 10   11.751820 -0.001633 0.000000 0.000000 -0.000001 0.239386
 11   -2.133122 0.444673 2.649729 -0.426689 -1.380267 3.321272
 12   4.640941 0.000000 -0.000001 -0.220303 0.840062 -0.716265
 13   10.828049 0.000000 0.000000 0.000000 0.000000 -0.583752
 14   9.393337 -0.000001 0.000000 -1.569611 0.034172 0.000037
 15   1.442245 0.107454 -1.746177 1.686435 0.539209 0.325885
 16   1.063452 0.000000 0.000001 0.000000 0.000000 0.199056
 17   1.376307 -0.000001 0.000001 0.000000 0.000000 0.199049
 18   4.172846 -0.251366 -1.312744 0.008050 0.095731 0.148659
 19   1.215374 0.000002 0.000000 0.000000 0.000000 0.645758
 20   1.215371 -0.000002 0.000001 0.000000 0.000000 0.645758
 21   4.220534 -0.244854 -0.431465 0.001333 0.026242 0.148339
 22   1.350417 0.000000 0.000001 0.000000 0.000000 0.863926
 23   1.350410 -0.000001 -0.000001 0.000000 0.000000 0.863926
 24   -2.133122 0.444686 -2.649726 -0.112103 1.413442 2.790701
 25   4.640942 0.000000 0.000001 -0.430500 -1.018315 0.083053
 26   10.828047 0.000000 0.000001 0.000000 0.000000 -0.601168
 27   9.393339 0.000000 0.000000 1.569611 -0.034192 0.000001
 28   1.442245 0.107455 1.746178 -1.686405 -0.539236 0.325898
 29   1.063450 -0.000001 0.000000 0.000000 0.000000 0.199056
 30   1.376307 0.000000 0.000000 0.000000 0.000000 0.199059
 31   4.172847 -0.251365 1.312745 -0.008050 -0.095731 0.148659
 32   1.215373 -0.000001 0.000000 0.000000 0.000000 0.645746
 33   1.215372 0.000000 0.000000 0.000000 0.000000 0.645746
 34   4.220534 -0.244853 0.431466 -0.001333 -0.026242 0.148339
 35   1.350416 0.000000 -0.000001 0.000000 0.000000 0.863937
 36   1.350410 0.000000 0.000001 0.000000 0.000000 0.863925
 37   2.110540 -0.000001 0.000000 -0.504996 0.415896 0.175530
 38   0.891923 2.373051 -0.014527 -3.141592 -0.000001 1.413797
 39   7.228122 5.709445 3.726568 3.140796 -1.570796 0.000000
 40   2.450426 5.076128 0.001325 2.591540 -1.570796 0.000000
 41   6.312404 -4.528058 0.001311 3.140791 -1.570796 0.000000
 42   2.233309 1.152535 -7.309138 -1.181458 -1.466704 -1.203169
 43   4.262825 -0.232720 -1.392178 0.016840 0.076668 0.253759
time 7
  0   0.613360 1.121457 16.756319 0.000000 0.122085 -2.303533
  1   -3.175551 0.492203 0.000000 -1.570795 -1.570451 0.000000
  2   -0.000007 0.000008 4.427393 -0.303202 -2.309526 -0.907451
  3   18.465939 0.000000 0.000000 0.000000 0.000000 -2.474895
  4   14.875443 0.000000 -0.000001 -0.211351 -0.291906 1.424420
  5   0.000006 -0.000004 -4.427393 0.014559 3.164464 -0.755769
  6   18.465939 0.000000 0.000000 0.000000 0.000000 -2.374391
  7   14.875442 0.000000 0.000000 0.020608 0.017732 -0.474367
  8   2.255207 -0.007574 0.000003 -0.270905 -0.009589 0.272478
  9   9.514219 -0.009357 0.000000 -0.046852 0.137248 0.051458
 10   11.751820 -0.001633 0.000000 0.000000 -0.000001 0.239386
 11   -2.133122 0.444673 2.649729 -0.426689 -1.380267 3.321272
 12   4.640941 0.000000 -0.000001 -0.226001 0.840131 -0.721065
 13   10.828049 0.000000 0.000000 0.000000 0.000000 -0.583752
 14   9.393337 -0.000001 0.000000 -1.569611 0.034172 0.000037
 15   1.442245 0.107454 -1.746177 1.686435 0.539209 0.325885
 16   1.063452 0.000000 0.000001 0.000000 0.000000 0.199056
 17   1.376307 -0.000001 0.000001 0.000000 0.000000 0.199049
 18   4.172846 -0.251366 -1.312744 0.008050 0.095731 0.148659
 19   1.215374 0.000002 0.000000 0.000000 0.000000 0.645758
 20   1.215371 -0.000002 0.000001 0.000000 0.000000 0.645758
 21   4.220534 -0.244854 -0.431465 0.001333 0.026242 0.148339
 22   1.350417 0.000000 0.000001 0.000000 0.000000 0.863926
 23   1.350410 -0.000001 -0.000001 0.000000 0.000000 0.863926
 24   -2.133122 0.444686 -2.649726 -0.112103 1.413442 2.790701
 25   4.640942 0.000000 0.000001 -0.424120 -1.020756 0.076893
 26   10.828047 0.000000 0.000001 0.000000 0.000000 -0.601168
 27   9.393339 0.000000 0.000000 1.569611 -0.034192 0.000001
 28   1.442245 0.107455 1.746178 -1.686405 -0.539236 0.325898
 29   1.063450 -0.000001 0.000000 0.000000 0.000000 0.199056
 30   1.376307 0.000000 0.000000 0.000000 0.000000 0.199059
 31   4.172847 -0.251365 1.312745 -0.008050 -0.095731 0.148659
 32   1.215373 -0.000001 0.000000 0.000000 0.000000 0.645746
 33   1.215372 0.000000 0.000000 0.000000 0.000000 0.645746
 34   4.220534 -0.244853 0.431466 -0.001333 -0.026242 0.148339
 35   1.350416 0.000000 -0.000001 0.000000 0.000000 0.863937
 36   1.350410 0.000000 0.000001 0.000000 0.000000 0.863925
 37   2.110540 -0.000001 0.000000 -0.489925 0.415840 0.171531
 38   0.891923 2.373051 -0.014527 -3.141592 -0.000001 1.413797
 39   7.228122 5.709445 3.726568 3.140796 -1.570796 0.000000
 40   2.450426 5.076128 0.001325 2.580920 -1.570796 0.000000
 41   6.312404 -4.528058 0.001311 3.140791 -1.570796 0.000000
 42   2.233309 1.152535 -7.309138 -1.183854 -1.466820 -1.204318
 43   4.262825 -0.232720 -1.392178 0.016840 0.076668 0.253759
time 8
  0   0.613360 1.121457 16.748507 0.000000 0.122085 -2.303533
  1   -3.214615 0.503922 0.000000 -1.570795 -1.570451 0.000000
  2   -0.000007 0.000008 4.427393 -0.303297 -2.310829 -0.910842
  3   18.465939 0.000000 0.000000 0.000000 0.000000 -2.475553
  4   14.875443 0.000000 -0.000001 -0.211778 -0.288713 1.423393
  5   0.000006 -0.000004 -4.427393 0.013889 3.163812 -0.758951
  6   18.465939 0.000000 0.000000 0.000000 0.000000 -2.375244
  7   14.875442 0.000000 0.000000 0.019730 0.017390 -0.476693
  8   2.255207 -0.007574 0.000003 -0.270947 -0.008474 0.276515
  9   9.514219 -0.009357 0.000000 -0.046852 0.137248 0.051458
 10   11.751820 -0.001633 0.000000 0.000000 -0.000001 0.239386
 11   -2.133122 0.444673 2.649729 -0.426689 -1.380267 3.321272
 12   4.640941 0.000000 -0.000001 -0.231551 0.840200 -0.725748
 13   10.828049 0.000000 0.000000 0.000000 0.000000 -0.583752
 14   9.393337 -0.000001 0.000000 -1.569611 0.034172 0.000037
 15   1.442245 0.107454 -1.746177 1.686435 0.539209 0.325885
 16   1.063452 0.000000 0.000001 0.000000 0.000000 0.199056
 17   1.376307 -0.000001 0.000001 0.000000 0.000000 0.199049
 18   4.172846 -0.251366 -1.312744 0.008050 0.095731 0.148659
 19   1.215374 0.000002 0.000000 0.000000 0.000000 0.645758
 20   1.215371 -0.000002 0.000001 0.000000 0.000000 0.645758
 21   4.220534 -0.244854 -0.431465 0.001333 0.026242 0.148339
 22   1.350417 0.000000 0.000001 0.000000 0.000000 0.863926
 23   1.350410 -0.000001 -0.000001 0.000000 0.000000 0.863926
 24   -2.133122 0.444686 -2.649726 -0.112103 1.413442 2.790701
 25   4.640942 0.000000 0.000001 -0.417894 -1.023057 0.070804
 26   10.828047 0.000000 0.000001 0.000000 0.000000 -0.601168
 27   9.393339 0.000000 0.000000 1.569611 -0.034192 0.000001
 28   1.442245 0.107455 1.746178 -1.686405 -0.539236 0.325898
 29   1.063450 -0.000001 0.000000 0.000000 0.000000 0.199056
 30   1.376307 0.000000 0.000000 0.000000 0.000000 0.199059
 31   4.172847 -0.251365 1.312745 -0.008050 -0.095731 0.148659
 32   1.215373 -0.000001 0.000000 0.000000 0.000000 0.645746
 33   1.215372 0.000000 0.000000 0.000000 0.000000 0.645746
 34   4.220534 -0.244853 0.431466 -0.001333 -0.026242 0.148339
 35   1.350416 0.000000 -0.000001 0.000000 0.000000 0.863937
 36   1.350410 0.000000 0.000001 0.000000 0.000000 0.863925
 37   2.110540 -0.000001 0.000000 -0.475332 0.415784 0.167704
 38   0.891923 2.373051 -0.014527 -3.141592 -0.000001 1.413797
 39   7.228122 5.709445 3.726568 3.140796 -1.570796 0.000000
 40   2.450426 5.076128 0.001325 2.570740 -1.570796 0.000000
 41   6.312404 -4.528058 0.001311 3.140791 -1.570796 0.000000
 42   2.233309 1.152535 -7.309138 -1.186155 -1.466908 -1.205467
 43   4.262825 -0.232720 -1.392178 0.016840 0.076668 0.253759
time 9
  0   0.613360 1.121457 16.744600 0.000000 0.122085 -2.303533
  1   -3.253678 0.515641 0.000000 -1.570795 -1.570451 0.000000
  2   -0.000007 0.000008 4.427393 -0.303392 -2.312131 -0.914034
  3   18.465939 0.000000 0.000000 0.000000 0.000000 -2.476065
  4   14.875443 0.000000 -0.000001 -0.212176 -0.285648 1.422406
  5   0.000006 -0.000004 -4.427393 0.013315 3.163253 -0.761945
  6   18.465939 0.000000 0.000000 0.000000 0.000000 -2.376031
  7   14.875442 0.000000 0.000000 0.018888 0.017066 -0.478944
  8   2.255207 -0.007574 0.000003 -0.270968 -0.007407 0.280353
  9   9.514219 -0.009357 0.000000 -0.046852 0.137248 0.051458
 10   11.751820 -0.001633 0.000000 0.000000 -0.000001 0.239386
 11   -2.133122 0.444673 2.649729 -0.426689 -1.380267 3.321272
 12   4.640941 0.000000 -0.000001 -0.236807 0.840200 -0.730197
 13   10.828049 0.000000 0.000000 0.000000 0.000000 -0.583752
 14   9.393337 -0.000001 0.000000 -1.569611 0.034172 0.000037
 15   1.442245 0.107454 -1.746177 1.686435 0.539209 0.325885
 16   1.063452 0.000000 0.000001 0.000000 0.000000 0.199056
 17   1.376307 -0.000001 0.000001 0.000000 0.000000 0.199049
 18   4.172846 -0.251366 -1.312744 0.008050 0.095731 0.148659
 19   1.215374 0.000002 0.000000 0.000000 0.000000 0.645758
 20   1.215371 -0.000002 0.000001 0.000000 0.000000 0.645758
 21   4.220534 -0.244854 -0.431465 0.001333 0.026242 0.148339
 22   1.350417 0.000000 0.000001 0.000000 0.000000 0.863926
 23   1.350410 -0.000001 -0.000001 0.000000 0.000000 0.863926
 24   -2.133122 0.444686 -2.649726 -0.112103 1.413442 2.790701
 25   4.640942 0.000000 0.000001 -0.411926 -1.025289 0.064994
 26   10.828047 0.000000 0.000001 0.000000 0.000000 -0.601168
 27   9.393339 0.000000 0.000000 1.569611 -0.034192 0.000001
 28   1.442245 0.107455 1.746178 -1.686405 -0.539236 0.325898
 29   1.063450 -0.000001 0.000000 0.000000 0.000000 0.199056
 30   1.376307 0.000000 0.000000 0.000000 0.000000 0.199059
 31   4.172847 -0.251365 1.312745 -0.008050 -0.095731 0.148659
 32   1.215373 -0.000001 0.000000 0.000000 0.000000 0.645746
 33   1.215372 0.000000 0.000000 0.000000 0.000000 0.645746
 34   4.220534 -0.244853 0.431466 -0.001333 -0.026242 0.148339
 35   1.350416 0.000000 -0.000001 0.000000 0.000000 0.863937
 36   1.350410 0.000000 0.000001 0.000000 0.000000 0.863925
 37   2.110540 -0.000001 0.000000 -0.461502 0.415756 0.164005
 38   0.891923 2.373051 -0.014527 -3.141592 -0.000001 1.413797
 39   7.228122 5.709445 3.726568 3.140796 -1.570796 0.000000
 40   2.450426 5.076128 0.001325 2.561260 -1.570796 0.000000
 41   6.312404 -4.528058 0.001311 3.140791 -1.570796 0.000000
 42   2.233309 1.152535 -7.309138 -1.188360 -1.467024 -1.206616
 43   4.262825 -0.232720 -1.392178 0.016840 0.076668 0.253759
time 10
  0   0.613360 1.121457 16.740694 0.000000 0.122085 -2.303533
  1   -3.292742 0.523453 0.000000 -1.570795 -1.570451 0.000000
  2   -0.000007 0.000008 4.427393 -0.303488 -2.313247 -0.916977
  3   18.465939 0.000000 0.000000 0.000000 0.000000 -2.476650
  4   14.875443 0.000000 -0.000001 -0.212575 -0.282817 1.421497
  5   0.000006 -0.000004 -4.427393 0.012645 3.162694 -0.764659
  6   18.465939 0.000000 0.000000 0.000000 0.000000 -2.376754
  7   14.875442 0.000000 0.000000 0.018116 0.016762 -0.481008
  8   2.255207 -0.007574 0.000003 -0.270989 -0.006425 0.283893
  9   9.514219 -0.009357 0.000000 -0.046852 0.137248 0.051458
 10   11.751820 -0.001633 0.000000 0.000000 -0.000001 0.239386
 11   -2.133122 0.444673 2.649729 -0.426689 -1.380267 3.321272
 12   4.640941 0.000000 -0.000001 -0.241670 0.840200 -0.734353
 13   10.828049 0.000000 0.000000 0.000000 0.000000 -0.583752
 14   9.393337 -0.000001 0.000000 -1.569611 0.034172 0.000037
 15   1.442245 0.107454 -1.746177 1.686435 0.539209 0.325885
 16   1.063452 0.000000 0.000001 0.000000 0.000000 0.199056
 17   1.376307 -0.000001 0.000001 0.000000 0.000000 0.199049
 18   4.172846 -0.251366 -1.312744 0.008050 0.095731 0.148659
 19   1.215374 0.000002 0.000000 0.000000 0.000000 0.645758
 20   1.215371 -0.000002 0.000001 0.000000 0.000000 0.645758
 21   4.220534 -0.244854 -0.431465 0.001333 0.026242 0.148339
 22   1.350417 0.000000 0.000001 0.000000 0.000000 0.863926
 23   1.350410 -0.000001 -0.000001 0.000000 0.000000 0.863926
 24   -2.133122 0.444686 -2.649726 -0.112103 1.413442 2.790701
 25   4.640942 0.000000 0.000001 -0.406318 -1.027311 0.059535
 26   10.828047 0.000000 0.000001 0.000000 0.000000 -0.601168
 27   9.393339 0.000000 0.000000 1.569611 -0.034192 0.000001
 28   1.442245 0.107455 1.746178 -1.686405 -0.539236 0.325898
 29   1.063450 -0.000001 0.000000 0.000000 0.000000 0.199056
 30   1.376307 0.000000 0.000000 0.000000 0.000000 0.199059
 31   4.172847 -0.251365 1.312745 -0.008050 -0.095731 0.148659
 32   1.215373 -0.000001 0.000000 0.000000 0.000000 0.645746
 33   1.215372 0.000000 0.000000 0.000000 0.000000 0.645746
 34   4.220534 -0.244853 0.431466 -0.001333 -0.026242 0.148339
 35   1.350416 0.000000 -0.000001 0.000000 0.000000 0.863937
 36   1.350410 0.000000 0.000001 0.000000 0.000000 0.863925
 37   2.110540 -0.000001 0.000000 -0.448578 0.415700 0.160565
 38   0.891923 2.373051 -0.014527 -3.141592 -0.000001 1.413797
 39   7.228122 5.709445 3.726568 3.140796 -1.570796 0.000000
 40   2.450426 5.076128 0.001325 2.552572 -1.570796 0.000000
 41   6.312404 -4.528058 0.001311 3.140791 -1.570796 0.000000
 42   2.233309 1.152535 -7.309138 -1.190374 -1.467112 -1.207669
 43   4.262825 -0.232720 -1.392178 0.016840 0.076668 0.253759
time 11
  0   0.613360 1.121457 16.736788 0.000000 0.122085 -2.303533
  1   -3.323993 0.535173 0.000000 -1.570795 -1.570451 0.000000
  2   -0.000007 0.000008 4.427393 -0.303583 -2.314364 -0.919620
  3   18.465939 0.000000 0.000000 0.000000 0.000000 -2.477088
  4   14.875443 0.000000 -0.000001 -0.212916 -0.280263 1.420668
  5   0.000006 -0.000004 -4.427393 0.012167 3.162227 -0.767186
  6   18.465939 0.000000 0.000000 0.000000 0.000000 -2.377410
  7   14.875442 0.000000 0.000000 0.017449 0.016477 -0.482884
  8   2.255207 -0.007574 0.000003 -0.271010 -0.005526 0.287103
  9   9.514219 -0.009357 0.000000 -0.046852 0.137248 0.051458
 10   11.751820 -0.001633 0.000000 0.000000 -0.000001 0.239386
 11   -2.133122 0.444673 2.649729 -0.426689 -1.380267 3.321272
 12   4.640941 0.000000 -0.000001 -0.246091 0.840200 -0.738158
 13   10.828049 0.000000 0.000000 0.000000 0.000000 -0.583752
 14   9.393337 -0.000001 0.000000 -1.569611 0.034172 0.000037
 15   1.442245 0.107454 -1.746177 1.686435 0.539209 0.325885
 16   1.063452 0.000000 0.000001 0.000000 0.000000 0.199056
 17   1.376307 -0.000001 0.000001 0.000000 0.000000 0.199049
 18   4.172846 -0.251366 -1.312744 0.008050 0.095731 0.148659
 19   1.215374 0.000002 0.000000 0.000000 0.000000 0.645758
 20   1.215371 -0.000002 0.000001 0.000000 0.000000 0.645758
 21   4.220534 -0.244854 -0.431465 0.001333 0.026242 0.148339
 22   1.350417 0.000000 0.000001 0.000000 0.000000 0.863926
 23   1.350410 -0.000001 -0.000001 0.000000 0.000000 0.863926
 24   -2.133122 0.444686 -2.649726 -0.112103 1.413442 2.790701
 25   4.640942 0.000000 0.000001 -0.401275 -1.029124 0.054495
 26   10.828047 0.000000 0.000001 0.000000 0.000000 -0.601168
 27   9.393339 0.000000 0.000000 1.569611 -0.034192 0.000001
 28   1.442245 0.107455 1.746178 -1.686405 -0.539236 0.325898
 29   1.063450 -0.000001 0.000000 0.000000 0.000000 0.199056
 30   1.376307 0.000000 0.000000 0.000000 0.000000 0.199059
 31   4.172847 -0.251365 1.312745 -0.008050 -0.095731 0.148659
 32   1.215373 -0.000001 0.000000 0.000000 0.000000 0.645746
 33   1.215372 0.000000 0.000000 0.000000 0.000000 0.645746
 34   4.220534 -0.244853 0.431466 -0.001333 -0.026242 0.148339
 35   1.350416 0.000000 -0.000001 0.000000 0.000000 0.863937
 36   1.350410 0.000000 0.000001 0.000000 0.000000 0.863925
 37   2.110540 -0.000001 0.000000 -0.436941 0.415673 0.157512
 38   0.891923 2.373051 -0.014527 -3.141592 -0.000001 1.413797
 39   7.228122 5.709445 3.726568 3.140796 -1.570796 0.000000
 40   2.450426 5.076128 0.001325 2.545023 -1.570796 0.000000
 41   6.312404 -4.528058 0.001311 3.140791 -1.570796 0.000000
 42   2.233309 1.152535 -7.309138 -1.192195 -1.467199 -1.208627
 43   4.262825 -0.232720 -1.392178 0.016840 0.076668 0.253759
time 12
  0   0.613360 1.121457 16.732882 0.000000 0.122085 -2.303533
  1   -3.351337 0.542985 0.000000 -1.570795 -1.570451 0.000000
  2   -0.000007 0.000008 4.427393 -0.303679 -2.315201 -0.921964
  3   18.465939 0.000000 0.000000 0.000000 0.000000 -2.477527
  4   14.875443 0.000000 -0.000001 -0.213229 -0.278050 1.419957
  5   0.000006 -0.000004 -4.427393 0.011688 3.161761 -0.769432
  6   18.465939 0.000000 0.000000 0.000000 0.000000 -2.378000
  7   14.875442 0.000000 0.000000 0.016852 0.016230 -0.484497
  8   2.255207 -0.007574 0.000003 -0.271031 -0.004747 0.289915
  9   9.514219 -0.009357 0.000000 -0.046852 0.137248 0.051458
 10   11.751820 -0.001633 0.000000 0.000000 -0.000001 0.239386
 11   -2.133122 0.444673 2.649729 -0.426689 -1.380267 3.321272
 12   4.640941 0.000000 -0.000001 -0.249922 0.840200 -0.741436
 13   10.828049 0.000000 0.000000 0.000000 0.000000 -0.583752
 14   9.393337 -0.000001 0.000000 -1.569611 0.034172 0.000037
 15   1.442245 0.107454 -1.746177 1.686435 0.539209 0.325885
 16   1.063452 0.000000 0.000001 0.000000 0.000000 0.199056
 17   1.376307 -0.000001 0.000001 0.000000 0.000000 0.199049
 18   4.172846 -0.251366 -1.312744 0.008050 0.095731 0.148659
 19   1.215374 0.000002 0.000000 0.000000 0.000000 0.645758
 20   1.215371 -0.000002 0.000001 0.000000 0.000000 0.645758
 21   4.220534 -0.244854 -0.431465 0.001333 0.026242 0.148339
 22   1.350417 0.000000 0.000001 0.000000 0.000000 0.863926
 23   1.350410 -0.000001 -0.000001 0.000000 0.000000 0.863926
 24   -2.133122 0.444686 -2.649726 -0.112103 1.413442 2.790701
 25   4.640942 0.000000 0.000001 -0.396850 -1.030659 0.050156
 26   10.828047 0.000000 0.000001 0.000000 0.000000 -0.601168
 27   9.393339 0.000000 0.000000 1.569611 -0.034192 0.000001
 28   1.442245 0.107455 1.746178 -1.686405 -0.539236 0.325898
 29   1.063450 -0.000001 0.000000 0.000000 0.000000 0.199056
 30   1.376307 0.000000 0.000000 0.000000 0.000000 0.199059
 31   4.172847 -0.251365 1.312745 -0.008050 -0.095731 0.148659
 32   1.215373 -0.000001 0.000000 0.000000 0.000000 0.645746
 33   1.215372 0.000000 0.000000 0.000000 0.000000 0.645746
 34   4.220534 -0.244853 0.431466 -0.001333 -0.026242 0.148339
 35   1.350416 0.000000 -0.000001 0.000000 0.000000 0.863937
 36   1.350410 0.000000 0.000001 0.000000 0.000000 0.863925
 37   2.110540 -0.000001 0.000000 -0.426783 0.415645 0.154802
 38   0.891923 2.373051 -0.014527 -3.141592 -0.000001 1.413797
 39   7.228122 5.709445 3.726568 3.140796 -1.570796 0.000000
 40   2.450426 5.076128 0.001325 2.538792 -1.570796 0.000000
 41   6.312404 -4.528058 0.001311 3.140791 -1.570796 0.000000
 42   2.233309 1.152535 -7.309138 -1.193825 -1.467257 -1.209393
 43   4.262825 -0.232720 -1.392178 0.016840 0.076668 0.253759
time 13
  0   0.613360 1.121457 16.728975 0.000000 0.122085 -2.303533
  1   -3.374776 0.550798 0.000000 -1.570795 -1.570451 0.000000
  2   -0.000007 0.000008 4.427393 -0.303774 -2.316038 -0.923859
  3   18.465939 0.000000 0.000000 0.000000 0.000000 -2.477892
  4   14.875443 0.000000 -0.000001 -0.213486 -0.276219 1.419364
  5   0.000006 -0.000004 -4.427393 0.011306 3.161482 -0.771210
  6   18.465939 0.000000 0.000000 0.000000 0.000000 -2.378460
  7   14.875442 0.000000 0.000000 0.016326 0.016040 -0.485848
  8   2.255207 -0.007574 0.000003 -0.271031 -0.004112 0.292198
  9   9.514219 -0.009357 0.000000 -0.046852 0.137248 0.051458
 10   11.751820 -0.001633 0.000000 0.000000 -0.000001 0.239386
 11   -2.133122 0.444673 2.649729 -0.426689 -1.380267 3.321272
 12   4.640941 0.000000 -0.000001 -0.253066 0.840200 -0.744129
 13   10.828049 0.000000 0.000000 0.000000 0.000000 -0.583752
 14   9.393337 -0.000001 0.000000 -1.569611 0.034172 0.000037
 15   1.442245 0.107454 -1.746177 1.686435 0.539209 0.325885
 16   1.063452 0.000000 0.000001 0.000000 0.000000 0.199056
 17   1.376307 -0.000001 0.000001 0.000000 0.000000 0.199049
 18   4.172846 -0.251366 -1.312744 0.008050 0.095731 0.148659
 19   1.215374 0.000002 0.000000 0.000000 0.000000 0.645758
 20   1.215371 -0.000002 0.000001 0.000000 0.000000 0.645758
 21   4.220534 -0.244854 -0.431465 0.001333 0.026242 0.148339
 22   1.350417 0.000000 0.000001 0.000000 0.000000 0.863926
 23   1.350410 -0.000001 -0.000001 0.000000 0.000000 0.863926
 24   -2.133122 0.444686 -2.649726 -0.112103 1.413442 2.790701
 25   4.640942 0.000000 0.000001 -0.393146 -1.031984 0.046586
 26   10.828047 0.000000 0.000001 0.000000 0.000000 -0.601168
 27   9.393339 0.000000 0.000000 1.569611 -0.034192 0.000001
 28   1.442245 0.107455 1.746178 -1.686405 -0.539236 0.325898
 29   1.063450 -0.000001 0.000000 0.000000 0.000000 0.199056
 30   1.376307 0.000000 0.000000 0.000000 0.000000 0.199059
 31   4.172847 -0.251365 1.312745 -0.008050 -0.095731 0.148659
 32   1.215373 -0.000001 0.000000 0.000000 0.000000 0.645746
 33   1.215372 0.000000 0.000000 0.000000 0.000000 0.645746
 34   4.220534 -0.244853 0.431466 -0.001333 -0.026242 0.148339
 35   1.350416 0.000000 -0.000001 0.000000 0.000000 0.863937
 36   1.350410 0.000000 0.000001 0.000000 0.000000 0.863925
 37   2.110540 -0.000001 0.000000 -0.418437 0.415617 0.152609
 38   0.891923 2.373051 -0.014527 -3.141592 -0.000001 1.413797
 39   7.228122 5.709445 3.726568 3.140796 -1.570796 0.000000
 40   2.450426 5.076128 0.001325 2.534053 -1.570796 0.000000
 41   6.312404 -4.528058 0.001311 3.140791 -1.570796 0.000000
 42   2.233309 1.152535 -7.309138 -1.195167 -1.467315 -1.210063
 43   4.262825 -0.232720 -1.392178 0.016840 0.076668 0.253759
time 14
  0   0.613360 1.121457 16.728975 0.000000 0.122085 -2.303533
  1   -3.394308 0.554704 0.000000 -1.570795 -1.570451 0.000000
  2   -0.000007 0.000008 4.427393 -0.303870 -2.316597 -0.925305
  3   18.465939 0.000000 0.000000 0.000000 0.000000 -2.478112
  4   14.875443 0.000000 -0.000001 -0.213656 -0.274836 1.418929
  5   0.000006 -0.000004 -4.427393 0.011019 3.161202 -0.772521
  6   18.465939 0.000000 0.000000 0.000000 0.000000 -2.378788
  7   14.875442 0.000000 0.000000 0.015975 0.015887 -0.486823
  8   2.255207 -0.007574 0.000003 -0.271052 -0.003632 0.293952
  9   9.514219 -0.009357 0.000000 -0.046852 0.137248 0.051458
 10   11.751820 -0.001633 0.000000 0.000000 -0.000001 0.239386
 11   -2.133122 0.444673 2.649729 -0.426689 -1.380267 3.321272
 12   4.640941 0.000000 -0.000001 -0.255424 0.840200 -0.746119
 13   10.828049 0.000000 0.000000 0.000000 0.000000 -0.583752
 14   9.393337 -0.000001 0.000000 -1.569611 0.034172 0.000037
 15   1.442245 0.107454 -1.746177 1.686435 0.539209 0.325885
 16   1.063452 0.000000 0.000001 0.000000 0.000000 0.199056
 17   1.376307 -0.000001 0.000001 0.000000 0.000000 0.199049
 18   4.172846 -0.251366 -1.312744 0.008050 0.095731 0.148659
 19   1.215374 0.000002 0.000000 0.000000 0.000000 0.645758
 20   1.215371 -0.000002 0.000001 0.000000 0.000000 0.645758
 21   4.220534 -0.244854 -0.431465 0.001333 0.026242 0.148339
 22   1.350417 0.000000 0.000001 0.000000 0.000000 0.863926
 23   1.350410 -0.000001 -0.000001 0.000000 0.000000 0.863926
 24   -2.133122 0.444686 -2.649726 -0.112103 1.413442 2.790701
 25   4.640942 0.000000 0.000001 -0.390368 -1.032890 0.043856
 26   10.828047 0.000000 0.000001 0.000000 0.000000 -0.601168
 27   9.393339 0.000000 0.000000 1.569611 -0.034192 0.000001
 28   1.442245 0.107455 1.746178 -1.686405 -0.539236 0.325898
 29   1.063450 -0.000001 0.000000 0.000000 0.000000 0.199056
 30   1.376307 0.000000 0.000000 0.000000 0.000000 0.199059
 31   4.172847 -0.251365 1.312745 -0.008050 -0.095731 0.148659
 32   1.215373 -0.000001 0.000000 0.000000 0.000000 0.645746
 33   1.215372 0.000000 0.000000 0.000000 0.000000 0.645746
 34   4.220534 -0.244853 0.431466 -0.001333 -0.026242 0.148339
 35   1.350416 0.000000 -0.000001 0.000000 0.000000 0.863937
 36   1.350410 0.000000 0.000001 0.000000 0.000000 0.863925
 37   2.110540 -0.000001 0.000000 -0.412190 0.415617 0.150932
 38   0.891923 2.373051 -0.014527 -3.141592 -0.000001 1.413797
 39   7.228122 5.709445 3.726568 3.140796 -1.570796 0.000000
 40   2.450426 5.076128 0.001325 2.530981 -1.570796 0.000000
 41   6.312404 -4.528058 0.001311 3.140791 -1.570796 0.000000
 42   2.233309 1.152535 -7.309138 -1.196126 -1.467374 -1.210541
 43   4.262825 -0.232720 -1.392178 0.016840 0.076668 0.253759
time 15
  0   0.613360 1.121457 16.725067 0.000000 0.122085 -2.303533
  1   -3.406027 0.558611 0.000000 -1.570795 -1.570451 0.000000
  2   -0.000007 0.000008 4.427393 -0.303870 -2.316969 -0.926203
  3   18.465939 0.000000 0.000000 0.000000 0.000000 -2.478331
  4   14.875443 0.000000 -0.000001 -0.213799 -0.273963 1.418613
  5   0.000006 -0.000004 -4.427393 0.010827 3.161016 -0.773457
  6   18.465939 0.000000 0.000000 0.000000 0.000000 -2.379051
  7   14.875442 0.000000 0.000000 0.015729 0.015792 -0.487461
  8   2.255207 -0.007574 0.000003 -0.271052 -0.003321 0.295044
  9   9.514219 -0.009357 0.000000 -0.046852 0.137248 0.051458
 10   11.751820 -0.001633 0.000000 0.000000 -0.000001 0.239386
 11   -2.133122 0.444673 2.649729 -0.426689 -1.380267 3.321272
 12   4.640941 0.000000 -0.000001 -0.256946 0.840131 -0.747407
 13   10.828049 0.000000 0.000000 0.000000 0.000000 -0.583752
 14   9.393337 -0.000001 0.000000 -1.569611 0.034172 0.000037
 15   1.442245 0.107454 -1.746177 1.686435 0.539209 0.325885
 16   1.063452 0.000000 0.000001 0.000000 0.000000 0.199056
 17   1.376307 -0.000001 0.000001 0.000000 0.000000 0.199049
 18   4.172846 -0.251366 -1.312744 0.008050 0.095731 0.148659
 19   1.215374 0.000002 0.000000 0.000000 0.000000 0.645758
 20   1.215371 -0.000002 0.000001 0.000000 0.000000 0.645758
 21   4.220534 -0.244854 -0.431465 0.001333 0.026242 0.148339
 22   1.350417 0.000000 0.000001 0.000000 0.000000 0.863926
 23   1.350410 -0.000001 -0.000001 0.000000 0.000000 0.863926
 24   -2.133122 0.444686 -2.649726 -0.112103 1.413442 2.790701
 25   4.640942 0.000000 0.000001 -0.388618 -1.033518 0.042106
 26   10.828047 0.000000 0.000001 0.000000 0.000000 -0.601168
 27   9.393339 0.000000 0.000000 1.569611 -0.034192 0.000001
 28   1.442245 0.107455 1.746178 -1.686405 -0.539236 0.325898
 29   1.063450 -0.000001 0.000000 0.000000 0.000000 0.199056
 30   1.376307 0.000000 0.000000 0.000000 0.000000 0.199059
 31   4.172847 -0.251365 1.312745 -0.008050 -0.095731 0.148659
 32   1.215373 -0.000001 0.000000 0.000000 0.000000 0.645746
 33   1.215372 0.000000 0.000000 0.000000 0.000000 0.645746
 34   4.220534 -0.244853 0.431466 -0.001333 -0.026242 0.148339
 35   1.350416 0.000000 -0.000001 0.000000 0.000000 0.863937
 36   1.350410 0.000000 0.000001 0.000000 0.000000 0.863925
 37   2.110540 -0.000001 0.000000 -0.408184 0.415589 0.149857
 38   0.891923 2.373051 -0.014527 -3.141592 -0.000001 1.413797
 39   7.228122 5.709445 3.726568 3.140796 -1.570796 0.000000
 40   2.450426 5.076128 0.001325 2.529927 -1.570796 0.000000
 41   6.312404 -4.528058 0.001311 3.140791 -1.570796 0.000000
 42   2.233309 1.152535 -7.309138 -1.196797 -1.467403 -1.210925
 43   4.262825 -0.232720 -1.392178 0.016840 0.076668 0.253759
time 16
  0   0.613360 1.121457 16.725067 0.000000 0.122085 -2.303533
  1   -3.409933 0.558611 0.000000 -1.570795 -1.570451 0.000000
  2   -0.000007 0.000008 4.427393 -0.303870 -2.317062 -0.926502
  3   18.465939 0.000000 0.000000 0.000000 0.000000 -2.478331
  4   14.875443 0.000000 -0.000001 -0.213827 -0.273665 1.418535
  5   0.000006 -0.000004 -4.427393 0.010732 3.160923 -0.773737
  6   18.465939 0.000000 0.000000 0.000000 0.000000 -2.379117
  7   14.875442 0.000000 0.000000 0.015659 0.015754 -0.487686
  8   2.255207 -0.007574 0.000003 -0.271052 -0.003213 0.295441
  9   9.514219 -0.009357 0.000000 -0.046852 0.137248 0.051458
 10   11.751820 -0.001633 0.000000 0.000000 -0.000001 0.239386
 11   -2.133122 0.444673 2.649729 -0.426689 -1.380267 3.321272
 12   4.640941 0.000000 -0.000001 -0.257438 0.840131 -0.747875
 13   10.828049 0.000000 0.000000 0.000000 0.000000 -0.583752
 14   9.393337 -0.000001 0.000000 -1.569611 0.034172 0.000037
 15   1.442245 0.107454 -1.746177 1.686435 0.539209 0.325885
 16   1.063452 0.000000 0.000001 0.000000 0.000000 0.199056
 17   1.376307 -0.000001 0.000001 0.000000 0.000000 0.199049
 18   4.172846 -0.251366 -1.312744 0.008050 0.095731 0.148659
 19   1.215374 0.000002 0.000000 0.000000 0.000000 0.645758
 20   1.215371 -0.000002 0.000001 0.000000 0.000000 0.645758
 21   4.220534 -0.244854 -0.431465 0.001333 0.026242 0.148339
 22   1.350417 0.000000 0.000001 0.000000 0.000000 0.863926
 23   1.350410 -0.000001 -0.000001 0.000000 0.000000 0.863926
 24   -2.133122 0.444686 -2.649726 -0.112103 1.413442 2.790701
 25   4.640942 0.000000 0.000001 -0.388001 -1.033727 0.041476
 26   10.828047 0.000000 0.000001 0.000000 0.000000 -0.601168
 27   9.393339 0.000000 0.000000 1.569611 -0.034192 0.000001
 28   1.442245 0.107455 1.746178 -1.686405 -0.539236 0.325898
 29   1.063450 -0.000001 0.000000 0.000000 0.000000 0.199056
 30   1.376307 0.000000 0.000000 0.000000 0.000000 0.199059
 31   4.172847 -0.251365 1.312745 -0.008050 -0.095731 0.148659
 32   1.215373 -0.000001 0.000000 0.000000 0.000000 0.645746
 33   1.215372 0.000000 0.000000 0.000000 0.000000 0.645746
 34   4.220534 -0.244853 0.431466 -0.001333 -0.026242 0.148339
 35   1.350416 0.000000 -0.000001 0.000000 0.000000 0.863937
 36   1.350410 0.000000 0.000001 0.000000 0.000000 0.863925
 37   2.110540 -0.000001 0.000000 -0.406801 0.415589 0.149513
 38   0.891923 2.373051 -0.014527 -3.141592 -0.000001 1.413797
 39   7.228122 5.709445 3.726568 3.140796 -1.570796 0.000000
 40   2.450426 5.076128 0.001325 2.530981 -1.570796 0.000000
 41   6.312404 -4.528058 0.001311 3.140791 -1.570796 0.000000
 42   2.233309 1.152535 -7.309138 -1.196989 -1.467403 -1.211020
 43   4.262825 -0.232720 -1.392178 0.016840 0.076668 0.253759
time 17
  0   0.613360 1.121457 16.725067 0.000000 0.122085 -2.303533
  1   -3.406027 0.558611 0.000000 -1.570795 -1.570451 0.000000
  2   -0.000007 0.000008 4.427393 -0.303870 -2.316876 -0.926103
  3   18.465939 0.000000 0.000000 0.000000 0.000000 -2.478258
  4   14.875443 0.000000 -0.000001 -0.213770 -0.274048 1.418653
  5   0.000006 -0.000004 -4.427393 0.010827 3.161016 -0.773363
  6   18.465939 0.000000 0.000000 0.000000 0.000000 -2.379051
  7   14.875442 0.000000 0.000000 0.015764 0.015792 -0.487423
  8   2.255207 -0.007574 0.000003 -0.271052 -0.003357 0.294945
  9   9.514219 -0.009357 0.000000 -0.046852 0.137248 0.051458
 10   11.751820 -0.001633 0.000000 0.000000 -0.000001 0.239386
 11   -2.133122 0.444673 2.649729 -0.426689 -1.380267 3.321272
 12   4.640941 0.000000 -0.000001 -0.256799 0.840131 -0.747290
 13   10.828049 0.000000 0.000000 0.000000 0.000000 -0.583752
 14   9.393337 -0.000001 0.000000 -1.569611 0.034172 0.000037
 15   1.442245 0.107454 -1.746177 1.686435 0.539209 0.325885
 16   1.063452 0.000000 0.000001 0.000000 0.000000 0.199056
 17   1.376307 -0.000001 0.000001 0.000000 0.000000 0.199049
 18   4.172846 -0.251366 -1.312744 0.008050 0.095731 0.148659
 19   1.215374 0.000002 0.000000 0.000000 0.000000 0.645758
 20   1.215371 -0.000002 0.000001 0.000000 0.000000 0.645758
 21   4.220534 -0.244854 -0.431465 0.001333 0.026242 0.148339
 22   1.350417 0.000000 0.000001 0.000000 0.000000 0.863926
 23   1.350410 -0.000001 -0.000001 0.000000 0.000000 0.863926
 24   -2.133122 0.444686 -2.649726 -0.112103 1.413442 2.790701
 25   4.640942 0.000000 0.000001 -0.388824 -1.033448 0.042316
 26   10.828047 0.000000 0.000001 0.000000 0.000000 -0.601168
 27   9.393339 0.000000 0.000000 1.569611 -0.034192 0.000001
 28   1.442245 0.107455 1.746178 -1.686405 -0.539236 0.325898
 29   1.063450 -0.000001 0.000000 0.000000 0.000000 0.199056
 30   1.376307 0.000000 0.000000 0.000000 0.000000 0.199059
 31   4.172847 -0.251365 1.312745 -0.008050 -0.095731 0.148659
 32   1.215373 -0.000001 0.000000 0.000000 0.000000 0.645746
 33   1.215372 0.000000 0.000000 0.000000 0.000000 0.645746
 34   4.220534 -0.244853 0.431466 -0.001333 -0.026242 0.148339
 35   1.350416 0.000000 -0.000001 0.000000 0.000000 0.863937
 36   1.350410 0.000000 0.000001 0.000000 0.000000 0.863925
 37   2.110540 -0.000001 0.000000 -0.408613 0.415589 0.149986
 38   0.891923 2.373051 -0.014527 -3.141592 -0.000001 1.413797
 39   7.228122 5.709445 3.726568 3.140796 -1.570796 0.000000
 40   2.450426 5.076128 0.001325 2.534053 -1.570796 0.000000
 41   6.312404 -4.528058 0.001311 3.140791 -1.570796 0.000000
 42   2.233309 1.152535 -7.309138 -1.196701 -1.467403 -1.210829
 43   4.262825 -0.232720 -1.392178 0.016840 0.076668 0.253759
time 18
  0   0.613360 1.121457 16.728975 0.000000 0.122085 -2.303533
  1   -3.390401 0.554704 0.000000 -1.570795 -1.570451 0.000000
  2   -0.000007 0.000008 4.427393 -0.303870 -2.316411 -0.924956
  3   18.465939 0.000000 0.000000 0.000000 0.000000 -2.478112
  4   14.875443 0.000000 -0.000001 -0.213628 -0.275176 1.419008
  5   0.000006 -0.000004 -4.427393 0.011114 3.161295 -0.772240
  6   18.465939 0.000000 0.000000 0.000000 0.000000 -2.378723
  7   14.875442 0.000000 0.000000 0.016045 0.015925 -0.486598
  8   2.255207 -0.007574 0.000003 -0.271052 -0.003752 0.293522
  9   9.514219 -0.009357 0.000000 -0.046852 0.137248 0.051458
 10   11.751820 -0.001633 0.000000 0.000000 -0.000001 0.239386
 11   -2.133122 0.444673 2.649729 -0.426689 -1.380267 3.321272
 12   4.640941 0.000000 -0.000001 -0.254834 0.840200 -0.745651
 13   10.828049 0.000000 0.000000 0.000000 0.000000 -0.583752
 14   9.393337 -0.000001 0.000000 -1.569611 0.034172 0.000037
 15   1.442245 0.107454 -1.746177 1.686435 0.539209 0.325885
 16   1.063452 0.000000 0.000001 0.000000 0.000000 0.199056
 17   1.376307 -0.000001 0.000001 0.000000 0.000000 0.199049
 18   4.172846 -0.251366 -1.312744 0.008050 0.095731 0.148659
 19   1.215374 0.000002 0.000000 0.000000 0.000000 0.645758
 20   1.215371 -0.000002 0.000001 0.000000 0.000000 0.645758
 21   4.220534 -0.244854 -0.431465 0.001333 0.026242 0.148339
 22   1.350417 0.000000 0.000001 0.000000 0.000000 0.863926
 23   1.350410 -0.000001 -0.000001 0.000000 0.000000 0.863926
 24   -2.133122 0.444686 -2.649726 -0.112103 1.413442 2.790701
 25   4.640942 0.000000 0.000001 -0.391088 -1.032681 0.044556
 26   10.828047 0.000000 0.000001 0.000000 0.000000 -0.601168
 27   9.393339 0.000000 0.000000 1.569611 -0.034192 0.000001
 28   1.442245 0.107455 1.746178 -1.686405 -0.539236 0.325898
 29   1.063450 -0.000001 0.000000 0.000000 0.000000 0.199056
 30   1.376307 0.000000 0.000000 0.000000 0.000000 0.199059
 31   4.172847 -0.251365 1.312745 -0.008050 -0.095731 0.148659
 32   1.215373 -0.000001 0.000000 0.000000 0.000000 0.645746
 33   1.215372 0.000000 0.000000 0.000000 0.000000 0.645746
 34   4.220534 -0.244853 0.431466 -0.001333 -0.026242 0.148339
 35   1.350416 0.000000 -0.000001 0.000000 0.000000 0.863937
 36   1.350410 0.000000 0.000001 0.000000 0.000000 0.863925
 37   2.110540 -0.000001 0.000000 -0.413763 0.415617 0.151319
 38   0.891923 2.373051 -0.014527 -3.141592 -0.000001 1.413797
 39   7.228122 5.709445 3.726568 3.140796 -1.570796 0.000000
 40   2.450426 5.076128 0.001325 2.538792 -1.570796 0.000000
 41   6.312404 -4.528058 0.001311 3.140791 -1.570796 0.000000
 42   2.233309 1.152535 -7.309138 -1.195934 -1.467374 -1.210446
 43   4.262825 -0.232720 -1.392178 0.016840 0.076668 0.253759
time 19
  0   0.613360 1.121457 16.732882 0.000000 0.122085 -2.303533
  1   -3.366963 0.546892 0.000000 -1.570795 -1.570451 0.000000
  2   -0.000007 0.000008 4.427393 -0.303774 -2.315666 -0.923111
  3   18.465939 0.000000 0.000000 0.000000 0.000000 -2.477746
  4   14.875443 0.000000 -0.000001 -0.213372 -0.276943 1.419601
  5   0.000006 -0.000004 -4.427393 0.011497 3.161575 -0.770462
  6   18.465939 0.000000 0.000000 0.000000 0.000000 -2.378263
  7   14.875442 0.000000 0.000000 0.016536 0.016116 -0.485285
  8   2.255207 -0.007574 0.000003 -0.271031 -0.004363 0.291305
  9   9.514219 -0.009357 0.000000 -0.046852 0.137248 0.051458
 10   11.751820 -0.001633 0.000000 0.000000 -0.000001 0.239386
 11   -2.133122 0.444673 2.649729 -0.426689 -1.380267 3.321272
 12   4.640941 0.000000 -0.000001 -0.251789 0.840200 -0.743016
 13   10.828049 0.000000 0.000000 0.000000 0.000000 -0.583752
 14   9.393337 -0.000001 0.000000 -1.569611 0.034172 0.000037
 15   1.442245 0.107454 -1.746177 1.686435 0.539209 0.325885
 16   1.063452 0.000000 0.000001 0.000000 0.000000 0.199056
 17   1.376307 -0.000001 0.000001 0.000000 0.000000 0.199049
 18   4.172846 -0.251366 -1.312744 0.008050 0.095731 0.148659
 19   1.215374 0.000002 0.000000 0.000000 0.000000 0.645758
 20   1.215371 -0.000002 0.000001 0.000000 0.000000 0.645758
 21   4.220534 -0.244854 -0.431465 0.001333 0.026242 0.148339
 22   1.350417 0.000000 0.000001 0.000000 0.000000 0.863926
 23   1.350410 -0.000001 -0.000001 0.000000 0.000000 0.863926
 24   -2.133122 0.444686 -2.649726 -0.112103 1.413442 2.790701
 25   4.640942 0.000000 0.000001 -0.394638 -1.031426 0.047986
 26   10.828047 0.000000 0.000001 0.000000 0.000000 -0.601168
 27   9.393339 0.000000 0.000000 1.569611 -0.034192 0.000001
 28   1.442245 0.107455 1.746178 -1.686405 -0.539236 0.325898
 29   1.063450 -0.000001 0.000000 0.000000 0.000000 0.199056
 30   1.376307 0.000000 0.000000 0.000000 0.000000 0.199059
 31   4.172847 -0.251365 1.312745 -0.008050 -0.095731 0.148659
 32   1.215373 -0.000001 0.000000 0.000000 0.000000 0.645746
 33   1.215372 0.000000 0.000000 0.000000 0.000000 0.645746
 34   4.220534 -0.244853 0.431466 -0.001333 -0.026242 0.148339
 35   1.350416 0.000000 -0.000001 0.000000 0.000000 0.863937
 36   1.350410 0.000000 0.000001 0.000000 0.000000 0.863925
 37   2.110540 -0.000001 0.000000 -0.421823 0.415645 0.153469
 38   0.891923 2.373051 -0.014527 -3.141592 -0.000001 1.413797
 39   7.228122 5.709445 3.726568 3.140796 -1.570796 0.000000
 40   2.450426 5.076128 0.001325 2.545023 -1.570796 0.000000
 41   6.312404 -4.528058 0.001311 3.140791 -1.570796 0.000000
 42   2.233309 1.152535 -7.309138 -1.194592 -1.467315 -1.209776
 43   4.262825 -0.232720 -1.392178 0.016840 0.076668 0.253759
time 20
  0   0.613360 1.121457 16.732882 0.000000 0.122085 -2.303533
  1   -3.335712 0.539079 0.000000 -1.570795 -1.570451 0.000000
  2   -0.000007 0.000008 4.427393 -0.303679 -2.314736 -0.920667
  3   18.465939 0.000000 0.000000 0.000000 0.000000 -2.477308
  4   14.875443 0.000000 -0.000001 -0.213059 -0.279263 1.420352
  5   0.000006 -0.000004 -4.427393 0.011975 3.162041 -0.768216
  6   18.465939 0.000000 0.000000 0.000000 0.000000 -2.377672
  7   14.875442 0.000000 0.000000 0.017168 0.016363 -0.483597
  8   2.255207 -0.007574 0.000003 -0.271010 -0.005178 0.288360
  9   9.514219 -0.009357 0.000000 -0.046852 0.137248 0.051458
 10   11.751820 -0.001633 0.000000 0.000000 -0.000001 0.239386
 11   -2.133122 0.444673 2.649729 -0.426689 -1.380267 3.321272
 12   4.640941 0.000000 -0.000001 -0.247810 0.840200 -0.739621
 13   10.828049 0.000000 0.000000 0.000000 0.000000 -0.583752
 14   9.393337 -0.000001 0.000000 -1.569611 0.034172 0.000037
 15   1.442245 0.107454 -1.746177 1.686435 0.539209 0.325885
 16   1.063452 0.000000 0.000001 0.000000 0.000000 0.199056
 17   1.376307 -0.000001 0.000001 0.000000 0.000000 0.199049
 18   4.172846 -0.251366 -1.312744 0.008050 0.095731 0.148659
 19   1.215374 0.000002 0.000000 0.000000 0.000000 0.645758
 20   1.215371 -0.000002 0.000001 0.000000 0.000000 0.645758
 21   4.220534 -0.244854 -0.431465 0.001333 0.026242 0.148339
 22   1.350417 0.000000 0.000001 0.000000 0.000000 0.863926
 23   1.350410 -0.000001 -0.000001 0.000000 0.000000 0.863926
 24   -2.133122 0.444686 -2.649726 -0.112103 1.413442 2.790701
 25   4.640942 0.000000 0.000001 -0.399269 -1.029822 0.052605
 26   10.828047 0.000000 0.000001 0.000000 0.000000 -0.601168
 27   9.393339 0.000000 0.000000 1.569611 -0.034192 0.000001
 28   1.442245 0.107455 1.746178 -1.686405 -0.539236 0.325898
 29   1.063450 -0.000001 0.000000 0.000000 0.000000 0.199056
 30   1.376307 0.000000 0.000000 0.000000 0.000000 0.199059
 31   4.172847 -0.251365 1.312745 -0.008050 -0.095731 0.148659
 32   1.215373 -0.000001 0.000000 0.000000 0.000000 0.645746
 33   1.215372 0.000000 0.000000 0.000000 0.000000 0.645746
 34   4.220534 -0.244853 0.431466 -0.001333 -0.026242 0.148339
 35   1.350416 0.000000 -0.000001 0.000000 0.000000 0.863937
 36   1.350410 0.000000 0.000001 0.000000 0.000000 0.863925
 37   2.110540 -0.000001 0.000000 -0.432411 0.415673 0.156307
 38   0.891923 2.373051 -0.014527 -3.141592 -0.000001 1.413797
 39   7.228122 5.709445 3.726568 3.140796 -1.570796 0.000000
 40   2.450426 5.076128 0.001325 2.552572 -1.570796 0.000000
 41   6.312404 -4.528058 0.001311 3.140791 -1.570796 0.000000
 42   2.233309 1.152535 -7.309138 -1.192962 -1.467228 -1.209010
 43   4.262825 -0.232720 -1.392178 0.016840 0.076668 0.253759
time 21
  0   0.613360 1.121457 16.740694 0.000000 0.122085 -2.303533
  1   -3.300555 0.527360 0.000000 -1.570795 -1.570451 0.000000
  2   -0.000007 0.000008 4.427393 -0.303583 -2.313620 -0.917775
  3   18.465939 0.000000 0.000000 0.000000 0.000000 -2.476796
  4   14.875443 0.000000 -0.000001 -0.212660 -0.282072 1.421260
  5   0.000006 -0.000004 -4.427393 0.012549 3.162600 -0.765408
  6   18.465939 0.000000 0.000000 0.000000 0.000000 -2.376951
  7   14.875442 0.000000 0.000000 0.017940 0.016667 -0.481571
  8   2.255207 -0.007574 0.000003 -0.271010 -0.006149 0.284853
  9   9.514219 -0.009357 0.000000 -0.046852 0.137248 0.051458
 10   11.751820 -0.001633 0.000000 0.000000 -0.000001 0.239386
 11   -2.133122 0.444673 2.649729 -0.426689 -1.380267 3.321272
 12   4.640941 0.000000 -0.000001 -0.242996 0.840200 -0.735465
 13   10.828049 0.000000 0.000000 0.000000 0.000000 -0.583752
 14   9.393337 -0.000001 0.000000 -1.569611 0.034172 0.000037
 15   1.442245 0.107454 -1.746177 1.686435 0.539209 0.325885
 16   1.063452 0.000000 0.000001 0.000000 0.000000 0.199056
 17   1.376307 -0.000001 0.000001 0.000000 0.000000 0.199049
 18   4.172846 -0.251366 -1.312744 0.008050 0.095731 0.148659
 19   1.215374 0.000002 0.000000 0.000000 0.000000 0.645758
 20   1.215371 -0.000002 0.000001 0.000000 0.000000 0.645758
 21   4.220534 -0.244854 -0.431465 0.001333 0.026242 0.148339
 22   1.350417 0.000000 0.000001 0.000000 0.000000 0.863926
 23   1.350410 -0.000001 -0.000001 0.000000 0.000000 0.863926
 24   -2.133122 0.444686 -2.649726 -0.112103 1.413442 2.790701
 25   4.640942 0.000000 0.000001 -0.404825 -1.027869 0.057995
 26   10.828047 0.000000 0.000001 0.000000 0.000000 -0.601168
 27   9.393339 0.000000 0.000000 1.569611 -0.034192 0.000001
 28   1.442245 0.107455 1.746178 -1.686405 -0.539236 0.325898
 29   1.063450 -0.000001 0.000000 0.000000 0.000000 0.199056
 30   1.376307 0.000000 0.000000 0.000000 0.000000 0.199059
 31   4.172847 -0.251365 1.312745 -0.008050 -0.095731 0.148659
 32   1.215373 -0.000001 0.000000 0.000000 0.000000 0.645746
 33   1.215372 0.000000 0.000000 0.000000 0.000000 0.645746
 34   4.220534 -0.244853 0.431466 -0.001333 -0.026242 0.148339
 35   1.350416 0.000000 -0.000001 0.000000 0.000000 0.863937
 36   1.350410 0.000000 0.000001 0.000000 0.000000 0.863925
 37   2.110540 -0.000001 0.000000 -0.445096 0.415700 0.159662
 38   0.891923 2.373051 -0.014527 -3.141592 -0.000001 1.413797
 39   7.228122 5.709445 3.726568 3.140796 -1.570796 0.000000
 40   2.450426 5.076128 0.001325 2.561260 -1.570796 0.000000
 41   6.312404 -4.528058 0.001311 3.140791 -1.570796 0.000000
 42   2.233309 1.152535 -7.309138 -1.190949 -1.467141 -1.207957
 43   4.262825 -0.232720 -1.392178 0.016840 0.076668 0.253759
time 22
  0   0.613360 1.121457 16.744600 0.000000 0.122085 -2.303533
  1   -3.261491 0.515641 0.000000 -1.570795 -1.570451 0.000000
  2   -0.000007 0.000008 4.427393 -0.303488 -2.312224 -0.914433
  3   18.465939 0.000000 0.000000 0.000000 0.000000 -2.476211
  4   14.875443 0.000000 -0.000001 -0.212233 -0.285244 1.422287
  5   0.000006 -0.000004 -4.427393 0.013219 3.163159 -0.762320
  6   18.465939 0.000000 0.000000 0.000000 0.000000 -2.376097
  7   14.875442 0.000000 0.000000 0.018783 0.017009 -0.479244
  8   2.255207 -0.007574 0.000003 -0.270968 -0.007264 0.280882
  9   9.514219 -0.009357 0.000000 -0.046852 0.137248 0.051458
 10   11.751820 -0.001633 0.000000 0.000000 -0.000001 0.239386
 11   -2.133122 0.444673 2.649729 -0.426689 -1.380267 3.321272
 12   4.640941 0.000000 -0.000001 -0.237495 0.840200 -0.730841
 13   10.828049 0.000000 0.000000 0.000000 0.000000 -0.583752
 14   9.393337 -0.000001 0.000000 -1.569611 0.034172 0.000037
 15   1.442245 0.107454 -1.746177 1.686435 0.539209 0.325885
 16   1.063452 0.000000 0.000001 0.000000 0.000000 0.199056
 17   1.376307 -0.000001 0.000001 0.000000 0.000000 0.199049
 18   4.172846 -0.251366 -1.312744 0.008050 0.095731 0.148659
 19   1.215374 0.000002 0.000000 0.000000 0.000000 0.645758
 20   1.215371 -0.000002 0.000001 0.000000 0.000000 0.645758
 21   4.220534 -0.244854 -0.431465 0.001333 0.026242 0.148339
 22   1.350417 0.000000 0.000001 0.000000 0.000000 0.863926
 23   1.350410 -0.000001 -0.000001 0.000000 0.000000 0.863926
 24   -2.133122 0.444686 -2.649726 -0.112103 1.413442 2.790701
 25   4.640942 0.000000 0.000001 -0.411103 -1.025568 0.064154
 26   10.828047 0.000000 0.000001 0.000000 0.000000 -0.601168
 27   9.393339 0.000000 0.000000 1.569611 -0.034192 0.000001
 28   1.442245 0.107455 1.746178 -1.686405 -0.539236 0.325898
 29   1.063450 -0.000001 0.000000 0.000000 0.000000 0.199056
 30   1.376307 0.000000 0.000000 0.000000 0.000000 0.199059
 31   4.172847 -0.251365 1.312745 -0.008050 -0.095731 0.148659
 32   1.215373 -0.000001 0.000000 0.000000 0.000000 0.645746
 33   1.215372 0.000000 0.000000 0.000000 0.000000 0.645746
 34   4.220534 -0.244853 0.431466 -0.001333 -0.026242 0.148339
 35   1.350416 0.000000 -0.000001 0.000000 0.000000 0.863937
 36   1.350410 0.000000 0.000001 0.000000 0.000000 0.863925
 37   2.110540 -0.000001 0.000000 -0.459546 0.415756 0.163489
 38   0.891923 2.373051 -0.014527 -3.141592 -0.000001 1.413797
 39   7.228122 5.709445 3.726568 3.140796 -1.570796 0.000000
 40   2.450426 5.076128 0.001325 2.570740 -1.570796 0.000000
 41   6.312404 -4.528058 0.001311 3.140791 -1.570796 0.000000
 42   2.233309 1.152535 -7.309138 -1.188648 -1.467024 -1.206808
 43   4.262825 -0.232720 -1.392178 0.016840 0.076668 0.253759
time 23
  0   0.613360 1.121457 16.748507 0.000000 0.122085 -2.303533
  1   -3.214615 0.503922 0.000000 -1.570795 -1.570451 0.000000
  2   -0.000007 0.000008 4.427393 -0.303297 -2.310829 -0.910842
  3   18.465939 0.000000 0.000000 0.000000 0.000000 -2.475553
  4   14.875443 0.000000 -0.000001 -0.211778 -0.288713 1.423393
  5   0.000006 -0.000004 -4.427393 0.013889 3.163812 -0.758951
  6   18.465939 0.000000 0.000000 0.000000 0.000000 -2.375244
  7   14.875442 0.000000 0.000000 0.019730 0.017390 -0.476693
  8   2.255207 -0.007574 0.000003 -0.270947 -0.008474 0.276515
  9   9.514219 -0.009357 0.000000 -0.046852 0.137248 0.051458
 10   11.751820 -0.001633 0.000000 0.000000 -0.000001 0.239386
 11   -2.133122 0.444673 2.649729 -0.426689 -1.380267 3.321272
 12   4.640941 0.000000 -0.000001 -0.231551 0.840200 -0.725748
 13   10.828049 0.000000 0.000000 0.000000 0.000000 -0.583752
 14   9.393337 -0.000001 0.000000 -1.569611 0.034172 0.000037
 15   1.442245 0.107454 -1.746177 1.686435 0.539209 0.325885
 16   1.063452 0.000000 0.000001 0.000000 0.000000 0.199056
 17   1.376307 -0.000001 0.000001 0.000000 0.000000 0.199049
 18   4.172846 -0.251366 -1.312744 0.008050 0.095731 0.148659
 19   1.215374 0.000002 0.000000 0.000000 0.000000 0.645758
 20   1.215371 -0.000002 0.000001 0.000000 0.000000 0.645758
 21   4.220534 -0.244854 -0.431465 0.001333 0.026242 0.148339
 22   1.350417 0.000000 0.000001 0.000000 0.000000 0.863926
 23   1.350410 -0.000001 -0.000001 0.000000 0.000000 0.863926
 24   -2.133122 0.444686 -2.649726 -0.112103 1.413442 2.790701
 25   4.640942 0.000000 0.000001 -0.417894 -1.023057 0.070804
 26   10.828047 0.000000 0.000001 0.000000 0.000000 -0.601168
 27   9.393339 0.000000 0.000000 1.569611 -0.034192 0.000001
 28   1.442245 0.107455 1.746178 -1.686405 -0.539236 0.325898
 29   1.063450 -0.000001 0.000000 0.000000 0.000000 0.199056
 30   1.376307 0.000000 0.000000 0.000000 0.000000 0.199059
 31   4.172847 -0.251365 1.312745 -0.008050 -0.095731 0.148659
 32   1.215373 -0.000001 0.000000 0.000000 0.000000 0.645746
 33   1.215372 0.000000 0.000000 0.000000 0.000000 0.645746
 34   4.220534 -0.244853 0.431466 -0.001333 -0.026242 0.148339
 35   1.350416 0.000000 -0.000001 0.000000 0.000000 0.863937
 36   1.350410 0.000000 0.000001 0.000000 0.000000 0.863925
 37   2.110540 -0.000001 0.000000 -0.475332 0.415784 0.167704
 38   0.891923 2.373051 -0.014527 -3.141592 -0.000001 1.413797
 39   7.228122 5.709445 3.726568 3.140796 -1.570796 0.000000
 40   2.450426 5.076128 0.001325 2.580920 -1.570796 0.000000
 41   6.312404 -4.528058 0.001311 3.140791 -1.570796 0.000000
 42   2.233309 1.152535 -7.309138 -1.186155 -1.466908 -1.205467
 43   4.262825 -0.232720 -1.392178 0.016840 0.076668 0.253759
time 24
  0   0.613360 1.121457 16.756319 0.000000 0.122085 -2.303533
  1   -3.167738 0.488296 0.000000 -1.570795 -1.570451 0.000000
  2   -0.000007 0.000008 4.427393 -0.303202 -2.309340 -0.907002
  3   18.465939 0.000000 0.000000 0.000000 0.000000 -2.474822
  4   14.875443 0.000000 -0.000001 -0.211294 -0.292374 1.424579
  5   0.000006 -0.000004 -4.427393 0.014654 3.164558 -0.755301
  6   18.465939 0.000000 0.000000 0.000000 0.000000 -2.374259
  7   14.875442 0.000000 0.000000 0.020713 0.017770 -0.474030
  8   2.255207 -0.007574 0.000003 -0.270905 -0.009756 0.271883
  9   9.514219 -0.009357 0.000000 -0.046852 0.137248 0.051458
 10   11.751820 -0.001633 0.000000 0.000000 -0.000001 0.239386
 11   -2.133122 0.444673 2.649729 -0.426689 -1.380267 3.321272
 12   4.640941 0.000000 -0.000001 -0.225215 0.840131 -0.720362
 13   10.828049 0.000000 0.000000 0.000000 0.000000 -0.583752
 14   9.393337 -0.000001 0.000000 -1.569611 0.034172 0.000037
 15   1.442245 0.107454 -1.746177 1.686435 0.539209 0.325885
 16   1.063452 0.000000 0.000001 0.000000 0.000000 0.199056
 17   1.376307 -0.000001 0.000001 0.000000 0.000000 0.199049
 18   4.172846 -0.251366 -1.312744 0.008050 0.095731 0.148659
 19   1.215374 0.000002 0.000000 0.000000 0.000000 0.645758
 20   1.215371 -0.000002 0.000001 0.000000 0.000000 0.645758
 21   4.220534 -0.244854 -0.431465 0.001333 0.026242 0.148339
 22   1.350417 0.000000 0.000001 0.000000 0.000000 0.863926
 23   1.350410 -0.000001 -0.000001 0.000000 0.000000 0.863926
 24   -2.133122 0.444686 -2.649726 -0.112103 1.413442 2.790701
 25   4.640942 0.000000 0.000001 -0.425046 -1.020407 0.077733
 26   10.828047 0.000000 0.000001 0.000000 0.000000 -0.601168
 27   9.393339 0.000000 0.000000 1.569611 -0.034192 0.000001
 28   1.442245 0.107455 1.746178 -1.686405 -0.539236 0.325898
 29   1.063450 -0.000001 0.000000 0.000000 0.000000 0.199056
 30   1.376307 0.000000 0.000000 0.000000 0.000000 0.199059
 31   4.172847 -0.251365 1.312745 -0.008050 -0.095731 0.148659
 32   1.215373 -0.000001 0.000000 0.000000 0.000000 0.645746
 33   1.215372 0.000000 0.000000 0.000000 0.000000 0.645746
 34   4.220534 -0.244853 0.431466 -0.001333 -0.026242 0.148339
 35   1.350416 0.000000 -0.000001 0.000000 0.000000 0.863937
 36   1.350410 0.000000 0.000001 0.000000 0.000000 0.863925
 37   2.110540 -0.000001 0.000000 -0.492071 0.415840 0.172133
 38   0.891923 2.373051 -0.014527 -3.141592 -0.000001 1.413797
 39   7.228122 5.709445 3.726568 3.140796 -1.570796 0.000000
 40   2.450426 5.076128 0.001325 2.591540 -1.570796 0.000000
 41   6.312404 -4.528058 0.001311 3.140791 -1.570796 0.000000
 42   2.233309 1.152535 -7.309138 -1.183471 -1.466791 -1.204127
 43   4.262825 -0.232720 -1.392178 0.016840 0.076668 0.253759
time 25
  0   0.613360 1.121457 16.760225 0.000000 0.122085 -2.303533
  1   -3.120862 0.476577 0.000000 -1.570795 -1.570451 0.000000
  2   -0.000007 0.000008 4.427393 -0.303106 -2.307759 -0.903012
  3   18.465939 0.000000 0.000000 0.000000 0.000000 -2.474091
  4   14.875443 0.000000 -0.000001 -0.210782 -0.296162 1.425803
  5   0.000006 -0.000004 -4.427393 0.015420 3.165303 -0.751557
  6   18.465939 0.000000 0.000000 0.000000 0.000000 -2.373275
  7   14.875442 0.000000 0.000000 0.021766 0.018170 -0.471253
  8   2.255207 -0.007574 0.000003 -0.270842 -0.011075 0.267118
  9   9.514219 -0.009357 0.000000 -0.046852 0.137248 0.051458
 10   11.751820 -0.001633 0.000000 0.000000 -0.000001 0.239386
 11   -2.133122 0.444673 2.649729 -0.426689 -1.380267 3.321272
 12   4.640941 0.000000 -0.000001 -0.218682 0.840062 -0.714860
 13   10.828049 0.000000 0.000000 0.000000 0.000000 -0.583752
 14   9.393337 -0.000001 0.000000 -1.569611 0.034172 0.000037
 15   1.442245 0.107454 -1.746177 1.686435 0.539209 0.325885
 16   1.063452 0.000000 0.000001 0.000000 0.000000 0.199056
 17   1.376307 -0.000001 0.000001 0.000000 0.000000 0.199049
 18   4.172846 -0.251366 -1.312744 0.008050 0.095731 0.148659
 19   1.215374 0.000002 0.000000 0.000000 0.000000 0.645758
 20   1.215371 -0.000002 0.000001 0.000000 0.000000 0.645758
 21   4.220534 -0.244854 -0.431465 0.001333 0.026242 0.148339
 22   1.350417 0.000000 0.000001 0.000000 0.000000 0.863926
 23   1.350410 -0.000001 -0.000001 0.000000 0.000000 0.863926
 24   -2.133122 0.444686 -2.649726 -0.112103 1.413442 2.790701
 25   4.640942 0.000000 0.000001 -0.432301 -1.017617 0.084872
 26   10.828047 0.000000 0.000001 0.000000 0.000000 -0.601168
 27   9.393339 0.000000 0.000000 1.569611 -0.034192 0.000001
 28   1.442245 0.107455 1.746178 -1.686405 -0.539236 0.325898
 29   1.063450 -0.000001 0.000000 0.000000 0.000000 0.199056
 30   1.376307 0.000000 0.000000 0.000000 0.000000 0.199059
 31   4.172847 -0.251365 1.312745 -0.008050 -0.095731 0.148659
 32   1.215373 -0.000001 0.000000 0.000000 0.000000 0.645746
 33   1.215372 0.000000 0.000000 0.000000 0.000000 0.645746
 34   4.220534 -0.244853 0.431466 -0.001333 -0.026242 0.148339
 35   1.350416 0.000000 -0.000001 0.000000 0.000000 0.863937
 36   1.350410 0.000000 0.000001 0.000000 0.000000 0.863925
 37   2.110540 -0.000001 0.000000 -0.509335 0.415924 0.176692
 38   0.891923 2.373051 -0.014527 -3.141592 -0.000001 1.413797
 39   7.228122 5.709445 3.726568 3.140796 -1.570796 0.000000
 40   2.450426 5.076128 0.001325 2.602336 -1.570796 0.000000
 41   6.312404 -4.528058 0.001311 3.140791 -1.570796 0.000000
 42   2.233309 1.152535 -7.309138 -1.180787 -1.466675 -1.202787
 43   4.262825 -0.232720 -1.392178 0.016840 0.076668 0.253759
time 26
  0   0.613360 1.121457 16.768038 0.000000 0.122085 -2.303533
  1   -3.070079 0.460952 0.000000 -1.570795 -1.570451 0.000000
  2   -0.000007 0.000008 4.427393 -0.303011 -2.306177 -0.898973
  3   18.465939 0.000000 0.000000 0.000000 0.000000 -2.473433
  4   14.875443 0.000000 -0.000001 -0.210298 -0.299993 1.427028
  5   0.000006 -0.000004 -4.427393 0.016281 3.166049 -0.747814
  6   18.465939 0.000000 0.000000 0.000000 0.000000 -2.372290
  7   14.875442 0.000000 0.000000 0.022784 0.018569 -0.468477
  8   2.255207 -0.007574 0.000003 -0.270800 -0.012405 0.262320
  9   9.514219 -0.009357 0.000000 -0.046852 0.137248 0.051458
 10   11.751820 -0.001633 0.000000 0.000000 -0.000001 0.239386
 11   -2.133122 0.444673 2.649729 -0.426689 -1.380267 3.321272
 12   4.640941 0.000000 -0.000001 -0.212100 0.839925 -0.709299
 13   10.828049 0.000000 0.000000 0.000000 0.000000 -0.583752
 14   9.393337 -0.000001 0.000000 -1.569611 0.034172 0.000037
 15   1.442245 0.107454 -1.746177 1.686435 0.539209 0.325885
 16   1.063452 0.000000 0.000001 0.000000 0.000000 0.199056
 17   1.376307 -0.000001 0.000001 0.000000 0.000000 0.199049
 18   4.172846 -0.251366 -1.312744 0.008050 0.095731 0.148659
 19   1.215374 0.000002 0.000000 0.000000 0.000000 0.645758
 20   1.215371 -0.000002 0.000001 0.000000 0.000000 0.645758
 21   4.220534 -0.244854 -0.431465 0.001333 0.026242 0.148339
 22   1.350417 0.000000 0.000001 0.000000 0.000000 0.863926
 23   1.350410 -0.000001 -0.000001 0.000000 0.000000 0.863926
 24   -2.133122 0.444686 -2.649726 -0.112103 1.413442 2.790701
 25   4.640942 0.000000 0.000001 -0.439607 -1.014828 0.091942
 26   10.828047 0.000000 0.000001 0.000000 0.000000 -0.601168
 27   9.393339 0.000000 0.000000 1.569611 -0.034192 0.000001
 28   1.442245 0.107455 1.746178 -1.686405 -0.539236 0.325898
 29   1.063450 -0.000001 0.000000 0.000000 0.000000 0.199056
 30   1.376307 0.000000 0.000000 0.000000 0.000000 0.199059
 31   4.172847 -0.251365 1.312745 -0.008050 -0.095731 0.148659
 32   1.215373 -0.000001 0.000000 0.000000 0.000000 0.645746
 33   1.215372 0.000000 0.000000 0.000000 0.000000 0.645746
 34   4.220534 -0.244853 0.431466 -0.001333 -0.026242 0.148339
 35   1.350416 0.000000 -0.000001 0.000000 0.000000 0.863937
 36   1.350410 0.000000 0.000001 0.000000 0.000000 0.863925
 37   2.110540 -0.000001 0.000000 -0.526695 0.415980 0.181293
 38   0.891923 2.373051 -0.014527 -3.141592 -0.000001 1.413797
 39   7.228122 5.709445 3.726568 3.140796 -1.570796 0.000000
 40   2.450426 5.076128 0.001325 2.613219 -1.570796 0.000000
 41   6.312404 -4.528058 0.001311 3.140791 -1.570796 0.000000
 42   2.233309 1.152535 -7.309138 -1.178006 -1.466558 -1.201350
 43   4.262825 -0.232720 -1.392178 0.016840 0.076668 0.253759
time 27
  0   0.613360 1.121457 16.771944 0.000000 0.122085 -2.303533
  1   -3.019296 0.445326 0.000000 -1.570795 -1.570451 0.000000
  2   -0.000007 0.000008 4.427393 -0.302915 -2.304595 -0.895033
  3   18.465939 0.000000 0.000000 0.000000 0.000000 -2.472702
  4   14.875443 0.000000 -0.000001 -0.209814 -0.303739 1.428252
  5   0.000006 -0.000004 -4.427393 0.017046 3.166795 -0.744164
  6   18.465939 0.000000 0.000000 0.000000 0.000000 -2.371306
  7   14.875442 0.000000 0.000000 0.023801 0.018949 -0.465738
  8   2.255207 -0.007574 0.000003 -0.270737 -0.013723 0.257622
  9   9.514219 -0.009357 0.000000 -0.046852 0.137248 0.051458
 10   11.751820 -0.001633 0.000000 0.000000 -0.000001 0.239386
 11   -2.133122 0.444673 2.649729 -0.426689 -1.380267 3.321272
 12   4.640941 0.000000 -0.000001 -0.205616 0.839787 -0.703855
 13   10.828049 0.000000 0.000000 0.000000 0.000000 -0.583752
 14   9.393337 -0.000001 0.000000 -1.569611 0.034172 0.000037
 15   1.442245 0.107454 -1.746177 1.686435 0.539209 0.325885
 16   1.063452 0.000000 0.000001 0.000000 0.000000 0.199056
 17   1.376307 -0.000001 0.000001 0.000000 0.000000 0.199049
 18   4.172846 -0.251366 -1.312744 0.008050 0.095731 0.148659
 19   1.215374 0.000002 0.000000 0.000000 0.000000 0.645758
 20   1.215371 -0.000002 0.000001 0.000000 0.000000 0.645758
 21   4.220534 -0.244854 -0.431465 0.001333 0.026242 0.148339
 22   1.350417 0.000000 0.000001 0.000000 0.000000 0.863926
 23   1.350410 -0.000001 -0.000001 0.000000 0.000000 0.863926
 24   -2.133122 0.444686 -2.649726 -0.112103 1.413442 2.790701
 25   4.640942 0.000000 0.000001 -0.446707 -1.012038 0.098871
 26   10.828047 0.000000 0.000001 0.000000 0.000000 -0.601168
 27   9.393339 0.000000 0.000000 1.569611 -0.034192 0.000001
 28   1.442245 0.107455 1.746178 -1.686405 -0.539236 0.325898
 29   1.063450 -0.000001 0.000000 0.000000 0.000000 0.199056
 30   1.376307 0.000000 0.000000 0.000000 0.000000 0.199059
 31   4.172847 -0.251365 1.312745 -0.008050 -0.095731 0.148659
 32   1.215373 -0.000001 0.000000 0.000000 0.000000 0.645746
 33   1.215372 0.000000 0.000000 0.000000 0.000000 0.645746
 34   4.220534 -0.244853 0.431466 -0.001333 -0.026242 0.148339
 35   1.350416 0.000000 -0.000001 0.000000 0.000000 0.863937
 36   1.350410 0.000000 0.000001 0.000000 0.000000 0.863925
 37   2.110540 -0.000001 0.000000 -0.543816 0.416064 0.185851
 38   0.891923 2.373051 -0.014527 -3.141592 -0.000001 1.413797
 39   7.228122 5.709445 3.726568 3.140796 -1.570796 0.000000
 40   2.450426 5.076128 0.001325 2.623839 -1.570796 0.000000
 41   6.312404 -4.528058 0.001311 3.140791 -1.570796 0.000000
 42   2.233309 1.152535 -7.309138 -1.175322 -1.466442 -1.200010
 43   4.262825 -0.232720 -1.392178 0.016840 0.076668 0.253759
time 28
  0   0.613360 1.121457 16.779757 0.000000 0.122085 -2.303533
  1   -2.972420 0.433607 0.000000 -1.570795 -1.570451 0.000000
  2   -0.000007 0.000008 4.427393 -0.302820 -2.303107 -0.891242
  3   18.465939 0.000000 0.000000 0.000000 0.000000 -2.472044
  4   14.875443 0.000000 -0.000001 -0.209359 -0.307358 1.429437
  5   0.000006 -0.000004 -4.427393 0.017716 3.167447 -0.740608
  6   18.465939 0.000000 0.000000 0.000000 0.000000 -2.370387
  7   14.875442 0.000000 0.000000 0.024819 0.019330 -0.463074
  8   2.255207 -0.007574 0.000003 -0.270674 -0.014982 0.253056
  9   9.514219 -0.009357 0.000000 -0.046852 0.137248 0.051458
 10   11.751820 -0.001633 0.000000 0.000000 -0.000001 0.239386
 11   -2.133122 0.444673 2.649729 -0.426689 -1.380267 3.321272
 12   4.640941 0.000000 -0.000001 -0.199378 0.839649 -0.698586
 13   10.828049 0.000000 0.000000 0.000000 0.000000 -0.583752
 14   9.393337 -0.000001 0.000000 -1.569611 0.034172 0.000037
 15   1.442245 0.107454 -1.746177 1.686435 0.539209 0.325885
 16   1.063452 0.000000 0.000001 0.000000 0.000000 0.199056
 17   1.376307 -0.000001 0.000001 0.000000 0.000000 0.199049
 18   4.172846 -0.251366 -1.312744 0.008050 0.095731 0.148659
 19   1.215374 0.000002 0.000000 0.000000 0.000000 0.645758
 20   1.215371 -0.000002 0.000001 0.000000 0.000000 0.645758
 21   4.220534 -0.244854 -0.431465 0.001333 0.026242 0.148339
 22   1.350417 0.000000 0.000001 0.000000 0.000000 0.863926
 23   1.350410 -0.000001 -0.000001 0.000000 0.000000 0.863926
 24   -2.133122 0.444686 -2.649726 -0.112103 1.413442 2.790701
 25   4.640942 0.000000 0.000001 -0.453499 -1.009318 0.105450
 26   10.828047 0.000000 0.000001 0.000000 0.000000 -0.601168
 27   9.393339 0.000000 0.000000 1.569611 -0.034192 0.000001
 28   1.442245 0.107455 1.746178 -1.686405 -0.539236 0.325898
 29   1.063450 -0.000001 0.000000 0.000000 0.000000 0.199056
 30   1.376307 0.000000 0.000000 0.000000 0.000000 0.199059
 31   4.172847 -0.251365 1.312745 -0.008050 -0.095731 0.148659
 32   1.215373 -0.000001 0.000000 0.000000 0.000000 0.645746
 33   1.215372 0.000000 0.000000 0.000000 0.000000 0.645746
 34   4.220534 -0.244853 0.431466 -0.001333 -0.026242 0.148339
 35   1.350416 0.000000 -0.000001 0.000000 0.000000 0.863937
 36   1.350410 0.000000 0.000001 0.000000 0.000000 0.863925
 37   2.110540 -0.000001 0.000000 -0.560269 0.416119 0.190195
 38   0.891923 2.373051 -0.014527 -3.141592 -0.000001 1.413797
 39   7.228122 5.709445 3.726568 3.140796 -1.570796 0.000000
 40   2.450426 5.076128 0.001325 2.633932 -1.570796 0.000000
 41   6.312404 -4.528058 0.001311 3.140791 -1.570796 0.000000
 42   2.233309 1.152535 -7.309138 -1.172733 -1.466325 -1.198670
 43   4.262825 -0.232720 -1.392178 0.016840 0.076668 0.253759
time 29
  0   0.613360 1.121457 16.783663 0.000000 0.122085 -2.303533
  1   -2.929450 0.421888 0.000000 -1.570795 -1.570451 0.000000
  2   -0.000007 0.000008 4.427393 -0.302820 -2.301711 -0.887651
  3   18.465939 0.000000 0.000000 0.000000 0.000000 -2.471386
  4   14.875443 0.000000 -0.000001 -0.208960 -0.310742 1.430504
  5   0.000006 -0.000004 -4.427393 0.018481 3.168193 -0.737332
  6   18.465939 0.000000 0.000000 0.000000 0.000000 -2.369534
  7   14.875442 0.000000 0.000000 0.025732 0.019672 -0.460598
  8   2.255207 -0.007574 0.000003 -0.270590 -0.016156 0.248821
  9   9.514219 -0.009357 0.000000 -0.046852 0.137248 0.051458
 10   11.751820 -0.001633 0.000000 0.000000 -0.000001 0.239386
 11   -2.133122 0.444673 2.649729 -0.426689 -1.380267 3.321272
 12   4.640941 0.000000 -0.000001 -0.193532 0.839511 -0.693728
 13   10.828049 0.000000 0.000000 0.000000 0.000000 -0.583752
 14   9.393337 -0.000001 0.000000 -1.569611 0.034172 0.000037
 15   1.442245 0.107454 -1.746177 1.686435 0.539209 0.325885
 16   1.063452 0.000000 0.000001 0.000000 0.000000 0.199056
 17   1.376307 -0.000001 0.000001 0.000000 0.000000 0.199049
 18   4.172846 -0.251366 -1.312744 0.008050 0.095731 0.148659
 19   1.215374 0.000002 0.000000 0.000000 0.000000 0.645758
 20   1.215371 -0.000002 0.000001 0.000000 0.000000 0.645758
 21   4.220534 -0.244854 -0.431465 0.001333 0.026242 0.148339
 22   1.350417 0.000000 0.000001 0.000000 0.000000 0.863926
 23   1.350410 -0.000001 -0.000001 0.000000 0.000000 0.863926
 24   -2.133122 0.444686 -2.649726 -0.112103 1.413442 2.790701
 25   4.640942 0.000000 0.000001 -0.459827 -1.006738 0.111470
 26   10.828047 0.000000 0.000001 0.000000 0.000000 -0.601168
 27   9.393339 0.000000 0.000000 1.569611 -0.034192 0.000001
 28   1.442245 0.107455 1.746178 -1.686405 -0.539236 0.325898
 29   1.063450 -0.000001 0.000000 0.000000 0.000000 0.199056
 30   1.376307 0.000000 0.000000 0.000000 0.000000 0.199059
 31   4.172847 -0.251365 1.312745 -0.008050 -0.095731 0.148659
 32   1.215373 -0.000001 0.000000 0.000000 0.000000 0.645746
 33   1.215372 0.000000 0.000000 0.000000 0.000000 0.645746
 34   4.220534 -0.244853 0.431466 -0.001333 -0.026242 0.148339
 35   1.350416 0.000000 -0.000001 0.000000 0.000000 0.863937
 36   1.350410 0.000000 0.000001 0.000000 0.000000 0.863925
 37   2.110540 -0.000001 0.000000 -0.575673 0.416175 0.194280
 38   0.891923 2.373051 -0.014527 -3.141592 -0.000001 1.413797
 39   7.228122 5.709445 3.726568 3.140796 -1.570796 0.000000
 40   2.450426 5.076128 0.001325 2.643499 -1.570796 0.000000
 41   6.312404 -4.528058 0.001311 3.140791 -1.570796 0.000000
 42   2.233309 1.152535 -7.309138 -1.170241 -1.466209 -1.197425
 43   4.262825 -0.232720 -1.392178 0.016840 0.076668 0.253759
time 30
  0   0.613360 1.121457 16.787571 0.000000 0.122085 -2.303533
  1   -2.890386 0.410169 0.000000 -1.570795 -1.570451 0.000000
  2   -0.000007 0.000008 4.427393 -0.302724 -2.300409 -0.884410
  3   18.465939 0.000000 0.000000 0.000000 0.000000 -2.470801
  4   14.875443 0.000000 -0.000001 -0.208590 -0.313807 1.431492
  5   0.000006 -0.000004 -4.427393 0.019055 3.168752 -0.734337
  6   18.465939 0.000000 0.000000 0.000000 0.000000 -2.368746
  7   14.875442 0.000000 0.000000 0.026574 0.019976 -0.458385
  8   2.255207 -0.007574 0.000003 -0.270527 -0.017223 0.244982
  9   9.514219 -0.009357 0.000000 -0.046852 0.137248 0.051458
 10   11.751820 -0.001633 0.000000 0.000000 -0.000001 0.239386
 11   -2.133122 0.444673 2.649729 -0.426689 -1.380267 3.321272
 12   4.640941 0.000000 -0.000001 -0.188276 0.839305 -0.689279
 13   10.828049 0.000000 0.000000 0.000000 0.000000 -0.583752
 14   9.393337 -0.000001 0.000000 -1.569611 0.034172 0.000037
 15   1.442245 0.107454 -1.746177 1.686435 0.539209 0.325885
 16   1.063452 0.000000 0.000001 0.000000 0.000000 0.199056
 17   1.376307 -0.000001 0.000001 0.000000 0.000000 0.199049
 18   4.172846 -0.251366 -1.312744 0.008050 0.095731 0.148659
 19   1.215374 0.000002 0.000000 0.000000 0.000000 0.645758
 20   1.215371 -0.000002 0.000001 0.000000 0.000000 0.645758
 21   4.220534 -0.244854 -0.431465 0.001333 0.026242 0.148339
 22   1.350417 0.000000 0.000001 0.000000 0.000000 0.863926
 23   1.350410 -0.000001 -0.000001 0.000000 0.000000 0.863926
 24   -2.133122 0.444686 -2.649726 -0.112103 1.413442 2.790701
 25   4.640942 0.000000 0.000001 -0.465435 -1.004367 0.116929
 26   10.828047 0.000000 0.000001 0.000000 0.000000 -0.601168
 27   9.393339 0.000000 0.000000 1.569611 -0.034192 0.000001
 28   1.442245 0.107455 1.746178 -1.686405 -0.539236 0.325898
 29   1.063450 -0.000001 0.000000 0.000000 0.000000 0.199056
 30   1.376307 0.000000 0.000000 0.000000 0.000000 0.199059
 31   4.172847 -0.251365 1.312745 -0.008050 -0.095731 0.148659
 32   1.215373 -0.000001 0.000000 0.000000 0.000000 0.645746
 33   1.215372 0.000000 0.000000 0.000000 0.000000 0.645746
 34   4.220534 -0.244853 0.431466 -0.001333 -0.026242 0.148339
 35   1.350416 0.000000 -0.000001 0.000000 0.000000 0.863937
 36   1.350410 0.000000 0.000001 0.000000 0.000000 0.863925
 37   2.110540 -0.000001 0.000000 -0.589599 0.416259 0.197979
 38   0.891923 2.373051 -0.014527 -3.141592 -0.000001 1.413797
 39   7.228122 5.709445 3.726568 3.140796 -1.570796 0.000000
 40   2.450426 5.076128 0.001325 2.652100 -1.570796 0.000000
 41   6.312404 -4.528058 0.001311 3.140791 -1.570796 0.000000
 42   2.233309 1.152535 -7.309138 -1.168036 -1.466121 -1.196276
 43   4.262825 -0.232720 -1.392178 0.016840 0.076668 0.253759
end
