version 1
nodes
  0 "Bip01" -1
  1 "Bip01 Pelvis" 0
  2 "Bip01 L Thigh" 1
  3 "Bip01 L Calf" 2
  4 "Bip01 L Foot" 3
  5 "Bip01 R Thigh" 1
  6 "Bip01 R Calf" 5
  7 "Bip01 R Foot" 6
  8 "Bip01 Spine" 1
  9 "Bip01 Spine1" 8
 10 "Bip01 Neck" 9
 11 "Bip01 L Clavicle" 10
 12 "Bip01 L UpperArm" 11
 13 "Bip01 L Forearm" 12
 14 "Bip01 L Hand" 13
 15 "Bip01 L Finger0" 14
 16 "Bip01 L Finger01" 15
 17 "Bip01 L Finger02" 16
 18 "Bip01 L Finger1" 14
 19 "Bip01 L Finger11" 18
 20 "Bip01 L Finger12" 19
 21 "Bip01 L Finger2" 14
 22 "Bip01 L Finger21" 21
 23 "Bip01 L Finger22" 22
 24 "Bip01 R Clavicle" 10
 25 "Bip01 R UpperArm" 24
 26 "Bip01 R Forearm" 25
 27 "Bip01 R Hand" 26
 28 "Bip01 R Finger0" 27
 29 "Bip01 R Finger01" 28
 30 "Bip01 R Finger02" 29
 31 "Bip01 R Finger1" 27
 32 "Bip01 R Finger11" 31
 33 "Bip01 R Finger12" 32
 34 "Bip01 R Finger2" 27
 35 "Bip01 R Finger21" 34
 36 "Bip01 R Finger22" 35
 37 "Bip01 Head" 10
 38 "Bone05" 37
 39 "Bone08" 9
 40 "Bone16" 8
 41 "Bone01" 8
 42 "Bone03" 1
 43 "Bip01 R Finger4" 27
end
skeleton
time 0
  0   1.708652 6.792152 38.331196 0.000000 0.000000 -1.701715
  1   0.164395 -0.125004 0.000000 -1.570795 -1.570451 0.000000
  2   -0.000007 0.000008 4.427393 -0.170796 -3.152960 0.000882
  3   18.465939 0.000000 0.000000 0.000000 0.000000 -0.416557
  4   14.875443 0.000000 -0.000001 0.018451 0.017437 0.402071
  5   0.000006 -0.000004 -4.427393 0.106024 3.095677 -0.362237
  6   18.465939 0.000000 0.000000 0.000000 0.000000 -0.394334
  7   14.875442 0.000000 0.000000 -0.002065 0.005199 0.029344
  8   2.255207 -0.007574 0.000003 0.122100 -0.017403 -0.001322
  9   9.514219 -0.009357 0.000000 -0.008787 0.002361 -0.095902
 10   11.751820 -0.001633 0.000000 0.000024 0.043599 0.439975
 11   -2.117496 0.858748 2.563789 0.697276 -1.395375 2.006330
 12   4.640941 0.000000 -0.000001 0.738474 1.089884 0.724820
 13   10.828049 0.000000 0.000000 0.000000 0.000000 -0.470452
 14   9.393337 -0.000001 0.000000 -1.569611 0.034172 0.000037
 15   1.442245 0.107454 -1.746177 1.686435 0.539209 0.325885
 16   1.063452 0.000000 0.000001 0.000000 0.000000 0.199056
 17   1.376307 -0.000001 0.000001 0.000000 0.000000 0.199049
 18   4.172846 -0.251366 -1.312744 0.008050 0.095731 0.148659
 19   1.215374 0.000002 0.000000 0.000000 0.000000 0.645758
 20   1.215371 -0.000002 0.000001 0.000000 0.000000 0.645758
 21   4.220534 -0.244854 -0.431465 0.001333 0.026242 0.148339
 22   1.350417 0.000000 0.000001 0.000000 0.000000 0.863926
 23   1.350410 -0.000001 -0.000001 0.000000 0.000000 0.863926
 24   -1.887021 0.858761 -2.731760 -0.942471 1.461434 1.764317
 25   4.640942 0.000000 0.000001 -0.601473 -1.183875 0.506934
 26   10.828047 0.000000 0.000001 0.000000 0.000000 -0.234266
 27   9.393339 0.000000 0.000000 1.569611 -0.034192 0.000001
 28   1.442245 0.107455 1.746178 -1.686405 -0.539236 0.325898
 29   1.063450 -0.000001 0.000000 0.000000 0.000000 0.199056
 30   1.376307 0.000000 0.000000 0.000000 0.000000 0.199059
 31   4.172847 -0.251365 1.312745 -0.008050 -0.095731 0.148659
 32   1.215373 -0.000001 0.000000 0.000000 0.000000 0.645746
 33   1.215372 0.000000 0.000000 0.000000 0.000000 0.645746
 34   4.220534 -0.244853 0.431466 -0.001333 -0.026242 0.148339
 35   1.350416 0.000000 -0.000001 0.000000 0.000000 0.863937
 36   1.350410 0.000000 0.000001 0.000000 0.000000 0.863925
 37   2.110540 -0.000001 0.000000 0.002432 -0.010503 -0.153668
 38   0.891923 2.373051 -0.014527 -3.141592 -0.000001 1.413797
 39   7.228122 5.709445 3.726568 3.140796 -1.570796 0.000000
 40   2.450426 5.076128 0.001325 3.140791 -1.570796 0.000000
 41   6.312404 -4.528058 0.001311 3.140791 -1.570796 0.000000
 42   2.233309 1.152535 -7.309138 -1.140137 -1.553350 -0.884450
 43   4.262825 -0.232720 -1.392178 0.016840 0.076668 0.253759
time 1
  0   1.505820 6.792152 38.378071 0.000000 0.000000 -1.684936
  1   -0.015298 -0.148442 0.000000 -1.570795 -1.570796 0.000000
  2   -0.000007 0.000008 4.427393 -0.169173 -3.142633 -0.005850
  3   18.465939 0.000000 0.000000 0.000000 0.000000 -0.417288
  4   14.875443 0.000000 -0.000001 0.033735 0.008753 0.394526
  5   0.000006 -0.000004 -4.427393 0.107077 3.100710 -0.355967
  6   18.465939 0.000000 0.000000 0.000000 0.000000 -0.376612
  7   14.875442 0.000000 0.000000 0.015519 0.000958 0.018352
  8   2.255207 -0.007574 0.000003 0.113573 -0.018242 0.009399
  9   9.514219 -0.009357 0.000000 -0.008761 0.002157 -0.079926
 10   11.751820 -0.001633 0.000000 0.000024 0.043599 0.461153
 11   -2.097965 0.901718 2.563789 0.813375 -1.397777 1.868446
 12   4.640941 0.000000 -0.000001 0.763132 1.129352 0.719435
 13   10.828049 0.000000 0.000000 0.000000 0.000000 -0.475821
 14   9.393337 -0.000001 0.000000 -1.604127 0.018458 -0.004554
 15   1.442245 0.107454 -1.746177 1.682276 0.540009 0.317798
 16   1.063452 0.000000 0.000001 0.000000 0.000000 0.199056
 17   1.376307 -0.000001 0.000001 0.000000 0.000000 0.199049
 18   4.172846 -0.251366 -1.312744 0.008050 0.095731 0.148659
 19   1.215374 0.000002 0.000000 0.000000 0.000000 0.645758
 20   1.215371 -0.000002 0.000001 0.000000 0.000000 0.645758
 21   4.220534 -0.244854 -0.431465 0.001333 0.026242 0.148339
 22   1.350417 0.000000 0.000001 0.000000 0.000000 0.863926
 23   1.350410 -0.000001 -0.000001 0.000000 0.000000 0.863926
 24   -1.867489 0.901731 -2.731760 -1.135236 1.446295 1.551459
 25   4.640942 0.000000 0.000001 -0.659150 -1.188269 0.563069
 26   10.828047 0.000000 0.000001 0.000000 0.000000 -0.310120
 27   9.393339 0.000000 0.000000 1.628914 0.010443 0.026722
 28   1.442245 0.107455 1.746178 -1.688496 -0.534517 0.329194
 29   1.063450 -0.000001 0.000000 0.000000 0.000000 0.199056
 30   1.376307 0.000000 0.000000 0.000000 0.000000 0.199059
 31   4.172847 -0.251365 1.312745 -0.008613 -0.095683 0.154590
 32   1.215373 -0.000001 0.000000 0.000000 0.000000 0.651663
 33   1.215372 0.000000 0.000000 0.000000 0.000000 0.651663
 34   4.220534 -0.244853 0.431466 -0.001489 -0.026230 0.154224
 35   1.350416 0.000000 -0.000001 0.000000 0.000000 0.869813
 36   1.350410 0.000000 0.000001 0.000000 0.000000 0.869793
 37   2.110540 -0.000001 0.000000 0.012066 -0.012346 -0.141111
 38   0.891923 2.373051 -0.014527 -3.141592 -0.000001 1.413797
 39   7.228122 5.709445 3.726568 3.140796 -1.570796 0.000000
 40   2.450426 5.076128 0.001325 3.140791 -1.570796 0.000000
 41   6.312404 -4.528058 0.001311 3.140791 -1.570796 0.000000
 42   2.233309 1.152535 -7.309138 -1.152217 -1.550438 -0.857738
 43   4.262825 -0.232720 -1.392178 0.017403 0.076536 0.261201
time 2
  0   1.262422 6.792152 38.432762 0.000000 0.000000 -1.666240
  1   -0.218429 -0.171880 0.000000 -3.141560 -1.569344 1.570772
  2   -0.000007 0.000008 4.427393 -0.167359 -3.130353 -0.014129
  3   18.465939 0.000000 0.000000 0.000000 0.000000 -0.418750
  4   14.875443 0.000000 -0.000001 0.050927 -0.000335 0.386111
  5   0.000006 -0.000004 -4.427393 0.108607 3.107328 -0.347450
  6   18.465939 0.000000 0.000000 0.000000 0.000000 -0.352589
  7   14.875442 0.000000 0.000000 0.035032 -0.003359 0.003345
  8   2.255207 -0.007574 -0.003903 0.103933 -0.017786 0.021641
  9   9.514219 -0.009357 0.000000 -0.008734 0.001942 -0.061806
 10   11.751820 -0.001633 0.000000 0.000024 0.043599 0.484988
 11   -2.078433 0.948595 2.563789 0.951936 -1.399669 1.705006
 12   4.640941 0.000000 -0.000001 0.766472 1.180529 0.693853
 13   10.828049 0.000000 0.000000 0.000000 0.000000 -0.465571
 14   9.393337 -0.000001 0.000000 -1.638769 0.007812 -0.009634
 15   1.442245 0.107454 -1.746177 1.673947 0.541499 0.301605
 16   1.063452 0.000000 0.000001 0.000000 0.000000 0.199056
 17   1.376307 -0.000001 0.000001 0.000000 0.000000 0.199049
 18   4.172846 -0.251366 -1.312744 0.008050 0.095731 0.148659
 19   1.215374 0.000002 0.000000 0.000000 0.000000 0.645758
 20   1.215371 -0.000002 0.000001 0.000000 0.000000 0.645758
 21   4.220534 -0.244854 -0.431465 0.001333 0.026242 0.148339
 22   1.350417 0.000000 0.000001 0.000000 0.000000 0.863926
 23   1.350410 -0.000001 -0.000001 0.000000 0.000000 0.863926
 24   -1.844051 0.948608 -2.731760 -1.293583 1.427106 1.369904
 25   4.640942 0.000000 0.000001 -0.704530 -1.194685 0.606255
 26   10.828047 0.000000 0.000001 0.000000 0.000000 -0.385743
 27   9.393339 0.000000 0.000000 1.689322 0.059373 0.053976
 28   1.442245 0.107455 1.746178 -1.692678 -0.525135 0.335837
 29   1.063450 -0.000001 0.000000 0.000000 0.000000 0.199056
 30   1.376307 0.000000 0.000000 0.000000 0.000000 0.199059
 31   4.172847 -0.251365 1.312745 -0.009740 -0.095576 0.166411
 32   1.215373 -0.000001 0.000000 0.000000 0.000000 0.663456
 33   1.215372 0.000000 0.000000 0.000000 0.000000 0.663456
 34   4.220534 -0.244853 0.431466 -0.001800 -0.026218 0.166035
 35   1.350416 0.000000 -0.000001 0.000000 0.000000 0.881606
 36   1.350410 0.000000 0.000001 0.000000 0.000000 0.881577
 37   2.110540 -0.000001 0.000000 0.022653 -0.015615 -0.128812
 38   0.891923 2.373051 -0.014527 -3.141592 -0.000001 1.413797
 39   7.228122 5.709445 3.726568 3.140796 -1.570796 0.000000
 40   2.450426 5.076128 0.001325 3.140791 -1.570796 0.000000
 41   6.312404 -4.528058 0.001311 3.140791 -1.570796 0.000000
 42   2.233309 1.152535 -7.309138 -1.158928 -1.547613 -0.836580
 43   4.262825 -0.232720 -1.392178 0.018542 0.076273 0.276166
time 3
  0   1.059590 6.792152 38.491356 0.000000 0.000000 -1.646586
  1   -0.433280 -0.191412 0.000000 -3.141560 -1.567246 1.570772
  2   -0.000007 0.000008 4.427393 -0.165259 -3.117328 -0.023057
  3   18.465939 0.000000 0.000000 0.000000 0.000000 -0.419774
  4   14.875443 0.000000 -0.000001 0.069085 -0.009509 0.376670
  5   0.000006 -0.000004 -4.427393 0.110234 3.114784 -0.337062
  6   18.465939 0.000000 0.000000 0.000000 0.000000 -0.323447
  7   14.875442 0.000000 0.000000 0.055528 -0.007695 -0.014852
  8   2.255207 -0.007574 -0.007810 0.093747 -0.016612 0.034578
  9   9.514219 -0.009357 0.000000 -0.008721 0.001714 -0.042604
 10   11.751820 -0.001633 0.000000 0.000024 0.043599 0.510166
 11   -2.051088 0.995471 2.563789 1.079797 -1.397681 1.550840
 12   4.640941 0.000000 -0.000001 0.763280 1.226539 0.663121
 13   10.828049 0.000000 0.000000 0.000000 0.000000 -0.463192
 14   9.393337 -0.000001 0.000000 -1.673285 -0.005580 -0.013737
 15   1.442245 0.107454 -1.746177 1.667667 0.542545 0.289454
 16   1.063452 0.000000 0.000001 0.000000 0.000000 0.199056
 17   1.376307 -0.000001 0.000001 0.000000 0.000000 0.199049
 18   4.172846 -0.251366 -1.312744 0.008050 0.095731 0.148659
 19   1.215374 0.000002 0.000000 0.000000 0.000000 0.645758
 20   1.215371 -0.000002 0.000001 0.000000 0.000000 0.645758
 21   4.220534 -0.244854 -0.431465 0.001333 0.026242 0.148339
 22   1.350417 0.000000 0.000001 0.000000 0.000000 0.863926
 23   1.350410 -0.000001 -0.000001 0.000000 0.000000 0.863926
 24   -1.820612 0.995484 -2.727853 -1.407108 1.405447 1.231621
 25   4.640942 0.000000 0.000001 -0.748264 -1.199567 0.647201
 26   10.828047 0.000000 0.000001 0.000000 0.000000 -0.461423
 27   9.393339 0.000000 0.000000 1.751339 0.103553 0.085207
 28   1.442245 0.107455 1.746178 -1.695769 -0.518056 0.340729
 29   1.063450 -0.000001 0.000000 0.000000 0.000000 0.199056
 30   1.376307 0.000000 0.000000 0.000000 0.000000 0.199059
 31   4.172847 -0.251365 1.312745 -0.010591 -0.095480 0.175307
 32   1.215373 -0.000001 0.000000 0.000000 0.000000 0.672270
 33   1.215372 0.000000 0.000000 0.000000 0.000000 0.672270
 34   4.220534 -0.244853 0.431466 -0.002028 -0.026194 0.174883
 35   1.350416 0.000000 -0.000001 0.000000 0.000000 0.890461
 36   1.350410 0.000000 0.000001 0.000000 0.000000 0.890451
 37   2.110540 -0.000001 0.000000 0.033479 -0.020363 -0.116727
 38   0.891923 2.373051 -0.014527 -3.141592 -0.000001 1.413797
 39   7.228122 5.709445 3.726568 3.140796 -1.570796 0.000000
 40   2.450426 5.076128 0.001325 3.140791 -1.570796 0.000000
 41   6.312404 -4.528058 0.001311 3.140791 -1.570796 0.000000
 42   2.233309 1.152535 -7.309138 -1.163625 -1.544584 -0.817336
 43   4.262825 -0.232720 -1.392178 0.019393 0.076057 0.287349
time 4
  0   0.816192 6.792152 38.546047 0.000000 0.000000 -1.626931
  1   -0.652036 -0.207038 0.000000 -3.141560 -1.565220 1.570772
  2   -0.000007 0.000008 4.427393 -0.163064 -3.104397 -0.031784
  3   18.465939 0.000000 0.000000 0.000000 0.000000 -0.419481
  4   14.875443 0.000000 -0.000001 0.087272 -0.018512 0.366162
  5   0.000006 -0.000004 -4.427393 0.111860 3.122427 -0.325177
  6   18.465939 0.000000 0.000000 0.000000 0.000000 -0.290563
  7   14.875442 0.000000 0.000000 0.075989 -0.012031 -0.035336
  8   2.255207 -0.007574 -0.011716 0.083625 -0.015305 0.047549
  9   9.514219 -0.009357 0.000000 -0.008708 0.001474 -0.023423
 10   11.751820 -0.001633 0.000000 0.000024 0.043599 0.535344
 11   -2.027650 1.046254 2.567695 1.158942 -1.391225 1.445796
 12   4.640941 0.000000 -0.000001 0.782535 1.251267 0.655628
 13   10.828049 0.000000 0.000000 0.000000 0.000000 -0.491929
 14   9.393337 -0.000001 0.000000 -1.707428 -0.029467 -0.015055
 15   1.442245 0.107454 -1.746177 1.669764 0.542201 0.293498
 16   1.063452 0.000000 0.000001 0.000000 0.000000 0.199056
 17   1.376307 -0.000001 0.000001 0.000000 0.000000 0.199049
 18   4.172846 -0.251366 -1.312744 0.008050 0.095731 0.148659
 19   1.215374 0.000002 0.000000 0.000000 0.000000 0.645758
 20   1.215371 -0.000002 0.000001 0.000000 0.000000 0.645758
 21   4.220534 -0.244854 -0.431465 0.001333 0.026242 0.148339
 22   1.350417 0.000000 0.000001 0.000000 0.000000 0.863926
 23   1.350410 -0.000001 -0.000001 0.000000 0.000000 0.863926
 24   -1.797174 1.046267 -2.727853 -1.476338 1.383579 1.137438
 25   4.640942 0.000000 0.000001 -0.800333 -1.199218 0.695287
 26   10.828047 0.000000 0.000001 0.000000 0.000000 -0.537568
 27   9.393339 0.000000 0.000000 1.815114 0.133549 0.122694
 28   1.442245 0.107455 1.746178 -1.694769 -0.520416 0.339081
 29   1.063450 -0.000001 0.000000 0.000000 0.000000 0.199056
 30   1.376307 0.000000 0.000000 0.000000 0.000000 0.199059
 31   4.172847 -0.251365 1.312745 -0.010303 -0.095516 0.172342
 32   1.215373 -0.000001 0.000000 0.000000 0.000000 0.669332
 33   1.215372 0.000000 0.000000 0.000000 0.000000 0.669332
 34   4.220534 -0.244853 0.431466 -0.001944 -0.026206 0.171920
 35   1.350416 0.000000 -0.000001 0.000000 0.000000 0.887482
 36   1.350410 0.000000 0.000001 0.000000 0.000000 0.887493
 37   2.110540 -0.000001 0.000000 0.043732 -0.026397 -0.104729
 38   0.891923 2.373051 -0.014527 -3.141592 -0.000001 1.413797
 39   7.228122 5.709445 3.726568 3.140796 -1.570796 0.000000
 40   2.450426 5.076128 0.001325 3.140791 -1.570796 0.000000
 41   6.312404 -4.528058 0.001311 3.140791 -1.570796 0.000000
 42   2.233309 1.152535 -7.309138 -1.167940 -1.541147 -0.798475
 43   4.262825 -0.232720 -1.392178 0.019117 0.076129 0.283608
time 5
  0   0.593077 6.792152 38.600735 0.000000 0.000000 -1.608235
  1   -0.859074 -0.222663 0.000000 -0.000030 -1.577766 -1.570772
  2   -0.000007 0.000008 4.427393 -0.160772 -3.092768 -0.039415
  3   18.465939 0.000000 0.000000 0.000000 0.000000 -0.417069
  4   14.875443 0.000000 -0.000001 0.104549 -0.027132 0.354746
  5   0.000006 -0.000004 -4.427393 0.113104 3.129511 -0.312542
  6   18.465939 0.000000 0.000000 0.000000 0.000000 -0.255775
  7   14.875442 0.000000 0.000000 0.095433 -0.016348 -0.056871
  8   2.255207 -0.007574 -0.015622 0.074069 -0.014490 0.059791
  9   9.514219 -0.009357 0.000000 -0.008695 0.001258 -0.005282
 10   11.751820 -0.001633 0.000000 0.000024 0.043599 0.559179
 11   -2.000305 1.089224 2.567695 1.159473 -1.380919 1.421888
 12   4.640941 0.000000 -0.000001 0.857443 1.238800 0.703922
 13   10.828049 0.000000 0.000000 0.000000 0.000000 -0.575271
 14   9.393337 -0.000001 0.000000 -1.741134 -0.071360 -0.011099
 15   1.442245 0.107454 -1.746177 1.686435 0.539209 0.325885
 16   1.063452 0.000000 0.000001 0.000000 0.000000 0.199056
 17   1.376307 -0.000001 0.000001 0.000000 0.000000 0.199049
 18   4.172846 -0.251366 -1.312744 0.008050 0.095731 0.148659
 19   1.215374 0.000002 0.000000 0.000000 0.000000 0.645758
 20   1.215371 -0.000002 0.000001 0.000000 0.000000 0.645758
 21   4.220534 -0.244854 -0.431465 0.001333 0.026242 0.148339
 22   1.350417 0.000000 0.000001 0.000000 0.000000 0.863926
 23   1.350410 -0.000001 -0.000001 0.000000 0.000000 0.863926
 24   -1.769830 1.089237 -2.727853 -1.504742 1.363747 1.085634
 25   4.640942 0.000000 0.000001 -0.868558 -1.189176 0.758001
 26   10.828047 0.000000 0.000001 0.000000 0.000000 -0.614294
 27   9.393339 0.000000 0.000000 1.879745 0.139762 0.167212
 28   1.442245 0.107455 1.746178 -1.686405 -0.539236 0.325898
 29   1.063450 -0.000001 0.000000 0.000000 0.000000 0.199056
 30   1.376307 0.000000 0.000000 0.000000 0.000000 0.199059
 31   4.172847 -0.251365 1.312745 -0.008050 -0.095731 0.148659
 32   1.215373 -0.000001 0.000000 0.000000 0.000000 0.645746
 33   1.215372 0.000000 0.000000 0.000000 0.000000 0.645746
 34   4.220534 -0.244853 0.431466 -0.001333 -0.026242 0.148339
 35   1.350416 0.000000 -0.000001 0.000000 0.000000 0.863937
 36   1.350410 0.000000 0.000001 0.000000 0.000000 0.863925
 37   2.110540 -0.000001 0.000000 0.052793 -0.033268 -0.092645
 38   0.891923 2.373051 -0.014527 -3.141592 -0.000001 1.413797
 39   7.228122 5.709445 3.726568 3.140796 -1.570796 0.000000
 40   2.450426 5.076128 0.001325 3.140791 -1.570796 0.000000
 41   6.312404 -4.528058 0.001311 3.140791 -1.570796 0.000000
 42   2.233309 1.152535 -7.309138 -1.172829 -1.536574 -0.779040
 43   4.262825 -0.232720 -1.392178 0.016840 0.076668 0.253759
time 6
  0   0.369962 6.792152 38.647614 0.000000 0.000000 -1.591457
  1   -1.038767 -0.230476 0.000000 -0.000030 -1.577867 -1.570772
  2   -0.000007 0.000008 4.427393 -0.158577 -3.083465 -0.045300
  3   18.465939 0.000000 0.000000 0.000000 0.000000 -0.412098
  4   14.875443 0.000000 -0.000001 0.119975 -0.035135 0.342737
  5   0.000006 -0.000004 -4.427393 0.113869 3.135290 -0.300189
  6   18.465939 0.000000 0.000000 0.000000 0.000000 -0.222432
  7   14.875442 0.000000 0.000000 0.112946 -0.020608 -0.077468
  8   2.255207 -0.007574 -0.015622 0.065584 -0.014814 0.070578
  9   9.514219 -0.009357 0.000000 -0.008695 0.001055 0.010651
 10   11.751820 -0.001633 0.000000 0.000024 0.043599 0.580330
 11   -1.976867 1.132194 2.567695 1.058626 -1.363043 1.504055
 12   4.640941 0.000000 -0.000001 0.997436 1.160416 0.818832
 13   10.828049 0.000000 0.000000 0.000000 0.000000 -0.752451
 14   9.393337 -0.000001 0.000000 -1.775900 -0.144288 0.002381
 15   1.442245 0.107454 -1.746177 1.727302 0.529753 0.406073
 16   1.063452 0.000000 0.000001 0.000000 0.000000 0.199056
 17   1.376307 -0.000001 0.000001 0.000000 0.000000 0.199049
 18   4.172846 -0.251366 -1.312744 0.008050 0.095731 0.148659
 19   1.215374 0.000002 0.000000 0.000000 0.000000 0.645758
 20   1.215371 -0.000002 0.000001 0.000000 0.000000 0.645758
 21   4.220534 -0.244854 -0.431465 0.001333 0.026242 0.148339
 22   1.350417 0.000000 0.000001 0.000000 0.000000 0.863926
 23   1.350410 -0.000001 -0.000001 0.000000 0.000000 0.863926
 24   -1.746391 1.132207 -2.727853 -1.497762 1.344309 1.072563
 25   4.640942 0.000000 0.000001 -0.970174 -1.161768 0.854873
 26   10.828047 0.000000 0.000001 0.000000 0.000000 -0.695086
 27   9.393339 0.000000 0.000000 1.945028 0.106123 0.221285
 28   1.442245 0.107455 1.746178 -1.663312 -0.586709 0.290573
 29   1.063450 -0.000001 0.000000 0.000000 0.000000 0.199056
 30   1.376307 0.000000 0.000000 0.000000 0.000000 0.199059
 31   4.172847 -0.251365 1.312745 -0.002262 -0.096043 0.088271
 32   1.215373 -0.000001 0.000000 0.000000 0.000000 0.585648
 33   1.215372 0.000000 0.000000 0.000000 0.000000 0.585648
 34   4.220534 -0.244853 0.431466 0.000249 -0.026266 0.088202
 35   1.350416 0.000000 -0.000001 0.000000 0.000000 0.803797
 36   1.350410 0.000000 0.000001 0.000000 0.000000 0.803813
 37   2.110540 -0.000001 0.000000 0.060090 -0.040307 -0.080475
 38   0.891923 2.373051 -0.014527 -3.141592 -0.000001 1.413797
 39   7.228122 5.709445 3.726568 3.140796 -1.570796 0.000000
 40   2.450426 5.076128 0.001325 3.140791 -1.570796 0.000000
 41   6.312404 -4.528058 0.001311 3.140791 -1.570796 0.000000
 42   2.233309 1.152535 -7.309138 -1.176856 -1.531390 -0.760562
 43   4.262825 -0.232720 -1.392178 0.010955 0.077723 0.177622
time 7
  0   0.167130 6.792152 38.686676 0.000000 0.000000 -1.577554
  1   -1.183303 -0.238289 0.000000 -3.141560 -1.565565 1.570772
  2   -0.000007 0.000008 4.427393 -0.156668 -3.077324 -0.048542
  3   18.465939 0.000000 0.000000 0.000000 0.000000 -0.404202
  4   14.875443 0.000000 -0.000001 0.132612 -0.042392 0.330530
  5   0.000006 -0.000004 -4.427393 0.113869 3.138832 -0.290456
  6   18.465939 0.000000 0.000000 0.000000 0.000000 -0.195718
  7   14.875442 0.000000 0.000000 0.127546 -0.024811 -0.093901
  8   2.255207 -0.007574 -0.011716 0.058675 -0.016911 0.079181
  9   9.514219 -0.009357 0.000000 -0.008695 0.000899 0.023402
 10   11.751820 -0.001633 0.000000 0.000024 0.043599 0.597482
 11   -1.957335 1.163445 2.567695 0.902992 -1.333940 1.646885
 12   4.640941 0.000000 -0.000001 1.129127 1.018802 0.930873
 13   10.828049 0.000000 0.000000 0.000000 0.000000 -1.009373
 14   9.393337 -0.000001 0.000000 -1.813407 -0.243034 0.026265
 15   1.442245 0.107454 -1.746177 1.786530 0.510276 0.525176
 16   1.063452 0.000000 0.000001 0.000000 0.000000 0.199056
 17   1.376307 -0.000001 0.000001 0.000000 0.000000 0.199049
 18   4.172846 -0.251366 -1.312744 0.008050 0.095731 0.148659
 19   1.215374 0.000002 0.000000 0.000000 0.000000 0.645758
 20   1.215371 -0.000002 0.000001 0.000000 0.000000 0.645758
 21   4.220534 -0.244854 -0.431465 0.001333 0.026242 0.148339
 22   1.350417 0.000000 0.000001 0.000000 0.000000 0.863926
 23   1.350410 -0.000001 -0.000001 0.000000 0.000000 0.863926
 24   -1.726860 1.163458 -2.723947 -1.466461 1.325951 1.088524
 25   4.640942 0.000000 0.000001 -1.086094 -1.115182 0.966862
 26   10.828047 0.000000 0.000001 0.000000 0.000000 -0.778781
 27   9.393339 0.000000 0.000000 2.006693 0.037478 0.279285
 28   1.442245 0.107455 1.746178 -1.622855 -0.657159 0.232229
 29   1.063450 -0.000001 0.000000 0.000000 0.000000 0.199056
 30   1.376307 0.000000 0.000000 0.000000 0.000000 0.199059
 31   4.172847 -0.251365 1.312745 0.006487 -0.095851 -0.003053
 32   1.215373 -0.000001 0.000000 0.000000 0.000000 0.494703
 33   1.215372 0.000000 0.000000 0.000000 0.000000 0.494703
 34   4.220534 -0.244853 0.431466 0.002622 -0.026146 -0.002762
 35   1.350416 0.000000 -0.000001 0.000000 0.000000 0.712853
 36   1.350410 0.000000 0.000001 0.000000 0.000000 0.712833
 37   2.110540 -0.000001 0.000000 0.065288 -0.046704 -0.067874
 38   0.891923 2.373051 -0.014527 -3.141592 -0.000001 1.413797
 39   7.228122 5.709445 3.726568 3.140796 -1.570796 0.000000
 40   2.450426 5.076128 0.001325 3.140791 -1.570796 0.000000
 41   6.312404 -4.528058 0.001311 3.140791 -1.570796 0.000000
 42   2.233309 1.152535 -7.309138 -1.179253 -1.527021 -0.743999
 43   4.262825 -0.232720 -1.392178 0.001955 0.078466 0.062363
time 8
  0   -0.015419 6.792152 38.714020 0.000000 0.000000 -1.567487
  1   -1.277056 -0.242195 0.000000 -1.570795 -1.569962 0.000000
  2   -0.000007 0.000008 4.427393 -0.155331 -3.075278 -0.048392
  3   18.465939 0.000000 0.000000 0.000000 0.000000 -0.393090
  4   14.875443 0.000000 -0.000001 0.141606 -0.048714 0.318600
  5   0.000006 -0.000004 -4.427393 0.113200 3.139205 -0.286619
  6   18.465939 0.000000 0.000000 0.000000 0.000000 -0.183838
  7   14.875442 0.000000 0.000000 0.138250 -0.028956 -0.101442
  8   2.255207 -0.007574 0.000003 0.053802 -0.021477 0.084905
  9   9.514219 -0.009357 0.000000 -0.008695 0.000803 0.031823
 10   11.751820 -0.001633 0.000000 0.000024 0.043599 0.609293
 11   -1.945616 1.182977 2.567695 0.754718 -1.296439 1.788615
 12   4.640941 0.000000 -0.000001 1.217543 0.849154 1.006738
 13   10.828049 0.000000 0.000000 0.000000 0.000000 -1.289481
 14   9.393337 -0.000001 0.000000 -1.853531 -0.347752 0.057084
 15   1.442245 0.107454 -1.746177 1.847472 0.481972 0.653042
 16   1.063452 0.000000 0.000001 0.000000 0.000000 0.199056
 17   1.376307 -0.000001 0.000001 0.000000 0.000000 0.199049
 18   4.172846 -0.251366 -1.312744 0.008050 0.095731 0.148659
 19   1.215374 0.000002 0.000000 0.000000 0.000000 0.645758
 20   1.215371 -0.000002 0.000001 0.000000 0.000000 0.645758
 21   4.220534 -0.244854 -0.431465 0.001333 0.026242 0.148339
 22   1.350417 0.000000 0.000001 0.000000 0.000000 0.863926
 23   1.350410 -0.000001 -0.000001 0.000000 0.000000 0.863926
 24   -1.715140 1.182990 -2.723947 -1.416766 1.313698 1.128701
 25   4.640942 0.000000 0.000001 -1.181434 -1.057299 1.055544
 26   10.828047 0.000000 0.000001 0.000000 0.000000 -0.858818
 27   9.393339 0.000000 0.000000 2.060065 -0.043237 0.332242
 28   1.442245 0.107455 1.746178 -1.570396 -0.730867 0.161012
 29   1.063450 -0.000001 0.000000 0.000000 0.000000 0.199056
 30   1.376307 0.000000 0.000000 0.000000 0.000000 0.199059
 31   4.172847 -0.251365 1.312745 0.015895 -0.094749 -0.101831
 32   1.215373 -0.000001 0.000000 0.000000 0.000000 0.396372
 33   1.215372 0.000000 0.000000 0.000000 0.000000 0.396372
 34   4.220534 -0.244853 0.431466 0.005175 -0.025763 -0.101094
 35   1.350416 0.000000 -0.000001 0.000000 0.000000 0.614522
 36   1.350410 0.000000 0.000001 0.000000 0.000000 0.614506
 37   2.110540 -0.000001 0.000000 0.068245 -0.051592 -0.054672
 38   0.891923 2.373051 -0.014527 -3.141592 -0.000001 1.413797
 39   7.228122 5.709445 3.726568 3.140796 -1.570796 0.000000
 40   2.450426 5.076128 0.001325 3.140791 -1.570796 0.000000
 41   6.312404 -4.528058 0.001311 3.140791 -1.570796 0.000000
 42   2.233309 1.152535 -7.309138 -1.185868 -1.527196 -0.725042
 43   4.262825 -0.232720 -1.392178 -0.007788 0.078106 -0.062209
time 9
  0   -0.177684 6.792152 38.729645 0.000000 0.000000 -1.562118
  1   -1.312213 -0.242195 0.000000 -0.000030 -1.563926 -1.570772
  2   -0.000007 0.000008 4.427393 -0.154663 -3.078348 -0.044103
  3   18.465939 0.000000 0.000000 0.000000 0.000000 -0.378249
  4   14.875443 0.000000 -0.000001 0.146018 -0.053992 0.307381
  5   0.000006 -0.000004 -4.427393 0.111573 3.135383 -0.291860
  6   18.465939 0.000000 0.000000 0.000000 0.000000 -0.194602
  7   14.875442 0.000000 0.000000 0.144181 -0.033026 -0.095514
  8   2.255207 -0.007574 0.011722 0.051492 -0.029171 0.086956
  9   9.514219 -0.009357 0.000000 -0.008695 0.000755 0.034875
 10   11.751820 -0.001633 0.000000 0.000024 0.043599 0.614420
 11   -1.937804 1.194696 2.571602 0.638467 -1.258366 1.904377
 12   4.640941 0.000000 -0.000001 1.273049 0.689838 1.051988
 13   10.828049 0.000000 0.000000 0.000000 0.000000 -1.535970
 14   9.393337 -0.000001 0.000000 -1.893966 -0.439169 0.089271
 15   1.442245 0.107454 -1.746177 1.896585 0.451685 0.762087
 16   1.063452 0.000000 0.000001 0.000000 0.000000 0.199056
 17   1.376307 -0.000001 0.000001 0.000000 0.000000 0.199049
 18   4.172846 -0.251366 -1.312744 0.008050 0.095731 0.148659
 19   1.215374 0.000002 0.000000 0.000000 0.000000 0.645758
 20   1.215371 -0.000002 0.000001 0.000000 0.000000 0.645758
 21   4.220534 -0.244854 -0.431465 0.001333 0.026242 0.148339
 22   1.350417 0.000000 0.000001 0.000000 0.000000 0.863926
 23   1.350410 -0.000001 -0.000001 0.000000 0.000000 0.863926
 24   -1.707328 1.194709 -2.723947 -1.347141 1.312266 1.195365
 25   4.640942 0.000000 0.000001 -1.241375 -0.999694 1.102090
 26   10.828047 0.000000 0.000001 0.000000 0.000000 -0.928748
 27   9.393339 0.000000 0.000000 2.104191 -0.112012 0.374772
 28   1.442245 0.107455 1.746178 -1.517938 -0.789969 0.093503
 29   1.063450 -0.000001 0.000000 0.000000 0.000000 0.199056
 30   1.376307 0.000000 0.000000 0.000000 0.000000 0.199059
 31   4.172847 -0.251365 1.312745 0.023637 -0.093119 -0.184379
 32   1.215373 -0.000001 0.000000 0.000000 0.000000 0.314156
 33   1.215372 0.000000 0.000000 0.000000 0.000000 0.314156
 34   4.220534 -0.244853 0.431466 0.007272 -0.025247 -0.183331
 35   1.350416 0.000000 -0.000001 0.000000 0.000000 0.532306
 36   1.350410 0.000000 0.000001 0.000000 0.000000 0.532305
 37   2.110540 -0.000001 0.000000 0.068722 -0.054106 -0.040696
 38   0.891923 2.373051 -0.014527 -3.141592 -0.000001 1.413797
 39   7.228122 5.709445 3.726568 3.140796 -1.570796 0.000000
 40   2.450426 5.076128 0.001325 3.140791 -1.570796 0.000000
 41   6.312404 -4.528058 0.001311 3.140791 -1.570796 0.000000
 42   2.233309 1.152535 -7.309138 -1.186922 -1.535904 -0.722170
 43   4.262825 -0.232720 -1.392178 -0.015854 0.076872 -0.166364
time 10
  0   -0.116835 6.792152 38.569485 0.000000 0.000000 -1.561447
  1   -1.308306 -0.242195 0.000000 -0.000030 -1.507863 -1.570772
  2   -0.000007 0.000008 4.427393 -0.157622 -3.137796 -0.031286
  3   18.465939 0.000000 0.000000 0.000000 0.000000 -0.348787
  4   14.875443 0.000000 -0.000001 0.147014 -0.052396 0.291027
  5   0.000006 -0.000004 -4.427393 0.089951 3.072654 -0.371596
  6   18.465939 0.000000 0.000000 0.000000 0.000000 -0.367817
  7   14.875442 0.000000 0.000000 0.144673 -0.031201 -0.001833
  8   2.255207 -0.007574 0.140632 0.046935 -0.085020 0.086857
  9   9.514219 -0.009357 0.000000 -0.008695 0.000767 0.034291
 10   11.751820 -0.001633 0.000000 0.000024 0.043599 0.614500
 11   -1.937804 1.194696 2.571602 0.457716 -1.228309 2.086092
 12   4.640941 0.000000 -0.000001 1.252074 0.600985 1.018329
 13   10.828049 0.000000 0.000000 0.000000 0.000000 -1.629685
 14   9.393337 -0.000001 0.000000 -1.904807 -0.472164 0.102067
 15   1.442245 0.107454 -1.746177 1.915017 0.438240 0.804901
 16   1.063452 0.000000 0.000001 0.000000 0.000000 0.199056
 17   1.376307 -0.000001 0.000001 0.000000 0.000000 0.199049
 18   4.172846 -0.251366 -1.312744 0.008050 0.095731 0.148659
 19   1.215374 0.000002 0.000000 0.000000 0.000000 0.645758
 20   1.215371 -0.000002 0.000001 0.000000 0.000000 0.645758
 21   4.220534 -0.244854 -0.431465 0.001333 0.026242 0.148339
 22   1.350417 0.000000 0.000001 0.000000 0.000000 0.863926
 23   1.350410 -0.000001 -0.000001 0.000000 0.000000 0.863926
 24   -1.707328 1.194709 -2.723947 -0.948924 1.376394 1.591637
 25   4.640942 0.000000 0.000001 -1.121904 -0.985189 0.899878
 26   10.828047 0.000000 0.000001 0.000000 0.000000 -0.927761
 27   9.393339 0.000000 0.000000 2.104191 -0.112012 0.374772
 28   1.442245 0.107455 1.746178 -1.517938 -0.789969 0.093503
 29   1.063450 -0.000001 0.000000 0.000000 0.000000 0.199056
 30   1.376307 0.000000 0.000000 0.000000 0.000000 0.199059
 31   4.172847 -0.251365 1.312745 0.023637 -0.093119 -0.184379
 32   1.215373 -0.000001 0.000000 0.000000 0.000000 0.314156
 33   1.215372 0.000000 0.000000 0.000000 0.000000 0.314156
 34   4.220534 -0.244853 0.431466 0.007272 -0.025247 -0.183331
 35   1.350416 0.000000 -0.000001 0.000000 0.000000 0.532306
 36   1.350410 0.000000 0.000001 0.000000 0.000000 0.532305
 37   2.110540 -0.000001 0.000000 0.067673 -0.054916 -0.025859
 38   0.891923 2.373051 -0.014527 -3.141592 -0.000001 1.413797
 39   7.228122 5.709445 3.726568 3.140796 -1.570796 0.000000
 40   2.450426 5.076128 0.001325 3.140791 -1.570796 0.000000
 41   6.312404 -4.528058 0.001311 3.140791 -1.570796 0.000000
 42   2.233309 1.152535 -7.309138 -1.153463 -1.596979 -0.827867
 43   4.262825 -0.232720 -1.392178 -0.015854 0.076872 -0.166364
time 11
  0   0.085997 6.792152 38.385887 0.000000 0.000000 -1.564324
  1   -1.288775 -0.242195 0.000000 -0.000030 -1.466142 -1.570772
  2   -0.000007 0.000008 4.427393 -0.160009 -3.185521 -0.030587
  3   18.465939 0.000000 0.000000 0.000000 0.000000 -0.349737
  4   14.875443 0.000000 -0.000001 0.144937 -0.046607 0.293555
  5   0.000006 -0.000004 -4.427393 0.067945 3.024559 -0.422226
  6   18.465939 0.000000 0.000000 0.000000 0.000000 -0.473098
  7   14.875442 0.000000 0.000000 0.140742 -0.025438 0.054031
  8   2.247394 -0.007574 0.234385 0.044310 -0.126570 0.086096
  9   9.514219 -0.009357 0.000000 -0.008695 0.000791 0.032624
 10   11.751820 -0.001633 0.000000 0.000024 0.043599 0.612245
 11   -1.941710 1.190789 2.567695 0.290396 -1.225430 2.250494
 12   4.640941 0.000000 -0.000001 1.226974 0.569163 0.956337
 13   10.828049 0.000000 0.000000 0.000000 0.000000 -1.651344
 14   9.393337 -0.000001 0.000000 -1.893966 -0.439169 0.089271
 15   1.442245 0.107454 -1.746177 1.896585 0.451685 0.762087
 16   1.063452 0.000000 0.000001 0.000000 0.000000 0.199056
 17   1.376307 -0.000001 0.000001 0.000000 0.000000 0.199049
 18   4.172846 -0.251366 -1.312744 0.008050 0.095731 0.148659
 19   1.215374 0.000002 0.000000 0.000000 0.000000 0.645758
 20   1.215371 -0.000002 0.000001 0.000000 0.000000 0.645758
 21   4.220534 -0.244854 -0.431465 0.001333 0.026242 0.148339
 22   1.350417 0.000000 0.000001 0.000000 0.000000 0.863926
 23   1.350410 -0.000001 -0.000001 0.000000 0.000000 0.863926
 24   -1.711234 1.190803 -2.723947 -0.319882 1.407004 2.214044
 25   4.640942 0.000000 0.000001 -1.051416 -0.965173 0.728254
 26   10.828047 0.000000 0.000001 0.000000 0.000000 -0.916725
 27   9.393339 0.000000 0.000000 2.104191 -0.112012 0.374772
 28   1.442245 0.107455 1.746178 -1.517938 -0.789969 0.093503
 29   1.063450 -0.000001 0.000000 0.000000 0.000000 0.199056
 30   1.376307 0.000000 0.000000 0.000000 0.000000 0.199059
 31   4.172847 -0.251365 1.312745 0.023637 -0.093119 -0.184379
 32   1.215373 -0.000001 0.000000 0.000000 0.000000 0.314156
 33   1.215372 0.000000 0.000000 0.000000 0.000000 0.314156
 34   4.220534 -0.244853 0.431466 0.007272 -0.025247 -0.183331
 35   1.350416 0.000000 -0.000001 0.000000 0.000000 0.532306
 36   1.350410 0.000000 0.000001 0.000000 0.000000 0.532305
 37   2.110540 -0.000001 0.000000 0.066147 -0.055112 -0.010206
 38   0.891923 2.373051 -0.014527 -3.141592 -0.000001 1.413797
 39   7.228122 5.709445 3.726568 3.140796 -1.570796 0.000000
 40   2.450426 5.076128 0.001325 3.140791 -1.570796 0.000000
 41   6.312404 -4.528058 0.001311 3.140791 -1.570796 0.000000
 42   2.233309 1.152535 -7.309138 -1.140328 -1.658054 -0.884737
 43   4.262825 -0.232720 -1.392178 -0.015854 0.076872 -0.166364
time 12
  0   0.207696 6.792152 38.346821 0.000000 0.000000 -1.570076
  1   -1.257524 -0.242195 0.000000 -0.000030 -1.554872 -1.570772
  2   -0.000007 0.000008 4.427393 -0.155999 -3.093326 -0.082655
  3   18.465939 0.000000 0.000000 0.000000 0.000000 -0.476725
  4   14.875443 0.000000 -0.000001 0.139899 -0.042031 0.368453
  5   0.000006 -0.000004 -4.427393 0.105354 3.107701 -0.373655
  6   18.465939 0.000000 0.000000 0.000000 0.000000 -0.374577
  7   14.875442 0.000000 0.000000 0.134460 -0.022776 0.001281
  8   2.255207 -0.007574 0.035160 0.053424 -0.038112 0.083647
  9   9.514219 -0.009357 0.000000 -0.008695 0.000827 0.029918
 10   11.751820 -0.001633 0.000000 0.000024 0.043599 0.607870
 11   -1.945616 1.182977 2.567695 0.139771 -1.257428 2.397858
 12   4.640941 0.000000 -0.000001 1.252173 0.599677 0.907751
 13   10.828049 0.000000 0.000000 0.000000 0.000000 -1.583071
 14   9.393337 -0.000001 0.000000 -1.893966 -0.439169 0.089271
 15   1.442245 0.107454 -1.746177 1.896585 0.451685 0.762087
 16   1.063452 0.000000 0.000001 0.000000 0.000000 0.199056
 17   1.376307 -0.000001 0.000001 0.000000 0.000000 0.199049
 18   4.172846 -0.251366 -1.312744 0.008050 0.095731 0.148659
 19   1.215374 0.000002 0.000000 0.000000 0.000000 0.645758
 20   1.215371 -0.000002 0.000001 0.000000 0.000000 0.645758
 21   4.220534 -0.244854 -0.431465 0.001333 0.026242 0.148339
 22   1.350417 0.000000 0.000001 0.000000 0.000000 0.863926
 23   1.350410 -0.000001 -0.000001 0.000000 0.000000 0.863926
 24   -1.715140 1.182990 -2.723947 -0.229536 1.383932 2.308296
 25   4.640942 0.000000 0.000001 -1.069784 -0.880929 0.756251
 26   10.828047 0.000000 0.000001 0.000000 0.000000 -1.055715
 27   9.393339 0.000000 0.000000 2.100773 -0.137583 0.395722
 28   1.442245 0.107455 1.746178 -1.503301 -0.804464 0.075119
 29   1.063450 -0.000001 0.000000 0.000000 0.000000 0.199056
 30   1.376307 0.000000 0.000000 0.000000 0.000000 0.199059
 31   4.172847 -0.251365 1.312745 0.025567 -0.092615 -0.205216
 32   1.215373 -0.000001 0.000000 0.000000 0.000000 0.293424
 33   1.215372 0.000000 0.000000 0.000000 0.000000 0.293424
 34   4.220534 -0.244853 0.431466 0.007799 -0.025091 -0.204070
 35   1.350416 0.000000 -0.000001 0.000000 0.000000 0.511574
 36   1.350410 0.000000 0.000001 0.000000 0.000000 0.511600
 37   2.110540 -0.000001 0.000000 0.064239 -0.054749 0.006007
 38   0.891923 2.373051 -0.014527 -3.141592 -0.000001 1.413797
 39   7.228122 5.709445 3.726568 3.140796 -1.570796 0.000000
 40   2.450426 5.076128 0.001325 3.140791 -1.570796 0.000000
 41   6.312404 -4.528058 0.001311 3.140791 -1.570796 0.000000
 42   2.233309 1.152535 -7.309138 -1.153367 -1.562088 -0.827580
 43   4.262825 -0.232720 -1.392178 -0.017867 0.076441 -0.192592
time 13
  0   0.349679 6.792152 38.311665 0.000000 0.000000 -1.578130
  1   -1.214554 -0.238289 0.000000 -0.000030 -1.640570 -1.570772
  2   -0.000007 0.000008 4.427393 -0.144926 -3.006620 -0.120757
  3   18.465939 0.000000 0.000000 0.000000 0.000000 -0.571252
  4   14.875443 0.000000 -0.000001 0.132413 -0.037923 0.426049
  5   0.000006 -0.000004 -4.427393 0.133100 3.192334 -0.312449
  6   18.465939 0.000000 0.000000 0.000000 0.000000 -0.240745
  7   14.875442 0.000000 0.000000 0.125791 -0.019429 -0.071203
  8   2.251301 -0.007574 -0.156252 0.062350 0.047350 0.081232
  9   9.514219 -0.009357 0.000000 -0.008695 0.000863 0.026281
 10   11.751820 -0.001633 0.000000 0.000024 0.043599 0.601643
 11   -1.953429 1.171258 2.567695 0.004852 -1.238789 2.534162
 12   4.640941 0.000000 -0.000001 1.237977 0.600710 0.851262
 13   10.828049 0.000000 0.000000 0.000000 0.000000 -1.525049
 14   9.393337 -0.000001 0.000000 -1.893966 -0.439169 0.089271
 15   1.442245 0.107454 -1.746177 1.896585 0.451685 0.762087
 16   1.063452 0.000000 0.000001 0.000000 0.000000 0.199056
 17   1.376307 -0.000001 0.000001 0.000000 0.000000 0.199049
 18   4.172846 -0.251366 -1.312744 0.008050 0.095731 0.148659
 19   1.215374 0.000002 0.000000 0.000000 0.000000 0.645758
 20   1.215371 -0.000002 0.000001 0.000000 0.000000 0.645758
 21   4.220534 -0.244854 -0.431465 0.001333 0.026242 0.148339
 22   1.350417 0.000000 0.000001 0.000000 0.000000 0.863926
 23   1.350410 -0.000001 -0.000001 0.000000 0.000000 0.863926
 24   -1.722953 1.171271 -2.723947 -0.263163 1.373860 2.282290
 25   4.640942 0.000000 0.000001 -1.111511 -0.821162 0.819596
 26   10.828047 0.000000 0.000001 0.000000 0.000000 -1.130930
 27   9.393339 0.000000 0.000000 2.104191 -0.112012 0.374772
 28   1.442245 0.107455 1.746178 -1.517938 -0.789969 0.093503
 29   1.063450 -0.000001 0.000000 0.000000 0.000000 0.199056
 30   1.376307 0.000000 0.000000 0.000000 0.000000 0.199059
 31   4.172847 -0.251365 1.312745 0.023637 -0.093119 -0.184379
 32   1.215373 -0.000001 0.000000 0.000000 0.000000 0.314156
 33   1.215372 0.000000 0.000000 0.000000 0.000000 0.314156
 34   4.220534 -0.244853 0.431466 0.007272 -0.025247 -0.183331
 35   1.350416 0.000000 -0.000001 0.000000 0.000000 0.532306
 36   1.350410 0.000000 0.000001 0.000000 0.000000 0.532305
 37   2.110540 -0.000001 0.000000 0.061950 -0.053883 0.022435
 38   0.891923 2.373051 -0.014527 -3.141592 -0.000001 1.413797
 39   7.228122 5.709445 3.726568 3.140796 -1.570796 0.000000
 40   2.450426 5.076128 0.001325 3.140791 -1.570796 0.000000
 41   6.312404 -4.528058 0.001311 3.140791 -1.570796 0.000000
 42   2.233309 1.152535 -7.309138 -1.175993 -1.483567 -0.751849
 43   4.262825 -0.232720 -1.392178 -0.015854 0.076872 -0.166364
time 14
  0   0.491661 6.792152 38.288227 0.000000 0.000000 -1.587909
  1   -1.163771 -0.238289 0.000000 -0.000030 -1.580166 -1.570772
  2   -0.000007 0.000008 4.427393 -0.155713 -3.076673 -0.093178
  3   18.465939 0.000000 0.000000 0.000000 0.000000 -0.514813
  4   14.875443 0.000000 -0.000001 0.123448 -0.032006 0.397488
  5   0.000006 -0.000004 -4.427393 0.113582 3.126715 -0.365138
  6   18.465939 0.000000 0.000000 0.000000 0.000000 -0.356856
  7   14.875442 0.000000 0.000000 0.115648 -0.017318 -0.008699
  8   2.255207 -0.007574 -0.019529 0.059830 -0.012753 0.078122
  9   9.514219 -0.009357 0.000000 -0.008695 0.000923 0.021822
 10   11.751820 -0.001633 0.000000 0.000024 0.043599 0.593805
 11   -1.961242 1.155632 2.567695 -0.004633 -1.214854 2.550993
 12   4.640941 0.000000 -0.000001 1.228595 0.562276 0.847867
 13   10.828049 0.000000 0.000000 0.000000 0.000000 -1.558300
 14   9.393337 -0.000001 0.000000 -1.893966 -0.439169 0.089271
 15   1.442245 0.107454 -1.746177 1.896585 0.451685 0.762087
 16   1.063452 0.000000 0.000001 0.000000 0.000000 0.199056
 17   1.376307 -0.000001 0.000001 0.000000 0.000000 0.199049
 18   4.172846 -0.251366 -1.312744 0.008050 0.095731 0.148659
 19   1.215374 0.000002 0.000000 0.000000 0.000000 0.645758
 20   1.215371 -0.000002 0.000001 0.000000 0.000000 0.645758
 21   4.220534 -0.244854 -0.431465 0.001333 0.026242 0.148339
 22   1.350417 0.000000 0.000001 0.000000 0.000000 0.863926
 23   1.350410 -0.000001 -0.000001 0.000000 0.000000 0.863926
 24   -1.730766 1.155645 -2.723947 -0.262153 1.371327 2.291234
 25   4.640942 0.000000 0.000001 -1.085374 -0.856380 0.789428
 26   10.828047 0.000000 0.000001 0.000000 0.000000 -1.063439
 27   9.393339 0.000000 0.000000 2.104140 -0.107164 0.371474
 28   1.442245 0.107455 1.746178 -1.520393 -0.787497 0.096592
 29   1.063450 -0.000001 0.000000 0.000000 0.000000 0.199056
 30   1.376307 0.000000 0.000000 0.000000 0.000000 0.199059
 31   4.172847 -0.251365 1.312745 0.023302 -0.093203 -0.180812
 32   1.215373 -0.000001 0.000000 0.000000 0.000000 0.317724
 33   1.215372 0.000000 0.000000 0.000000 0.000000 0.317724
 34   4.220534 -0.244853 0.431466 0.007188 -0.025271 -0.179767
 35   1.350416 0.000000 -0.000001 0.000000 0.000000 0.535873
 36   1.350410 0.000000 0.000001 0.000000 0.000000 0.535883
 37   2.110540 -0.000001 0.000000 0.059375 -0.052514 0.038905
 38   0.891923 2.373051 -0.014527 -3.141592 -0.000001 1.413797
 39   7.228122 5.709445 3.726568 3.140796 -1.570796 0.000000
 40   2.450426 5.076128 0.001325 3.140791 -1.570796 0.000000
 41   6.312404 -4.528058 0.001311 3.140791 -1.570796 0.000000
 42   2.233309 1.152535 -7.309138 -1.153271 -1.544642 -0.827580
 43   4.262825 -0.232720 -1.392178 -0.015507 0.076944 -0.161827
time 15
  0   0.633643 6.792152 38.276508 0.000000 0.000000 -1.598839
  1   -1.105175 -0.234382 0.000000 -0.000030 -1.518469 -1.570772
  2   -0.000007 0.000008 4.427393 -0.162682 -3.148959 -0.060760
  3   18.465939 0.000000 0.000000 0.000000 0.000000 -0.446093
  4   14.875443 0.000000 -0.000001 0.113344 -0.026578 0.362291
  5   0.000006 -0.000004 -4.427393 0.087941 3.063147 -0.405848
  6   18.465939 0.000000 0.000000 0.000000 0.000000 -0.442380
  7   14.875442 0.000000 0.000000 0.104347 -0.014921 0.036848
  8   2.255207 -0.007574 0.117194 0.058003 -0.074186 0.074780
  9   9.514219 -0.009357 0.000000 -0.008695 0.000983 0.016583
 10   11.751820 -0.001633 0.000000 0.000024 0.043599 0.584625
 11   -1.972961 1.140007 2.567695 0.006901 -1.247059 2.549207
 12   4.640941 0.000000 -0.000001 1.268972 0.559865 0.877955
 13   10.828049 0.000000 0.000000 0.000000 0.000000 -1.593810
 14   9.393337 -0.000001 0.000000 -1.893966 -0.439169 0.089271
 15   1.442245 0.107454 -1.746177 1.896585 0.451685 0.762087
 16   1.063452 0.000000 0.000001 0.000000 0.000000 0.199056
 17   1.376307 -0.000001 0.000001 0.000000 0.000000 0.199049
 18   4.172846 -0.251366 -1.312744 0.008050 0.095731 0.148659
 19   1.215374 0.000002 0.000000 0.000000 0.000000 0.645758
 20   1.215371 -0.000002 0.000001 0.000000 0.000000 0.645758
 21   4.220534 -0.244854 -0.431465 0.001333 0.026242 0.148339
 22   1.350417 0.000000 0.000001 0.000000 0.000000 0.863926
 23   1.350410 -0.000001 -0.000001 0.000000 0.000000 0.863926
 24   -1.742485 1.140020 -2.727853 -0.249861 1.366052 2.312699
 25   4.640942 0.000000 0.000001 -1.056921 -0.881486 0.758071
 26   10.828047 0.000000 0.000001 0.000000 0.000000 -1.008088
 27   9.393339 0.000000 0.000000 2.104191 -0.112012 0.374772
 28   1.442245 0.107455 1.746178 -1.517938 -0.789969 0.093503
 29   1.063450 -0.000001 0.000000 0.000000 0.000000 0.199056
 30   1.376307 0.000000 0.000000 0.000000 0.000000 0.199059
 31   4.172847 -0.251365 1.312745 0.023637 -0.093119 -0.184379
 32   1.215373 -0.000001 0.000000 0.000000 0.000000 0.314156
 33   1.215372 0.000000 0.000000 0.000000 0.000000 0.314156
 34   4.220534 -0.244853 0.431466 0.007272 -0.025247 -0.183331
 35   1.350416 0.000000 -0.000001 0.000000 0.000000 0.532306
 36   1.350410 0.000000 0.000001 0.000000 0.000000 0.532305
 37   2.110540 -0.000001 0.000000 0.056466 -0.050727 0.055118
 38   0.891923 2.373051 -0.014527 -3.141592 -0.000001 1.413797
 39   7.228122 5.709445 3.726568 3.140796 -1.570796 0.000000
 40   2.450426 5.076128 0.001325 3.140791 -1.570796 0.000000
 41   6.312404 -4.528058 0.001311 3.140791 -1.570796 0.000000
 42   2.233309 1.152535 -7.309138 -1.140328 -1.605688 -0.884737
 43   4.262825 -0.232720 -1.392178 -0.015854 0.076872 -0.166364
time 16
  0   0.755342 6.792152 38.276508 0.000000 0.000000 -1.610344
  1   -1.038767 -0.230476 0.000000 -0.000030 -1.566025 -1.570772
  2   -0.000007 0.000008 4.427393 -0.160486 -3.104025 -0.078515
  3   18.465939 0.000000 0.000000 0.000000 0.000000 -0.496829
  4   14.875443 0.000000 -0.000001 0.102756 -0.021385 0.395790
  5   0.000006 -0.000004 -4.427393 0.107268 3.107794 -0.376462
  6   18.465939 0.000000 0.000000 0.000000 0.000000 -0.381601
  7   14.875442 0.000000 0.000000 0.092520 -0.012867 0.004358
  8   2.255207 -0.007574 0.007816 0.064744 -0.026643 0.070578
  9   9.514219 -0.009357 0.000000 -0.008695 0.001055 0.010651
 10   11.751820 -0.001633 0.000000 0.000024 0.043599 0.574345
 11   -1.984680 1.120475 2.567695 0.009253 -1.257524 2.557177
 12   4.640941 0.000000 -0.000001 1.283069 0.573089 0.881701
 13   10.828049 0.000000 0.000000 0.000000 0.000000 -1.565195
 14   9.393337 -0.000001 0.000000 -1.893966 -0.439169 0.089271
 15   1.442245 0.107454 -1.746177 1.896585 0.451685 0.762087
 16   1.063452 0.000000 0.000001 0.000000 0.000000 0.199056
 17   1.376307 -0.000001 0.000001 0.000000 0.000000 0.199049
 18   4.172846 -0.251366 -1.312744 0.008050 0.095731 0.148659
 19   1.215374 0.000002 0.000000 0.000000 0.000000 0.645758
 20   1.215371 -0.000002 0.000001 0.000000 0.000000 0.645758
 21   4.220534 -0.244854 -0.431465 0.001333 0.026242 0.148339
 22   1.350417 0.000000 0.000001 0.000000 0.000000 0.863926
 23   1.350410 -0.000001 -0.000001 0.000000 0.000000 0.863926
 24   -1.754204 1.120488 -2.727853 -0.227253 1.347465 2.346066
 25   4.640942 0.000000 0.000001 -1.069990 -0.823812 0.787119
 26   10.828047 0.000000 0.000001 0.000000 0.000000 -1.071861
 27   9.393339 0.000000 0.000000 2.106955 -0.136672 0.388884
 28   1.442245 0.107455 1.746178 -1.506301 -0.801598 0.078827
 29   1.063450 -0.000001 0.000000 0.000000 0.000000 0.199056
 30   1.376307 0.000000 0.000000 0.000000 0.000000 0.199059
 31   4.172847 -0.251365 1.312745 0.025183 -0.092711 -0.201049
 32   1.215373 -0.000001 0.000000 0.000000 0.000000 0.297537
 33   1.215372 0.000000 0.000000 0.000000 0.000000 0.297537
 34   4.220534 -0.244853 0.431466 0.007692 -0.025127 -0.199946
 35   1.350416 0.000000 -0.000001 0.000000 0.000000 0.515729
 36   1.350410 0.000000 0.000001 0.000000 0.000000 0.515702
 37   2.110540 -0.000001 0.000000 0.053366 -0.048576 0.070772
 38   0.891923 2.373051 -0.014527 -3.141592 -0.000001 1.413797
 39   7.228122 5.709445 3.726568 3.140796 -1.570796 0.000000
 40   2.450426 5.076128 0.001325 3.140791 -1.570796 0.000000
 41   6.312404 -4.528058 0.001311 3.140791 -1.570796 0.000000
 42   2.233309 1.152535 -7.309138 -1.147423 -1.562088 -0.850941
 43   4.262825 -0.232720 -1.392178 -0.017460 0.076525 -0.187339
time 17
  0   0.897325 6.792152 38.288227 0.000000 0.000000 -1.621658
  1   -0.964546 -0.226569 0.000000 -0.000030 -1.645342 -1.570772
  2   -0.000007 0.000008 4.427393 -0.152276 -3.025319 -0.106045
  3   18.465939 0.000000 0.000000 0.000000 0.000000 -0.570229
  4   14.875443 0.000000 -0.000001 0.092083 -0.017022 0.442562
  5   0.000006 -0.000004 -4.427393 0.133292 3.187767 -0.312823
  6   18.465939 0.000000 0.000000 0.000000 0.000000 -0.243173
  7   14.875442 0.000000 0.000000 0.080727 -0.010471 -0.070190
  8   2.251301 -0.007574 -0.167971 0.073502 0.052659 0.066243
  9   9.514219 -0.009357 0.000000 -0.008695 0.001139 0.004135
 10   11.751820 -0.001633 0.000000 0.000024 0.043599 0.563232
 11   -1.996399 1.097037 2.567695 0.009178 -1.242829 2.568375
 12   4.640941 0.000000 -0.000001 1.248341 0.565926 0.851554
 13   10.828049 0.000000 0.000000 0.000000 0.000000 -1.505464
 14   9.393337 -0.000001 0.000000 -1.893966 -0.439169 0.089271
 15   1.442245 0.107454 -1.746177 1.896585 0.451685 0.762087
 16   1.063452 0.000000 0.000001 0.000000 0.000000 0.199056
 17   1.376307 -0.000001 0.000001 0.000000 0.000000 0.199049
 18   4.172846 -0.251366 -1.312744 0.008050 0.095731 0.148659
 19   1.215374 0.000002 0.000000 0.000000 0.000000 0.645758
 20   1.215371 -0.000002 0.000001 0.000000 0.000000 0.645758
 21   4.220534 -0.244854 -0.431465 0.001333 0.026242 0.148339
 22   1.350417 0.000000 0.000001 0.000000 0.000000 0.863926
 23   1.350410 -0.000001 -0.000001 0.000000 0.000000 0.863926
 24   -1.765923 1.097050 -2.727853 -0.207059 1.327654 2.377850
 25   4.640942 0.000000 0.000001 -1.090313 -0.749191 0.828415
 26   10.828047 0.000000 0.000001 0.000000 0.000000 -1.164095
 27   9.393339 0.000000 0.000000 2.108865 -0.155866 0.399844
 28   1.442245 0.107455 1.746178 -1.497027 -0.810531 0.067189
 29   1.063450 -0.000001 0.000000 0.000000 0.000000 0.199056
 30   1.376307 0.000000 0.000000 0.000000 0.000000 0.199059
 31   4.172847 -0.251365 1.312745 0.026382 -0.092388 -0.213992
 32   1.215373 -0.000001 0.000000 0.000000 0.000000 0.284653
 33   1.215372 0.000000 0.000000 0.000000 0.000000 0.284653
 34   4.220534 -0.244853 0.431466 0.008015 -0.025020 -0.212838
 35   1.350416 0.000000 -0.000001 0.000000 0.000000 0.502845
 36   1.350410 0.000000 0.000001 0.000000 0.000000 0.502821
 37   2.110540 -0.000001 0.000000 0.050027 -0.046090 0.085694
 38   0.891923 2.373051 -0.014527 -3.141592 -0.000001 1.413797
 39   7.228122 5.709445 3.726568 3.140796 -1.570796 0.000000
 40   2.450426 5.076128 0.001325 3.140791 -1.570796 0.000000
 41   6.312404 -4.528058 0.001311 3.140791 -1.570796 0.000000
 42   2.233309 1.152535 -7.309138 -1.168227 -1.479198 -0.767455
 43   4.262825 -0.232720 -1.392178 -0.018706 0.076237 -0.203696
time 18
  0   0.998741 6.792152 38.315571 0.000000 0.000000 -1.632396
  1   -0.886419 -0.222663 0.000000 -0.000030 -1.692897 -1.570772
  2   -0.000007 0.000008 4.427393 -0.146644 -2.980477 -0.117167
  3   18.465939 0.000000 0.000000 0.000000 0.000000 -0.604297
  4   14.875443 0.000000 -0.000001 0.081979 -0.013127 0.466738
  5   0.000006 -0.000004 -4.427393 0.139702 3.242666 -0.229625
  6   18.465939 0.000000 0.000000 0.000000 0.000000 -0.057881
  7   14.875442 0.000000 0.000000 0.069602 -0.008094 -0.171150
  8   2.239582 -0.007574 -0.273443 0.079865 0.100334 0.061743
  9   9.514219 -0.009357 0.000000 -0.008695 0.001222 -0.002858
 10   11.751820 -0.001633 0.000000 0.000024 0.043599 0.551476
 11   -2.008118 1.077505 2.567695 0.010392 -1.237565 2.578955
 12   4.640941 0.000000 -0.000001 1.241268 0.552082 0.844003
 13   10.828049 0.000000 0.000000 0.000000 0.000000 -1.488991
 14   9.393337 -0.000001 0.000000 -1.893966 -0.439169 0.089271
 15   1.442245 0.107454 -1.746177 1.896585 0.451685 0.762087
 16   1.063452 0.000000 0.000001 0.000000 0.000000 0.199056
 17   1.376307 -0.000001 0.000001 0.000000 0.000000 0.199049
 18   4.172846 -0.251366 -1.312744 0.008050 0.095731 0.148659
 19   1.215374 0.000002 0.000000 0.000000 0.000000 0.645758
 20   1.215371 -0.000002 0.000001 0.000000 0.000000 0.645758
 21   4.220534 -0.244854 -0.431465 0.001333 0.026242 0.148339
 22   1.350417 0.000000 0.000001 0.000000 0.000000 0.863926
 23   1.350410 -0.000001 -0.000001 0.000000 0.000000 0.863926
 24   -1.777642 1.077518 -2.727853 -0.202581 1.324497 2.394086
 25   4.640942 0.000000 0.000001 -1.110225 -0.726387 0.855012
 26   10.828047 0.000000 0.000001 0.000000 0.000000 -1.203765
 27   9.393339 0.000000 0.000000 2.104191 -0.112012 0.374772
 28   1.442245 0.107455 1.746178 -1.517938 -0.789969 0.093503
 29   1.063450 -0.000001 0.000000 0.000000 0.000000 0.199056
 30   1.376307 0.000000 0.000000 0.000000 0.000000 0.199059
 31   4.172847 -0.251365 1.312745 0.023637 -0.093119 -0.184379
 32   1.215373 -0.000001 0.000000 0.000000 0.000000 0.314156
 33   1.215372 0.000000 0.000000 0.000000 0.000000 0.314156
 34   4.220534 -0.244853 0.431466 0.007272 -0.025247 -0.183331
 35   1.350416 0.000000 -0.000001 0.000000 0.000000 0.532306
 36   1.350410 0.000000 0.000001 0.000000 0.000000 0.532305
 37   2.110540 -0.000001 0.000000 0.046451 -0.043324 0.099542
 38   0.891923 2.373051 -0.014527 -3.141592 -0.000001 1.413797
 39   7.228122 5.709445 3.726568 3.140796 -1.570796 0.000000
 40   2.450426 5.076128 0.001325 3.140791 -1.570796 0.000000
 41   6.312404 -4.528058 0.001311 3.140791 -1.570796 0.000000
 42   2.233309 1.152535 -7.309138 -1.201591 -1.422492 -0.682150
 43   4.262825 -0.232720 -1.392178 -0.015854 0.076872 -0.166364
time 19
  0   1.039307 6.792152 38.510891 0.000000 0.000000 -1.641792
  1   -0.800478 -0.218757 0.000000 -0.000030 -1.637006 -1.570772
  2   -0.000007 0.000008 4.427393 -0.158672 -3.046438 -0.070286
  3   18.465939 0.000000 0.000000 0.000000 0.000000 -0.503116
  4   14.875443 0.000000 -0.000001 0.073013 -0.010041 0.412381
  5   0.000006 -0.000004 -4.427393 0.128412 3.185157 -0.260508
  6   18.465939 0.000000 0.000000 0.000000 0.000000 -0.131329
  7   14.875442 0.000000 0.000000 0.060336 -0.009064 -0.129655
  8   2.251301 -0.007574 -0.148439 0.080054 0.044773 0.056449
  9   9.514219 -0.009357 0.000000 -0.008695 0.001318 -0.010305
 10   11.751820 -0.001633 0.000000 0.000024 0.043599 0.539397
 11   -2.023744 1.054067 2.567695 -0.012676 -1.306045 2.613374
 12   4.640941 0.000000 -0.000001 1.334056 0.591962 0.880179
 13   10.828049 0.000000 0.000000 0.000000 0.000000 -1.489235
 14   9.393337 -0.000001 0.000000 -1.896895 -0.457114 0.096011
 15   1.442245 0.107454 -1.746177 1.902996 0.447154 0.776824
 16   1.063452 0.000000 0.000001 0.000000 0.000000 0.199056
 17   1.376307 -0.000001 0.000001 0.000000 0.000000 0.199049
 18   4.172846 -0.251366 -1.312744 0.008050 0.095731 0.148659
 19   1.215374 0.000002 0.000000 0.000000 0.000000 0.645758
 20   1.215371 -0.000002 0.000001 0.000000 0.000000 0.645758
 21   4.220534 -0.244854 -0.431465 0.001333 0.026242 0.148339
 22   1.350417 0.000000 0.000001 0.000000 0.000000 0.863926
 23   1.350410 -0.000001 -0.000001 0.000000 0.000000 0.863926
 24   -1.793268 1.054080 -2.727853 -0.177339 1.324497 2.430480
 25   4.640942 0.000000 0.000001 -1.107241 -0.741102 0.839054
 26   10.828047 0.000000 0.000001 0.000000 0.000000 -1.162759
 27   9.393339 0.000000 0.000000 2.110171 -0.120373 0.384762
 28   1.442245 0.107455 1.746178 -1.511392 -0.796542 0.085212
 29   1.063450 -0.000001 0.000000 0.000000 0.000000 0.199056
 30   1.376307 0.000000 0.000000 0.000000 0.000000 0.199059
 31   4.172847 -0.251365 1.312745 0.024512 -0.092891 -0.193836
 32   1.215373 -0.000001 0.000000 0.000000 0.000000 0.304756
 33   1.215372 0.000000 0.000000 0.000000 0.000000 0.304756
 34   4.220534 -0.244853 0.431466 0.007512 -0.025175 -0.192739
 35   1.350416 0.000000 -0.000001 0.000000 0.000000 0.522905
 36   1.350410 0.000000 0.000001 0.000000 0.000000 0.522906
 37   2.110540 -0.000001 0.000000 0.042778 -0.040363 0.112056
 38   0.891923 2.373051 -0.014527 -3.141592 -0.000001 1.413797
 39   7.228122 5.709445 3.726568 3.140796 -1.570796 0.000000
 40   2.450426 5.076128 0.001325 3.140791 -1.570796 0.000000
 41   6.312404 -4.528058 0.001311 3.140791 -1.570796 0.000000
 42   2.233309 1.152535 -7.309138 -1.180691 -1.474830 -0.738446
 43   4.262825 -0.232720 -1.392178 -0.016765 0.076680 -0.178225
time 20
  0   1.039307 6.792152 38.706207 0.000000 0.000000 -1.649366
  1   -0.710632 -0.210944 0.000000 -1.570795 -1.570451 0.000000
  2   -0.000007 0.000008 4.427393 -0.165164 -3.124678 -0.006499
  3   18.465939 0.000000 0.000000 0.000000 0.000000 -0.360996
  4   14.875443 0.000000 -0.000001 0.065727 -0.008529 0.334836
  5   0.000006 -0.000004 -4.427393 0.110808 3.118699 -0.292983
  6   18.465939 0.000000 0.000000 0.000000 0.000000 -0.206942
  7   14.875442 0.000000 0.000000 0.053001 -0.010110 -0.086773
  8   2.255207 -0.007574 0.000003 0.080495 -0.021070 0.051155
  9   9.514219 -0.009357 0.000000 -0.008708 0.001414 -0.018076
 10   11.751820 -0.001633 0.000000 0.000024 0.043599 0.527211
 11   -2.035463 1.030628 2.563789 0.013503 -1.245723 2.600252
 12   4.640941 0.000000 -0.000001 1.294023 0.502902 0.885623
 13   10.828049 0.000000 0.000000 0.000000 0.000000 -1.582034
 14   9.393337 -0.000001 0.000000 -1.893966 -0.439169 0.089271
 15   1.442245 0.107454 -1.746177 1.896585 0.451685 0.762087
 16   1.063452 0.000000 0.000001 0.000000 0.000000 0.199056
 17   1.376307 -0.000001 0.000001 0.000000 0.000000 0.199049
 18   4.172846 -0.251366 -1.312744 0.008050 0.095731 0.148659
 19   1.215374 0.000002 0.000000 0.000000 0.000000 0.645758
 20   1.215371 -0.000002 0.000001 0.000000 0.000000 0.645758
 21   4.220534 -0.244854 -0.431465 0.001333 0.026242 0.148339
 22   1.350417 0.000000 0.000001 0.000000 0.000000 0.863926
 23   1.350410 -0.000001 -0.000001 0.000000 0.000000 0.863926
 24   -1.804987 1.030641 -2.727853 -0.206532 1.333801 2.414037
 25   4.640942 0.000000 0.000001 -1.092783 -0.780713 0.829465
 26   10.828047 0.000000 0.000001 0.000000 0.000000 -1.092771
 27   9.393339 0.000000 0.000000 2.104191 -0.112012 0.374772
 28   1.442245 0.107455 1.746178 -1.517938 -0.789969 0.093503
 29   1.063450 -0.000001 0.000000 0.000000 0.000000 0.199056
 30   1.376307 0.000000 0.000000 0.000000 0.000000 0.199059
 31   4.172847 -0.251365 1.312745 0.023637 -0.093119 -0.184379
 32   1.215373 -0.000001 0.000000 0.000000 0.000000 0.314156
 33   1.215372 0.000000 0.000000 0.000000 0.000000 0.314156
 34   4.220534 -0.244853 0.431466 0.007272 -0.025247 -0.183331
 35   1.350416 0.000000 -0.000001 0.000000 0.000000 0.532306
 36   1.350410 0.000000 0.000001 0.000000 0.000000 0.532305
 37   2.110540 -0.000001 0.000000 0.038916 -0.037263 0.123065
 38   0.891923 2.373051 -0.014527 -3.141592 -0.000001 1.413797
 39   7.228122 5.709445 3.726568 3.140796 -1.570796 0.000000
 40   2.450426 5.076128 0.001325 3.140791 -1.570796 0.000000
 41   6.312404 -4.528058 0.001311 3.140791 -1.570796 0.000000
 42   2.233309 1.152535 -7.309138 -1.182416 -1.542720 -0.746009
 43   4.262825 -0.232720 -1.392178 -0.015854 0.076872 -0.166364
time 21
  0   1.079873 6.792152 38.737457 0.000000 0.000000 -1.655215
  1   -0.620785 -0.207038 0.000000 -0.000030 -1.562561 -1.570772
  2   -0.000007 0.000008 4.427393 -0.165736 -3.137609 0.009660
  3   18.465939 0.000000 0.000000 0.000000 0.000000 -0.330948
  4   14.875443 0.000000 -0.000001 0.060291 -0.006508 0.321484
  5   0.000006 -0.000004 -4.427393 0.108225 3.109751 -0.295416
  6   18.465939 0.000000 0.000000 0.000000 0.000000 -0.216131
  7   14.875442 0.000000 0.000000 0.047000 -0.009292 -0.080095
  8   2.255207 -0.007574 0.015628 0.084423 -0.029028 0.045729
  9   9.514219 -0.009357 0.000000 -0.008708 0.001510 -0.026108
 10   11.751820 -0.001633 0.000000 0.000024 0.043599 0.515159
 11   -2.047182 1.007190 2.563789 0.157603 -1.272918 2.472674
 12   4.640941 0.000000 -0.000001 1.244756 0.604842 0.917175
 13   10.828049 0.000000 0.000000 0.000000 0.000000 -1.405953
 14   9.393337 -0.000001 0.000000 -1.885244 -0.338523 0.053421
 15   1.442245 0.107454 -1.746177 1.859444 0.475274 0.679026
 16   1.063452 0.000000 0.000001 0.000000 0.000000 0.199056
 17   1.376307 -0.000001 0.000001 0.000000 0.000000 0.199049
 18   4.172846 -0.251366 -1.312744 0.008050 0.095731 0.148659
 19   1.215374 0.000002 0.000000 0.000000 0.000000 0.645758
 20   1.215371 -0.000002 0.000001 0.000000 0.000000 0.645758
 21   4.220534 -0.244854 -0.431465 0.001333 0.026242 0.148339
 22   1.350417 0.000000 0.000001 0.000000 0.000000 0.863926
 23   1.350410 -0.000001 -0.000001 0.000000 0.000000 0.863926
 24   -1.816706 1.007203 -2.727853 -0.371201 1.355170 2.264816
 25   4.640942 0.000000 0.000001 -1.068704 -0.849058 0.852213
 26   10.828047 0.000000 0.000001 0.000000 0.000000 -1.006055
 27   9.393339 0.000000 0.000000 2.075343 -0.050231 0.313571
 28   1.442245 0.107455 1.746178 -1.556759 -0.747440 0.143143
 29   1.063450 -0.000001 0.000000 0.000000 0.000000 0.199056
 30   1.376307 0.000000 0.000000 0.000000 0.000000 0.199059
 31   4.172847 -0.251365 1.312745 0.018040 -0.094365 -0.124632
 32   1.215373 -0.000001 0.000000 0.000000 0.000000 0.373625
 33   1.215372 0.000000 0.000000 0.000000 0.000000 0.373625
 34   4.220534 -0.244853 0.431466 0.005762 -0.025631 -0.123835
 35   1.350416 0.000000 -0.000001 0.000000 0.000000 0.591817
 36   1.350410 0.000000 0.000001 0.000000 0.000000 0.591797
 37   2.110540 -0.000001 0.000000 0.034957 -0.034078 0.132182
 38   0.891923 2.373051 -0.014527 -3.141592 -0.000001 1.413797
 39   7.228122 5.709445 3.726568 3.140796 -1.570796 0.000000
 40   2.450426 5.076128 0.001325 3.140791 -1.570796 0.000000
 41   6.312404 -4.528058 0.001311 3.140791 -1.570796 0.000000
 42   2.233309 1.152535 -7.309138 -1.185964 -1.554107 -0.748020
 43   4.262825 -0.232720 -1.392178 -0.010030 0.077855 -0.090984
time 22
  0   1.120440 6.792152 38.760899 0.000000 0.000000 -1.660104
  1   -0.527033 -0.199225 0.000000 -0.000030 -1.557775 -1.570772
  2   -0.000007 0.000008 4.427393 -0.166023 -3.146634 0.022677
  3   18.465939 0.000000 0.000000 0.000000 0.000000 -0.308212
  4   14.875443 0.000000 -0.000001 0.055822 -0.004613 0.312240
  5   0.000006 -0.000004 -4.427393 0.106694 3.103972 -0.296539
  6   18.465939 0.000000 0.000000 0.000000 0.000000 -0.222891
  7   14.875442 0.000000 0.000000 0.041946 -0.008265 -0.074542
  8   2.255207 -0.007574 0.027348 0.088665 -0.033498 0.040203
  9   9.514219 -0.009357 0.000000 -0.008708 0.001606 -0.034313
 10   11.751820 -0.001633 0.000000 0.000024 0.043599 0.503509
 11   -2.058901 0.983752 2.563789 0.368024 -1.302022 2.277287
 12   4.640941 0.000000 -0.000001 1.191264 0.730201 0.954405
 13   10.828049 0.000000 0.000000 0.000000 0.000000 -1.189909
 14   9.393337 -0.000001 0.000000 -1.883935 -0.221258 0.013859
 15   1.442245 0.107454 -1.746177 1.813280 0.498974 0.580489
 16   1.063452 0.000000 0.000001 0.000000 0.000000 0.199056
 17   1.376307 -0.000001 0.000001 0.000000 0.000000 0.199049
 18   4.172846 -0.251366 -1.312744 0.008050 0.095731 0.148659
 19   1.215374 0.000002 0.000000 0.000000 0.000000 0.645758
 20   1.215371 -0.000002 0.000001 0.000000 0.000000 0.645758
 21   4.220534 -0.244854 -0.431465 0.001333 0.026242 0.148339
 22   1.350417 0.000000 0.000001 0.000000 0.000000 0.863926
 23   1.350410 -0.000001 -0.000001 0.000000 0.000000 0.863926
 24   -1.828425 0.983765 -2.731760 -0.624284 1.370454 2.026641
 25   4.640942 0.000000 0.000001 -1.042361 -0.926468 0.888469
 26   10.828047 0.000000 0.000001 0.000000 0.000000 -0.912369
 27   9.393339 0.000000 0.000000 2.037249 0.027393 0.233942
 28   1.442245 0.107455 1.746178 -1.599671 -0.691710 0.200354
 29   1.063450 -0.000001 0.000000 0.000000 0.000000 0.199056
 30   1.376307 0.000000 0.000000 0.000000 0.000000 0.199059
 31   4.172847 -0.251365 1.312745 0.010862 -0.095456 -0.048896
 32   1.215373 -0.000001 0.000000 0.000000 0.000000 0.449042
 33   1.215372 0.000000 0.000000 0.000000 0.000000 0.449042
 34   4.220534 -0.244853 0.431466 0.003809 -0.025990 -0.048405
 35   1.350416 0.000000 -0.000001 0.000000 0.000000 0.667233
 36   1.350410 0.000000 0.000001 0.000000 0.000000 0.667224
 37   2.110540 -0.000001 0.000000 0.030951 -0.030894 0.139278
 38   0.891923 2.373051 -0.014527 -3.141592 -0.000001 1.413797
 39   7.228122 5.709445 3.726568 3.140796 -1.570796 0.000000
 40   2.450426 5.076128 0.001325 3.140791 -1.570796 0.000000
 41   6.312404 -4.528058 0.001311 3.140791 -1.570796 0.000000
 42   2.233309 1.152535 -7.309138 -1.195263 -1.561505 -0.743616
 43   4.262825 -0.232720 -1.392178 -0.002563 0.078454 0.004574
time 23
  0   1.181289 6.792152 38.772617 0.000000 0.000000 -1.664227
  1   -0.433280 -0.191412 0.000000 -0.000030 -1.555835 -1.570772
  2   -0.000007 0.000008 4.427393 -0.166309 -3.152122 0.032352
  3   18.465939 0.000000 0.000000 0.000000 0.000000 -0.293079
  4   14.875443 0.000000 -0.000001 0.052037 -0.002783 0.307223
  5   0.000006 -0.000004 -4.427393 0.105928 3.100803 -0.297101
  6   18.465939 0.000000 0.000000 0.000000 0.000000 -0.228536
  7   14.875442 0.000000 0.000000 0.037559 -0.007029 -0.069515
  8   2.255207 -0.007574 0.031254 0.093117 -0.035104 0.034612
  9   9.514219 -0.009357 0.000000 -0.008721 0.001714 -0.042604
 10   11.751820 -0.001633 0.000000 0.000024 0.043599 0.492504
 11   -2.070620 0.964220 2.563789 0.620938 -1.320422 2.036283
 12   4.640941 0.000000 -0.000001 1.134923 0.857351 0.989411
 13   10.828049 0.000000 0.000000 0.000000 0.000000 -0.965139
 14   9.393337 -0.000001 0.000000 -1.884995 -0.103873 -0.024531
 15   1.442245 0.107454 -1.746177 1.763927 0.518562 0.479242
 16   1.063452 0.000000 0.000001 0.000000 0.000000 0.199056
 17   1.376307 -0.000001 0.000001 0.000000 0.000000 0.199049
 18   4.172846 -0.251366 -1.312744 0.008050 0.095731 0.148659
 19   1.215374 0.000002 0.000000 0.000000 0.000000 0.645758
 20   1.215371 -0.000002 0.000001 0.000000 0.000000 0.645758
 21   4.220534 -0.244854 -0.431465 0.001333 0.026242 0.148339
 22   1.350417 0.000000 0.000001 0.000000 0.000000 0.863926
 23   1.350410 -0.000001 -0.000001 0.000000 0.000000 0.863926
 24   -1.840144 0.964233 -2.731760 -0.905507 1.371763 1.758126
 25   4.640942 0.000000 0.000001 -1.015349 -1.002554 0.927526
 26   10.828047 0.000000 0.000001 0.000000 0.000000 -0.815837
 27   9.393339 0.000000 0.000000 1.987696 0.103130 0.146844
 28   1.442245 0.107455 1.746178 -1.638401 -0.631653 0.254269
 29   1.063450 -0.000001 0.000000 0.000000 0.000000 0.199056
 30   1.376307 0.000000 0.000000 0.000000 0.000000 0.199059
 31   4.172847 -0.251365 1.312745 0.003287 -0.096007 0.030287
 32   1.215373 -0.000001 0.000000 0.000000 0.000000 0.527900
 33   1.215372 0.000000 0.000000 0.000000 0.000000 0.527900
 34   4.220534 -0.244853 0.431466 0.001747 -0.026218 0.030469
 35   1.350416 0.000000 -0.000001 0.000000 0.000000 0.746049
 36   1.350410 0.000000 0.000001 0.000000 0.000000 0.746038
 37   2.110540 -0.000001 0.000000 0.026850 -0.027738 0.143965
 38   0.891923 2.373051 -0.014527 -3.141592 -0.000001 1.413797
 39   7.228122 5.709445 3.726568 3.140796 -1.570796 0.000000
 40   2.450426 5.076128 0.001325 3.140791 -1.570796 0.000000
 41   6.312404 -4.528058 0.001311 3.140791 -1.570796 0.000000
 42   2.233309 1.152535 -7.309138 -1.219231 -1.565874 -0.724372
 43   4.262825 -0.232720 -1.392178 0.005251 0.078322 0.104431
time 24
  0   1.221856 6.792152 38.772617 0.000000 0.000000 -1.667966
  1   -0.339527 -0.183599 0.000000 -0.000030 -1.556151 -1.570772
  2   -0.000007 0.000008 4.427393 -0.166596 -3.154820 0.038736
  3   18.465939 0.000000 0.000000 0.000000 0.000000 -0.285549
  4   14.875443 0.000000 -0.000001 0.048678 -0.000931 0.306433
  5   0.000006 -0.000004 -4.427393 0.105833 3.099684 -0.297381
  6   18.465939 0.000000 0.000000 0.000000 0.000000 -0.233984
  7   14.875442 0.000000 0.000000 0.033558 -0.005641 -0.064525
  8   2.255207 -0.007574 0.031254 0.097654 -0.034445 0.028987
  9   9.514219 -0.009357 0.000000 -0.008734 0.001810 -0.050895
 10   11.751820 -0.001633 0.000000 0.000024 0.043599 0.482412
 11   -2.078433 0.944688 2.563789 0.853820 -1.324891 1.812111
 12   4.640941 0.000000 -0.000001 1.075930 0.967212 1.011480
 13   10.828049 0.000000 0.000000 0.000000 0.000000 -0.763006
 14   9.393337 -0.000001 0.000000 -1.881007 -0.002413 -0.055838
 15   1.442245 0.107454 -1.746177 1.718877 0.531957 0.389449
 16   1.063452 0.000000 0.000001 0.000000 0.000000 0.199056
 17   1.376307 -0.000001 0.000001 0.000000 0.000000 0.199049
 18   4.172846 -0.251366 -1.312744 0.008050 0.095731 0.148659
 19   1.215374 0.000002 0.000000 0.000000 0.000000 0.645758
 20   1.215371 -0.000002 0.000001 0.000000 0.000000 0.645758
 21   4.220534 -0.244854 -0.431465 0.001333 0.026242 0.148339
 22   1.350417 0.000000 0.000001 0.000000 0.000000 0.863926
 23   1.350410 -0.000001 -0.000001 0.000000 0.000000 0.863926
 24   -1.847957 0.944701 -2.731760 -1.133172 1.363082 1.540589
 25   4.640942 0.000000 0.000001 -0.985764 -1.068666 0.954823
 26   10.828047 0.000000 0.000001 0.000000 0.000000 -0.720583
 27   9.393339 0.000000 0.000000 1.928795 0.160128 0.064693
 28   1.442245 0.107455 1.746178 -1.668131 -0.577270 0.297782
 29   1.063450 -0.000001 0.000000 0.000000 0.000000 0.199056
 30   1.376307 0.000000 0.000000 0.000000 0.000000 0.199059
 31   4.172847 -0.251365 1.312745 -0.003412 -0.096007 0.100292
 32   1.215373 -0.000001 0.000000 0.000000 0.000000 0.597608
 33   1.215372 0.000000 0.000000 0.000000 0.000000 0.597608
 34   4.220534 -0.244853 0.431466 -0.000062 -0.026266 0.100174
 35   1.350416 0.000000 -0.000001 0.000000 0.000000 0.815800
 36   1.350410 0.000000 0.000001 0.000000 0.000000 0.815787
 37   2.110540 -0.000001 0.000000 0.022748 -0.024665 0.146115
 38   0.891923 2.373051 -0.014527 -3.141592 -0.000001 1.413797
 39   7.228122 5.709445 3.726568 3.140796 -1.570796 0.000000
 40   2.450426 5.076128 0.001325 3.140791 -1.570796 0.000000
 41   6.312404 -4.528058 0.001311 3.140791 -1.570796 0.000000
 42   2.233309 1.152535 -7.309138 -1.269469 -1.568233 -0.679182
 43   4.262825 -0.232720 -1.392178 0.012142 0.077555 0.192786
time 25
  0   1.282705 6.792152 38.764805 0.000000 0.000000 -1.671610
  1   -0.245774 -0.171880 0.000000 -0.000030 -1.558077 -1.570772
  2   -0.000007 0.000008 4.427393 -0.166977 -3.155472 0.042177
  3   18.465939 0.000000 0.000000 0.000000 0.000000 -0.284818
  4   14.875443 0.000000 -0.000001 0.045490 0.001006 0.309475
  5   0.000006 -0.000004 -4.427393 0.106215 3.099964 -0.298130
  6   18.465939 0.000000 0.000000 0.000000 0.000000 -0.240285
  7   14.875442 0.000000 0.000000 0.029697 -0.004157 -0.059160
  8   2.255207 -0.007574 0.027348 0.102148 -0.032132 0.023461
  9   9.514219 -0.009357 0.000000 -0.008734 0.001906 -0.059100
 10   11.751820 -0.001633 0.000000 0.000024 0.043599 0.473446
 11   -2.086246 0.925156 2.563789 1.000424 -1.324239 1.672441
 12   4.640941 0.000000 -0.000001 1.014873 1.043460 1.008377
 13   10.828049 0.000000 0.000000 0.000000 0.000000 -0.614563
 14   9.393337 -0.000001 0.000000 -1.862877 0.067288 -0.073080
 15   1.442245 0.107454 -1.746177 1.686435 0.539209 0.325885
 16   1.063452 0.000000 0.000001 0.000000 0.000000 0.199056
 17   1.376307 -0.000001 0.000001 0.000000 0.000000 0.199049
 18   4.172846 -0.251366 -1.312744 0.008050 0.095731 0.148659
 19   1.215374 0.000002 0.000000 0.000000 0.000000 0.645758
 20   1.215371 -0.000002 0.000001 0.000000 0.000000 0.645758
 21   4.220534 -0.244854 -0.431465 0.001333 0.026242 0.148339
 22   1.350417 0.000000 0.000001 0.000000 0.000000 0.863926
 23   1.350410 -0.000001 -0.000001 0.000000 0.000000 0.863926
 24   -1.855770 0.925169 -2.731760 -1.265443 1.357724 1.416135
 25   4.640942 0.000000 0.000001 -0.947896 -1.118181 0.951394
 26   10.828047 0.000000 0.000001 0.000000 0.000000 -0.630673
 27   9.393339 0.000000 0.000000 1.867381 0.183910 0.003347
 28   1.442245 0.107455 1.746178 -1.686405 -0.539236 0.325898
 29   1.063450 -0.000001 0.000000 0.000000 0.000000 0.199056
 30   1.376307 0.000000 0.000000 0.000000 0.000000 0.199059
 31   4.172847 -0.251365 1.312745 -0.008050 -0.095731 0.148659
 32   1.215373 -0.000001 0.000000 0.000000 0.000000 0.645746
 33   1.215372 0.000000 0.000000 0.000000 0.000000 0.645746
 34   4.220534 -0.244853 0.431466 -0.001333 -0.026242 0.148339
 35   1.350416 0.000000 -0.000001 0.000000 0.000000 0.863937
 36   1.350410 0.000000 0.000001 0.000000 0.000000 0.863925
 37   2.110540 -0.000001 0.000000 0.018647 -0.021760 0.145341
 38   0.891923 2.373051 -0.014527 -3.141592 -0.000001 1.413797
 39   7.228122 5.709445 3.726568 3.140796 -1.570796 0.000000
 40   2.450426 5.076128 0.001325 3.140791 -1.570796 0.000000
 41   6.312404 -4.528058 0.001311 3.140791 -1.570796 0.000000
 42   2.233309 1.152535 -7.309138 -1.355946 -1.569515 -0.598377
 43   4.262825 -0.232720 -1.392178 0.016840 0.076668 0.253759
time 26
  0   1.343555 6.792152 38.745270 0.000000 0.000000 -1.675349
  1   -0.159834 -0.164068 0.000000 -0.000030 -1.561038 -1.570772
  2   -0.000007 0.000008 4.427393 -0.167455 -3.154914 0.043125
  3   18.465939 0.000000 0.000000 0.000000 0.000000 -0.289643
  4   14.875443 0.000000 -0.000001 0.042160 0.003070 0.315637
  5   0.000006 -0.000004 -4.427393 0.106790 3.100990 -0.299721
  6   18.465939 0.000000 0.000000 0.000000 0.000000 -0.248096
  7   14.875442 0.000000 0.000000 0.025697 -0.002617 -0.053007
  8   2.255207 -0.007574 0.019535 0.106580 -0.028788 0.018035
  9   9.514219 -0.009357 0.000000 -0.008748 0.002001 -0.067153
 10   11.751820 -0.001633 0.000000 0.000024 0.043599 0.465716
 11   -2.094058 0.909531 2.563789 1.042311 -1.330505 1.636992
 12   4.640941 0.000000 -0.000001 0.954750 1.081688 0.974542
 13   10.828049 0.000000 0.000000 0.000000 0.000000 -0.533051
 14   9.393337 -0.000001 0.000000 -1.823376 0.096816 -0.071761
 15   1.442245 0.107454 -1.746177 1.671442 0.541930 0.296761
 16   1.063452 0.000000 0.000001 0.000000 0.000000 0.199056
 17   1.376307 -0.000001 0.000001 0.000000 0.000000 0.199049
 18   4.172846 -0.251366 -1.312744 0.008050 0.095731 0.148659
 19   1.215374 0.000002 0.000000 0.000000 0.000000 0.645758
 20   1.215371 -0.000002 0.000001 0.000000 0.000000 0.645758
 21   4.220534 -0.244854 -0.431465 0.001333 0.026242 0.148339
 22   1.350417 0.000000 0.000001 0.000000 0.000000 0.863926
 23   1.350410 -0.000001 -0.000001 0.000000 0.000000 0.863926
 24   -1.863582 0.909544 -2.731760 -1.306314 1.366197 1.381530
 25   4.640942 0.000000 0.000001 -0.895570 -1.148727 0.904288
 26   10.828047 0.000000 0.000001 0.000000 0.000000 -0.547210
 27   9.393339 0.000000 0.000000 1.807576 0.169465 -0.027593
 28   1.442245 0.107455 1.746178 -1.693951 -0.522326 0.337793
 29   1.063450 -0.000001 0.000000 0.000000 0.000000 0.199056
 30   1.376307 0.000000 0.000000 0.000000 0.000000 0.199059
 31   4.172847 -0.251365 1.312745 -0.010076 -0.095540 0.169977
 32   1.215373 -0.000001 0.000000 0.000000 0.000000 0.666982
 33   1.215372 0.000000 0.000000 0.000000 0.000000 0.666982
 34   4.220534 -0.244853 0.431466 -0.001884 -0.026206 0.169558
 35   1.350416 0.000000 -0.000001 0.000000 0.000000 0.885131
 36   1.350410 0.000000 0.000001 0.000000 0.000000 0.885155
 37   2.110540 -0.000001 0.000000 0.014975 -0.018743 0.122678
 38   0.891923 2.373051 -0.014527 -3.141592 -0.000001 1.413797
 39   7.228122 5.709445 3.726568 3.140796 -1.570796 0.000000
 40   2.450426 5.076128 0.001325 3.140791 -1.570796 0.000000
 41   6.312404 -4.528058 0.001311 3.140791 -1.570796 0.000000
 42   2.233309 1.152535 -7.309138 -1.961093 -1.570796 0.000000
 43   4.262825 -0.232720 -1.392178 0.018889 0.076189 0.280623
time 27
  0   1.404404 6.792152 38.721832 0.000000 0.000000 -1.679471
  1   -0.069987 -0.156255 0.000000 -0.000030 -1.564401 -1.570772
  2   -0.000007 0.000008 4.427393 -0.167932 -3.153797 0.042227
  3   18.465939 0.000000 0.000000 0.000000 0.000000 -0.298635
  4   14.875443 0.000000 -0.000001 0.038489 0.005326 0.324052
  5   0.000006 -0.000004 -4.427393 0.107459 3.102294 -0.302529
  6   18.465939 0.000000 0.000000 0.000000 0.000000 -0.258401
  7   14.875442 0.000000 0.000000 0.021309 -0.001038 -0.045766
  8   2.255207 -0.007574 0.011722 0.110822 -0.025025 0.012774
  9   9.514219 -0.009357 0.000000 -0.008761 0.002097 -0.074925
 10   11.751820 -0.001633 0.000000 0.000024 0.043599 0.458898
 11   -2.101871 0.897812 2.563789 1.009985 -1.345359 1.675602
 12   4.640941 0.000000 -0.000001 0.897967 1.094981 0.919868
 13   10.828049 0.000000 0.000000 0.000000 0.000000 -0.497603
 14   9.393337 -0.000001 0.000000 -1.766554 0.096001 -0.057304
 15   1.442245 0.107454 -1.746177 1.669549 0.542237 0.293108
 16   1.063452 0.000000 0.000001 0.000000 0.000000 0.199056
 17   1.376307 -0.000001 0.000001 0.000000 0.000000 0.199049
 18   4.172846 -0.251366 -1.312744 0.008050 0.095731 0.148659
 19   1.215374 0.000002 0.000000 0.000000 0.000000 0.645758
 20   1.215371 -0.000002 0.000001 0.000000 0.000000 0.645758
 21   4.220534 -0.244854 -0.431465 0.001333 0.026242 0.148339
 22   1.350417 0.000000 0.000001 0.000000 0.000000 0.863926
 23   1.350410 -0.000001 -0.000001 0.000000 0.000000 0.863926
 24   -1.871395 0.897825 -2.731760 -1.283354 1.386507 1.409806
 25   4.640942 0.000000 0.000001 -0.830072 -1.165743 0.822815
 26   10.828047 0.000000 0.000001 0.000000 0.000000 -0.467405
 27   9.393339 0.000000 0.000000 1.748273 0.128604 -0.034964
 28   1.442245 0.107455 1.746178 -1.694860 -0.520191 0.339287
 29   1.063450 -0.000001 0.000000 0.000000 0.000000 0.199056
 30   1.376307 0.000000 0.000000 0.000000 0.000000 0.199059
 31   4.172847 -0.251365 1.312745 -0.010339 -0.095516 0.172662
 32   1.215373 -0.000001 0.000000 0.000000 0.000000 0.669626
 33   1.215372 0.000000 0.000000 0.000000 0.000000 0.669626
 34   4.220534 -0.244853 0.431466 -0.001956 -0.026206 0.172201
 35   1.350416 0.000000 -0.000001 0.000000 0.000000 0.887775
 36   1.350410 0.000000 0.000001 0.000000 0.000000 0.887779
 37   2.110540 -0.000001 0.000000 0.011780 -0.015810 0.068062
 38   0.891923 2.373051 -0.014527 -3.141592 -0.000001 1.413797
 39   7.228122 5.709445 3.726568 3.140796 -1.570796 0.000000
 40   2.450426 5.076128 0.001325 3.140791 -1.570796 0.000000
 41   6.312404 -4.528058 0.001311 3.140791 -1.570796 0.000000
 42   2.233309 1.152535 -7.309138 -1.132275 -1.564796 -0.840984
 43   4.262825 -0.232720 -1.392178 0.019141 0.076129 0.284006
time 28
  0   1.465254 6.792152 38.686676 0.000000 0.000000 -1.684265
  1   0.012046 -0.144536 0.000000 0.000018 -1.567534 -1.570772
  2   -0.000007 0.000008 4.427393 -0.168505 -3.152867 0.040232
  3   18.465939 0.000000 0.000000 0.000000 0.000000 -0.310040
  4   14.875443 0.000000 -0.000001 0.034162 0.007838 0.333888
  5   0.000006 -0.000004 -4.427393 0.108033 3.103320 -0.306927
  6   18.465939 0.000000 0.000000 0.000000 0.000000 -0.271659
  7   14.875442 0.000000 0.000000 0.016221 0.000502 -0.037174
  8   2.255207 -0.007574 0.003909 0.114854 -0.021453 0.007777
  9   9.514219 -0.009357 0.000000 -0.008761 0.002193 -0.082372
 10   11.751820 -0.001633 0.000000 0.000024 0.043599 0.452590
 11   -2.105777 0.886093 2.563789 0.922797 -1.364077 1.768829
 12   4.640941 0.000000 -0.000001 0.845605 1.093879 0.855535
 13   10.828049 0.000000 0.000000 0.000000 0.000000 -0.488573
 14   9.393337 -0.000001 0.000000 -1.700387 0.076668 -0.036839
 15   1.442245 0.107454 -1.746177 1.675193 0.541277 0.304047
 16   1.063452 0.000000 0.000001 0.000000 0.000000 0.199056
 17   1.376307 -0.000001 0.000001 0.000000 0.000000 0.199049
 18   4.172846 -0.251366 -1.312744 0.008050 0.095731 0.148659
 19   1.215374 0.000002 0.000000 0.000000 0.000000 0.645758
 20   1.215371 -0.000002 0.000001 0.000000 0.000000 0.645758
 21   4.220534 -0.244854 -0.431465 0.001333 0.026242 0.148339
 22   1.350417 0.000000 0.000001 0.000000 0.000000 0.863926
 23   1.350410 -0.000001 -0.000001 0.000000 0.000000 0.863926
 24   -1.875302 0.882199 -2.731760 -1.205739 1.413089 1.492087
 25   4.640942 0.000000 0.000001 -0.757268 -1.173763 0.721325
 26   10.828047 0.000000 0.000001 0.000000 0.000000 -0.389692
 27   9.393339 0.000000 0.000000 1.689121 0.073655 -0.026526
 28   1.442245 0.107455 1.746178 -1.692042 -0.526539 0.334858
 29   1.063450 -0.000001 0.000000 0.000000 0.000000 0.199056
 30   1.376307 0.000000 0.000000 0.000000 0.000000 0.199059
 31   4.172847 -0.251365 1.312745 -0.009572 -0.095588 0.164648
 32   1.215373 -0.000001 0.000000 0.000000 0.000000 0.661652
 33   1.215372 0.000000 0.000000 0.000000 0.000000 0.661652
 34   4.220534 -0.244853 0.431466 -0.001752 -0.026218 0.164273
 35   1.350416 0.000000 -0.000001 0.000000 0.000000 0.879843
 36   1.350410 0.000000 0.000001 0.000000 0.000000 0.879812
 37   2.110540 -0.000001 0.000000 0.008680 -0.013296 -0.005088
 38   0.891923 2.373051 -0.014527 -3.141592 -0.000001 1.413797
 39   7.228122 5.709445 3.726568 3.140796 -1.570796 0.000000
 40   2.450426 5.076128 0.001325 3.140791 -1.570796 0.000000
 41   6.312404 -4.528058 0.001311 3.140791 -1.570796 0.000000
 42   2.233309 1.152535 -7.309138 -1.138986 -1.555738 -0.850270
 43   4.262825 -0.232720 -1.392178 0.018374 0.076309 0.273897
time 29
  0   1.586953 6.792152 38.538235 0.000000 0.000000 -1.692127
  1   0.090174 -0.136723 0.000000 -1.570795 -1.569833 0.000000
  2   -0.000007 0.000008 4.427393 -0.169555 -3.152030 0.022577
  3   18.465939 0.000000 0.000000 0.000000 0.000000 -0.358510
  4   14.875443 0.000000 -0.000001 0.027075 0.012073 0.365135
  5   0.000006 -0.000004 -4.427393 0.107459 3.100617 -0.331634
  6   18.465939 0.000000 0.000000 0.000000 0.000000 -0.327385
  7   14.875442 0.000000 0.000000 0.007973 0.002651 -0.006523
  8   2.255207 -0.007574 0.000003 0.118634 -0.018709 0.003046
  9   9.514219 -0.009357 0.000000 -0.008774 0.002277 -0.089386
 10   11.751820 -0.001633 0.000000 0.000024 0.043599 0.446417
 11   -2.113590 0.870467 2.563789 0.804801 -1.381587 1.892766
 12   4.640941 0.000000 -0.000001 0.794864 1.088714 0.789446
 13   10.828049 0.000000 0.000000 0.000000 0.000000 -0.486071
 14   9.393337 -0.000001 0.000000 -1.632476 0.051514 -0.016374
 15   1.442245 0.107454 -1.746177 1.682696 0.539923 0.318619
 16   1.063452 0.000000 0.000001 0.000000 0.000000 0.199056
 17   1.376307 -0.000001 0.000001 0.000000 0.000000 0.199049
 18   4.172846 -0.251366 -1.312744 0.008050 0.095731 0.148659
 19   1.215374 0.000002 0.000000 0.000000 0.000000 0.645758
 20   1.215371 -0.000002 0.000001 0.000000 0.000000 0.645758
 21   4.220534 -0.244854 -0.431465 0.001333 0.026242 0.148339
 22   1.350417 0.000000 0.000001 0.000000 0.000000 0.863926
 23   1.350410 -0.000001 -0.000001 0.000000 0.000000 0.863926
 24   -1.879208 0.870480 -2.731760 -1.081327 1.439650 1.620807
 25   4.640942 0.000000 0.000001 -0.681326 -1.177948 0.613184
 26   10.828047 0.000000 0.000001 0.000000 0.000000 -0.312502
 27   9.393339 0.000000 0.000000 1.629467 0.016006 -0.011396
 28   1.442245 0.107455 1.746178 -1.688314 -0.535023 0.328885
 29   1.063450 -0.000001 0.000000 0.000000 0.000000 0.199056
 30   1.376307 0.000000 0.000000 0.000000 0.000000 0.199059
 31   4.172847 -0.251365 1.312745 -0.008553 -0.095683 0.153989
 32   1.215373 -0.000001 0.000000 0.000000 0.000000 0.651076
 33   1.215372 0.000000 0.000000 0.000000 0.000000 0.651076
 34   4.220534 -0.244853 0.431466 -0.001465 -0.026230 0.153623
 35   1.350416 0.000000 -0.000001 0.000000 0.000000 0.869225
 36   1.350410 0.000000 0.000001 0.000000 0.000000 0.869221
 37   2.110540 -0.000001 0.000000 0.005580 -0.011536 -0.083442
 38   0.891923 2.373051 -0.014527 -3.141592 -0.000001 1.413797
 39   7.228122 5.709445 3.726568 3.140796 -1.570796 0.000000
 40   2.450426 5.076128 0.001325 3.140791 -1.570796 0.000000
 41   6.312404 -4.528058 0.001311 3.140791 -1.570796 0.000000
 42   2.233309 1.152535 -7.309138 -1.142150 -1.553787 -0.863866
 43   4.262825 -0.232720 -1.392178 0.017343 0.076548 0.260485
time 30
  0   1.708652 6.792152 38.319477 0.000000 0.000000 -1.701715
  1   0.164395 -0.125004 0.000000 -1.570795 -1.570451 0.000000
  2   -0.000007 0.000008 4.427393 -0.170796 -3.152774 -0.000514
  3   18.465939 0.000000 0.000000 0.000000 0.000000 -0.419920
  4   14.875443 0.000000 -0.000001 0.018480 0.017458 0.404007
  5   0.000006 -0.000004 -4.427393 0.105928 3.095490 -0.363922
  6   18.465939 0.000000 0.000000 0.000000 0.000000 -0.397944
  7   14.875442 0.000000 0.000000 -0.002065 0.005218 0.031295
  8   2.255207 -0.007574 0.000003 0.122100 -0.017403 -0.001322
  9   9.514219 -0.009357 0.000000 -0.008787 0.002361 -0.095902
 10   11.751820 -0.001633 0.000000 0.000024 0.043599 0.439975
 11   -2.117496 0.858748 2.563789 0.697276 -1.395375 2.006330
 12   4.640941 0.000000 -0.000001 0.738474 1.089884 0.724820
 13   10.828049 0.000000 0.000000 0.000000 0.000000 -0.470452
 14   9.393337 -0.000001 0.000000 -1.569611 0.034172 0.000037
 15   1.442245 0.107454 -1.746177 1.686435 0.539209 0.325885
 16   1.063452 0.000000 0.000001 0.000000 0.000000 0.199056
 17   1.376307 -0.000001 0.000001 0.000000 0.000000 0.199049
 18   4.172846 -0.251366 -1.312744 0.008050 0.095731 0.148659
 19   1.215374 0.000002 0.000000 0.000000 0.000000 0.645758
 20   1.215371 -0.000002 0.000001 0.000000 0.000000 0.645758
 21   4.220534 -0.244854 -0.431465 0.001333 0.026242 0.148339
 22   1.350417 0.000000 0.000001 0.000000 0.000000 0.863926
 23   1.350410 -0.000001 -0.000001 0.000000 0.000000 0.863926
 24   -1.887021 0.858761 -2.731760 -0.942471 1.461434 1.764317
 25   4.640942 0.000000 0.000001 -0.601473 -1.183875 0.506934
 26   10.828047 0.000000 0.000001 0.000000 0.000000 -0.234266
 27   9.393339 0.000000 0.000000 1.569611 -0.034192 0.000001
 28   1.442245 0.107455 1.746178 -1.686405 -0.539236 0.325898
 29   1.063450 -0.000001 0.000000 0.000000 0.000000 0.199056
 30   1.376307 0.000000 0.000000 0.000000 0.000000 0.199059
 31   4.172847 -0.251365 1.312745 -0.008050 -0.095731 0.148659
 32   1.215373 -0.000001 0.000000 0.000000 0.000000 0.645746
 33   1.215372 0.000000 0.000000 0.000000 0.000000 0.645746
 34   4.220534 -0.244853 0.431466 -0.001333 -0.026242 0.148339
 35   1.350416 0.000000 -0.000001 0.000000 0.000000 0.863937
 36   1.350410 0.000000 0.000001 0.000000 0.000000 0.863925
 37   2.110540 -0.000001 0.000000 0.002432 -0.010503 -0.153668
 38   0.891923 2.373051 -0.014527 -3.141592 -0.000001 1.413797
 39   7.228122 5.709445 3.726568 3.140796 -1.570796 0.000000
 40   2.450426 5.076128 0.001325 3.140791 -1.570796 0.000000
 41   6.312404 -4.528058 0.001311 3.140791 -1.570796 0.000000
 42   2.233309 1.152535 -7.309138 -1.145314 -1.553438 -0.878131
 43   4.262825 -0.232720 -1.392178 0.016840 0.076668 0.253759
end
