version 1
nodes
  0 "Bip01" -1
  1 "Bip01 Pelvis" 0
  2 "Bip01 L Thigh" 1
  3 "Bip01 L Calf" 2
  4 "Bip01 L Foot" 3
  5 "Bip01 R Thigh" 1
  6 "Bip01 R Calf" 5
  7 "Bip01 R Foot" 6
  8 "Bip01 Spine" 1
  9 "Bip01 Spine1" 8
 10 "Bip01 Neck" 9
 11 "Bip01 L Clavicle" 10
 12 "Bip01 L UpperArm" 11
 13 "Bip01 L Forearm" 12
 14 "Bip01 L Hand" 13
 15 "Bip01 L Finger0" 14
 16 "Bip01 L Finger01" 15
 17 "Bip01 L Finger02" 16
 18 "Bip01 L Finger1" 14
 19 "Bip01 L Finger11" 18
 20 "Bip01 L Finger12" 19
 21 "Bip01 L Finger2" 14
 22 "Bip01 L Finger21" 21
 23 "Bip01 L Finger22" 22
 24 "Bip01 R Clavicle" 10
 25 "Bip01 R UpperArm" 24
 26 "Bip01 R Forearm" 25
 27 "Bip01 R Hand" 26
 28 "Bip01 R Finger0" 27
 29 "Bip01 R Finger01" 28
 30 "Bip01 R Finger02" 29
 31 "Bip01 R Finger1" 27
 32 "Bip01 R Finger11" 31
 33 "Bip01 R Finger12" 32
 34 "Bip01 R Finger2" 27
 35 "Bip01 R Finger21" 34
 36 "Bip01 R Finger22" 35
 37 "Bip01 Head" 10
 38 "Bone05" 37
 39 "Bone08" 9
 40 "Bone16" 8
 41 "Bone01" 8
 42 "Bone03" 1
 43 "Bip01 R Finger4" 27
end
skeleton
time 0
  0   1.708652 6.792152 38.307758 0.000000 0.000000 -1.701715
  1   0.164395 -0.125004 0.000000 -1.570795 -1.570451 0.000000
  2   -0.000007 0.000008 4.427393 -0.170796 -3.152960 0.000882
  3   18.465939 0.000000 0.000000 0.000000 0.000000 -0.416557
  4   14.875443 0.000000 -0.000001 0.018451 0.017437 0.402071
  5   0.000006 -0.000004 -4.427393 0.106024 3.095677 -0.362237
  6   18.465939 0.000000 0.000000 0.000000 0.000000 -0.394334
  7   14.875442 0.000000 0.000000 -0.002065 0.005199 0.029344
  8   2.255207 -0.007574 0.000003 0.122100 -0.017403 -0.001322
  9   9.514219 -0.009357 0.000000 -0.008787 0.002361 -0.095902
 10   11.751820 -0.001633 0.000000 0.000024 0.043599 0.439975
 11   -2.117496 0.858748 2.563789 0.697276 -1.395375 2.006330
 12   4.640941 0.000000 -0.000001 0.738474 1.089884 0.724820
 13   10.828049 0.000000 0.000000 0.000000 0.000000 -0.470452
 14   9.393337 -0.000001 0.000000 -1.569611 0.034172 0.000037
 15   1.442245 0.107454 -1.746177 1.686435 0.539209 0.325885
 16   1.063452 0.000000 0.000001 0.000000 0.000000 0.199056
 17   1.376307 -0.000001 0.000001 0.000000 0.000000 0.199049
 18   4.172846 -0.251366 -1.312744 0.008050 0.095731 0.148659
 19   1.215374 0.000002 0.000000 0.000000 0.000000 0.645758
 20   1.215371 -0.000002 0.000001 0.000000 0.000000 0.645758
 21   4.220534 -0.244854 -0.431465 0.001333 0.026242 0.148339
 22   1.350417 0.000000 0.000001 0.000000 0.000000 0.863926
 23   1.350410 -0.000001 -0.000001 0.000000 0.000000 0.863926
 24   -1.887021 0.858761 -2.731760 -0.942471 1.461434 1.764317
 25   4.640942 0.000000 0.000001 -0.601473 -1.183875 0.506934
 26   10.828047 0.000000 0.000001 0.000000 0.000000 -0.234266
 27   9.393339 0.000000 0.000000 1.569611 -0.034192 0.000001
 28   1.442245 0.107455 1.746178 -1.686405 -0.539236 0.325898
 29   1.063450 -0.000001 0.000000 0.000000 0.000000 0.199056
 30   1.376307 0.000000 0.000000 0.000000 0.000000 0.199059
 31   4.172847 -0.251365 1.312745 -0.008050 -0.095731 0.148659
 32   1.215373 -0.000001 0.000000 0.000000 0.000000 0.645746
 33   1.215372 0.000000 0.000000 0.000000 0.000000 0.645746
 34   4.220534 -0.244853 0.431466 -0.001333 -0.026242 0.148339
 35   1.350416 0.000000 -0.000001 0.000000 0.000000 0.863937
 36   1.350410 0.000000 0.000001 0.000000 0.000000 0.863925
 37   2.110540 -0.000001 0.000000 0.002432 -0.010503 -0.153668
 38   0.891923 2.373051 -0.014527 -3.141592 -0.000001 1.413797
 39   7.228122 5.709445 3.726568 3.140796 -1.570796 0.000000
 40   2.450426 5.076128 0.001325 3.140791 -1.570796 0.000000
 41   6.312404 -4.528058 0.001311 3.140791 -1.570796 0.000000
 42   2.233309 1.152535 -7.309138 -1.147423 -1.562088 -0.851036
 43   4.262825 -0.232720 -1.392178 0.016840 0.076668 0.253759
time 1
  0   1.891201 6.792152 38.467918 0.012080 0.000000 -1.701715
  1   0.445653 -1.019562 0.000000 -0.000030 -1.672403 -1.570772
  2   -0.000007 0.000008 4.427393 -0.166882 -3.036483 -0.015526
  3   18.465939 0.000000 0.000000 0.000000 0.000000 -0.475335
  4   14.875443 0.000000 -0.000001 0.016601 -0.006550 0.440192
  5   0.000006 -0.000004 -4.427393 0.198159 3.207620 -0.263690
  6   18.465939 0.000000 0.000000 0.000000 0.000000 -0.196965
  7   14.875442 0.000000 0.000000 -0.060781 -0.025952 -0.065800
  8   2.243488 -0.007574 -0.226566 0.080096 0.014560 -0.015913
  9   9.514219 -0.009357 0.000000 -0.008748 -0.031579 -0.123439
 10   11.751820 -0.001633 0.000000 -0.000479 0.052012 0.433425
 11   -2.140935 0.843123 2.544257 0.620407 -1.317146 2.094748
 12   4.640941 0.000000 -0.000001 0.769813 0.769324 0.928356
 13   10.828049 0.000000 0.000000 0.000000 0.000000 -0.869045
 14   9.393337 -0.000001 0.000000 -1.569611 0.034172 0.000037
 15   1.442245 0.107454 -1.746177 1.686435 0.539209 0.325885
 16   1.063452 0.000000 0.000001 0.000000 0.000000 0.199056
 17   1.376307 -0.000001 0.000001 0.000000 0.000000 0.199049
 18   4.172846 -0.251366 -1.312744 0.008050 0.095731 0.148659
 19   1.215374 0.000002 0.000000 0.000000 0.000000 0.645758
 20   1.215371 -0.000002 0.000001 0.000000 0.000000 0.645758
 21   4.220534 -0.244854 -0.431465 0.001333 0.026242 0.148339
 22   1.350417 0.000000 0.000001 0.000000 0.000000 0.863926
 23   1.350410 -0.000001 -0.000001 0.000000 0.000000 0.863926
 24   -1.867489 0.847042 -2.747385 -1.309475 1.364557 1.412283
 25   4.640942 0.000000 0.000001 -0.951240 -1.010992 0.969382
 26   10.828047 0.000000 0.000001 0.000000 0.000000 -0.653151
 27   9.393339 0.000000 0.000000 1.569611 -0.034192 0.000001
 28   1.442245 0.107455 1.746178 -1.686405 -0.539236 0.325898
 29   1.063450 -0.000001 0.000000 0.000000 0.000000 0.199056
 30   1.376307 0.000000 0.000000 0.000000 0.000000 0.199059
 31   4.172847 -0.251365 1.312745 -0.008050 -0.095731 0.148659
 32   1.215373 -0.000001 0.000000 0.000000 0.000000 0.645746
 33   1.215372 0.000000 0.000000 0.000000 0.000000 0.645746
 34   4.220534 -0.244853 0.431466 -0.001333 -0.026242 0.148339
 35   1.350416 0.000000 -0.000001 0.000000 0.000000 0.863937
 36   1.350410 0.000000 0.000001 0.000000 0.000000 0.863925
 37   2.110540 -0.000001 0.000000 -0.069151 0.054693 -0.282165
 38   0.891923 2.373051 -0.014527 -3.141592 -0.000001 1.413797
 39   7.228122 5.709445 3.726568 3.140796 -1.570796 0.000000
 40   2.450426 5.076128 0.001325 3.119025 -1.570796 0.000000
 41   6.312404 -4.528058 0.001311 3.130687 -1.570796 0.000000
 42   2.233309 1.152535 -7.309138 -1.202166 -1.457384 -0.682725
 43   4.262825 -0.232720 -1.392178 0.016840 0.076668 0.253759
time 2
  0   1.708652 6.792152 38.346821 0.025886 0.000000 -1.701715
  1   0.320650 -1.601611 0.000000 -0.000030 -1.727791 -1.570772
  2   -0.000007 0.000008 4.427393 -0.157336 -2.965220 -0.054277
  3   18.465939 0.000000 0.000000 0.000000 0.000000 -0.559482
  4   14.875443 0.000000 -0.000001 0.015207 -0.029792 0.481907
  5   0.000006 -0.000004 -4.427393 0.136449 3.274450 -0.337998
  6   18.465939 0.000000 0.000000 0.000000 0.000000 -0.317080
  7   14.875442 0.000000 0.000000 0.028364 -0.039093 -0.015752
  8   2.227862 -0.007574 -0.351570 0.043007 0.026281 -0.005557
  9   9.514219 -0.009357 0.000000 -0.008629 -0.055441 -0.119564
 10   11.751820 -0.001633 0.000000 0.000024 0.043599 0.439975
 11   -2.117496 0.858748 2.563789 0.593317 -1.273363 2.121198
 12   4.640941 0.000000 -0.000001 0.721724 0.583421 1.039168
 13   10.828049 0.000000 0.000000 0.000000 0.000000 -1.176364
 14   9.393337 -0.000001 0.000000 -1.569611 0.034172 0.000037
 15   1.442245 0.107454 -1.746177 1.686435 0.539209 0.325885
 16   1.063452 0.000000 0.000001 0.000000 0.000000 0.199056
 17   1.376307 -0.000001 0.000001 0.000000 0.000000 0.199049
 18   4.172846 -0.251366 -1.312744 0.008050 0.095731 0.148659
 19   1.215374 0.000002 0.000000 0.000000 0.000000 0.645758
 20   1.215371 -0.000002 0.000001 0.000000 0.000000 0.645758
 21   4.220534 -0.244854 -0.431465 0.001333 0.026242 0.148339
 22   1.350417 0.000000 0.000001 0.000000 0.000000 0.863926
 23   1.350410 -0.000001 -0.000001 0.000000 0.000000 0.863926
 24   -1.887021 0.858761 -2.731760 -1.331556 1.309109 1.387240
 25   4.640942 0.000000 0.000001 -1.044161 -0.907360 1.102020
 26   10.828047 0.000000 0.000001 0.000000 0.000000 -0.932291
 27   9.393339 0.000000 0.000000 1.569611 -0.034192 0.000001
 28   1.442245 0.107455 1.746178 -1.686405 -0.539236 0.325898
 29   1.063450 -0.000001 0.000000 0.000000 0.000000 0.199056
 30   1.376307 0.000000 0.000000 0.000000 0.000000 0.199059
 31   4.172847 -0.251365 1.312745 -0.008050 -0.095731 0.148659
 32   1.215373 -0.000001 0.000000 0.000000 0.000000 0.645746
 33   1.215372 0.000000 0.000000 0.000000 0.000000 0.645746
 34   4.220534 -0.244853 0.431466 -0.001333 -0.026242 0.148339
 35   1.350416 0.000000 -0.000001 0.000000 0.000000 0.863937
 36   1.350410 0.000000 0.000001 0.000000 0.000000 0.863925
 37   2.110540 -0.000001 0.000000 -0.130958 0.112123 -0.366411
 38   0.891923 2.373051 -0.014527 -3.141592 -0.000001 1.413797
 39   7.228122 5.709445 3.726568 3.140796 -1.570796 0.000000
 40   2.450426 5.076128 0.001325 3.100154 -1.570796 0.000000
 41   6.312404 -4.528058 0.001311 3.119154 -1.570796 0.000000
 42   2.233309 1.152535 -7.309138 -1.157681 -1.387659 -0.805655
 43   4.262825 -0.232720 -1.392178 0.016840 0.076668 0.253759
time 3
  0   0.694493 6.792152 37.452263 0.038925 0.000000 -1.701715
  1   -0.894231 -1.406293 0.000000 -0.000030 -1.666669 -1.570772
  2   -0.000007 0.000008 4.427393 -0.147026 -3.003643 -0.148786
  3   18.465939 0.000000 0.000000 0.000000 0.000000 -0.705697
  4   14.875443 0.000000 -0.000001 0.014951 -0.050651 0.529351
  5   0.000006 -0.000004 -4.427393 0.034746 3.236421 -0.449273
  6   18.465939 0.000000 0.000000 0.000000 0.000000 -0.512020
  7   14.875442 0.000000 0.000000 0.123194 -0.043581 0.064461
  8   2.247394 -0.007574 -0.214847 0.008964 -0.013855 0.070942
  9   9.514219 -0.009357 0.000000 -0.010555 -0.057178 -0.025199
 10   11.751820 -0.001633 0.000000 0.002229 -0.014634 0.485472
 11   -1.922178 0.956407 2.673167 0.610846 -1.308876 2.062390
 12   4.640941 0.000000 -0.000001 0.632030 0.679851 0.968806
 13   10.828049 0.000000 0.000000 0.000000 0.000000 -1.286125
 14   9.393337 -0.000001 0.000000 -1.569611 0.034172 0.000037
 15   1.442245 0.107454 -1.746177 1.686435 0.539209 0.325885
 16   1.063452 0.000000 0.000001 0.000000 0.000000 0.199056
 17   1.376307 -0.000001 0.000001 0.000000 0.000000 0.199049
 18   4.172846 -0.251366 -1.312744 0.008050 0.095731 0.148659
 19   1.215374 0.000002 0.000000 0.000000 0.000000 0.645758
 20   1.215371 -0.000002 0.000001 0.000000 0.000000 0.645758
 21   4.220534 -0.244854 -0.431465 0.001333 0.026242 0.148339
 22   1.350417 0.000000 0.000001 0.000000 0.000000 0.863926
 23   1.350410 -0.000001 -0.000001 0.000000 0.000000 0.863926
 24   -2.000305 0.944701 -2.626288 -0.923462 1.356167 1.740926
 25   4.640942 0.000000 0.000001 -0.825698 -1.045304 0.793838
 26   10.828047 0.000000 0.000001 0.000000 0.000000 -0.895409
 27   9.393339 0.000000 0.000000 1.569611 -0.034192 0.000001
 28   1.442245 0.107455 1.746178 -1.686405 -0.539236 0.325898
 29   1.063450 -0.000001 0.000000 0.000000 0.000000 0.199056
 30   1.376307 0.000000 0.000000 0.000000 0.000000 0.199059
 31   4.172847 -0.251365 1.312745 -0.008050 -0.095731 0.148659
 32   1.215373 -0.000001 0.000000 0.000000 0.000000 0.645746
 33   1.215372 0.000000 0.000000 0.000000 0.000000 0.645746
 34   4.220534 -0.244853 0.431466 -0.001333 -0.026242 0.148339
 35   1.350416 0.000000 -0.000001 0.000000 0.000000 0.863937
 36   1.350410 0.000000 0.000001 0.000000 0.000000 0.863925
 37   2.110540 -0.000001 0.000000 -0.120562 0.171817 -0.358584
 38   0.891923 2.373051 -0.014527 -3.141592 -0.000001 1.413797
 39   7.228122 5.709445 3.726568 3.140796 -1.570796 0.000000
 40   2.450426 5.076128 0.001325 3.075404 -1.570796 0.000000
 41   6.312404 -4.528058 0.001311 3.108336 -1.570796 0.000000
 42   2.233309 1.152535 -7.309138 -1.129686 -1.431230 -0.950606
 43   4.262825 -0.232720 -1.392178 0.016840 0.076668 0.253759
time 4
  0   -0.664481 6.792152 36.260822 0.048512 0.000000 -1.701715
  1   -2.405996 -0.843776 0.000000 -0.000030 -1.564472 -1.570772
  2   -0.000007 0.000008 4.427393 -0.153040 -3.080487 -0.245539
  3   18.465939 0.000000 0.000000 0.000000 0.000000 -0.839630
  4   14.875443 0.000000 -0.000001 0.012901 -0.069423 0.561270
  5   0.000006 -0.000004 -4.427393 0.019438 3.151415 -0.602474
  6   18.465939 0.000000 0.000000 0.000000 0.000000 -0.763211
  7   14.875442 0.000000 0.000000 0.102943 -0.072830 0.161519
  8   2.255207 -0.007574 0.011722 -0.034279 -0.067378 0.165969
  9   9.514219 -0.009357 0.000000 -0.012323 -0.049664 0.097006
 10   11.751820 -0.001633 0.000000 0.001570 -0.086949 0.542591
 11   -1.668264 1.065786 2.802077 0.661308 -1.370741 1.953911
 12   4.640941 0.000000 -0.000001 0.514486 0.867889 0.789563
 13   10.828049 0.000000 0.000000 0.000000 0.000000 -1.314679
 14   9.393337 -0.000001 0.000000 -1.569611 0.034172 0.000037
 15   1.442245 0.107454 -1.746177 1.686435 0.539209 0.325885
 16   1.063452 0.000000 0.000001 0.000000 0.000000 0.199056
 17   1.376307 -0.000001 0.000001 0.000000 0.000000 0.199049
 18   4.172846 -0.251366 -1.312744 0.008050 0.095731 0.148659
 19   1.215374 0.000002 0.000000 0.000000 0.000000 0.645758
 20   1.215371 -0.000002 0.000001 0.000000 0.000000 0.645758
 21   4.220534 -0.244854 -0.431465 0.001333 0.026242 0.148339
 22   1.350417 0.000000 0.000001 0.000000 0.000000 0.863926
 23   1.350410 -0.000001 -0.000001 0.000000 0.000000 0.863926
 24   -2.129216 1.054080 -2.477846 -0.160657 1.357517 2.436878
 25   4.640942 0.000000 0.000001 -0.264414 -1.160443 0.074933
 26   10.828047 0.000000 0.000001 0.000000 0.000000 -0.734175
 27   9.393339 0.000000 0.000000 1.569611 -0.034192 0.000001
 28   1.442245 0.107455 1.746178 -1.686405 -0.539236 0.325898
 29   1.063450 -0.000001 0.000000 0.000000 0.000000 0.199056
 30   1.376307 0.000000 0.000000 0.000000 0.000000 0.199059
 31   4.172847 -0.251365 1.312745 -0.008050 -0.095731 0.148659
 32   1.215373 -0.000001 0.000000 0.000000 0.000000 0.645746
 33   1.215372 0.000000 0.000000 0.000000 0.000000 0.645746
 34   4.220534 -0.244853 0.431466 -0.001333 -0.026242 0.148339
 35   1.350416 0.000000 -0.000001 0.000000 0.000000 0.863937
 36   1.350410 0.000000 0.000001 0.000000 0.000000 0.863925
 37   2.110540 -0.000001 0.000000 -0.085938 0.209023 -0.314419
 38   0.891923 2.373051 -0.014527 -3.141592 -0.000001 1.413797
 39   7.228122 5.709445 3.726568 3.140796 -1.570796 0.000000
 40   2.450426 5.076128 0.001325 3.036084 -1.570796 0.000000
 41   6.312404 -4.528058 0.001311 3.100325 -1.570796 0.000000
 42   2.233309 1.152535 -7.309138 -1.132659 -1.501013 -1.079473
 43   4.262825 -0.232720 -1.392178 0.016840 0.076668 0.253759
time 5
  0   -1.536658 6.792152 35.307667 0.052251 0.000000 -1.701715
  1   -3.128675 -0.421888 0.000000 -0.000030 -1.501022 -1.570772
  2   -0.000007 0.000008 4.427393 -0.160486 -3.123841 -0.303890
  3   18.465939 0.000000 0.000000 0.000000 0.000000 -0.934815
  4   14.875443 0.000000 -0.000001 0.008490 -0.083322 0.595164
  5   0.000006 -0.000004 -4.427393 0.024509 3.100244 -0.702144
  6   18.465939 0.000000 0.000000 0.000000 0.000000 -0.902295
  7   14.875442 0.000000 0.000000 0.067636 -0.106264 0.204852
  8   2.251301 -0.007574 0.156258 -0.055238 -0.094799 0.212391
  9   9.514219 -0.009357 0.000000 -0.012165 -0.040604 0.159202
 10   11.751820 -0.001633 0.000000 -0.000096 -0.122112 0.570828
 11   -1.539354 1.112662 2.856767 0.697200 -1.427246 1.883973
 12   4.640941 0.000000 -0.000001 0.487028 0.992559 0.680800
 13   10.828049 0.000000 0.000000 0.000000 0.000000 -1.322488
 14   9.393337 -0.000001 0.000000 -1.569611 0.034172 0.000037
 15   1.442245 0.107454 -1.746177 1.686435 0.539209 0.325885
 16   1.063452 0.000000 0.000001 0.000000 0.000000 0.199056
 17   1.376307 -0.000001 0.000001 0.000000 0.000000 0.199049
 18   4.172846 -0.251366 -1.312744 0.008050 0.095731 0.148659
 19   1.215374 0.000002 0.000000 0.000000 0.000000 0.645758
 20   1.215371 -0.000002 0.000001 0.000000 0.000000 0.645758
 21   4.220534 -0.244854 -0.431465 0.001333 0.026242 0.148339
 22   1.350417 0.000000 0.000001 0.000000 0.000000 0.863926
 23   1.350410 -0.000001 -0.000001 0.000000 0.000000 0.863926
 24   -2.179998 1.112675 -2.403625 0.260871 1.311726 2.825925
 25   4.640942 0.000000 0.000001 0.130990 -1.152493 -0.454359
 26   10.828047 0.000000 0.000001 0.000000 0.000000 -0.581129
 27   9.393339 0.000000 0.000000 1.569611 -0.034192 0.000001
 28   1.442245 0.107455 1.746178 -1.686405 -0.539236 0.325898
 29   1.063450 -0.000001 0.000000 0.000000 0.000000 0.199056
 30   1.376307 0.000000 0.000000 0.000000 0.000000 0.199059
 31   4.172847 -0.251365 1.312745 -0.008050 -0.095731 0.148659
 32   1.215373 -0.000001 0.000000 0.000000 0.000000 0.645746
 33   1.215372 0.000000 0.000000 0.000000 0.000000 0.645746
 34   4.220534 -0.244853 0.431466 -0.001333 -0.026242 0.148339
 35   1.350416 0.000000 -0.000001 0.000000 0.000000 0.863937
 36   1.350410 0.000000 0.000001 0.000000 0.000000 0.863925
 37   2.110540 -0.000001 0.000000 -0.062999 0.208297 -0.272575
 38   0.891923 2.373051 -0.014527 -3.141592 -0.000001 1.413797
 39   7.228122 5.709445 3.726568 3.140796 -1.570796 0.000000
 40   2.450426 5.076128 0.001325 2.893110 -1.570796 0.000000
 41   6.312404 -4.528058 0.001311 3.097161 -1.570796 0.000000
 42   2.233309 1.152535 -7.309138 -2.306426 -1.570796 0.000000
 43   4.262825 -0.232720 -1.392178 0.016840 0.076668 0.253759
time 6
  0   -1.638074 6.792152 34.655304 0.048512 0.000000 -1.701715
  1   -2.902105 -0.320322 0.000000 -0.000030 -1.521832 -1.570772
  2   -0.000007 0.000008 4.427393 -0.149603 -3.093791 -0.333166
  3   18.465939 0.000000 0.000000 0.000000 0.000000 -1.027954
  4   14.875443 0.000000 -0.000001 0.007152 -0.086131 0.658725
  5   0.000006 -0.000004 -4.427393 -0.002185 3.138925 -0.733308
  6   18.465939 0.000000 0.000000 0.000000 0.000000 -0.980074
  7   14.875442 0.000000 0.000000 0.113226 -0.094073 0.246759
  8   2.255207 -0.007574 0.109381 -0.031170 -0.066671 0.196542
  9   9.514219 -0.009357 0.000000 -0.011004 -0.032934 0.142684
 10   11.751820 -0.001633 0.000000 0.000551 -0.110355 0.561353
 11   -1.582324 1.097037 2.837235 1.100664 -1.495981 1.483375
 12   4.640941 0.000000 -0.000001 0.700504 1.056961 0.821407
 13   10.828049 0.000000 0.000000 0.000000 0.000000 -1.324929
 14   9.393337 -0.000001 0.000000 -1.569611 0.034172 0.000037
 15   1.442245 0.107454 -1.746177 1.686435 0.539209 0.325885
 16   1.063452 0.000000 0.000001 0.000000 0.000000 0.199056
 17   1.376307 -0.000001 0.000001 0.000000 0.000000 0.199049
 18   4.172846 -0.251366 -1.312744 0.008050 0.095731 0.148659
 19   1.215374 0.000002 0.000000 0.000000 0.000000 0.645758
 20   1.215371 -0.000002 0.000001 0.000000 0.000000 0.645758
 21   4.220534 -0.244854 -0.431465 0.001333 0.026242 0.148339
 22   1.350417 0.000000 0.000001 0.000000 0.000000 0.863926
 23   1.350410 -0.000001 -0.000001 0.000000 0.000000 0.863926
 24   -2.160467 1.093143 -2.427063 0.355607 1.325785 2.930359
 25   4.640942 0.000000 0.000001 0.182339 -1.181016 -0.524282
 26   10.828047 0.000000 0.000001 0.000000 0.000000 -0.485817
 27   9.393339 0.000000 0.000000 1.569611 -0.034192 0.000001
 28   1.442245 0.107455 1.746178 -1.686405 -0.539236 0.325898
 29   1.063450 -0.000001 0.000000 0.000000 0.000000 0.199056
 30   1.376307 0.000000 0.000000 0.000000 0.000000 0.199059
 31   4.172847 -0.251365 1.312745 -0.008050 -0.095731 0.148659
 32   1.215373 -0.000001 0.000000 0.000000 0.000000 0.645746
 33   1.215372 0.000000 0.000000 0.000000 0.000000 0.645746
 34   4.220534 -0.244853 0.431466 -0.001333 -0.026242 0.148339
 35   1.350416 0.000000 -0.000001 0.000000 0.000000 0.863937
 36   1.350410 0.000000 0.000001 0.000000 0.000000 0.863925
 37   2.110540 -0.000001 0.000000 -0.048978 0.182236 -0.245999
 38   0.891923 2.373051 -0.014527 -3.141592 -0.000001 1.413797
 39   7.228122 5.709445 3.726568 3.140796 -1.570796 0.000000
 40   2.450426 5.076128 0.001325 2.860987 -1.570796 0.000000
 41   6.312404 -4.528058 0.001311 3.100325 -1.570796 0.000000
 42   2.233309 1.152535 -7.309138 -1.158065 -1.527196 -1.173203
 43   4.262825 -0.232720 -1.392178 0.016840 0.076668 0.253759
time 7
  0   -1.252693 6.792152 34.245132 0.038925 0.000000 -1.701715
  1   -2.304430 -0.292978 0.000000 -0.000030 -1.581388 -1.570772
  2   -0.000007 0.000008 4.427393 -0.126788 -3.036576 -0.346133
  3   18.465939 0.000000 0.000000 0.000000 0.000000 -1.107056
  4   14.875443 0.000000 -0.000001 0.004733 -0.076851 0.728053
  5   0.000006 -0.000004 -4.427393 0.045270 3.174717 -0.726663
  6   18.465939 0.000000 0.000000 0.000000 0.000000 -1.009020
  7   14.875442 0.000000 0.000000 0.101504 -0.082377 0.283714
  8   2.255207 -0.007574 -0.023435 0.010770 -0.007407 0.157036
  9   9.514219 -0.009357 0.000000 -0.009737 -0.024497 0.095967
 10   11.751820 -0.001633 0.000000 0.001798 -0.080178 0.537196
 11   -1.691702 1.054067 2.790358 1.994706 -1.495297 0.610938
 12   4.640941 0.000000 -0.000001 0.953129 1.082101 1.022485
 13   10.828049 0.000000 0.000000 0.000000 0.000000 -1.264344
 14   9.393337 -0.000001 0.000000 -1.569611 0.034172 0.000037
 15   1.442245 0.107454 -1.746177 1.686435 0.539209 0.325885
 16   1.063452 0.000000 0.000001 0.000000 0.000000 0.199056
 17   1.376307 -0.000001 0.000001 0.000000 0.000000 0.199049
 18   4.172846 -0.251366 -1.312744 0.008050 0.095731 0.148659
 19   1.215374 0.000002 0.000000 0.000000 0.000000 0.645758
 20   1.215371 -0.000002 0.000001 0.000000 0.000000 0.645758
 21   4.220534 -0.244854 -0.431465 0.001333 0.026242 0.148339
 22   1.350417 0.000000 0.000001 0.000000 0.000000 0.863926
 23   1.350410 -0.000001 -0.000001 0.000000 0.000000 0.863926
 24   -2.117496 1.046267 -2.493471 0.314736 1.373237 2.915155
 25   4.640942 0.000000 0.000001 0.092093 -1.223418 -0.390175
 26   10.828047 0.000000 0.000001 0.000000 0.000000 -0.408278
 27   9.393339 0.000000 0.000000 1.569611 -0.034192 0.000001
 28   1.442245 0.107455 1.746178 -1.686405 -0.539236 0.325898
 29   1.063450 -0.000001 0.000000 0.000000 0.000000 0.199056
 30   1.376307 0.000000 0.000000 0.000000 0.000000 0.199059
 31   4.172847 -0.251365 1.312745 -0.008050 -0.095731 0.148659
 32   1.215373 -0.000001 0.000000 0.000000 0.000000 0.645746
 33   1.215372 0.000000 0.000000 0.000000 0.000000 0.645746
 34   4.220534 -0.244853 0.431466 -0.001333 -0.026242 0.148339
 35   1.350416 0.000000 -0.000001 0.000000 0.000000 0.863937
 36   1.350410 0.000000 0.000001 0.000000 0.000000 0.863925
 37   2.110540 -0.000001 0.000000 -0.034910 0.142822 -0.221228
 38   0.891923 2.373051 -0.014527 -3.141592 -0.000001 1.413797
 39   7.228122 5.709445 3.726568 3.140796 -1.570796 0.000000
 40   2.450426 5.076128 0.001325 2.919528 -1.570796 0.000000
 41   6.312404 -4.528058 0.001311 3.108336 -1.570796 0.000000
 42   2.233309 1.152535 -7.309138 -1.152984 -1.483567 -1.159703
 43   4.262825 -0.232720 -1.392178 0.016840 0.076668 0.253759
time 8
  0   -0.644198 6.792152 34.432640 0.025886 0.000000 -1.701715
  1   -1.484093 -0.281259 0.000000 -0.000030 -1.623123 -1.570772
  2   -0.000007 0.000008 4.427393 -0.117337 -3.005410 -0.319750
  3   18.465939 0.000000 0.000000 0.000000 0.000000 -1.103913
  4   14.875443 0.000000 -0.000001 0.003537 -0.059228 0.755627
  5   0.000006 -0.000004 -4.427393 0.097796 3.185902 -0.694844
  6   18.465939 0.000000 0.000000 0.000000 0.000000 -0.993924
  7   14.875442 0.000000 0.000000 0.066443 -0.070244 0.302247
  8   2.255207 -0.007574 -0.117188 0.052206 0.032333 0.104294
  9   9.514219 -0.009357 0.000000 -0.008853 -0.015568 0.031996
 10   11.751820 -0.001633 0.000000 0.002421 -0.039203 0.504771
 11   -1.840144 0.991565 2.720044 1.283161 -1.384959 1.363217
 12   4.640941 0.000000 -0.000001 0.808568 1.071563 0.954874
 13   10.828049 0.000000 0.000000 0.000000 0.000000 -0.997049
 14   9.393337 -0.000001 0.000000 -1.569611 0.034172 0.000037
 15   1.442245 0.107454 -1.746177 1.686435 0.539209 0.325885
 16   1.063452 0.000000 0.000001 0.000000 0.000000 0.199056
 17   1.376307 -0.000001 0.000001 0.000000 0.000000 0.199049
 18   4.172846 -0.251366 -1.312744 0.008050 0.095731 0.148659
 19   1.215374 0.000002 0.000000 0.000000 0.000000 0.645758
 20   1.215371 -0.000002 0.000001 0.000000 0.000000 0.645758
 21   4.220534 -0.244854 -0.431465 0.001333 0.026242 0.148339
 22   1.350417 0.000000 0.000001 0.000000 0.000000 0.863926
 23   1.350410 -0.000001 -0.000001 0.000000 0.000000 0.863926
 24   -2.047182 0.979859 -2.575505 0.114684 1.423514 2.749698
 25   4.640942 0.000000 0.000001 -0.144430 -1.243502 -0.092982
 26   10.828047 0.000000 0.000001 0.000000 0.000000 -0.345202
 27   9.393339 0.000000 0.000000 1.569611 -0.034192 0.000001
 28   1.442245 0.107455 1.746178 -1.686405 -0.539236 0.325898
 29   1.063450 -0.000001 0.000000 0.000000 0.000000 0.199056
 30   1.376307 0.000000 0.000000 0.000000 0.000000 0.199059
 31   4.172847 -0.251365 1.312745 -0.008050 -0.095731 0.148659
 32   1.215373 -0.000001 0.000000 0.000000 0.000000 0.645746
 33   1.215372 0.000000 0.000000 0.000000 0.000000 0.645746
 34   4.220534 -0.244853 0.431466 -0.001333 -0.026242 0.148339
 35   1.350416 0.000000 -0.000001 0.000000 0.000000 0.863937
 36   1.350410 0.000000 0.000001 0.000000 0.000000 0.863925
 37   2.110540 -0.000001 0.000000 -0.021747 0.094051 -0.198135
 38   0.891923 2.373051 -0.014527 -3.141592 -0.000001 1.413797
 39   7.228122 5.709445 3.726568 3.140796 -1.570796 0.000000
 40   2.450426 5.076128 0.001325 2.990708 -1.570796 0.000000
 41   6.312404 -4.528058 0.001311 3.119154 -1.570796 0.000000
 42   2.233309 1.152535 -7.309138 -1.137548 -1.483567 -1.105993
 43   4.262825 -0.232720 -1.392178 0.016840 0.076668 0.253759
time 9
  0   0.410528 6.792152 36.034252 0.012080 0.000000 -1.701715
  1   -0.601254 -0.230476 0.000000 -0.000030 -1.606984 -1.570772
  2   -0.000007 0.000008 4.427393 -0.144353 -3.055276 -0.209531
  3   18.465939 0.000000 0.000000 0.000000 0.000000 -0.887734
  4   14.875443 0.000000 -0.000001 0.007607 -0.023684 0.654024
  5   0.000006 -0.000004 -4.427393 0.158550 3.126715 -0.573368
  6   18.465939 0.000000 0.000000 0.000000 0.000000 -0.807516
  7   14.875442 0.000000 0.000000 -0.027860 -0.049515 0.234753
  8   2.255207 -0.007574 -0.082031 0.087972 0.015771 0.047979
  9   9.514219 -0.009357 0.000000 -0.008550 -0.006496 -0.036261
 10   11.751820 -0.001633 0.000000 0.001762 0.004733 0.470306
 11   -1.988586 0.925156 2.641916 1.003384 -1.386151 1.674090
 12   4.640941 0.000000 -0.000001 0.771581 1.070047 0.849330
 13   10.828049 0.000000 0.000000 0.000000 0.000000 -0.733415
 14   9.393337 -0.000001 0.000000 -1.569611 0.034172 0.000037
 15   1.442245 0.107454 -1.746177 1.686435 0.539209 0.325885
 16   1.063452 0.000000 0.000001 0.000000 0.000000 0.199056
 17   1.376307 -0.000001 0.000001 0.000000 0.000000 0.199049
 18   4.172846 -0.251366 -1.312744 0.008050 0.095731 0.148659
 19   1.215374 0.000002 0.000000 0.000000 0.000000 0.645758
 20   1.215371 -0.000002 0.000001 0.000000 0.000000 0.645758
 21   4.220534 -0.244854 -0.431465 0.001333 0.026242 0.148339
 22   1.350417 0.000000 0.000001 0.000000 0.000000 0.863926
 23   1.350410 -0.000001 -0.000001 0.000000 0.000000 0.863926
 24   -1.965148 0.913450 -2.657539 -0.349514 1.460583 2.323087
 25   4.640942 0.000000 0.000001 -0.416196 -1.225510 0.251877
 26   10.828047 0.000000 0.000001 0.000000 0.000000 -0.289734
 27   9.393339 0.000000 0.000000 1.569611 -0.034192 0.000001
 28   1.442245 0.107455 1.746178 -1.686405 -0.539236 0.325898
 29   1.063450 -0.000001 0.000000 0.000000 0.000000 0.199056
 30   1.376307 0.000000 0.000000 0.000000 0.000000 0.199059
 31   4.172847 -0.251365 1.312745 -0.008050 -0.095731 0.148659
 32   1.215373 -0.000001 0.000000 0.000000 0.000000 0.645746
 33   1.215372 0.000000 0.000000 0.000000 0.000000 0.645746
 34   4.220534 -0.244853 0.431466 -0.001333 -0.026242 0.148339
 35   1.350416 0.000000 -0.000001 0.000000 0.000000 0.863937
 36   1.350410 0.000000 0.000001 0.000000 0.000000 0.863925
 37   2.110540 -0.000001 0.000000 -0.009586 0.040643 -0.175987
 38   0.891923 2.373051 -0.014527 -3.141592 -0.000001 1.413797
 39   7.228122 5.709445 3.726568 3.140796 -1.570796 0.000000
 40   2.450426 5.076128 0.001325 3.067066 -1.570796 0.000000
 41   6.312404 -4.528058 0.001311 3.130687 -1.570796 0.000000
 42   2.233309 1.152535 -7.309138 -1.127386 -1.535904 -1.015518
 43   4.262825 -0.232720 -1.392178 0.016840 0.076668 0.253759
time 10
  0   1.708652 6.792152 38.307758 0.000000 0.000000 -1.701715
  1   0.164395 -0.125004 0.000000 -1.570795 -1.570451 0.000000
  2   -0.000007 0.000008 4.427393 -0.170796 -3.152960 0.000882
  3   18.465939 0.000000 0.000000 0.000000 0.000000 -0.416557
  4   14.875443 0.000000 -0.000001 0.018451 0.017437 0.402071
  5   0.000006 -0.000004 -4.427393 0.106024 3.095677 -0.362237
  6   18.465939 0.000000 0.000000 0.000000 0.000000 -0.394334
  7   14.875442 0.000000 0.000000 -0.002065 0.005199 0.029344
  8   2.255207 -0.007574 0.000003 0.122100 -0.017403 -0.001322
  9   9.514219 -0.009357 0.000000 -0.008787 0.002361 -0.095902
 10   11.751820 -0.001633 0.000000 0.000024 0.043599 0.439975
 11   -2.117496 0.858748 2.563789 0.697276 -1.395375 2.006330
 12   4.640941 0.000000 -0.000001 0.738474 1.089884 0.724820
 13   10.828049 0.000000 0.000000 0.000000 0.000000 -0.470452
 14   9.393337 -0.000001 0.000000 -1.569611 0.034172 0.000037
 15   1.442245 0.107454 -1.746177 1.686435 0.539209 0.325885
 16   1.063452 0.000000 0.000001 0.000000 0.000000 0.199056
 17   1.376307 -0.000001 0.000001 0.000000 0.000000 0.199049
 18   4.172846 -0.251366 -1.312744 0.008050 0.095731 0.148659
 19   1.215374 0.000002 0.000000 0.000000 0.000000 0.645758
 20   1.215371 -0.000002 0.000001 0.000000 0.000000 0.645758
 21   4.220534 -0.244854 -0.431465 0.001333 0.026242 0.148339
 22   1.350417 0.000000 0.000001 0.000000 0.000000 0.863926
 23   1.350410 -0.000001 -0.000001 0.000000 0.000000 0.863926
 24   -1.887021 0.858761 -2.731760 -0.942471 1.461434 1.764317
 25   4.640942 0.000000 0.000001 -0.601473 -1.183875 0.506934
 26   10.828047 0.000000 0.000001 0.000000 0.000000 -0.234266
 27   9.393339 0.000000 0.000000 1.569611 -0.034192 0.000001
 28   1.442245 0.107455 1.746178 -1.686405 -0.539236 0.325898
 29   1.063450 -0.000001 0.000000 0.000000 0.000000 0.199056
 30   1.376307 0.000000 0.000000 0.000000 0.000000 0.199059
 31   4.172847 -0.251365 1.312745 -0.008050 -0.095731 0.148659
 32   1.215373 -0.000001 0.000000 0.000000 0.000000 0.645746
 33   1.215372 0.000000 0.000000 0.000000 0.000000 0.645746
 34   4.220534 -0.244853 0.431466 -0.001333 -0.026242 0.148339
 35   1.350416 0.000000 -0.000001 0.000000 0.000000 0.863937
 36   1.350410 0.000000 0.000001 0.000000 0.000000 0.863925
 37   2.110540 -0.000001 0.000000 0.002432 -0.010503 -0.153668
 38   0.891923 2.373051 -0.014527 -3.141592 -0.000001 1.413797
 39   7.228122 5.709445 3.726568 3.140796 -1.570796 0.000000
 40   2.450426 5.076128 0.001325 3.140791 -1.570796 0.000000
 41   6.312404 -4.528058 0.001311 3.140791 -1.570796 0.000000
 42   2.233309 1.152535 -7.309138 -1.998387 -1.570796 0.000000
 43   4.262825 -0.232720 -1.392178 0.016840 0.076668 0.253759
end
