version 1
nodes
  0 "Bip01" -1
  1 "Bip01 Pelvis" 0
  2 "Bip01 L Thigh" 1
  3 "Bip01 L Calf" 2
  4 "Bip01 L Foot" 3
  5 "Bip01 R Thigh" 1
  6 "Bip01 R Calf" 5
  7 "Bip01 R Foot" 6
  8 "Bip01 Spine" 1
  9 "Bip01 Spine1" 8
 10 "Bip01 Neck" 9
 11 "Bip01 L Clavicle" 10
 12 "Bip01 L UpperArm" 11
 13 "Bip01 L Forearm" 12
 14 "Bip01 L Hand" 13
 15 "Bip01 L Finger0" 14
 16 "Bip01 L Finger01" 15
 17 "Bip01 L Finger02" 16
 18 "Bip01 L Finger1" 14
 19 "Bip01 L Finger11" 18
 20 "Bip01 L Finger12" 19
 21 "Bip01 L Finger2" 14
 22 "Bip01 L Finger21" 21
 23 "Bip01 L Finger22" 22
 24 "Bip01 R Clavicle" 10
 25 "Bip01 R UpperArm" 24
 26 "Bip01 R Forearm" 25
 27 "Bip01 R Hand" 26
 28 "Bip01 R Finger0" 27
 29 "Bip01 R Finger01" 28
 30 "Bip01 R Finger02" 29
 31 "Bip01 R Finger1" 27
 32 "Bip01 R Finger11" 31
 33 "Bip01 R Finger12" 32
 34 "Bip01 R Finger2" 27
 35 "Bip01 R Finger21" 34
 36 "Bip01 R Finger22" 35
 37 "Bip01 Head" 10
 38 "Bone05" 37
 39 "Bone08" 9
 40 "Bone16" 8
 41 "Bone01" 8
 42 "Bone03" 1
 43 "Bip01 R Finger4" 27
end
skeleton
time 0
  0   0.167130 2.938282 40.550014 0.000000 0.218026 -1.570843
  1   0.129237 0.000000 0.000000 -0.000030 -1.484710 -1.570772
  2   -0.000007 0.000008 4.427393 -0.006315 -3.149146 -0.899621
  3   18.465939 0.000000 0.000000 0.000000 0.000000 -1.281344
  4   14.875443 0.000000 -0.000001 0.016260 -0.074638 0.141269
  5   0.000006 -0.000004 -4.427393 0.028432 3.103320 0.031763
  6   18.465939 0.000000 0.000000 0.000000 0.000000 -0.667119
  7   14.875442 0.000000 0.000000 0.031593 -0.044057 -0.450656
  8   2.247394 -0.007574 0.191415 0.009972 -0.085511 -0.116268
  9   9.514219 -0.009357 0.000000 0.000000 0.000000 0.213236
 10   11.751820 -0.001633 0.000000 0.000000 -0.000001 -0.045459
 11   -2.168279 -0.172533 2.649729 0.394203 -1.354678 2.800311
 12   4.640941 0.000000 -0.000001 0.766669 0.786475 0.893702
 13   10.828049 0.000000 0.000000 0.000000 0.000000 -1.035182
 14   9.393337 -0.000001 0.000000 -1.568926 0.118622 -0.085388
 15   1.442245 0.107454 -1.746177 1.742810 0.349042 0.431626
 16   1.063452 0.000000 0.000001 0.000000 0.000000 0.174535
 17   1.376307 -0.000001 0.000001 0.000000 0.000000 0.174529
 18   4.172846 -0.251366 -1.312744 0.069543 0.066333 0.874883
 19   1.215374 0.000002 0.000000 0.000000 0.000000 1.247894
 20   1.215371 -0.000002 0.000001 0.000000 0.000000 1.247894
 21   4.220534 -0.244854 -0.431465 0.018387 0.018764 0.872814
 22   1.350417 0.000000 0.000001 0.000000 0.000000 1.247901
 23   1.350410 -0.000001 -0.000001 0.000000 0.000000 1.247901
 24   -2.168279 -0.172520 -2.649726 -0.550971 1.337227 2.647465
 25   4.640942 0.000000 0.000001 -0.621745 -0.860146 0.623334
 26   10.828047 0.000000 0.000001 0.000000 0.000000 -1.188141
 27   9.393339 0.000000 0.000000 1.568907 -0.118616 -0.085351
 28   1.442245 0.107455 1.746178 -1.742773 -0.349066 0.431617
 29   1.063450 -0.000001 0.000000 0.000000 0.000000 0.174535
 30   1.376307 0.000000 0.000000 0.000000 0.000000 0.174532
 31   4.172847 -0.251365 1.312745 -0.069543 -0.066333 0.874883
 32   1.215373 -0.000001 0.000000 0.000000 0.000000 1.247903
 33   1.215372 0.000000 0.000000 0.000000 0.000000 1.247903
 34   4.220534 -0.244853 0.431466 -0.018387 -0.018764 0.872814
 35   1.350416 0.000000 -0.000001 0.000000 0.000000 1.247903
 36   1.350410 0.000000 0.000001 0.000000 0.000000 1.247881
 37   2.110540 -0.000001 0.000000 0.000000 0.000000 -0.043233
 38   0.891923 2.373051 -0.014527 -3.141592 -0.000001 1.413797
 39   7.228122 5.709445 3.726568 3.140796 -1.570796 0.000000
 40   2.450426 5.076128 0.001325 3.079792 -1.570796 0.000000
 41   6.312404 -4.528058 0.001311 3.228051 -1.570796 0.000000
 42   2.233309 1.152535 -7.309138 -1.454790 -1.588242 -0.194544
 43   4.262825 -0.232720 -1.392178 0.058247 0.052627 0.874232
time 1
  0   0.227979 -9.279930 40.913307 0.000000 0.218026 -1.570843
  1   0.820665 0.000000 0.000000 -0.000030 -1.516931 -1.570772
  2   -0.000007 0.000008 4.427393 0.012491 -3.163659 -0.937424
  3   18.465939 0.000000 0.000000 0.000000 0.000000 -0.617602
  4   14.875443 0.000000 -0.000001 -0.042429 -0.037689 0.065343
  5   0.000006 -0.000004 -4.427393 0.037903 3.137341 0.088663
  6   18.465939 0.000000 0.000000 0.000000 0.000000 -0.775945
  7   14.875442 0.000000 0.000000 0.044262 -0.039835 -0.652914
  8   2.251301 -0.007574 0.121100 0.010119 -0.052913 -0.189160
  9   9.514219 -0.009357 0.000000 0.000000 0.000000 0.235426
 10   11.751820 -0.001633 0.000000 0.000000 -0.000001 -0.067174
 11   -2.164373 -0.219410 2.649729 0.255794 -1.364268 2.957293
 12   4.640941 0.000000 -0.000001 0.918156 0.648787 1.112575
 13   10.828049 0.000000 0.000000 0.000000 0.000000 -0.962455
 14   9.393337 -0.000001 0.000000 -1.568926 0.118622 -0.085388
 15   1.442245 0.107454 -1.746177 1.742810 0.349042 0.431626
 16   1.063452 0.000000 0.000001 0.000000 0.000000 0.174535
 17   1.376307 -0.000001 0.000001 0.000000 0.000000 0.174529
 18   4.172846 -0.251366 -1.312744 0.069543 0.066333 0.874883
 19   1.215374 0.000002 0.000000 0.000000 0.000000 1.247894
 20   1.215371 -0.000002 0.000001 0.000000 0.000000 1.247894
 21   4.220534 -0.244854 -0.431465 0.018387 0.018764 0.872814
 22   1.350417 0.000000 0.000001 0.000000 0.000000 1.247901
 23   1.350410 -0.000001 -0.000001 0.000000 0.000000 1.247901
 24   -2.164373 -0.219397 -2.649726 -0.642810 1.322753 2.580044
 25   4.640942 0.000000 0.000001 -0.500782 -0.889367 0.424692
 26   10.828047 0.000000 0.000001 0.000000 0.000000 -1.283801
 27   9.393339 0.000000 0.000000 1.568907 -0.118616 -0.085351
 28   1.442245 0.107455 1.746178 -1.742773 -0.349066 0.431617
 29   1.063450 -0.000001 0.000000 0.000000 0.000000 0.174535
 30   1.376307 0.000000 0.000000 0.000000 0.000000 0.174532
 31   4.172847 -0.251365 1.312745 -0.069543 -0.066333 0.874883
 32   1.215373 -0.000001 0.000000 0.000000 0.000000 1.247903
 33   1.215372 0.000000 0.000000 0.000000 0.000000 1.247903
 34   4.220534 -0.244853 0.431466 -0.018387 -0.018764 0.872814
 35   1.350416 0.000000 -0.000001 0.000000 0.000000 1.247903
 36   1.350410 0.000000 0.000001 0.000000 0.000000 1.247881
 37   2.110540 -0.000001 0.000000 0.000000 0.000000 0.029359
 38   0.891923 2.373051 -0.014527 -3.141592 -0.000001 1.413797
 39   7.228122 5.709445 3.726568 2.908468 -1.570796 0.000000
 40   2.450426 5.076128 0.001325 3.091904 -1.570796 0.000000
 41   6.312404 -4.528058 0.001311 3.258362 -1.570796 0.000000
 42   2.233309 1.152535 -7.309138 -1.505890 -1.562088 -0.108474
 43   4.262825 -0.232720 -1.392178 0.058247 0.052627 0.874232
time 2
  0   0.349677 -26.205370 40.960182 0.000000 0.218026 -1.570843
  1   0.844103 0.000000 0.000000 -0.000030 -1.549152 -1.570772
  2   -0.000007 0.000008 4.427393 0.028624 -3.178265 -0.914533
  3   18.465939 0.000000 0.000000 0.000000 0.000000 -0.053214
  4   14.875443 0.000000 -0.000001 -0.047666 0.019438 -0.033218
  5   0.000006 -0.000004 -4.427393 0.037329 3.163066 0.141446
  6   18.465939 0.000000 0.000000 0.000000 0.000000 -0.916604
  7   14.875442 0.000000 0.000000 0.047491 -0.027625 -0.802609
  8   2.255207 -0.007574 0.046879 -0.003322 -0.026823 -0.188233
  9   9.514219 -0.009357 0.000000 -0.009961 0.013543 0.228217
 10   11.751820 -0.001633 0.000000 0.000000 -0.000001 -0.088889
 11   -2.160467 -0.266286 2.649729 0.088019 -1.370041 3.143405
 12   4.640941 0.000000 -0.000001 1.009765 0.512821 1.307974
 13   10.828049 0.000000 0.000000 0.000000 0.000000 -0.861968
 14   9.393337 -0.000001 0.000000 -1.568926 0.118622 -0.085388
 15   1.442245 0.107454 -1.746177 1.742810 0.349042 0.431626
 16   1.063452 0.000000 0.000001 0.000000 0.000000 0.174535
 17   1.376307 -0.000001 0.000001 0.000000 0.000000 0.174529
 18   4.172846 -0.251366 -1.312744 0.069543 0.066333 0.874883
 19   1.215374 0.000002 0.000000 0.000000 0.000000 1.247894
 20   1.215371 -0.000002 0.000001 0.000000 0.000000 1.247894
 21   4.220534 -0.244854 -0.431465 0.018387 0.018764 0.872814
 22   1.350417 0.000000 0.000001 0.000000 0.000000 1.247901
 23   1.350410 -0.000001 -0.000001 0.000000 0.000000 1.247901
 24   -2.160467 -0.266273 -2.649726 -0.722664 1.306845 2.524525
 25   4.640942 0.000000 0.000001 -0.304598 -0.895574 0.138697
 26   10.828047 0.000000 0.000001 0.000000 0.000000 -1.377661
 27   9.393339 0.000000 0.000000 1.568907 -0.118616 -0.085351
 28   1.442245 0.107455 1.746178 -1.742773 -0.349066 0.431617
 29   1.063450 -0.000001 0.000000 0.000000 0.000000 0.174535
 30   1.376307 0.000000 0.000000 0.000000 0.000000 0.174532
 31   4.172847 -0.251365 1.312745 -0.069543 -0.066333 0.874883
 32   1.215373 -0.000001 0.000000 0.000000 0.000000 1.247903
 33   1.215372 0.000000 0.000000 0.000000 0.000000 1.247903
 34   4.220534 -0.244853 0.431466 -0.018387 -0.018764 0.872814
 35   1.350416 0.000000 -0.000001 0.000000 0.000000 1.247903
 36   1.350410 0.000000 0.000001 0.000000 0.000000 1.247881
 37   2.110540 -0.000001 0.000000 0.018695 -0.009218 0.057483
 38   0.891923 2.373051 -0.014527 -3.141592 -0.000001 1.413797
 39   7.228122 5.709445 3.726568 2.678324 -1.570796 0.000000
 40   2.450426 5.076128 0.001325 3.105947 -1.570796 0.000000
 41   6.312404 -4.528058 0.001311 3.288674 -1.570796 0.000000
 42   2.233309 1.152535 -7.309138 -1.570892 -1.544642 0.000096
 43   4.262825 -0.232720 -1.392178 0.058247 0.052627 0.874232
time 3
  0   0.552509 -39.331993 38.862461 0.000000 0.218026 -1.570843
  1   0.422215 0.000000 0.000000 -0.000030 -1.561081 -1.570772
  2   -0.000007 0.000008 4.427393 0.022801 -3.198267 -0.885806
  3   18.465939 0.000000 0.000000 0.000000 0.000000 -0.093642
  4   14.875443 0.000000 -0.000001 -0.042941 0.040424 -0.181435
  5   0.000006 -0.000004 -4.427393 0.006713 3.100057 0.179910
  6   18.465939 0.000000 0.000000 0.000000 0.000000 -1.378094
  7   14.875442 0.000000 0.000000 -0.031756 -0.006401 -0.236956
  8   2.255207 -0.007574 0.019535 0.001319 -0.009637 -0.136584
  9   9.514219 -0.009357 0.000000 0.000000 0.000000 0.196242
 10   11.751820 -0.001633 0.000000 0.000000 -0.000001 -0.109584
 11   -2.152654 -0.309256 2.649729 0.088019 -1.370041 3.164084
 12   4.640941 0.000000 -0.000001 1.014873 0.455170 1.325126
 13   10.828049 0.000000 0.000000 0.000000 0.000000 -0.652330
 14   9.393337 -0.000001 0.000000 -1.568926 0.118622 -0.085388
 15   1.442245 0.107454 -1.746177 1.742810 0.349042 0.431626
 16   1.063452 0.000000 0.000001 0.000000 0.000000 0.174535
 17   1.376307 -0.000001 0.000001 0.000000 0.000000 0.174529
 18   4.172846 -0.251366 -1.312744 0.069543 0.066333 0.874883
 19   1.215374 0.000002 0.000000 0.000000 0.000000 1.247894
 20   1.215371 -0.000002 0.000001 0.000000 0.000000 1.247894
 21   4.220534 -0.244854 -0.431465 0.018387 0.018764 0.872814
 22   1.350417 0.000000 0.000001 0.000000 0.000000 1.247901
 23   1.350410 -0.000001 -0.000001 0.000000 0.000000 1.247901
 24   -2.152654 -0.309243 -2.649726 -0.673145 1.317125 2.593047
 25   4.640942 0.000000 0.000001 -0.044717 -0.872420 -0.223800
 26   10.828047 0.000000 0.000001 0.000000 0.000000 -1.483370
 27   9.393339 0.000000 0.000000 1.568907 -0.118616 -0.085351
 28   1.442245 0.107455 1.746178 -1.742773 -0.349066 0.431617
 29   1.063450 -0.000001 0.000000 0.000000 0.000000 0.174535
 30   1.376307 0.000000 0.000000 0.000000 0.000000 0.174532
 31   4.172847 -0.251365 1.312745 -0.069543 -0.066333 0.874883
 32   1.215373 -0.000001 0.000000 0.000000 0.000000 1.247903
 33   1.215372 0.000000 0.000000 0.000000 0.000000 1.247903
 34   4.220534 -0.244853 0.431466 -0.018387 -0.018764 0.872814
 35   1.350416 0.000000 -0.000001 0.000000 0.000000 1.247903
 36   1.350410 0.000000 0.000001 0.000000 0.000000 1.247881
 37   2.110540 -0.000001 0.000000 0.000000 0.000000 0.058644
 38   0.891923 2.373051 -0.014527 -3.141592 -0.000001 1.413797
 39   7.228122 5.709445 3.726568 2.460147 -1.570796 0.000000
 40   2.450426 5.076128 0.001325 3.130434 -1.570796 0.000000
 41   6.312404 -4.528058 0.001311 3.294848 -1.570796 0.000000
 42   2.233309 1.152535 -7.309138 1.531639 -1.544613 -3.076235
 43   4.262825 -0.232720 -1.392178 0.058247 0.052627 0.874232
time 4
  0   1.039304 -52.348507 36.569424 0.000000 0.218026 -1.570843
  1   -1.468468 -0.066408 0.000000 -0.000030 -1.464733 -1.570772
  2   -0.000007 0.000008 4.427393 -0.045073 -3.285531 -0.661578
  3   18.465939 0.000000 0.000000 0.000000 0.000000 -0.205496
  4   14.875443 0.000000 -0.000001 -0.043482 0.045958 -0.230340
  5   0.000006 -0.000004 -4.427393 0.030632 3.022881 0.100081
  6   18.465939 0.000000 0.000000 0.000000 0.000000 -1.566274
  7   14.875442 0.000000 0.000000 -0.016910 -0.017070 0.192808
  8   2.243488 -0.007574 0.234385 0.086460 -0.052278 0.098636
  9   9.514219 -0.009357 0.000000 0.133180 -0.151905 0.058429
 10   11.751820 -0.001633 0.000000 0.000000 -0.000001 -0.125018
 11   -2.148747 -0.344414 2.649729 0.088019 -1.370041 3.179542
 12   4.640941 0.000000 -0.000001 0.898655 0.437537 1.032670
 13   10.828049 0.000000 0.000000 0.000000 0.000000 -0.722006
 14   9.393337 -0.000001 0.000000 -1.568926 0.118622 -0.085388
 15   1.442245 0.107454 -1.746177 1.742810 0.349042 0.431626
 16   1.063452 0.000000 0.000001 0.000000 0.000000 0.174535
 17   1.376307 -0.000001 0.000001 0.000000 0.000000 0.174529
 18   4.172846 -0.251366 -1.312744 0.069543 0.066333 0.874883
 19   1.215374 0.000002 0.000000 0.000000 0.000000 1.247894
 20   1.215371 -0.000002 0.000001 0.000000 0.000000 1.247894
 21   4.220534 -0.244854 -0.431465 0.018387 0.018764 0.872814
 22   1.350417 0.000000 0.000001 0.000000 0.000000 1.247901
 23   1.350410 -0.000001 -0.000001 0.000000 0.000000 1.247901
 24   -2.148747 -0.344401 -2.649726 0.414828 1.352823 3.671854
 25   4.640942 0.000000 0.000001 0.324139 -0.835947 -0.657410
 26   10.828047 0.000000 0.000001 0.000000 0.000000 -1.257897
 27   9.393339 0.000000 0.000000 1.568907 -0.118616 -0.085351
 28   1.442245 0.107455 1.746178 -1.742773 -0.349066 0.431617
 29   1.063450 -0.000001 0.000000 0.000000 0.000000 0.174535
 30   1.376307 0.000000 0.000000 0.000000 0.000000 0.174532
 31   4.172847 -0.251365 1.312745 -0.069543 -0.066333 0.874883
 32   1.215373 -0.000001 0.000000 0.000000 0.000000 1.247903
 33   1.215372 0.000000 0.000000 0.000000 0.000000 1.247903
 34   4.220534 -0.244853 0.431466 -0.018387 -0.018764 0.872814
 35   1.350416 0.000000 -0.000001 0.000000 0.000000 1.247903
 36   1.350410 0.000000 0.000001 0.000000 0.000000 1.247881
 37   2.110540 -0.000001 0.000000 -0.245654 0.069134 -0.028697
 38   0.891923 2.373051 -0.014527 -3.141592 -0.000001 1.413797
 39   7.228122 5.709445 3.726568 2.837515 -1.570796 0.000000
 40   2.450426 5.076128 0.001325 2.896446 -1.570796 0.000000
 41   6.312404 -4.528058 0.001311 3.223509 -1.570796 0.000000
 42   2.233309 1.152535 -7.309138 -1.531584 -1.658054 -0.065391
 43   4.262825 -0.232720 -1.392178 0.058247 0.052627 0.874232
time 5
  0   1.323269 -64.731880 37.358509 0.000000 0.218026 -1.570843
  1   -1.331745 -0.066408 0.000000 -0.000030 -1.381436 -1.570772
  2   -0.000007 0.000008 4.427393 -0.060156 -3.388239 -0.391816
  3   18.465939 0.000000 0.000000 0.000000 0.000000 -0.480892
  4   14.875443 0.000000 -0.000001 -0.023075 0.068370 0.320022
  5   0.000006 -0.000004 -4.427393 -0.026008 2.924546 -0.166454
  6   18.465939 0.000000 0.000000 0.000000 0.000000 -1.421677
  7   14.875442 0.000000 0.000000 -0.029685 0.007653 0.270883
  8   2.216143 -0.007574 0.421891 0.077639 -0.137380 0.082357
  9   9.514219 -0.009357 0.000000 0.126913 -0.145757 0.068690
 10   11.751820 -0.001633 0.000000 0.000000 -0.000001 0.042260
 11   -2.176092 0.018879 2.649729 0.229311 -1.365572 2.873821
 12   4.640941 0.000000 -0.000001 0.867464 0.519778 0.934561
 13   10.828049 0.000000 0.000000 0.000000 0.000000 -0.838966
 14   9.393337 -0.000001 0.000000 -1.568926 0.118622 -0.085388
 15   1.442245 0.107454 -1.746177 1.742810 0.349042 0.431626
 16   1.063452 0.000000 0.000001 0.000000 0.000000 0.174535
 17   1.376307 -0.000001 0.000001 0.000000 0.000000 0.174529
 18   4.172846 -0.251366 -1.312744 0.069543 0.066333 0.874883
 19   1.215374 0.000002 0.000000 0.000000 0.000000 1.247894
 20   1.215371 -0.000002 0.000001 0.000000 0.000000 1.247894
 21   4.220534 -0.244854 -0.431465 0.018387 0.018764 0.872814
 22   1.350417 0.000000 0.000001 0.000000 0.000000 1.247901
 23   1.350410 -0.000001 -0.000001 0.000000 0.000000 1.247901
 24   -2.176092 0.018892 -2.649726 -0.421642 1.352180 2.685854
 25   4.640942 0.000000 0.000001 0.202302 -1.051092 -0.117759
 26   10.828047 0.000000 0.000001 0.000000 0.000000 -1.456420
 27   9.393339 0.000000 0.000000 1.568907 -0.118616 -0.085351
 28   1.442245 0.107455 1.746178 -1.742773 -0.349066 0.431617
 29   1.063450 -0.000001 0.000000 0.000000 0.000000 0.174535
 30   1.376307 0.000000 0.000000 0.000000 0.000000 0.174532
 31   4.172847 -0.251365 1.312745 -0.069543 -0.066333 0.874883
 32   1.215373 -0.000001 0.000000 0.000000 0.000000 1.247903
 33   1.215372 0.000000 0.000000 0.000000 0.000000 1.247903
 34   4.220534 -0.244853 0.431466 -0.018387 -0.018764 0.872814
 35   1.350416 0.000000 -0.000001 0.000000 0.000000 1.247903
 36   1.350410 0.000000 0.000001 0.000000 0.000000 1.247881
 37   2.110540 -0.000001 0.000000 -0.235210 0.068632 -0.188975
 38   0.891923 2.373051 -0.014527 -3.141592 -0.000001 1.413797
 39   7.228122 5.709445 3.726568 3.140796 -1.570796 0.000000
 40   2.450426 5.076128 0.001325 3.001240 -1.570796 0.000000
 41   6.312404 -4.528058 0.001311 3.158243 -1.570796 0.000000
 42   2.233309 1.152535 -7.309138 -1.257293 -1.762787 -0.557879
 43   4.262825 -0.232720 -1.392178 0.058247 0.052627 0.874232
time 6
  0   0.998737 -78.133789 37.792118 0.000000 0.218026 -1.570843
  1   -0.995797 -0.062502 0.000000 -0.000030 -1.395994 -1.570772
  2   -0.000007 0.000008 4.427393 -0.000396 -3.371959 -0.030837
  3   18.465939 0.000000 0.000000 0.000000 0.000000 -0.335042
  4   14.875443 0.000000 -0.000001 -0.005485 0.055642 0.324802
  5   0.000006 -0.000004 -4.427393 -0.099582 2.937968 -0.467896
  6   18.465939 0.000000 0.000000 0.000000 0.000000 -1.218466
  7   14.875442 0.000000 0.000000 -0.025544 0.044889 0.281275
  8   2.223956 -0.007574 0.390640 0.075896 -0.128787 0.039442
  9   9.514219 -0.009357 0.000000 0.110262 -0.128738 0.094322
 10   11.751820 -0.001633 0.000000 0.000000 -0.000001 -0.056035
 11   -2.168279 -0.192065 2.649729 0.380924 -1.355807 2.823806
 12   4.640941 0.000000 -0.000001 0.817852 0.615243 0.822286
 13   10.828049 0.000000 0.000000 0.000000 0.000000 -0.964224
 14   9.393337 -0.000001 0.000000 -1.568926 0.118622 -0.085388
 15   1.442245 0.107454 -1.746177 1.742810 0.349042 0.431626
 16   1.063452 0.000000 0.000001 0.000000 0.000000 0.174535
 17   1.376307 -0.000001 0.000001 0.000000 0.000000 0.174529
 18   4.172846 -0.251366 -1.312744 0.069543 0.066333 0.874883
 19   1.215374 0.000002 0.000000 0.000000 0.000000 1.247894
 20   1.215371 -0.000002 0.000001 0.000000 0.000000 1.247894
 21   4.220534 -0.244854 -0.431465 0.018387 0.018764 0.872814
 22   1.350417 0.000000 0.000001 0.000000 0.000000 1.247901
 23   1.350410 -0.000001 -0.000001 0.000000 0.000000 1.247901
 24   -2.168279 -0.192052 -2.649726 -0.620026 1.326699 2.590983
 25   4.640942 0.000000 0.000001 -0.272132 -1.018245 0.446180
 26   10.828047 0.000000 0.000001 0.000000 0.000000 -1.212709
 27   9.393339 0.000000 0.000000 1.568907 -0.118616 -0.085351
 28   1.442245 0.107455 1.746178 -1.742773 -0.349066 0.431617
 29   1.063450 -0.000001 0.000000 0.000000 0.000000 0.174535
 30   1.376307 0.000000 0.000000 0.000000 0.000000 0.174532
 31   4.172847 -0.251365 1.312745 -0.069543 -0.066333 0.874883
 32   1.215373 -0.000001 0.000000 0.000000 0.000000 1.247903
 33   1.215372 0.000000 0.000000 0.000000 0.000000 1.247903
 34   4.220534 -0.244853 0.431466 -0.018387 -0.018764 0.872814
 35   1.350416 0.000000 -0.000001 0.000000 0.000000 1.247903
 36   1.350410 0.000000 0.000001 0.000000 0.000000 1.247881
 37   2.110540 -0.000001 0.000000 -0.206643 0.065782 -0.073078
 38   0.891923 2.373051 -0.014527 -3.141592 -0.000001 1.413797
 39   7.228122 5.709445 3.726568 3.099288 -1.570796 0.000000
 40   2.450426 5.076128 0.001325 3.088832 -1.570796 0.000000
 41   6.312404 -4.528058 0.001311 3.165846 -1.570796 0.000000
 42   2.233309 1.152535 -7.309138 -1.153942 -1.760806 -0.940458
 43   4.262825 -0.232720 -1.392178 0.058247 0.052627 0.874232
time 7
  0   0.714772 -90.517159 39.592953 0.000000 0.218026 -1.570843
  1   -0.550471 -0.054689 0.000000 -0.000030 -1.530857 -1.570772
  2   -0.000007 0.000008 4.427393 -0.016625 -3.235108 -0.099013
  3   18.465939 0.000000 0.000000 0.000000 0.000000 -0.604955
  4   14.875443 0.000000 -0.000001 -0.042713 0.035039 -0.510933
  5   0.000006 -0.000004 -4.427393 -0.075376 3.057834 -0.735273
  6   18.465939 0.000000 0.000000 0.000000 0.000000 -1.075575
  7   14.875442 0.000000 0.000000 -0.005574 0.072522 0.267919
  8   2.255207 -0.007574 0.085943 0.067810 -0.002745 -0.016376
  9   9.514219 -0.009357 0.000000 0.086526 -0.102972 0.127465
 10   11.751820 -0.001633 0.000000 0.000000 -0.000001 -0.169871
 11   -2.133122 -0.438166 2.649729 0.443071 -1.350082 2.876981
 12   4.640941 0.000000 -0.000001 0.744663 0.707953 0.682322
 13   10.828049 0.000000 0.000000 0.000000 0.000000 -1.081246
 14   9.393337 -0.000001 0.000000 -1.568926 0.118622 -0.085388
 15   1.442245 0.107454 -1.746177 1.742810 0.349042 0.431626
 16   1.063452 0.000000 0.000001 0.000000 0.000000 0.174535
 17   1.376307 -0.000001 0.000001 0.000000 0.000000 0.174529
 18   4.172846 -0.251366 -1.312744 0.069543 0.066333 0.874883
 19   1.215374 0.000002 0.000000 0.000000 0.000000 1.247894
 20   1.215371 -0.000002 0.000001 0.000000 0.000000 1.247894
 21   4.220534 -0.244854 -0.431465 0.018387 0.018764 0.872814
 22   1.350417 0.000000 0.000001 0.000000 0.000000 1.247901
 23   1.350410 -0.000001 -0.000001 0.000000 0.000000 1.247901
 24   -2.133122 -0.438153 -2.649726 -0.538811 1.338889 2.783753
 25   4.640942 0.000000 0.000001 -0.599775 -0.949901 0.802447
 26   10.828047 0.000000 0.000001 0.000000 0.000000 -1.112054
 27   9.393339 0.000000 0.000000 1.568907 -0.118616 -0.085351
 28   1.442245 0.107455 1.746178 -1.742773 -0.349066 0.431617
 29   1.063450 -0.000001 0.000000 0.000000 0.000000 0.174535
 30   1.376307 0.000000 0.000000 0.000000 0.000000 0.174532
 31   4.172847 -0.251365 1.312745 -0.069543 -0.066333 0.874883
 32   1.215373 -0.000001 0.000000 0.000000 0.000000 1.247903
 33   1.215372 0.000000 0.000000 0.000000 0.000000 1.247903
 34   4.220534 -0.244853 0.431466 -0.018387 -0.018764 0.872814
 35   1.350416 0.000000 -0.000001 0.000000 0.000000 1.247903
 36   1.350410 0.000000 0.000001 0.000000 0.000000 1.247881
 37   2.110540 -0.000001 0.000000 -0.164628 0.058185 0.064407
 38   0.891923 2.373051 -0.014527 -3.141592 -0.000001 1.413797
 39   7.228122 5.709445 3.726568 2.983219 -1.570796 0.000000
 40   2.450426 5.076128 0.001325 3.140791 -1.570796 0.000000
 41   6.312404 -4.528058 0.001311 3.187789 -1.570796 0.000000
 42   2.233309 1.152535 -7.309138 -1.152504 -1.649113 -1.142566
 43   4.262825 -0.232720 -1.392178 0.058247 0.052627 0.874232
time 8
  0   0.430807 -102.322456 40.069530 0.000000 0.218026 -1.570843
  1   -0.101238 -0.042970 0.000000 -0.000030 -1.568037 -1.570772
  2   -0.000007 0.000008 4.427393 -0.026267 -3.191755 0.020233
  3   18.465939 0.000000 0.000000 0.000000 0.000000 -0.683326
  4   14.875443 0.000000 -0.000001 -0.031613 0.044042 -0.445910
  5   0.000006 -0.000004 -4.427393 -0.062651 3.093253 -0.888755
  6   18.465939 0.000000 0.000000 0.000000 0.000000 -1.273995
  7   14.875442 0.000000 0.000000 -0.016243 0.074633 0.146174
  8   2.255207 -0.007574 0.003909 0.047796 0.023021 -0.072526
  9   9.514219 -0.009357 0.000000 0.058753 -0.070865 0.160414
 10   11.751820 -0.001633 0.000000 0.000000 -0.000001 -0.195961
 11   -2.121403 -0.492856 2.649729 0.396404 -1.354487 2.948637
 12   4.640941 0.000000 -0.000001 0.633799 0.793018 0.485166
 13   10.828049 0.000000 0.000000 0.000000 0.000000 -1.191861
 14   9.393337 -0.000001 0.000000 -1.568926 0.118622 -0.085388
 15   1.442245 0.107454 -1.746177 1.742810 0.349042 0.431626
 16   1.063452 0.000000 0.000001 0.000000 0.000000 0.174535
 17   1.376307 -0.000001 0.000001 0.000000 0.000000 0.174529
 18   4.172846 -0.251366 -1.312744 0.069543 0.066333 0.874883
 19   1.215374 0.000002 0.000000 0.000000 0.000000 1.247894
 20   1.215371 -0.000002 0.000001 0.000000 0.000000 1.247894
 21   4.220534 -0.244854 -0.431465 0.018387 0.018764 0.872814
 22   1.350417 0.000000 0.000001 0.000000 0.000000 1.247901
 23   1.350410 -0.000001 -0.000001 0.000000 0.000000 1.247901
 24   -2.121403 -0.492843 -2.649726 -0.402633 1.353945 2.942536
 25   4.640942 0.000000 0.000001 -0.821377 -0.825068 1.047075
 26   10.828047 0.000000 0.000001 0.000000 0.000000 -1.033934
 27   9.393339 0.000000 0.000000 1.568907 -0.118616 -0.085351
 28   1.442245 0.107455 1.746178 -1.742773 -0.349066 0.431617
 29   1.063450 -0.000001 0.000000 0.000000 0.000000 0.174535
 30   1.376307 0.000000 0.000000 0.000000 0.000000 0.174532
 31   4.172847 -0.251365 1.312745 -0.069543 -0.066333 0.874883
 32   1.215373 -0.000001 0.000000 0.000000 0.000000 1.247903
 33   1.215372 0.000000 0.000000 0.000000 0.000000 1.247903
 34   4.220534 -0.244853 0.431466 -0.018387 -0.018764 0.872814
 35   1.350416 0.000000 -0.000001 0.000000 0.000000 1.247903
 36   1.350410 0.000000 0.000001 0.000000 0.000000 1.247881
 37   2.110540 -0.000001 0.000000 -0.113694 0.044162 0.115152
 38   0.891923 2.373051 -0.014527 -3.141592 -0.000001 1.413797
 39   7.228122 5.709445 3.726568 2.824218 -1.570796 0.000000
 40   2.450426 5.076128 0.001325 3.142371 -1.570796 0.000000
 41   6.312404 -4.528058 0.001311 3.217131 -1.570796 0.000000
 42   2.233309 1.152535 -7.309138 -1.189511 -1.614425 -1.236487
 43   4.262825 -0.232720 -1.392178 0.058247 0.052627 0.874232
time 9
  0   0.146841 -116.192329 40.335163 0.000000 0.218026 -1.570843
  1   0.258148 -0.023438 0.000000 -3.141560 -1.555505 1.570772
  2   -0.000007 0.000008 4.427393 -0.035717 -3.176869 0.082075
  3   18.465939 0.000000 0.000000 0.000000 0.000000 -0.774125
  4   14.875443 0.000000 -0.000001 -0.045588 0.040807 -0.665510
  5   0.000006 -0.000004 -4.427393 -0.043803 3.138086 -0.917393
  6   18.465939 0.000000 0.000000 0.000000 0.000000 -0.628000
  7   14.875442 0.000000 0.000000 0.040051 0.041124 0.054781
  8   2.255207 -0.007574 -0.031248 0.023245 0.027983 -0.116731
  9   9.514219 -0.009357 0.000000 0.029357 -0.035367 0.185699
 10   11.751820 -0.001633 0.000000 0.000000 -0.000001 -0.195344
 11   -2.121403 -0.492856 2.649729 0.292445 -1.362185 3.049696
 12   4.640941 0.000000 -0.000001 0.463450 0.862586 0.217121
 13   10.828049 0.000000 0.000000 0.000000 0.000000 -1.304245
 14   9.393337 -0.000001 0.000000 -1.568926 0.118622 -0.085388
 15   1.442245 0.107454 -1.746177 1.742810 0.349042 0.431626
 16   1.063452 0.000000 0.000001 0.000000 0.000000 0.174535
 17   1.376307 -0.000001 0.000001 0.000000 0.000000 0.174529
 18   4.172846 -0.251366 -1.312744 0.069543 0.066333 0.874883
 19   1.215374 0.000002 0.000000 0.000000 0.000000 1.247894
 20   1.215371 -0.000002 0.000001 0.000000 0.000000 1.247894
 21   4.220534 -0.244854 -0.431465 0.018387 0.018764 0.872814
 22   1.350417 0.000000 0.000001 0.000000 0.000000 1.247901
 23   1.350410 -0.000001 -0.000001 0.000000 0.000000 1.247901
 24   -2.121403 -0.492843 -2.649726 -0.237306 1.365200 3.103659
 25   4.640942 0.000000 0.000001 -0.942185 -0.675059 1.193852
 26   10.828047 0.000000 0.000001 0.000000 0.000000 -0.957499
 27   9.393339 0.000000 0.000000 1.568907 -0.118616 -0.085351
 28   1.442245 0.107455 1.746178 -1.742773 -0.349066 0.431617
 29   1.063450 -0.000001 0.000000 0.000000 0.000000 0.174535
 30   1.376307 0.000000 0.000000 0.000000 0.000000 0.174532
 31   4.172847 -0.251365 1.312745 -0.069543 -0.066333 0.874883
 32   1.215373 -0.000001 0.000000 0.000000 0.000000 1.247903
 33   1.215372 0.000000 0.000000 0.000000 0.000000 1.247903
 34   4.220534 -0.244853 0.431466 -0.018387 -0.018764 0.872814
 35   1.350416 0.000000 -0.000001 0.000000 0.000000 1.247903
 36   1.350410 0.000000 0.000001 0.000000 0.000000 1.247881
 37   2.110540 -0.000001 0.000000 -0.057849 0.023967 0.134633
 38   0.891923 2.373051 -0.014527 -3.141592 -0.000001 1.413797
 39   7.228122 5.709445 3.726568 2.653913 -1.570796 0.000000
 40   2.450426 5.076128 0.001325 3.128504 -1.570796 0.000000
 41   6.312404 -4.528058 0.001311 3.246932 -1.570796 0.000000
 42   2.233309 1.152535 -7.309138 -2.443428 -1.570796 0.000000
 43   4.262825 -0.232720 -1.392178 0.058247 0.052627 0.874232
time 10
  0   -0.157407 -127.970100 40.928932 0.000000 0.218026 -1.570843
  1   0.422215 0.000000 0.000000 -0.000030 -1.591692 -1.570772
  2   -0.000007 0.000008 4.427393 -0.037531 -3.163380 0.130452
  3   18.465939 0.000000 0.000000 0.000000 0.000000 -0.927943
  4   14.875443 0.000000 -0.000001 -0.047495 0.027632 -0.802350
  5   0.000006 -0.000004 -4.427393 -0.030026 3.177047 -0.891282
  6   18.465939 0.000000 0.000000 0.000000 0.000000 -0.001959
  7   14.875442 0.000000 0.000000 0.047667 -0.019448 -0.061298
  8   2.255207 -0.007574 -0.046873 -0.002839 0.020696 -0.136584
  9   9.514219 -0.009357 0.000000 0.000000 0.000000 0.196242
 10   11.751820 -0.001633 0.000000 0.000000 -0.000001 -0.187989
 11   -2.125309 -0.477230 2.649729 0.162839 -1.368196 3.169168
 12   4.640941 0.000000 -0.000001 0.240936 0.896474 -0.091666
 13   10.828049 0.000000 0.000000 0.000000 0.000000 -1.411322
 14   9.393337 -0.000001 0.000000 -1.568926 0.118622 -0.085388
 15   1.442245 0.107454 -1.746177 1.742810 0.349042 0.431626
 16   1.063452 0.000000 0.000001 0.000000 0.000000 0.174535
 17   1.376307 -0.000001 0.000001 0.000000 0.000000 0.174529
 18   4.172846 -0.251366 -1.312744 0.069543 0.066333 0.874883
 19   1.215374 0.000002 0.000000 0.000000 0.000000 1.247894
 20   1.215371 -0.000002 0.000001 0.000000 0.000000 1.247894
 21   4.220534 -0.244854 -0.431465 0.018387 0.018764 0.872814
 22   1.350417 0.000000 0.000001 0.000000 0.000000 1.247901
 23   1.350410 -0.000001 -0.000001 0.000000 0.000000 1.247901
 24   -2.125309 -0.477217 -2.649726 -0.088046 1.370039 3.242491
 25   4.640942 0.000000 0.000001 -0.993482 -0.524910 1.278054
 26   10.828047 0.000000 0.000001 0.000000 0.000000 -0.861954
 27   9.393339 0.000000 0.000000 1.568907 -0.118616 -0.085351
 28   1.442245 0.107455 1.746178 -1.742773 -0.349066 0.431617
 29   1.063450 -0.000001 0.000000 0.000000 0.000000 0.174535
 30   1.376307 0.000000 0.000000 0.000000 0.000000 0.174532
 31   4.172847 -0.251365 1.312745 -0.069543 -0.066333 0.874883
 32   1.215373 -0.000001 0.000000 0.000000 0.000000 1.247903
 33   1.215372 0.000000 0.000000 0.000000 0.000000 1.247903
 34   4.220534 -0.244853 0.431466 -0.018387 -0.018764 0.872814
 35   1.350416 0.000000 -0.000001 0.000000 0.000000 1.247903
 36   1.350410 0.000000 0.000001 0.000000 0.000000 1.247881
 37   2.110540 -0.000001 0.000000 0.000000 0.000000 0.137042
 38   0.891923 2.373051 -0.014527 -3.141592 -0.000001 1.413797
 39   7.228122 5.709445 3.726568 2.503840 -1.570796 0.000000
 40   2.450426 5.076128 0.001325 3.101032 -1.570796 0.000000
 41   6.312404 -4.528058 0.001311 3.270354 -1.570796 0.000000
 42   2.233309 1.152535 -7.309138 -1.186251 -1.535904 -1.231030
 43   4.262825 -0.232720 -1.392178 0.058247 0.052627 0.874232
time 11
  0   -0.583354 -139.252365 39.467949 0.000000 0.218026 -1.570843
  1   -0.253587 0.105472 0.000000 -0.000030 -1.537138 -1.570772
  2   -0.000007 0.000008 4.427393 0.000940 -3.142633 0.166909
  3   18.465939 0.000000 0.000000 0.000000 0.000000 -1.384572
  4   14.875443 0.000000 -0.000001 0.031743 0.006391 -0.243337
  5   0.000006 -0.000004 -4.427393 -0.058824 3.165769 -0.783470
  6   18.465939 0.000000 0.000000 0.000000 0.000000 0.136731
  7   14.875442 0.000000 0.000000 0.043841 -0.040215 -0.336002
  8   2.255207 -0.007574 0.074224 -0.055112 -0.047041 -0.052243
  9   9.514219 -0.009357 0.000000 -0.054175 0.053571 0.144957
 10   11.751820 -0.001633 0.000000 0.000000 -0.000001 -0.184526
 11   -2.129216 -0.469417 2.649729 0.050078 -1.370550 3.276273
 12   4.640941 0.000000 -0.000001 -0.062234 0.888208 -0.384004
 13   10.828049 0.000000 0.000000 0.000000 0.000000 -1.505830
 14   9.393337 -0.000001 0.000000 -1.568926 0.118622 -0.085388
 15   1.442245 0.107454 -1.746177 1.742810 0.349042 0.431626
 16   1.063452 0.000000 0.000001 0.000000 0.000000 0.174535
 17   1.376307 -0.000001 0.000001 0.000000 0.000000 0.174529
 18   4.172846 -0.251366 -1.312744 0.069543 0.066333 0.874883
 19   1.215374 0.000002 0.000000 0.000000 0.000000 1.247894
 20   1.215371 -0.000002 0.000001 0.000000 0.000000 1.247894
 21   4.220534 -0.244854 -0.431465 0.018387 0.018764 0.872814
 22   1.350417 0.000000 0.000001 0.000000 0.000000 1.247901
 23   1.350410 -0.000001 -0.000001 0.000000 0.000000 1.247901
 24   -2.129216 -0.469404 -2.649726 -0.088046 1.370039 3.239052
 25   4.640942 0.000000 0.000001 -0.962148 -0.448616 1.184823
 26   10.828047 0.000000 0.000001 0.000000 0.000000 -0.652338
 27   9.393339 0.000000 0.000000 1.568907 -0.118616 -0.085351
 28   1.442245 0.107455 1.746178 -1.742773 -0.349066 0.431617
 29   1.063450 -0.000001 0.000000 0.000000 0.000000 0.174535
 30   1.376307 0.000000 0.000000 0.000000 0.000000 0.174532
 31   4.172847 -0.251365 1.312745 -0.069543 -0.066333 0.874883
 32   1.215373 -0.000001 0.000000 0.000000 0.000000 1.247903
 33   1.215372 0.000000 0.000000 0.000000 0.000000 1.247903
 34   4.220534 -0.244853 0.431466 -0.018387 -0.018764 0.872814
 35   1.350416 0.000000 -0.000001 0.000000 0.000000 1.247903
 36   1.350410 0.000000 0.000001 0.000000 0.000000 1.247881
 37   2.110540 -0.000001 0.000000 0.116079 -0.038883 0.098854
 38   0.891923 2.373051 -0.014527 -3.141592 -0.000001 1.413797
 39   7.228122 5.709445 3.726568 2.364215 -1.570796 0.000000
 40   2.450426 5.076128 0.001325 3.062327 -1.570796 0.000000
 41   6.312404 -4.528058 0.001311 3.280407 -1.570796 0.000000
 42   2.233309 1.152535 -7.309138 -1.160174 -1.535904 -1.178564
 43   4.262825 -0.232720 -1.392178 0.058247 0.052627 0.874232
time 12
  0   -0.989019 -152.213837 36.096752 0.000000 0.218026 -1.570843
  1   -1.202834 0.257820 0.000000 -0.000030 -1.640441 -1.570772
  2   -0.000007 0.000008 4.427393 0.003613 -3.025040 0.056141
  3   18.465939 0.000000 0.000000 0.000000 0.000000 -1.741555
  4   14.875443 0.000000 -0.000001 0.044067 -0.018065 0.400728
  5   0.000006 -0.000004 -4.427393 0.020203 3.267646 -0.657503
  6   18.465939 0.000000 0.000000 0.000000 0.000000 -0.001959
  7   14.875442 0.000000 0.000000 0.052019 -0.053071 -0.468852
  8   2.251301 -0.007574 -0.152345 -0.116857 0.051089 0.068592
  9   9.514219 -0.009357 0.000000 -0.116134 0.104362 0.069794
 10   11.751820 -0.001633 0.000000 0.000000 -0.000001 -0.149310
 11   -2.140935 -0.395196 2.649729 -0.000080 -1.370788 3.290220
 12   4.640941 0.000000 -0.000001 -0.318936 0.830350 -0.560320
 13   10.828049 0.000000 0.000000 0.000000 0.000000 -1.580631
 14   9.393337 -0.000001 0.000000 -1.568926 0.118622 -0.085388
 15   1.442245 0.107454 -1.746177 1.742810 0.349042 0.431626
 16   1.063452 0.000000 0.000001 0.000000 0.000000 0.174535
 17   1.376307 -0.000001 0.000001 0.000000 0.000000 0.174529
 18   4.172846 -0.251366 -1.312744 0.069543 0.066333 0.874883
 19   1.215374 0.000002 0.000000 0.000000 0.000000 1.247894
 20   1.215371 -0.000002 0.000001 0.000000 0.000000 1.247894
 21   4.220534 -0.244854 -0.431465 0.018387 0.018764 0.872814
 22   1.350417 0.000000 0.000001 0.000000 0.000000 1.247901
 23   1.350410 -0.000001 -0.000001 0.000000 0.000000 1.247901
 24   -2.140935 -0.395183 -2.649726 -0.088046 1.370039 3.203828
 25   4.640942 0.000000 0.000001 -0.914967 -0.424486 1.039026
 26   10.828047 0.000000 0.000001 0.000000 0.000000 -0.722036
 27   9.393339 0.000000 0.000000 1.568907 -0.118616 -0.085351
 28   1.442245 0.107455 1.746178 -1.742773 -0.349066 0.431617
 29   1.063450 -0.000001 0.000000 0.000000 0.000000 0.174535
 30   1.376307 0.000000 0.000000 0.000000 0.000000 0.174532
 31   4.172847 -0.251365 1.312745 -0.069543 -0.066333 0.874883
 32   1.215373 -0.000001 0.000000 0.000000 0.000000 1.247903
 33   1.215372 0.000000 0.000000 0.000000 0.000000 1.247903
 34   4.220534 -0.244853 0.431466 -0.018387 -0.018764 0.872814
 35   1.350416 0.000000 -0.000001 0.000000 0.000000 1.247903
 36   1.350410 0.000000 0.000001 0.000000 0.000000 1.247881
 37   2.110540 -0.000001 0.000000 0.248993 -0.062794 0.013834
 38   0.891923 2.373051 -0.014527 -3.141592 -0.000001 1.413797
 39   7.228122 5.709445 3.726568 2.708528 -1.570796 0.000000
 40   2.450426 5.076128 0.001325 2.922688 -1.570796 0.000000
 41   6.312404 -4.528058 0.001311 3.227745 -1.570796 0.000000
 42   2.233309 1.152535 -7.309138 -1.130166 -1.439909 -1.060229
 43   4.262825 -0.232720 -1.392178 0.058247 0.052627 0.874232
time 13
  0   -1.293267 -164.404526 36.639740 0.000000 0.218026 -1.570843
  1   -1.202834 0.257820 0.000000 -0.000030 -1.710689 -1.570772
  2   -0.000007 0.000008 4.427393 -0.000301 -2.954893 0.056790
  3   18.465939 0.000000 0.000000 0.000000 0.000000 -1.741555
  4   14.875443 0.000000 -0.000001 0.044067 -0.018065 0.400728
  5   0.000006 -0.000004 -4.427393 0.078757 3.347712 -0.578048
  6   18.465939 0.000000 0.000000 0.000000 0.000000 -0.712146
  7   14.875442 0.000000 0.000000 0.030996 -0.082967 0.328847
  8   2.235675 -0.007574 -0.312507 -0.112006 0.121175 0.069023
  9   9.514219 -0.009357 0.000000 -0.116134 0.104362 0.069794
 10   11.751820 -0.001633 0.000000 0.000000 -0.000001 0.014962
 11   -2.176092 -0.039717 2.649729 0.421596 -1.352181 2.713197
 12   4.640941 0.000000 -0.000001 -0.182922 1.049315 -0.084290
 13   10.828049 0.000000 0.000000 0.000000 0.000000 -1.456410
 14   9.393337 -0.000001 0.000000 -1.568926 0.118622 -0.085388
 15   1.442245 0.107454 -1.746177 1.742810 0.349042 0.431626
 16   1.063452 0.000000 0.000001 0.000000 0.000000 0.174535
 17   1.376307 -0.000001 0.000001 0.000000 0.000000 0.174529
 18   4.172846 -0.251366 -1.312744 0.069543 0.066333 0.874883
 19   1.215374 0.000002 0.000000 0.000000 0.000000 1.247894
 20   1.215371 -0.000002 0.000001 0.000000 0.000000 1.247894
 21   4.220534 -0.244854 -0.431465 0.018387 0.018764 0.872814
 22   1.350417 0.000000 0.000001 0.000000 0.000000 1.247901
 23   1.350410 -0.000001 -0.000001 0.000000 0.000000 1.247901
 24   -2.176092 -0.039704 -2.649726 -0.176461 1.367734 2.952856
 25   4.640942 0.000000 0.000001 -0.900406 -0.473303 0.968192
 26   10.828047 0.000000 0.000001 0.000000 0.000000 -0.784531
 27   9.393339 0.000000 0.000000 1.568907 -0.118616 -0.085351
 28   1.442245 0.107455 1.746178 -1.742773 -0.349066 0.431617
 29   1.063450 -0.000001 0.000000 0.000000 0.000000 0.174535
 30   1.376307 0.000000 0.000000 0.000000 0.000000 0.174532
 31   4.172847 -0.251365 1.312745 -0.069543 -0.066333 0.874883
 32   1.215373 -0.000001 0.000000 0.000000 0.000000 1.247903
 33   1.215372 0.000000 0.000000 0.000000 0.000000 1.247903
 34   4.220534 -0.244853 0.431466 -0.018387 -0.018764 0.872814
 35   1.350416 0.000000 -0.000001 0.000000 0.000000 1.247903
 36   1.350410 0.000000 0.000001 0.000000 0.000000 1.247881
 37   2.110540 -0.000001 0.000000 0.248993 -0.062794 -0.150357
 38   0.891923 2.373051 -0.014527 -3.141592 -0.000001 1.413797
 39   7.228122 5.709445 3.726568 3.140796 -1.570796 0.000000
 40   2.450426 5.076128 0.001325 3.027395 -1.570796 0.000000
 41   6.312404 -4.528058 0.001311 3.166969 -1.570796 0.000000
 42   2.233309 1.152535 -7.309138 -1.128344 -1.361388 -0.974829
 43   4.262825 -0.232720 -1.392178 0.058247 0.052627 0.874232
time 14
  0   -1.029586 -177.999100 37.171005 0.000000 0.218026 -1.570843
  1   -0.937201 0.187506 0.000000 -0.000030 -1.575912 -1.570772
  2   -0.000007 0.000008 4.427393 0.040270 -3.069696 -0.474006
  3   18.465939 0.000000 0.000000 0.000000 0.000000 -1.636207
  4   14.875443 0.000000 -0.000001 0.058953 -0.050076 0.256935
  5   0.000006 -0.000004 -4.427393 -0.005150 3.221974 0.011735
  6   18.465939 0.000000 0.000000 0.000000 0.000000 -0.411596
  7   14.875442 0.000000 0.000000 0.006078 -0.075265 0.398330
  8   2.255207 -0.007574 -0.007810 -0.085628 -0.007971 0.035339
  9   9.514219 -0.009357 0.000000 -0.082251 0.073166 0.085338
 10   11.751820 -0.001633 0.000000 0.000000 -0.000001 -0.016953
 11   -2.172186 -0.110031 2.649729 0.619952 -1.326704 2.551955
 12   4.640941 0.000000 -0.000001 0.291038 0.991939 0.436814
 13   10.828049 0.000000 0.000000 0.000000 0.000000 -1.212666
 14   9.393337 -0.000001 0.000000 -1.568926 0.118622 -0.085388
 15   1.442245 0.107454 -1.746177 1.742810 0.349042 0.431626
 16   1.063452 0.000000 0.000001 0.000000 0.000000 0.174535
 17   1.376307 -0.000001 0.000001 0.000000 0.000000 0.174529
 18   4.172846 -0.251366 -1.312744 0.069543 0.066333 0.874883
 19   1.215374 0.000002 0.000000 0.000000 0.000000 1.247894
 20   1.215371 -0.000002 0.000001 0.000000 0.000000 1.247894
 21   4.220534 -0.244854 -0.431465 0.018387 0.018764 0.872814
 22   1.350417 0.000000 0.000001 0.000000 0.000000 1.247901
 23   1.350410 -0.000001 -0.000001 0.000000 0.000000 1.247901
 24   -2.172186 -0.110018 -2.649726 -0.314482 1.360777 2.849660
 25   4.640942 0.000000 0.000001 -0.858988 -0.606645 0.883780
 26   10.828047 0.000000 0.000001 0.000000 0.000000 -0.938099
 27   9.393339 0.000000 0.000000 1.568907 -0.118616 -0.085351
 28   1.442245 0.107455 1.746178 -1.742773 -0.349066 0.431617
 29   1.063450 -0.000001 0.000000 0.000000 0.000000 0.174535
 30   1.376307 0.000000 0.000000 0.000000 0.000000 0.174532
 31   4.172847 -0.251365 1.312745 -0.069543 -0.066333 0.874883
 32   1.215373 -0.000001 0.000000 0.000000 0.000000 1.247903
 33   1.215372 0.000000 0.000000 0.000000 0.000000 1.247903
 34   4.220534 -0.244853 0.431466 -0.018387 -0.018764 0.872814
 35   1.350416 0.000000 -0.000001 0.000000 0.000000 1.247903
 36   1.350410 0.000000 0.000001 0.000000 0.000000 1.247881
 37   2.110540 -0.000001 0.000000 0.175358 -0.048101 -0.098279
 38   0.891923 2.373051 -0.014527 -3.141592 -0.000001 1.413797
 39   7.228122 5.709445 3.726568 3.140796 -1.570796 0.000000
 40   2.450426 5.076128 0.001325 3.062327 -1.570796 0.000000
 41   6.312404 -4.528058 0.001311 3.182788 -1.570796 0.000000
 42   2.233309 1.152535 -7.309138 -0.823470 -1.471189 -0.843281
 43   4.262825 -0.232720 -1.392178 0.058247 0.052627 0.874232
time 15
  0   0.167121 -189.006104 40.550014 0.000000 0.218026 -1.570843
  1   -0.620785 0.000000 0.000000 -0.000030 -1.484710 -1.570772
  2   -0.000007 0.000008 4.427393 -0.006315 -3.149146 -0.899621
  3   18.465939 0.000000 0.000000 0.000000 0.000000 -1.281344
  4   14.875443 0.000000 -0.000001 0.016260 -0.074638 0.141269
  5   0.000006 -0.000004 -4.427393 0.028432 3.103320 0.031763
  6   18.465939 0.000000 0.000000 0.000000 0.000000 -0.667119
  7   14.875442 0.000000 0.000000 0.031593 -0.044057 -0.450656
  8   2.235675 -0.007574 0.191415 0.009972 -0.085511 -0.116268
  9   9.514219 -0.009357 0.000000 0.000000 0.000000 0.213236
 10   11.751820 -0.001633 0.000000 0.000000 -0.000001 -0.045459
 11   -2.164373 -0.172533 2.649729 0.394203 -1.354678 2.800311
 12   4.640941 0.000000 -0.000001 0.766669 0.786475 0.893702
 13   10.828049 0.000000 0.000000 0.000000 0.000000 -1.035182
 14   9.393337 -0.000001 0.000000 -1.568926 0.118622 -0.085388
 15   1.442245 0.107454 -1.746177 1.742810 0.349042 0.431626
 16   1.063452 0.000000 0.000001 0.000000 0.000000 0.174535
 17   1.376307 -0.000001 0.000001 0.000000 0.000000 0.174529
 18   4.172846 -0.251366 -1.312744 0.069543 0.066333 0.874883
 19   1.215374 0.000002 0.000000 0.000000 0.000000 1.247894
 20   1.215371 -0.000002 0.000001 0.000000 0.000000 1.247894
 21   4.220534 -0.244854 -0.431465 0.018387 0.018764 0.872814
 22   1.350417 0.000000 0.000001 0.000000 0.000000 1.247901
 23   1.350410 -0.000001 -0.000001 0.000000 0.000000 1.247901
 24   -2.164373 -0.172520 -2.649726 -0.550971 1.337227 2.647465
 25   4.640942 0.000000 0.000001 -0.621745 -0.860146 0.623334
 26   10.828047 0.000000 0.000001 0.000000 0.000000 -1.188141
 27   9.393339 0.000000 0.000000 1.568907 -0.118616 -0.085351
 28   1.442245 0.107455 1.746178 -1.742773 -0.349066 0.431617
 29   1.063450 -0.000001 0.000000 0.000000 0.000000 0.174535
 30   1.376307 0.000000 0.000000 0.000000 0.000000 0.174532
 31   4.172847 -0.251365 1.312745 -0.069543 -0.066333 0.874883
 32   1.215373 -0.000001 0.000000 0.000000 0.000000 1.247903
 33   1.215372 0.000000 0.000000 0.000000 0.000000 1.247903
 34   4.220534 -0.244853 0.431466 -0.018387 -0.018764 0.872814
 35   1.350416 0.000000 -0.000001 0.000000 0.000000 1.247903
 36   1.350410 0.000000 0.000001 0.000000 0.000000 1.247881
 37   2.110540 -0.000001 0.000000 0.000000 0.000000 -0.043233
 38   0.891923 2.373051 -0.014527 -3.141592 -0.000001 1.413797
 39   7.228122 5.709445 3.726568 3.140796 -1.570796 0.000000
 40   2.450426 5.076128 0.001325 3.079792 -1.570796 0.000000
 41   6.312404 -4.528058 0.001311 3.228051 -1.570796 0.000000
 42   2.233309 1.152535 -7.309138 -1.454790 -1.588242 -0.194544
 43   4.262825 -0.232720 -1.392178 0.058247 0.052627 0.874232
end
