version 1
nodes
  0 "Bip01" -1
  1 "Bip01 Pelvis" 0
  2 "Bip01 L Thigh" 1
  3 "Bip01 L Calf" 2
  4 "Bip01 L Foot" 3
  5 "Bip01 R Thigh" 1
  6 "Bip01 R Calf" 5
  7 "Bip01 R Foot" 6
  8 "Bip01 Spine" 1
  9 "Bip01 Spine1" 8
 10 "Bip01 Neck" 9
 11 "Bip01 L Clavicle" 10
 12 "Bip01 L UpperArm" 11
 13 "Bip01 L Forearm" 12
 14 "Bip01 L Hand" 13
 15 "Bip01 L Finger0" 14
 16 "Bip01 L Finger01" 15
 17 "Bip01 L Finger02" 16
 18 "Bip01 L Finger1" 14
 19 "Bip01 L Finger11" 18
 20 "Bip01 L Finger12" 19
 21 "Bip01 L Finger2" 14
 22 "Bip01 L Finger21" 21
 23 "Bip01 L Finger22" 22
 24 "Bip01 R Clavicle" 10
 25 "Bip01 R UpperArm" 24
 26 "Bip01 R Forearm" 25
 27 "Bip01 R Hand" 26
 28 "Bip01 R Finger0" 27
 29 "Bip01 R Finger01" 28
 30 "Bip01 R Finger02" 29
 31 "Bip01 R Finger1" 27
 32 "Bip01 R Finger11" 31
 33 "Bip01 R Finger12" 32
 34 "Bip01 R Finger2" 27
 35 "Bip01 R Finger21" 34
 36 "Bip01 R Finger22" 35
 37 "Bip01 Head" 10
 38 "Bone05" 37
 39 "Bone08" 9
 40 "Bone16" 8
 41 "Bone01" 8
 42 "Bone03" 1
 43 "Bip01 R Finger4" 27
end
skeleton
time 0
  0   1.262422 7.480343 37.846806 -0.033268 0.165038 -1.637382
  1   -2.218490 0.320322 0.000000 -0.000030 -1.518469 -1.570772
  2   -0.000007 0.000008 4.427393 -0.162777 -3.134446 -0.219057
  3   18.465939 0.000000 0.000000 0.000000 0.000000 -0.476871
  4   14.875443 0.000000 -0.000001 0.042473 -0.010381 0.401360
  5   0.000006 -0.000004 -4.427393 0.086219 3.101828 -0.563448
  6   18.465939 0.000000 0.000000 0.000000 0.000000 -0.425905
  7   14.875442 0.000000 0.000000 0.049808 -0.016157 0.026831
  8   2.255207 -0.007574 0.117194 -0.065004 0.013362 0.091092
  9   9.514219 -0.009357 0.000000 -0.005687 -0.105644 0.245016
 10   11.751820 -0.001633 0.000000 0.024736 0.088577 0.791361
 11   -1.812800 1.557988 2.462223 -0.111854 -1.315476 2.459277
 12   4.640941 0.000000 -0.000001 -0.444291 0.632394 -1.470935
 13   10.828049 0.000000 0.000000 0.000000 0.000000 -0.839881
 14   9.393337 -0.000001 0.000000 -2.598065 -0.122271 0.869080
 15   1.442245 0.107454 -1.746177 1.545041 0.350655 0.094987
 16   1.063452 0.000000 0.000001 0.000000 0.000000 0.199056
 17   1.376307 -0.000001 0.000001 0.000000 0.000000 0.199049
 18   4.172846 -0.251366 -1.312744 0.008014 -0.043889 0.147537
 19   1.215374 0.000002 0.000000 0.000000 0.000000 0.645758
 20   1.215371 -0.000002 0.000001 0.000000 0.000000 0.881369
 21   4.220534 -0.244854 -0.431465 0.001333 0.026242 0.148339
 22   1.350417 0.000000 0.000001 0.000000 0.000000 0.733035
 23   1.350410 -0.000001 -0.000001 0.000000 0.000000 1.256600
 24   -1.344035 1.425185 -2.813793 0.623002 1.349417 2.949691
 25   4.640942 0.000000 0.000001 0.403837 -0.523446 -1.634032
 26   10.828047 0.000000 0.000001 0.000000 0.000000 -0.662095
 27   9.393339 0.000000 0.000000 2.399398 -0.161560 0.700175
 28   1.442245 0.107455 1.746178 -2.449551 -0.338953 0.923133
 29   1.063450 -0.000001 0.000000 0.000000 0.000000 0.366516
 30   1.376307 0.000000 0.000000 0.000000 0.000000 0.811565
 31   4.172847 -0.251365 1.312745 -0.000488 -0.096055 0.069757
 32   1.215373 -0.000001 0.000000 0.000000 0.000000 0.130882
 33   1.215372 0.000000 0.000000 0.000000 0.000000 1.151880
 34   4.220534 -0.244853 0.431466 -0.011400 0.078000 0.147658
 35   1.350416 0.000000 -0.000001 0.000000 0.000000 0.977377
 36   1.350410 0.000000 0.000001 0.000000 0.000000 1.518434
 37   2.110540 -0.000001 0.000000 0.075876 0.104721 -0.119781
 38   0.891923 2.373051 -0.014527 -3.141592 -0.000001 1.413797
 39   7.228122 5.709445 3.726568 3.140796 -1.570796 0.000000
 40   2.450426 5.076128 0.001325 3.062327 -1.570796 0.000000
 41   6.312404 -4.528058 0.001311 3.140791 -1.570796 0.000000
 42   2.233309 1.152535 -7.309138 -1.130166 -1.544642 -1.060229
 43   4.262825 -0.232720 -1.392178 0.021250 -0.052274 0.146778
time 1
  0   1.262422 7.480343 37.870243 -0.033268 0.165038 -1.637382
  1   -2.070048 0.312510 0.000000 -0.000030 -1.518469 -1.570772
  2   -0.000007 0.000008 4.427393 -0.162586 -3.134726 -0.211775
  3   18.465939 0.000000 0.000000 0.000000 0.000000 -0.470291
  4   14.875443 0.000000 -0.000001 0.042331 -0.011318 0.402031
  5   0.000006 -0.000004 -4.427393 0.086219 3.101735 -0.562419
  6   18.465939 0.000000 0.000000 0.000000 0.000000 -0.433650
  7   14.875442 0.000000 0.000000 0.049773 -0.015967 0.035535
  8   2.255207 -0.007574 0.117194 -0.065172 0.012451 0.077129
  9   9.514219 -0.009357 0.000000 -0.005687 -0.105644 0.245016
 10   11.751820 -0.001633 0.000000 0.024736 0.088577 0.791361
 11   -1.812800 1.557988 2.462223 -0.111854 -1.315476 2.459277
 12   4.640941 0.000000 -0.000001 -0.365846 0.719938 -1.380025
 13   10.828049 0.000000 0.000000 0.000000 0.000000 -1.033595
 14   9.393337 -0.000001 0.000000 -2.570340 -0.370644 0.846075
 15   1.442245 0.107454 -1.746177 1.545041 0.350655 0.094987
 16   1.063452 0.000000 0.000001 0.000000 0.000000 0.199056
 17   1.376307 -0.000001 0.000001 0.000000 0.000000 0.199049
 18   4.172846 -0.251366 -1.312744 0.008014 -0.043889 0.147537
 19   1.215374 0.000002 0.000000 0.000000 0.000000 0.645758
 20   1.215371 -0.000002 0.000001 0.000000 0.000000 0.881369
 21   4.220534 -0.244854 -0.431465 0.001333 0.026242 0.148339
 22   1.350417 0.000000 0.000001 0.000000 0.000000 0.733035
 23   1.350410 -0.000001 -0.000001 0.000000 0.000000 1.256600
 24   -1.344035 1.425185 -2.813793 0.623002 1.349417 2.949691
 25   4.640942 0.000000 0.000001 0.293011 -0.620174 -1.454428
 26   10.828047 0.000000 0.000001 0.000000 0.000000 -0.998562
 27   9.393339 0.000000 0.000000 2.419652 0.051793 0.706722
 28   1.442245 0.107455 1.746178 -2.449551 -0.338953 0.923133
 29   1.063450 -0.000001 0.000000 0.000000 0.000000 0.366516
 30   1.376307 0.000000 0.000000 0.000000 0.000000 0.811565
 31   4.172847 -0.251365 1.312745 -0.000488 -0.096055 0.069757
 32   1.215373 -0.000001 0.000000 0.000000 0.000000 0.130882
 33   1.215372 0.000000 0.000000 0.000000 0.000000 1.151880
 34   4.220534 -0.244853 0.431466 -0.011400 0.078000 0.147658
 35   1.350416 0.000000 -0.000001 0.000000 0.000000 0.977377
 36   1.350410 0.000000 0.000001 0.000000 0.000000 1.518434
 37   2.110540 -0.000001 0.000000 0.076591 0.103325 -0.097418
 38   0.891923 2.373051 -0.014527 -3.141592 -0.000001 1.413797
 39   7.228122 5.709445 3.726568 3.140796 -1.570796 0.000000
 40   2.450426 5.076128 0.001325 3.062327 -1.570796 0.000000
 41   6.312404 -4.528058 0.001311 3.140791 -1.570796 0.000000
 42   2.233309 1.152535 -7.309138 -1.130166 -1.544642 -1.060229
 43   4.262825 -0.232720 -1.392178 0.021250 -0.052274 0.146778
time 2
  0   1.262422 7.480343 37.897591 -0.033268 0.165038 -1.637382
  1   -1.902075 0.304697 0.000000 -0.000030 -1.518469 -1.570772
  2   -0.000007 0.000008 4.427393 -0.162395 -3.135005 -0.203446
  3   18.465939 0.000000 0.000000 0.000000 0.000000 -0.462761
  4   14.875443 0.000000 -0.000001 0.042160 -0.012424 0.402821
  5   0.000006 -0.000004 -4.427393 0.086219 3.101642 -0.561296
  6   18.465939 0.000000 0.000000 0.000000 0.000000 -0.442446
  7   14.875442 0.000000 0.000000 0.049737 -0.015777 0.045477
  8   2.255207 -0.007574 0.117194 -0.065382 0.011396 0.061115
  9   9.514219 -0.009357 0.000000 -0.005687 -0.105644 0.245016
 10   11.751820 -0.001633 0.000000 0.024736 0.088577 0.791361
 11   -1.812800 1.557988 2.462223 -0.111854 -1.315476 2.459277
 12   4.640941 0.000000 -0.000001 -0.325469 0.764365 -1.332200
 13   10.828049 0.000000 0.000000 0.000000 0.000000 -1.135059
 14   9.393337 -0.000001 0.000000 -2.526852 -0.509925 0.819750
 15   1.442245 0.107454 -1.746177 1.545041 0.350655 0.094987
 16   1.063452 0.000000 0.000001 0.000000 0.000000 0.199056
 17   1.376307 -0.000001 0.000001 0.000000 0.000000 0.199049
 18   4.172846 -0.251366 -1.312744 0.008014 -0.043889 0.147537
 19   1.215374 0.000002 0.000000 0.000000 0.000000 0.645758
 20   1.215371 -0.000002 0.000001 0.000000 0.000000 0.881369
 21   4.220534 -0.244854 -0.431465 0.001333 0.026242 0.148339
 22   1.350417 0.000000 0.000001 0.000000 0.000000 0.733035
 23   1.350410 -0.000001 -0.000001 0.000000 0.000000 1.256600
 24   -1.344035 1.425185 -2.813793 0.623002 1.349417 2.949691
 25   4.640942 0.000000 0.000001 0.233944 -0.662436 -1.366726
 26   10.828047 0.000000 0.000001 0.000000 0.000000 -1.151724
 27   9.393339 0.000000 0.000000 2.410354 0.172946 0.692610
 28   1.442245 0.107455 1.746178 -2.449551 -0.338953 0.923133
 29   1.063450 -0.000001 0.000000 0.000000 0.000000 0.366516
 30   1.376307 0.000000 0.000000 0.000000 0.000000 0.811565
 31   4.172847 -0.251365 1.312745 -0.000488 -0.096055 0.069757
 32   1.215373 -0.000001 0.000000 0.000000 0.000000 0.130882
 33   1.215372 0.000000 0.000000 0.000000 0.000000 1.151880
 34   4.220534 -0.244853 0.431466 -0.011400 0.078000 0.147658
 35   1.350416 0.000000 -0.000001 0.000000 0.000000 0.977377
 36   1.350410 0.000000 0.000001 0.000000 0.000000 1.518434
 37   2.110540 -0.000001 0.000000 0.077354 0.101676 -0.071831
 38   0.891923 2.373051 -0.014527 -3.141592 -0.000001 1.413797
 39   7.228122 5.709445 3.726568 3.140796 -1.570796 0.000000
 40   2.450426 5.076128 0.001325 3.062327 -1.570796 0.000000
 41   6.312404 -4.528058 0.001311 3.140791 -1.570796 0.000000
 42   2.233309 1.152535 -7.309138 -1.130166 -1.544642 -1.060229
 43   4.262825 -0.232720 -1.392178 0.021250 -0.052274 0.146778
time 3
  0   1.262422 7.480343 37.924934 -0.033268 0.165038 -1.637382
  1   -1.726288 0.292978 0.000000 -0.000030 -1.518469 -1.570772
  2   -0.000007 0.000008 4.427393 -0.162204 -3.135284 -0.194818
  3   18.465939 0.000000 0.000000 0.000000 0.000000 -0.455012
  4   14.875443 0.000000 -0.000001 0.041989 -0.013553 0.403612
  5   0.000006 -0.000004 -4.427393 0.086219 3.101549 -0.560079
  6   18.465939 0.000000 0.000000 0.000000 0.000000 -0.451569
  7   14.875442 0.000000 0.000000 0.049702 -0.015568 0.055757
  8   2.255207 -0.007574 0.117194 -0.065550 0.010318 0.044637
  9   9.514219 -0.009357 0.000000 -0.005687 -0.105644 0.245016
 10   11.751820 -0.001633 0.000000 0.024736 0.088577 0.791361
 11   -1.812800 1.557988 2.462223 -0.111854 -1.315476 2.459277
 12   4.640941 0.000000 -0.000001 -0.315498 0.773870 -1.306911
 13   10.828049 0.000000 0.000000 0.000000 0.000000 -1.228163
 14   9.393337 -0.000001 0.000000 -2.525419 -0.495871 0.905956
 15   1.442245 0.107454 -1.746177 1.545041 0.350655 0.094987
 16   1.063452 0.000000 0.000001 0.000000 0.000000 0.199056
 17   1.376307 -0.000001 0.000001 0.000000 0.000000 0.199049
 18   4.172846 -0.251366 -1.312744 0.008014 -0.043889 0.147537
 19   1.215374 0.000002 0.000000 0.000000 0.000000 0.645758
 20   1.215371 -0.000002 0.000001 0.000000 0.000000 0.881369
 21   4.220534 -0.244854 -0.431465 0.001333 0.026242 0.148339
 22   1.350417 0.000000 0.000001 0.000000 0.000000 0.733035
 23   1.350410 -0.000001 -0.000001 0.000000 0.000000 1.256600
 24   -1.344035 1.425185 -2.813793 0.623002 1.349417 2.949691
 25   4.640942 0.000000 0.000001 0.223345 -0.661390 -1.335089
 26   10.828047 0.000000 0.000001 0.000000 0.000000 -1.242621
 27   9.393339 0.000000 0.000000 2.408796 0.146237 0.771269
 28   1.442245 0.107455 1.746178 -2.449551 -0.338953 0.923133
 29   1.063450 -0.000001 0.000000 0.000000 0.000000 0.366516
 30   1.376307 0.000000 0.000000 0.000000 0.000000 0.811565
 31   4.172847 -0.251365 1.312745 -0.000488 -0.096055 0.069757
 32   1.215373 -0.000001 0.000000 0.000000 0.000000 0.130882
 33   1.215372 0.000000 0.000000 0.000000 0.000000 1.151880
 34   4.220534 -0.244853 0.431466 -0.011400 0.078000 0.147658
 35   1.350416 0.000000 -0.000001 0.000000 0.000000 0.977377
 36   1.350410 0.000000 0.000001 0.000000 0.000000 1.518434
 37   2.110540 -0.000001 0.000000 0.078117 0.100001 -0.045426
 38   0.891923 2.373051 -0.014527 -3.141592 -0.000001 1.413797
 39   7.228122 5.709445 3.726568 3.140796 -1.570796 0.000000
 40   2.450426 5.076128 0.001325 3.062327 -1.570796 0.000000
 41   6.312404 -4.528058 0.001311 3.140791 -1.570796 0.000000
 42   2.233309 1.152535 -7.309138 -1.130166 -1.544642 -1.060229
 43   4.262825 -0.232720 -1.392178 0.021250 -0.052274 0.146778
time 4
  0   1.262422 7.480343 37.952278 -0.033268 0.165038 -1.637382
  1   -1.562220 0.285165 0.000000 -0.000030 -1.518469 -1.570772
  2   -0.000007 0.000008 4.427393 -0.162109 -3.135563 -0.186739
  3   18.465939 0.000000 0.000000 0.000000 0.000000 -0.447701
  4   14.875443 0.000000 -0.000001 0.041790 -0.014617 0.404323
  5   0.000006 -0.000004 -4.427393 0.086219 3.101455 -0.559050
  6   18.465939 0.000000 0.000000 0.000000 0.000000 -0.460102
  7   14.875442 0.000000 0.000000 0.049667 -0.015359 0.065361
  8   2.255207 -0.007574 0.117194 -0.065697 0.009299 0.029119
  9   9.514219 -0.009357 0.000000 -0.005687 -0.105644 0.245016
 10   11.751820 -0.001633 0.000000 0.024736 0.088577 0.791361
 11   -1.812800 1.557988 2.462223 -0.111854 -1.315476 2.459277
 12   4.640941 0.000000 -0.000001 -0.317905 0.779656 -1.302814
 13   10.828049 0.000000 0.000000 0.000000 0.000000 -1.242257
 14   9.393337 -0.000001 0.000000 -2.527973 -0.477322 0.932770
 15   1.442245 0.107454 -1.746177 1.545041 0.350655 0.094987
 16   1.063452 0.000000 0.000001 0.000000 0.000000 0.199056
 17   1.376307 -0.000001 0.000001 0.000000 0.000000 0.199049
 18   4.172846 -0.251366 -1.312744 0.008014 -0.043889 0.147537
 19   1.215374 0.000002 0.000000 0.000000 0.000000 0.645758
 20   1.215371 -0.000002 0.000001 0.000000 0.000000 0.881369
 21   4.220534 -0.244854 -0.431465 0.001333 0.026242 0.148339
 22   1.350417 0.000000 0.000001 0.000000 0.000000 0.733035
 23   1.350410 -0.000001 -0.000001 0.000000 0.000000 1.256600
 24   -1.344035 1.425185 -2.813793 0.623002 1.349417 2.949691
 25   4.640942 0.000000 0.000001 0.225352 -0.663342 -1.333549
 26   10.828047 0.000000 0.000001 0.000000 0.000000 -1.250230
 27   9.393339 0.000000 0.000000 2.408796 0.124147 0.794207
 28   1.442245 0.107455 1.746178 -2.449551 -0.338953 0.923133
 29   1.063450 -0.000001 0.000000 0.000000 0.000000 0.366516
 30   1.376307 0.000000 0.000000 0.000000 0.000000 0.811565
 31   4.172847 -0.251365 1.312745 -0.000488 -0.096055 0.069757
 32   1.215373 -0.000001 0.000000 0.000000 0.000000 0.130882
 33   1.215372 0.000000 0.000000 0.000000 0.000000 1.151880
 34   4.220534 -0.244853 0.431466 -0.011400 0.078000 0.147658
 35   1.350416 0.000000 -0.000001 0.000000 0.000000 0.977377
 36   1.350410 0.000000 0.000001 0.000000 0.000000 1.518434
 37   2.110540 -0.000001 0.000000 0.078785 0.098408 -0.020613
 38   0.891923 2.373051 -0.014527 -3.141592 -0.000001 1.413797
 39   7.228122 5.709445 3.726568 3.140796 -1.570796 0.000000
 40   2.450426 5.076128 0.001325 3.062327 -1.570796 0.000000
 41   6.312404 -4.528058 0.001311 3.140791 -1.570796 0.000000
 42   2.233309 1.152535 -7.309138 -1.130166 -1.544642 -1.060229
 43   4.262825 -0.232720 -1.392178 0.021250 -0.052274 0.146778
time 5
  0   1.262422 7.480343 37.975716 -0.033268 0.165038 -1.637382
  1   -1.425498 0.277352 0.000000 -0.000030 -1.518469 -1.570772
  2   -0.000007 0.000008 4.427393 -0.161918 -3.135749 -0.180006
  3   18.465939 0.000000 0.000000 0.000000 0.000000 -0.441633
  4   14.875443 0.000000 -0.000001 0.041648 -0.015489 0.404955
  5   0.000006 -0.000004 -4.427393 0.086219 3.101362 -0.558114
  6   18.465939 0.000000 0.000000 0.000000 0.000000 -0.467256
  7   14.875442 0.000000 0.000000 0.049632 -0.015207 0.073427
  8   2.255207 -0.007574 0.117194 -0.065823 0.008448 0.016182
  9   9.514219 -0.009357 0.000000 -0.005687 -0.105644 0.245016
 10   11.751820 -0.001633 0.000000 0.024736 0.088577 0.791361
 11   -1.812800 1.557988 2.462223 -0.111854 -1.315476 2.459277
 12   4.640941 0.000000 -0.000001 -0.326648 0.782549 -1.310248
 13   10.828049 0.000000 0.000000 0.000000 0.000000 -1.208212
 14   9.393337 -0.000001 0.000000 -2.533394 -0.454973 0.922806
 15   1.442245 0.107454 -1.746177 1.545041 0.350655 0.094987
 16   1.063452 0.000000 0.000001 0.000000 0.000000 0.199056
 17   1.376307 -0.000001 0.000001 0.000000 0.000000 0.199049
 18   4.172846 -0.251366 -1.312744 0.008014 -0.043889 0.147537
 19   1.215374 0.000002 0.000000 0.000000 0.000000 0.645758
 20   1.215371 -0.000002 0.000001 0.000000 0.000000 0.881369
 21   4.220534 -0.244854 -0.431465 0.001333 0.026242 0.148339
 22   1.350417 0.000000 0.000001 0.000000 0.000000 0.733035
 23   1.350410 -0.000001 -0.000001 0.000000 0.000000 1.256600
 24   -1.344035 1.425185 -2.813793 0.623002 1.349417 2.949691
 25   4.640942 0.000000 0.000001 0.234768 -0.667039 -1.350067
 26   10.828047 0.000000 0.000001 0.000000 0.000000 -1.206262
 27   9.393339 0.000000 0.000000 2.409851 0.104985 0.782471
 28   1.442245 0.107455 1.746178 -2.449551 -0.338953 0.923133
 29   1.063450 -0.000001 0.000000 0.000000 0.000000 0.366516
 30   1.376307 0.000000 0.000000 0.000000 0.000000 0.811565
 31   4.172847 -0.251365 1.312745 -0.000488 -0.096055 0.069757
 32   1.215373 -0.000001 0.000000 0.000000 0.000000 0.130882
 33   1.215372 0.000000 0.000000 0.000000 0.000000 1.151880
 34   4.220534 -0.244853 0.431466 -0.011400 0.078000 0.147658
 35   1.350416 0.000000 -0.000001 0.000000 0.000000 0.977377
 36   1.350410 0.000000 0.000001 0.000000 0.000000 1.518434
 37   2.110540 -0.000001 0.000000 0.079309 0.097095 0.000116
 38   0.891923 2.373051 -0.014527 -3.141592 -0.000001 1.413797
 39   7.228122 5.709445 3.726568 3.140796 -1.570796 0.000000
 40   2.450426 5.076128 0.001325 3.062327 -1.570796 0.000000
 41   6.312404 -4.528058 0.001311 3.140791 -1.570796 0.000000
 42   2.233309 1.152535 -7.309138 -1.130166 -1.544642 -1.060229
 43   4.262825 -0.232720 -1.392178 0.021250 -0.052274 0.146778
time 6
  0   1.262422 7.480343 37.991341 -0.033268 0.165038 -1.637382
  1   -1.331745 0.269539 0.000000 -0.000030 -1.518469 -1.570772
  2   -0.000007 0.000008 4.427393 -0.161823 -3.135935 -0.175368
  3   18.465939 0.000000 0.000000 0.000000 0.000000 -0.437466
  4   14.875443 0.000000 -0.000001 0.041534 -0.016107 0.405389
  5   0.000006 -0.000004 -4.427393 0.086219 3.101269 -0.557459
  6   18.465939 0.000000 0.000000 0.000000 0.000000 -0.472179
  7   14.875442 0.000000 0.000000 0.049597 -0.015093 0.078943
  8   2.255207 -0.007574 0.117194 -0.065886 0.007861 0.007314
  9   9.514219 -0.009357 0.000000 -0.005687 -0.105644 0.245016
 10   11.751820 -0.001633 0.000000 0.024736 0.088577 0.791361
 11   -1.812800 1.557988 2.462223 -0.111854 -1.315476 2.459277
 12   4.640941 0.000000 -0.000001 -0.340156 0.781378 -1.325995
 13   10.828049 0.000000 0.000000 0.000000 0.000000 -1.149274
 14   9.393337 -0.000001 0.000000 -2.540808 -0.429065 0.895552
 15   1.442245 0.107454 -1.746177 1.545041 0.350655 0.094987
 16   1.063452 0.000000 0.000001 0.000000 0.000000 0.199056
 17   1.376307 -0.000001 0.000001 0.000000 0.000000 0.199049
 18   4.172846 -0.251366 -1.312744 0.008014 -0.043889 0.147537
 19   1.215374 0.000002 0.000000 0.000000 0.000000 0.645758
 20   1.215371 -0.000002 0.000001 0.000000 0.000000 0.881369
 21   4.220534 -0.244854 -0.431465 0.001333 0.026242 0.148339
 22   1.350417 0.000000 0.000001 0.000000 0.000000 0.733035
 23   1.350410 -0.000001 -0.000001 0.000000 0.000000 1.256600
 24   -1.344035 1.425185 -2.813793 0.623002 1.349417 2.949691
 25   4.640942 0.000000 0.000001 0.250306 -0.668991 -1.378555
 26   10.828047 0.000000 0.000001 0.000000 0.000000 -1.134590
 27   9.393339 0.000000 0.000000 2.411510 0.085757 0.754247
 28   1.442245 0.107455 1.746178 -2.449551 -0.338953 0.923133
 29   1.063450 -0.000001 0.000000 0.000000 0.000000 0.366516
 30   1.376307 0.000000 0.000000 0.000000 0.000000 0.811565
 31   4.172847 -0.251365 1.312745 -0.000488 -0.096055 0.069757
 32   1.215373 -0.000001 0.000000 0.000000 0.000000 0.130882
 33   1.215372 0.000000 0.000000 0.000000 0.000000 1.151880
 34   4.220534 -0.244853 0.431466 -0.011400 0.078000 0.147658
 35   1.350416 0.000000 -0.000001 0.000000 0.000000 0.977377
 36   1.350410 0.000000 0.000001 0.000000 0.000000 1.518434
 37   2.110540 -0.000001 0.000000 0.079643 0.096174 0.014350
 38   0.891923 2.373051 -0.014527 -3.141592 -0.000001 1.413797
 39   7.228122 5.709445 3.726568 3.140796 -1.570796 0.000000
 40   2.450426 5.076128 0.001325 3.062327 -1.570796 0.000000
 41   6.312404 -4.528058 0.001311 3.140791 -1.570796 0.000000
 42   2.233309 1.152535 -7.309138 -1.130166 -1.544642 -1.060229
 43   4.262825 -0.232720 -1.392178 0.021250 -0.052274 0.146778
time 7
  0   1.262422 7.480343 37.995247 -0.033268 0.165038 -1.637382
  1   -1.296587 0.269539 0.000000 -0.000030 -1.518469 -1.570772
  2   -0.000007 0.000008 4.427393 -0.161727 -3.135935 -0.173623
  3   18.465939 0.000000 0.000000 0.000000 0.000000 -0.435931
  4   14.875443 0.000000 -0.000001 0.041477 -0.016319 0.405547
  5   0.000006 -0.000004 -4.427393 0.086219 3.101269 -0.557271
  6   18.465939 0.000000 0.000000 0.000000 0.000000 -0.474017
  7   14.875442 0.000000 0.000000 0.049597 -0.015054 0.081006
  8   2.255207 -0.007574 0.117194 -0.065928 0.007645 0.004005
  9   9.514219 -0.009357 0.000000 -0.005687 -0.105644 0.245016
 10   11.751820 -0.001633 0.000000 0.024736 0.088577 0.791361
 11   -1.812800 1.557988 2.462223 -0.111854 -1.315476 2.459277
 12   4.640941 0.000000 -0.000001 -0.355629 0.775041 -1.345254
 13   10.828049 0.000000 0.000000 0.000000 0.000000 -1.089787
 14   9.393337 -0.000001 0.000000 -2.549157 -0.399568 0.871082
 15   1.442245 0.107454 -1.746177 1.545041 0.350655 0.094987
 16   1.063452 0.000000 0.000001 0.000000 0.000000 0.199056
 17   1.376307 -0.000001 0.000001 0.000000 0.000000 0.199049
 18   4.172846 -0.251366 -1.312744 0.008014 -0.043889 0.147537
 19   1.215374 0.000002 0.000000 0.000000 0.000000 0.645758
 20   1.215371 -0.000002 0.000001 0.000000 0.000000 0.881369
 21   4.220534 -0.244854 -0.431465 0.001333 0.026242 0.148339
 22   1.350417 0.000000 0.000001 0.000000 0.000000 0.733035
 23   1.350410 -0.000001 -0.000001 0.000000 0.000000 1.256600
 24   -1.344035 1.425185 -2.813793 0.623002 1.349417 2.949691
 25   4.640942 0.000000 0.000001 0.269343 -0.665714 -1.411382
 26   10.828047 0.000000 0.000001 0.000000 0.000000 -1.060652
 27   9.393339 0.000000 0.000000 2.413068 0.063505 0.728351
 28   1.442245 0.107455 1.746178 -2.449551 -0.338953 0.923133
 29   1.063450 -0.000001 0.000000 0.000000 0.000000 0.366516
 30   1.376307 0.000000 0.000000 0.000000 0.000000 0.811565
 31   4.172847 -0.251365 1.312745 -0.000488 -0.096055 0.069757
 32   1.215373 -0.000001 0.000000 0.000000 0.000000 0.130882
 33   1.215372 0.000000 0.000000 0.000000 0.000000 1.151880
 34   4.220534 -0.244853 0.431466 -0.011400 0.078000 0.147658
 35   1.350416 0.000000 -0.000001 0.000000 0.000000 0.977377
 36   1.350410 0.000000 0.000001 0.000000 0.000000 1.518434
 37   2.110540 -0.000001 0.000000 0.079786 0.095838 0.019640
 38   0.891923 2.373051 -0.014527 -3.141592 -0.000001 1.413797
 39   7.228122 5.709445 3.726568 3.140796 -1.570796 0.000000
 40   2.450426 5.076128 0.001325 3.062327 -1.570796 0.000000
 41   6.312404 -4.528058 0.001311 3.140791 -1.570796 0.000000
 42   2.233309 1.152535 -7.309138 -1.130166 -1.544642 -1.060229
 43   4.262825 -0.232720 -1.392178 0.021250 -0.052274 0.146778
time 8
  0   1.262422 7.480343 37.991341 -0.033268 0.165038 -1.637382
  1   -1.323932 0.269539 0.000000 -0.000030 -1.518469 -1.570772
  2   -0.000007 0.000008 4.427393 -0.161823 -3.135935 -0.174969
  3   18.465939 0.000000 0.000000 0.000000 0.000000 -0.437100
  4   14.875443 0.000000 -0.000001 0.041506 -0.016149 0.405429
  5   0.000006 -0.000004 -4.427393 0.086219 3.101269 -0.557365
  6   18.465939 0.000000 0.000000 0.000000 0.000000 -0.472573
  7   14.875442 0.000000 0.000000 0.049597 -0.015073 0.079430
  8   2.255207 -0.007574 0.117194 -0.065907 0.007813 0.006553
  9   9.514219 -0.009357 0.000000 -0.005687 -0.105644 0.245016
 10   11.751820 -0.001633 0.000000 0.024736 0.088577 0.791361
 11   -1.812800 1.557988 2.462223 -0.111854 -1.315476 2.459277
 12   4.640941 0.000000 -0.000001 -0.367614 0.764296 -1.359303
 13   10.828049 0.000000 0.000000 0.000000 0.000000 -1.057756
 14   9.393337 -0.000001 0.000000 -2.557568 -0.366120 0.870741
 15   1.442245 0.107454 -1.746177 1.545041 0.350655 0.094987
 16   1.063452 0.000000 0.000001 0.000000 0.000000 0.199056
 17   1.376307 -0.000001 0.000001 0.000000 0.000000 0.199049
 18   4.172846 -0.251366 -1.312744 0.008014 -0.043889 0.147537
 19   1.215374 0.000002 0.000000 0.000000 0.000000 0.645758
 20   1.215371 -0.000002 0.000001 0.000000 0.000000 0.881369
 21   4.220534 -0.244854 -0.431465 0.001333 0.026242 0.148339
 22   1.350417 0.000000 0.000001 0.000000 0.000000 0.733035
 23   1.350410 -0.000001 -0.000001 0.000000 0.000000 1.256600
 24   -1.344035 1.425185 -2.813793 0.623002 1.349417 2.949691
 25   4.640942 0.000000 0.000001 0.286116 -0.656020 -1.436650
 26   10.828047 0.000000 0.000001 0.000000 0.000000 -1.014070
 27   9.393339 0.000000 0.000000 2.413570 0.035298 0.725199
 28   1.442245 0.107455 1.746178 -2.449551 -0.338953 0.923133
 29   1.063450 -0.000001 0.000000 0.000000 0.000000 0.366516
 30   1.376307 0.000000 0.000000 0.000000 0.000000 0.811565
 31   4.172847 -0.251365 1.312745 -0.000488 -0.096055 0.069757
 32   1.215373 -0.000001 0.000000 0.000000 0.000000 0.130882
 33   1.215372 0.000000 0.000000 0.000000 0.000000 1.151880
 34   4.220534 -0.244853 0.431466 -0.011400 0.078000 0.147658
 35   1.350416 0.000000 -0.000001 0.000000 0.000000 0.977377
 36   1.350410 0.000000 0.000001 0.000000 0.000000 1.518434
 37   2.110540 -0.000001 0.000000 0.079691 0.096118 0.015554
 38   0.891923 2.373051 -0.014527 -3.141592 -0.000001 1.413797
 39   7.228122 5.709445 3.726568 3.140796 -1.570796 0.000000
 40   2.450426 5.076128 0.001325 3.062327 -1.570796 0.000000
 41   6.312404 -4.528058 0.001311 3.140791 -1.570796 0.000000
 42   2.233309 1.152535 -7.309138 -1.130166 -1.544642 -1.060229
 43   4.262825 -0.232720 -1.392178 0.021250 -0.052274 0.146778
time 9
  0   1.262422 7.480343 37.979622 -0.033268 0.165038 -1.637382
  1   -1.398153 0.273446 0.000000 -0.000030 -1.518469 -1.570772
  2   -0.000007 0.000008 4.427393 -0.161918 -3.135749 -0.178610
  3   18.465939 0.000000 0.000000 0.000000 0.000000 -0.440390
  4   14.875443 0.000000 -0.000001 0.041619 -0.015681 0.405073
  5   0.000006 -0.000004 -4.427393 0.086219 3.101362 -0.557927
  6   18.465939 0.000000 0.000000 0.000000 0.000000 -0.468766
  7   14.875442 0.000000 0.000000 0.049632 -0.015169 0.075078
  8   2.255207 -0.007574 0.117194 -0.065844 0.008268 0.013535
  9   9.514219 -0.009357 0.000000 -0.005687 -0.105644 0.245016
 10   11.751820 -0.001633 0.000000 0.024736 0.088577 0.791361
 11   -1.812800 1.557988 2.462223 -0.111854 -1.315476 2.459277
 12   4.640941 0.000000 -0.000001 -0.376112 0.750589 -1.368083
 13   10.828049 0.000000 0.000000 0.000000 0.000000 -1.047750
 14   9.393337 -0.000001 0.000000 -2.565418 -0.329625 0.889056
 15   1.442245 0.107454 -1.746177 1.545041 0.350655 0.094987
 16   1.063452 0.000000 0.000001 0.000000 0.000000 0.199056
 17   1.376307 -0.000001 0.000001 0.000000 0.000000 0.199049
 18   4.172846 -0.251366 -1.312744 0.008014 -0.043889 0.147537
 19   1.215374 0.000002 0.000000 0.000000 0.000000 0.645758
 20   1.215371 -0.000002 0.000001 0.000000 0.000000 0.881369
 21   4.220534 -0.244854 -0.431465 0.001333 0.026242 0.148339
 22   1.350417 0.000000 0.000001 0.000000 0.000000 0.733035
 23   1.350410 -0.000001 -0.000001 0.000000 0.000000 1.256600
 24   -1.344035 1.425185 -2.813793 0.623002 1.349417 2.949691
 25   4.640942 0.000000 0.000001 0.299957 -0.641793 -1.454708
 26   10.828047 0.000000 0.000001 0.000000 0.000000 -0.990082
 27   9.393339 0.000000 0.000000 2.412766 0.002798 0.739990
 28   1.442245 0.107455 1.746178 -2.449551 -0.338953 0.923133
 29   1.063450 -0.000001 0.000000 0.000000 0.000000 0.366516
 30   1.376307 0.000000 0.000000 0.000000 0.000000 0.811565
 31   4.172847 -0.251365 1.312745 -0.000488 -0.096055 0.069757
 32   1.215373 -0.000001 0.000000 0.000000 0.000000 0.130882
 33   1.215372 0.000000 0.000000 0.000000 0.000000 1.151880
 34   4.220534 -0.244853 0.431466 -0.011400 0.078000 0.147658
 35   1.350416 0.000000 -0.000001 0.000000 0.000000 0.977377
 36   1.350410 0.000000 0.000001 0.000000 0.000000 1.518434
 37   2.110540 -0.000001 0.000000 0.079405 0.096816 0.004373
 38   0.891923 2.373051 -0.014527 -3.141592 -0.000001 1.413797
 39   7.228122 5.709445 3.726568 3.140796 -1.570796 0.000000
 40   2.450426 5.076128 0.001325 3.062327 -1.570796 0.000000
 41   6.312404 -4.528058 0.001311 3.140791 -1.570796 0.000000
 42   2.233309 1.152535 -7.309138 -1.130166 -1.544642 -1.060229
 43   4.262825 -0.232720 -1.392178 0.021250 -0.052274 0.146778
time 10
  0   1.262422 7.480343 37.960091 -0.033268 0.165038 -1.637382
  1   -1.507531 0.281259 0.000000 -0.000030 -1.518469 -1.570772
  2   -0.000007 0.000008 4.427393 -0.162013 -3.135656 -0.183996
  3   18.465939 0.000000 0.000000 0.000000 0.000000 -0.445288
  4   14.875443 0.000000 -0.000001 0.041733 -0.014957 0.404599
  5   0.000006 -0.000004 -4.427393 0.086219 3.101362 -0.558675
  6   18.465939 0.000000 0.000000 0.000000 0.000000 -0.462990
  7   14.875442 0.000000 0.000000 0.049632 -0.015302 0.068625
  8   2.255207 -0.007574 0.117194 -0.065760 0.008963 0.023891
  9   9.514219 -0.009357 0.000000 -0.005687 -0.105644 0.245016
 10   11.751820 -0.001633 0.000000 0.024736 0.088577 0.791361
 11   -1.812800 1.557988 2.462223 -0.111854 -1.315476 2.459277
 12   4.640941 0.000000 -0.000001 -0.385150 0.733921 -1.378679
 13   10.828049 0.000000 0.000000 0.000000 0.000000 -1.034510
 14   9.393337 -0.000001 0.000000 -2.572832 -0.292045 0.904930
 15   1.442245 0.107454 -1.746177 1.545041 0.350655 0.094987
 16   1.063452 0.000000 0.000001 0.000000 0.000000 0.199056
 17   1.376307 -0.000001 0.000001 0.000000 0.000000 0.199049
 18   4.172846 -0.251366 -1.312744 0.008014 -0.043889 0.147537
 19   1.215374 0.000002 0.000000 0.000000 0.000000 0.645758
 20   1.215371 -0.000002 0.000001 0.000000 0.000000 0.881369
 21   4.220534 -0.244854 -0.431465 0.001333 0.026242 0.148339
 22   1.350417 0.000000 0.000001 0.000000 0.000000 0.733035
 23   1.350410 -0.000001 -0.000001 0.000000 0.000000 1.256600
 24   -1.344035 1.425185 -2.813793 0.623002 1.349417 2.949691
 25   4.640942 0.000000 0.000001 0.314672 -0.625056 -1.474866
 26   10.828047 0.000000 0.000001 0.000000 0.000000 -0.962029
 27   9.393339 0.000000 0.000000 2.411208 -0.029703 0.752744
 28   1.442245 0.107455 1.746178 -2.449551 -0.338953 0.923133
 29   1.063450 -0.000001 0.000000 0.000000 0.000000 0.366516
 30   1.376307 0.000000 0.000000 0.000000 0.000000 0.811565
 31   4.172847 -0.251365 1.312745 -0.000488 -0.096055 0.069757
 32   1.215373 -0.000001 0.000000 0.000000 0.000000 0.130882
 33   1.215372 0.000000 0.000000 0.000000 0.000000 1.151880
 34   4.220534 -0.244853 0.431466 -0.011400 0.078000 0.147658
 35   1.350416 0.000000 -0.000001 0.000000 0.000000 0.977377
 36   1.350410 0.000000 0.000001 0.000000 0.000000 1.518434
 37   2.110540 -0.000001 0.000000 0.078976 0.097878 -0.012227
 38   0.891923 2.373051 -0.014527 -3.141592 -0.000001 1.413797
 39   7.228122 5.709445 3.726568 3.140796 -1.570796 0.000000
 40   2.450426 5.076128 0.001325 3.062327 -1.570796 0.000000
 41   6.312404 -4.528058 0.001311 3.140791 -1.570796 0.000000
 42   2.233309 1.152535 -7.309138 -1.130166 -1.544642 -1.060229
 43   4.262825 -0.232720 -1.392178 0.021250 -0.052274 0.146778
time 11
  0   1.262422 7.480343 37.940559 -0.033268 0.165038 -1.637382
  1   -1.644254 0.289071 0.000000 -0.000030 -1.518469 -1.570772
  2   -0.000007 0.000008 4.427393 -0.162109 -3.135377 -0.190679
  3   18.465939 0.000000 0.000000 0.000000 0.000000 -0.451283
  4   14.875443 0.000000 -0.000001 0.041876 -0.014106 0.403967
  5   0.000006 -0.000004 -4.427393 0.086219 3.101455 -0.559518
  6   18.465939 0.000000 0.000000 0.000000 0.000000 -0.455967
  7   14.875442 0.000000 0.000000 0.049667 -0.015454 0.060709
  8   2.255207 -0.007574 0.117194 -0.065634 0.009802 0.036663
  9   9.514219 -0.009357 0.000000 -0.005687 -0.105644 0.245016
 10   11.751820 -0.001633 0.000000 0.024736 0.088577 0.791361
 11   -1.812800 1.557988 2.462223 -0.111854 -1.315476 2.459277
 12   4.640941 0.000000 -0.000001 -0.394827 0.715048 -1.391147
 13   10.828049 0.000000 0.000000 0.000000 0.000000 -1.016024
 14   9.393337 -0.000001 0.000000 -2.579499 -0.254314 0.916212
 15   1.442245 0.107454 -1.746177 1.545041 0.350655 0.094987
 16   1.063452 0.000000 0.000001 0.000000 0.000000 0.199056
 17   1.376307 -0.000001 0.000001 0.000000 0.000000 0.199049
 18   4.172846 -0.251366 -1.312744 0.008014 -0.043889 0.147537
 19   1.215374 0.000002 0.000000 0.000000 0.000000 0.645758
 20   1.215371 -0.000002 0.000001 0.000000 0.000000 0.881369
 21   4.220534 -0.244854 -0.431465 0.001333 0.026242 0.148339
 22   1.350417 0.000000 0.000001 0.000000 0.000000 0.733035
 23   1.350410 -0.000001 -0.000001 0.000000 0.000000 1.256600
 24   -1.344035 1.425185 -2.813793 0.623002 1.349417 2.949691
 25   4.640942 0.000000 0.000001 0.330210 -0.606366 -1.497684
 26   10.828047 0.000000 0.000001 0.000000 0.000000 -0.927587
 27   9.393339 0.000000 0.000000 2.409047 -0.061358 0.761328
 28   1.442245 0.107455 1.746178 -2.449551 -0.338953 0.923133
 29   1.063450 -0.000001 0.000000 0.000000 0.000000 0.366516
 30   1.376307 0.000000 0.000000 0.000000 0.000000 0.811565
 31   4.172847 -0.251365 1.312745 -0.000488 -0.096055 0.069757
 32   1.215373 -0.000001 0.000000 0.000000 0.000000 0.130882
 33   1.215372 0.000000 0.000000 0.000000 0.000000 1.151880
 34   4.220534 -0.244853 0.431466 -0.011400 0.078000 0.147658
 35   1.350416 0.000000 -0.000001 0.000000 0.000000 0.977377
 36   1.350410 0.000000 0.000001 0.000000 0.000000 1.518434
 37   2.110540 -0.000001 0.000000 0.078451 0.099190 -0.032654
 38   0.891923 2.373051 -0.014527 -3.141592 -0.000001 1.413797
 39   7.228122 5.709445 3.726568 3.140796 -1.570796 0.000000
 40   2.450426 5.076128 0.001325 3.062327 -1.570796 0.000000
 41   6.312404 -4.528058 0.001311 3.140791 -1.570796 0.000000
 42   2.233309 1.152535 -7.309138 -1.130166 -1.544642 -1.060229
 43   4.262825 -0.232720 -1.392178 0.021250 -0.052274 0.146778
time 12
  0   1.262422 7.480343 37.917122 -0.033268 0.165038 -1.637382
  1   -1.792696 0.296884 0.000000 -0.000030 -1.518469 -1.570772
  2   -0.000007 0.000008 4.427393 -0.162300 -3.135191 -0.198060
  3   18.465939 0.000000 0.000000 0.000000 0.000000 -0.457936
  4   14.875443 0.000000 -0.000001 0.042046 -0.013127 0.403295
  5   0.000006 -0.000004 -4.427393 0.086219 3.101549 -0.560547
  6   18.465939 0.000000 0.000000 0.000000 0.000000 -0.448156
  7   14.875442 0.000000 0.000000 0.049702 -0.015644 0.051930
  8   2.255207 -0.007574 0.117194 -0.065487 0.010725 0.050758
  9   9.514219 -0.009357 0.000000 -0.005687 -0.105644 0.245016
 10   11.751820 -0.001633 0.000000 0.024736 0.088577 0.791361
 11   -1.812800 1.557988 2.462223 -0.111854 -1.315476 2.459277
 12   4.640941 0.000000 -0.000001 -0.405289 0.694867 -1.405899
 13   10.828049 0.000000 0.000000 0.000000 0.000000 -0.990093
 14   9.393337 -0.000001 0.000000 -2.585293 -0.217398 0.920755
 15   1.442245 0.107454 -1.746177 1.545041 0.350655 0.094987
 16   1.063452 0.000000 0.000001 0.000000 0.000000 0.199056
 17   1.376307 -0.000001 0.000001 0.000000 0.000000 0.199049
 18   4.172846 -0.251366 -1.312744 0.008014 -0.043889 0.147537
 19   1.215374 0.000002 0.000000 0.000000 0.000000 0.645758
 20   1.215371 -0.000002 0.000001 0.000000 0.000000 0.881369
 21   4.220534 -0.244854 -0.431465 0.001333 0.026242 0.148339
 22   1.350417 0.000000 0.000001 0.000000 0.000000 0.733035
 23   1.350410 -0.000001 -0.000001 0.000000 0.000000 1.256600
 24   -1.344035 1.425185 -2.813793 0.623002 1.349417 2.949691
 25   4.640942 0.000000 0.000001 0.346520 -0.586560 -1.523652
 26   10.828047 0.000000 0.000001 0.000000 0.000000 -0.884316
 27   9.393339 0.000000 0.000000 2.406484 -0.091223 0.763413
 28   1.442245 0.107455 1.746178 -2.449551 -0.338953 0.923133
 29   1.063450 -0.000001 0.000000 0.000000 0.000000 0.366516
 30   1.376307 0.000000 0.000000 0.000000 0.000000 0.811565
 31   4.172847 -0.251365 1.312745 -0.000488 -0.096055 0.069757
 32   1.215373 -0.000001 0.000000 0.000000 0.000000 0.130882
 33   1.215372 0.000000 0.000000 0.000000 0.000000 1.151880
 34   4.220534 -0.244853 0.431466 -0.011400 0.078000 0.147658
 35   1.350416 0.000000 -0.000001 0.000000 0.000000 0.977377
 36   1.350410 0.000000 0.000001 0.000000 0.000000 1.518434
 37   2.110540 -0.000001 0.000000 0.077831 0.100615 -0.055274
 38   0.891923 2.373051 -0.014527 -3.141592 -0.000001 1.413797
 39   7.228122 5.709445 3.726568 3.140796 -1.570796 0.000000
 40   2.450426 5.076128 0.001325 3.062327 -1.570796 0.000000
 41   6.312404 -4.528058 0.001311 3.140791 -1.570796 0.000000
 42   2.233309 1.152535 -7.309138 -1.130166 -1.544642 -1.060229
 43   4.262825 -0.232720 -1.392178 0.021250 -0.052274 0.146778
time 13
  0   1.262422 7.480343 37.889778 -0.033268 0.165038 -1.637382
  1   -1.945045 0.304697 0.000000 -0.000030 -1.518469 -1.570772
  2   -0.000007 0.000008 4.427393 -0.162491 -3.134912 -0.205591
  3   18.465939 0.000000 0.000000 0.000000 0.000000 -0.464735
  4   14.875443 0.000000 -0.000001 0.042217 -0.012148 0.402624
  5   0.000006 -0.000004 -4.427393 0.086219 3.101642 -0.561576
  6   18.465939 0.000000 0.000000 0.000000 0.000000 -0.440214
  7   14.875442 0.000000 0.000000 0.049737 -0.015815 0.042926
  8   2.255207 -0.007574 0.117194 -0.065319 0.011672 0.065218
  9   9.514219 -0.009357 0.000000 -0.005687 -0.105644 0.245016
 10   11.751820 -0.001633 0.000000 0.024736 0.088577 0.791361
 11   -1.812800 1.557988 2.462223 -0.111854 -1.315476 2.459277
 12   4.640941 0.000000 -0.000001 -0.416685 0.673927 -1.423460
 13   10.828049 0.000000 0.000000 0.000000 0.000000 -0.954279
 14   9.393337 -0.000001 0.000000 -2.590277 -0.182351 0.916261
 15   1.442245 0.107454 -1.746177 1.545041 0.350655 0.094987
 16   1.063452 0.000000 0.000001 0.000000 0.000000 0.199056
 17   1.376307 -0.000001 0.000001 0.000000 0.000000 0.199049
 18   4.172846 -0.251366 -1.312744 0.008014 -0.043889 0.147537
 19   1.215374 0.000002 0.000000 0.000000 0.000000 0.645758
 20   1.215371 -0.000002 0.000001 0.000000 0.000000 0.881369
 21   4.220534 -0.244854 -0.431465 0.001333 0.026242 0.148339
 22   1.350417 0.000000 0.000001 0.000000 0.000000 0.733035
 23   1.350410 -0.000001 -0.000001 0.000000 0.000000 1.256600
 24   -1.344035 1.425185 -2.813793 0.623002 1.349417 2.949691
 25   4.640942 0.000000 0.000001 0.363756 -0.565987 -1.553679
 26   10.828047 0.000000 0.000001 0.000000 0.000000 -0.829080
 27   9.393339 0.000000 0.000000 2.403720 -0.118486 0.756429
 28   1.442245 0.107455 1.746178 -2.449551 -0.338953 0.923133
 29   1.063450 -0.000001 0.000000 0.000000 0.000000 0.366516
 30   1.376307 0.000000 0.000000 0.000000 0.000000 0.811565
 31   4.172847 -0.251365 1.312745 -0.000488 -0.096055 0.069757
 32   1.215373 -0.000001 0.000000 0.000000 0.000000 0.130882
 33   1.215372 0.000000 0.000000 0.000000 0.000000 1.151880
 34   4.220534 -0.244853 0.431466 -0.011400 0.078000 0.147658
 35   1.350416 0.000000 -0.000001 0.000000 0.000000 0.977377
 36   1.350410 0.000000 0.000001 0.000000 0.000000 1.518434
 37   2.110540 -0.000001 0.000000 0.077163 0.102095 -0.078411
 38   0.891923 2.373051 -0.014527 -3.141592 -0.000001 1.413797
 39   7.228122 5.709445 3.726568 3.140796 -1.570796 0.000000
 40   2.450426 5.076128 0.001325 3.062327 -1.570796 0.000000
 41   6.312404 -4.528058 0.001311 3.140791 -1.570796 0.000000
 42   2.233309 1.152535 -7.309138 -1.130166 -1.544642 -1.060229
 43   4.262825 -0.232720 -1.392178 0.021250 -0.052274 0.146778
time 14
  0   1.262422 7.480343 37.866337 -0.033268 0.165038 -1.637382
  1   -2.089580 0.312510 0.000000 -0.000030 -1.518469 -1.570772
  2   -0.000007 0.000008 4.427393 -0.162682 -3.134726 -0.212773
  3   18.465939 0.000000 0.000000 0.000000 0.000000 -0.471168
  4   14.875443 0.000000 -0.000001 0.042359 -0.011190 0.401952
  5   0.000006 -0.000004 -4.427393 0.086219 3.101735 -0.562512
  6   18.465939 0.000000 0.000000 0.000000 0.000000 -0.432600
  7   14.875442 0.000000 0.000000 0.049773 -0.016005 0.034334
  8   2.255207 -0.007574 0.117194 -0.065151 0.012571 0.079015
  9   9.514219 -0.009357 0.000000 -0.005687 -0.105644 0.245016
 10   11.751820 -0.001633 0.000000 0.024736 0.088577 0.791361
 11   -1.812800 1.557988 2.462223 -0.111854 -1.315476 2.459277
 12   4.640941 0.000000 -0.000001 -0.429407 0.653057 -1.444592
 13   10.828049 0.000000 0.000000 0.000000 0.000000 -0.905592
 14   9.393337 -0.000001 0.000000 -2.594452 -0.150290 0.900192
 15   1.442245 0.107454 -1.746177 1.545041 0.350655 0.094987
 16   1.063452 0.000000 0.000001 0.000000 0.000000 0.199056
 17   1.376307 -0.000001 0.000001 0.000000 0.000000 0.199049
 18   4.172846 -0.251366 -1.312744 0.008014 -0.043889 0.147537
 19   1.215374 0.000002 0.000000 0.000000 0.000000 0.645758
 20   1.215371 -0.000002 0.000001 0.000000 0.000000 0.881369
 21   4.220534 -0.244854 -0.431465 0.001333 0.026242 0.148339
 22   1.350417 0.000000 0.000001 0.000000 0.000000 0.733035
 23   1.350410 -0.000001 -0.000001 0.000000 0.000000 1.256600
 24   -1.344035 1.425185 -2.813793 0.623002 1.349417 2.949691
 25   4.640942 0.000000 0.000001 0.382433 -0.545135 -1.589446
 26   10.828047 0.000000 0.000001 0.000000 0.000000 -0.757407
 27   9.393339 0.000000 0.000000 2.401207 -0.142202 0.736983
 28   1.442245 0.107455 1.746178 -2.449551 -0.338953 0.923133
 29   1.063450 -0.000001 0.000000 0.000000 0.000000 0.366516
 30   1.376307 0.000000 0.000000 0.000000 0.000000 0.811565
 31   4.172847 -0.251365 1.312745 -0.000488 -0.096055 0.069757
 32   1.215373 -0.000001 0.000000 0.000000 0.000000 0.130882
 33   1.215372 0.000000 0.000000 0.000000 0.000000 1.151880
 34   4.220534 -0.244853 0.431466 -0.011400 0.078000 0.147658
 35   1.350416 0.000000 -0.000001 0.000000 0.000000 0.977377
 36   1.350410 0.000000 0.000001 0.000000 0.000000 1.518434
 37   2.110540 -0.000001 0.000000 0.076496 0.103492 -0.100429
 38   0.891923 2.373051 -0.014527 -3.141592 -0.000001 1.413797
 39   7.228122 5.709445 3.726568 3.140796 -1.570796 0.000000
 40   2.450426 5.076128 0.001325 3.062327 -1.570796 0.000000
 41   6.312404 -4.528058 0.001311 3.140791 -1.570796 0.000000
 42   2.233309 1.152535 -7.309138 -1.130166 -1.544642 -1.060229
 43   4.262825 -0.232720 -1.392178 0.021250 -0.052274 0.146778
time 15
  0   1.262422 7.480343 37.846806 -0.033268 0.165038 -1.637382
  1   -2.218490 0.320322 0.000000 -0.000030 -1.518469 -1.570772
  2   -0.000007 0.000008 4.427393 -0.162777 -3.134446 -0.219057
  3   18.465939 0.000000 0.000000 0.000000 0.000000 -0.476871
  4   14.875443 0.000000 -0.000001 0.042473 -0.010381 0.401360
  5   0.000006 -0.000004 -4.427393 0.086219 3.101828 -0.563448
  6   18.465939 0.000000 0.000000 0.000000 0.000000 -0.425905
  7   14.875442 0.000000 0.000000 0.049808 -0.016157 0.026831
  8   2.255207 -0.007574 0.117194 -0.065004 0.013362 0.091092
  9   9.514219 -0.009357 0.000000 -0.005687 -0.105644 0.245016
 10   11.751820 -0.001633 0.000000 0.024736 0.088577 0.791361
 11   -1.812800 1.557988 2.462223 -0.111854 -1.315476 2.459277
 12   4.640941 0.000000 -0.000001 -0.444291 0.632394 -1.470935
 13   10.828049 0.000000 0.000000 0.000000 0.000000 -0.839881
 14   9.393337 -0.000001 0.000000 -2.598065 -0.122271 0.869080
 15   1.442245 0.107454 -1.746177 1.545041 0.350655 0.094987
 16   1.063452 0.000000 0.000001 0.000000 0.000000 0.199056
 17   1.376307 -0.000001 0.000001 0.000000 0.000000 0.199049
 18   4.172846 -0.251366 -1.312744 0.008014 -0.043889 0.147537
 19   1.215374 0.000002 0.000000 0.000000 0.000000 0.645758
 20   1.215371 -0.000002 0.000001 0.000000 0.000000 0.881369
 21   4.220534 -0.244854 -0.431465 0.001333 0.026242 0.148339
 22   1.350417 0.000000 0.000001 0.000000 0.000000 0.733035
 23   1.350410 -0.000001 -0.000001 0.000000 0.000000 1.256600
 24   -1.344035 1.425185 -2.813793 0.623002 1.349417 2.949691
 25   4.640942 0.000000 0.000001 0.403837 -0.523446 -1.634032
 26   10.828047 0.000000 0.000001 0.000000 0.000000 -0.662095
 27   9.393339 0.000000 0.000000 2.399398 -0.161560 0.700175
 28   1.442245 0.107455 1.746178 -2.449551 -0.338953 0.923133
 29   1.063450 -0.000001 0.000000 0.000000 0.000000 0.366516
 30   1.376307 0.000000 0.000000 0.000000 0.000000 0.811565
 31   4.172847 -0.251365 1.312745 -0.000488 -0.096055 0.069757
 32   1.215373 -0.000001 0.000000 0.000000 0.000000 0.130882
 33   1.215372 0.000000 0.000000 0.000000 0.000000 1.151880
 34   4.220534 -0.244853 0.431466 -0.011400 0.078000 0.147658
 35   1.350416 0.000000 -0.000001 0.000000 0.000000 0.977377
 36   1.350410 0.000000 0.000001 0.000000 0.000000 1.518434
 37   2.110540 -0.000001 0.000000 0.075876 0.104721 -0.119781
 38   0.891923 2.373051 -0.014527 -3.141592 -0.000001 1.413797
 39   7.228122 5.709445 3.726568 3.140796 -1.570796 0.000000
 40   2.450426 5.076128 0.001325 3.062327 -1.570796 0.000000
 41   6.312404 -4.528058 0.001311 3.140791 -1.570796 0.000000
 42   2.233309 1.152535 -7.309138 -1.130166 -1.544642 -1.060229
 43   4.262825 -0.232720 -1.392178 0.021250 -0.052274 0.146778
end
