version 1
nodes
  0 "Bip01" -1
  1 "Bip01 Pelvis" 0
  2 "Bip01 L Thigh" 1
  3 "Bip01 L Calf" 2
  4 "Bip01 L Foot" 3
  5 "Bip01 R Thigh" 1
  6 "Bip01 R Calf" 5
  7 "Bip01 R Foot" 6
  8 "Bip01 Spine" 1
  9 "Bip01 Spine1" 8
 10 "Bip01 Neck" 9
 11 "Bip01 L Clavicle" 10
 12 "Bip01 L UpperArm" 11
 13 "Bip01 L Forearm" 12
 14 "Bip01 L Hand" 13
 15 "Bip01 L Finger0" 14
 16 "Bip01 L Finger01" 15
 17 "Bip01 L Finger02" 16
 18 "Bip01 L Finger1" 14
 19 "Bip01 L Finger11" 18
 20 "Bip01 L Finger12" 19
 21 "Bip01 L Finger2" 14
 22 "Bip01 L Finger21" 21
 23 "Bip01 L Finger22" 22
 24 "Bip01 R Clavicle" 10
 25 "Bip01 R UpperArm" 24
 26 "Bip01 R Forearm" 25
 27 "Bip01 R Hand" 26
 28 "Bip01 R Finger0" 27
 29 "Bip01 R Finger01" 28
 30 "Bip01 R Finger02" 29
 31 "Bip01 R Finger1" 27
 32 "Bip01 R Finger11" 31
 33 "Bip01 R Finger12" 32
 34 "Bip01 R Finger2" 27
 35 "Bip01 R Finger21" 34
 36 "Bip01 R Finger22" 35
 37 "Bip01 Head" 10
 38 "Bone05" 37
 39 "Bone08" 9
 40 "Bone16" 8
 41 "Bone01" 8
 42 "Bone03" 1
 43 "Bip01 R Finger4" 27
end
skeleton
time 0
  0   1.708652 8.306172 38.139786 0.000000 0.000000 -1.701715
  1   4.082483 0.734397 0.000000 -1.570795 -1.570451 0.000000
  2   -0.000007 0.000008 4.427393 -0.166882 -3.183382 0.132896
  3   18.465939 0.000000 0.000000 0.000000 0.000000 -0.286499
  4   14.875443 0.000000 -0.000001 0.018508 0.025184 0.407246
  5   0.000006 -0.000004 -4.427393 0.098753 3.067807 -0.351942
  6   18.465939 0.000000 0.000000 0.000000 0.000000 -0.539719
  7   14.875442 0.000000 0.000000 -0.004872 0.034905 0.182003
  8   2.255207 -0.007574 0.000003 -0.192274 0.068635 -0.413758
  9   9.514219 -0.009357 0.000000 -0.017245 0.000012 0.000000
 10   11.751820 -0.001633 0.000000 0.000096 0.130823 1.085439
 11   -1.422163 1.890030 2.489568 -0.310437 -1.333590 2.358561
 12   4.640941 0.000000 -0.000001 0.381272 0.610973 0.226078
 13   10.828049 0.000000 0.000000 0.000000 0.000000 -0.906568
 14   9.393337 -0.000001 0.000000 -1.569611 0.034172 0.000037
 15   1.442245 0.107454 -1.746177 1.686435 0.539209 0.325885
 16   1.063452 0.000000 0.000001 0.000000 0.000000 0.199056
 17   1.376307 -0.000001 0.000001 0.000000 0.000000 0.199049
 18   4.172846 -0.251366 -1.312744 0.008050 0.095731 0.148659
 19   1.215374 0.000002 0.000000 0.000000 0.000000 0.645758
 20   1.215371 -0.000002 0.000001 0.000000 0.000000 0.645758
 21   4.220534 -0.244854 -0.431465 0.001333 0.026242 0.148339
 22   1.350417 0.000000 0.000001 0.000000 0.000000 0.863926
 23   1.350410 -0.000001 -0.000001 0.000000 0.000000 0.863926
 24   -0.730735 1.890043 -2.766917 -1.507639 1.332659 0.560781
 25   4.640942 0.000000 0.000001 -0.364745 -0.220778 0.964623
 26   10.828047 0.000000 0.000001 0.000000 0.000000 -1.280839
 27   9.393339 0.000000 0.000000 1.569611 -0.034192 0.000001
 28   1.442245 0.107455 1.746178 -1.686405 -0.539236 0.325898
 29   1.063450 -0.000001 0.000000 0.000000 0.000000 0.199056
 30   1.376307 0.000000 0.000000 0.000000 0.000000 0.199059
 31   4.172847 -0.251365 1.312745 -0.008050 -0.095731 0.148659
 32   1.215373 -0.000001 0.000000 0.000000 0.000000 0.645746
 33   1.215372 0.000000 0.000000 0.000000 0.000000 0.645746
 34   4.220534 -0.244853 0.431466 -0.001333 -0.026242 0.148339
 35   1.350416 0.000000 -0.000001 0.000000 0.000000 0.863937
 36   1.350410 0.000000 0.000001 0.000000 0.000000 0.863925
 37   2.110540 -0.000001 0.000000 0.404607 -0.112542 -0.998361
 38   0.891923 2.373051 -0.014527 -3.141592 -0.000001 1.413797
 39   7.228122 5.709445 3.726568 2.381597 -1.570796 0.000000
 40   2.450426 5.076128 0.001325 3.271653 -1.570796 0.000000
 41   6.312404 -4.528058 0.001311 3.341489 -1.570796 0.000000
 42   2.233309 1.152535 -7.309138 -1.989663 -1.570796 0.000000
 43   4.262825 -0.232720 -1.392178 0.016840 0.076668 0.253759
time 1
  0   1.708652 8.196062 37.928841 0.000000 0.000000 -1.701715
  1   3.672314 0.738304 0.000000 -1.570795 -1.570451 0.000000
  2   -0.000007 0.000008 4.427393 -0.169173 -3.176962 0.082923
  3   18.465939 0.000000 0.000000 0.000000 0.000000 -0.385706
  4   14.875443 0.000000 -0.000001 0.019078 0.027228 0.456112
  5   0.000006 -0.000004 -4.427393 0.097126 3.065291 -0.378521
  6   18.465939 0.000000 0.000000 0.000000 0.000000 -0.578707
  7   14.875442 0.000000 0.000000 -0.005118 0.034677 0.194384
  8   2.255207 -0.007574 0.000003 -0.193639 0.068743 -0.372796
  9   9.514219 -0.009357 0.000000 -0.015806 0.000000 0.000390
 10   11.751820 -0.001633 0.000000 0.000096 0.130823 1.085439
 11   -1.422163 1.890030 2.489568 -0.456283 -1.338822 2.503727
 12   4.640941 0.000000 -0.000001 0.370662 0.658499 0.225141
 13   10.828049 0.000000 0.000000 0.000000 0.000000 -0.906568
 14   9.393337 -0.000001 0.000000 -1.569611 0.034172 0.000037
 15   1.442245 0.107454 -1.746177 1.686435 0.539209 0.325885
 16   1.063452 0.000000 0.000001 0.000000 0.000000 0.199056
 17   1.376307 -0.000001 0.000001 0.000000 0.000000 0.199049
 18   4.172846 -0.251366 -1.312744 0.008050 0.095731 0.148659
 19   1.215374 0.000002 0.000000 0.000000 0.000000 0.645758
 20   1.215371 -0.000002 0.000001 0.000000 0.000000 0.645758
 21   4.220534 -0.244854 -0.431465 0.001333 0.026242 0.148339
 22   1.350417 0.000000 0.000001 0.000000 0.000000 0.863926
 23   1.350410 -0.000001 -0.000001 0.000000 0.000000 0.863926
 24   -0.730735 1.890043 -2.766917 -1.433097 1.306949 0.639898
 25   4.640942 0.000000 0.000001 -0.422628 -0.245256 0.972322
 26   10.828047 0.000000 0.000001 0.000000 0.000000 -1.280839
 27   9.393339 0.000000 0.000000 1.569611 -0.034192 0.000001
 28   1.442245 0.107455 1.746178 -1.686405 -0.539236 0.325898
 29   1.063450 -0.000001 0.000000 0.000000 0.000000 0.199056
 30   1.376307 0.000000 0.000000 0.000000 0.000000 0.199059
 31   4.172847 -0.251365 1.312745 -0.008050 -0.095731 0.148659
 32   1.215373 -0.000001 0.000000 0.000000 0.000000 0.645746
 33   1.215372 0.000000 0.000000 0.000000 0.000000 0.645746
 34   4.220534 -0.244853 0.431466 -0.001333 -0.026242 0.148339
 35   1.350416 0.000000 -0.000001 0.000000 0.000000 0.863937
 36   1.350410 0.000000 0.000001 0.000000 0.000000 0.863925
 37   2.110540 -0.000001 0.000000 0.404464 -0.123800 -0.982277
 38   0.891923 2.373051 -0.014527 -3.141592 -0.000001 1.413797
 39   7.228122 5.709445 3.726568 2.483038 -1.570796 0.000000
 40   2.450426 5.076128 0.001325 3.255503 -1.570796 0.000000
 41   6.312404 -4.528058 0.001311 3.322965 -1.570796 0.000000
 42   2.233309 1.152535 -7.309138 -1.146944 -1.588242 -0.853143
 43   4.262825 -0.232720 -1.392178 0.016840 0.076668 0.253759
time 2
  0   1.708652 7.700564 37.846806 0.000000 0.000000 -1.701715
  1   3.230895 0.742210 0.000000 -1.570795 -1.570451 0.000000
  2   -0.000007 0.000008 4.427393 -0.169746 -3.177800 0.076390
  3   18.465939 0.000000 0.000000 0.000000 0.000000 -0.405006
  4   14.875443 0.000000 -0.000001 0.019590 0.029058 0.469187
  5   0.000006 -0.000004 -4.427393 0.096361 3.062215 -0.385072
  6   18.465939 0.000000 0.000000 0.000000 0.000000 -0.596035
  7   14.875442 0.000000 0.000000 -0.005820 0.036997 0.204889
  8   2.255207 -0.007574 0.000003 -0.197168 0.069138 -0.329418
  9   9.514219 -0.009357 0.000000 -0.014250 -0.000012 0.001407
 10   11.751820 -0.001633 0.000000 0.000096 0.130823 1.085439
 11   -1.422163 1.890030 2.489568 -0.579819 -1.342862 2.627321
 12   4.640941 0.000000 -0.000001 0.359217 0.711948 0.234917
 13   10.828049 0.000000 0.000000 0.000000 0.000000 -0.906568
 14   9.393337 -0.000001 0.000000 -1.569611 0.034172 0.000037
 15   1.442245 0.107454 -1.746177 1.686435 0.539209 0.325885
 16   1.063452 0.000000 0.000001 0.000000 0.000000 0.199056
 17   1.376307 -0.000001 0.000001 0.000000 0.000000 0.199049
 18   4.172846 -0.251366 -1.312744 0.008050 0.095731 0.148659
 19   1.215374 0.000002 0.000000 0.000000 0.000000 0.645758
 20   1.215371 -0.000002 0.000001 0.000000 0.000000 0.645758
 21   4.220534 -0.244854 -0.431465 0.001333 0.026242 0.148339
 22   1.350417 0.000000 0.000001 0.000000 0.000000 0.863926
 23   1.350410 -0.000001 -0.000001 0.000000 0.000000 0.863926
 24   -0.730735 1.890043 -2.766917 -1.369793 1.278831 0.708557
 25   4.640942 0.000000 0.000001 -0.476703 -0.271339 0.975402
 26   10.828047 0.000000 0.000001 0.000000 0.000000 -1.280839
 27   9.393339 0.000000 0.000000 1.569611 -0.034192 0.000001
 28   1.442245 0.107455 1.746178 -1.686405 -0.539236 0.325898
 29   1.063450 -0.000001 0.000000 0.000000 0.000000 0.199056
 30   1.376307 0.000000 0.000000 0.000000 0.000000 0.199059
 31   4.172847 -0.251365 1.312745 -0.008050 -0.095731 0.148659
 32   1.215373 -0.000001 0.000000 0.000000 0.000000 0.645746
 33   1.215372 0.000000 0.000000 0.000000 0.000000 0.645746
 34   4.220534 -0.244853 0.431466 -0.001333 -0.026242 0.148339
 35   1.350416 0.000000 -0.000001 0.000000 0.000000 0.863937
 36   1.350410 0.000000 0.000001 0.000000 0.000000 0.863925
 37   2.110540 -0.000001 0.000000 0.397549 -0.159945 -0.909728
 38   0.891923 2.373051 -0.014527 -3.141592 -0.000001 1.413797
 39   7.228122 5.709445 3.726568 2.588470 -1.570796 0.000000
 40   2.450426 5.076128 0.001325 3.240232 -1.570796 0.000000
 41   6.312404 -4.528058 0.001311 3.304595 -1.570796 0.000000
 42   2.233309 1.152535 -7.309138 -1.144259 -1.594707 -0.865014
 43   4.262825 -0.232720 -1.392178 0.016840 0.076668 0.253759
time 3
  0   1.708652 7.177539 37.764774 0.000000 0.000000 -1.701715
  1   2.766037 0.750023 0.000000 -1.570795 -1.570451 0.000000
  2   -0.000007 0.000008 4.427393 -0.170414 -3.178916 0.070804
  3   18.465939 0.000000 0.000000 0.000000 0.000000 -0.422991
  4   14.875443 0.000000 -0.000001 0.020102 0.031080 0.481868
  5   0.000006 -0.000004 -4.427393 0.095500 3.058859 -0.391342
  6   18.465939 0.000000 0.000000 0.000000 0.000000 -0.613363
  7   14.875442 0.000000 0.000000 -0.006557 0.039641 0.215657
  8   2.255207 -0.007574 0.000003 -0.202040 0.069845 -0.284584
  9   9.514219 -0.009357 0.000000 -0.012613 -0.000048 0.002836
 10   11.751820 -0.001633 0.000000 0.000096 0.130823 1.085439
 11   -1.422163 1.890030 2.489568 -0.661771 -1.354344 2.710381
 12   4.640941 0.000000 -0.000001 0.357498 0.780482 0.275308
 13   10.828049 0.000000 0.000000 0.000000 0.000000 -0.906568
 14   9.393337 -0.000001 0.000000 -1.569611 0.034172 0.000037
 15   1.442245 0.107454 -1.746177 1.686435 0.539209 0.325885
 16   1.063452 0.000000 0.000001 0.000000 0.000000 0.199056
 17   1.376307 -0.000001 0.000001 0.000000 0.000000 0.199049
 18   4.172846 -0.251366 -1.312744 0.008050 0.095731 0.148659
 19   1.215374 0.000002 0.000000 0.000000 0.000000 0.645758
 20   1.215371 -0.000002 0.000001 0.000000 0.000000 0.645758
 21   4.220534 -0.244854 -0.431465 0.001333 0.026242 0.148339
 22   1.350417 0.000000 0.000001 0.000000 0.000000 0.863926
 23   1.350410 -0.000001 -0.000001 0.000000 0.000000 0.863926
 24   -0.730735 1.890043 -2.766917 -1.320011 1.250380 0.764214
 25   4.640942 0.000000 0.000001 -0.528566 -0.298607 0.973582
 26   10.828047 0.000000 0.000001 0.000000 0.000000 -1.280839
 27   9.393339 0.000000 0.000000 1.569611 -0.034192 0.000001
 28   1.442245 0.107455 1.746178 -1.686405 -0.539236 0.325898
 29   1.063450 -0.000001 0.000000 0.000000 0.000000 0.199056
 30   1.376307 0.000000 0.000000 0.000000 0.000000 0.199059
 31   4.172847 -0.251365 1.312745 -0.008050 -0.095731 0.148659
 32   1.215373 -0.000001 0.000000 0.000000 0.000000 0.645746
 33   1.215372 0.000000 0.000000 0.000000 0.000000 0.645746
 34   4.220534 -0.244853 0.431466 -0.001333 -0.026242 0.148339
 35   1.350416 0.000000 -0.000001 0.000000 0.000000 0.863937
 36   1.350410 0.000000 0.000001 0.000000 0.000000 0.863925
 37   2.110540 -0.000001 0.000000 0.388631 -0.196426 -0.837266
 38   0.891923 2.373051 -0.014527 -3.141592 -0.000001 1.413797
 39   7.228122 5.709445 3.726568 2.695040 -1.570796 0.000000
 40   2.450426 5.076128 0.001325 3.224521 -1.570796 0.000000
 41   6.312404 -4.528058 0.001311 3.285918 -1.570796 0.000000
 42   2.233309 1.152535 -7.309138 -1.142342 -1.596979 -0.873535
 43   4.262825 -0.232720 -1.392178 0.016840 0.076668 0.253759
time 4
  0   1.708652 6.654514 37.682739 0.000000 0.000000 -1.701715
  1   2.289460 0.761742 0.000000 -1.570795 -1.570451 0.000000
  2   -0.000007 0.000008 4.427393 -0.170987 -3.180218 0.065069
  3   18.465939 0.000000 0.000000 0.000000 0.000000 -0.440536
  4   14.875443 0.000000 -0.000001 0.020643 0.033294 0.493916
  5   0.000006 -0.000004 -4.427393 0.094543 3.055504 -0.397426
  6   18.465939 0.000000 0.000000 0.000000 0.000000 -0.629444
  7   14.875442 0.000000 0.000000 -0.007259 0.042360 0.225374
  8   2.255207 -0.007574 0.000003 -0.207396 0.070864 -0.239122
  9   9.514219 -0.009357 0.000000 -0.010951 -0.000084 0.004438
 10   11.751820 -0.001633 0.000000 0.000096 0.130823 1.085439
 11   -1.422163 1.890030 2.489568 -0.729686 -1.368371 2.779563
 12   4.640941 0.000000 -0.000001 0.364375 0.854596 0.329748
 13   10.828049 0.000000 0.000000 0.000000 0.000000 -0.906568
 14   9.393337 -0.000001 0.000000 -1.569611 0.034172 0.000037
 15   1.442245 0.107454 -1.746177 1.686435 0.539209 0.325885
 16   1.063452 0.000000 0.000001 0.000000 0.000000 0.199056
 17   1.376307 -0.000001 0.000001 0.000000 0.000000 0.199049
 18   4.172846 -0.251366 -1.312744 0.008050 0.095731 0.148659
 19   1.215374 0.000002 0.000000 0.000000 0.000000 0.645758
 20   1.215371 -0.000002 0.000001 0.000000 0.000000 0.645758
 21   4.220534 -0.244854 -0.431465 0.001333 0.026242 0.148339
 22   1.350417 0.000000 0.000001 0.000000 0.000000 0.863926
 23   1.350410 -0.000001 -0.000001 0.000000 0.000000 0.863926
 24   -0.730735 1.890043 -2.766917 -1.283661 1.223840 0.806318
 25   4.640942 0.000000 0.000001 -0.579915 -0.326851 0.966792
 26   10.828047 0.000000 0.000001 0.000000 0.000000 -1.280839
 27   9.393339 0.000000 0.000000 1.569611 -0.034192 0.000001
 28   1.442245 0.107455 1.746178 -1.686405 -0.539236 0.325898
 29   1.063450 -0.000001 0.000000 0.000000 0.000000 0.199056
 30   1.376307 0.000000 0.000000 0.000000 0.000000 0.199059
 31   4.172847 -0.251365 1.312745 -0.008050 -0.095731 0.148659
 32   1.215373 -0.000001 0.000000 0.000000 0.000000 0.645746
 33   1.215372 0.000000 0.000000 0.000000 0.000000 0.645746
 34   4.220534 -0.244853 0.431466 -0.001333 -0.026242 0.148339
 35   1.350416 0.000000 -0.000001 0.000000 0.000000 0.863937
 36   1.350410 0.000000 0.000001 0.000000 0.000000 0.863925
 37   2.110540 -0.000001 0.000000 0.377614 -0.231258 -0.768803
 38   0.891923 2.373051 -0.014527 -3.141592 -0.000001 1.413797
 39   7.228122 5.709445 3.726568 2.799522 -1.570796 0.000000
 40   2.450426 5.076128 0.001325 3.207056 -1.570796 0.000000
 41   6.312404 -4.528058 0.001311 3.266425 -1.570796 0.000000
 42   2.233309 1.152535 -7.309138 -1.141575 -1.594387 -0.874876
 43   4.262825 -0.232720 -1.392178 0.016840 0.076668 0.253759
time 5
  0   1.708652 6.571931 37.823368 0.000000 0.000000 -1.701715
  1   1.808976 0.777367 0.000000 -1.570795 -1.570451 0.000000
  2   -0.000007 0.000008 4.427393 -0.172037 -3.181335 0.056141
  3   18.465939 0.000000 0.000000 0.000000 0.000000 -0.430740
  4   14.875443 0.000000 -0.000001 0.021440 0.035933 0.475587
  5   0.000006 -0.000004 -4.427393 0.095883 3.056809 -0.392746
  6   18.465939 0.000000 0.000000 0.000000 0.000000 -0.591047
  7   14.875442 0.000000 0.000000 -0.007750 0.041314 0.191758
  8   2.255207 -0.007574 0.000003 -0.212436 0.072062 -0.193991
  9   9.514219 -0.009357 0.000000 -0.009302 -0.000132 0.005932
 10   11.751820 -0.001633 0.000000 0.000096 0.130823 1.085439
 11   -1.422163 1.890030 2.489568 -0.765881 -1.378549 2.816524
 12   4.640941 0.000000 -0.000001 0.365848 0.917482 0.375700
 13   10.828049 0.000000 0.000000 0.000000 0.000000 -0.906568
 14   9.393337 -0.000001 0.000000 -1.569611 0.034172 0.000037
 15   1.442245 0.107454 -1.746177 1.686435 0.539209 0.325885
 16   1.063452 0.000000 0.000001 0.000000 0.000000 0.199056
 17   1.376307 -0.000001 0.000001 0.000000 0.000000 0.199049
 18   4.172846 -0.251366 -1.312744 0.008050 0.095731 0.148659
 19   1.215374 0.000002 0.000000 0.000000 0.000000 0.645758
 20   1.215371 -0.000002 0.000001 0.000000 0.000000 0.645758
 21   4.220534 -0.244854 -0.431465 0.001333 0.026242 0.148339
 22   1.350417 0.000000 0.000001 0.000000 0.000000 0.863926
 23   1.350410 -0.000001 -0.000001 0.000000 0.000000 0.863926
 24   -0.730735 1.890043 -2.766917 -1.259956 1.201433 0.835075
 25   4.640942 0.000000 0.000001 -0.632601 -0.355793 0.955593
 26   10.828047 0.000000 0.000001 0.000000 0.000000 -1.280839
 27   9.393339 0.000000 0.000000 1.569611 -0.034192 0.000001
 28   1.442245 0.107455 1.746178 -1.686405 -0.539236 0.325898
 29   1.063450 -0.000001 0.000000 0.000000 0.000000 0.199056
 30   1.376307 0.000000 0.000000 0.000000 0.000000 0.199059
 31   4.172847 -0.251365 1.312745 -0.008050 -0.095731 0.148659
 32   1.215373 -0.000001 0.000000 0.000000 0.000000 0.645746
 33   1.215372 0.000000 0.000000 0.000000 0.000000 0.645746
 34   4.220534 -0.244853 0.431466 -0.001333 -0.026242 0.148339
 35   1.350416 0.000000 -0.000001 0.000000 0.000000 0.863937
 36   1.350410 0.000000 0.000001 0.000000 0.000000 0.863925
 37   2.110540 -0.000001 0.000000 0.364213 -0.263605 -0.704382
 38   0.891923 2.373051 -0.014527 -3.141592 -0.000001 1.413797
 39   7.228122 5.709445 3.726568 2.898874 -1.570796 0.000000
 40   2.450426 5.076128 0.001325 3.186518 -1.570796 0.000000
 41   6.312404 -4.528058 0.001311 3.244176 -1.570796 0.000000
 42   2.233309 1.152535 -7.309138 -1.140328 -1.589407 -0.874014
 43   4.262825 -0.232720 -1.392178 0.016840 0.076668 0.253759
time 6
  0   1.708652 6.516876 37.995247 0.000000 0.000000 -1.701715
  1   1.336305 0.789087 0.000000 -1.570795 -1.570451 0.000000
  2   -0.000007 0.000008 4.427393 -0.172896 -3.183102 0.050755
  3   18.465939 0.000000 0.000000 0.000000 0.000000 -0.410928
  4   14.875443 0.000000 -0.000001 0.022180 0.038551 0.450818
  5   0.000006 -0.000004 -4.427393 0.097413 3.058766 -0.383107
  6   18.465939 0.000000 0.000000 0.000000 0.000000 -0.540900
  7   14.875442 0.000000 0.000000 -0.008031 0.040021 0.151276
  8   2.255207 -0.007574 0.000003 -0.216342 0.073273 -0.150017
  9   9.514219 -0.009357 0.000000 -0.007705 -0.000168 0.007122
 10   11.751820 -0.001633 0.000000 0.000096 0.130823 1.085439
 11   -1.422163 1.890030 2.489568 -0.774380 -1.384052 2.825387
 12   4.640941 0.000000 -0.000001 0.361526 0.969416 0.410472
 13   10.828049 0.000000 0.000000 0.000000 0.000000 -0.910106
 14   9.393337 -0.000001 0.000000 -1.569611 0.034172 0.000037
 15   1.442245 0.107454 -1.746177 1.686435 0.539209 0.325885
 16   1.063452 0.000000 0.000001 0.000000 0.000000 0.199056
 17   1.376307 -0.000001 0.000001 0.000000 0.000000 0.199049
 18   4.172846 -0.251366 -1.312744 0.008050 0.095731 0.148659
 19   1.215374 0.000002 0.000000 0.000000 0.000000 0.645758
 20   1.215371 -0.000002 0.000001 0.000000 0.000000 0.645758
 21   4.220534 -0.244854 -0.431465 0.001333 0.026242 0.148339
 22   1.350417 0.000000 0.000001 0.000000 0.000000 0.863926
 23   1.350410 -0.000001 -0.000001 0.000000 0.000000 0.863926
 24   -0.730735 1.890043 -2.766917 -1.246566 1.185837 0.852137
 25   4.640942 0.000000 0.000001 -0.691256 -0.385153 0.940125
 26   10.828047 0.000000 0.000001 0.000000 0.000000 -1.280839
 27   9.393339 0.000000 0.000000 1.569611 -0.034192 0.000001
 28   1.442245 0.107455 1.746178 -1.686405 -0.539236 0.325898
 29   1.063450 -0.000001 0.000000 0.000000 0.000000 0.199056
 30   1.376307 0.000000 0.000000 0.000000 0.000000 0.199059
 31   4.172847 -0.251365 1.312745 -0.008050 -0.095731 0.148659
 32   1.215373 -0.000001 0.000000 0.000000 0.000000 0.645746
 33   1.215372 0.000000 0.000000 0.000000 0.000000 0.645746
 34   4.220534 -0.244853 0.431466 -0.001333 -0.026242 0.148339
 35   1.350416 0.000000 -0.000001 0.000000 0.000000 0.863937
 36   1.350410 0.000000 0.000001 0.000000 0.000000 0.863925
 37   2.110540 -0.000001 0.000000 0.348427 -0.292571 -0.644262
 38   0.891923 2.373051 -0.014527 -3.141592 -0.000001 1.413797
 39   7.228122 5.709445 3.726568 2.989868 -1.570796 0.000000
 40   2.450426 5.076128 0.001325 3.152815 -1.570796 0.000000
 41   6.312404 -4.528058 0.001311 3.221213 -1.570796 0.000000
 42   2.233309 1.152535 -7.309138 -1.138603 -1.583757 -0.873823
 43   4.262825 -0.232720 -1.392178 0.016840 0.076668 0.253759
time 7
  0   1.708652 6.516876 38.178848 0.000000 0.000000 -1.701715
  1   0.890979 0.800806 0.000000 -1.570795 -1.570451 0.000000
  2   -0.000007 0.000008 4.427393 -0.173564 -3.185056 0.048012
  3   18.465939 0.000000 0.000000 0.000000 0.000000 -0.385048
  4   14.875443 0.000000 -0.000001 0.022835 0.040956 0.422573
  5   0.000006 -0.000004 -4.427393 0.099231 3.061469 -0.369350
  6   18.465939 0.000000 0.000000 0.000000 0.000000 -0.481696
  7   14.875442 0.000000 0.000000 -0.008136 0.038537 0.105993
  8   2.255207 -0.007574 0.000003 -0.218337 0.074220 -0.108161
  9   9.514219 -0.009357 0.000000 -0.006228 -0.000192 0.007750
 10   11.751820 -0.001633 0.000000 0.000096 0.130823 1.085439
 11   -1.422163 1.890030 2.489568 -0.775442 -1.388457 2.826761
 12   4.640941 0.000000 -0.000001 0.366339 1.020662 0.450219
 13   10.828049 0.000000 0.000000 0.000000 0.000000 -0.918404
 14   9.393337 -0.000001 0.000000 -1.569611 0.034172 0.000037
 15   1.442245 0.107454 -1.746177 1.686435 0.539209 0.325885
 16   1.063452 0.000000 0.000001 0.000000 0.000000 0.199056
 17   1.376307 -0.000001 0.000001 0.000000 0.000000 0.199049
 18   4.172846 -0.251366 -1.312744 0.008050 0.095731 0.148659
 19   1.215374 0.000002 0.000000 0.000000 0.000000 0.645758
 20   1.215371 -0.000002 0.000001 0.000000 0.000000 0.645758
 21   4.220534 -0.244854 -0.431465 0.001333 0.026242 0.148339
 22   1.350417 0.000000 0.000001 0.000000 0.000000 0.863926
 23   1.350410 -0.000001 -0.000001 0.000000 0.000000 0.863926
 24   -0.730735 1.890043 -2.766917 -1.240859 1.176284 0.860048
 25   4.640942 0.000000 0.000001 -0.755622 -0.414234 0.922906
 26   10.828047 0.000000 0.000001 0.000000 0.000000 -1.280839
 27   9.393339 0.000000 0.000000 1.569611 -0.034192 0.000001
 28   1.442245 0.107455 1.746178 -1.686405 -0.539236 0.325898
 29   1.063450 -0.000001 0.000000 0.000000 0.000000 0.199056
 30   1.376307 0.000000 0.000000 0.000000 0.000000 0.199059
 31   4.172847 -0.251365 1.312745 -0.008050 -0.095731 0.148659
 32   1.215373 -0.000001 0.000000 0.000000 0.000000 0.645746
 33   1.215372 0.000000 0.000000 0.000000 0.000000 0.645746
 34   4.220534 -0.244853 0.431466 -0.001333 -0.026242 0.148339
 35   1.350416 0.000000 -0.000001 0.000000 0.000000 0.863937
 36   1.350410 0.000000 0.000001 0.000000 0.000000 0.863925
 37   2.110540 -0.000001 0.000000 0.330782 -0.316929 -0.589303
 38   0.891923 2.373051 -0.014527 -3.141592 -0.000001 1.413797
 39   7.228122 5.709445 3.726568 3.069464 -1.570796 0.000000
 40   2.450426 5.076128 0.001325 3.113056 -1.570796 0.000000
 41   6.312404 -4.528058 0.001311 3.199475 -1.570796 0.000000
 42   2.233309 1.152535 -7.309138 -1.137644 -1.579097 -0.872003
 43   4.262825 -0.232720 -1.392178 0.016840 0.076668 0.253759
time 8
  0   1.708652 6.516876 38.350727 0.000000 0.000000 -1.701715
  1   0.472998 0.804712 0.000000 -1.570795 -1.570451 0.000000
  2   -0.000007 0.000008 4.427393 -0.174137 -3.186917 0.046217
  3   18.465939 0.000000 0.000000 0.000000 0.000000 -0.358291
  4   14.875443 0.000000 -0.000001 0.023404 0.043042 0.394447
  5   0.000006 -0.000004 -4.427393 0.101049 3.064731 -0.352598
  6   18.465939 0.000000 0.000000 0.000000 0.000000 -0.417307
  7   14.875442 0.000000 0.000000 -0.008066 0.036902 0.058533
  8   2.255207 -0.007574 0.000003 -0.217644 0.074591 -0.069250
  9   9.514219 -0.009357 0.000000 -0.004895 -0.000192 0.007599
 10   11.751820 -0.001633 0.000000 0.000096 0.130823 1.085439
 11   -1.422163 1.890030 2.489568 -0.768613 -1.392210 2.820028
 12   4.640941 0.000000 -0.000001 0.380830 1.069083 0.494239
 13   10.828049 0.000000 0.000000 0.000000 0.000000 -0.927922
 14   9.393337 -0.000001 0.000000 -1.569611 0.034172 0.000037
 15   1.442245 0.107454 -1.746177 1.686435 0.539209 0.325885
 16   1.063452 0.000000 0.000001 0.000000 0.000000 0.199056
 17   1.376307 -0.000001 0.000001 0.000000 0.000000 0.199049
 18   4.172846 -0.251366 -1.312744 0.008050 0.095731 0.148659
 19   1.215374 0.000002 0.000000 0.000000 0.000000 0.645758
 20   1.215371 -0.000002 0.000001 0.000000 0.000000 0.645758
 21   4.220534 -0.244854 -0.431465 0.001333 0.026242 0.148339
 22   1.350417 0.000000 0.000001 0.000000 0.000000 0.863926
 23   1.350410 -0.000001 -0.000001 0.000000 0.000000 0.863926
 24   -0.730735 1.890043 -2.766917 -1.242527 1.169805 0.859567
 25   4.640942 0.000000 0.000001 -0.820913 -0.442827 0.908348
 26   10.828047 0.000000 0.000001 0.000000 0.000000 -1.280839
 27   9.393339 0.000000 0.000000 1.569611 -0.034192 0.000001
 28   1.442245 0.107455 1.746178 -1.686405 -0.539236 0.325898
 29   1.063450 -0.000001 0.000000 0.000000 0.000000 0.199056
 30   1.376307 0.000000 0.000000 0.000000 0.000000 0.199059
 31   4.172847 -0.251365 1.312745 -0.008050 -0.095731 0.148659
 32   1.215373 -0.000001 0.000000 0.000000 0.000000 0.645746
 33   1.215372 0.000000 0.000000 0.000000 0.000000 0.645746
 34   4.220534 -0.244853 0.431466 -0.001333 -0.026242 0.148339
 35   1.350416 0.000000 -0.000001 0.000000 0.000000 0.863937
 36   1.350410 0.000000 0.000001 0.000000 0.000000 0.863925
 37   2.110540 -0.000001 0.000000 0.313041 -0.334527 -0.543675
 38   0.891923 2.373051 -0.014527 -3.141592 -0.000001 1.413797
 39   7.228122 5.709445 3.726568 3.111256 -1.570796 0.000000
 40   2.450426 5.076128 0.001325 3.092255 -1.570796 0.000000
 41   6.312404 -4.528058 0.001311 3.180441 -1.570796 0.000000
 42   2.233309 1.152535 -7.309138 -1.144547 -1.579475 -0.862046
 43   4.262825 -0.232720 -1.392178 0.016840 0.076668 0.253759
time 9
  0   1.708652 6.516876 38.487450 0.000000 0.000000 -1.701715
  1   0.101893 0.796899 0.000000 -1.570795 -1.570451 0.000000
  2   -0.000007 0.000008 4.427393 -0.174614 -3.187940 0.042975
  3   18.465939 0.000000 0.000000 0.000000 0.000000 -0.337821
  4   14.875443 0.000000 -0.000001 0.023802 0.044617 0.370982
  5   0.000006 -0.000004 -4.427393 0.102580 3.068273 -0.335378
  6   18.465939 0.000000 0.000000 0.000000 0.000000 -0.354165
  7   14.875442 0.000000 0.000000 -0.007715 0.035133 0.012799
  8   2.255207 -0.007574 0.000003 -0.213549 0.074028 -0.034244
  9   9.514219 -0.009357 0.000000 -0.003773 -0.000168 0.006408
 10   11.751820 -0.001633 0.000000 0.000096 0.130823 1.085439
 11   -1.422163 1.890030 2.489568 -0.753133 -1.395677 2.804639
 12   4.640941 0.000000 -0.000001 0.404899 1.112752 0.541538
 13   10.828049 0.000000 0.000000 0.000000 0.000000 -0.934999
 14   9.393337 -0.000001 0.000000 -1.569611 0.034172 0.000037
 15   1.442245 0.107454 -1.746177 1.686435 0.539209 0.325885
 16   1.063452 0.000000 0.000001 0.000000 0.000000 0.199056
 17   1.376307 -0.000001 0.000001 0.000000 0.000000 0.199049
 18   4.172846 -0.251366 -1.312744 0.008050 0.095731 0.148659
 19   1.215374 0.000002 0.000000 0.000000 0.000000 0.645758
 20   1.215371 -0.000002 0.000001 0.000000 0.000000 0.645758
 21   4.220534 -0.244854 -0.431465 0.001333 0.026242 0.148339
 22   1.350417 0.000000 0.000001 0.000000 0.000000 0.863926
 23   1.350410 -0.000001 -0.000001 0.000000 0.000000 0.863926
 24   -0.730735 1.890043 -2.766917 -1.252010 1.163450 0.850898
 25   4.640942 0.000000 0.000001 -0.882449 -0.470653 0.900788
 26   10.828047 0.000000 0.000001 0.000000 0.000000 -1.280839
 27   9.393339 0.000000 0.000000 1.569611 -0.034192 0.000001
 28   1.442245 0.107455 1.746178 -1.686405 -0.539236 0.325898
 29   1.063450 -0.000001 0.000000 0.000000 0.000000 0.199056
 30   1.376307 0.000000 0.000000 0.000000 0.000000 0.199059
 31   4.172847 -0.251365 1.312745 -0.008050 -0.095731 0.148659
 32   1.215373 -0.000001 0.000000 0.000000 0.000000 0.645746
 33   1.215372 0.000000 0.000000 0.000000 0.000000 0.645746
 34   4.220534 -0.244853 0.431466 -0.001333 -0.026242 0.148339
 35   1.350416 0.000000 -0.000001 0.000000 0.000000 0.863937
 36   1.350410 0.000000 0.000001 0.000000 0.000000 0.863925
 37   2.110540 -0.000001 0.000000 0.313089 -0.329443 -0.559458
 38   0.891923 2.373051 -0.014527 -3.141592 -0.000001 1.413797
 39   7.228122 5.709445 3.726568 3.113631 -1.570796 0.000000
 40   2.450426 5.076128 0.001325 3.090324 -1.570796 0.000000
 41   6.312404 -4.528058 0.001311 3.163550 -1.570796 0.000000
 42   2.233309 1.152535 -7.309138 -1.146368 -1.579533 -0.855345
 43   4.262825 -0.232720 -1.392178 0.016840 0.076668 0.253759
time 10
  0   1.708652 6.544403 38.565578 0.000000 0.000000 -1.701715
  1   -0.210617 0.777367 0.000000 -1.570795 -1.570451 0.000000
  2   -0.000007 0.000008 4.427393 -0.175092 -3.187475 0.034995
  3   18.465939 0.000000 0.000000 0.000000 0.000000 -0.332557
  4   14.875443 0.000000 -0.000001 0.023945 0.045553 0.357827
  5   0.000006 -0.000004 -4.427393 0.103250 3.071629 -0.322556
  6   18.465939 0.000000 0.000000 0.000000 0.000000 -0.303887
  7   14.875442 0.000000 0.000000 -0.006767 0.033251 -0.024268
  8   2.255207 -0.007574 0.000003 -0.205337 0.072158 -0.004035
  9   9.514219 -0.009357 0.000000 -0.002889 -0.000096 0.003962
 10   11.751820 -0.001633 0.000000 0.000096 0.130823 1.085439
 11   -1.422163 1.890030 2.489568 -0.728472 -1.399240 2.779975
 12   4.640941 0.000000 -0.000001 0.436974 1.149464 0.590007
 13   10.828049 0.000000 0.000000 0.000000 0.000000 -0.936220
 14   9.393337 -0.000001 0.000000 -1.569611 0.034172 0.000037
 15   1.442245 0.107454 -1.746177 1.686435 0.539209 0.325885
 16   1.063452 0.000000 0.000001 0.000000 0.000000 0.199056
 17   1.376307 -0.000001 0.000001 0.000000 0.000000 0.199049
 18   4.172846 -0.251366 -1.312744 0.008050 0.095731 0.148659
 19   1.215374 0.000002 0.000000 0.000000 0.000000 0.645758
 20   1.215371 -0.000002 0.000001 0.000000 0.000000 0.645758
 21   4.220534 -0.244854 -0.431465 0.001333 0.026242 0.148339
 22   1.350417 0.000000 0.000001 0.000000 0.000000 0.863926
 23   1.350410 -0.000001 -0.000001 0.000000 0.000000 0.863926
 24   -0.730735 1.890043 -2.766917 -1.282608 1.152111 0.820628
 25   4.640942 0.000000 0.000001 -0.952115 -0.487739 0.918427
 26   10.828047 0.000000 0.000001 0.000000 0.000000 -1.302039
 27   9.393339 0.000000 0.000000 1.569611 -0.034192 0.000001
 28   1.442245 0.107455 1.746178 -1.686405 -0.539236 0.325898
 29   1.063450 -0.000001 0.000000 0.000000 0.000000 0.199056
 30   1.376307 0.000000 0.000000 0.000000 0.000000 0.199059
 31   4.172847 -0.251365 1.312745 -0.008050 -0.095731 0.148659
 32   1.215373 -0.000001 0.000000 0.000000 0.000000 0.645746
 33   1.215372 0.000000 0.000000 0.000000 0.000000 0.645746
 34   4.220534 -0.244853 0.431466 -0.001333 -0.026242 0.148339
 35   1.350416 0.000000 -0.000001 0.000000 0.000000 0.863937
 36   1.350410 0.000000 0.000001 0.000000 0.000000 0.863925
 37   2.110540 -0.000001 0.000000 0.342991 -0.285393 -0.683009
 38   0.891923 2.373051 -0.014527 -3.141592 -0.000001 1.413797
 39   7.228122 5.709445 3.726568 3.110496 -1.570796 0.000000
 40   2.450426 5.076128 0.001325 3.090500 -1.570796 0.000000
 41   6.312404 -4.528058 0.001311 3.148496 -1.570796 0.000000
 42   2.233309 1.152535 -7.309138 -1.106390 -1.572602 -0.886269
 43   4.262825 -0.232720 -1.392178 0.016840 0.076668 0.253759
time 11
  0   1.708652 6.544403 38.596828 0.000000 0.000000 -1.701715
  1   -0.456718 0.734397 0.000000 -1.570795 -1.570451 0.000000
  2   -0.000007 0.000008 4.427393 -0.175378 -3.185614 0.023674
  3   18.465939 0.000000 0.000000 0.000000 0.000000 -0.340014
  4   14.875443 0.000000 -0.000001 0.023688 0.045702 0.353719
  5   0.000006 -0.000004 -4.427393 0.103728 3.074705 -0.315818
  6   18.465939 0.000000 0.000000 0.000000 0.000000 -0.271200
  7   14.875442 0.000000 0.000000 -0.006066 0.031083 -0.049893
  8   2.255207 -0.007574 0.000003 -0.192295 0.068635 0.020450
  9   9.514219 -0.009357 0.000000 -0.002296 0.000000 0.000000
 10   11.751820 -0.001633 0.000000 0.000096 0.130823 1.085439
 11   -1.422163 1.890030 2.489568 -0.693642 -1.403216 2.745143
 12   4.640941 0.000000 -0.000001 0.473864 1.177085 0.635725
 13   10.828049 0.000000 0.000000 0.000000 0.000000 -0.927922
 14   9.393337 -0.000001 0.000000 -1.569611 0.034172 0.000037
 15   1.442245 0.107454 -1.746177 1.686435 0.539209 0.325885
 16   1.063452 0.000000 0.000001 0.000000 0.000000 0.199056
 17   1.376307 -0.000001 0.000001 0.000000 0.000000 0.199049
 18   4.172846 -0.251366 -1.312744 0.008050 0.095731 0.148659
 19   1.215374 0.000002 0.000000 0.000000 0.000000 0.645758
 20   1.215371 -0.000002 0.000001 0.000000 0.000000 0.645758
 21   4.220534 -0.244854 -0.431465 0.001333 0.026242 0.148339
 22   1.350417 0.000000 0.000001 0.000000 0.000000 0.863926
 23   1.350410 -0.000001 -0.000001 0.000000 0.000000 0.863926
 24   -0.730735 1.890043 -2.766917 -1.324357 1.141936 0.777767
 25   4.640942 0.000000 0.000001 -1.019825 -0.504407 0.947334
 26   10.828047 0.000000 0.000001 0.000000 0.000000 -1.323181
 27   9.393339 0.000000 0.000000 1.569611 -0.034192 0.000001
 28   1.442245 0.107455 1.746178 -1.686405 -0.539236 0.325898
 29   1.063450 -0.000001 0.000000 0.000000 0.000000 0.199056
 30   1.376307 0.000000 0.000000 0.000000 0.000000 0.199059
 31   4.172847 -0.251365 1.312745 -0.008050 -0.095731 0.148659
 32   1.215373 -0.000001 0.000000 0.000000 0.000000 0.645746
 33   1.215372 0.000000 0.000000 0.000000 0.000000 0.645746
 34   4.220534 -0.244853 0.431466 -0.001333 -0.026242 0.148339
 35   1.350416 0.000000 -0.000001 0.000000 0.000000 0.863937
 36   1.350410 0.000000 0.000001 0.000000 0.000000 0.863925
 37   2.110540 -0.000001 0.000000 0.364308 -0.232655 -0.810087
 38   0.891923 2.373051 -0.014527 -3.141592 -0.000001 1.413797
 39   7.228122 5.709445 3.726568 3.115530 -1.570796 0.000000
 40   2.450426 5.076128 0.001325 3.092431 -1.570796 0.000000
 41   6.312404 -4.528058 0.001311 3.140281 -1.570796 0.000000
 42   2.233309 1.152535 -7.309138 -1.164968 -1.566253 -0.818006
 43   4.262825 -0.232720 -1.392178 0.016840 0.076668 0.253759
time 12
  0   1.708652 6.571931 38.604641 0.000000 0.000000 -1.701715
  1   -0.609066 0.671896 0.000000 -1.570795 -1.570451 0.000000
  2   -0.000007 0.000008 4.427393 -0.175378 -3.182823 0.014149
  3   18.465939 0.000000 0.000000 0.000000 0.000000 -0.349445
  4   14.875443 0.000000 -0.000001 0.023318 0.044638 0.353324
  5   0.000006 -0.000004 -4.427393 0.103919 3.077687 -0.312917
  6   18.465939 0.000000 0.000000 0.000000 0.000000 -0.252887
  7   14.875442 0.000000 0.000000 -0.005258 0.028496 -0.065013
  8   2.255207 -0.007574 0.000003 -0.172596 0.062894 0.037060
  9   9.514219 -0.009357 0.000000 -0.002111 0.000168 -0.006018
 10   11.751820 -0.001633 0.000000 0.000096 0.130823 1.085439
 11   -1.422163 1.890030 2.489568 -0.647278 -1.407844 2.698770
 12   4.640941 0.000000 -0.000001 0.513553 1.193133 0.675121
 13   10.828049 0.000000 0.000000 0.000000 0.000000 -0.906568
 14   9.393337 -0.000001 0.000000 -1.569611 0.034172 0.000037
 15   1.442245 0.107454 -1.746177 1.686435 0.539209 0.325885
 16   1.063452 0.000000 0.000001 0.000000 0.000000 0.199056
 17   1.376307 -0.000001 0.000001 0.000000 0.000000 0.199049
 18   4.172846 -0.251366 -1.312744 0.008050 0.095731 0.148659
 19   1.215374 0.000002 0.000000 0.000000 0.000000 0.645758
 20   1.215371 -0.000002 0.000001 0.000000 0.000000 0.645758
 21   4.220534 -0.244854 -0.431465 0.001333 0.026242 0.148339
 22   1.350417 0.000000 0.000001 0.000000 0.000000 0.863926
 23   1.350410 -0.000001 -0.000001 0.000000 0.000000 0.863926
 24   -0.730735 1.890043 -2.766917 -1.348721 1.147937 0.750386
 25   4.640942 0.000000 0.000001 -1.048432 -0.552736 0.948174
 26   10.828047 0.000000 0.000001 0.000000 0.000000 -1.280839
 27   9.393339 0.000000 0.000000 1.569611 -0.034192 0.000001
 28   1.442245 0.107455 1.746178 -1.686405 -0.539236 0.325898
 29   1.063450 -0.000001 0.000000 0.000000 0.000000 0.199056
 30   1.376307 0.000000 0.000000 0.000000 0.000000 0.199059
 31   4.172847 -0.251365 1.312745 -0.008050 -0.095731 0.148659
 32   1.215373 -0.000001 0.000000 0.000000 0.000000 0.645746
 33   1.215372 0.000000 0.000000 0.000000 0.000000 0.645746
 34   4.220534 -0.244853 0.431466 -0.001333 -0.026242 0.148339
 35   1.350416 0.000000 -0.000001 0.000000 0.000000 0.863937
 36   1.350410 0.000000 0.000001 0.000000 0.000000 0.863925
 37   2.110540 -0.000001 0.000000 0.363116 -0.193213 -0.885603
 38   0.891923 2.373051 -0.014527 -3.141592 -0.000001 1.413797
 39   7.228122 5.709445 3.726568 3.119710 -1.570796 0.000000
 40   2.450426 5.076128 0.001325 3.095854 -1.570796 0.000000
 41   6.312404 -4.528058 0.001311 3.137678 -1.570796 0.000000
 42   2.233309 1.152535 -7.309138 -1.157106 -1.568175 -0.817814
 43   4.262825 -0.232720 -1.392178 0.016840 0.076668 0.253759
time 13
  0   1.708652 6.599459 38.596828 0.000000 0.000000 -1.701715
  1   -0.663756 0.582049 0.000000 -1.570795 -1.570451 0.000000
  2   -0.000007 0.000008 4.427393 -0.175474 -3.179288 0.007216
  3   18.465939 0.000000 0.000000 0.000000 0.000000 -0.359607
  4   14.875443 0.000000 -0.000001 0.023091 0.042318 0.356049
  5   0.000006 -0.000004 -4.427393 0.104206 3.080577 -0.314789
  6   18.465939 0.000000 0.000000 0.000000 0.000000 -0.251509
  7   14.875442 0.000000 0.000000 -0.004662 0.025453 -0.068014
  8   2.255207 -0.007574 0.000003 -0.145861 0.054888 0.045266
  9   9.514219 -0.009357 0.000000 -0.002335 0.000395 -0.014201
 10   11.751820 -0.001633 0.000000 -0.002037 0.121691 1.011383
 11   -1.535447 1.800183 2.489568 -0.517216 -1.417259 2.642985
 12   4.640941 0.000000 -0.000001 0.551277 1.196715 0.703512
 13   10.828049 0.000000 0.000000 0.000000 0.000000 -0.871486
 14   9.393337 -0.000001 0.000000 -1.569611 0.034172 0.000037
 15   1.442245 0.107454 -1.746177 1.686435 0.539209 0.325885
 16   1.063452 0.000000 0.000001 0.000000 0.000000 0.199056
 17   1.376307 -0.000001 0.000001 0.000000 0.000000 0.199049
 18   4.172846 -0.251366 -1.312744 0.008050 0.095731 0.148659
 19   1.215374 0.000002 0.000000 0.000000 0.000000 0.645758
 20   1.215371 -0.000002 0.000001 0.000000 0.000000 0.645758
 21   4.220534 -0.244854 -0.431465 0.001333 0.026242 0.148339
 22   1.350417 0.000000 0.000001 0.000000 0.000000 0.863926
 23   1.350410 -0.000001 -0.000001 0.000000 0.000000 0.863926
 24   -0.890897 1.811915 -2.770823 -1.350960 1.181144 0.817257
 25   4.640942 0.000000 0.000001 -1.039582 -0.630356 0.921227
 26   10.828047 0.000000 0.000001 0.000000 0.000000 -1.177338
 27   9.393339 0.000000 0.000000 1.569611 -0.034192 0.000001
 28   1.442245 0.107455 1.746178 -1.686405 -0.539236 0.325898
 29   1.063450 -0.000001 0.000000 0.000000 0.000000 0.199056
 30   1.376307 0.000000 0.000000 0.000000 0.000000 0.199059
 31   4.172847 -0.251365 1.312745 -0.008050 -0.095731 0.148659
 32   1.215373 -0.000001 0.000000 0.000000 0.000000 0.645746
 33   1.215372 0.000000 0.000000 0.000000 0.000000 0.645746
 34   4.220534 -0.244853 0.431466 -0.001333 -0.026242 0.148339
 35   1.350416 0.000000 -0.000001 0.000000 0.000000 0.863937
 36   1.350410 0.000000 0.000001 0.000000 0.000000 0.863925
 37   2.110540 -0.000001 0.000000 0.329447 -0.174303 -0.818344
 38   0.891923 2.373051 -0.014527 -3.141592 -0.000001 1.413797
 39   7.228122 5.709445 3.726568 3.123224 -1.570796 0.000000
 40   2.450426 5.076128 0.001325 3.100418 -1.570796 0.000000
 41   6.312404 -4.528058 0.001311 3.136351 -1.570796 0.000000
 42   2.233309 1.152535 -7.309138 -1.970393 -1.570796 0.000000
 43   4.262825 -0.232720 -1.392178 0.016840 0.076668 0.253759
time 14
  0   1.708652 6.626986 38.573391 0.000000 0.000000 -1.701715
  1   -0.636411 0.476577 0.000000 -1.570795 -1.570451 0.000000
  2   -0.000007 0.000008 4.427393 -0.175187 -3.175195 0.002578
  3   18.465939 0.000000 0.000000 0.000000 0.000000 -0.370061
  4   14.875443 0.000000 -0.000001 0.022692 0.039104 0.361185
  5   0.000006 -0.000004 -4.427393 0.104398 3.083280 -0.320685
  6   18.465939 0.000000 0.000000 0.000000 0.000000 -0.264111
  7   14.875442 0.000000 0.000000 -0.004100 0.022201 -0.060961
  8   2.255207 -0.007574 0.000003 -0.113476 0.045229 0.046523
  9   9.514219 -0.009357 0.000000 -0.002916 0.000659 -0.024138
 10   11.751820 -0.001633 0.000000 -0.003859 0.111755 0.933756
 11   -1.644826 1.694711 2.489568 -0.358623 -1.424972 2.562329
 12   4.640941 0.000000 -0.000001 0.584630 1.190240 0.720722
 13   10.828049 0.000000 0.000000 0.000000 0.000000 -0.826154
 14   9.393337 -0.000001 0.000000 -1.569611 0.034172 0.000037
 15   1.442245 0.107454 -1.746177 1.686435 0.539209 0.325885
 16   1.063452 0.000000 0.000001 0.000000 0.000000 0.199056
 17   1.376307 -0.000001 0.000001 0.000000 0.000000 0.199049
 18   4.172846 -0.251366 -1.312744 0.008050 0.095731 0.148659
 19   1.215374 0.000002 0.000000 0.000000 0.000000 0.645758
 20   1.215371 -0.000002 0.000001 0.000000 0.000000 0.645758
 21   4.220534 -0.244854 -0.431465 0.001333 0.026242 0.148339
 22   1.350417 0.000000 0.000001 0.000000 0.000000 0.863926
 23   1.350410 -0.000001 -0.000001 0.000000 0.000000 0.863926
 24   -1.054964 1.714256 -2.774730 -1.346395 1.218545 0.894240
 25   4.640942 0.000000 0.000001 -1.022346 -0.711741 0.893719
 26   10.828047 0.000000 0.000001 0.000000 0.000000 -1.059316
 27   9.393339 0.000000 0.000000 1.569611 -0.034192 0.000001
 28   1.442245 0.107455 1.746178 -1.686405 -0.539236 0.325898
 29   1.063450 -0.000001 0.000000 0.000000 0.000000 0.199056
 30   1.376307 0.000000 0.000000 0.000000 0.000000 0.199059
 31   4.172847 -0.251365 1.312745 -0.008050 -0.095731 0.148659
 32   1.215373 -0.000001 0.000000 0.000000 0.000000 0.645746
 33   1.215372 0.000000 0.000000 0.000000 0.000000 0.645746
 34   4.220534 -0.244853 0.431466 -0.001333 -0.026242 0.148339
 35   1.350416 0.000000 -0.000001 0.000000 0.000000 0.863937
 36   1.350410 0.000000 0.000001 0.000000 0.000000 0.863925
 37   2.110540 -0.000001 0.000000 0.288337 -0.154945 -0.736378
 38   0.891923 2.373051 -0.014527 -3.141592 -0.000001 1.413797
 39   7.228122 5.709445 3.726568 3.126168 -1.570796 0.000000
 40   2.450426 5.076128 0.001325 3.105859 -1.570796 0.000000
 41   6.312404 -4.528058 0.001311 3.135994 -1.570796 0.000000
 42   2.233309 1.152535 -7.309138 -1.152984 -1.568000 -0.821261
 43   4.262825 -0.232720 -1.392178 0.016840 0.076668 0.253759
time 15
  0   1.708652 6.682042 38.538235 0.000000 0.000000 -1.701715
  1   -0.546564 0.363292 0.000000 -1.570795 -1.570451 0.000000
  2   -0.000007 0.000008 4.427393 -0.174805 -3.170915 -0.000065
  3   18.465939 0.000000 0.000000 0.000000 0.000000 -0.380223
  4   14.875443 0.000000 -0.000001 0.022208 0.035337 0.368019
  5   0.000006 -0.000004 -4.427393 0.104493 3.085703 -0.328920
  6   18.465939 0.000000 0.000000 0.000000 0.000000 -0.285706
  7   14.875442 0.000000 0.000000 -0.003609 0.018892 -0.047192
  8   2.255207 -0.007574 0.000003 -0.076786 0.034563 0.042420
  9   9.514219 -0.009357 0.000000 -0.003734 0.000959 -0.035373
 10   11.751820 -0.001633 0.000000 -0.005189 0.101161 0.853392
 11   -1.750298 1.577520 2.497381 -0.175671 -1.429632 2.460239
 12   4.640941 0.000000 -0.000001 0.613807 1.176671 0.728508
 13   10.828049 0.000000 0.000000 0.000000 0.000000 -0.772829
 14   9.393337 -0.000001 0.000000 -1.569611 0.034172 0.000037
 15   1.442245 0.107454 -1.746177 1.686435 0.539209 0.325885
 16   1.063452 0.000000 0.000001 0.000000 0.000000 0.199056
 17   1.376307 -0.000001 0.000001 0.000000 0.000000 0.199049
 18   4.172846 -0.251366 -1.312744 0.008050 0.095731 0.148659
 19   1.215374 0.000002 0.000000 0.000000 0.000000 0.645758
 20   1.215371 -0.000002 0.000001 0.000000 0.000000 0.645758
 21   4.220534 -0.244854 -0.431465 0.001333 0.026242 0.148339
 22   1.350417 0.000000 0.000001 0.000000 0.000000 0.863926
 23   1.350410 -0.000001 -0.000001 0.000000 0.000000 0.863926
 24   -1.215125 1.604878 -2.774730 -1.333532 1.259040 0.982163
 25   4.640942 0.000000 0.000001 -0.995385 -0.795219 0.863412
 26   10.828047 0.000000 0.000001 0.000000 0.000000 -0.930200
 27   9.393339 0.000000 0.000000 1.569611 -0.034192 0.000001
 28   1.442245 0.107455 1.746178 -1.686405 -0.539236 0.325898
 29   1.063450 -0.000001 0.000000 0.000000 0.000000 0.199056
 30   1.376307 0.000000 0.000000 0.000000 0.000000 0.199059
 31   4.172847 -0.251365 1.312745 -0.008050 -0.095731 0.148659
 32   1.215373 -0.000001 0.000000 0.000000 0.000000 0.645746
 33   1.215372 0.000000 0.000000 0.000000 0.000000 0.645746
 34   4.220534 -0.244853 0.431466 -0.001333 -0.026242 0.148339
 35   1.350416 0.000000 -0.000001 0.000000 0.000000 0.863937
 36   1.350410 0.000000 0.000001 0.000000 0.000000 0.863925
 37   2.110540 -0.000001 0.000000 0.242030 -0.134442 -0.643660
 38   0.891923 2.373051 -0.014527 -3.141592 -0.000001 1.413797
 39   7.228122 5.709445 3.726568 3.128733 -1.570796 0.000000
 40   2.450426 5.076128 0.001325 3.111915 -1.570796 0.000000
 41   6.312404 -4.528058 0.001311 3.136402 -1.570796 0.000000
 42   2.233309 1.152535 -7.309138 -1.153079 -1.563165 -0.828250
 43   4.262825 -0.232720 -1.392178 0.016840 0.076668 0.253759
time 16
  0   1.708652 6.709569 38.499168 0.000000 0.000000 -1.701715
  1   -0.409842 0.250008 0.000000 -1.570795 -1.570451 0.000000
  2   -0.000007 0.000008 4.427393 -0.174233 -3.166636 -0.001113
  3   18.465939 0.000000 0.000000 0.000000 0.000000 -0.389727
  4   14.875443 0.000000 -0.000001 0.021696 0.031314 0.375722
  5   0.000006 -0.000004 -4.427393 0.104685 3.087940 -0.337624
  6   18.465939 0.000000 0.000000 0.000000 0.000000 -0.311435
  7   14.875442 0.000000 0.000000 -0.003153 0.015697 -0.029934
  8   2.255207 -0.007574 0.000003 -0.037177 0.023489 0.034512
  9   9.514219 -0.009357 0.000000 -0.004737 0.001258 -0.047475
 10   11.751820 -0.001633 0.000000 -0.005848 0.090015 0.771149
 11   -1.847957 1.448610 2.505193 0.021243 -1.430220 2.346195
 12   4.640941 0.000000 -0.000001 0.640184 1.158625 0.729796
 13   10.828049 0.000000 0.000000 0.000000 0.000000 -0.713952
 14   9.393337 -0.000001 0.000000 -1.569611 0.034172 0.000037
 15   1.442245 0.107454 -1.746177 1.686435 0.539209 0.325885
 16   1.063452 0.000000 0.000001 0.000000 0.000000 0.199056
 17   1.376307 -0.000001 0.000001 0.000000 0.000000 0.199049
 18   4.172846 -0.251366 -1.312744 0.008050 0.095731 0.148659
 19   1.215374 0.000002 0.000000 0.000000 0.000000 0.645758
 20   1.215371 -0.000002 0.000001 0.000000 0.000000 0.645758
 21   4.220534 -0.244854 -0.431465 0.001333 0.026242 0.148339
 22   1.350417 0.000000 0.000001 0.000000 0.000000 0.863926
 23   1.350410 -0.000001 -0.000001 0.000000 0.000000 0.863926
 24   -1.371380 1.479874 -2.774730 -1.309870 1.301425 1.082882
 25   4.640942 0.000000 0.000001 -0.956694 -0.879115 0.827155
 26   10.828047 0.000000 0.000001 0.000000 0.000000 -0.793244
 27   9.393339 0.000000 0.000000 1.569611 -0.034192 0.000001
 28   1.442245 0.107455 1.746178 -1.686405 -0.539236 0.325898
 29   1.063450 -0.000001 0.000000 0.000000 0.000000 0.199056
 30   1.376307 0.000000 0.000000 0.000000 0.000000 0.199059
 31   4.172847 -0.251365 1.312745 -0.008050 -0.095731 0.148659
 32   1.215373 -0.000001 0.000000 0.000000 0.000000 0.645746
 33   1.215372 0.000000 0.000000 0.000000 0.000000 0.645746
 34   4.220534 -0.244853 0.431466 -0.001333 -0.026242 0.148339
 35   1.350416 0.000000 -0.000001 0.000000 0.000000 0.863937
 36   1.350410 0.000000 0.000001 0.000000 0.000000 0.863925
 37   2.110540 -0.000001 0.000000 0.192670 -0.112263 -0.544191
 38   0.891923 2.373051 -0.014527 -3.141592 -0.000001 1.413797
 39   7.228122 5.709445 3.726568 3.131108 -1.570796 0.000000
 40   2.450426 5.076128 0.001325 3.118322 -1.570796 0.000000
 41   6.312404 -4.528058 0.001311 3.137321 -1.570796 0.000000
 42   2.233309 1.152535 -7.309138 -1.150012 -1.556933 -0.838590
 43   4.262825 -0.232720 -1.392178 0.016840 0.076668 0.253759
time 17
  0   1.708652 6.764625 38.456200 0.000000 0.000000 -1.701715
  1   -0.253587 0.140629 0.000000 -1.570795 -1.570451 0.000000
  2   -0.000007 0.000008 4.427393 -0.173564 -3.162635 -0.000913
  3   18.465939 0.000000 0.000000 0.000000 0.000000 -0.398134
  4   14.875443 0.000000 -0.000001 0.021127 0.027313 0.383623
  5   0.000006 -0.000004 -4.427393 0.104876 3.090084 -0.345859
  6   18.465939 0.000000 0.000000 0.000000 0.000000 -0.337558
  7   14.875442 0.000000 0.000000 -0.002767 0.012730 -0.011738
  8   2.255207 -0.007574 0.000003 0.003965 0.012487 0.024454
  9   9.514219 -0.009357 0.000000 -0.005832 0.001558 -0.060031
 10   11.751820 -0.001633 0.000000 -0.005705 0.078498 0.687859
 11   -1.933897 1.307981 2.516912 0.217550 -1.426387 2.234075
 12   4.640941 0.000000 -0.000001 0.665039 1.138788 0.727454
 13   10.828049 0.000000 0.000000 0.000000 0.000000 -0.651842
 14   9.393337 -0.000001 0.000000 -1.569611 0.034172 0.000037
 15   1.442245 0.107454 -1.746177 1.686435 0.539209 0.325885
 16   1.063452 0.000000 0.000001 0.000000 0.000000 0.199056
 17   1.376307 -0.000001 0.000001 0.000000 0.000000 0.199049
 18   4.172846 -0.251366 -1.312744 0.008050 0.095731 0.148659
 19   1.215374 0.000002 0.000000 0.000000 0.000000 0.645758
 20   1.215371 -0.000002 0.000001 0.000000 0.000000 0.645758
 21   4.220534 -0.244854 -0.431465 0.001333 0.026242 0.148339
 22   1.350417 0.000000 0.000001 0.000000 0.000000 0.863926
 23   1.350410 -0.000001 -0.000001 0.000000 0.000000 0.863926
 24   -1.519822 1.339245 -2.766917 -1.270887 1.344433 1.200181
 25   4.640942 0.000000 0.000001 -0.903390 -0.961617 0.780609
 26   10.828047 0.000000 0.000001 0.000000 0.000000 -0.651815
 27   9.393339 0.000000 0.000000 1.569611 -0.034192 0.000001
 28   1.442245 0.107455 1.746178 -1.686405 -0.539236 0.325898
 29   1.063450 -0.000001 0.000000 0.000000 0.000000 0.199056
 30   1.376307 0.000000 0.000000 0.000000 0.000000 0.199059
 31   4.172847 -0.251365 1.312745 -0.008050 -0.095731 0.148659
 32   1.215373 -0.000001 0.000000 0.000000 0.000000 0.645746
 33   1.215372 0.000000 0.000000 0.000000 0.000000 0.645746
 34   4.220534 -0.244853 0.431466 -0.001333 -0.026242 0.148339
 35   1.350416 0.000000 -0.000001 0.000000 0.000000 0.863937
 36   1.350410 0.000000 0.000001 0.000000 0.000000 0.863925
 37   2.110540 -0.000001 0.000000 0.142261 -0.088297 -0.441755
 38   0.891923 2.373051 -0.014527 -3.141592 -0.000001 1.413797
 39   7.228122 5.709445 3.726568 3.133292 -1.570796 0.000000
 40   2.450426 5.076128 0.001325 3.124729 -1.570796 0.000000
 41   6.312404 -4.528058 0.001311 3.138495 -1.570796 0.000000
 42   2.233309 1.152535 -7.309138 -1.149724 -1.551486 -0.846058
 43   4.262825 -0.232720 -1.392178 0.016840 0.076668 0.253759
time 18
  0   1.708652 6.792152 38.413231 0.000000 0.000000 -1.701715
  1   -0.093426 0.039064 0.000000 -1.570795 -1.570451 0.000000
  2   -0.000007 0.000008 4.427393 -0.172992 -3.159007 -0.000115
  3   18.465939 0.000000 0.000000 0.000000 0.000000 -0.405445
  4   14.875443 0.000000 -0.000001 0.020614 0.023546 0.391010
  5   0.000006 -0.000004 -4.427393 0.105163 3.091948 -0.352878
  6   18.465939 0.000000 0.000000 0.000000 0.000000 -0.361319
  7   14.875442 0.000000 0.000000 -0.002451 0.010030 0.005258
  8   2.255207 -0.007574 0.000003 0.045213 0.001929 0.013932
  9   9.514219 -0.009357 0.000000 -0.006927 0.001846 -0.072565
 10   11.751820 -0.001633 0.000000 -0.004698 0.066801 0.604354
 11   -2.008118 1.163445 2.528632 0.399818 -1.418594 2.136450
 12   4.640941 0.000000 -0.000001 0.689403 1.119433 0.724293
 13   10.828049 0.000000 0.000000 0.000000 0.000000 -0.588999
 14   9.393337 -0.000001 0.000000 -1.569611 0.034172 0.000037
 15   1.442245 0.107454 -1.746177 1.686435 0.539209 0.325885
 16   1.063452 0.000000 0.000001 0.000000 0.000000 0.199056
 17   1.376307 -0.000001 0.000001 0.000000 0.000000 0.199049
 18   4.172846 -0.251366 -1.312744 0.008050 0.095731 0.148659
 19   1.215374 0.000002 0.000000 0.000000 0.000000 0.645758
 20   1.215371 -0.000002 0.000001 0.000000 0.000000 0.645758
 21   4.220534 -0.244854 -0.431465 0.001333 0.026242 0.148339
 22   1.350417 0.000000 0.000001 0.000000 0.000000 0.863926
 23   1.350410 -0.000001 -0.000001 0.000000 0.000000 0.863926
 24   -1.656545 1.186896 -2.759104 -1.208549 1.386632 1.341422
 25   4.640942 0.000000 0.000001 -0.831049 -1.041259 0.717685
 26   10.828047 0.000000 0.000001 0.000000 0.000000 -0.509224
 27   9.393339 0.000000 0.000000 1.569611 -0.034192 0.000001
 28   1.442245 0.107455 1.746178 -1.686405 -0.539236 0.325898
 29   1.063450 -0.000001 0.000000 0.000000 0.000000 0.199056
 30   1.376307 0.000000 0.000000 0.000000 0.000000 0.199059
 31   4.172847 -0.251365 1.312745 -0.008050 -0.095731 0.148659
 32   1.215373 -0.000001 0.000000 0.000000 0.000000 0.645746
 33   1.215372 0.000000 0.000000 0.000000 0.000000 0.645746
 34   4.220534 -0.244853 0.431466 -0.001333 -0.026242 0.148339
 35   1.350416 0.000000 -0.000001 0.000000 0.000000 0.863937
 36   1.350410 0.000000 0.000001 0.000000 0.000000 0.863925
 37   2.110540 -0.000001 0.000000 0.092663 -0.062849 -0.340178
 38   0.891923 2.373051 -0.014527 -3.141592 -0.000001 1.413797
 39   7.228122 5.709445 3.726568 3.135572 -1.570796 0.000000
 40   2.450426 5.076128 0.001325 3.130785 -1.570796 0.000000
 41   6.312404 -4.528058 0.001311 3.139617 -1.570796 0.000000
 42   2.233309 1.152535 -7.309138 -1.146944 -1.553350 -0.853143
 43   4.262825 -0.232720 -1.392178 0.016840 0.076668 0.253759
time 19
  0   1.708652 6.819680 38.378071 0.000000 0.000000 -1.701715
  1   0.055016 -0.046876 0.000000 -1.570795 -1.570451 0.000000
  2   -0.000007 0.000008 4.427393 -0.172419 -3.155658 0.000733
  3   18.465939 0.000000 0.000000 0.000000 0.000000 -0.411513
  4   14.875443 0.000000 -0.000001 0.020102 0.020183 0.397370
  5   0.000006 -0.000004 -4.427393 0.105450 3.093812 -0.358306
  6   18.465939 0.000000 0.000000 0.000000 0.000000 -0.380747
  7   14.875442 0.000000 0.000000 -0.002100 0.007577 0.019440
  8   2.255207 -0.007574 0.000003 0.085095 -0.008043 0.004733
  9   9.514219 -0.009357 0.000000 -0.007943 0.002121 -0.084667
 10   11.751820 -0.001633 0.000000 -0.002768 0.055104 0.521466
 11   -2.070620 1.011096 2.544257 0.560309 -1.407828 2.060260
 12   4.640941 0.000000 -0.000001 0.713816 1.102489 0.722713
 13   10.828049 0.000000 0.000000 0.000000 0.000000 -0.527743
 14   9.393337 -0.000001 0.000000 -1.569611 0.034172 0.000037
 15   1.442245 0.107454 -1.746177 1.686435 0.539209 0.325885
 16   1.063452 0.000000 0.000001 0.000000 0.000000 0.199056
 17   1.376307 -0.000001 0.000001 0.000000 0.000000 0.199049
 18   4.172846 -0.251366 -1.312744 0.008050 0.095731 0.148659
 19   1.215374 0.000002 0.000000 0.000000 0.000000 0.645758
 20   1.215371 -0.000002 0.000001 0.000000 0.000000 0.645758
 21   4.220534 -0.244854 -0.431465 0.001333 0.026242 0.148339
 22   1.350417 0.000000 0.000001 0.000000 0.000000 0.863926
 23   1.350410 -0.000001 -0.000001 0.000000 0.000000 0.863926
 24   -1.777642 1.026735 -2.747385 -1.108062 1.426359 1.520707
 25   4.640942 0.000000 0.000001 -0.733343 -1.115950 0.630123
 26   10.828047 0.000000 0.000001 0.000000 0.000000 -0.369015
 27   9.393339 0.000000 0.000000 1.569611 -0.034192 0.000001
 28   1.442245 0.107455 1.746178 -1.686405 -0.539236 0.325898
 29   1.063450 -0.000001 0.000000 0.000000 0.000000 0.199056
 30   1.376307 0.000000 0.000000 0.000000 0.000000 0.199059
 31   4.172847 -0.251365 1.312745 -0.008050 -0.095731 0.148659
 32   1.215373 -0.000001 0.000000 0.000000 0.000000 0.645746
 33   1.215372 0.000000 0.000000 0.000000 0.000000 0.645746
 34   4.220534 -0.244853 0.431466 -0.001333 -0.026242 0.148339
 35   1.350416 0.000000 -0.000001 0.000000 0.000000 0.863937
 36   1.350410 0.000000 0.000001 0.000000 0.000000 0.863925
 37   2.110540 -0.000001 0.000000 0.045640 -0.036564 -0.242988
 38   0.891923 2.373051 -0.014527 -3.141592 -0.000001 1.413797
 39   7.228122 5.709445 3.726568 3.138041 -1.570796 0.000000
 40   2.450426 5.076128 0.001325 3.136227 -1.570796 0.000000
 41   6.312404 -4.528058 0.001311 3.140536 -1.570796 0.000000
 42   2.233309 1.152535 -7.309138 -1.146656 -1.557515 -0.848930
 43   4.262825 -0.232720 -1.392178 0.016840 0.076668 0.253759
time 20
  0   1.708652 6.874735 38.350727 0.000000 0.000000 -1.701715
  1   0.164395 -0.125004 0.000000 -1.570795 -1.570451 0.000000
  2   -0.000007 0.000008 4.427393 -0.170796 -3.152960 0.000882
  3   18.465939 0.000000 0.000000 0.000000 0.000000 -0.416557
  4   14.875443 0.000000 -0.000001 0.018451 0.017437 0.402071
  5   0.000006 -0.000004 -4.427393 0.106024 3.095677 -0.362237
  6   18.465939 0.000000 0.000000 0.000000 0.000000 -0.394334
  7   14.875442 0.000000 0.000000 -0.002065 0.005199 0.029344
  8   2.255207 -0.007574 0.000003 0.122100 -0.017403 -0.001322
  9   9.514219 -0.009357 0.000000 -0.008787 0.002361 -0.095902
 10   11.751820 -0.001633 0.000000 0.000024 0.043599 0.439975
 11   -2.117496 0.858748 2.563789 0.697276 -1.395375 2.006330
 12   4.640941 0.000000 -0.000001 0.738474 1.089884 0.724820
 13   10.828049 0.000000 0.000000 0.000000 0.000000 -0.470452
 14   9.393337 -0.000001 0.000000 -1.569611 0.034172 0.000037
 15   1.442245 0.107454 -1.746177 1.686435 0.539209 0.325885
 16   1.063452 0.000000 0.000001 0.000000 0.000000 0.199056
 17   1.376307 -0.000001 0.000001 0.000000 0.000000 0.199049
 18   4.172846 -0.251366 -1.312744 0.008050 0.095731 0.148659
 19   1.215374 0.000002 0.000000 0.000000 0.000000 0.645758
 20   1.215371 -0.000002 0.000001 0.000000 0.000000 0.645758
 21   4.220534 -0.244854 -0.431465 0.001333 0.026242 0.148339
 22   1.350417 0.000000 0.000001 0.000000 0.000000 0.863926
 23   1.350410 -0.000001 -0.000001 0.000000 0.000000 0.863926
 24   -1.887021 0.858761 -2.731760 -0.942471 1.461434 1.764317
 25   4.640942 0.000000 0.000001 -0.601473 -1.183875 0.506934
 26   10.828047 0.000000 0.000001 0.000000 0.000000 -0.234266
 27   9.393339 0.000000 0.000000 1.569611 -0.034192 0.000001
 28   1.442245 0.107455 1.746178 -1.686405 -0.539236 0.325898
 29   1.063450 -0.000001 0.000000 0.000000 0.000000 0.199056
 30   1.376307 0.000000 0.000000 0.000000 0.000000 0.199059
 31   4.172847 -0.251365 1.312745 -0.008050 -0.095731 0.148659
 32   1.215373 -0.000001 0.000000 0.000000 0.000000 0.645746
 33   1.215372 0.000000 0.000000 0.000000 0.000000 0.645746
 34   4.220534 -0.244853 0.431466 -0.001333 -0.026242 0.148339
 35   1.350416 0.000000 -0.000001 0.000000 0.000000 0.863937
 36   1.350410 0.000000 0.000001 0.000000 0.000000 0.863925
 37   2.110540 -0.000001 0.000000 0.002432 -0.010503 -0.153668
 38   0.891923 2.373051 -0.014527 -3.141592 -0.000001 1.413797
 39   7.228122 5.709445 3.726568 3.140796 -1.570796 0.000000
 40   2.450426 5.076128 0.001325 3.140791 -1.570796 0.000000
 41   6.312404 -4.528058 0.001311 3.140893 -1.570796 0.000000
 42   2.233309 1.152535 -7.309138 -1.150299 -1.562088 -0.839356
 43   4.262825 -0.232720 -1.392178 0.016840 0.076668 0.253759
end
