version 1
nodes
  0 "Bip01" -1
  1 "Bip01 Pelvis" 0
  2 "Bip01 L Thigh" 1
  3 "Bip01 L Calf" 2
  4 "Bip01 L Foot" 3
  5 "Bip01 L Toe0" 4
  6 "Bip01 L Toe01" 5
  7 "Bip01 L Toe02" 6
  8 "Bone10" 4
  9 "Bone11" 8
 10 "Bone13" 4
 11 "Bone14" 10
 12 "Bip01 R Thigh" 1
 13 "Bip01 R Calf" 12
 14 "Bip01 R Foot" 13
 15 "Bip01 R Toe0" 14
 16 "Bip01 R Toe01" 15
 17 "Bip01 R Toe02" 16
 18 "Bone16" 14
 19 "Bone17" 18
 20 "Bone19" 14
 21 "Bone20" 20
 22 "Bip01 Spine" 1
 23 "Bip01 Spine1" 22
 24 "Bip01 Spine2" 23
 25 "Bip01 Spine3" 24
 26 "Bip01 Neck" 25
 27 "Bip01 L Clavicle" 26
 28 "Bip01 L UpperArm" 27
 29 "Bip01 L Forearm" 28
 30 "Bip01 L Hand" 29
 31 "Bip01 L Finger0" 30
 32 "Bip01 L Finger01" 31
 33 "Bip01 L Finger02" 32
 34 "Bip01 L Finger1" 30
 35 "Bip01 L Finger11" 34
 36 "Bip01 L Finger12" 35
 37 "Bip01 R Clavicle" 26
 38 "Bip01 R UpperArm" 37
 39 "Bip01 R Forearm" 38
 40 "Bip01 R Hand" 39
 41 "Bip01 R Finger0" 40
 42 "Bip01 R Finger01" 41
 43 "Bip01 R Finger02" 42
 44 "Bip01 R Finger1" 40
 45 "Bip01 R Finger11" 44
 46 "Bip01 R Finger12" 45
 47 "Bip01 Neck1" 26
 48 "Bip01 Head" 47
 49 "Bone05" 24
 50 "Bone06" 49
 51 "Bone07" 50
 52 "Bone08" 51
 53 "Bone09" 52
 54 "Bone22" 53
 55 "Bone23" 54
 56 "Bone26" 53
 57 "Bone27" 56
 58 "Bone30" 52
 59 "Bone31" 58
end
skeleton
time 0
  0   -0.014656 -0.040179 35.359627 0.000000 -0.244215 -1.570836
  1   -0.851108 -2.070376 0.000000 -0.000113 -1.562110 -1.570801
  2   -0.000009 0.000010 6.353377 -0.040809 -0.034244 -2.090045
  3   18.507666 -0.000001 0.000000 0.000000 0.000000 -0.798000
  4   13.411350 -0.000001 0.000000 2.895811 0.048995 0.011006
  5   8.701365 6.675649 0.000000 0.000000 0.000000 1.614392
  6   2.657023 0.000000 0.000000 0.000000 0.000000 -0.043611
  7   2.657024 0.000000 -0.000001 0.000000 0.000000 -0.043611
  8   6.248515 -0.893520 -3.345191 3.141592 0.078501 -1.570796
  9   5.692028 -3.146075 2.191403 0.000000 0.000000 0.000000
 10   6.262098 -1.288316 1.407515 -1.570796 1.492295 1.570796
 11   -0.950702 5.642267 -3.162059 0.000000 0.000000 0.000000
 12   0.000009 -0.000007 -6.353377 -0.001591 -0.018713 -3.083892
 13   18.507666 0.000000 0.000001 0.000000 0.000000 -0.773423
 14   13.411351 0.000000 0.000000 -2.934719 0.031909 0.934848
 15   8.701365 6.675650 0.000000 0.000000 0.000000 1.527185
 16   2.639102 0.000000 0.000001 0.000000 0.000000 -0.043611
 17   2.639103 0.000000 -0.000001 0.000000 0.000000 -0.043611
 18   6.262098 -1.271893 -1.655766 1.570795 1.492298 -1.570797
 19   0.660782 5.698953 -3.162059 0.000000 0.000000 0.000000
 20   6.280027 -0.875930 3.588309 1.570795 1.492298 -1.570797
 21   -1.268985 5.650652 -3.144119 0.000000 0.000000 0.000000
 22   3.416504 -0.970598 0.027351 0.148099 -0.148703 0.740697
 23   6.150888 -0.004769 0.000000 0.000000 -0.000001 0.305253
 24   6.181765 -0.006274 0.000000 0.016479 -0.005682 0.331371
 25   8.035381 -0.006658 0.000000 -0.045757 0.025346 0.505288
 26   9.041865 -0.002307 0.000000 0.000397 0.497125 0.492412
 27   -6.433010 6.256702 0.521345 -0.366716 -0.891415 2.990691
 28   8.356072 -0.000002 0.000001 -1.093476 0.501506 -0.963126
 29   22.314192 -0.000001 -0.000002 0.000000 0.000000 -2.190862
 30   13.466396 0.000001 0.000001 -0.601406 -0.123833 -0.277251
 31   6.645414 -0.843860 -1.119305 -0.045895 0.131865 -0.334542
 32   3.530614 0.000002 -0.000001 0.000000 0.000000 -0.357609
 33   3.530616 0.000000 0.000001 0.000000 0.000000 0.828529
 34   6.690088 -0.762450 1.047433 0.062277 -0.172367 -0.354159
 35   3.608304 0.000000 0.000000 0.000000 0.000000 -0.357609
 36   3.608303 -0.000001 0.000000 0.000000 0.000000 0.828529
 37   -3.093207 6.167545 -5.202042 -2.241654 1.278925 0.437687
 38   8.356072 -0.000002 0.000000 1.098949 0.396456 -1.163079
 39   22.314194 -0.000001 0.000002 0.000000 0.000000 -1.313134
 40   13.466397 0.000001 0.000000 1.012241 -0.226560 0.603991
 41   6.635591 -0.843576 1.110600 0.070153 -0.169349 -0.389751
 42   3.530613 0.000000 0.000001 0.000000 0.000000 0.113322
 43   3.530613 0.000000 -0.000001 0.000000 0.000000 0.366368
 44   6.681006 -0.762752 -1.054662 0.013909 0.182656 0.071133
 45   3.608304 0.000000 0.000001 0.000000 0.000000 0.113367
 46   3.608303 -0.000002 0.000001 0.000000 0.000000 0.776182
 47   3.408091 -0.002195 0.000000 -0.000028 -0.034890 0.256778
 48   2.848662 -0.000001 0.000000 0.304750 -0.327172 -0.780026
 49   4.138183 10.107881 0.022334 -0.000003 0.000000 -2.666026
 50   0.760360 -7.386538 0.000000 0.000000 0.000000 0.000000
 51   -2.213767 -5.858539 0.000000 0.000000 0.000000 0.000000
 52   -2.501887 -2.289767 0.000000 0.000000 0.000000 0.000000
 53   -1.605642 -0.869327 0.000000 0.000000 0.000000 0.000000
 54   -0.372426 -0.410555 -1.764821 0.000000 -1.570451 0.000000
 55   -0.928988 -2.561654 1.783661 0.000000 0.000000 0.000000
 56   -0.365562 -0.396879 1.486638 0.000000 -1.570451 0.000000
 57   1.132204 -2.560903 1.806066 0.000000 0.000000 0.000000
 58   0.494776 -1.366848 -0.110061 0.000000 -1.570451 0.000000
 59   -0.087093 -3.285075 -0.490831 0.000000 0.000000 0.000000
time 1
  0   -0.362323 -0.122213 35.594009 0.000000 -0.244215 -1.570836
  1   -0.831576 -1.851619 0.000000 -0.000113 -1.562110 -1.570801
  2   -0.000009 0.000010 6.353377 -0.039056 -0.030829 -2.101445
  3   18.507666 -0.000001 0.000000 0.000000 0.000000 -0.773777
  4   13.411350 -0.000001 0.000000 2.897631 0.045170 -0.001887
  5   8.701365 6.675649 0.000000 0.000000 0.000000 1.614392
  6   2.657023 0.000000 0.000000 0.000000 0.000000 -0.043611
  7   2.657024 0.000000 -0.000001 0.000000 0.000000 -0.043611
  8   6.248515 -0.893520 -3.345191 3.141592 0.078501 -1.570796
  9   5.692028 -3.146075 2.191403 0.000000 0.000000 0.000000
 10   6.262098 -1.288316 1.407515 -1.570796 1.492295 1.570796
 11   -0.950702 5.642267 -3.162059 0.000000 0.000000 0.000000
 12   0.000009 -0.000007 -6.353377 -0.000253 -0.015056 -3.088856
 13   18.507666 0.000000 0.000001 0.000000 0.000000 -0.753195
 14   13.411351 0.000000 0.000000 -2.936434 0.028268 0.919297
 15   8.701365 6.675650 0.000000 0.000000 0.000000 1.527185
 16   2.639102 0.000000 0.000001 0.000000 0.000000 -0.043611
 17   2.639103 0.000000 -0.000001 0.000000 0.000000 -0.043611
 18   6.262098 -1.271893 -1.655766 1.570795 1.492298 -1.570797
 19   0.660782 5.698953 -3.162059 0.000000 0.000000 0.000000
 20   6.280027 -0.875930 3.588309 1.570795 1.492298 -1.570797
 21   -1.268985 5.650652 -3.144119 0.000000 0.000000 0.000000
 22   3.416504 -0.970598 0.027351 0.147838 -0.136743 0.742570
 23   6.150888 -0.004769 0.000000 0.000000 0.009035 0.305253
 24   6.181765 -0.006274 0.000000 0.016611 -0.001056 0.296175
 25   8.035381 -0.006658 0.000000 -0.042797 0.032459 0.618054
 26   9.041865 -0.002307 0.000000 0.000397 0.497125 0.492412
 27   -6.433010 6.256702 0.521345 -0.366716 -0.891415 2.990691
 28   8.356072 -0.000002 0.000001 -1.072696 0.234177 -0.997794
 29   22.314192 -0.000001 -0.000002 0.000000 0.000000 -2.149573
 30   13.466396 0.000001 0.000001 -0.609790 -0.060225 -0.185127
 31   6.645414 -0.843860 -1.119305 -0.030846 0.136162 -0.222111
 32   3.530614 0.000002 -0.000001 0.000000 0.000000 -0.246037
 33   3.530616 0.000000 0.000001 0.000000 0.000000 0.940118
 34   6.690088 -0.762450 1.047433 0.042537 -0.178218 -0.240957
 35   3.608304 0.000000 0.000000 0.000000 0.000000 -0.246037
 36   3.608303 -0.000001 0.000000 0.000000 0.000000 0.940118
 37   -3.093207 6.167545 -5.202042 -2.279810 1.227688 0.405953
 38   8.356072 -0.000002 0.000000 1.161905 0.446844 -1.097483
 39   22.314194 -0.000001 0.000002 0.000000 0.000000 -1.487626
 40   13.466397 0.000001 0.000000 1.022153 -0.139646 0.549514
 41   6.635591 -0.843576 1.110600 0.058994 -0.173536 -0.324311
 42   3.530613 0.000000 0.000001 0.000000 0.000000 0.177930
 43   3.530613 0.000000 -0.000001 0.000000 0.000000 0.430942
 44   6.681006 -0.762752 -1.054662 0.025774 0.181362 0.136790
 45   3.608304 0.000000 0.000001 0.000000 0.000000 0.177958
 46   3.608303 -0.000002 0.000001 0.000000 0.000000 0.840856
 47   3.408091 -0.002195 0.000000 -0.000028 -0.034890 0.256778
 48   2.848662 -0.000001 0.000000 0.318198 -0.326456 -0.866577
 49   4.138183 10.107881 0.022334 0.025859 0.013572 -2.624596
 50   0.760360 -7.386538 0.000000 0.000000 0.000000 -0.118736
 51   -1.963759 -5.639782 0.000000 0.000000 0.000000 0.068324
 52   -2.470636 -2.227265 0.000000 0.000000 0.000000 0.062199
 53   -1.605642 -0.877140 0.000000 0.000000 0.000000 0.066763
 54   -0.384145 -0.430087 -1.764821 -0.054354 -1.570791 0.000000
 55   -0.928988 -2.592905 1.814912 0.000052 0.000000 0.000000
 56   -0.377281 -0.408598 1.486638 -0.075322 -1.570795 0.000000
 57   1.132204 -2.568716 1.813879 0.000198 0.000000 0.000000
 58   0.486963 -1.366848 -0.110061 0.056750 -1.570779 0.000000
 59   -0.087093 -3.285075 -0.385359 -0.073002 0.000000 0.000000
time 2
  0   -0.725615 -0.231591 35.863548 0.000000 -0.244215 -1.570836
  1   -0.831576 -1.617237 0.000000 -0.000113 -1.562110 -1.570801
  2   -0.000009 0.000010 6.353377 -0.037844 -0.029442 -2.118567
  3   18.507666 -0.000001 0.000000 0.000000 0.000000 -0.736153
  4   13.411350 -0.000001 0.000000 2.898493 0.043162 -0.022516
  5   8.701365 6.675649 0.000000 0.000000 0.000000 1.614392
  6   2.657023 0.000000 0.000000 0.000000 0.000000 -0.043611
  7   2.657024 0.000000 -0.000001 0.000000 0.000000 -0.043611
  8   6.248515 -0.893520 -3.345191 3.141592 0.078501 -1.570796
  9   5.692028 -3.146075 2.191403 0.000000 0.000000 0.000000
 10   6.262098 -1.288316 1.407515 -1.570796 1.492295 1.570796
 11   -0.950702 5.642267 -3.162059 0.000000 0.000000 0.000000
 12   0.000009 -0.000007 -6.353377 0.000485 -0.013265 -3.095724
 13   18.507666 0.000000 0.000001 0.000000 0.000000 -0.723966
 14   13.411351 0.000000 0.000000 -2.937481 0.026735 0.897039
 15   8.701365 6.675650 0.000000 0.000000 0.000000 1.527185
 16   2.639102 0.000000 0.000001 0.000000 0.000000 -0.043611
 17   2.639103 0.000000 -0.000001 0.000000 0.000000 -0.043611
 18   6.262098 -1.271893 -1.655766 1.570795 1.492298 -1.570797
 19   0.660782 5.698953 -3.162059 0.000000 0.000000 0.000000
 20   6.280027 -0.875930 3.588309 1.570795 1.492298 -1.570797
 21   -1.268985 5.650652 -3.144119 0.000000 0.000000 0.000000
 22   3.416504 -0.970598 0.027351 0.147624 -0.123639 0.744470
 23   6.150888 -0.004769 0.000000 0.000012 0.018995 0.305253
 24   6.181765 -0.006274 0.000000 0.016838 0.003978 0.257670
 25   8.035381 -0.006658 0.000000 -0.040412 0.037457 0.687186
 26   9.041865 -0.002307 0.000000 0.000397 0.497125 0.492412
 27   -6.433010 6.256702 0.521345 -0.366716 -0.891415 2.990691
 28   8.356072 -0.000002 0.000001 -1.024993 -0.009436 -1.016949
 29   22.314192 -0.000001 -0.000002 0.000000 0.000000 -2.106847
 30   13.466396 0.000001 0.000001 -0.612274 0.009204 -0.086305
 31   6.645414 -0.843860 -1.119305 -0.014129 0.138850 -0.100231
 32   3.530614 0.000002 -0.000001 0.000000 0.000000 -0.125260
 33   3.530616 0.000000 0.000001 0.000000 0.000000 1.060857
 34   6.690088 -0.762450 1.047433 0.020522 -0.182053 -0.118290
 35   3.608304 0.000000 0.000000 0.000000 0.000000 -0.125260
 36   3.608303 -0.000001 0.000000 0.000000 0.000000 1.060857
 37   -3.093207 6.167545 -5.202042 -2.304832 1.174033 0.386778
 38   8.356072 -0.000002 0.000000 1.206472 0.451857 -1.020247
 39   22.314194 -0.000001 0.000002 0.000000 0.000000 -1.673333
 40   13.466397 0.000001 0.000000 1.027435 -0.049862 0.494868
 41   6.635591 -0.843576 1.110600 0.046435 -0.177255 -0.252307
 42   3.530613 0.000000 0.000001 0.000000 0.000000 0.248934
 43   3.530613 0.000000 -0.000001 0.000000 0.000000 0.502056
 44   6.681006 -0.762752 -1.054662 0.038732 0.179115 0.208864
 45   3.608304 0.000000 0.000001 0.000000 0.000000 0.248974
 46   3.608303 -0.000002 0.000001 0.000000 0.000000 0.911880
 47   3.408091 -0.002195 0.000000 -0.000028 -0.034890 0.256778
 48   2.848662 -0.000001 0.000000 0.309935 -0.336926 -0.905631
 49   4.138183 10.107881 0.022334 0.053960 0.026412 -2.577759
 50   0.760360 -7.386538 0.000000 0.000000 0.000000 -0.243487
 51   -1.791879 -5.421025 0.000000 0.000000 0.000000 0.147092
 52   -2.439385 -2.164763 0.000000 0.000000 0.000000 0.132569
 53   -1.617361 -0.900578 0.000000 0.000000 0.000000 0.146562
 54   -0.403677 -0.441806 -1.764821 -0.117040 -1.570791 0.000000
 55   -0.928988 -2.635875 1.857882 0.000413 0.000000 0.000000
 56   -0.396813 -0.428130 1.486638 -0.162121 -1.570795 0.000000
 57   1.132204 -2.588248 1.825598 0.000762 0.000000 0.000000
 58   0.475244 -1.359035 -0.110061 0.110793 -1.570779 0.000000
 59   -0.087093 -3.285075 -0.268168 -0.150808 0.000000 0.000000
time 3
  0   -1.092814 -0.356595 36.140900 0.000000 -0.244215 -1.570836
  1   -0.874546 -1.328166 0.000000 -0.000113 -1.562110 -1.570801
  2   -0.000009 0.000010 6.353377 -0.037019 -0.029826 -2.139191
  3   18.507666 -0.000001 0.000000 0.000000 0.000000 -0.699288
  4   13.411350 -0.000001 0.000000 2.898589 0.042875 -0.038651
  5   8.701365 6.675649 0.000000 0.000000 0.000000 1.614392
  6   2.657023 0.000000 0.000000 0.000000 0.000000 -0.043611
  7   2.657024 0.000000 -0.000001 0.000000 0.000000 -0.043611
  8   6.248515 -0.893520 -3.345191 3.141592 0.078501 -1.570796
  9   5.692028 -3.146075 2.191403 0.000000 0.000000 0.000000
 10   6.262098 -1.288316 1.407515 -1.570796 1.492295 1.570796
 11   -0.950702 5.642267 -3.162059 0.000000 0.000000 0.000000
 12   0.000009 -0.000007 -6.353377 0.000808 -0.013144 -3.112635
 13   18.507666 0.000000 0.000001 0.000000 0.000000 -0.676835
 14   13.411351 0.000000 0.000000 -2.937577 0.026735 0.866674
 15   8.701365 6.675650 0.000000 0.000000 0.000000 1.527185
 16   2.639102 0.000000 0.000001 0.000000 0.000000 -0.043611
 17   2.639103 0.000000 -0.000001 0.000000 0.000000 -0.043611
 18   6.262098 -1.271893 -1.655766 1.570795 1.492298 -1.570797
 19   0.660782 5.698953 -3.162059 0.000000 0.000000 0.000000
 20   6.280027 -0.875930 3.588309 1.570795 1.492298 -1.570797
 21   -1.268985 5.650652 -3.144119 0.000000 0.000000 0.000000
 22   3.416504 -0.970598 0.027351 0.147363 -0.107423 0.746886
 23   6.150888 -0.004769 0.000000 0.000024 0.031291 0.305253
 24   6.181765 -0.006274 0.000000 0.017438 0.010174 0.209912
 25   8.035381 -0.006658 0.000000 -0.040046 0.039504 0.679125
 26   9.041865 -0.002307 0.000000 0.000017 0.507362 0.417576
 27   -6.831460 5.830908 0.236180 -0.313317 -0.876324 3.014935
 28   8.356072 -0.000002 0.000001 -0.936092 -0.182346 -1.039830
 29   22.314192 -0.000001 -0.000002 0.000000 0.000000 -2.063762
 30   13.466396 0.000001 0.000001 -0.607849 0.079894 0.014562
 31   6.645414 -0.843860 -1.119305 0.003030 0.139545 0.023933
 32   3.530614 0.000002 -0.000001 0.000000 0.000000 -0.002254
 33   3.530616 0.000000 0.000001 0.000000 0.000000 1.183923
 34   6.690088 -0.762450 1.047433 -0.002123 -0.183167 0.006745
 35   3.608304 0.000000 0.000000 0.000000 0.000000 -0.002254
 36   3.608303 -0.000001 0.000000 0.000000 0.000000 1.183923
 37   -3.425248 5.769095 -5.448143 -2.407509 1.122849 0.363001
 38   8.356072 -0.000002 0.000000 1.202124 0.379971 -0.941141
 39   22.314194 -0.000001 0.000002 0.000000 0.000000 -1.861810
 40   13.466397 0.000001 0.000000 1.027652 0.040825 0.440278
 41   6.635591 -0.843576 1.110600 0.033327 -0.180176 -0.178603
 42   3.530613 0.000000 0.000001 0.000000 0.000000 0.321553
 43   3.530613 0.000000 -0.000001 0.000000 0.000000 0.574572
 44   6.681006 -0.762752 -1.054662 0.051723 0.175812 0.282559
 45   3.608304 0.000000 0.000001 0.000000 0.000000 0.321566
 46   3.608303 -0.000002 0.000001 0.000000 0.000000 0.984416
 47   3.408091 -0.002195 0.000000 -0.000028 -0.034890 0.256778
 48   2.848662 -0.000001 0.000000 0.247243 -0.393153 -0.808553
 49   4.138183 10.107881 0.022334 0.083390 0.038026 -2.528576
 50   0.760360 -7.386538 0.000000 0.000000 0.000000 -0.369412
 51   -1.717658 -5.174924 0.000000 0.000000 0.000000 0.231447
 52   -2.423760 -2.102261 0.000000 0.000000 0.000000 0.208038
 53   -1.629080 -0.916204 0.000000 0.000000 0.000000 0.234306
 54   -0.434928 -0.473057 -1.764821 -0.182816 -1.570791 0.000000
 55   -0.928988 -2.698377 1.920384 0.000877 0.000000 0.000000
 56   -0.428064 -0.451568 1.486638 -0.253523 -1.570795 0.000000
 57   1.132204 -2.611686 1.856849 0.001778 0.000000 0.000000
 58   0.455712 -1.359035 -0.110061 0.163852 -1.570779 0.000000
 59   -0.087093 -3.285075 -0.135351 -0.231743 0.000000 0.000000
time 4
  0   -1.452200 -0.462067 36.414345 0.000000 -0.244215 -1.570836
  1   -0.913610 -1.003937 0.000000 -0.000113 -1.562110 -1.570801
  2   -0.000009 0.000010 6.353377 -0.036220 -0.030765 -2.163503
  3   18.507666 -0.000001 0.000000 0.000000 0.000000 -0.642043
  4   13.411350 -0.000001 0.000000 2.898589 0.042875 -0.071657
  5   8.701365 6.675649 0.000000 0.000000 0.000000 1.614392
  6   2.657023 0.000000 0.000000 0.000000 0.000000 -0.043611
  7   2.657024 0.000000 -0.000001 0.000000 0.000000 -0.043611
  8   6.248515 -0.893520 -3.345191 3.141592 0.078501 -1.570796
  9   5.692028 -3.146075 2.191403 0.000000 0.000000 0.000000
 10   6.262098 -1.288316 1.407515 -1.570796 1.492295 1.570796
 11   -0.950702 5.642267 -3.162059 0.000000 0.000000 0.000000
 12   0.000009 -0.000007 -6.353377 0.000785 -0.013386 -3.120600
 13   18.507666 0.000000 0.000001 0.000000 0.000000 -0.639312
 14   13.411351 0.000000 0.000000 -2.937291 0.026830 0.837561
 15   8.701365 6.675650 0.000000 0.000000 0.000000 1.527185
 16   2.639102 0.000000 0.000001 0.000000 0.000000 -0.043611
 17   2.639103 0.000000 -0.000001 0.000000 0.000000 -0.043611
 18   6.262098 -1.271893 -1.655766 1.570795 1.492298 -1.570797
 19   0.660782 5.698953 -3.162059 0.000000 0.000000 0.000000
 20   6.280027 -0.875930 3.588309 1.570795 1.492298 -1.570797
 21   -1.268985 5.650652 -3.144119 0.000000 0.000000 0.000000
 22   3.416504 -0.970598 0.027351 0.147102 -0.089525 0.749546
 23   6.150888 -0.004769 0.000000 0.000036 0.044809 0.305253
 24   6.181765 -0.006274 0.000000 0.017833 0.017029 0.157410
 25   8.035381 -0.006658 0.000000 -0.040177 0.040988 0.652423
 26   9.041865 -0.002307 0.000000 -0.002200 0.528502 0.331614
 27   -7.249441 5.311361 -0.131019 -0.255411 -0.850796 3.045645
 28   8.356072 -0.000002 0.000001 -0.836711 -0.324815 -1.086286
 29   22.314192 -0.000001 -0.000002 0.000000 0.000000 -2.021355
 30   13.466396 0.000001 0.000001 -0.596671 0.147145 0.112621
 31   6.645414 -0.843860 -1.119305 0.019679 0.138210 0.143588
 32   3.530614 0.000002 -0.000001 0.000000 0.000000 0.116173
 33   3.530616 0.000000 0.000001 0.000000 0.000000 1.302374
 34   6.690088 -0.762450 1.047433 -0.024068 -0.181611 0.127190
 35   3.608304 0.000000 0.000000 0.000000 0.000000 0.116173
 36   3.608303 -0.000001 0.000000 0.000000 0.000000 1.302374
 37   -3.718226 5.269080 -5.745027 -2.506160 1.063160 0.354660
 38   8.356072 -0.000002 0.000000 1.176670 0.287182 -0.866283
 39   22.314194 -0.000001 0.000002 0.000000 0.000000 -2.044702
 40   13.466397 0.000001 0.000000 1.022949 0.129997 0.386083
 41   6.635591 -0.843576 1.110600 0.020609 -0.182026 -0.108062
 42   3.530613 0.000000 0.000001 0.000000 0.000000 0.390974
 43   3.530613 0.000000 -0.000001 0.000000 0.000000 0.644033
 44   6.681006 -0.762752 -1.054662 0.063913 0.171794 0.352980
 45   3.608304 0.000000 0.000001 0.000000 0.000000 0.390976
 46   3.608303 -0.000002 0.000001 0.000000 0.000000 1.053890
 47   3.408091 -0.002195 0.000000 -0.000028 -0.034890 0.256778
 48   2.848662 -0.000001 0.000000 0.168469 -0.465785 -0.674828
 49   4.138183 10.107881 0.022334 0.112976 0.048156 -2.480109
 50   0.760360 -7.386538 0.000000 0.000000 0.000000 -0.492746
 51   -1.741096 -4.944448 0.000000 0.000000 0.000000 0.317502
 52   -2.408134 -2.051478 0.000000 0.000000 0.000000 0.285972
 53   -1.640799 -0.947455 0.000000 0.000000 0.000000 0.324086
 54   -0.454460 -0.484776 -1.764821 -0.245905 -1.570791 0.000000
 55   -0.928988 -2.760879 2.006324 0.001470 0.000000 0.000000
 56   -0.447596 -0.471100 1.486638 -0.341996 -1.570451 0.000000
 57   1.132204 -2.666375 1.911538 0.002991 0.000000 0.000000
 58   0.424461 -1.355129 -0.110061 0.217322 -1.570779 0.000000
 59   -0.087093 -3.265543 0.001372 -0.313836 0.000000 0.000000
time 5
  0   -1.792054 -0.524569 36.640915 0.000000 -0.244215 -1.570836
  1   -0.937048 -0.664083 0.000000 -0.000113 -1.562110 -1.570801
  2   -0.000009 0.000010 6.353377 -0.036065 -0.033924 -2.190417
  3   18.507666 -0.000001 0.000000 0.000000 0.000000 -0.576707
  4   13.411350 -0.000001 0.000000 2.897631 0.044883 -0.109968
  5   8.701365 6.675649 0.000000 0.000000 0.000000 1.614392
  6   2.657023 0.000000 0.000000 0.000000 0.000000 -0.043611
  7   2.657024 0.000000 -0.000001 0.000000 0.000000 -0.043611
  8   6.248515 -0.893520 -3.345191 3.141592 0.078501 -1.570796
  9   5.692028 -3.146075 2.191403 0.000000 0.000000 0.000000
 10   6.262098 -1.288316 1.407515 -1.570796 1.492295 1.570796
 11   -0.950702 5.642267 -3.162059 0.000000 0.000000 0.000000
 12   0.000009 -0.000007 -6.353377 0.000093 -0.015880 -3.127815
 13   18.507666 0.000000 0.000001 0.000000 0.000000 -0.602295
 14   13.411351 0.000000 0.000000 -2.936053 0.029322 0.807638
 15   8.701365 6.675650 0.000000 0.000000 0.000000 1.527185
 16   2.639102 0.000000 0.000001 0.000000 0.000000 -0.043611
 17   2.639103 0.000000 -0.000001 0.000000 0.000000 -0.043611
 18   6.262098 -1.271893 -1.655766 1.570795 1.492298 -1.570797
 19   0.660782 5.698953 -3.162059 0.000000 0.000000 0.000000
 20   6.280027 -0.875930 3.588309 1.570795 1.492298 -1.570797
 21   -1.268985 5.650652 -3.144119 0.000000 0.000000 0.000000
 22   3.416504 -0.970598 0.027351 0.146889 -0.071963 0.752179
 23   6.150888 -0.004769 0.000000 0.000036 0.058148 0.305253
 24   6.181765 -0.006274 0.000000 0.017965 0.023860 0.105655
 25   8.035381 -0.006658 0.000000 -0.040688 0.041977 0.614067
 26   9.041865 -0.002307 0.000000 -0.005872 0.544969 0.249936
 27   -7.597108 4.776188 -0.451341 -0.200477 -0.830965 3.074833
 28   8.356072 -0.000002 0.000001 -0.731728 -0.436401 -1.153023
 29   22.314192 -0.000001 -0.000002 0.000000 0.000000 -1.980785
 30   13.466396 0.000001 0.000001 -0.580835 0.206666 0.202900
 31   6.645414 -0.843860 -1.119305 0.034387 0.135284 0.251512
 32   3.530614 0.000002 -0.000001 0.000000 0.000000 0.223167
 33   3.530616 0.000000 0.000001 0.000000 0.000000 1.409349
 34   6.690088 -0.762450 1.047433 -0.043493 -0.178005 0.235765
 35   3.608304 0.000000 0.000000 0.000000 0.000000 0.223167
 36   3.608303 -0.000001 0.000000 0.000000 0.000000 1.409349
 37   -3.972140 4.776877 -5.998941 -2.582473 1.009271 0.363864
 38   8.356072 -0.000002 0.000000 1.137085 0.184452 -0.798563
 39   22.314194 -0.000001 0.000002 0.000000 0.000000 -2.213609
 40   13.466397 0.000001 0.000000 1.013688 0.215556 0.332734
 41   6.635591 -0.843576 1.110600 0.009248 -0.182961 -0.045667
 42   3.530613 0.000000 0.000001 0.000000 0.000000 0.452384
 43   3.530613 0.000000 -0.000001 0.000000 0.000000 0.705374
 44   6.681006 -0.762752 -1.054662 0.074395 0.167538 0.415131
 45   3.608304 0.000000 0.000001 0.000000 0.000000 0.452385
 46   3.608303 -0.000002 0.000001 0.000000 0.000000 1.115313
 47   3.408091 -0.002195 0.000000 -0.000028 -0.034890 0.256778
 48   2.848662 -0.000001 0.000000 0.075249 -0.530514 -0.523859
 49   4.138183 10.107881 0.022334 0.141624 0.056821 -2.435260
 50   0.760360 -7.386538 0.000000 0.000000 0.000000 -0.609574
 51   -1.846568 -4.753036 0.000000 0.000000 0.000000 0.401961
 52   -2.404228 -2.008508 0.000000 0.000000 0.000000 0.363197
 53   -1.660331 -0.990425 0.000000 0.000000 0.000000 0.410455
 54   -0.485711 -0.508214 -1.764821 -0.300461 -1.570791 0.000000
 55   -0.928988 -2.835100 2.111796 0.002269 0.000000 0.000000
 56   -0.478847 -0.490632 1.486638 -0.419589 -1.570795 0.000000
 57   1.132204 -2.721064 1.974040 0.004543 0.000000 0.000000
 58   0.404929 -1.347316 -0.110061 0.272513 -1.570779 0.000000
 59   -0.087093 -3.234292 0.149814 -0.394993 0.000000 0.000000
time 6
  0   -2.085032 -0.516756 36.804981 0.000000 -0.244215 -1.570836
  1   -0.937048 -0.359386 0.000000 -0.000113 -1.562110 -1.570801
  2   -0.000009 0.000010 6.353377 -0.036426 -0.040156 -2.216385
  3   18.507666 -0.000001 0.000000 0.000000 0.000000 -0.515012
  4   13.411350 -0.000001 0.000000 2.895332 0.049951 -0.145553
  5   8.701365 6.675649 0.000000 0.000000 0.000000 1.614392
  6   2.657023 0.000000 0.000000 0.000000 0.000000 -0.043611
  7   2.657024 0.000000 -0.000001 0.000000 0.000000 -0.043611
  8   6.248515 -0.893520 -3.345191 3.141592 0.078501 -1.570796
  9   5.692028 -3.146075 2.191403 0.000000 0.000000 0.000000
 10   6.262098 -1.288316 1.407515 -1.570796 1.492295 1.570796
 11   -0.950702 5.642267 -3.162059 0.000000 0.000000 0.000000
 12   0.000009 -0.000007 -6.353377 -0.001245 -0.021376 -3.136242
 13   18.507666 0.000000 0.000001 0.000000 0.000000 -0.566340
 14   13.411351 0.000000 0.000000 -2.933577 0.034400 0.780221
 15   8.701365 6.675650 0.000000 0.000000 0.000000 1.527185
 16   2.639102 0.000000 0.000001 0.000000 0.000000 -0.043611
 17   2.639103 0.000000 -0.000001 0.000000 0.000000 -0.043611
 18   6.262098 -1.271893 -1.655766 1.570795 1.492298 -1.570797
 19   0.660782 5.698953 -3.162059 0.000000 0.000000 0.000000
 20   6.280027 -0.875930 3.588309 1.570795 1.492298 -1.570797
 21   -1.268985 5.650652 -3.144119 0.000000 0.000000 0.000000
 22   3.416504 -0.970598 0.027351 0.146770 -0.056521 0.754514
 23   6.150888 -0.004769 0.000000 0.000048 0.069845 0.305253
 24   6.181765 -0.006274 0.000000 0.017761 0.029925 0.060269
 25   8.035381 -0.006658 0.000000 -0.041487 0.042506 0.571178
 26   9.041865 -0.002307 0.000000 -0.006765 0.540114 0.190050
 27   -7.831490 4.362113 -0.556813 -0.155514 -0.833748 3.092992
 28   8.356072 -0.000002 0.000001 -0.628101 -0.518785 -1.230855
 29   22.314192 -0.000001 -0.000002 0.000000 0.000000 -1.943051
 30   13.466396 0.000001 0.000001 -0.563291 0.254712 0.279463
 31   6.645414 -0.843860 -1.119305 0.046303 0.131737 0.340769
 32   3.530614 0.000002 -0.000001 0.000000 0.000000 0.311727
 33   3.530616 0.000000 0.000001 0.000000 0.000000 1.497945
 34   6.690088 -0.762450 1.047433 -0.059208 -0.173463 0.325696
 35   3.608304 0.000000 0.000000 0.000000 0.000000 0.311727
 36   3.608303 -0.000001 0.000000 0.000000 0.000000 1.497945
 37   -4.237773 4.394053 -6.120039 -2.625135 0.976319 0.382751
 38   8.356072 -0.000002 0.000000 1.092880 0.081296 -0.741635
 39   22.314194 -0.000001 0.000002 0.000000 0.000000 -2.360086
 40   13.466397 0.000001 0.000000 1.000520 0.295375 0.280682
 41   6.635591 -0.843576 1.110600 0.000283 -0.183156 0.003799
 42   3.530613 0.000000 0.000001 0.000000 0.000000 0.500969
 43   3.530613 0.000000 -0.000001 0.000000 0.000000 0.753957
 44   6.681006 -0.762752 -1.054662 0.082487 0.163724 0.464283
 45   3.608304 0.000000 0.000001 0.000000 0.000000 0.501002
 46   3.608303 -0.000002 0.000001 0.000000 0.000000 1.163885
 47   3.408091 -0.002195 0.000000 -0.000028 -0.034890 0.256778
 48   2.848662 -0.000001 0.000000 -0.019913 -0.562848 -0.382374
 49   4.138183 10.107881 0.022334 0.168058 0.064320 -2.397090
 50   0.760360 -7.386538 0.000000 0.000000 0.000000 -0.716476
 51   -2.002823 -4.616313 0.000000 0.000000 0.000000 0.481458
 52   -2.396415 -1.973351 0.000000 0.000000 0.000000 0.436606
 53   -1.683769 -1.021676 0.000000 0.000000 0.000000 0.488166
 54   -0.513056 -0.516027 -1.764821 -0.342050 -1.570791 0.000000
 55   -0.928988 -2.901508 2.221174 0.003016 0.000000 0.000000
 56   -0.506192 -0.502351 1.486638 -0.479667 -1.570795 0.000000
 57   1.132204 -2.783566 2.056074 0.006208 0.000000 0.000000
 58   0.373678 -1.339503 -0.110061 0.330821 -1.570779 0.000000
 59   -0.087093 -3.191322 0.278724 -0.472725 0.000000 0.000000
time 7
  0   -2.319414 -0.411284 36.883110 0.000000 -0.244215 -1.570836
  1   -0.917516 -0.125004 0.000000 -0.000113 -1.562110 -1.570801
  2   -0.000009 0.000010 6.353377 -0.037174 -0.046986 -2.229724
  3   18.507666 -0.000001 0.000000 0.000000 0.000000 -0.491396
  4   13.411350 -0.000001 0.000000 2.892554 0.055784 -0.155720
  5   8.701365 6.675649 0.000000 0.000000 0.000000 1.614392
  6   2.657023 0.000000 0.000000 0.000000 0.000000 -0.043611
  7   2.657024 0.000000 -0.000001 0.000000 0.000000 -0.043611
  8   6.248515 -0.893520 -3.345191 3.141592 0.078501 -1.570796
  9   5.692028 -3.146075 2.191403 0.000000 0.000000 0.000000
 10   6.262098 -1.288316 1.407515 -1.570796 1.492295 1.570796
 11   -0.950702 5.642267 -3.162059 0.000000 0.000000 0.000000
 12   0.000009 -0.000007 -6.353377 -0.002445 -0.027938 -3.150209
 13   18.507666 0.000000 0.000001 0.000000 0.000000 -0.532509
 14   13.411351 0.000000 0.000000 -2.930529 0.040148 0.760469
 15   8.701365 6.675650 0.000000 0.000000 0.000000 1.527185
 16   2.639102 0.000000 0.000001 0.000000 0.000000 -0.043611
 17   2.639103 0.000000 -0.000001 0.000000 0.000000 -0.043611
 18   6.262098 -1.271893 -1.655766 1.570795 1.492298 -1.570797
 19   0.660782 5.698953 -3.162059 0.000000 0.000000 0.000000
 20   6.280027 -0.875930 3.588309 1.570795 1.492298 -1.570797
 21   -1.268985 5.650652 -3.144119 0.000000 0.000000 0.000000
 22   3.416504 -0.970598 0.027351 0.146699 -0.045166 0.756197
 23   6.150888 -0.004769 0.000000 0.000060 0.078474 0.305253
 24   6.181765 -0.006274 0.000000 0.017474 0.034407 0.026771
 25   8.035381 -0.006658 0.000000 -0.042456 0.042591 0.530829
 26   9.041865 -0.002307 0.000000 0.000397 0.497125 0.169695
 27   -7.925243 4.213671 -0.291180 -0.125986 -0.875759 3.088333
 28   8.356072 -0.000002 0.000001 -0.533779 -0.576392 -1.307039
 29   22.314192 -0.000001 -0.000002 0.000000 0.000000 -1.909269
 30   13.466396 0.000001 0.000001 -0.548387 0.288184 0.335130
 31   6.645414 -0.843860 -1.119305 0.054576 0.128519 0.404512
 32   3.530614 0.000002 -0.000001 0.000000 0.000000 0.374998
 33   3.530616 0.000000 0.000001 0.000000 0.000000 1.561184
 34   6.690088 -0.762450 1.047433 -0.070163 -0.169344 0.389773
 35   3.608304 0.000000 0.000000 0.000000 0.000000 0.374998
 36   3.608303 -0.000001 0.000000 0.000000 0.000000 1.561184
 37   -4.573721 4.202641 -6.006754 -2.623889 0.978685 0.402022
 38   8.356072 -0.000002 0.000000 1.055016 -0.013532 -0.698555
 39   22.314194 -0.000001 0.000002 0.000000 0.000000 -2.475688
 40   13.466397 0.000001 0.000000 0.984458 0.367357 0.231168
 41   6.635591 -0.843576 1.110600 -0.005434 -0.183117 0.035273
 42   3.530613 0.000000 0.000001 0.000000 0.000000 0.531981
 43   3.530613 0.000000 -0.000001 0.000000 0.000000 0.784896
 44   6.681006 -0.762752 -1.054662 0.087574 0.161085 0.495607
 45   3.608304 0.000000 0.000001 0.000000 0.000000 0.532009
 46   3.608303 -0.000002 0.000001 0.000000 0.000000 1.194880
 47   3.408091 -0.002195 0.000000 -0.000028 -0.034890 0.256778
 48   2.848662 -0.000001 0.000000 -0.093391 -0.542684 -0.286769
 49   4.138183 10.107881 0.022334 0.191107 0.071106 -2.368741
 50   0.760360 -7.386538 0.000000 0.000000 0.000000 -0.808952
 51   -2.174703 -4.534279 0.000000 0.000000 0.000000 0.551794
 52   -2.396415 -1.942100 0.000000 0.000000 0.000000 0.502958
 53   -1.703301 -1.064646 0.000000 0.000000 0.000000 0.553809
 54   -0.524775 -0.516027 -1.764821 -0.367312 -1.570791 0.000000
 55   -0.928988 -2.960104 2.330553 0.003919 0.000000 0.000000
 56   -0.521817 -0.502351 1.486638 -0.516670 -1.570795 0.000000
 57   1.132204 -2.846068 2.153733 0.007957 0.000000 0.000000
 58   0.350240 -1.327784 -0.110061 0.393886 -1.570779 0.000000
 59   -0.087093 -3.136633 0.372477 -0.544963 0.000000 0.000000
time 8
  0   -2.436605 0.002791 36.730762 0.000000 -0.244215 -1.570836
  1   -0.929235 -0.019532 0.000000 -0.000113 -1.562110 -1.570801
  2   -0.000009 0.000010 6.353377 -0.039262 -0.051340 -2.213878
  3   18.507666 -0.000001 0.000000 0.000000 0.000000 -0.554962
  4   13.411350 -0.000001 0.000000 2.890638 0.060661 -0.107979
  5   8.701365 6.675649 0.000000 0.000000 0.000000 1.614392
  6   2.657023 0.000000 0.000000 0.000000 0.000000 -0.043611
  7   2.657024 0.000000 -0.000001 0.000000 0.000000 -0.043611
  8   6.248515 -0.893520 -3.345191 3.141592 0.078501 -1.570796
  9   5.692028 -3.146075 2.191403 0.000000 0.000000 0.000000
 10   6.262098 -1.288316 1.407515 -1.570796 1.492295 1.570796
 11   -0.950702 5.642267 -3.162059 0.000000 0.000000 0.000000
 12   0.000009 -0.000007 -6.353377 -0.002837 -0.032707 -3.175143
 13   18.507666 0.000000 0.000001 0.000000 0.000000 -0.504190
 14   13.411351 0.000000 0.000000 -2.928243 0.044652 0.757226
 15   8.701365 6.675650 0.000000 0.000000 0.000000 1.527185
 16   2.639102 0.000000 0.000001 0.000000 0.000000 -0.043611
 17   2.639103 0.000000 -0.000001 0.000000 0.000000 -0.043611
 18   6.262098 -1.271893 -1.655766 1.570795 1.492298 -1.570797
 19   0.660782 5.698953 -3.162059 0.000000 0.000000 0.000000
 20   6.280027 -0.875930 3.588309 1.570795 1.492298 -1.570797
 21   -1.268985 5.650652 -3.144119 0.000000 0.000000 0.000000
 22   3.416504 -0.970598 0.027351 0.146296 -0.040591 0.759291
 23   6.150888 -0.004769 0.000000 0.000060 0.082189 0.307165
 24   6.181765 -0.006274 0.000000 0.017270 0.036324 0.012350
 25   8.035381 -0.006658 0.000000 -0.044225 0.041482 0.481215
 26   9.041865 -0.002307 0.000000 0.018227 0.383393 0.215235
 27   -7.722112 4.545712 0.607285 -0.113618 -0.988918 3.036137
 28   8.356072 -0.000002 0.000001 -0.472434 -0.568959 -1.346388
 29   22.314192 -0.000001 -0.000002 0.000000 0.000000 -1.883474
 30   13.466396 0.000001 0.000001 -0.541944 0.317161 0.347764
 31   6.645414 -0.843860 -1.119305 0.056211 0.127806 0.417429
 32   3.530614 0.000002 -0.000001 0.000000 0.000000 0.400893
 33   3.530616 0.000000 0.000001 0.000000 0.000000 1.587084
 34   6.690088 -0.762450 1.047433 -0.077513 -0.185925 0.416701
 35   3.608304 0.000000 0.000000 0.000000 0.000000 0.400893
 36   3.608303 -0.000001 0.000000 0.000000 0.000000 1.587084
 37   -5.034673 4.413585 -5.455956 -2.561477 1.047945 0.404323
 38   8.356072 -0.000002 0.000000 1.028384 -0.104282 -0.687255
 39   22.314194 -0.000001 0.000002 0.000000 0.000000 -2.519095
 40   13.466397 0.000001 0.000000 0.968758 0.423343 0.190282
 41   6.635591 -0.843576 1.110600 -0.005766 -0.183117 0.037092
 42   3.530613 0.000000 0.000001 0.000000 0.000000 0.533790
 43   3.530613 0.000000 -0.000001 0.000000 0.000000 0.786693
 44   6.681006 -0.762752 -1.054662 0.087847 0.160932 0.497393
 45   3.608304 0.000000 0.000001 0.000000 0.000000 0.533797
 46   3.608303 -0.000002 0.000001 0.000000 0.000000 1.196694
 47   3.408091 -0.002195 0.000000 -0.000028 -0.034890 0.264667
 48   2.848662 -0.000001 0.000000 -0.128605 -0.438433 -0.274625
 49   4.138183 10.107881 0.022334 0.209520 0.077813 -2.353116
 50   0.760360 -7.386538 0.000000 0.000000 0.000000 -0.882061
 51   -2.323145 -4.491309 0.000000 0.000000 0.000000 0.608146
 52   -2.396415 -1.922568 0.000000 0.000000 0.000000 0.559112
 53   -1.734552 -1.088084 0.000000 0.000000 0.000000 0.604275
 54   -0.548213 -0.516027 -1.764821 -0.373628 -1.570791 0.000000
 55   -0.928988 -3.003074 2.447744 0.004744 0.000000 0.000000
 56   -0.537443 -0.502351 1.486638 -0.525936 -1.570795 0.000000
 57   1.132204 -2.908570 2.270924 0.009650 0.000000 0.000000
 58   0.322895 -1.323878 -0.110061 0.463593 -1.570779 0.000000
 59   -0.087093 -3.066318 0.446698 -0.609760 0.000000 0.000000
time 9
  0   -2.428792 0.698125 36.340126 0.000000 -0.244215 -1.570836
  1   -0.960486 -0.031251 0.000000 -0.000113 -1.562110 -1.570801
  2   -0.000009 0.000010 6.353377 -0.041402 -0.050785 -2.178639
  3   18.507666 -0.000001 0.000000 0.000000 0.000000 -0.665861
  4   13.411350 -0.000001 0.000000 2.890351 0.061426 -0.032315
  5   8.701365 6.675649 0.000000 0.000000 0.000000 1.614392
  6   2.657023 0.000000 0.000000 0.000000 0.000000 -0.043611
  7   2.657024 0.000000 -0.000001 0.000000 0.000000 -0.043611
  8   6.248515 -0.893520 -3.345191 3.141592 0.078501 -1.570796
  9   5.692028 -3.146075 2.191403 0.000000 0.000000 0.000000
 10   6.262098 -1.288316 1.407515 -1.570796 1.492295 1.570796
 11   -0.950702 5.642267 -3.162059 0.000000 0.000000 0.000000
 12   0.000009 -0.000007 -6.353377 -0.002514 -0.033022 -3.190150
 13   18.507666 0.000000 0.000001 0.000000 0.000000 -0.515467
 14   13.411351 0.000000 0.000000 -2.928148 0.044652 0.783464
 15   8.701365 6.675650 0.000000 0.000000 0.000000 1.527185
 16   2.639102 0.000000 0.000001 0.000000 0.000000 -0.043611
 17   2.639103 0.000000 -0.000001 0.000000 0.000000 -0.043611
 18   6.262098 -1.271893 -1.655766 1.570795 1.492298 -1.570797
 19   0.660782 5.698953 -3.162059 0.000000 0.000000 0.000000
 20   6.280027 -0.875930 3.588309 1.570795 1.492298 -1.570797
 21   -1.268985 5.650652 -3.144119 0.000000 0.000000 0.000000
 22   3.416504 -0.970598 0.027351 0.145679 -0.041718 0.763227
 23   6.150888 -0.004769 0.000000 0.000072 0.081794 0.310352
 24   6.181765 -0.006274 0.000000 0.017294 0.036133 0.013946
 25   8.035381 -0.006658 0.000000 -0.046648 0.039111 0.420735
 26   9.041865 -0.002307 0.000000 0.028465 0.216922 0.308988
 27   -7.065842 5.217608 1.908106 -0.094924 -1.153786 2.926039
 28   8.356072 -0.000002 0.000001 -0.450661 -0.490557 -1.336594
 29   22.314192 -0.000001 -0.000002 0.000000 0.000000 -1.866623
 30   13.466396 0.000001 0.000001 -0.549008 0.331463 0.310064
 31   6.645414 -0.843860 -1.119305 0.050525 0.130164 0.373306
 32   3.530614 0.000002 -0.000001 0.000000 0.000000 0.378874
 33   3.530616 0.000000 0.000001 0.000000 0.000000 1.565022
 34   6.690088 -0.762450 1.047433 -0.078248 -0.218414 0.395797
 35   3.608304 0.000000 0.000000 0.000000 0.000000 0.378874
 36   3.608303 -0.000001 0.000000 0.000000 0.000000 1.565022
 37   -5.409684 4.991728 -4.506708 -2.444707 1.170860 0.402309
 38   8.356072 -0.000002 0.000000 1.012170 -0.193418 -0.706288
 39   22.314194 -0.000001 0.000002 0.000000 0.000000 -2.486449
 40   13.466397 0.000001 0.000000 0.955879 0.462559 0.160111
 41   6.635591 -0.843576 1.110600 0.000413 -0.183156 0.002929
 42   3.530613 0.000000 0.000001 0.000000 0.000000 0.500129
 43   3.530613 0.000000 -0.000001 0.000000 0.000000 0.753095
 44   6.681006 -0.762752 -1.054662 0.082367 0.163792 0.463423
 45   3.608304 0.000000 0.000001 0.000000 0.000000 0.500153
 46   3.608303 -0.000002 0.000001 0.000000 0.000000 1.163091
 47   3.408091 -0.002195 0.000000 -0.000028 -0.034890 0.277823
 48   2.848662 -0.000001 0.000000 -0.133402 -0.273152 -0.326218
 49   4.138183 10.107881 0.022334 0.217281 0.088338 -2.376216
 50   0.760360 -7.386538 0.000000 0.000000 0.000000 -0.875557
 51   -2.311426 -4.499122 0.000000 0.000000 0.000000 0.645379
 52   -2.396415 -1.985070 0.000000 0.000000 0.000000 0.604157
 53   -1.777522 -1.158399 0.000000 0.000000 0.000000 0.631826
 54   -0.559932 -0.508214 -1.764821 -0.364356 -1.570791 0.000000
 55   -0.928988 -3.057763 2.603999 0.005466 0.000000 0.000000
 56   -0.549162 -0.494538 1.486638 -0.512426 -1.570451 0.000000
 57   1.132204 -2.994510 2.438898 0.011343 0.000000 0.000000
 58   0.279925 -1.304346 -0.110061 0.575288 -1.570779 0.000000
 59   -0.087093 -2.925689 0.477949 -0.658001 0.000000 0.000000
time 10
  0   -2.366290 1.381740 35.922142 0.000000 -0.244215 -1.570836
  1   -0.968299 -0.082034 0.000000 -0.000113 -1.562110 -1.570801
  2   -0.000009 0.000010 6.353377 -0.042923 -0.048437 -2.140468
  3   18.507666 -0.000001 0.000000 0.000000 0.000000 -0.786015
  4   13.411350 -0.000001 0.000000 2.890638 0.060661 0.049538
  5   8.701365 6.675649 0.000000 0.000000 0.000000 1.614392
  6   2.657023 0.000000 0.000000 0.000000 0.000000 -0.043611
  7   2.657024 0.000000 -0.000001 0.000000 0.000000 -0.043611
  8   6.248515 -0.893520 -3.345191 3.141592 0.078501 -1.570796
  9   5.692028 -3.146075 2.191403 0.000000 0.000000 0.000000
 10   6.262098 -1.288316 1.407515 -1.570796 1.492295 1.570796
 11   -0.950702 5.642267 -3.162059 0.000000 0.000000 0.000000
 12   0.000009 -0.000007 -6.353377 -0.001891 -0.031545 -3.201924
 13   18.507666 0.000000 0.000001 0.000000 0.000000 -0.544039
 14   13.411351 0.000000 0.000000 -2.928624 0.043502 0.823705
 15   8.701365 6.675650 0.000000 0.000000 0.000000 1.527185
 16   2.639102 0.000000 0.000001 0.000000 0.000000 -0.043611
 17   2.639103 0.000000 -0.000001 0.000000 0.000000 -0.043611
 18   6.262098 -1.271893 -1.655766 1.570795 1.492298 -1.570797
 19   0.660782 5.698953 -3.162059 0.000000 0.000000 0.000000
 20   6.280027 -0.875930 3.588309 1.570795 1.492298 -1.570797
 21   -1.268985 5.650652 -3.144119 0.000000 0.000000 0.000000
 22   3.416504 -0.970598 0.027351 0.145584 -0.044560 0.763689
 23   6.150888 -0.004769 0.000000 0.000060 0.079709 0.311004
 24   6.181765 -0.006274 0.000000 0.017402 0.035054 0.021969
 25   8.035381 -0.006658 0.000000 -0.048574 0.036723 0.371778
 26   9.041865 -0.002307 0.000000 0.019368 0.053870 0.412631
 27   -6.065811 5.862159 3.095642 -0.015255 -1.313653 2.743494
 28   8.356072 -0.000002 0.000001 -0.444427 -0.395076 -1.308946
 29   22.314192 -0.000001 -0.000002 0.000000 0.000000 -1.854923
 30   13.466396 0.000001 0.000001 -0.567716 0.297037 0.240560
 31   6.645414 -0.843860 -1.119305 0.040141 0.133730 0.294190
 32   3.530614 0.000002 -0.000001 0.000000 0.000000 0.304775
 33   3.530616 0.000000 0.000001 0.000000 0.000000 1.490966
 34   6.690088 -0.762450 1.047433 -0.064143 -0.229638 0.320174
 35   3.608304 0.000000 0.000000 0.000000 0.000000 0.304775
 36   3.608303 -0.000001 0.000000 0.000000 0.000000 1.490966
 37   -5.491718 5.671436 -3.510584 -2.278851 1.295908 0.442960
 38   8.356072 -0.000002 0.000000 1.006463 -0.270147 -0.732883
 39   22.314194 -0.000001 0.000002 0.000000 0.000000 -2.425606
 40   13.466397 0.000001 0.000000 0.944303 0.493519 0.135241
 41   6.635591 -0.843576 1.110600 0.012568 -0.182747 -0.063855
 42   3.530613 0.000000 0.000001 0.000000 0.000000 0.434488
 43   3.530613 0.000000 -0.000001 0.000000 0.000000 0.687370
 44   6.681006 -0.762752 -1.054662 0.071356 0.168832 0.397038
 45   3.608304 0.000000 0.000001 0.000000 0.000000 0.434471
 46   3.608303 -0.000002 0.000001 0.000000 0.000000 1.097321
 47   3.408091 -0.002195 0.000000 -0.000028 -0.034890 0.280444
 48   2.848662 -0.000001 0.000000 -0.126886 -0.107215 -0.394014
 49   4.138183 10.107881 0.022334 0.212541 0.102801 -2.440826
 50   0.760360 -7.386538 0.000000 0.000000 0.000000 -0.780295
 51   -2.120014 -4.553811 0.000000 0.000000 0.000000 0.660508
 52   -2.435479 -2.133512 0.000000 0.000000 0.000000 0.631981
 53   -1.863462 -1.244339 0.000000 0.000000 0.000000 0.634575
 54   -0.559932 -0.496495 -1.764821 -0.350784 -1.570791 0.000000
 55   -0.928988 -3.081201 2.764160 0.006188 0.000000 0.000000
 56   -0.553068 -0.482819 1.486638 -0.491204 -1.570795 0.000000
 57   1.132204 -3.068731 2.638123 0.012641 0.000000 0.000000
 58   0.205704 -1.265282 -0.110061 0.727413 -1.570779 0.000000
 59   -0.087093 -2.730370 0.329507 -0.694440 0.000000 0.000000
time 11
  0   -2.319414 1.709875 35.719013 0.000000 -0.244215 -1.570836
  1   -0.913610 -0.093753 0.000000 -0.000113 -1.562110 -1.570801
  2   -0.000009 0.000010 6.353377 -0.042898 -0.045193 -2.122162
  3   18.507666 -0.000001 0.000000 0.000000 0.000000 -0.869758
  4   13.411350 -0.000001 0.000000 2.891596 0.058079 0.114961
  5   8.701365 6.675649 0.000000 0.000000 0.000000 1.614392
  6   2.657023 0.000000 0.000000 0.000000 0.000000 -0.043611
  7   2.657024 0.000000 -0.000001 0.000000 0.000000 -0.043611
  8   6.248515 -0.893520 -3.345191 3.141592 0.078501 -1.570796
  9   5.692028 -3.146075 2.191403 0.000000 0.000000 0.000000
 10   6.262098 -1.288316 1.407515 -1.570796 1.492295 1.570796
 11   -0.950702 5.642267 -3.162059 0.000000 0.000000 0.000000
 12   0.000009 -0.000007 -6.353377 -0.000253 -0.028591 -3.232110
 13   18.507666 0.000000 0.000001 0.000000 0.000000 -0.524873
 14   13.411351 0.000000 0.000000 -2.930243 0.040627 0.834687
 15   8.701365 6.675650 0.000000 0.000000 0.000000 1.527185
 16   2.639102 0.000000 0.000001 0.000000 0.000000 -0.043611
 17   2.639103 0.000000 -0.000001 0.000000 0.000000 -0.043611
 18   6.262098 -1.271893 -1.655766 1.570795 1.492298 -1.570797
 19   0.660782 5.698953 -3.162059 0.000000 0.000000 0.000000
 20   6.280027 -0.875930 3.588309 1.570795 1.492298 -1.570797
 21   -1.268985 5.650652 -3.144119 0.000000 0.000000 0.000000
 22   3.416504 -0.970598 0.027351 0.146699 -0.045166 0.756197
 23   6.150888 -0.004769 0.000000 0.000060 0.078474 0.305253
 24   6.181765 -0.006274 0.000000 0.017474 0.034407 0.026771
 25   8.035381 -0.006658 0.000000 -0.049019 0.035734 0.356313
 26   9.041865 -0.002307 0.000000 -0.000017 -0.061015 0.492297
 27   -5.182972 6.256702 3.841759 0.195468 -1.421811 2.455890
 28   8.356072 -0.000002 0.000001 -0.436115 -0.334195 -1.294905
 29   22.314192 -0.000001 -0.000002 0.000000 0.000000 -1.844661
 30   13.466396 0.000001 0.000001 -0.588753 0.179732 0.161631
 31   6.645414 -0.843860 -1.119305 0.027748 0.136802 0.202361
 32   3.530614 0.000002 -0.000001 0.000000 0.000000 0.174430
 33   3.530616 0.000000 0.000001 0.000000 0.000000 1.360611
 34   6.690088 -0.762450 1.047433 -0.034708 -0.179915 0.186282
 35   3.608304 0.000000 0.000000 0.000000 0.000000 0.174430
 36   3.608303 -0.000001 0.000000 0.000000 0.000000 1.360611
 37   -5.366714 6.167545 -2.783999 -2.067936 1.375207 0.562418
 38   8.356072 -0.000002 0.000000 1.006916 -0.325548 -0.742824
 39   22.314194 -0.000001 0.000002 0.000000 0.000000 -2.384514
 40   13.466397 0.000001 0.000000 0.931714 0.524608 0.109187
 41   6.635591 -0.843576 1.110600 0.029920 -0.180741 -0.159781
 42   3.530613 0.000000 0.000001 0.000000 0.000000 0.340128
 43   3.530613 0.000000 -0.000001 0.000000 0.000000 0.593114
 44   6.681006 -0.762752 -1.054662 0.055018 0.174808 0.301413
 45   3.608304 0.000000 0.000001 0.000000 0.000000 0.340116
 46   3.608303 -0.000002 0.000001 0.000000 0.000000 1.003013
 47   3.408091 -0.002195 0.000000 -0.000028 -0.034890 0.256778
 48   2.848662 -0.000001 0.000000 -0.124640 0.011473 -0.434972
 49   4.138183 10.107881 0.022334 0.201108 0.115779 -2.515615
 50   0.760360 -7.386538 0.000000 0.000000 0.000000 -0.667524
 51   -1.928602 -4.678815 0.000000 0.000000 0.000000 0.649439
 52   -2.490168 -2.270235 0.000000 0.000000 0.000000 0.635932
 53   -1.929871 -1.299028 0.000000 0.000000 0.000000 0.614460
 54   -0.559932 -0.476963 -1.764821 -0.334726 -1.570791 0.000000
 55   -0.928988 -3.065576 2.838381 0.006884 0.000000 0.000000
 56   -0.553068 -0.459381 1.486638 -0.467233 -1.570795 0.000000
 57   1.132204 -3.080450 2.755314 0.014052 0.000000 0.000000
 58   0.170547 -1.230125 -0.110061 0.867565 -1.570779 0.000000
 59   -0.087093 -2.617085 0.087312 -0.739675 0.000000 0.000000
time 12
  0   -2.319414 0.959852 36.644821 0.010301 -0.270953 -1.574238
  1   -0.526879 -0.019532 0.000000 -0.000113 -1.562110 -1.570801
  2   -0.000009 0.000010 6.353377 -0.035730 -0.043272 -2.225136
  3   18.507666 -0.000001 0.000000 0.000000 0.000000 -0.559210
  4   13.411350 -0.000001 0.000000 2.893416 0.052055 -0.092728
  5   8.701365 6.675649 0.000000 0.000000 0.000000 1.614392
  6   2.657023 0.000000 0.000000 0.000000 0.000000 -0.043611
  7   2.657024 0.000000 -0.000001 0.000000 0.000000 -0.043611
  8   6.248515 -0.893520 -3.345191 3.141592 0.078501 -1.570796
  9   5.692028 -3.146075 2.191403 0.000000 0.000000 0.000000
 10   6.262098 -1.288316 1.407515 -1.570796 1.492295 1.570796
 11   -0.950702 5.642267 -3.162059 0.000000 0.000000 0.000000
 12   0.000009 -0.000007 -6.353377 0.001523 -0.024378 -3.219181
 13   18.507666 0.000000 0.000001 0.000000 0.000000 -0.416755
 14   13.411351 0.000000 0.000000 -2.933577 0.037466 0.713521
 15   8.701365 6.675650 0.000000 0.000000 0.000000 1.527185
 16   2.639102 0.000000 0.000001 0.000000 0.000000 -0.043611
 17   2.639103 0.000000 -0.000001 0.000000 0.000000 -0.043611
 18   6.262098 -1.271893 -1.655766 1.570795 1.492298 -1.570797
 19   0.660782 5.698953 -3.162059 0.000000 0.000000 0.000000
 20   6.280027 -0.875930 3.588309 1.570795 1.492298 -1.570797
 21   -1.268985 5.650652 -3.144119 0.000000 0.000000 0.000000
 22   3.416504 -0.970598 0.027351 0.153223 -0.038505 0.712195
 23   6.150888 -0.004769 0.000000 0.000060 0.078474 0.270023
 24   6.181765 -0.006274 0.000000 0.017474 0.034539 0.019158
 25   8.035381 -0.006658 0.000000 -0.043818 0.039828 0.472694
 26   9.041865 -0.002307 0.000000 -0.019335 -0.066376 0.501123
 27   -5.108751 6.225451 3.990201 0.112540 -1.437424 2.529289
 28   8.356072 -0.000002 0.000001 -0.424008 -0.352424 -1.329660
 29   22.314192 -0.000001 -0.000002 0.000000 0.000000 -1.840748
 30   13.466396 0.000001 0.000001 -0.590383 -0.280024 -0.015317
 31   6.645414 -0.843860 -1.119305 0.006605 0.136162 0.038294
 32   3.530614 0.000002 -0.000001 0.000000 0.000000 -0.227482
 33   3.530616 0.000000 0.000001 0.000000 0.000000 0.948881
 34   6.690088 -0.762450 1.047433 -0.013778 0.142079 -0.200439
 35   3.608304 0.000000 0.000000 0.000000 0.000000 -0.227482
 36   3.608303 -0.000001 0.000000 0.000000 0.000000 0.958690
 37   -5.323744 6.265204 -2.635557 -1.947907 1.326728 0.665961
 38   8.356072 -0.000002 0.000000 1.030558 -0.323764 -0.689124
 39   22.314194 -0.000001 0.000002 0.000000 0.000000 -2.402858
 40   13.466397 0.000001 0.000000 0.930556 0.549892 0.085727
 41   6.635591 -0.843576 1.110600 0.072997 -0.168141 -0.406674
 42   3.530613 0.000000 0.000001 0.000000 0.000000 0.102791
 43   3.530613 0.000000 -0.000001 0.000000 0.000000 0.324540
 44   6.681006 -0.762752 -1.054662 0.013704 0.182673 0.069975
 45   3.608304 0.000000 0.000001 0.000000 0.000000 0.102819
 46   3.608303 -0.000002 0.000001 0.000000 0.000000 0.765674
 47   3.408091 -0.002195 0.000000 -0.000028 -0.034890 0.140488
 48   2.848662 -0.000001 0.000000 -0.120453 0.028684 -0.379068
 49   4.138183 10.107881 0.022334 0.190326 0.122862 -2.568694
 50   0.760360 -7.386538 0.000000 0.010303 -0.005956 -0.470055
 51   -1.729377 -4.983512 -0.007813 0.000016 0.000096 -0.383119
 52   -2.861273 -1.496774 -0.007813 0.000012 0.000000 -0.059295
 53   -1.898620 -0.474784 0.000000 0.000132 -0.000036 -0.397214
 54   -0.505243 -0.351959 -1.764821 -0.336809 -1.570791 0.000000
 55   -0.928988 -2.549935 2.807130 0.008070 0.000000 0.000000
 56   -0.486660 -0.330470 1.486638 -0.467173 -1.570451 0.000000
 57   1.132204 -2.709345 2.899850 0.015773 0.000000 0.000000
 58   0.666656 -1.198874 -0.110061 0.916770 -1.570779 0.000000
 59   -0.087093 -3.285075 -0.490831 -0.447841 0.000132 0.000057
time 13
  0   -2.319414 -0.102681 36.637009 0.000000 -0.244215 -1.570836
  1   -0.237808 0.019532 0.000000 -0.000113 -1.562110 -1.570801
  2   -0.000009 0.000010 6.353377 -0.036194 -0.041095 -2.229582
  3   18.507666 -0.000001 0.000000 0.000000 0.000000 -0.457211
  4   13.411350 -0.000001 0.000000 2.895428 0.050525 -0.190200
  5   8.701365 6.675649 0.000000 0.000000 0.000000 1.614392
  6   2.657023 0.000000 0.000000 0.000000 0.000000 -0.043611
  7   2.657024 0.000000 -0.000001 0.000000 0.000000 -0.043611
  8   6.248515 -0.893520 -3.345191 3.141592 0.078501 -1.570796
  9   5.692028 -3.146075 2.191403 0.000000 0.000000 0.000000
 10   6.262098 -1.288316 1.407515 -1.570796 1.492295 1.570796
 11   -0.950702 5.642267 -3.162059 0.000000 0.000000 0.000000
 12   0.000009 -0.000007 -6.353377 -0.002029 -0.021909 -3.111077
 13   18.507666 0.000000 0.000001 0.000000 0.000000 -0.597997
 14   13.411351 0.000000 0.000000 -2.933100 0.034879 0.786633
 15   8.701365 6.675650 0.000000 0.000000 0.000000 1.527185
 16   2.639102 0.000000 0.000001 0.000000 0.000000 -0.043611
 17   2.639103 0.000000 -0.000001 0.000000 0.000000 -0.043611
 18   6.262098 -1.271893 -1.655766 1.570795 1.492298 -1.570797
 19   0.660782 5.698953 -3.162059 0.000000 0.000000 0.000000
 20   6.280027 -0.875930 3.588309 1.570795 1.492298 -1.570797
 21   -1.268985 5.650652 -3.144119 0.000000 0.000000 0.000000
 22   3.416504 -0.970598 0.027351 0.157944 -0.033324 0.678970
 23   6.150888 -0.004769 0.000000 0.000060 0.078474 0.244252
 24   6.181765 -0.006274 0.000000 0.017474 0.034407 0.026771
 25   8.035381 -0.006658 0.000000 -0.038683 0.043188 0.583313
 26   9.041865 -0.002307 0.000000 -0.031161 -0.030751 0.501698
 27   -5.237661 6.190294 3.880823 -0.079201 -1.412287 2.717633
 28   8.356072 -0.000002 0.000001 -0.446595 -0.417641 -1.333821
 29   22.314192 -0.000001 -0.000002 0.000000 0.000000 -1.844661
 30   13.466396 0.000001 0.000001 -0.520208 -0.724491 -0.150154
 31   6.645414 -0.843860 -1.119305 -0.019747 0.138192 -0.141060
 32   3.530614 0.000002 -0.000001 0.000000 0.000000 -0.584387
 33   3.530616 0.000000 0.000001 0.000000 0.000000 0.601901
 34   6.690088 -0.762450 1.047433 -0.100368 0.396018 -0.583395
 35   3.608304 0.000000 0.000000 0.000000 0.000000 -0.584387
 36   3.608303 -0.000001 0.000000 0.000000 0.000000 0.601901
 37   -5.226085 6.304268 -2.752748 -1.917132 1.269666 0.695681
 38   8.356072 -0.000002 0.000000 1.060904 -0.269807 -0.651313
 39   22.314194 -0.000001 0.000002 0.000000 0.000000 -2.384514
 40   13.466397 0.000001 0.000000 0.909068 0.573241 0.065876
 41   6.635591 -0.843576 1.110600 0.106604 -0.149232 -0.618533
 42   3.530613 0.000000 0.000001 0.000000 0.000000 -0.113322
 43   3.530613 0.000000 -0.000001 0.000000 0.000000 0.139658
 44   6.681006 -0.762752 -1.054662 -0.027951 0.181090 -0.159379
 45   3.608304 0.000000 0.000001 0.000000 0.000000 -0.113383
 46   3.608303 -0.000002 0.000001 0.000000 0.000000 0.549578
 47   3.408091 -0.002195 0.000000 -0.000028 -0.034890 0.003841
 48   2.848662 -0.000001 0.000000 -0.108974 -0.000041 -0.367535
 49   4.138183 10.107881 0.022334 0.188112 0.121062 -2.567939
 50   0.760360 -7.386538 0.000000 0.000000 0.000000 -0.388974
 51   -1.717658 -5.135860 0.000000 0.000000 0.000000 -0.288632
 52   -2.650329 -1.512399 0.000000 0.000000 0.000000 -0.269325
 53   -1.922058 -0.486503 0.000000 0.000000 0.000000 -0.264861
 54   -0.485711 -0.332427 -1.764821 -0.310405 -1.570791 0.000000
 55   -0.928988 -2.393680 2.713377 0.008792 0.000000 0.000000
 56   -0.478847 -0.314845 1.486638 -0.433398 -1.570451 0.000000
 57   1.132204 -2.549184 2.829535 0.017353 0.000000 0.000000
 58   0.654937 -1.191061 -0.110061 0.841487 -1.570779 0.000000
 59   -0.087093 -3.253824 -0.639273 -0.386468 0.000000 0.000000
time 14
  0   -2.319414 -0.747232 33.953335 -0.050599 -0.107319 -1.557922
  1   -0.491722 -0.039064 0.000000 -0.000113 -1.562110 -1.570801
  2   -0.000009 0.000010 6.353377 -0.079586 -0.080388 -2.098323
  3   18.507666 -0.000001 0.000000 0.000000 0.000000 -0.969987
  4   13.411350 -0.000001 0.000000 2.881155 0.055019 0.049759
  5   8.701365 6.675649 0.000000 0.000000 0.000000 1.614392
  6   2.657023 0.000000 0.000000 0.000000 0.000000 -0.043611
  7   2.657024 0.000000 -0.000001 0.000000 0.000000 -0.043611
  8   6.248515 -0.893520 -3.345191 3.141592 0.078501 -1.570796
  9   5.692028 -3.146075 2.191403 0.000000 0.000000 0.000000
 10   6.262098 -1.288316 1.407515 -1.570796 1.492295 1.570796
 11   -0.950702 5.642267 -3.162059 0.000000 0.000000 0.000000
 12   0.000009 -0.000007 -6.353377 -0.039101 -0.060164 -3.117541
 13   18.507666 0.000000 0.000001 0.000000 0.000000 -1.014640
 14   13.411351 0.000000 0.000000 -2.889005 0.019166 1.066406
 15   8.701365 6.675650 0.000000 0.000000 0.000000 1.527185
 16   2.639102 0.000000 0.000001 0.000000 0.000000 -0.043611
 17   2.639103 0.000000 -0.000001 0.000000 0.000000 -0.043611
 18   6.262098 -1.271893 -1.655766 1.570795 1.492298 -1.570797
 19   0.660782 5.698953 -3.162059 0.000000 0.000000 0.000000
 20   6.280027 -0.875930 3.588309 1.570795 1.492298 -1.570797
 21   -1.268985 5.650652 -3.144119 0.000000 0.000000 0.000000
 22   3.416504 -0.970598 0.027351 0.155097 -0.036452 0.699057
 23   6.150888 -0.004769 0.000000 0.000060 0.078474 0.262592
 24   6.181765 -0.006274 0.000000 0.017438 0.033724 0.065730
 25   8.035381 -0.006658 0.000000 -0.040059 0.042267 0.552602
 26   9.041865 -0.002307 0.000000 -0.031310 -0.030185 0.551148
 27   -4.925151 6.444208 3.873010 -0.068655 -1.412548 2.657736
 28   8.356072 -0.000002 0.000001 -0.533056 -0.486044 -1.248276
 29   22.314192 -0.000001 -0.000002 0.000000 0.000000 -1.850132
 30   13.466396 0.000001 0.000001 -0.563757 -0.805941 -0.004850
 31   6.645414 -0.843860 -1.119305 -0.045792 0.150480 -0.256121
 32   3.530614 0.000002 -0.000001 0.000000 0.000000 -0.583224
 33   3.530616 0.000000 0.000001 0.000000 0.000000 0.653081
 34   6.690088 -0.762450 1.047433 -0.073278 0.314300 -0.618320
 35   3.608304 0.000000 0.000000 0.000000 0.000000 -0.583224
 36   3.608303 -0.000001 0.000000 0.000000 0.000000 0.602987
 37   -4.913575 6.546463 -2.752748 -1.846476 1.312059 0.724252
 38   8.356072 -0.000002 0.000000 1.067788 -0.196052 -0.694647
 39   22.314194 -0.000001 0.000002 0.000000 0.000000 -2.270275
 40   13.466397 0.000001 0.000000 0.838308 0.605298 0.038299
 41   6.635591 -0.843576 1.110600 0.106315 -0.149446 -0.616556
 42   3.530613 0.000000 0.000001 0.000000 0.000000 -0.142880
 43   3.530613 0.000000 -0.000001 0.000000 0.000000 0.269489
 44   6.681006 -0.762752 -1.054662 -0.042069 0.178366 -0.238400
 45   3.608304 0.000000 0.000001 0.000000 0.000000 -0.142905
 46   3.608303 -0.000002 0.000001 0.000000 0.000000 0.519981
 47   3.408091 -0.002195 0.000000 -0.000028 -0.034890 -0.071762
 48   2.848662 -0.000001 0.000000 -0.103373 -0.015015 -0.504889
 49   4.138183 10.107881 0.022334 0.203765 0.101574 -2.457128
 50   0.760360 -7.386538 0.000000 -0.064493 0.030069 -0.642877
 51   -1.897351 -4.717879 0.082034 -0.000080 -0.000108 -0.076305
 52   -2.689393 -1.508493 0.058596 -0.000491 -0.000156 -0.262234
 53   -1.929871 -0.506035 0.027345 0.000024 0.000000 0.015481
 54   -0.423209 -0.269925 -1.757008 -0.273586 -1.570366 0.000000
 55   -0.878205 -2.034294 2.416493 0.009333 -0.000012 0.000000
 56   -0.447596 -0.307032 1.494451 -0.386890 -1.570031 0.000000
 57   1.171268 -2.193704 2.571715 0.018792 0.000000 -0.000014
 58   0.643218 -1.183248 -0.102248 1.024693 -1.569768 -0.328481
 59   -0.087093 -3.191322 -0.818966 -0.328126 -0.000623 0.000114
time 15
  0   -2.319414 -1.352719 30.211031 -0.112357 0.067670 -1.551736
  1   -0.862827 -0.136723 0.000000 -0.000113 -1.562110 -1.570801
  2   -0.000009 0.000010 6.353377 -0.129552 -0.119638 -2.014411
  3   18.507666 -0.000001 0.000000 0.000000 0.000000 -1.342281
  4   13.411350 -0.000001 0.000000 2.854332 0.055784 0.192025
  5   8.701365 6.675649 0.000000 0.000000 0.000000 1.614392
  6   2.657023 0.000000 0.000000 0.000000 0.000000 -0.043611
  7   2.657024 0.000000 -0.000001 0.000000 0.000000 -0.043611
  8   6.248515 -0.893520 -3.345191 3.141592 0.078501 -1.570796
  9   5.692028 -3.146075 2.191403 0.000000 0.000000 0.000000
 10   6.262098 -1.288316 1.407515 -1.570796 1.492295 1.570796
 11   -0.950702 5.642267 -3.162059 0.000000 0.000000 0.000000
 12   0.000009 -0.000007 -6.353377 -0.074188 -0.089655 -3.187898
 13   18.507666 0.000000 0.000001 0.000000 0.000000 -1.357098
 14   13.411351 0.000000 0.000000 -2.843099 -0.000284 1.326279
 15   8.701365 6.675650 0.000000 0.000000 0.000000 1.527185
 16   2.639102 0.000000 0.000001 0.000000 0.000000 -0.043611
 17   2.639103 0.000000 -0.000001 0.000000 0.000000 -0.043611
 18   6.262098 -1.271893 -1.655766 1.570795 1.492298 -1.570797
 19   0.660782 5.698953 -3.162059 0.000000 0.000000 0.000000
 20   6.280027 -0.875930 3.588309 1.570795 1.492298 -1.570797
 21   -1.268985 5.650652 -3.144119 0.000000 0.000000 0.000000
 22   3.416504 -0.970598 0.027351 0.149902 -0.041970 0.734698
 23   6.150888 -0.004769 0.000000 0.000060 0.078474 0.293925
 24   6.181765 -0.006274 0.000000 0.017354 0.032873 0.115318
 25   8.035381 -0.006658 0.000000 -0.043150 0.040101 0.484018
 26   9.041865 -0.002307 0.000000 -0.027671 -0.033523 0.613133
 27   -4.503263 6.748905 3.861291 -0.021103 -1.414070 2.549064
 28   8.356072 -0.000002 0.000001 -0.656560 -0.550199 -1.124075
 29   22.314192 -0.000001 -0.000002 0.000000 0.000000 -1.856720
 30   13.466396 0.000001 0.000001 -0.653106 -0.781050 0.237071
 31   6.645414 -0.843860 -1.119305 -0.074289 0.164688 -0.358757
 32   3.530614 0.000002 -0.000001 0.000000 0.000000 -0.483158
 33   3.530616 0.000000 0.000001 0.000000 0.000000 0.816820
 34   6.690088 -0.762450 1.047433 -0.008423 0.140683 -0.562777
 35   3.608304 0.000000 0.000000 0.000000 0.000000 -0.483158
 36   3.608303 -0.000001 0.000000 0.000000 0.000000 0.702982
 37   -4.515125 6.819909 -2.764467 -1.718297 1.377756 0.798649
 38   8.356072 -0.000002 0.000000 1.064527 -0.111675 -0.762877
 39   22.314194 -0.000001 0.000002 0.000000 0.000000 -2.124025
 40   13.466397 0.000001 0.000000 0.747941 0.637935 0.004124
 41   6.635591 -0.843576 1.110600 0.096903 -0.155678 -0.554794
 42   3.530613 0.000000 0.000001 0.000000 0.000000 -0.121624
 43   3.530613 0.000000 -0.000001 0.000000 0.000000 0.493827
 44   6.681006 -0.762752 -1.054662 -0.049256 0.176510 -0.279084
 45   3.608304 0.000000 0.000001 0.000000 0.000000 -0.121657
 46   3.608303 -0.000002 0.000001 0.000000 0.000000 0.541224
 47   3.408091 -0.002195 0.000000 -0.000028 -0.034890 -0.135241
 48   2.848662 -0.000001 0.000000 -0.096025 -0.032375 -0.689272
 49   4.138183 10.107881 0.022334 0.225095 0.063805 -2.265246
 50   0.760360 -7.386538 0.000000 -0.159473 0.039357 -1.033074
 51   -2.670812 -4.510841 0.210944 0.000979 -0.000288 0.204867
 52   -2.818303 -1.500680 0.125004 -0.001198 0.000156 -0.251462
 53   -1.992373 -0.560724 0.050783 0.001498 -0.000455 0.338854
 54   -0.352894 -0.246487 -1.745289 -1.695938 -1.569658 1.465087
 55   -0.815703 -1.835069 2.088358 0.009256 -0.000012 -0.000016
 56   -0.420251 -0.314845 1.498357 -1.612419 -1.569255 1.283789
 57   1.237676 -1.947603 2.259205 0.018792 -0.000012 -0.000055
 58   0.611967 -1.148091 -0.078810 1.700195 -1.568676 -1.171314
 59   -0.036310 -3.042880 -0.912719 -0.279023 -0.000443 0.001125
time 16
  0   -2.319414 -1.817577 26.382790 -0.176833 0.248198 -1.556530
  1   -1.222213 -0.230476 0.000000 -0.000113 -1.562110 -1.570657
  2   -0.000009 0.000010 6.353377 -0.178203 -0.169090 -1.977943
  3   18.507666 -0.000001 0.000000 0.000000 0.000000 -1.615964
  4   13.411350 -0.000001 0.000000 2.809789 0.041919 0.270857
  5   8.701365 6.675649 0.000000 0.000000 0.000000 1.614392
  6   2.657023 0.000000 0.000000 0.000000 0.000000 -0.043611
  7   2.657024 0.000000 -0.000001 0.000000 0.000000 -0.043611
  8   6.248515 -0.893520 -3.345191 3.141592 0.078501 -1.570796
  9   5.692028 -3.146075 2.191403 0.000000 0.000000 0.000000
 10   6.262098 -1.288316 1.407515 -1.570796 1.492295 1.570796
 11   -0.950702 5.642267 -3.162059 0.000000 0.000000 0.000000
 12   0.000009 -0.000007 -6.353377 -0.094258 -0.117161 -3.327112
 13   18.507666 0.000000 0.000001 0.000000 0.000000 -1.610806
 14   13.411351 0.000000 0.000000 -2.799766 -0.024812 1.545026
 15   8.701365 6.675650 0.000000 0.000000 0.000000 1.527185
 16   2.639102 0.000000 0.000001 0.000000 0.000000 -0.043611
 17   2.639103 0.000000 -0.000001 0.000000 0.000000 -0.043611
 18   6.262098 -1.271893 -1.655766 1.570795 1.492298 -1.570797
 19   0.660782 5.698953 -3.162059 0.000000 0.000000 0.000000
 20   6.280027 -0.875930 3.588309 1.570795 1.492298 -1.570797
 21   -1.268985 5.650652 -3.144119 0.000000 0.000000 0.000000
 22   3.416504 -0.970598 0.027351 0.143852 -0.047841 0.774682
 23   6.150888 -0.004769 0.000000 0.000060 0.078474 0.328749
 24   6.181765 -0.006274 0.000000 0.017234 0.031986 0.166414
 25   8.035381 -0.006658 0.000000 -0.046622 0.037320 0.403956
 26   9.041865 -0.002307 0.000000 -0.023189 -0.038196 0.676066
 27   -4.046218 7.041883 3.841759 0.037473 -1.414940 2.428319
 28   8.356072 -0.000002 0.000001 -0.799037 -0.598957 -0.983320
 29   22.314192 -0.000001 -0.000002 0.000000 0.000000 -1.864746
 30   13.466396 0.000001 0.000001 -0.724290 -0.700860 0.479593
 31   6.645414 -0.843860 -1.119305 -0.103058 0.177396 -0.450933
 32   3.530614 0.000002 -0.000001 0.000000 0.000000 -0.348695
 33   3.530616 0.000000 0.000001 0.000000 0.000000 1.017043
 34   6.690088 -0.762450 1.047433 0.050867 -0.065053 -0.486544
 35   3.608304 0.000000 0.000000 0.000000 0.000000 -0.348695
 36   3.608303 -0.000001 0.000000 0.000000 0.000000 0.837447
 37   -4.101050 7.077729 -2.783999 -1.448710 1.442803 1.011775
 38   8.356072 -0.000002 0.000000 1.054291 -0.030442 -0.837734
 39   22.314194 -0.000001 0.000002 0.000000 0.000000 -1.975550
 40   13.466397 0.000001 0.000000 0.654246 0.666605 -0.029769
 41   6.635591 -0.843576 1.110600 0.083766 -0.163078 -0.472035
 42   3.530613 0.000000 0.000001 0.000000 0.000000 -0.080986
 43   3.530613 0.000000 -0.000001 0.000000 0.000000 0.743823
 44   6.681006 -0.762752 -1.054662 -0.053268 0.175335 -0.302039
 45   3.608304 0.000000 0.000001 0.000000 0.000000 -0.080981
 46   3.608303 -0.000002 0.000001 0.000000 0.000000 0.581933
 47   3.408091 -0.002195 0.000000 -0.000028 -0.034890 -0.190249
 48   2.848662 -0.000001 0.000000 -0.085877 -0.048542 -0.881631
 49   4.138183 10.107881 0.022334 0.233585 0.023425 -2.086327
 50   0.760360 -7.386538 0.000000 -0.240068 0.015161 -1.391434
 51   -3.502869 -4.893665 0.250008 0.001235 -0.002661 0.512757
 52   -2.880805 -1.531931 0.156255 -0.001474 0.000587 -0.232958
 53   -2.004092 -0.591975 0.050783 0.003128 -0.000959 0.614766
 54   -0.298205 -0.258206 -1.725757 0.780513 -1.572008 -0.974410
 55   -0.761014 -1.874133 1.795380 0.009024 0.000012 -0.000016
 56   -0.408532 -0.357815 1.506170 0.887240 -1.572537 -1.163047
 57   1.276740 -1.928071 1.942789 0.018256 0.000000 -0.000125
 58   0.592435 -1.132465 -0.059278 -1.061187 -1.573250 1.432582
 59   0.026192 -2.917876 -0.858030 -0.238469 0.000407 0.001552
time 17
  0   -2.319414 -2.048053 23.593641 -0.235396 0.401210 -1.570836
  1   -1.468314 -0.304697 0.000000 -0.000113 -1.562110 -1.570657
  2   -0.000009 0.000010 6.353377 -0.219738 -0.232671 -1.990004
  3   18.507666 -0.000001 0.000000 0.000000 0.000000 -1.806865
  4   13.411350 -0.000001 0.000000 2.754229 0.008738 0.313220
  5   8.701365 6.675649 0.000000 0.000000 0.000000 1.614392
  6   2.657023 0.000000 0.000000 0.000000 0.000000 -0.043611
  7   2.657024 0.000000 -0.000001 0.000000 0.000000 -0.043611
  8   6.248515 -0.893520 -3.345191 3.141592 0.078501 -1.570796
  9   5.692028 -3.146075 2.191403 0.000000 0.000000 0.000000
 10   6.262098 -1.288316 1.407515 -1.570796 1.492295 1.570796
 11   -0.950702 5.642267 -3.162059 0.000000 0.000000 0.000000
 12   0.000009 -0.000007 -6.353377 -0.093427 -0.140405 -3.510711
 13   18.507666 0.000000 0.000001 0.000000 0.000000 -1.778040
 14   13.411351 0.000000 0.000000 -5.903225 -3.087065 -1.434299
 15   8.701365 6.675650 0.000000 0.000000 0.000000 1.527185
 16   2.639102 0.000000 0.000001 0.000000 0.000000 -0.043611
 17   2.639103 0.000000 -0.000001 0.000000 0.000000 -0.043611
 18   6.262098 -1.271893 -1.655766 1.570795 1.492298 -1.570797
 19   0.660782 5.698953 -3.162059 0.000000 0.000000 0.000000
 20   6.280027 -0.875930 3.588309 1.570795 1.492298 -1.570797
 21   -1.268985 5.650652 -3.144119 0.000000 0.000000 0.000000
 22   3.416504 -0.970598 0.027351 0.138704 -0.052551 0.807772
 23   6.150888 -0.004769 0.000000 0.000060 0.078474 0.357605
 24   6.181765 -0.006274 0.000000 0.017066 0.031243 0.209868
 25   8.035381 -0.006658 0.000000 -0.049320 0.034864 0.338877
 26   9.041865 -0.002307 0.000000 -0.020311 -0.041493 0.728161
 27   -3.651675 7.256733 3.822227 0.080136 -1.414766 2.334099
 28   8.356072 -0.000002 0.000001 -0.933924 -0.630194 -0.855219
 29   22.314192 -0.000001 -0.000002 0.000000 0.000000 -1.874569
 30   13.466396 0.000001 0.000001 -0.768227 -0.633575 0.674348
 31   6.645414 -0.843860 -1.119305 -0.129070 0.185661 -0.534296
 32   3.530614 0.000002 -0.000001 0.000000 0.000000 -0.244196
 33   3.530616 0.000000 0.000001 0.000000 0.000000 1.177447
 34   6.690088 -0.762450 1.047433 0.090172 -0.235189 -0.439392
 35   3.608304 0.000000 0.000000 0.000000 0.000000 -0.244196
 36   3.608303 -0.000001 0.000000 0.000000 0.000000 0.941979
 37   -3.737758 7.265235 -2.803531 -0.955648 1.479214 1.455668
 38   8.356072 -0.000002 0.000000 1.044055 0.037620 -0.900356
 39   22.314194 -0.000001 0.000002 0.000000 0.000000 -1.854727
 40   13.466397 0.000001 0.000000 0.575383 0.688535 -0.054075
 41   6.635591 -0.843576 1.110600 0.073127 -0.168102 -0.407386
 42   3.530613 0.000000 0.000001 0.000000 0.000000 -0.052300
 43   3.530613 0.000000 -0.000001 0.000000 0.000000 0.950626
 44   6.681006 -0.762752 -1.054662 -0.057724 0.173939 -0.327641
 45   3.608304 0.000000 0.000001 0.000000 0.000000 -0.052308
 46   3.608303 -0.000002 0.000001 0.000000 0.000000 0.610660
 47   3.408091 -0.002195 0.000000 -0.000028 -0.034890 -0.240360
 48   2.848662 -0.000001 0.000000 -0.074342 -0.060086 -1.043343
 49   4.138183 10.107881 0.022334 0.223324 0.002157 -2.012214
 50   0.760360 -7.386538 0.000000 -0.271878 -0.001007 -1.524743
 51   -3.788034 -5.143673 0.218757 0.000802 -0.003655 0.761831
 52   -2.755801 -1.531931 0.179693 -0.001582 0.000216 -0.204560
 53   -1.929871 -0.509941 0.070315 0.003464 0.000791 0.747171
 54   -0.266954 -0.320708 -1.721851 -0.074846 -1.572065 -0.090031
 55   -0.741482 -2.120234 1.623500 0.009024 0.000060 -0.000016
 56   -0.420251 -0.396879 1.506170 -0.007652 -1.572537 -0.227082
 57   1.311897 -2.127296 1.739658 0.017974 0.000085 -0.000042
 58   0.643218 -1.183248 -0.051465 -1.268585 -1.572704 1.522327
 59   0.049630 -2.925689 -0.861936 -0.194959 0.000276 0.001467
time 18
  0   -2.397541 -1.762888 22.781116 -0.235396 0.401210 -1.570836
  1   -1.468314 -0.304697 0.000000 -0.000113 -1.562110 -1.570657
  2   -0.000009 0.000010 6.353377 -0.233016 -0.227506 -1.940055
  3   18.507666 -0.000001 0.000000 0.000000 0.000000 -1.876398
  4   13.411350 -0.000001 0.000000 2.748481 0.010937 0.334070
  5   8.701365 6.675649 0.000000 0.000000 0.000000 1.614392
  6   2.657023 0.000000 0.000000 0.000000 0.000000 -0.043611
  7   2.657024 0.000000 -0.000001 0.000000 0.000000 -0.043611
  8   6.248515 -0.893520 -3.345191 3.141592 0.078501 -1.570796
  9   5.692028 -3.146075 2.191403 0.000000 0.000000 0.000000
 10   6.262098 -1.288316 1.407515 -1.570796 1.492295 1.570796
 11   -0.950702 5.642267 -3.162059 0.000000 0.000000 0.000000
 12   0.000009 -0.000007 -6.353377 -0.090267 -0.139000 -3.535991
 13   18.507666 0.000000 0.000001 0.000000 0.000000 -1.829166
 14   13.411351 0.000000 0.000000 -5.902749 -3.083424 -1.358386
 15   8.701365 6.675650 0.000000 0.000000 0.000000 1.527185
 16   2.639102 0.000000 0.000001 0.000000 0.000000 -0.043611
 17   2.639103 0.000000 -0.000001 0.000000 0.000000 -0.043611
 18   6.262098 -1.271893 -1.655766 1.570795 1.492298 -1.570797
 19   0.660782 5.698953 -3.162059 0.000000 0.000000 0.000000
 20   6.280027 -0.875930 3.588309 1.570795 1.492298 -1.570797
 21   -1.268985 5.650652 -3.144119 0.000000 0.000000 0.000000
 22   3.416504 -0.970598 0.027351 0.138704 -0.052551 0.807772
 23   6.150888 -0.004769 0.000000 0.000060 0.078474 0.357605
 24   6.181765 -0.006274 0.000000 0.017066 0.031243 0.209868
 25   8.035381 -0.006658 0.000000 -0.049320 0.034864 0.338877
 26   9.041865 -0.002307 0.000000 -0.022676 -0.038540 0.716057
 27   -3.761053 7.209857 3.830040 0.052717 -1.414505 2.373175
 28   8.356072 -0.000002 0.000001 -0.958679 -0.658334 -0.840832
 29   22.314192 -0.000001 -0.000002 0.000000 0.000000 -1.898727
 30   13.466396 0.000001 0.000001 -0.790273 -0.608956 0.727489
 31   6.645414 -0.843860 -1.119305 -0.129070 0.185661 -0.534296
 32   3.530614 0.000002 -0.000001 0.000000 0.000000 -0.244196
 33   3.530616 0.000000 0.000001 0.000000 0.000000 1.177447
 34   6.690088 -0.762450 1.047433 0.090172 -0.235189 -0.439392
 35   3.608304 0.000000 0.000000 0.000000 0.000000 -0.244196
 36   3.608303 -0.000001 0.000000 0.000000 0.000000 0.941979
 37   -3.815885 7.230078 -2.795718 -0.986231 1.476015 1.437548
 38   8.356072 -0.000002 0.000000 1.060179 0.051386 -0.882597
 39   22.314194 -0.000001 0.000002 0.000000 0.000000 -1.899814
 40   13.466397 0.000001 0.000000 0.608737 0.681182 0.015121
 41   6.635591 -0.843576 1.110600 0.073127 -0.168102 -0.407386
 42   3.530613 0.000000 0.000001 0.000000 0.000000 -0.052300
 43   3.530613 0.000000 -0.000001 0.000000 0.000000 0.950626
 44   6.681006 -0.762752 -1.054662 -0.057724 0.173939 -0.327641
 45   3.608304 0.000000 0.000001 0.000000 0.000000 -0.052308
 46   3.608303 -0.000002 0.000001 0.000000 0.000000 0.610660
 47   3.408091 -0.002195 0.000000 -0.000028 -0.034890 -0.240360
 48   2.848662 -0.000001 0.000000 -0.070183 -0.057998 -1.031559
 49   4.138183 10.107881 0.022334 0.198061 0.001504 -2.051815
 50   0.760360 -7.386538 0.000000 -0.263011 0.012883 -1.419651
 51   -3.565371 -4.952261 0.261727 0.002439 -0.002756 0.943345
 52   -2.501887 -1.699905 0.199225 -0.000779 -0.000899 -0.173258
 53   -1.754084 -0.474784 0.093753 0.001007 0.003667 0.755981
 54   -0.286486 -0.410555 -1.725757 -0.138540 -1.569828 0.000000
 55   -0.764920 -2.518684 1.728972 0.009127 0.000048 0.000016
 56   -0.467128 -0.428130 1.498357 -0.956285 -1.572207 0.757109
 57   1.288459 -2.486682 1.817785 0.018143 0.000085 0.000042
 58   0.709626 -1.284814 -0.070997 0.873880 -1.569536 -0.692969
 59   0.014473 -3.093663 -0.893187 -0.153814 -0.000707 0.000769
end
