version 1
nodes
  0 "Bip01" -1
  1 "Bip01 Pelvis" 0
  2 "Bip01 L Thigh" 1
  3 "Bip01 L Calf" 2
  4 "Bip01 L Foot" 3
  5 "Bip01 L Toe0" 4
  6 "Bip01 L Toe01" 5
  7 "Bip01 L Toe02" 6
  8 "Bone10" 4
  9 "Bone11" 8
 10 "Bone13" 4
 11 "Bone14" 10
 12 "Bip01 R Thigh" 1
 13 "Bip01 R Calf" 12
 14 "Bip01 R Foot" 13
 15 "Bip01 R Toe0" 14
 16 "Bip01 R Toe01" 15
 17 "Bip01 R Toe02" 16
 18 "Bone16" 14
 19 "Bone17" 18
 20 "Bone19" 14
 21 "Bone20" 20
 22 "Bip01 Spine" 1
 23 "Bip01 Spine1" 22
 24 "Bip01 Spine2" 23
 25 "Bip01 Spine3" 24
 26 "Bip01 Neck" 25
 27 "Bip01 L Clavicle" 26
 28 "Bip01 L UpperArm" 27
 29 "Bip01 L Forearm" 28
 30 "Bip01 L Hand" 29
 31 "Bip01 L Finger0" 30
 32 "Bip01 L Finger01" 31
 33 "Bip01 L Finger02" 32
 34 "Bip01 L Finger1" 30
 35 "Bip01 L Finger11" 34
 36 "Bip01 L Finger12" 35
 37 "Bip01 R Clavicle" 26
 38 "Bip01 R UpperArm" 37
 39 "Bip01 R Forearm" 38
 40 "Bip01 R Hand" 39
 41 "Bip01 R Finger0" 40
 42 "Bip01 R Finger01" 41
 43 "Bip01 R Finger02" 42
 44 "Bip01 R Finger1" 40
 45 "Bip01 R Finger11" 44
 46 "Bip01 R Finger12" 45
 47 "Bip01 Neck1" 26
 48 "Bip01 Head" 47
 49 "Bone05" 24
 50 "Bone06" 49
 51 "Bone07" 50
 52 "Bone08" 51
 53 "Bone09" 52
 54 "Bone22" 53
 55 "Bone23" 54
 56 "Bone26" 53
 57 "Bone27" 56
 58 "Bone30" 52
 59 "Bone31" 58
end
skeleton
time 0
  0   -0.014656 -0.040179 35.359627 0.000000 -0.244215 -1.570836
  1   -0.851108 -2.070376 0.000000 -0.000113 -1.562110 -1.570801
  2   -0.000009 0.000010 6.353377 -0.040809 -0.034244 -2.090045
  3   18.507666 -0.000001 0.000000 0.000000 0.000000 -0.798000
  4   13.411350 -0.000001 0.000000 2.895811 0.048995 0.011006
  5   8.701365 6.675649 0.000000 0.000000 0.000000 1.614392
  6   2.657023 0.000000 0.000000 0.000000 0.000000 -0.043611
  7   2.657024 0.000000 -0.000001 0.000000 0.000000 -0.043611
  8   6.248515 -0.893520 -3.345191 3.141592 0.078501 -1.570796
  9   5.692028 -3.146075 2.191403 0.000000 0.000000 0.000000
 10   6.262098 -1.288316 1.407515 -1.570796 1.492295 1.570796
 11   -0.950702 5.642267 -3.162059 0.000000 0.000000 0.000000
 12   0.000009 -0.000007 -6.353377 -0.001591 -0.018713 -3.083892
 13   18.507666 0.000000 0.000001 0.000000 0.000000 -0.773423
 14   13.411351 0.000000 0.000000 -2.934719 0.031909 0.934848
 15   8.701365 6.675650 0.000000 0.000000 0.000000 1.527185
 16   2.639102 0.000000 0.000001 0.000000 0.000000 -0.043611
 17   2.639103 0.000000 -0.000001 0.000000 0.000000 -0.043611
 18   6.262098 -1.271893 -1.655766 1.570795 1.492298 -1.570797
 19   0.660782 5.698953 -3.162059 0.000000 0.000000 0.000000
 20   6.280027 -0.875930 3.588309 1.570795 1.492298 -1.570797
 21   -1.268985 5.650652 -3.144119 0.000000 0.000000 0.000000
 22   3.416504 -0.970598 0.027351 0.148099 -0.148703 0.740697
 23   6.150888 -0.004769 0.000000 0.000000 -0.000001 0.305253
 24   6.181765 -0.006274 0.000000 0.016479 -0.005682 0.331371
 25   8.035381 -0.006658 0.000000 -0.045757 0.025346 0.505288
 26   9.041865 -0.002307 0.000000 0.000000 -0.000002 0.527199
 27   -5.186878 6.444208 3.525343 -0.000012 -1.370798 2.613621
 28   8.356072 -0.000002 0.000001 -1.093476 0.501506 -0.963126
 29   22.314192 -0.000001 -0.000002 0.000000 0.000000 -2.190862
 30   13.466396 0.000001 0.000001 -0.601406 -0.123833 -0.277251
 31   6.645414 -0.843860 -1.119305 -0.045895 0.131865 -0.334542
 32   3.530614 0.000002 -0.000001 0.000000 0.000000 -0.357609
 33   3.530616 0.000000 0.000001 0.000000 0.000000 0.828529
 34   6.690088 -0.762450 1.047433 0.062277 -0.172367 -0.354159
 35   3.608304 0.000000 0.000000 0.000000 0.000000 -0.357609
 36   3.608303 -0.000001 0.000000 0.000000 0.000000 0.828529
 37   -4.972171 6.347238 -3.100415 -0.000012 1.309458 2.613434
 38   8.356072 -0.000002 0.000000 1.098949 0.396456 -1.163079
 39   22.314194 -0.000001 0.000002 0.000000 0.000000 -1.313134
 40   13.466397 0.000001 0.000000 1.012241 -0.226560 0.603991
 41   6.635591 -0.843576 1.110600 0.070153 -0.169349 -0.389751
 42   3.530613 0.000000 0.000001 0.000000 0.000000 0.113322
 43   3.530613 0.000000 -0.000001 0.000000 0.000000 0.366368
 44   6.681006 -0.762752 -1.054662 0.013909 0.182656 0.071133
 45   3.608304 0.000000 0.000001 0.000000 0.000000 0.113367
 46   3.608303 -0.000002 0.000001 0.000000 0.000000 0.776182
 47   3.408091 -0.002195 0.000000 -0.000028 -0.034890 0.213179
 48   2.848662 -0.000001 0.000000 0.053233 0.219141 -0.848146
 49   4.138183 10.107881 0.022334 -0.000003 0.000000 -2.666026
 50   0.760360 -7.386538 0.000000 0.000000 0.000000 0.000000
 51   -2.213767 -5.858539 0.000000 0.000000 0.000000 0.000000
 52   -2.501887 -2.289767 0.000000 0.000000 0.000000 0.000000
 53   -1.605642 -0.869327 0.000000 0.000000 0.000000 0.000000
 54   -0.372426 -0.410555 -1.764821 0.000000 -1.570451 0.000000
 55   -0.928988 -2.561654 1.783661 0.000000 0.000000 0.000000
 56   -0.365562 -0.396879 1.486638 0.000000 -1.570451 0.000000
 57   1.132204 -2.560903 1.806066 0.000000 0.000000 0.000000
 58   0.494776 -1.366848 -0.110061 0.000000 -1.570451 0.000000
 59   -0.087093 -3.285075 -0.490831 0.000000 0.000000 0.000000
time 1
  0   -2.905369 -0.715981 33.754108 0.084697 -0.249297 -1.554133
  1   -0.745636 -1.085971 0.000000 -0.000113 -1.562110 -1.570657
  2   -0.000009 0.000010 6.353377 -0.046224 -0.047199 -2.019709
  3   18.507666 -0.000001 0.000000 0.000000 0.000000 -0.887255
  4   13.411350 -0.000001 0.000000 2.925603 0.142897 0.035245
  5   8.701365 6.675649 0.000000 0.000000 0.000000 1.614392
  6   2.657023 0.000000 0.000000 0.000000 0.000000 -0.043611
  7   2.657024 0.000000 -0.000001 0.000000 0.000000 -0.043611
  8   6.248515 -0.893520 -3.345191 3.141592 0.078501 -1.570796
  9   5.692028 -3.146075 2.191403 0.000000 0.000000 0.000000
 10   6.262098 -1.288316 1.407515 -1.570796 1.492295 1.570796
 11   -0.950702 5.642267 -3.162059 0.000000 0.000000 0.000000
 12   0.000009 -0.000007 -6.353377 0.042747 0.080123 -2.988312
 13   18.507666 0.000000 0.000001 0.000000 0.000000 -1.095248
 14   13.411351 0.000000 0.000000 -2.989006 0.048197 1.160818
 15   8.701365 6.675650 0.000000 0.000000 0.000000 1.527185
 16   2.639102 0.000000 0.000001 0.000000 0.000000 -0.043611
 17   2.639103 0.000000 -0.000001 0.000000 0.000000 -0.043611
 18   6.262098 -1.271893 -1.655766 1.570795 1.492298 -1.570797
 19   0.660782 5.698953 -3.162059 0.000000 0.000000 0.000000
 20   6.280027 -0.875930 3.588309 1.570795 1.492298 -1.570797
 21   -1.268985 5.650652 -3.144119 0.000000 0.000000 0.000000
 22   3.416504 -0.970598 0.027351 0.084212 -0.132436 0.711652
 23   6.150888 -0.004769 0.000000 -0.102864 0.027839 0.273355
 24   6.181765 -0.006274 0.000000 -0.055537 0.022099 0.293774
 25   8.035381 -0.006658 0.000000 -0.047277 0.025585 0.532559
 26   9.041865 -0.002307 0.000000 -0.078795 -0.167424 0.440432
 27   -5.057968 5.600432 4.880853 -0.016502 -1.555628 2.723433
 28   8.356072 -0.000002 0.000001 -1.312385 0.191613 -0.776261
 29   22.314192 -0.000001 -0.000002 0.000000 0.000000 -1.893696
 30   13.466396 0.000001 0.000001 -0.616000 -0.387251 -0.088070
 31   6.645414 -0.843860 -1.119305 0.010895 0.139179 0.080192
 32   3.530614 0.000002 -0.000001 0.000000 0.000000 0.053411
 33   3.530616 0.000000 0.000001 0.000000 0.000000 1.239601
 34   6.690088 -0.762450 1.047433 -0.012448 -0.182760 0.063364
 35   3.608304 0.000000 0.000000 0.000000 0.000000 0.053411
 36   3.608303 -0.000001 0.000000 0.000000 0.000000 1.239601
 37   -5.944857 6.050354 -1.674590 -0.000300 1.081626 2.706431
 38   8.356072 -0.000002 0.000000 0.900389 0.201276 -1.113117
 39   22.314194 -0.000001 0.000002 0.000000 0.000000 -1.388098
 40   13.466397 0.000001 0.000000 1.029750 0.008607 0.480600
 41   6.635591 -0.843576 1.110600 0.007530 -0.183039 -0.035979
 42   3.530613 0.000000 0.000001 0.000000 0.000000 0.461849
 43   3.530613 0.000000 -0.000001 0.000000 0.000000 0.714752
 44   6.681006 -0.762752 -1.054662 0.076000 0.166823 0.424690
 45   3.608304 0.000000 0.000001 0.000000 0.000000 0.461872
 46   3.608303 -0.000002 0.000001 0.000000 0.000000 1.124763
 47   3.408091 -0.002195 0.000000 -0.001179 0.108602 0.238486
 48   2.848662 -0.000001 0.000000 0.317394 0.537502 -0.559859
 49   4.138183 10.107881 0.022334 -0.000003 0.000000 -2.710796
 50   0.760360 -7.386538 0.000000 0.000000 0.000000 -0.087194
 51   -2.026261 -5.702284 0.000000 0.000000 0.000000 -0.062772
 52   -2.415947 -2.082729 0.000000 0.000000 0.000000 0.000000
 53   -1.586110 -0.740417 0.000000 0.000000 0.000000 0.000000
 54   -0.352894 -0.383210 -1.764821 -0.042126 -1.570791 0.000000
 55   -0.928988 -2.350710 1.646938 0.000000 0.000000 0.000000
 56   -0.346030 -0.369534 1.486638 -0.062051 -1.570795 0.000000
 57   1.132204 -2.322614 1.665437 0.000000 0.000000 0.000000
 58   0.580716 -1.370754 -0.110061 0.072413 -1.570779 0.000000
 59   -0.087093 -3.265543 -0.596303 0.000000 0.000000 0.000000
time 2
  0   -4.424947 -0.071430 32.820488 0.117698 -0.252044 -1.517557
  1   -0.554224 -0.335948 0.000000 -0.000113 -1.562110 -1.570657
  2   -0.000009 0.000010 6.353377 -0.058780 -0.067433 -1.994876
  3   18.507666 -0.000001 0.000000 0.000000 0.000000 -1.000885
  4   13.411350 -0.000001 0.000000 2.962196 0.196350 0.126381
  5   8.701365 6.675649 0.000000 0.000000 0.000000 1.614392
  6   2.657023 0.000000 0.000000 0.000000 0.000000 -0.043611
  7   2.657024 0.000000 -0.000001 0.000000 0.000000 -0.043611
  8   6.248515 -0.893520 -3.345191 3.141592 0.078501 -1.570796
  9   5.692028 -3.146075 2.191403 0.000000 0.000000 0.000000
 10   6.262098 -1.288316 1.407515 -1.570796 1.492295 1.570796
 11   -0.950702 5.642267 -3.162059 0.000000 0.000000 0.000000
 12   0.000009 -0.000007 -6.353377 0.035434 0.061939 -2.949527
 13   18.507666 0.000000 0.000001 0.000000 0.000000 -1.214441
 14   13.411351 0.000000 0.000000 -2.942338 0.105876 1.240195
 15   8.701365 6.675650 0.000000 0.000000 0.000000 1.527185
 16   2.639102 0.000000 0.000001 0.000000 0.000000 -0.043611
 17   2.639103 0.000000 -0.000001 0.000000 0.000000 -0.043611
 18   6.262098 -1.271893 -1.655766 1.570795 1.492298 -1.570797
 19   0.660782 5.698953 -3.162059 0.000000 0.000000 0.000000
 20   6.280027 -0.875930 3.588309 1.570795 1.492298 -1.570797
 21   -1.268985 5.650652 -3.144119 0.000000 0.000000 0.000000
 22   3.416504 -0.970598 0.027351 0.028392 -0.109694 0.690235
 23   6.150888 -0.004769 0.000000 -0.177420 0.045708 0.248902
 24   6.181765 -0.006274 0.000000 -0.100838 0.027959 0.268958
 25   8.035381 -0.006658 0.000000 -0.045757 0.025346 0.505288
 26   9.041865 -0.002307 0.000000 -0.122493 -0.291008 0.396531
 27   -4.722020 5.041821 5.744161 -3.119540 -1.455646 -0.401132
 28   8.356072 -0.000002 0.000001 -1.429294 0.059586 -0.532454
 29   22.314192 -0.000001 -0.000002 0.000000 0.000000 -1.696557
 30   13.466396 0.000001 0.000001 -0.711404 -0.535134 0.052943
 31   6.645414 -0.843860 -1.119305 0.044294 0.132395 0.325513
 32   3.530614 0.000002 -0.000001 0.000000 0.000000 0.296539
 33   3.530616 0.000000 0.000001 0.000000 0.000000 1.482746
 34   6.690088 -0.762450 1.047433 -0.056548 -0.174346 0.310313
 35   3.608304 0.000000 0.000000 0.000000 0.000000 0.296539
 36   3.608303 -0.000001 0.000000 0.000000 0.000000 1.482746
 37   -6.401902 5.769095 -0.627683 -0.004039 0.902221 2.758682
 38   8.356072 -0.000002 0.000000 0.705634 0.116474 -1.039619
 39   22.314194 -0.000001 0.000002 0.000000 0.000000 -1.438089
 40   13.466397 0.000001 0.000000 1.020272 0.161086 0.366909
 41   6.635591 -0.843576 1.110600 -0.027954 -0.181072 0.159431
 42   3.530613 0.000000 0.000001 0.000000 0.000000 0.654122
 43   3.530613 0.000000 -0.000001 0.000000 0.000000 0.907110
 44   6.681006 -0.762752 -1.054662 0.106609 0.149236 0.618619
 45   3.608304 0.000000 0.000001 0.000000 0.000000 0.654098
 46   3.608303 -0.000002 0.000001 0.000000 0.000000 1.317008
 47   3.408091 -0.002195 0.000000 0.000140 0.183158 0.256778
 48   2.848662 -0.000001 0.000000 0.502115 0.645333 -0.274589
 49   4.138183 10.107881 0.022334 -0.000003 0.000000 -2.761529
 50   0.760360 -7.386538 0.000000 0.000000 0.000000 -0.184902
 51   -1.866100 -5.522591 0.000000 0.000000 0.000000 -0.131061
 52   -2.404228 -1.860066 0.000000 0.000000 0.000000 0.000000
 53   -1.597829 -0.615413 0.000000 0.000000 0.000000 0.000000
 54   -0.348988 -0.351959 -1.764821 -0.087276 -1.570791 0.000000
 55   -0.928988 -2.120234 1.627406 0.000000 0.000000 0.000000
 56   -0.342124 -0.338283 1.486638 -0.128345 -1.570795 0.000000
 57   1.132204 -2.064794 1.665437 0.000000 0.000000 0.000000
 58   0.662750 -1.359035 -0.110061 0.151387 -1.570779 0.000000
 59   -0.087093 -3.246011 -0.701775 0.000000 0.000000 0.000000
time 3
  0   -2.999122 3.889629 33.746296 0.034909 -0.242338 -1.425460
  1   -0.522973 0.144536 0.000000 -0.000113 -1.562110 -1.570801
  2   -0.000009 0.000010 6.353377 -0.073346 -0.077891 -2.082950
  3   18.507666 -0.000001 0.000000 0.000000 0.000000 -1.199523
  4   13.411350 -0.000001 0.000000 3.041225 0.133813 0.403398
  5   8.701365 6.675649 0.000000 0.000000 0.000000 1.614392
  6   2.657023 0.000000 0.000000 0.000000 0.000000 -0.043611
  7   2.657024 0.000000 -0.000001 0.000000 0.000000 -0.043611
  8   6.248515 -0.893520 -3.345191 3.141592 0.078501 -1.570796
  9   5.692028 -3.146075 2.191403 0.000000 0.000000 0.000000
 10   6.262098 -1.288316 1.407515 -1.570796 1.492295 1.570796
 11   -0.950702 5.642267 -3.162059 0.000000 0.000000 0.000000
 12   0.000009 -0.000007 -6.353377 0.076543 0.056177 -3.252195
 13   18.507666 0.000000 0.000001 0.000000 0.000000 -0.679970
 14   13.411351 0.000000 0.000000 -2.899005 0.031429 1.000885
 15   8.701365 6.675650 0.000000 0.000000 0.000000 1.527185
 16   2.639102 0.000000 0.000001 0.000000 0.000000 -0.043611
 17   2.639103 0.000000 -0.000001 0.000000 0.000000 -0.043611
 18   6.262098 -1.271893 -1.655766 1.570795 1.492298 -1.570797
 19   0.660782 5.698953 -3.162059 0.000000 0.000000 0.000000
 20   6.280027 -0.875930 3.588309 1.570795 1.492298 -1.570797
 21   -1.268985 5.650652 -3.144119 0.000000 0.000000 0.000000
 22   3.416504 -0.970598 0.027351 -0.015923 -0.062072 0.684616
 23   6.150888 -0.004769 0.000000 -0.197374 0.050155 0.242166
 24   6.181765 -0.006274 0.000000 -0.089393 -0.011806 0.272779
 25   8.035381 -0.006658 0.000000 -0.035919 0.025397 0.341462
 26   9.041865 -0.002307 0.000000 -0.104597 -0.313261 0.420566
 27   -4.475919 5.280110 5.736348 2.910902 -1.438859 -0.170954
 28   8.356072 -0.000002 0.000001 -1.351505 0.190640 -0.358590
 29   22.314192 -0.000001 -0.000002 0.000000 0.000000 -1.707738
 30   13.466396 0.000001 0.000001 -0.893983 -0.456749 0.041473
 31   6.645414 -0.843860 -1.119305 0.030403 0.136235 0.222068
 32   3.530614 0.000002 -0.000001 0.000000 0.000000 0.193978
 33   3.530616 0.000000 0.000001 0.000000 0.000000 1.380153
 34   6.690088 -0.762450 1.047433 -0.038243 -0.179207 0.206147
 35   3.608304 0.000000 0.000000 0.000000 0.000000 0.193978
 36   3.608303 -0.000001 0.000000 0.000000 0.000000 1.380153
 37   -6.296430 5.882380 -0.608151 0.044951 0.839151 2.775268
 38   8.356072 -0.000002 0.000000 0.538869 0.097186 -1.075816
 39   22.314194 -0.000001 0.000002 0.000000 0.000000 -1.445808
 40   13.466397 0.000001 0.000000 1.003342 0.146154 0.256489
 41   6.635591 -0.843576 1.110600 -0.001016 -0.183156 0.010798
 42   3.530613 0.000000 0.000001 0.000000 0.000000 0.507882
 43   3.530613 0.000000 -0.000001 0.000000 0.000000 0.760785
 44   6.681006 -0.762752 -1.054662 0.083631 0.163145 0.471196
 45   3.608304 0.000000 0.000001 0.000000 0.000000 0.507882
 46   3.608303 -0.000002 0.000001 0.000000 0.000000 1.170802
 47   3.408091 -0.002195 0.000000 0.000356 0.106924 0.260908
 48   2.848662 -0.000001 0.000000 0.392924 0.489239 -0.286661
 49   4.138183 10.107881 0.022334 -0.000003 0.000000 -2.815285
 50   0.760360 -7.386538 0.000000 0.000000 0.000000 -0.287060
 51   -1.752815 -5.335085 0.000000 0.000000 0.000000 -0.200946
 52   -2.478449 -1.656935 0.000000 0.000000 0.000000 0.000000
 53   -1.660331 -0.509941 0.000000 0.000000 0.000000 0.000000
 54   -0.360707 -0.320708 -1.764821 -0.134307 -1.570791 0.000000
 55   -0.928988 -1.917103 1.744597 0.000000 0.000000 0.000000
 56   -0.353843 -0.307032 1.486638 -0.198347 -1.570795 0.000000
 57   1.132204 -1.873382 1.825598 0.000000 0.000000 0.000000
 58   0.705720 -1.327784 -0.110061 0.232247 -1.570779 0.000000
 59   -0.087093 -3.203041 -0.795528 0.000000 0.000000 0.000000
time 4
  0   -0.534203 9.198384 35.406502 -0.087797 -0.215966 -1.312639
  1   -0.483909 0.621113 0.000000 -0.000113 -1.562110 -1.570801
  2   -0.000009 0.000010 6.353377 -0.030161 -0.089331 -2.291404
  3   18.507666 -0.000001 0.000000 0.000000 0.000000 -1.267185
  4   13.411350 -0.000001 0.000000 3.101862 -0.003693 0.652345
  5   8.701365 6.675649 0.000000 0.000000 0.000000 1.614392
  6   2.657023 0.000000 0.000000 0.000000 0.000000 -0.043611
  7   2.657024 0.000000 -0.000001 0.000000 0.000000 -0.043611
  8   6.248515 -0.893520 -3.345191 3.141592 0.078501 -1.570796
  9   5.692028 -3.146075 2.191403 0.000000 0.000000 0.000000
 10   6.262098 -1.288316 1.407515 -1.570796 1.492295 1.570796
 11   -0.950702 5.642267 -3.162059 0.000000 0.000000 0.000000
 12   0.000009 -0.000007 -6.353377 0.122242 0.083779 -3.580664
 13   18.507666 0.000000 0.000001 0.000000 0.000000 -0.001983
 14   13.411351 0.000000 0.000000 -2.843480 -0.078180 0.643799
 15   8.701365 6.675650 0.000000 0.000000 0.000000 1.527185
 16   2.639102 0.000000 0.000001 0.000000 0.000000 -0.043611
 17   2.639103 0.000000 -0.000001 0.000000 0.000000 -0.043611
 18   6.262098 -1.271893 -1.655766 1.570795 1.492298 -1.570797
 19   0.660782 5.698953 -3.162059 0.000000 0.000000 0.000000
 20   6.280027 -0.875930 3.588309 1.570795 1.492298 -1.570797
 21   -1.268985 5.650652 -3.144119 0.000000 0.000000 0.000000
 22   3.416504 -0.970598 0.027351 -0.058957 -0.003146 0.682200
 23   6.150888 -0.004769 0.000000 -0.200622 0.050898 0.241051
 24   6.181765 -0.006274 0.000000 -0.059312 -0.068948 0.284770
 25   8.035381 -0.006658 0.000000 -0.021732 0.028979 0.122917
 26   9.041865 -0.002307 0.000000 -0.066903 -0.306686 0.467457
 27   -4.245443 5.768406 5.431651 2.508917 -1.441338 0.182632
 28   8.356072 -0.000002 0.000001 -1.160242 0.372664 -0.149018
 29   22.314192 -0.000001 -0.000002 0.000000 0.000000 -1.790994
 30   13.466396 0.000001 0.000001 -1.106759 -0.316152 -0.051774
 31   6.645414 -0.843860 -1.119305 -0.000340 0.139545 -0.001091
 32   3.530614 0.000002 -0.000001 0.000000 0.000000 -0.027059
 33   3.530616 0.000000 0.000001 0.000000 0.000000 1.159069
 34   6.690088 -0.762450 1.047433 0.002322 -0.183167 -0.018499
 35   3.608304 0.000000 0.000000 0.000000 0.000000 -0.027059
 36   3.608303 -0.000001 0.000000 0.000000 0.000000 1.159069
 37   -6.030797 6.112856 -0.936286 0.111581 0.817460 2.776897
 38   8.356072 -0.000002 0.000000 0.387594 0.055040 -1.156536
 39   22.314194 -0.000001 0.000002 0.000000 0.000000 -1.442130
 40   13.466397 0.000001 0.000000 0.993936 0.074752 0.145223
 41   6.635591 -0.843576 1.110600 0.047994 -0.176846 -0.261283
 42   3.530613 0.000000 0.000001 0.000000 0.000000 0.240180
 43   3.530613 0.000000 -0.000001 0.000000 0.000000 0.493253
 44   6.681006 -0.762752 -1.054662 0.037127 0.179404 0.200000
 45   3.608304 0.000000 0.000001 0.000000 0.000000 0.240184
 46   3.608303 -0.000002 0.000001 0.000000 0.000000 0.903035
 47   3.408091 -0.002195 0.000000 -0.000004 -0.024308 0.260458
 48   2.848662 -0.000001 0.000000 0.260164 0.232713 -0.295428
 49   4.138183 10.107881 0.022334 -0.000003 0.000000 -2.869040
 50   0.760360 -7.386538 0.000000 0.000000 0.000000 -0.387996
 51   -1.717658 -5.135860 0.000000 0.000000 0.000000 -0.270831
 52   -2.626891 -1.531931 0.000000 0.000000 0.000000 0.000000
 53   -1.746271 -0.447439 0.000000 0.000000 0.000000 0.000000
 54   -0.384145 -0.297270 -1.764821 -0.184765 -1.570791 0.000000
 55   -0.928988 -1.842882 1.967260 0.000000 0.000000 0.000000
 56   -0.373375 -0.283594 1.486638 -0.274625 -1.570795 0.000000
 57   1.132204 -1.842131 2.102950 0.000000 0.000000 0.000000
 58   0.709626 -1.284814 -0.110061 0.312943 -1.570779 0.000000
 59   -0.087093 -3.160071 -0.861936 0.000000 0.000000 0.000000
time 5
  0   1.903372 13.846964 37.105774 -0.198961 -0.180940 -1.221547
  1   -0.421407 0.960967 0.000000 -0.000113 -1.562110 -1.570657
  2   -0.000009 0.000010 6.353377 0.050924 -0.096310 -2.526914
  3   18.507666 -0.000001 0.000000 0.000000 0.000000 -1.158460
  4   13.411350 -0.000001 0.000000 3.114411 -0.136991 0.755490
  5   8.701365 6.675649 0.000000 0.000000 0.000000 1.614392
  6   2.657023 0.000000 0.000000 0.000000 0.000000 -0.043611
  7   2.657024 0.000000 -0.000001 0.000000 0.000000 -0.043611
  8   6.248515 -0.893520 -3.345191 3.141592 0.078501 -1.570796
  9   5.692028 -3.146075 2.191403 0.000000 0.000000 0.000000
 10   6.262098 -1.288316 1.407515 -1.570796 1.492295 1.570796
 11   -0.950702 5.642267 -3.162059 0.000000 0.000000 0.000000
 12   0.000009 -0.000007 -6.353377 0.214701 0.092399 -3.220913
 13   18.507666 0.000000 0.000001 0.000000 0.000000 -0.774687
 14   13.411351 0.000000 0.000000 -2.978625 -0.193825 0.891880
 15   8.701365 6.675650 0.000000 0.000000 0.000000 1.527185
 16   2.639102 0.000000 0.000001 0.000000 0.000000 -0.043611
 17   2.639103 0.000000 -0.000001 0.000000 0.000000 -0.043611
 18   6.262098 -1.271893 -1.655766 1.570795 1.492298 -1.570797
 19   0.660782 5.698953 -3.162059 0.000000 0.000000 0.000000
 20   6.280027 -0.875930 3.588309 1.570795 1.492298 -1.570797
 21   -1.268985 5.650652 -3.144119 0.000000 0.000000 0.000000
 22   3.416504 -0.970598 0.027351 -0.088635 0.046226 0.682390
 23   6.150888 -0.004769 0.000000 -0.192269 0.049052 0.243890
 24   6.181765 -0.006274 0.000000 -0.026306 -0.121189 0.297361
 25   8.035381 -0.006658 0.000000 -0.009248 0.035376 -0.068268
 26   9.041865 -0.002307 0.000000 -0.026844 -0.274783 0.518344
 27   -4.097001 6.264515 4.982419 2.013363 -1.447296 0.624068
 28   8.356072 -0.000002 0.000001 -0.937809 0.489648 0.056481
 29   22.314192 -0.000001 -0.000002 0.000000 0.000000 -1.880160
 30   13.466396 0.000001 0.000001 -1.291434 -0.190436 -0.183523
 31   6.645414 -0.843860 -1.119305 -0.033161 0.135595 -0.239217
 32   3.530614 0.000002 -0.000001 0.000000 0.000000 -0.262969
 33   3.530616 0.000000 0.000001 0.000000 0.000000 0.923135
 34   6.690088 -0.762450 1.047433 0.045582 -0.177475 -0.258241
 35   3.608304 0.000000 0.000000 0.000000 0.000000 -0.262969
 36   3.608303 -0.000001 0.000000 0.000000 0.000000 0.923135
 37   -5.683130 6.347238 -1.451927 0.166323 0.834808 2.764050
 38   8.356072 -0.000002 0.000000 0.294655 0.010345 -1.231479
 39   22.314194 -0.000001 0.000002 0.000000 0.000000 -1.423832
 40   13.466397 0.000001 0.000000 0.996396 -0.010775 0.054710
 41   6.635591 -0.843576 1.110600 0.092009 -0.158599 -0.523477
 42   3.530613 0.000000 0.000001 0.000000 0.000000 -0.018930
 43   3.530613 0.000000 -0.000001 0.000000 0.000000 0.233985
 44   6.681006 -0.762752 -1.054662 -0.010555 0.182912 -0.063457
 45   3.608304 0.000000 0.000001 0.000000 0.000000 -0.018936
 46   3.608303 -0.000002 0.000001 0.000000 0.000000 0.643961
 47   3.408091 -0.002195 0.000000 -0.000184 -0.147761 0.258181
 48   2.848662 -0.000001 0.000000 0.166944 -0.028587 -0.253643
 49   4.138183 10.107881 0.022334 -0.000003 0.000000 -2.919814
 50   0.760360 -7.386538 0.000000 0.000000 0.000000 -0.482720
 51   -1.737190 -4.960073 0.000000 0.000000 0.000000 -0.339571
 52   -2.818303 -1.488961 0.000000 0.000000 0.000000 0.000000
 53   -1.847837 -0.447439 0.000000 0.000000 0.000000 0.000000
 54   -0.415396 -0.289457 -1.764821 -0.237775 -1.570791 0.000000
 55   -0.928988 -1.897571 2.221174 0.000000 0.000000 0.000000
 56   -0.408532 -0.275781 1.486638 -0.354729 -1.570795 0.000000
 57   1.132204 -1.982760 2.372490 0.000000 0.000000 0.000000
 58   0.686188 -1.230125 -0.110061 0.391917 -1.570779 0.000000
 59   -0.087093 -3.105382 -0.901000 0.000000 0.000000 0.000000
time 6
  0   3.215912 15.831399 38.000332 -0.252612 -0.161803 -1.187987
  1   -0.429220 1.023469 0.000000 -0.000113 -1.562110 -1.570801
  2   -0.000009 0.000010 6.353377 0.098879 -0.099490 -2.644882
  3   18.507666 -0.000001 0.000000 0.000000 0.000000 -1.046297
  4   13.411350 -0.000001 0.000000 3.101000 -0.193504 0.754753
  5   8.701365 6.675649 0.000000 0.000000 0.000000 1.614392
  6   2.657023 0.000000 0.000000 0.000000 0.000000 -0.043611
  7   2.657024 0.000000 -0.000001 0.000000 0.000000 -0.043611
  8   6.248515 -0.893520 -3.345191 3.141592 0.078501 -1.570796
  9   5.692028 -3.146075 2.191403 0.000000 0.000000 0.000000
 10   6.262098 -1.288316 1.407515 -1.570796 1.492295 1.570796
 11   -0.950702 5.642267 -3.162059 0.000000 0.000000 0.000000
 12   0.000009 -0.000007 -6.353377 0.278232 0.062399 -2.846328
 13   18.507666 0.000000 0.000001 0.000000 0.000000 -1.571766
 14   13.411351 0.000000 0.000000 -3.041292 -0.312824 1.101046
 15   8.701365 6.675650 0.000000 0.000000 0.000000 1.527185
 16   2.639102 0.000000 0.000001 0.000000 0.000000 -0.043611
 17   2.639103 0.000000 -0.000001 0.000000 0.000000 -0.043611
 18   6.262098 -1.271893 -1.655766 1.570795 1.492298 -1.570797
 19   0.660782 5.698953 -3.162059 0.000000 0.000000 0.000000
 20   6.280027 -0.875930 3.588309 1.570795 1.492298 -1.570797
 21   -1.268985 5.650652 -3.144119 0.000000 0.000000 0.000000
 22   3.416504 -0.970598 0.027351 -0.093118 0.065285 0.686299
 23   6.150888 -0.004769 0.000000 -0.177420 0.045708 0.248902
 24   6.181765 -0.006274 0.000000 -0.005225 -0.145794 0.305633
 25   8.035381 -0.006658 0.000000 -0.004048 0.038975 -0.150192
 26   9.041865 -0.002307 0.000000 -0.000149 -0.218059 0.553333
 27   -4.139971 6.569212 4.521467 1.452042 -1.455994 1.146889
 28   8.356072 -0.000002 0.000001 -0.849811 0.516284 0.103197
 29   22.314192 -0.000001 -0.000002 0.000000 0.000000 -1.908830
 30   13.466396 0.000001 0.000001 -1.377678 -0.123833 -0.277251
 31   6.645414 -0.843860 -1.119305 -0.052738 0.129268 -0.387248
 32   3.530614 0.000002 -0.000001 0.000000 0.000000 -0.409907
 33   3.530616 0.000000 0.000001 0.000000 0.000000 0.776263
 34   6.690088 -0.762450 1.047433 0.071272 -0.168867 -0.407156
 35   3.608304 0.000000 0.000000 0.000000 0.000000 -0.409907
 36   3.608303 -0.000001 0.000000 0.000000 0.000000 0.776263
 37   -5.354995 6.472242 -1.991006 0.181183 0.888801 2.739507
 38   8.356072 -0.000002 0.000000 0.281339 0.016717 -1.262152
 39   22.314194 -0.000001 0.000002 0.000000 0.000000 -1.387508
 40   13.466397 0.000001 0.000000 1.002980 -0.067761 0.004801
 41   6.635591 -0.843576 1.110600 0.110487 -0.146408 -0.644868
 42   3.530613 0.000000 0.000001 0.000000 0.000000 -0.139488
 43   3.530613 0.000000 -0.000001 0.000000 0.000000 0.113389
 44   6.681006 -0.762752 -1.054662 -0.032731 0.180290 -0.185973
 45   3.608304 0.000000 0.000001 0.000000 0.000000 -0.139540
 46   3.608303 -0.000002 0.000001 0.000000 0.000000 0.523345
 47   3.408091 -0.002195 0.000000 -0.000160 -0.200613 0.256778
 48   2.848662 -0.000001 0.000000 0.104723 -0.197834 -0.226122
 49   4.138183 10.107881 0.022334 -0.000003 0.000000 -2.964544
 50   0.760360 -7.386538 0.000000 0.000000 0.000000 -0.566198
 51   -1.803598 -4.827257 0.000000 0.000000 0.000000 -0.404147
 52   -2.997996 -1.539744 0.000000 0.000000 0.000000 0.000000
 53   -1.929871 -0.498222 0.000000 0.000000 0.000000 0.000000
 54   -0.446647 -0.289457 -1.764821 -0.287494 -1.570791 0.000000
 55   -0.928988 -2.065545 2.447744 0.000000 0.000000 0.000000
 56   -0.439783 -0.283594 1.486638 -0.428018 -1.570795 0.000000
 57   1.132204 -2.224955 2.618591 0.000000 0.000000 0.000000
 58   0.643218 -1.183248 -0.110061 0.465643 -1.570779 0.000000
 59   -0.087093 -3.066318 -0.912719 0.000000 0.000000 0.000000
time 7
  0   3.383886 15.198567 38.027676 -0.251086 -0.165603 -1.206932
  1   -0.534692 0.824244 0.000000 -0.000113 -1.562110 -1.570801
  2   -0.000009 0.000010 6.353377 0.094341 -0.107814 -2.617968
  3   18.507666 -0.000001 0.000000 0.000000 0.000000 -1.050292
  4   13.411350 -0.000001 0.000000 3.081746 -0.185185 0.735303
  5   8.701365 6.675649 0.000000 0.000000 0.000000 1.614392
  6   2.657023 0.000000 0.000000 0.000000 0.000000 -0.043611
  7   2.657024 0.000000 -0.000001 0.000000 0.000000 -0.043611
  8   6.248515 -0.893520 -3.345191 3.141592 0.078501 -1.570796
  9   5.692028 -3.146075 2.191403 0.000000 0.000000 0.000000
 10   6.262098 -1.288316 1.407515 -1.570796 1.492295 1.570796
 11   -0.950702 5.642267 -3.162059 0.000000 0.000000 0.000000
 12   0.000009 -0.000007 -6.353377 0.253618 0.053126 -2.819721
 13   18.507666 0.000000 0.000001 0.000000 0.000000 -1.609390
 14   13.411351 0.000000 0.000000 -2.971005 -0.249109 0.783906
 15   8.701365 6.675650 0.000000 0.000000 0.000000 1.527185
 16   2.639102 0.000000 0.000001 0.000000 0.000000 -0.043611
 17   2.639103 0.000000 -0.000001 0.000000 0.000000 -0.043611
 18   6.262098 -1.271893 -1.655766 1.570795 1.492298 -1.570797
 19   0.660782 5.698953 -3.162059 0.000000 0.000000 0.000000
 20   6.280027 -0.875930 3.588309 1.570795 1.492298 -1.570797
 21   -1.268985 5.650652 -3.144119 0.000000 0.000000 0.000000
 22   3.416504 -0.970598 0.027351 -0.074282 0.054653 0.693845
 23   6.150888 -0.004769 0.000000 -0.158209 0.041322 0.255262
 24   6.181765 -0.006274 0.000000 0.003128 -0.142450 0.310186
 25   8.035381 -0.006658 0.000000 -0.005711 0.037764 -0.123862
 26   9.041865 -0.002307 0.000000 0.008733 -0.106815 0.565782
 27   -4.534514 6.662965 3.970669 0.515675 -1.439381 2.065415
 28   8.356072 -0.000002 0.000001 -0.943229 0.464959 -0.060266
 29   22.314192 -0.000001 -0.000002 0.000000 0.000000 -1.853566
 30   13.466396 0.000001 0.000001 -1.353691 -0.102210 -0.309496
 31   6.645414 -0.843860 -1.119305 -0.058662 0.126708 -0.433682
 32   3.530614 0.000002 -0.000001 0.000000 0.000000 -0.456028
 33   3.530616 0.000000 0.000001 0.000000 0.000000 0.730123
 34   6.690088 -0.762450 1.047433 0.079042 -0.165402 -0.453735
 35   3.608304 0.000000 0.000000 0.000000 0.000000 -0.456028
 36   3.608303 -0.000001 0.000000 0.000000 0.000000 0.730123
 37   -5.026860 6.503493 -2.639463 0.118867 0.994915 2.677094
 38   8.356072 -0.000002 0.000000 0.335780 0.089708 -1.237342
 39   22.314194 -0.000001 0.000002 0.000000 0.000000 -1.326120
 40   13.466397 0.000001 0.000000 1.006308 -0.089046 -0.012794
 41   6.635591 -0.843576 1.110600 0.104164 -0.150945 -0.602282
 42   3.530613 0.000000 0.000001 0.000000 0.000000 -0.097138
 43   3.530613 0.000000 -0.000001 0.000000 0.000000 0.155756
 44   6.681006 -0.762752 -1.054662 -0.024980 0.181482 -0.142907
 45   3.608304 0.000000 0.000001 0.000000 0.000000 -0.097167
 46   3.608303 -0.000002 0.000001 0.000000 0.000000 0.565755
 47   3.408091 -0.002195 0.000000 -0.000172 -0.138772 0.257943
 48   2.848662 -0.000001 0.000000 0.073890 -0.260296 -0.252494
 49   4.138183 10.107881 0.022334 -0.000003 0.000000 -3.000208
 50   0.760360 -7.386538 0.000000 0.000000 0.000000 -0.632755
 51   -1.877819 -4.721785 0.000000 0.000000 0.000000 -0.458591
 52   -3.138626 -1.645216 0.000000 0.000000 0.000000 0.000000
 53   -2.004092 -0.572443 0.000000 0.000000 0.000000 0.000000
 54   -0.454460 -0.308989 -1.764821 -0.326530 -1.570791 0.000000
 55   -0.928988 -2.245238 2.603999 0.000000 0.000000 0.000000
 56   -0.447596 -0.295313 1.486638 -0.483433 -1.570795 0.000000
 57   1.132204 -2.455431 2.774846 0.000000 0.000000 0.000000
 58   0.604154 -1.140278 -0.110061 0.527559 -1.570779 0.000000
 59   -0.087093 -3.023348 -0.912719 0.000000 0.000000 0.000000
time 8
  0   3.145597 13.503203 37.758137 -0.228958 -0.178148 -1.247993
  1   -0.683134 0.472671 0.000000 -0.000113 -1.562110 -1.570657
  2   -0.000009 0.000010 6.353377 0.073560 -0.117824 -2.534814
  3   18.507666 -0.000001 0.000000 0.000000 0.000000 -1.090343
  4   13.411350 -0.000001 0.000000 3.053008 -0.154203 0.699939
  5   8.701365 6.675649 0.000000 0.000000 0.000000 1.614392
  6   2.657023 0.000000 0.000000 0.000000 0.000000 -0.043611
  7   2.657024 0.000000 -0.000001 0.000000 0.000000 -0.043611
  8   6.248515 -0.893520 -3.345191 3.141592 0.078501 -1.570796
  9   5.692028 -3.146075 2.191403 0.000000 0.000000 0.000000
 10   6.262098 -1.288316 1.407515 -1.570796 1.492295 1.570796
 11   -0.950702 5.642267 -3.162059 0.000000 0.000000 0.000000
 12   0.000009 -0.000007 -6.353377 0.201575 0.048259 -2.907278
 13   18.507666 0.000000 0.000001 0.000000 0.000000 -1.386125
 14   13.411351 0.000000 0.000000 -2.947100 -0.124553 0.478928
 15   8.701365 6.675650 0.000000 0.000000 0.000000 1.527185
 16   2.639102 0.000000 0.000001 0.000000 0.000000 -0.043611
 17   2.639103 0.000000 -0.000001 0.000000 0.000000 -0.043611
 18   6.262098 -1.271893 -1.655766 1.570795 1.492298 -1.570797
 19   0.660782 5.698953 -3.162059 0.000000 0.000000 0.000000
 20   6.280027 -0.875930 3.588309 1.570795 1.492298 -1.570797
 21   -1.268985 5.650652 -3.144119 0.000000 0.000000 0.000000
 22   3.416504 -0.970598 0.027351 -0.044272 0.031221 0.703427
 23   6.150888 -0.004769 0.000000 -0.134347 0.035629 0.263128
 24   6.181765 -0.006274 0.000000 0.008257 -0.128284 0.314300
 25   8.035381 -0.006658 0.000000 -0.010178 0.034779 -0.053657
 26   9.041865 -0.002307 0.000000 0.008700 0.050593 0.566242
 27   -5.097032 6.659059 3.220646 -0.080639 -1.322655 2.653458
 28   8.356072 -0.000002 0.000001 -1.088868 0.335321 -0.306934
 29   22.314192 -0.000001 -0.000002 0.000000 0.000000 -1.753579
 30   13.466396 0.000001 0.000001 -1.275210 -0.093153 -0.319362
 31   6.645414 -0.843860 -1.119305 -0.059990 0.126087 -0.444113
 32   3.530614 0.000002 -0.000001 0.000000 0.000000 -0.466420
 33   3.530616 0.000000 0.000001 0.000000 0.000000 0.719771
 34   6.690088 -0.762450 1.047433 0.080757 -0.164589 -0.464241
 35   3.608304 0.000000 0.000000 0.000000 0.000000 -0.466420
 36   3.608303 -0.000001 0.000000 0.000000 0.000000 0.719771
 37   -4.565908 6.503493 -3.385580 -0.046797 1.134631 2.532708
 38   8.356072 -0.000002 0.000000 0.436781 0.189890 -1.173785
 39   22.314194 -0.000001 0.000002 0.000000 0.000000 -1.243891
 40   13.466397 0.000001 0.000000 1.007972 -0.098850 -0.018208
 41   6.635591 -0.843576 1.110600 0.085325 -0.162280 -0.481683
 42   3.530613 0.000000 0.000001 0.000000 0.000000 0.022419
 43   3.530613 0.000000 -0.000001 0.000000 0.000000 0.275526
 44   6.681006 -0.762752 -1.054662 -0.002906 0.183167 -0.021284
 45   3.608304 0.000000 0.000001 0.000000 0.000000 0.022467
 46   3.608303 -0.000002 0.000001 0.000000 0.000000 0.685275
 47   3.408091 -0.002195 0.000000 0.000032 -0.005012 0.259955
 48   2.848662 -0.000001 0.000000 0.092745 -0.266053 -0.320685
 49   4.138183 10.107881 0.022334 -0.000003 0.000000 -3.023826
 50   0.760360 -7.386538 0.000000 0.000000 0.000000 -0.677012
 51   -1.940321 -4.671002 0.000000 0.000000 0.000000 -0.495893
 52   -3.236285 -1.731156 0.000000 0.000000 0.000000 0.000000
 53   -2.035343 -0.627132 0.000000 0.000000 0.000000 0.000000
 54   -0.473992 -0.320708 -1.764821 -0.350918 -1.570791 0.000000
 55   -0.928988 -2.385867 2.701658 0.000000 0.000000 0.000000
 56   -0.467128 -0.307032 1.486638 -0.517029 -1.570795 0.000000
 57   1.132204 -2.599967 2.849067 0.000000 0.000000 0.000000
 58   0.568997 -1.116840 -0.110061 0.569957 -1.570779 0.000000
 59   -0.087093 -2.988191 -0.912719 0.000000 0.000000 0.000000
time 9
  0   2.633863 11.042191 37.293278 -0.190997 -0.195134 -1.305834
  1   -0.823763 0.007813 0.000000 -0.000113 -1.562110 -1.570657
  2   -0.000009 0.000010 6.353377 0.043215 -0.121111 -2.419069
  3   18.507666 -0.000001 0.000000 0.000000 0.000000 -1.126197
  4   13.411350 -0.000001 0.000000 3.018331 -0.109930 0.630832
  5   8.701365 6.675649 0.000000 0.000000 0.000000 1.614392
  6   2.657023 0.000000 0.000000 0.000000 0.000000 -0.043611
  7   2.657024 0.000000 -0.000001 0.000000 0.000000 -0.043611
  8   6.248515 -0.893520 -3.345191 3.141592 0.078501 -1.570796
  9   5.692028 -3.146075 2.191403 0.000000 0.000000 0.000000
 10   6.262098 -1.288316 1.407515 -1.570796 1.492295 1.570796
 11   -0.950702 5.642267 -3.162059 0.000000 0.000000 0.000000
 12   0.000009 -0.000007 -6.353377 0.162335 0.034846 -2.982425
 13   18.507666 0.000000 0.000001 0.000000 0.000000 -1.174592
 14   13.411351 0.000000 0.000000 -2.962434 -0.071473 0.485782
 15   8.701365 6.675650 0.000000 0.000000 0.000000 1.527185
 16   2.639102 0.000000 0.000001 0.000000 0.000000 -0.043611
 17   2.639103 0.000000 -0.000001 0.000000 0.000000 -0.043611
 18   6.262098 -1.271893 -1.655766 1.570795 1.492298 -1.570797
 19   0.660782 5.698953 -3.162059 0.000000 0.000000 0.000000
 20   6.280027 -0.875930 3.588309 1.570795 1.492298 -1.570797
 21   -1.268985 5.650652 -3.144119 0.000000 0.000000 0.000000
 22   3.416504 -0.970598 0.027351 -0.006814 -0.001430 0.713525
 23   6.150888 -0.004769 0.000000 -0.107466 0.029014 0.271863
 24   6.181765 -0.006274 0.000000 0.011122 -0.106496 0.318048
 25   8.035381 -0.006658 0.000000 -0.016768 0.031163 0.047609
 26   9.041865 -0.002307 0.000000 0.003887 0.199181 0.559917
 27   -5.565796 6.600463 2.447185 -0.275064 -1.186316 2.845796
 28   8.356072 -0.000002 0.000001 -1.210023 0.131440 -0.560709
 29   22.314192 -0.000001 -0.000002 0.000000 0.000000 -1.636541
 30   13.466396 0.000001 0.000001 -1.159623 -0.093629 -0.314028
 31   6.645414 -0.843860 -1.119305 -0.058219 0.126910 -0.430273
 32   3.530614 0.000002 -0.000001 0.000000 0.000000 -0.452564
 33   3.530616 0.000000 0.000001 0.000000 0.000000 0.733574
 34   6.690088 -0.762450 1.047433 0.078447 -0.165685 -0.450221
 35   3.608304 0.000000 0.000000 0.000000 0.000000 -0.452564
 36   3.608303 -0.000001 0.000000 0.000000 0.000000 0.733574
 37   -4.058080 6.483961 -4.006693 -0.333545 1.254451 2.271837
 38   8.356072 -0.000002 0.000000 0.589143 0.284378 -1.080319
 39   22.314194 -0.000001 0.000002 0.000000 0.000000 -1.154034
 40   13.466397 0.000001 0.000000 1.008985 -0.102333 -0.008508
 41   6.635591 -0.843576 1.110600 0.057868 -0.173906 -0.317747
 42   3.530613 0.000000 0.000001 0.000000 0.000000 0.184423
 43   3.530613 0.000000 -0.000001 0.000000 0.000000 0.437446
 44   6.681006 -0.762752 -1.054662 0.026969 0.181192 0.143339
 45   3.608304 0.000000 0.000001 0.000000 0.000000 0.184444
 46   3.608303 -0.000002 0.000001 0.000000 0.000000 0.847357
 47   3.408091 -0.002195 0.000000 0.000367 0.133781 0.260352
 48   2.848662 -0.000001 0.000000 0.171325 -0.222383 -0.414098
 49   4.138183 10.107881 0.022334 -0.000003 0.000000 -3.032374
 50   0.760360 -7.386538 0.000000 0.000000 0.000000 -0.693101
 51   -1.963759 -4.647564 0.000000 0.000000 0.000000 -0.509530
 52   -3.267536 -1.774126 0.000000 0.000000 0.000000 0.000000
 53   -2.058781 -0.654477 0.000000 0.000000 0.000000 0.000000
 54   -0.481805 -0.332427 -1.764821 -0.359317 -1.570451 0.000000
 55   -0.928988 -2.436650 2.732909 0.000000 0.000000 0.000000
 56   -0.474941 -0.314845 1.486638 -0.528626 -1.570451 0.000000
 57   1.132204 -2.642937 2.868599 0.000000 0.000000 0.000000
 58   0.549465 -1.109027 -0.110061 0.585457 -1.570779 0.000000
 59   -0.087093 -2.988191 -0.912719 0.000000 0.000000 0.000000
time 10
  0   1.950248 8.143664 36.746387 -0.142926 -0.212715 -1.373805
  1   -0.917516 -0.515641 0.000000 -0.000113 -1.562110 -1.570801
  2   -0.000009 0.000010 6.353377 0.013282 -0.112851 -2.296040
  3   18.507666 -0.000001 0.000000 0.000000 0.000000 -1.124174
  4   13.411350 -0.000001 0.000000 2.979439 -0.061736 0.517815
  5   8.701365 6.675649 0.000000 0.000000 0.000000 1.614392
  6   2.657023 0.000000 0.000000 0.000000 0.000000 -0.043611
  7   2.657024 0.000000 -0.000001 0.000000 0.000000 -0.043611
  8   6.248515 -0.893520 -3.345191 3.141592 0.078501 -1.570796
  9   5.692028 -3.146075 2.191403 0.000000 0.000000 0.000000
 10   6.262098 -1.288316 1.407515 -1.570796 1.492295 1.570796
 11   -0.950702 5.642267 -3.162059 0.000000 0.000000 0.000000
 12   0.000009 -0.000007 -6.353377 0.124249 0.016831 -3.071541
 13   18.507666 0.000000 0.000001 0.000000 0.000000 -0.925486
 14   13.411351 0.000000 0.000000 -2.962339 -0.032860 0.569360
 15   8.701365 6.675650 0.000000 0.000000 0.000000 1.527185
 16   2.639102 0.000000 0.000001 0.000000 0.000000 -0.043611
 17   2.639103 0.000000 -0.000001 0.000000 0.000000 -0.043611
 18   6.262098 -1.271893 -1.655766 1.570795 1.492298 -1.570797
 19   0.660782 5.698953 -3.162059 0.000000 0.000000 0.000000
 20   6.280027 -0.875930 3.588309 1.570795 1.492298 -1.570797
 21   -1.268985 5.650652 -3.144119 0.000000 0.000000 0.000000
 22   3.416504 -0.970598 0.027351 0.034394 -0.039615 0.722863
 23   6.150888 -0.004769 0.000000 -0.079038 0.021715 0.280931
 24   6.181765 -0.006274 0.000000 0.012512 -0.080214 0.321562
 25   8.035381 -0.006658 0.000000 -0.024640 0.027956 0.167056
 26   9.041865 -0.002307 0.000000 0.000182 0.282406 0.553362
 27   -5.800178 6.569212 1.986233 -0.333162 -1.106513 2.905408
 28   8.356072 -0.000002 0.000001 -1.264773 -0.104563 -0.789089
 29   22.314192 -0.000001 -0.000002 0.000000 0.000000 -1.530165
 30   13.466396 0.000001 0.000001 -1.023698 -0.100780 -0.301796
 31   6.645414 -0.843860 -1.119305 -0.054849 0.128391 -0.403718
 32   3.530614 0.000002 -0.000001 0.000000 0.000000 -0.426185
 33   3.530616 0.000000 0.000001 0.000000 0.000000 0.759979
 34   6.690088 -0.762450 1.047433 0.074037 -0.167700 -0.423579
 35   3.608304 0.000000 0.000000 0.000000 0.000000 -0.426185
 36   3.608303 -0.000001 0.000000 0.000000 0.000000 0.759979
 37   -3.761196 6.472242 -4.315296 -0.627580 1.318743 1.992942
 38   8.356072 -0.000002 0.000000 0.784623 0.345388 -0.972834
 39   22.314194 -0.000001 0.000002 0.000000 0.000000 -1.070080
 40   13.466397 0.000001 0.000000 1.010215 -0.104687 0.019125
 41   6.635591 -0.843576 1.110600 0.027437 -0.181150 -0.145863
 42   3.530613 0.000000 0.000001 0.000000 0.000000 0.353760
 43   3.530613 0.000000 -0.000001 0.000000 0.000000 0.606805
 44   6.681006 -0.762752 -1.054662 0.057408 0.174042 0.315239
 45   3.608304 0.000000 0.000001 0.000000 0.000000 0.353786
 46   3.608303 -0.000002 0.000001 0.000000 0.000000 1.016696
 47   3.408091 -0.002195 0.000000 0.000164 0.210818 0.256778
 48   2.848662 -0.000001 0.000000 0.266403 -0.142443 -0.506002
 49   4.138183 10.107881 0.022334 -0.000003 0.000000 -2.992256
 50   0.760360 -7.386538 0.000000 0.000000 0.000000 -0.618035
 51   -1.858287 -4.741317 0.000000 0.000000 0.000000 -0.446342
 52   -3.107375 -1.613965 0.000000 0.000000 0.000000 0.000000
 53   -1.984560 -0.549005 0.000000 0.000000 0.000000 0.000000
 54   -0.454460 -0.301176 -1.764821 -0.318064 -1.570791 0.000000
 55   -0.928988 -2.202268 2.572748 0.000000 0.000000 0.000000
 56   -0.447596 -0.287500 1.486638 -0.471537 -1.570795 0.000000
 57   1.132204 -2.404648 2.743595 0.000000 0.000000 0.000000
 58   0.611967 -1.148091 -0.110061 0.513618 -1.570779 0.000000
 59   -0.087093 -3.035067 -0.912719 0.000000 0.000000 0.000000
time 11
  0   1.200225 5.131854 36.179962 -0.090515 -0.227458 -1.445333
  1   -0.948767 -1.085971 0.000000 -0.000113 -1.562110 -1.570801
  2   -0.000009 0.000010 6.353377 -0.008040 -0.093258 -2.189802
  3   18.507666 -0.000001 0.000000 0.000000 0.000000 -1.065918
  4   13.411350 -0.000001 0.000000 2.940259 -0.017941 0.363982
  5   8.701365 6.675649 0.000000 0.000000 0.000000 1.614392
  6   2.657023 0.000000 0.000000 0.000000 0.000000 -0.043611
  7   2.657024 0.000000 -0.000001 0.000000 0.000000 -0.043611
  8   6.248515 -0.893520 -3.345191 3.141592 0.078501 -1.570796
  9   5.692028 -3.146075 2.191403 0.000000 0.000000 0.000000
 10   6.262098 -1.288316 1.407515 -1.570796 1.492295 1.570796
 11   -0.950702 5.642267 -3.162059 0.000000 0.000000 0.000000
 12   0.000009 -0.000007 -6.353377 0.087131 -0.003943 -3.153903
 13   18.507666 0.000000 0.000001 0.000000 0.000000 -0.689528
 14   13.411351 0.000000 0.000000 -2.941576 -0.011111 0.686767
 15   8.701365 6.675650 0.000000 0.000000 0.000000 1.527185
 16   2.639102 0.000000 0.000001 0.000000 0.000000 -0.043611
 17   2.639103 0.000000 -0.000001 0.000000 0.000000 -0.043611
 18   6.262098 -1.271893 -1.655766 1.570795 1.492298 -1.570797
 19   0.660782 5.698953 -3.162059 0.000000 0.000000 0.000000
 20   6.280027 -0.875930 3.588309 1.570795 1.492298 -1.570797
 21   -1.268985 5.650652 -3.144119 0.000000 0.000000 0.000000
 22   3.416504 -0.970598 0.027351 0.076123 -0.079448 0.730572
 23   6.150888 -0.004769 0.000000 -0.050683 0.014177 0.289840
 24   6.181765 -0.006274 0.000000 0.013315 -0.052505 0.324856
 25   8.035381 -0.006658 0.000000 -0.032762 0.025892 0.291782
 26   9.041865 -0.002307 0.000000 -0.000629 0.220806 0.544794
 27   -5.722051 6.526242 2.333900 -0.294047 -1.165963 2.878216
 28   8.356072 -0.000002 0.000001 -1.246613 -0.309152 -0.991554
 29   22.314192 -0.000001 -0.000002 0.000000 0.000000 -1.462163
 30   13.466396 0.000001 0.000001 -0.885211 -0.110008 -0.290045
 31   6.645414 -0.843860 -1.119305 -0.051308 0.129854 -0.376181
 32   3.530614 0.000002 -0.000001 0.000000 0.000000 -0.398910
 33   3.530616 0.000000 0.000001 0.000000 0.000000 0.787275
 34   6.690088 -0.762450 1.047433 0.069382 -0.169645 -0.395933
 35   3.608304 0.000000 0.000000 0.000000 0.000000 -0.398910
 36   3.608303 -0.000001 0.000000 0.000000 0.000000 0.787275
 37   -4.069799 6.440991 -4.080914 -0.488184 1.324907 2.131191
 38   8.356072 -0.000002 0.000000 0.996408 0.361448 -0.880133
 39   22.314194 -0.000001 0.000002 0.000000 0.000000 -1.005650
 40   13.466397 0.000001 0.000000 1.012675 -0.111234 0.067568
 41   6.635591 -0.843576 1.110600 0.001279 -0.183156 -0.001816
 42   3.530613 0.000000 0.000001 0.000000 0.000000 0.495510
 43   3.530613 0.000000 -0.000001 0.000000 0.000000 0.748387
 44   6.681006 -0.762752 -1.054662 0.081599 0.164167 0.458693
 45   3.608304 0.000000 0.000001 0.000000 0.000000 0.495516
 46   3.608303 -0.000002 0.000001 0.000000 0.000000 1.158404
 47   3.408091 -0.002195 0.000000 -0.001191 0.159524 0.242536
 48   2.848662 -0.000001 0.000000 0.269342 0.009713 -0.601894
 49   4.138183 10.107881 0.022334 -0.000003 0.000000 -2.895004
 50   0.760360 -7.386538 0.000000 0.000000 0.000000 -0.436458
 51   -1.717658 -5.046014 0.000000 0.000000 0.000000 -0.305496
 52   -2.720644 -1.496774 0.000000 0.000000 0.000000 0.000000
 53   -1.797054 -0.443533 0.000000 0.000000 0.000000 0.000000
 54   -0.391958 -0.289457 -1.764821 -0.211236 -1.570791 0.000000
 55   -0.928988 -1.854601 2.100077 0.000000 0.000000 0.000000
 56   -0.389000 -0.275781 1.486638 -0.314856 -1.570451 0.000000
 57   1.132204 -1.896820 2.251392 0.000000 0.000000 0.000000
 58   0.705720 -1.253563 -0.110061 0.352799 -1.570779 0.000000
 59   -0.087093 -3.136633 -0.881468 0.000000 0.000000 0.000000
time 12
  0   0.504891 2.291924 35.707294 -0.040441 -0.238080 -1.513536
  1   -0.925329 -1.617237 0.000000 -0.000113 -1.562110 -1.570801
  2   -0.000009 0.000010 6.353377 -0.023045 -0.065256 -2.118804
  3   18.507666 -0.000001 0.000000 0.000000 0.000000 -0.951074
  4   13.411350 -0.000001 0.000000 2.909605 0.018587 0.186573
  5   8.701365 6.675649 0.000000 0.000000 0.000000 1.614392
  6   2.657023 0.000000 0.000000 0.000000 0.000000 -0.043611
  7   2.657024 0.000000 -0.000001 0.000000 0.000000 -0.043611
  8   6.248515 -0.893520 -3.345191 3.141592 0.078501 -1.570796
  9   5.692028 -3.146075 2.191403 0.000000 0.000000 0.000000
 10   6.262098 -1.288316 1.407515 -1.570796 1.492295 1.570796
 11   -0.950702 5.642267 -3.162059 0.000000 0.000000 0.000000
 12   0.000009 -0.000007 -6.353377 0.049760 -0.024136 -3.208619
 13   18.507666 0.000000 0.000001 0.000000 0.000000 -0.517945
 14   13.411351 0.000000 0.000000 -2.911195 -0.004883 0.795625
 15   8.701365 6.675650 0.000000 0.000000 0.000000 1.527185
 16   2.639102 0.000000 0.000001 0.000000 0.000000 -0.043611
 17   2.639103 0.000000 -0.000001 0.000000 0.000000 -0.043611
 18   6.262098 -1.271893 -1.655766 1.570795 1.492298 -1.570797
 19   0.660782 5.698953 -3.162059 0.000000 0.000000 0.000000
 20   6.280027 -0.875930 3.588309 1.570795 1.492298 -1.570797
 21   -1.268985 5.650652 -3.144119 0.000000 0.000000 0.000000
 22   3.416504 -0.970598 0.027351 0.115052 -0.117129 0.736435
 23   6.150888 -0.004769 0.000000 -0.023813 0.006758 0.298068
 24   6.181765 -0.006274 0.000000 0.014370 -0.026643 0.328077
 25   8.035381 -0.006658 0.000000 -0.040085 0.025107 0.408731
 26   9.041865 -0.002307 0.000000 -0.000579 0.075051 0.533064
 27   -5.393916 6.475459 3.134706 -0.147077 -1.303781 2.750910
 28   8.356072 -0.000002 0.000001 -1.180389 -0.418703 -1.157704
 29   22.314192 -0.000001 -0.000002 0.000000 0.000000 -1.460167
 30   13.466396 0.000001 0.000001 -0.761163 -0.114605 -0.284791
 31   6.645414 -0.843860 -1.119305 -0.049129 0.130676 -0.359364
 32   3.530614 0.000002 -0.000001 0.000000 0.000000 -0.382220
 33   3.530616 0.000000 0.000001 0.000000 0.000000 0.803947
 34   6.690088 -0.762450 1.047433 0.066547 -0.170776 -0.379080
 35   3.608304 0.000000 0.000000 0.000000 0.000000 -0.382220
 36   3.608303 -0.000001 0.000000 0.000000 0.000000 0.803947
 37   -4.694818 6.378489 -3.448082 -0.138065 1.285921 2.476526
 38   8.356072 -0.000002 0.000000 1.193156 0.346917 -0.829917
 39   22.314194 -0.000001 0.000002 0.000000 0.000000 -0.974139
 40   13.466397 0.000001 0.000000 1.016365 -0.127262 0.139809
 41   6.635591 -0.843576 1.110600 -0.013316 -0.182708 0.078610
 42   3.530613 0.000000 0.000001 0.000000 0.000000 0.574622
 43   3.530613 0.000000 -0.000001 0.000000 0.000000 0.827587
 44   6.681006 -0.762752 -1.054662 0.094386 0.157221 0.538474
 45   3.608304 0.000000 0.000001 0.000000 0.000000 0.574595
 46   3.608303 -0.000002 0.000001 0.000000 0.000000 1.237517
 47   3.408091 -0.002195 0.000000 -0.001155 0.037461 0.223000
 48   2.848662 -0.000001 0.000000 0.152387 0.173861 -0.723691
 49   4.138183 10.107881 0.022334 -0.000003 0.000000 -2.774770
 50   0.760360 -7.386538 0.000000 0.000000 0.000000 -0.210234
 51   -1.827036 -5.475715 0.000000 0.000000 0.000000 -0.148480
 52   -2.415947 -1.805377 0.000000 0.000000 0.000000 0.000000
 53   -1.609548 -0.584162 0.000000 0.000000 0.000000 0.000000
 54   -0.348988 -0.340240 -1.764821 -0.098832 -1.570791 0.000000
 55   -0.928988 -2.057732 1.646938 0.000000 0.000000 0.000000
 56   -0.342124 -0.326564 1.486638 -0.145383 -1.570795 0.000000
 57   1.132204 -2.006198 1.688875 0.000000 0.000000 0.000000
 58   0.674469 -1.355129 -0.110061 0.171479 -1.570779 0.000000
 59   -0.087093 -3.234292 -0.725213 0.000000 0.000000 0.000000
time 13
  0   -0.014656 -0.040179 35.359627 0.000000 -0.244215 -1.570836
  1   -0.851108 -2.070376 0.000000 -0.000113 -1.562110 -1.570801
  2   -0.000009 0.000010 6.353377 -0.043516 -0.033241 -2.090093
  3   18.507666 -0.000001 0.000000 0.000000 0.000000 -0.798000
  4   13.411350 -0.000001 0.000000 2.898493 0.050238 0.011227
  5   8.701365 6.675649 0.000000 0.000000 0.000000 1.614392
  6   2.657023 0.000000 0.000000 0.000000 0.000000 -0.043611
  7   2.657024 0.000000 -0.000001 0.000000 0.000000 -0.043611
  8   6.248515 -0.893520 -3.345191 3.141592 0.078501 -1.570796
  9   5.692028 -3.146075 2.191403 0.000000 0.000000 0.000000
 10   6.262098 -1.288316 1.407515 -1.570796 1.492295 1.570796
 11   -0.950702 5.642267 -3.162059 0.000000 0.000000 0.000000
 12   0.000009 -0.000007 -6.353377 -0.001591 -0.018713 -3.083892
 13   18.507666 0.000000 0.000001 0.000000 0.000000 -0.773423
 14   13.411351 0.000000 0.000000 -2.905767 0.009009 0.931458
 15   8.701365 6.675650 0.000000 0.000000 0.000000 1.527185
 16   2.639102 0.000000 0.000001 0.000000 0.000000 -0.043611
 17   2.639103 0.000000 -0.000001 0.000000 0.000000 -0.043611
 18   6.262098 -1.271893 -1.655766 1.570795 1.492298 -1.570797
 19   0.660782 5.698953 -3.162059 0.000000 0.000000 0.000000
 20   6.280027 -0.875930 3.588309 1.570795 1.492298 -1.570797
 21   -1.268985 5.650652 -3.144119 0.000000 0.000000 0.000000
 22   3.416504 -0.970598 0.027351 0.148099 -0.148703 0.740697
 23   6.150888 -0.004769 0.000000 0.000000 -0.000001 0.305253
 24   6.181765 -0.006274 0.000000 0.016479 -0.005682 0.331371
 25   8.035381 -0.006658 0.000000 -0.045757 0.025346 0.505288
 26   9.041865 -0.002307 0.000000 0.000000 -0.000002 0.527199
 27   -5.186878 6.444208 3.525343 -0.000012 -1.370798 2.613621
 28   8.356072 -0.000002 0.000001 -1.093476 0.501506 -0.963126
 29   22.314192 -0.000001 -0.000002 0.000000 0.000000 -2.190862
 30   13.466396 0.000001 0.000001 -0.601406 -0.123833 -0.277251
 31   6.645414 -0.843860 -1.119305 -0.045895 0.131865 -0.334542
 32   3.530614 0.000002 -0.000001 0.000000 0.000000 -0.357609
 33   3.530616 0.000000 0.000001 0.000000 0.000000 0.828529
 34   6.690088 -0.762450 1.047433 0.062277 -0.172367 -0.354159
 35   3.608304 0.000000 0.000000 0.000000 0.000000 -0.357609
 36   3.608303 -0.000001 0.000000 0.000000 0.000000 0.828529
 37   -4.972171 6.347238 -3.100415 -0.000012 1.309458 2.613434
 38   8.356072 -0.000002 0.000000 1.098949 0.396456 -1.163079
 39   22.314194 -0.000001 0.000002 0.000000 0.000000 -1.313134
 40   13.466397 0.000001 0.000000 1.012241 -0.226560 0.603991
 41   6.635591 -0.843576 1.110600 0.070153 -0.169349 -0.389751
 42   3.530613 0.000000 0.000001 0.000000 0.000000 0.113322
 43   3.530613 0.000000 -0.000001 0.000000 0.000000 0.366368
 44   6.681006 -0.762752 -1.054662 0.013909 0.182656 0.071133
 45   3.608304 0.000000 0.000001 0.000000 0.000000 0.113367
 46   3.608303 -0.000002 0.000001 0.000000 0.000000 0.776182
 47   3.408091 -0.002195 0.000000 -0.000028 -0.034890 0.213179
 48   2.848662 -0.000001 0.000000 0.053233 0.219141 -0.848146
 49   4.138183 10.107881 0.022334 -0.000003 0.000000 -2.666026
 50   0.760360 -7.386538 0.000000 0.000000 0.000000 0.000000
 51   -2.213767 -5.858539 0.000000 0.000000 0.000000 0.000000
 52   -2.501887 -2.289767 0.000000 0.000000 0.000000 0.000000
 53   -1.605642 -0.869327 0.000000 0.000000 0.000000 0.000000
 54   -0.372426 -0.410555 -1.764821 0.000000 -1.570451 0.000000
 55   -0.928988 -2.561654 1.783661 0.000000 0.000000 0.000000
 56   -0.365562 -0.396879 1.486638 0.000000 -1.570451 0.000000
 57   1.132204 -2.560903 1.806066 0.000000 0.000000 0.000000
 58   0.494776 -1.366848 -0.110061 0.000000 -1.570451 0.000000
 59   -0.087093 -3.285075 -0.490831 0.000000 0.000000 0.000000
end
