version 1
nodes
  0 "Bip01" -1
  1 "Bip01 Pelvis" 0
  2 "Bip01 L Thigh" 1
  3 "Bip01 L Calf" 2
  4 "Bip01 L Foot" 3
  5 "Bip01 L Toe0" 4
  6 "Bip01 L Toe01" 5
  7 "Bip01 L Toe02" 6
  8 "Bone10" 4
  9 "Bone11" 8
 10 "Bone13" 4
 11 "Bone14" 10
 12 "Bip01 R Thigh" 1
 13 "Bip01 R Calf" 12
 14 "Bip01 R Foot" 13
 15 "Bip01 R Toe0" 14
 16 "Bip01 R Toe01" 15
 17 "Bip01 R Toe02" 16
 18 "Bone16" 14
 19 "Bone17" 18
 20 "Bone19" 14
 21 "Bone20" 20
 22 "Bip01 Spine" 1
 23 "Bip01 Spine1" 22
 24 "Bip01 Spine2" 23
 25 "Bip01 Spine3" 24
 26 "Bip01 Neck" 25
 27 "Bip01 L Clavicle" 26
 28 "Bip01 L UpperArm" 27
 29 "Bip01 L Forearm" 28
 30 "Bip01 L Hand" 29
 31 "Bip01 L Finger0" 30
 32 "Bip01 L Finger01" 31
 33 "Bip01 L Finger02" 32
 34 "Bip01 L Finger1" 30
 35 "Bip01 L Finger11" 34
 36 "Bip01 L Finger12" 35
 37 "Bip01 R Clavicle" 26
 38 "Bip01 R UpperArm" 37
 39 "Bip01 R Forearm" 38
 40 "Bip01 R Hand" 39
 41 "Bip01 R Finger0" 40
 42 "Bip01 R Finger01" 41
 43 "Bip01 R Finger02" 42
 44 "Bip01 R Finger1" 40
 45 "Bip01 R Finger11" 44
 46 "Bip01 R Finger12" 45
 47 "Bip01 Neck1" 26
 48 "Bip01 Head" 47
 49 "Bone05" 24
 50 "Bone06" 49
 51 "Bone07" 50
 52 "Bone08" 51
 53 "Bone09" 52
 54 "Bone22" 53
 55 "Bone23" 54
 56 "Bone26" 53
 57 "Bone27" 56
 58 "Bone30" 52
 59 "Bone31" 58
end
skeleton
time 0
  0   -0.014656 -0.040179 35.359627 0.000000 -0.244215 -1.570836
  1   -0.851108 -2.070376 0.000000 -0.000113 -1.562110 -1.570801
  2   -0.000009 0.000010 6.353377 -0.040809 -0.034244 -2.090045
  3   18.507666 -0.000001 0.000000 0.000000 0.000000 -0.798000
  4   13.411350 -0.000001 0.000000 2.895811 0.048995 0.011006
  5   8.701365 6.675649 0.000000 0.000000 0.000000 1.614392
  6   2.657023 0.000000 0.000000 0.000000 0.000000 -0.043611
  7   2.657024 0.000000 -0.000001 0.000000 0.000000 -0.043611
  8   6.248515 -0.893520 -3.345191 3.141592 0.078501 -1.570796
  9   5.692028 -3.146075 2.191403 0.000000 0.000000 0.000000
 10   6.262098 -1.288316 1.407515 -1.570796 1.492295 1.570796
 11   -0.950702 5.642267 -3.162059 0.000000 0.000000 0.000000
 12   0.000009 -0.000007 -6.353377 -0.001591 -0.018713 -3.083892
 13   18.507666 0.000000 0.000001 0.000000 0.000000 -0.773423
 14   13.411351 0.000000 0.000000 -2.934719 0.031909 0.934848
 15   8.701365 6.675650 0.000000 0.000000 0.000000 1.527185
 16   2.639102 0.000000 0.000001 0.000000 0.000000 -0.043611
 17   2.639103 0.000000 -0.000001 0.000000 0.000000 -0.043611
 18   6.262098 -1.271893 -1.655766 1.570795 1.492298 -1.570797
 19   0.660782 5.698953 -3.162059 0.000000 0.000000 0.000000
 20   6.280027 -0.875930 3.588309 1.570795 1.492298 -1.570797
 21   -1.268985 5.650652 -3.144119 0.000000 0.000000 0.000000
 22   3.416504 -0.970598 0.027351 0.148099 -0.148703 0.740697
 23   6.150888 -0.004769 0.000000 0.000000 -0.000001 0.305253
 24   6.181765 -0.006274 0.000000 0.016479 -0.005682 0.331371
 25   8.035381 -0.006658 0.000000 -0.045757 0.025346 0.505288
 26   9.041865 -0.002307 0.000000 0.000000 -0.000002 0.527199
 27   -5.186878 6.444208 3.525343 -0.000012 -1.370798 2.613621
 28   8.356072 -0.000002 0.000001 -1.093476 0.501506 -0.963126
 29   22.314192 -0.000001 -0.000002 0.000000 0.000000 -2.190862
 30   13.466396 0.000001 0.000001 -0.601406 -0.123833 -0.277251
 31   6.645414 -0.843860 -1.119305 -0.045895 0.131865 -0.334542
 32   3.530614 0.000002 -0.000001 0.000000 0.000000 -0.357609
 33   3.530616 0.000000 0.000001 0.000000 0.000000 0.828529
 34   6.690088 -0.762450 1.047433 0.062277 -0.172367 -0.354159
 35   3.608304 0.000000 0.000000 0.000000 0.000000 -0.357609
 36   3.608303 -0.000001 0.000000 0.000000 0.000000 0.828529
 37   -4.972171 6.347238 -3.100415 -0.000012 1.309458 2.613434
 38   8.356072 -0.000002 0.000000 1.098949 0.396456 -1.163079
 39   22.314194 -0.000001 0.000002 0.000000 0.000000 -1.313134
 40   13.466397 0.000001 0.000000 1.012241 -0.226560 0.603991
 41   6.635591 -0.843576 1.110600 0.070153 -0.169349 -0.389751
 42   3.530613 0.000000 0.000001 0.000000 0.000000 0.113322
 43   3.530613 0.000000 -0.000001 0.000000 0.000000 0.366368
 44   6.681006 -0.762752 -1.054662 0.013909 0.182656 0.071133
 45   3.608304 0.000000 0.000001 0.000000 0.000000 0.113367
 46   3.608303 -0.000002 0.000001 0.000000 0.000000 0.776182
 47   3.408091 -0.002195 0.000000 -0.000028 -0.034890 0.213179
 48   2.848662 -0.000001 0.000000 0.053233 0.219141 -0.848146
 49   4.138183 10.107881 0.022334 -0.000003 0.000000 -2.666026
 50   0.760360 -7.386538 0.000000 0.000000 0.000000 0.000000
 51   -2.213767 -5.858539 0.000000 0.000000 0.000000 0.000000
 52   -2.501887 -2.289767 0.000000 0.000000 0.000000 0.000000
 53   -1.605642 -0.869327 0.000000 0.000000 0.000000 0.000000
 54   -0.372426 -0.410555 -1.764821 0.000000 -1.570451 0.000000
 55   -0.928988 -2.561654 1.783661 0.000000 0.000000 0.000000
 56   -0.365562 -0.396879 1.486638 0.000000 -1.570451 0.000000
 57   1.132204 -2.560903 1.806066 0.000000 0.000000 0.000000
 58   0.494776 -1.366848 -0.110061 0.000000 -1.570451 0.000000
 59   -0.087093 -3.285075 -0.490831 0.000000 0.000000 0.000000
time 1
  0   3.415136 0.901256 30.050871 -0.186419 -0.235745 -1.301581
  1   -0.589381 -2.937590 0.000000 -0.000113 -1.823709 -1.570657
  2   -0.000009 0.000010 6.353377 -0.700369 -0.034180 -1.712018
  3   18.507666 -0.000001 0.000000 0.000000 0.000000 -1.596343
  4   13.411350 -0.000001 0.000000 3.287989 0.216335 0.428300
  5   8.701365 6.675649 0.000000 0.000000 0.000000 1.806273
  6   2.657023 0.000000 0.000000 0.000000 0.000000 -0.043611
  7   2.657024 0.000000 -0.000001 0.000000 0.000000 -0.043611
  8   6.248515 -0.893520 -3.345191 3.141592 0.078501 -1.570796
  9   5.692028 -3.146075 2.191403 0.000000 0.000000 0.000000
 10   6.262098 -1.288316 1.407515 -1.570796 1.492295 1.570796
 11   -0.950702 5.642267 -3.162059 0.000000 0.000000 0.000000
 12   0.000009 -0.000007 -6.353377 0.091122 -0.276382 -2.932673
 13   18.507666 0.000000 0.000001 0.000000 0.000000 -1.079521
 14   13.411351 0.000000 0.000000 -2.855671 -0.137966 1.114386
 15   8.701365 6.675650 0.000000 0.000000 0.000000 1.527185
 16   2.639102 0.000000 0.000001 0.000000 0.000000 -0.043611
 17   2.639103 0.000000 -0.000001 0.000000 0.000000 -0.043611
 18   6.262098 -1.271893 -1.655766 1.570795 1.492298 -1.570797
 19   0.660782 5.698953 -3.162059 0.000000 0.000000 0.000000
 20   6.280027 -0.875930 3.588309 1.570795 1.492298 -1.570797
 21   -1.268985 5.650652 -3.144119 0.000000 0.000000 0.000000
 22   3.314938 -0.970598 -0.855489 0.323769 0.045671 0.731658
 23   6.150888 -0.004769 0.000000 -0.000024 -0.034864 0.305253
 24   6.181765 -0.006274 0.000000 0.099220 -0.086134 0.324563
 25   8.035381 -0.006658 0.000000 0.061490 -0.138267 0.498410
 26   9.041865 -0.002307 0.000000 -0.000083 -0.122109 0.553333
 27   -4.554046 6.569212 4.103486 0.589879 -1.455385 2.003996
 28   8.356072 -0.000002 0.000001 -1.176865 -0.342867 -0.417787
 29   22.314192 -0.000001 -0.000002 0.000000 0.000000 -2.005902
 30   13.466396 0.000001 0.000001 -0.983953 -0.431244 -0.226677
 31   6.645414 -0.843860 -1.119305 -0.063837 0.124185 -0.475031
 32   3.530614 0.000002 -0.000001 0.000000 0.000000 -0.497159
 33   3.530616 0.000000 0.000001 0.000000 0.000000 0.688985
 34   6.690088 -0.762450 1.047433 0.085797 -0.162026 -0.495221
 35   3.608304 0.000000 0.000000 0.000000 0.000000 -0.497159
 36   3.608303 -0.000001 0.000000 0.000000 0.000000 0.688985
 37   -5.144051 6.472242 -2.498834 0.177444 1.200172 2.756381
 38   8.356072 -0.000002 0.000000 1.187721 0.115964 -1.132575
 39   22.314194 -0.000001 0.000002 0.000000 0.000000 -2.105454
 40   13.466397 0.000001 0.000000 1.026277 -0.077726 0.511786
 41   6.635591 -0.843576 1.110600 0.098635 -0.154607 -0.565865
 42   3.530613 0.000000 0.000001 0.000000 0.000000 -0.061022
 43   3.530613 0.000000 -0.000001 0.000000 0.000000 0.191906
 44   6.681006 -0.762752 -1.054662 -0.018339 0.182299 -0.106225
 45   3.608304 0.000000 0.000001 0.000000 0.000000 -0.061037
 46   3.608303 -0.000002 0.000001 0.000000 0.000000 0.601853
 47   3.408091 -0.002195 0.000000 -0.000028 -0.034890 0.256778
 48   2.848662 -0.000001 0.000000 -0.200780 -0.426591 -0.841176
 49   4.138183 10.107881 0.022334 -0.000003 0.000000 -2.767215
 50   0.760360 -7.386538 0.000000 0.000000 0.000000 -0.248867
 51   -1.791879 -5.405400 0.000000 0.000000 0.000000 0.000000
 52   -2.396415 -1.946006 0.000000 0.000000 0.000000 0.000000
 53   -1.586110 -0.666196 0.000000 0.000000 0.000000 0.000000
 54   -0.348988 -0.363678 -1.764821 -0.086335 -1.570791 0.000000
 55   -0.928988 -2.190549 1.623500 -0.058241 0.000000 0.000000
 56   -0.342124 -0.350002 1.486638 -0.111548 -1.570795 0.000000
 57   1.132204 -2.150734 1.645905 -0.092690 0.000000 0.000000
 58   0.635405 -1.366848 -0.110061 0.000000 -1.570451 0.000000
 59   -0.087093 -3.210854 -0.787715 0.093673 0.000000 0.000000
time 2
  0   3.508889 3.026321 28.007839 -0.182079 -0.236386 -1.307922
  1   -0.058115 -3.890744 0.000000 -0.000113 -1.830577 -1.570657
  2   -0.000009 0.000010 6.353377 -0.292521 -0.352299 -1.481664
  3   18.507666 -0.000001 0.000000 0.000000 0.000000 -1.793110
  4   13.411350 -0.000001 0.000000 2.759689 -0.073976 0.537265
  5   8.701365 6.675649 0.000000 0.000000 0.000000 1.614392
  6   2.657023 0.000000 0.000000 0.000000 0.000000 -0.043611
  7   2.657024 0.000000 -0.000001 0.000000 0.000000 -0.043611
  8   6.248515 -0.893520 -3.345191 3.141592 0.078501 -1.570796
  9   5.692028 -3.146075 2.191403 0.000000 0.000000 0.000000
 10   6.262098 -1.288316 1.407515 -1.570796 1.492295 1.570796
 11   -0.950702 5.642267 -3.162059 0.000000 0.000000 0.000000
 12   0.000009 -0.000007 -6.353377 -0.079632 -0.195585 -2.983002
 13   18.507666 0.000000 0.000001 0.000000 0.000000 -1.169788
 14   13.411351 0.000000 0.000000 -2.680907 -0.229275 1.221917
 15   8.701365 6.675650 0.000000 0.000000 0.000000 1.527185
 16   2.639102 0.000000 0.000001 0.000000 0.000000 -0.043611
 17   2.639103 0.000000 -0.000001 0.000000 0.000000 -0.043611
 18   6.262098 -1.271893 -1.655766 1.570795 1.492298 -1.570797
 19   0.660782 5.698953 -3.162059 0.000000 0.000000 0.000000
 20   6.280027 -0.875930 3.588309 1.570795 1.492298 -1.570797
 21   -1.268985 5.650652 -3.144119 0.000000 0.000000 0.000000
 22   3.303219 -0.970598 -0.875021 0.364762 0.025687 0.701147
 23   6.150888 -0.004769 0.000000 0.038830 -0.071297 0.302515
 24   6.181765 -0.006274 0.000000 0.136540 -0.107635 0.340785
 25   8.035381 -0.006658 0.000000 0.101798 -0.221524 0.486932
 26   9.041865 -0.002307 0.000000 -0.000083 -0.122109 0.594014
 27   -4.284507 6.756718 4.072235 0.606464 -1.450862 1.947141
 28   8.356072 -0.000002 0.000001 -0.992197 -0.399589 -0.504979
 29   22.314192 -0.000001 -0.000002 0.000000 0.000000 -1.876526
 30   13.466396 0.000001 0.000001 -1.125933 -0.160982 -0.182480
 31   6.645414 -0.843860 -1.119305 -0.062816 0.124697 -0.466767
 32   3.530614 0.000002 -0.000001 0.000000 0.000000 -0.488923
 33   3.530616 0.000000 0.000001 0.000000 0.000000 0.697205
 34   6.690088 -0.762450 1.047433 0.084467 -0.162733 -0.486938
 35   3.608304 0.000000 0.000000 0.000000 0.000000 -0.488923
 36   3.608303 -0.000001 0.000000 0.000000 0.000000 0.697205
 37   -4.882324 6.659748 -2.530085 0.190195 1.202044 2.727715
 38   8.356072 -0.000002 0.000000 1.254572 -0.041573 -1.167837
 39   22.314194 -0.000001 0.000002 0.000000 0.000000 -2.081480
 40   13.466397 0.000001 0.000000 1.026639 -0.258939 0.385181
 41   6.635591 -0.843576 1.110600 0.097047 -0.155600 -0.555505
 42   3.530613 0.000000 0.000001 0.000000 0.000000 -0.050717
 43   3.530613 0.000000 -0.000001 0.000000 0.000000 0.202183
 44   6.681006 -0.762752 -1.054662 -0.016444 0.182486 -0.095773
 45   3.608304 0.000000 0.000001 0.000000 0.000000 -0.050762
 46   3.608303 -0.000002 0.000001 0.000000 0.000000 0.612172
 47   3.408091 -0.002195 0.000000 -0.000028 -0.034890 0.307604
 48   2.848662 -0.000001 0.000000 -0.103484 -0.647681 -0.557308
 49   4.138183 10.107881 0.022334 -0.000003 0.000000 -2.882360
 50   0.760360 -7.386538 0.000000 0.000000 0.000000 -0.523994
 51   -1.760628 -4.889759 0.000000 0.000000 0.000000 0.000000
 52   -2.501887 -1.625684 0.000000 0.000000 0.000000 0.000000
 53   -1.672050 -0.498222 0.000000 0.000000 0.000000 0.000000
 54   -0.360707 -0.308989 -1.764821 -0.180129 -1.570791 0.000000
 55   -0.928988 -1.874133 1.814912 -0.124087 0.000000 0.000000
 56   -0.353843 -0.295313 1.486638 -0.233796 -1.570795 0.000000
 57   1.132204 -1.846037 1.899819 -0.201435 0.000000 0.000000
 58   0.709626 -1.323878 -0.110061 0.000000 -1.570451 0.000000
 59   -0.087093 -3.050693 -0.912719 0.194072 0.000000 0.000000
time 3
  0   3.075282 4.749030 27.175783 -0.170252 -0.238309 -1.325011
  1   0.289552 -4.410291 0.000000 -0.000113 -1.811425 -1.570657
  2   -0.000009 0.000010 6.353377 -0.481711 -0.203986 -1.567467
  3   18.507666 -0.000001 0.000000 0.000000 0.000000 -1.884995
  4   13.411350 -0.000001 0.000000 2.977523 0.103883 0.647188
  5   8.701365 6.675649 0.000000 0.000000 0.000000 1.614392
  6   2.657023 0.000000 0.000000 0.000000 0.000000 -0.043611
  7   2.657024 0.000000 -0.000001 0.000000 0.000000 -0.043611
  8   6.248515 -0.893520 -3.345191 3.141592 0.078501 -1.570796
  9   5.692028 -3.146075 2.191403 0.000000 0.000000 0.000000
 10   6.262098 -1.288316 1.407515 -1.570796 1.492295 1.570796
 11   -0.950702 5.642267 -3.162059 0.000000 0.000000 0.000000
 12   0.000009 -0.000007 -6.353377 0.006252 -0.231177 -3.055726
 13   18.507666 0.000000 0.000001 0.000000 0.000000 -1.163922
 14   13.411351 0.000000 0.000000 -2.760051 -0.159812 1.302547
 15   8.701365 6.675650 0.000000 0.000000 0.000000 1.527185
 16   2.639102 0.000000 0.000001 0.000000 0.000000 -0.043611
 17   2.639103 0.000000 -0.000001 0.000000 0.000000 -0.043611
 18   6.262098 -1.271893 -1.655766 1.570795 1.492298 -1.570797
 19   0.660782 5.698953 -3.162059 0.000000 0.000000 0.000000
 20   6.280027 -0.875930 3.588309 1.570795 1.492298 -1.570797
 21   -1.268985 5.650652 -3.144119 0.000000 0.000000 0.000000
 22   3.322751 -0.970598 -0.812519 0.379566 -0.006443 0.678644
 23   6.150888 -0.004769 0.000000 0.066718 -0.090605 0.299922
 24   6.181765 -0.006274 0.000000 0.147279 -0.107886 0.354474
 25   8.035381 -0.006658 0.000000 0.109972 -0.249907 0.481675
 26   9.041865 -0.002307 0.000000 -0.000083 -0.122109 0.623109
 27   -4.097001 6.897347 4.052703 0.616627 -1.447557 1.908160
 28   8.356072 -0.000002 0.000001 -0.758290 -0.191018 -0.591217
 29   22.314192 -0.000001 -0.000002 0.000000 0.000000 -1.758370
 30   13.466396 0.000001 0.000001 -1.204880 0.213817 -0.185127
 31   6.645414 -0.843860 -1.119305 -0.058287 0.126910 -0.430562
 32   3.530614 0.000002 -0.000001 0.000000 0.000000 -0.452903
 33   3.530616 0.000000 0.000001 0.000000 0.000000 0.733225
 34   6.690088 -0.762450 1.047433 0.078517 -0.165650 -0.450651
 35   3.608304 0.000000 0.000000 0.000000 0.000000 -0.452903
 36   3.608303 -0.000001 0.000000 0.000000 0.000000 0.733225
 37   -4.690912 6.788658 -2.553523 0.199207 1.203527 2.707294
 38   8.356072 -0.000002 0.000000 1.224589 -0.137591 -1.238276
 39   22.314194 -0.000001 0.000002 0.000000 0.000000 -1.904491
 40   13.466397 0.000001 0.000000 1.059776 -0.498815 0.239627
 41   6.635591 -0.843576 1.110600 0.089916 -0.159806 -0.510192
 42   3.530613 0.000000 0.000001 0.000000 0.000000 -0.005879
 43   3.530613 0.000000 -0.000001 0.000000 0.000000 0.247173
 44   6.681006 -0.762752 -1.054662 -0.008148 0.183031 -0.050061
 45   3.608304 0.000000 0.000001 0.000000 0.000000 -0.005812
 46   3.608303 -0.000002 0.000001 0.000000 0.000000 0.657040
 47   3.408091 -0.002195 0.000000 -0.000028 -0.034890 0.343976
 48   2.848662 -0.000001 0.000000 0.119419 0.066806 -0.416146
 49   4.138183 10.107881 0.022334 -0.000003 0.000000 -2.990507
 50   0.760360 -7.386538 0.000000 0.000000 0.000000 -0.782789
 51   -2.120014 -4.553811 0.000000 0.000000 0.000000 0.000000
 52   -2.763614 -1.488961 0.000000 0.000000 0.000000 0.000000
 53   -1.816586 -0.443533 0.000000 0.000000 0.000000 0.000000
 54   -0.403677 -0.289457 -1.764821 -0.279969 -1.570791 0.000000
 55   -0.928988 -1.897571 2.217268 -0.197874 0.000000 0.000000
 56   -0.396813 -0.275781 1.486638 -0.365788 -1.570795 0.000000
 57   1.132204 -1.951509 2.341239 -0.320450 0.000000 0.000000
 58   0.697907 -1.241844 -0.110061 0.000000 -1.570451 0.000000
 59   -0.087093 -2.878812 -0.838498 0.289765 0.000000 0.000000
time 4
  0   3.212005 5.245139 27.183596 -0.152273 -0.240872 -1.351148
  1   0.195799 -4.265755 0.000000 -0.000113 -1.776706 -1.570657
  2   -0.000009 0.000010 6.353377 -0.373967 -0.211712 -1.601098
  3   18.507666 -0.000001 0.000000 0.000000 0.000000 -1.899003
  4   13.411350 -0.000001 0.000000 2.936332 0.058366 0.686162
  5   8.701365 6.675649 0.000000 0.000000 0.000000 1.614392
  6   2.657023 0.000000 0.000000 0.000000 0.000000 -0.043611
  7   2.657024 0.000000 -0.000001 0.000000 0.000000 -0.043611
  8   6.248515 -0.893520 -3.345191 3.141592 0.078501 -1.570796
  9   5.692028 -3.146075 2.191403 0.000000 0.000000 0.000000
 10   6.262098 -1.288316 1.407515 -1.570796 1.492295 1.570796
 11   -0.950702 5.642267 -3.162059 0.000000 0.000000 0.000000
 12   0.000009 -0.000007 -6.353377 -0.082747 -0.133262 -3.098321
 13   18.507666 0.000000 0.000001 0.000000 0.000000 -1.145363
 14   13.411351 0.000000 0.000000 -2.693098 -0.221898 1.308222
 15   8.701365 6.675650 0.000000 0.000000 0.000000 1.527185
 16   2.639102 0.000000 0.000001 0.000000 0.000000 -0.043611
 17   2.639103 0.000000 -0.000001 0.000000 0.000000 -0.043611
 18   6.262098 -1.271893 -1.655766 1.570795 1.492298 -1.570797
 19   0.660782 5.698953 -3.162059 0.000000 0.000000 0.000000
 20   6.280027 -0.875930 3.588309 1.570795 1.492298 -1.570797
 21   -1.268985 5.650652 -3.144119 0.000000 0.000000 0.000000
 22   3.346189 -0.970598 -0.695328 0.355202 -0.031894 0.681087
 23   6.150888 -0.004769 0.000000 0.064166 -0.084349 0.300313
 24   6.181765 -0.006274 0.000000 0.135654 -0.097388 0.354840
 25   8.035381 -0.006658 0.000000 0.094619 -0.226351 0.485201
 26   9.041865 -0.002307 0.000000 -0.000083 -0.122109 0.625524
 27   -4.069656 6.909066 4.048797 0.617394 -1.447296 1.904927
 28   8.356072 -0.000002 0.000001 -0.622500 0.146218 -0.583677
 29   22.314192 -0.000001 -0.000002 0.000000 0.000000 -1.652633
 30   13.466396 0.000001 0.000001 -1.282740 0.565358 -0.218736
 31   6.645414 -0.843860 -1.119305 -0.053589 0.128958 -0.393749
 32   3.530614 0.000002 -0.000001 0.000000 0.000000 -0.416302
 33   3.530616 0.000000 0.000001 0.000000 0.000000 0.769827
 34   6.690088 -0.762450 1.047433 0.072357 -0.168407 -0.413539
 35   3.608304 0.000000 0.000000 0.000000 0.000000 -0.416302
 36   3.608303 -0.000001 0.000000 0.000000 0.000000 0.769827
 37   -4.675286 6.800377 -2.553523 0.199974 1.203657 2.705760
 38   8.356072 -0.000002 0.000000 1.062444 -0.203529 -1.292826
 39   22.314194 -0.000001 0.000002 0.000000 0.000000 -1.726321
 40   13.466397 0.000001 0.000000 1.140737 -0.707537 0.067004
 41   6.635591 -0.843576 1.110600 0.082467 -0.163740 -0.464008
 42   3.530613 0.000000 0.000001 0.000000 0.000000 0.039960
 43   3.530613 0.000000 -0.000001 0.000000 0.000000 0.293026
 44   6.681006 -0.762752 -1.054662 0.000337 0.183167 -0.003489
 45   3.608304 0.000000 0.000001 0.000000 0.000000 0.039956
 46   3.608303 -0.000002 0.000001 0.000000 0.000000 0.702852
 47   3.408091 -0.002195 0.000000 -0.000028 -0.034890 0.347020
 48   2.848662 -0.000001 0.000000 0.117672 0.416219 -0.194614
 49   4.138183 10.107881 0.022334 -0.000003 0.000000 -3.070703
 50   0.760360 -7.386538 0.000000 0.000000 0.000000 -0.979672
 51   -2.541902 -4.479590 0.000000 0.000000 0.000000 0.000000
 52   -2.997996 -1.539744 0.000000 0.000000 0.000000 0.000000
 53   -1.929871 -0.498222 0.000000 0.000000 0.000000 0.000000
 54   -0.446647 -0.289457 -1.764821 -0.362139 -1.570791 0.000000
 55   -0.928988 -2.143672 2.521965 -0.249257 0.000000 0.000000
 56   -0.439783 -0.283594 1.486638 -0.472075 -1.570795 0.000000
 57   1.132204 -2.279644 2.657655 -0.391865 0.000000 0.000000
 58   0.643218 -1.183248 -0.110061 0.000000 -1.570451 0.000000
 59   -0.087093 -2.738183 -0.682243 0.366955 0.000000 0.000000
time 5
  0   3.411230 5.225607 27.644547 -0.129573 -0.243528 -1.383935
  1   0.023919 -4.027467 0.000000 -0.000113 -1.736629 -1.570657
  2   -0.000009 0.000010 6.353377 -0.328203 -0.138548 -1.669353
  3   18.507666 -0.000001 0.000000 0.000000 0.000000 -1.859356
  4   13.411350 -0.000001 0.000000 2.992466 0.054254 0.683878
  5   8.701365 6.675649 0.000000 0.000000 0.000000 1.614392
  6   2.657023 0.000000 0.000000 0.000000 0.000000 -0.043611
  7   2.657024 0.000000 -0.000001 0.000000 0.000000 -0.043611
  8   6.248515 -0.893520 -3.345191 3.141592 0.078501 -1.570796
  9   5.692028 -3.146075 2.191403 0.000000 0.000000 0.000000
 10   6.262098 -1.288316 1.407515 -1.570796 1.492295 1.570796
 11   -0.950702 5.642267 -3.162059 0.000000 0.000000 0.000000
 12   0.000009 -0.000007 -6.353377 0.018640 -0.129872 -3.119561
 13   18.507666 0.000000 0.000001 0.000000 0.000000 -1.121241
 14   13.411351 0.000000 0.000000 -2.811956 -0.147164 1.324805
 15   8.701365 6.675650 0.000000 0.000000 0.000000 1.527185
 16   2.639102 0.000000 0.000001 0.000000 0.000000 -0.043611
 17   2.639103 0.000000 -0.000001 0.000000 0.000000 -0.043611
 18   6.262098 -1.271893 -1.655766 1.570795 1.492298 -1.570797
 19   0.660782 5.698953 -3.162059 0.000000 0.000000 0.000000
 20   6.280027 -0.875930 3.588309 1.570795 1.492298 -1.570797
 21   -1.268985 5.650652 -3.144119 0.000000 0.000000 0.000000
 22   3.377440 -0.970598 -0.558605 0.322915 -0.058472 0.687602
 23   6.150888 -0.004769 0.000000 0.057310 -0.074018 0.301110
 24   6.181765 -0.006274 0.000000 0.119810 -0.084277 0.353303
 25   8.035381 -0.006658 0.000000 0.074734 -0.193243 0.489714
 26   9.041865 -0.002307 0.000000 -0.000083 -0.122109 0.623109
 27   -4.097001 6.897347 4.052703 0.616627 -1.447557 1.908160
 28   8.356072 -0.000002 0.000001 -0.498996 0.488055 -0.536961
 29   22.314192 -0.000001 -0.000002 0.000000 0.000000 -1.536275
 30   13.466396 0.000001 0.000001 -1.427825 0.916049 -0.316354
 31   6.645414 -0.843860 -1.119305 -0.049333 0.130622 -0.360808
 32   3.530614 0.000002 -0.000001 0.000000 0.000000 -0.383649
 33   3.530616 0.000000 0.000001 0.000000 0.000000 0.802474
 34   6.690088 -0.762450 1.047433 0.066792 -0.170687 -0.380550
 35   3.608304 0.000000 0.000000 0.000000 0.000000 -0.383649
 36   3.608303 -0.000001 0.000000 0.000000 0.000000 0.802474
 37   -4.690912 6.788658 -2.553523 0.199207 1.203527 2.707294
 38   8.356072 -0.000002 0.000000 0.866058 -0.278559 -1.341683
 39   22.314194 -0.000001 0.000002 0.000000 0.000000 -1.566631
 40   13.466397 0.000001 0.000000 1.300634 -0.910809 -0.179778
 41   6.635591 -0.843576 1.110600 0.075682 -0.166973 -0.422728
 42   3.530613 0.000000 0.000001 0.000000 0.000000 0.080760
 43   3.530613 0.000000 -0.000001 0.000000 0.000000 0.333775
 44   6.681006 -0.762752 -1.054662 0.007866 0.183048 0.037990
 45   3.608304 0.000000 0.000001 0.000000 0.000000 0.080784
 46   3.608303 -0.000002 0.000001 0.000000 0.000000 0.743675
 47   3.408091 -0.002195 0.000000 -0.000028 -0.034890 0.343976
 48   2.848662 -0.000001 0.000000 0.079075 0.552357 -0.021440
 49   4.138183 10.107881 0.022334 -0.000003 0.000000 -3.102113
 50   0.760360 -7.386538 0.000000 0.000000 0.000000 -1.058259
 51   -2.733314 -4.499122 0.000000 0.000000 0.000000 0.000000
 52   -3.087843 -1.606152 0.000000 0.000000 0.000000 0.000000
 53   -1.980654 -0.541192 0.000000 0.000000 0.000000 0.000000
 54   -0.454460 -0.297270 -1.764821 -0.393717 -1.570451 0.000000
 55   -0.928988 -2.288208 2.635250 -0.265783 0.000000 0.000000
 56   -0.447596 -0.287500 1.486638 -0.511589 -1.570795 0.000000
 57   1.132204 -2.435899 2.763127 -0.414466 0.000000 0.000000
 58   0.611967 -1.151997 -0.110061 0.000000 -1.570451 0.000000
 59   -0.087093 -2.699119 -0.608022 0.399058 0.000000 0.000000
time 6
  0   3.262788 4.749030 28.609421 -0.103582 -0.245497 -1.421284
  1   -0.175306 -3.691519 0.000000 -0.000113 -1.701598 -1.570657
  2   -0.000009 0.000010 6.353377 -0.230180 -0.128965 -1.717600
  3   18.507666 -0.000001 0.000000 0.000000 0.000000 -1.765600
  4   13.411350 -0.000001 0.000000 2.954437 0.020882 0.630169
  5   8.701365 6.675649 0.000000 0.000000 0.000000 1.614392
  6   2.657023 0.000000 0.000000 0.000000 0.000000 -0.043611
  7   2.657024 0.000000 -0.000001 0.000000 0.000000 -0.043611
  8   6.248515 -0.893520 -3.345191 3.141592 0.078501 -1.570796
  9   5.692028 -3.146075 2.191403 0.000000 0.000000 0.000000
 10   6.262098 -1.288316 1.407515 -1.570796 1.492295 1.570796
 11   -0.950702 5.642267 -3.162059 0.000000 0.000000 0.000000
 12   0.000009 -0.000007 -6.353377 -0.063807 -0.056218 -3.130297
 13   18.507666 0.000000 0.000001 0.000000 0.000000 -1.081999
 14   13.411351 0.000000 0.000000 -2.768337 -0.178016 1.284416
 15   8.701365 6.675650 0.000000 0.000000 0.000000 1.527185
 16   2.639102 0.000000 0.000001 0.000000 0.000000 -0.043611
 17   2.639103 0.000000 -0.000001 0.000000 0.000000 -0.043611
 18   6.262098 -1.271893 -1.655766 1.570795 1.492298 -1.570797
 19   0.660782 5.698953 -3.162059 0.000000 0.000000 0.000000
 20   6.280027 -0.875930 3.588309 1.570795 1.492298 -1.570797
 21   -1.268985 5.650652 -3.144119 0.000000 0.000000 0.000000
 22   3.389159 -0.970598 -0.441414 0.290272 -0.078675 0.696668
 23   6.150888 -0.004769 0.000000 0.047363 -0.060715 0.302153
 24   6.181765 -0.006274 0.000000 0.100814 -0.069332 0.350199
 25   8.035381 -0.006658 0.000000 0.051757 -0.153141 0.494379
 26   9.041865 -0.002307 0.000000 -0.000083 -0.122109 0.623109
 27   -4.097001 6.897347 4.052703 0.616627 -1.447557 1.908160
 28   8.356072 -0.000002 0.000001 -0.460960 0.727775 -0.528293
 29   22.314192 -0.000001 -0.000002 0.000000 0.000000 -1.510200
 30   13.466396 0.000001 0.000001 -1.496991 1.054398 -0.393519
 31   6.645414 -0.843860 -1.119305 -0.045895 0.131865 -0.334542
 32   3.530614 0.000002 -0.000001 0.000000 0.000000 -0.357609
 33   3.530616 0.000000 0.000001 0.000000 0.000000 0.828529
 34   6.690088 -0.762450 1.047433 0.062277 -0.172367 -0.354159
 35   3.608304 0.000000 0.000000 0.000000 0.000000 -0.357609
 36   3.608303 -0.000001 0.000000 0.000000 0.000000 0.828529
 37   -4.690912 6.788658 -2.553523 0.199207 1.203527 2.707294
 38   8.356072 -0.000002 0.000000 0.728280 -0.321470 -1.277956
 39   22.314194 -0.000001 0.000002 0.000000 0.000000 -1.465559
 40   13.466397 0.000001 0.000000 1.403807 -0.899618 -0.327813
 41   6.635591 -0.843576 1.110600 0.070153 -0.169349 -0.389751
 42   3.530613 0.000000 0.000001 0.000000 0.000000 0.113322
 43   3.530613 0.000000 -0.000001 0.000000 0.000000 0.366368
 44   6.681006 -0.762752 -1.054662 0.013909 0.182656 0.071133
 45   3.608304 0.000000 0.000001 0.000000 0.000000 0.113367
 46   3.608303 -0.000002 0.000001 0.000000 0.000000 0.776182
 47   3.408091 -0.002195 0.000000 -0.000028 -0.034890 0.343976
 48   2.848662 -0.000001 0.000000 -0.000697 -0.155657 0.014380
 49   4.138183 10.107881 0.022334 -0.000003 0.000000 -3.070703
 50   0.760360 -7.386538 0.000000 0.000000 0.000000 -0.979672
 51   -2.541902 -4.479590 0.000000 0.000000 0.000000 0.000000
 52   -2.997996 -1.539744 0.000000 0.000000 0.000000 0.000000
 53   -1.929871 -0.498222 0.000000 0.000000 0.000000 0.000000
 54   -0.446647 -0.289457 -1.764821 -0.362139 -1.570791 0.000000
 55   -0.928988 -2.143672 2.521965 -0.249257 0.000000 0.000000
 56   -0.439783 -0.283594 1.486638 -0.472075 -1.570795 0.000000
 57   1.132204 -2.279644 2.657655 -0.391865 0.000000 0.000000
 58   0.643218 -1.183248 -0.110061 0.000000 -1.570451 0.000000
 59   -0.087093 -2.738183 -0.682243 0.366955 0.000000 0.000000
time 7
  0   2.657301 3.838846 30.039150 -0.076208 -0.246596 -1.460876
  1   -0.378437 -3.308695 0.000000 -0.000113 -1.669983 -1.570657
  2   -0.000009 0.000010 6.353377 -0.176321 -0.107387 -1.780509
  3   18.507666 -0.000001 0.000000 0.000000 0.000000 -1.611817
  4   13.411350 -0.000001 0.000000 2.939684 0.021838 0.530487
  5   8.701365 6.675649 0.000000 0.000000 0.000000 1.614392
  6   2.657023 0.000000 0.000000 0.000000 0.000000 -0.043611
  7   2.657024 0.000000 -0.000001 0.000000 0.000000 -0.043611
  8   6.248515 -0.893520 -3.345191 3.141592 0.078501 -1.570796
  9   5.692028 -3.146075 2.191403 0.000000 0.000000 0.000000
 10   6.262098 -1.288316 1.407515 -1.570796 1.492295 1.570796
 11   -0.950702 5.642267 -3.162059 0.000000 0.000000 0.000000
 12   0.000009 -0.000007 -6.353377 0.032735 -0.088396 -3.125795
 13   18.507666 0.000000 0.000001 0.000000 0.000000 -1.025917
 14   13.411351 0.000000 0.000000 -2.883957 -0.069844 1.235257
 15   8.701365 6.675650 0.000000 0.000000 0.000000 1.527185
 16   2.639102 0.000000 0.000001 0.000000 0.000000 -0.043611
 17   2.639103 0.000000 -0.000001 0.000000 0.000000 -0.043611
 18   6.262098 -1.271893 -1.655766 1.570795 1.492298 -1.570797
 19   0.660782 5.698953 -3.162059 0.000000 0.000000 0.000000
 20   6.280027 -0.875930 3.588309 1.570795 1.492298 -1.570797
 21   -1.268985 5.650652 -3.144119 0.000000 0.000000 0.000000
 22   3.400878 -0.970598 -0.335942 0.257463 -0.094504 0.707309
 23   6.150888 -0.004769 0.000000 0.035486 -0.045518 0.303196
 24   6.181765 -0.006274 0.000000 0.079853 -0.053273 0.345997
 25   8.035381 -0.006658 0.000000 0.027038 -0.108553 0.498651
 26   9.041865 -0.002307 0.000000 -0.000331 -0.129574 0.607843
 27   -4.159503 6.830939 4.095673 0.669739 -1.451993 1.870605
 28   8.356072 -0.000002 0.000001 -0.719893 0.609464 -0.641227
 29   22.314192 -0.000001 -0.000002 0.000000 0.000000 -1.722113
 30   13.466396 0.000001 0.000001 -1.228789 0.604177 -0.256315
 31   6.645414 -0.843860 -1.119305 -0.045384 0.132030 -0.330902
 32   3.530614 0.000002 -0.000001 0.000000 0.000000 -0.353903
 33   3.530616 0.000000 0.000001 0.000000 0.000000 0.832251
 34   6.690088 -0.762450 1.047433 0.061647 -0.172596 -0.350430
 35   3.608304 0.000000 0.000000 0.000000 0.000000 -0.353903
 36   3.608303 -0.000001 0.000000 0.000000 0.000000 0.832251
 37   -4.808103 6.722250 -2.498834 0.202179 1.195802 2.725414
 38   8.356072 -0.000002 0.000000 0.794859 -0.293089 -0.929415
 39   22.314194 -0.000001 0.000002 0.000000 0.000000 -1.581842
 40   13.466397 0.000001 0.000000 1.252665 -0.289609 -0.140189
 41   6.635591 -0.843576 1.110600 0.069388 -0.169660 -0.385164
 42   3.530613 0.000000 0.000001 0.000000 0.000000 0.117942
 43   3.530613 0.000000 -0.000001 0.000000 0.000000 0.371004
 44   6.681006 -0.762752 -1.054662 0.014729 0.182588 0.075730
 45   3.608304 0.000000 0.000001 0.000000 0.000000 0.117944
 46   3.608303 -0.000002 0.000001 0.000000 0.000000 0.780831
 47   3.408091 -0.002195 0.000000 -0.000028 -0.034890 0.325578
 48   2.848662 -0.000001 0.000000 0.036735 0.181019 -0.184661
 49   4.138183 10.107881 0.022334 -0.000003 0.000000 -2.990507
 50   0.760360 -7.386538 0.000000 0.000000 0.000000 -0.782789
 51   -2.120014 -4.553811 0.000000 0.000000 0.000000 0.000000
 52   -2.763614 -1.488961 0.000000 0.000000 0.000000 0.000000
 53   -1.816586 -0.443533 0.000000 0.000000 0.000000 0.000000
 54   -0.403677 -0.289457 -1.764821 -0.279969 -1.570791 0.000000
 55   -0.928988 -1.897571 2.217268 -0.197874 0.000000 0.000000
 56   -0.396813 -0.275781 1.486638 -0.365788 -1.570795 0.000000
 57   1.132204 -1.951509 2.341239 -0.320450 0.000000 0.000000
 58   0.697907 -1.241844 -0.110061 0.000000 -1.570451 0.000000
 59   -0.087093 -2.878812 -0.838498 0.289765 0.000000 0.000000
time 8
  0   1.813525 2.604433 31.773579 -0.048739 -0.246596 -1.500545
  1   -0.569849 -2.886807 0.000000 -0.000113 -1.634724 -1.570657
  2   -0.000009 0.000010 6.353377 -0.125607 -0.086898 -1.859927
  3   18.507666 -0.000001 0.000000 0.000000 0.000000 -1.398211
  4   13.411350 -0.000001 0.000000 2.922633 0.029775 0.389621
  5   8.701365 6.675649 0.000000 0.000000 0.000000 1.614392
  6   2.657023 0.000000 0.000000 0.000000 0.000000 -0.043611
  7   2.657024 0.000000 -0.000001 0.000000 0.000000 -0.043611
  8   6.248515 -0.893520 -3.345191 3.141592 0.078501 -1.570796
  9   5.692028 -3.146075 2.191403 0.000000 0.000000 0.000000
 10   6.262098 -1.288316 1.407515 -1.570796 1.492295 1.570796
 11   -0.950702 5.642267 -3.162059 0.000000 0.000000 0.000000
 12   0.000009 -0.000007 -6.353377 -0.062977 -0.034596 -3.111366
 13   18.507666 0.000000 0.000001 0.000000 0.000000 -0.957446
 14   13.411351 0.000000 0.000000 -2.827004 -0.080767 1.144825
 15   8.701365 6.675650 0.000000 0.000000 0.000000 1.527185
 16   2.639102 0.000000 0.000001 0.000000 0.000000 -0.043611
 17   2.639103 0.000000 -0.000001 0.000000 0.000000 -0.043611
 18   6.262098 -1.271893 -1.655766 1.570795 1.492298 -1.570797
 19   0.660782 5.698953 -3.162059 0.000000 0.000000 0.000000
 20   6.280027 -0.875930 3.588309 1.570795 1.492298 -1.570797
 21   -1.268985 5.650652 -3.144119 0.000000 0.000000 0.000000
 22   3.416504 -0.970598 -0.218751 0.221095 -0.111965 0.718764
 23   6.150888 -0.004769 0.000000 0.022879 -0.029627 0.304094
 24   6.181765 -0.006274 0.000000 0.058029 -0.036878 0.341078
 25   8.035381 -0.006658 0.000000 0.001782 -0.062243 0.501936
 26   9.041865 -0.002307 0.000000 -0.000083 -0.122109 0.586597
 27   -4.335289 6.725467 4.083954 0.603684 -1.451732 1.957314
 28   8.356072 -0.000002 0.000001 -0.953619 0.418856 -0.695136
 29   22.314192 -0.000001 -0.000002 0.000000 0.000000 -1.978350
 30   13.466396 0.000001 0.000001 -1.003127 0.059974 -0.258040
 31   6.645414 -0.843860 -1.119305 -0.045895 0.131865 -0.334542
 32   3.530614 0.000002 -0.000001 0.000000 0.000000 -0.357609
 33   3.530616 0.000000 0.000001 0.000000 0.000000 0.828529
 34   6.690088 -0.762450 1.047433 0.062277 -0.172367 -0.354159
 35   3.608304 0.000000 0.000000 0.000000 0.000000 -0.357609
 36   3.608303 -0.000001 0.000000 0.000000 0.000000 0.828529
 37   -4.933107 6.628497 -2.522272 0.187894 1.201680 2.732892
 38   8.356072 -0.000002 0.000000 0.975574 -0.193163 -0.664143
 39   22.314194 -0.000001 0.000002 0.000000 0.000000 -1.684276
 40   13.466397 0.000001 0.000000 1.204985 0.285700 0.062436
 41   6.635591 -0.843576 1.110600 0.070153 -0.169349 -0.389751
 42   3.530613 0.000000 0.000001 0.000000 0.000000 0.113322
 43   3.530613 0.000000 -0.000001 0.000000 0.000000 0.366368
 44   6.681006 -0.762752 -1.054662 0.013909 0.182656 0.071133
 45   3.608304 0.000000 0.000001 0.000000 0.000000 0.113367
 46   3.608303 -0.000002 0.000001 0.000000 0.000000 0.776182
 47   3.408091 -0.002195 0.000000 -0.000028 -0.034890 0.298418
 48   2.848662 -0.000001 0.000000 -0.028342 0.551313 -0.470541
 49   4.138183 10.107881 0.022334 -0.000003 0.000000 -2.882360
 50   0.760360 -7.386538 0.000000 0.000000 0.000000 -0.523994
 51   -1.760628 -4.889759 0.000000 0.000000 0.000000 0.000000
 52   -2.501887 -1.625684 0.000000 0.000000 0.000000 0.000000
 53   -1.672050 -0.498222 0.000000 0.000000 0.000000 0.000000
 54   -0.360707 -0.308989 -1.764821 -0.180129 -1.570791 0.000000
 55   -0.928988 -1.874133 1.814912 -0.124087 0.000000 0.000000
 56   -0.353843 -0.295313 1.486638 -0.233796 -1.570795 0.000000
 57   1.132204 -1.846037 1.899819 -0.201435 0.000000 0.000000
 58   0.709626 -1.323878 -0.110061 0.000000 -1.570451 0.000000
 59   -0.087093 -3.050693 -0.912719 0.194072 0.000000 0.000000
time 9
  0   0.872090 1.248923 33.621292 -0.022796 -0.245726 -1.537894
  1   -0.726104 -2.464919 0.000000 -0.000113 -1.598040 -1.570657
  2   -0.000009 0.000010 6.353377 -0.075332 -0.065021 -1.960725
  3   18.507666 -0.000001 0.000000 0.000000 0.000000 -1.129130
  4   13.411350 -0.000001 0.000000 2.903283 0.037807 0.216264
  5   8.701365 6.675649 0.000000 0.000000 0.000000 1.614392
  6   2.657023 0.000000 0.000000 0.000000 0.000000 -0.043611
  7   2.657024 0.000000 -0.000001 0.000000 0.000000 -0.043611
  8   6.248515 -0.893520 -3.345191 3.141592 0.078501 -1.570796
  9   5.692028 -3.146075 2.191403 0.000000 0.000000 0.000000
 10   6.262098 -1.288316 1.407515 -1.570796 1.492295 1.570796
 11   -0.950702 5.642267 -3.162059 0.000000 0.000000 0.000000
 12   0.000009 -0.000007 -6.353377 -0.022422 -0.034693 -3.093935
 13   18.507666 0.000000 0.000001 0.000000 0.000000 -0.872843
 14   13.411351 0.000000 0.000000 -2.891100 -0.012548 1.045401
 15   8.701365 6.675650 0.000000 0.000000 0.000000 1.527185
 16   2.639102 0.000000 0.000001 0.000000 0.000000 -0.043611
 17   2.639103 0.000000 -0.000001 0.000000 0.000000 -0.043611
 18   6.262098 -1.271893 -1.655766 1.570795 1.492298 -1.570797
 19   0.660782 5.698953 -3.162059 0.000000 0.000000 0.000000
 20   6.280027 -0.875930 3.588309 1.570795 1.492298 -1.570797
 21   -1.268985 5.650652 -3.144119 0.000000 0.000000 0.000000
 22   3.416504 -0.970598 -0.093747 0.183731 -0.130266 0.730192
 23   6.150888 -0.004769 0.000000 0.010630 -0.014071 0.304804
 24   6.181765 -0.006274 0.000000 0.036493 -0.020758 0.336027
 25   8.035381 -0.006658 0.000000 -0.022833 -0.016683 0.504215
 26   9.041865 -0.002307 0.000000 0.000629 -0.069087 0.558307
 27   -4.733739 6.596557 3.853478 0.257592 -1.424290 2.328584
 28   8.356072 -0.000002 0.000001 -1.033937 0.444341 -0.806250
 29   22.314192 -0.000001 -0.000002 0.000000 0.000000 -2.100618
 30   13.466396 0.000001 0.000001 -0.804013 -0.082801 -0.272398
 31   6.645414 -0.843860 -1.119305 -0.045895 0.131865 -0.334542
 32   3.530614 0.000002 -0.000001 0.000000 0.000000 -0.357609
 33   3.530616 0.000000 0.000001 0.000000 0.000000 0.828529
 34   6.690088 -0.762450 1.047433 0.062277 -0.172367 -0.354159
 35   3.608304 0.000000 0.000000 0.000000 0.000000 -0.357609
 36   3.608303 -0.000001 0.000000 0.000000 0.000000 0.828529
 37   -4.976077 6.491774 -2.768373 0.117717 1.249093 2.695214
 38   8.356072 -0.000002 0.000000 1.092246 0.076622 -0.838244
 39   22.314194 -0.000001 0.000002 0.000000 0.000000 -1.535574
 40   13.466397 0.000001 0.000000 1.163600 0.125256 0.307864
 41   6.635591 -0.843576 1.110600 0.070153 -0.169349 -0.389751
 42   3.530613 0.000000 0.000001 0.000000 0.000000 0.113322
 43   3.530613 0.000000 -0.000001 0.000000 0.000000 0.366368
 44   6.681006 -0.762752 -1.054662 0.013909 0.182656 0.071133
 45   3.608304 0.000000 0.000001 0.000000 0.000000 0.113367
 46   3.608303 -0.000002 0.000001 0.000000 0.000000 0.776182
 47   3.408091 -0.002195 0.000000 -0.000028 -0.034890 0.258234
 48   2.848662 -0.000001 0.000000 -0.047696 0.433817 -0.684852
 49   4.138183 10.107881 0.022334 -0.000003 0.000000 -2.767215
 50   0.760360 -7.386538 0.000000 0.000000 0.000000 -0.248867
 51   -1.791879 -5.405400 0.000000 0.000000 0.000000 0.000000
 52   -2.396415 -1.946006 0.000000 0.000000 0.000000 0.000000
 53   -1.586110 -0.666196 0.000000 0.000000 0.000000 0.000000
 54   -0.348988 -0.363678 -1.764821 -0.086335 -1.570791 0.000000
 55   -0.928988 -2.190549 1.623500 -0.058241 0.000000 0.000000
 56   -0.342124 -0.350002 1.486638 -0.111548 -1.570795 0.000000
 57   1.132204 -2.150734 1.645905 -0.092690 0.000000 0.000000
 58   0.635405 -1.366848 -0.110061 0.000000 -1.570451 0.000000
 59   -0.087093 -3.210854 -0.787715 0.093673 0.000000 0.000000
time 10
  0   -0.014656 -0.040179 35.359627 0.000000 -0.244215 -1.570836
  1   -0.851108 -2.070376 0.000000 -0.000113 -1.562110 -1.570801
  2   -0.000009 0.000010 6.353377 -0.040809 -0.034244 -2.090045
  3   18.507666 -0.000001 0.000000 0.000000 0.000000 -0.798000
  4   13.411350 -0.000001 0.000000 2.895811 0.048995 0.011006
  5   8.701365 6.675649 0.000000 0.000000 0.000000 1.614392
  6   2.657023 0.000000 0.000000 0.000000 0.000000 -0.043611
  7   2.657024 0.000000 -0.000001 0.000000 0.000000 -0.043611
  8   6.248515 -0.893520 -3.345191 3.141592 0.078501 -1.570796
  9   5.692028 -3.146075 2.191403 0.000000 0.000000 0.000000
 10   6.262098 -1.288316 1.407515 -1.570796 1.492295 1.570796
 11   -0.950702 5.642267 -3.162059 0.000000 0.000000 0.000000
 12   0.000009 -0.000007 -6.353377 -0.001591 -0.018713 -3.083892
 13   18.507666 0.000000 0.000001 0.000000 0.000000 -0.773423
 14   13.411351 0.000000 0.000000 -2.934719 0.031909 0.934848
 15   8.701365 6.675650 0.000000 0.000000 0.000000 1.527185
 16   2.639102 0.000000 0.000001 0.000000 0.000000 -0.043611
 17   2.639103 0.000000 -0.000001 0.000000 0.000000 -0.043611
 18   6.262098 -1.271893 -1.655766 1.570795 1.492298 -1.570797
 19   0.660782 5.698953 -3.162059 0.000000 0.000000 0.000000
 20   6.280027 -0.875930 3.588309 1.570795 1.492298 -1.570797
 21   -1.268985 5.650652 -3.144119 0.000000 0.000000 0.000000
 22   3.416504 -0.970598 0.027351 0.148099 -0.148703 0.740697
 23   6.150888 -0.004769 0.000000 0.000000 -0.000001 0.305253
 24   6.181765 -0.006274 0.000000 0.016479 -0.005682 0.331371
 25   8.035381 -0.006658 0.000000 -0.045757 0.025346 0.505288
 26   9.041865 -0.002307 0.000000 0.000000 -0.000002 0.527199
 27   -5.186878 6.444208 3.525343 -0.000012 -1.370798 2.613621
 28   8.356072 -0.000002 0.000001 -1.093476 0.501506 -0.963126
 29   22.314192 -0.000001 -0.000002 0.000000 0.000000 -2.190862
 30   13.466396 0.000001 0.000001 -0.601406 -0.123833 -0.277251
 31   6.645414 -0.843860 -1.119305 -0.045895 0.131865 -0.334542
 32   3.530614 0.000002 -0.000001 0.000000 0.000000 -0.357609
 33   3.530616 0.000000 0.000001 0.000000 0.000000 0.828529
 34   6.690088 -0.762450 1.047433 0.062277 -0.172367 -0.354159
 35   3.608304 0.000000 0.000000 0.000000 0.000000 -0.357609
 36   3.608303 -0.000001 0.000000 0.000000 0.000000 0.828529
 37   -4.972171 6.347238 -3.100415 -0.000012 1.309458 2.613434
 38   8.356072 -0.000002 0.000000 1.098949 0.396456 -1.163079
 39   22.314194 -0.000001 0.000002 0.000000 0.000000 -1.313134
 40   13.466397 0.000001 0.000000 1.012241 -0.226560 0.603991
 41   6.635591 -0.843576 1.110600 0.070153 -0.169349 -0.389751
 42   3.530613 0.000000 0.000001 0.000000 0.000000 0.113322
 43   3.530613 0.000000 -0.000001 0.000000 0.000000 0.366368
 44   6.681006 -0.762752 -1.054662 0.013909 0.182656 0.071133
 45   3.608304 0.000000 0.000001 0.000000 0.000000 0.113367
 46   3.608303 -0.000002 0.000001 0.000000 0.000000 0.776182
 47   3.408091 -0.002195 0.000000 -0.000028 -0.034890 0.213179
 48   2.848662 -0.000001 0.000000 0.053233 0.219141 -0.848146
 49   4.138183 10.107881 0.022334 -0.000003 0.000000 -2.666026
 50   0.760360 -7.386538 0.000000 0.000000 0.000000 0.000000
 51   -2.213767 -5.858539 0.000000 0.000000 0.000000 0.000000
 52   -2.501887 -2.289767 0.000000 0.000000 0.000000 0.000000
 53   -1.605642 -0.869327 0.000000 0.000000 0.000000 0.000000
 54   -0.372426 -0.410555 -1.764821 0.000000 -1.570451 0.000000
 55   -0.928988 -2.561654 1.783661 0.000000 0.000000 0.000000
 56   -0.365562 -0.396879 1.486638 0.000000 -1.570451 0.000000
 57   1.132204 -2.560903 1.806066 0.000000 0.000000 0.000000
 58   0.494776 -1.366848 -0.110061 0.000000 -1.570451 0.000000
 59   -0.087093 -3.285075 -0.490831 0.000000 0.000000 0.000000
end
