version 1
nodes
  0 "Bip01" -1
  1 "Bip01 Pelvis" 0
  2 "Bip01 L Thigh" 1
  3 "Bip01 L Calf" 2
  4 "Bip01 L Foot" 3
  5 "Bip01 L Toe0" 4
  6 "Bip01 R Thigh" 1
  7 "Bip01 R Calf" 6
  8 "Bip01 R Foot" 7
  9 "Bip01 R Toe0" 8
 10 "Bip01 Spine" 1
 11 "Bip01 Spine1" 10
 12 "Bip01 Spine2" 11
 13 "Bip01 Spine3" 12
 14 "Bip01 Neck" 13
 15 "Bip01 L Clavicle" 14
 16 "Bip01 L UpperArm" 15
 17 "Bip01 L Forearm" 16
 18 "Bip01 L Hand" 17
 19 "Bip01 R Clavicle" 14
 20 "Bip01 R UpperArm" 19
 21 "Bip01 R Forearm" 20
 22 "Bip01 R Hand" 21
 23 "Bip01 Head" 14
 24 "Bone05" 23
 25 "m4" 22
 26 "SHOTGUN" 22
end
skeleton
time 0
  0   2.063374 3.113680 0.479616 1.544193 -2.845859 0.007768
  1   2.274826 -9.457319 -1.493305 -1.570795 -1.570790 0.000000
  2   -0.000008 0.000010 5.615750 0.000001 3.385764 -0.954728
  3   15.693467 0.000000 0.000000 0.000000 0.000000 -1.351285
  4   22.146629 -0.000001 0.000000 0.235461 0.065382 -0.485335
  5   3.310129 5.734393 0.000000 0.000000 0.000000 1.570796
  6   0.000008 -0.000006 -5.615750 0.022053 3.448866 -0.088288
  7   15.693467 0.000000 0.000000 0.000000 0.000000 -1.389280
  8   22.146629 0.000000 0.000000 0.411732 0.566540 -0.009832
  9   3.310129 5.734393 0.000000 0.000000 0.000000 1.570796
 10   1.384163 -0.004728 0.000002 -0.205865 -0.019697 0.009701
 11   5.939814 -0.004730 0.000000 0.000000 0.000000 0.000000
 12   5.939809 -0.003975 0.000000 0.000000 0.000000 0.000000
 13   4.991439 -0.003975 0.000000 0.000000 0.000000 0.000000
 14   4.991436 -0.001575 0.000000 0.000000 0.000000 0.000000
 15   0.000005 0.001564 3.638375 1.401940 -0.517106 1.902089
 16   8.842831 0.000000 -0.000002 -1.719786 0.326755 0.204019
 17   9.341934 0.000000 -0.000001 0.000000 0.000000 -1.629398
 18   11.168404 -0.000001 0.000002 -1.645121 0.168439 0.195164
 19   0.000005 0.001585 -3.638375 -0.823080 1.160914 2.360860
 20   8.842831 0.000000 0.000001 -0.674028 -1.185336 0.556916
 21   9.341937 0.000000 -0.000001 0.000000 0.000000 -1.583718
 22   11.168404 -0.000001 0.000001 1.735737 -1.073186 -0.228106
 23   1.977383 0.000000 0.000000 0.093936 -0.187148 -0.024954
 24   3.723980 2.768054 -0.049087 0.129339 -3.141495 -1.439771
 25   12.421014 0.304721 4.492689 -0.091859 -0.075839 1.616818
 26   19.916998 1.704573 4.956909 2.262592 1.451744 0.734330
time 1
  0   2.063374 3.113680 0.479616 1.544193 -2.845859 0.007768
  1   2.274826 -9.457319 -1.493305 -1.570795 -1.570790 0.000000
  2   -0.000008 0.000010 5.615750 0.000001 3.385764 -0.954728
  3   15.693467 0.000000 0.000000 0.000000 0.000000 -1.351285
  4   22.146629 -0.000001 0.000000 0.235461 0.065382 -0.485335
  5   3.310129 5.734393 0.000000 0.000000 0.000000 1.570796
  6   0.000008 -0.000006 -5.615750 0.022053 3.448866 -0.088288
  7   15.693467 0.000000 0.000000 0.000000 0.000000 -1.389280
  8   22.146629 0.000000 0.000000 0.411732 0.566540 -0.009832
  9   3.310129 5.734393 0.000000 0.000000 0.000000 1.570796
 10   1.384163 -0.004728 0.000002 -0.205865 -0.019697 0.009701
 11   5.939814 -0.004730 0.000000 0.000000 0.000000 0.000000
 12   5.939809 -0.003975 0.000000 0.000000 0.000000 0.000000
 13   4.991439 -0.003975 0.000000 0.000000 0.000000 0.000000
 14   4.991436 -0.001575 0.000000 0.000000 0.000000 0.000000
 15   0.000005 0.001564 3.638375 1.401940 -0.517106 1.902089
 16   8.842831 0.000000 -0.000002 -1.719786 0.326755 0.204019
 17   9.341934 0.000000 -0.000001 0.000000 0.000000 -1.629398
 18   11.168404 -0.000001 0.000002 -1.645121 0.168439 0.195164
 19   0.000005 0.001585 -3.638375 -0.823080 1.160914 2.360860
 20   8.842831 0.000000 0.000001 -0.674028 -1.185336 0.556916
 21   9.341937 0.000000 -0.000001 0.000000 0.000000 -1.583718
 22   11.168404 -0.000001 0.000001 1.735737 -1.073186 -0.228106
 23   1.977383 0.000000 0.000000 0.093936 -0.187148 -0.024954
 24   3.723980 2.768054 -0.049087 0.129339 -3.141495 -1.439771
 25   12.421014 0.304721 4.492689 -0.091859 -0.075839 1.616818
 26   19.916998 1.704573 4.956909 2.262592 1.451744 0.734330
end
