version 1
nodes
  0 "Bip01" -1
  1 "Bip01 Pelvis" 0
  2 "Bip01 L Thigh" 1
  3 "Bip01 L Calf" 2
  4 "Bip01 L Foot" 3
  5 "Bip01 L Toe0" 4
  6 "Bip01 R Thigh" 1
  7 "Bip01 R Calf" 6
  8 "Bip01 R Foot" 7
  9 "Bip01 R Toe0" 8
 10 "Bip01 Spine" 1
 11 "Bip01 Spine1" 10
 12 "Bip01 Spine2" 11
 13 "Bip01 Spine3" 12
 14 "Bip01 Neck" 13
 15 "Bip01 L Clavicle" 14
 16 "Bip01 L UpperArm" 15
 17 "Bip01 L Forearm" 16
 18 "Bip01 L Hand" 17
 19 "Bip01 R Clavicle" 14
 20 "Bip01 R UpperArm" 19
 21 "Bip01 R Forearm" 20
 22 "Bip01 R Hand" 21
 23 "Bip01 Head" 14
 24 "Bone05" 23
 25 "m4" 22
 26 "SHOTGUN" 22
end
skeleton
time 0
  0   2.063374 3.113680 28.041988 0.000000 0.000000 -2.033353
  1   -1.373723 -0.035156 9.745319 -1.570795 -1.570451 0.000000
  2   -0.000008 0.000010 5.615750 -0.233053 3.472298 -0.563921
  3   15.693467 0.000000 0.000000 0.000000 0.000000 -0.487323
  4   22.146629 -0.000001 0.000000 0.114982 -0.144038 -0.143135
  5   3.310129 5.734393 0.000000 0.000000 0.000000 1.570796
  6   0.000008 -0.000006 -5.615750 0.212080 2.899510 0.054433
  7   15.693467 0.000000 0.000000 0.000000 0.000000 -0.482099
  8   22.146629 0.000000 0.000000 0.274883 0.248026 0.484986
  9   3.310129 5.734393 0.000000 0.000000 0.000000 1.570796
 10   1.384163 -0.004728 0.000002 -0.372579 -0.003463 0.086548
 11   5.939814 -0.004730 0.000000 0.000000 0.000000 0.000000
 12   5.939809 -0.003975 0.000000 0.000000 0.000000 0.000000
 13   4.991439 -0.003975 0.000000 0.000000 0.000000 0.000000
 14   4.991436 -0.001575 0.000000 0.000000 0.000000 0.000000
 15   0.000005 0.001564 3.638375 -0.000010 -1.284244 3.140806
 16   8.842831 0.000000 -0.000002 -0.414972 -0.110832 -0.914689
 17   9.341934 0.000000 -0.000001 0.000000 0.000000 -0.853073
 18   11.168404 -0.000001 0.000002 -4.515872 0.471532 -0.520821
 19   0.000005 0.001585 -3.638375 -0.000010 1.284244 3.140787
 20   8.842831 0.000000 0.000001 0.953960 -0.539089 -2.198116
 21   9.341937 0.000000 -0.000001 0.000000 0.000000 -0.994883
 22   11.168404 -0.000001 0.000001 1.806863 0.075089 0.649563
 23   1.977383 0.000000 0.000000 0.835700 0.294324 0.196082
 24   3.723980 2.768054 -0.049087 0.000001 -3.141591 -1.570794
 25   12.421014 0.304721 4.492689 -0.091859 -0.075839 1.616818
 26   19.916998 1.704573 4.956909 2.262592 1.451744 0.734330
time 1
  0   2.085981 7.072417 28.041988 0.000000 0.000000 -2.033353
  1   -1.373723 -0.035156 9.745319 -1.570795 -1.570451 0.000000
  2   -0.000008 0.000010 5.615750 -0.233053 3.472298 -0.563921
  3   15.693467 0.000000 0.000000 0.000000 0.000000 -0.487323
  4   22.146629 -0.000001 0.000000 0.114982 -0.144038 -0.143135
  5   3.310129 5.734393 0.000000 0.000000 0.000000 1.570796
  6   0.000008 -0.000006 -5.615750 0.212080 2.899510 0.054433
  7   15.693467 0.000000 0.000000 0.000000 0.000000 -0.482099
  8   22.146629 0.000000 0.000000 0.274883 0.248026 0.484986
  9   3.310129 5.734393 0.000000 0.000000 0.000000 1.570796
 10   1.384163 -0.004728 0.000002 -0.372579 -0.003463 0.086548
 11   5.939814 -0.004730 0.000000 0.000000 0.000000 0.000000
 12   5.939809 -0.003975 0.000000 0.000000 0.000000 0.000000
 13   4.991439 -0.003975 0.000000 0.000000 0.000000 0.000000
 14   4.991436 -0.001575 0.000000 0.000000 0.000000 0.000000
 15   0.000005 0.001564 3.638375 -0.000010 -1.284244 3.140806
 16   8.842831 0.000000 -0.000002 -0.414972 -0.110832 -0.914689
 17   9.341934 0.000000 -0.000001 0.000000 0.000000 -0.853073
 18   11.168404 -0.000001 0.000002 -4.515872 0.471532 -0.520821
 19   0.000005 0.001585 -3.638375 -0.000010 1.284244 3.140787
 20   8.842831 0.000000 0.000001 0.953960 -0.539089 -2.198116
 21   9.341937 0.000000 -0.000001 0.000000 0.000000 -0.994883
 22   11.168404 -0.000001 0.000001 1.806863 0.075089 0.649563
 23   1.977383 0.000000 0.000000 0.835700 0.294324 0.196082
 24   3.723980 2.768054 -0.049087 0.000001 -3.141591 -1.570794
 25   12.421014 0.304721 4.492689 -0.091859 -0.075839 1.616818
 26   19.916998 1.704573 4.956909 2.262592 1.451744 0.734330
time 2
  0   2.101053 11.172033 26.258080 0.000000 -0.363628 -1.570844
  1   -2.869863 -0.140628 9.745319 -0.000032 -1.620790 -1.570770
  2   -0.000008 0.000010 5.615750 0.067971 3.206851 -0.601291
  3   15.693467 0.000000 0.000000 0.000000 0.000000 -0.573044
  4   22.146629 -0.000001 0.000000 -0.038402 0.008346 0.254864
  5   3.310129 5.734393 0.000000 0.000000 0.000000 1.570796
  6   0.000008 -0.000006 -5.615750 -0.074303 3.103242 -0.205199
  7   15.693467 0.000000 0.000000 0.000000 0.000000 -1.311722
  8   22.146629 0.000000 0.000000 0.007051 0.113744 0.706236
  9   3.310129 5.734393 0.000000 0.000000 0.000000 1.570796
 10   1.384163 -0.004728 -0.066406 0.009656 0.035072 0.195162
 11   5.939814 -0.004730 0.000000 0.000000 -0.008365 0.048551
 12   5.939809 -0.003975 0.000000 0.000000 0.013950 0.048559
 13   4.991439 -0.003975 0.000000 0.000000 0.008365 0.048556
 14   4.991436 -0.001575 0.000000 0.000000 0.000000 0.000000
 15   0.000005 0.001564 3.638375 -0.000010 -1.283555 3.140806
 16   8.842831 0.000000 -0.000002 -0.443229 0.742201 -1.162379
 17   9.341934 0.000000 -0.000001 0.000000 0.000000 -1.734362
 18   11.168404 -0.000001 0.000002 -1.568718 -0.049956 -0.000011
 19   0.000005 0.001585 -3.638375 -0.000010 1.283575 3.140787
 20   8.842831 0.000000 0.000001 -0.153914 -0.630272 -0.472564
 21   9.341937 0.000000 -0.000001 0.000000 0.000000 -1.908746
 22   11.168404 -0.000001 0.000001 1.568687 0.049962 -0.000040
 23   1.977383 0.000000 0.000000 -0.374688 0.205877 0.137381
 24   3.723980 2.768054 -0.049087 0.000001 -3.141591 -1.570794
 25   12.421014 0.304721 4.492689 -0.091859 -0.075839 1.616818
 26   19.916998 1.704573 4.956909 2.262592 1.451744 0.734330
time 3
  0   2.123662 15.342091 25.258307 0.000000 -0.620797 -1.570844
  1   -4.506631 -0.140628 9.745319 -0.000032 -1.620790 -1.570770
  2   -0.000008 0.000010 5.615750 0.072477 3.195160 -0.661982
  3   15.693467 0.000000 0.000000 0.000000 0.000000 -0.699952
  4   22.146629 -0.000001 0.000000 -0.041768 0.015008 0.320450
  5   3.310129 5.734393 0.000000 0.000000 0.000000 1.570796
  6   0.000008 -0.000006 -5.615750 -0.094725 3.110144 -0.351426
  7   15.693467 0.000000 0.000000 0.000000 0.000000 -1.608707
  8   22.146629 0.000000 0.000000 -0.019574 0.130230 0.598694
  9   3.310129 5.734393 0.000000 0.000000 0.000000 1.570796
 10   1.384163 -0.004728 -0.066406 0.016556 0.033193 0.338201
 11   5.939814 -0.004730 0.000000 0.000000 -0.008365 0.084310
 12   5.939809 -0.003975 0.000000 0.000000 0.013950 0.084301
 13   4.991439 -0.003975 0.000000 0.000000 0.008365 0.084296
 14   4.991436 -0.001575 0.000000 0.000000 0.000000 0.000000
 15   0.000005 0.001564 3.638375 -0.000010 -1.283555 3.140806
 16   8.842831 0.000000 -0.000002 -0.463255 0.596804 -1.133340
 17   9.341934 0.000000 -0.000001 0.000000 0.000000 -1.561581
 18   11.168404 -0.000001 0.000002 -1.568718 -0.049956 -0.000011
 19   0.000005 0.001585 -3.638375 -0.000010 1.283575 3.140787
 20   8.842831 0.000000 0.000001 0.020479 -0.515187 -0.536614
 21   9.341937 0.000000 -0.000001 0.000000 0.000000 -1.796628
 22   11.168404 -0.000001 0.000001 1.568687 0.049962 -0.000040
 23   1.977383 0.000000 0.000000 -0.279959 0.322567 0.239524
 24   3.723980 2.768054 -0.049087 0.000001 -3.141591 -1.570794
 25   12.421014 0.304721 4.492689 -0.091859 -0.075839 1.616818
 26   19.916998 1.704573 4.956909 2.262592 1.451744 0.734330
time 4
  0   2.146270 19.540323 24.866238 0.000000 -0.869364 -1.570844
  1   -5.975426 -0.136722 9.745319 -0.000032 -1.620790 -1.570770
  2   -0.000008 0.000010 5.615750 0.076311 3.182989 -0.721812
  3   15.693467 0.000000 0.000000 0.000000 0.000000 -0.824941
  4   22.146629 -0.000001 0.000000 -0.050256 -0.005795 -0.172955
  5   3.310129 5.734393 0.000000 0.000000 0.000000 1.570796
  6   0.000008 -0.000006 -5.615750 -0.107285 3.116856 -0.496742
  7   15.693467 0.000000 0.000000 0.000000 0.000000 -1.783102
  8   22.146629 0.000000 0.000000 -0.058835 0.134436 0.376563
  9   3.310129 5.734393 0.000000 0.000000 0.000000 1.570796
 10   1.384163 -0.004728 -0.066406 0.022952 0.030429 0.477872
 11   5.939814 -0.004730 0.000000 0.000000 -0.008365 0.119227
 12   5.939809 -0.003975 0.000000 0.000000 0.013950 0.119219
 13   4.991439 -0.003975 0.000000 0.000000 0.008365 0.119213
 14   4.991436 -0.001575 0.000000 0.000000 0.000000 0.000000
 15   0.000005 0.001564 3.638375 -0.000010 -1.283555 3.140806
 16   8.842831 0.000000 -0.000002 -0.507239 0.462570 -1.105943
 17   9.341934 0.000000 -0.000001 0.000000 0.000000 -1.391752
 18   11.168404 -0.000001 0.000002 -1.568718 -0.049956 -0.000011
 19   0.000005 0.001585 -3.638375 -0.000010 1.283575 3.140787
 20   8.842831 0.000000 0.000001 0.187132 -0.413292 -0.576169
 21   9.341937 0.000000 -0.000001 0.000000 0.000000 -1.686975
 22   11.168404 -0.000001 0.000001 1.568687 0.049962 -0.000040
 23   1.977383 0.000000 0.000000 -0.147274 0.398013 0.362842
 24   3.723980 2.768054 -0.049087 0.000001 -3.141591 -1.570794
 25   12.421014 0.304721 4.492689 -0.091859 -0.075839 1.616818
 26   19.916998 1.704573 4.956909 2.262592 1.451744 0.734330
time 5
  0   2.161342 23.689249 23.886068 0.000000 -1.056768 -1.570844
  1   -7.065303 -0.136722 9.745319 -0.000032 -1.620790 -1.570770
  2   -0.000008 0.000010 5.615750 0.086953 3.190368 -0.757939
  3   15.693467 0.000000 0.000000 0.000000 0.000000 -0.914929
  4   22.146629 -0.000001 0.000000 -0.043862 -0.023998 -0.232458
  5   3.310129 5.734393 0.000000 0.000000 0.000000 1.570796
  6   0.000008 -0.000006 -5.615750 -0.095204 3.141112 -0.605448
  7   15.693467 0.000000 0.000000 0.000000 0.000000 -1.791215
  8   22.146629 0.000000 0.000000 -0.040107 0.120314 0.325038
  9   3.310129 5.734393 0.000000 0.000000 0.000000 1.570796
 10   1.384163 -0.004728 -0.066406 0.027967 0.027451 0.594323
 11   5.939814 -0.004730 0.000000 0.000000 -0.008365 0.148331
 12   5.939809 -0.003975 0.000000 0.000000 0.013950 0.148339
 13   4.991439 -0.003975 0.000000 0.000000 0.008365 0.148326
 14   4.991436 -0.001575 0.000000 0.000000 0.000000 0.000000
 15   0.000005 0.001564 3.638375 -0.000010 -1.283555 3.140806
 16   8.842831 0.000000 -0.000002 -0.560734 0.350941 -1.089072
 17   9.341934 0.000000 -0.000001 0.000000 0.000000 -1.241031
 18   11.168404 -0.000001 0.000002 -1.564420 -0.046511 -0.000846
 19   0.000005 0.001585 -3.638375 -0.000010 1.283575 3.140787
 20   8.842831 0.000000 0.000001 0.327258 -0.331671 -0.598568
 21   9.341937 0.000000 -0.000001 0.000000 0.000000 -1.587448
 22   11.168404 -0.000001 0.000001 1.562348 0.049962 -0.000040
 23   1.977383 0.000000 0.000000 -0.017339 0.422353 0.478902
 24   3.723980 2.768054 -0.049087 0.000001 -3.141591 -1.570794
 25   12.421014 0.304721 4.492689 -0.091859 -0.075839 1.616818
 26   19.916998 1.704573 4.956909 2.262592 1.451744 0.734330
time 6
  0   2.183950 27.746601 23.023520 0.000000 -1.239395 -1.570844
  1   -8.112210 -0.136722 9.745319 -0.000032 -1.620790 -1.570770
  2   -0.000008 0.000010 5.615750 0.097977 3.198322 -0.785751
  3   15.693467 0.000000 0.000000 0.000000 0.000000 -0.998729
  4   22.146629 -0.000001 0.000000 -0.033990 -0.040740 -0.278881
  5   3.310129 5.734393 0.000000 0.000000 0.000000 1.570796
  6   0.000008 -0.000006 -5.615750 -0.067592 3.160670 -0.574659
  7   15.693467 0.000000 0.000000 0.000000 0.000000 -1.227911
  8   22.146629 0.000000 0.000000 0.024594 0.087065 0.291304
  9   3.310129 5.734393 0.000000 0.000000 0.000000 1.570796
 10   1.384163 -0.004728 -0.066406 0.033150 0.023452 0.725574
 11   5.939814 -0.004730 0.000000 0.000000 -0.008365 0.181144
 12   5.939809 -0.003975 0.000000 0.000000 0.013950 0.181158
 13   4.991439 -0.003975 0.000000 0.000000 0.008365 0.181157
 14   4.991436 -0.001575 0.000000 0.000000 0.000000 0.000000
 15   0.000005 0.001564 3.638375 -0.000010 -1.283555 3.140806
 16   8.842831 0.000000 -0.000002 -0.638919 0.232800 -1.080861
 17   9.341934 0.000000 -0.000001 0.000000 0.000000 -1.072268
 18   11.168404 -0.000001 0.000002 -1.554106 -0.038185 -0.002762
 19   0.000005 0.001585 -3.638375 -0.000010 1.283575 3.140787
 20   8.842831 0.000000 0.000001 0.489719 -0.256423 -0.619537
 21   9.341937 0.000000 -0.000001 0.000000 0.000000 -1.482059
 22   11.168404 -0.000001 0.000001 1.546873 0.049962 -0.000040
 23   1.977383 0.000000 0.000000 0.138023 0.400923 0.629160
 24   3.723980 2.768054 -0.049087 0.000001 -3.141591 -1.570794
 25   12.421014 0.304721 4.492689 -0.091859 -0.075839 1.616818
 26   19.916998 1.704573 4.956909 2.262592 1.451744 0.734330
time 7
  0   2.199022 31.656031 22.043350 0.000000 -1.418772 -1.570844
  1   -8.932548 -0.132816 9.745319 -0.000032 -1.620790 -1.570770
  2   -0.000008 0.000010 5.615750 0.109482 3.206851 -0.810027
  3   15.693467 0.000000 0.000000 0.000000 0.000000 -1.079470
  4   22.146629 -0.000001 0.000000 -0.021314 -0.055550 -0.312269
  5   3.310129 5.734393 0.000000 0.000000 0.000000 1.570796
  6   0.000008 -0.000006 -5.615750 -0.055320 3.146960 -0.702371
  7   15.693467 0.000000 0.000000 0.000000 0.000000 -1.241532
  8   22.146629 0.000000 0.000000 0.009025 0.088570 0.268316
  9   3.310129 5.734393 0.000000 0.000000 0.000000 1.570796
 10   1.384163 -0.004728 -0.066406 0.037694 0.018864 0.854784
 11   5.939814 -0.004730 0.000000 0.000000 -0.008365 0.213461
 12   5.939809 -0.003975 0.000000 0.000000 0.013950 0.213477
 13   4.991439 -0.003975 0.000000 0.000000 0.008365 0.213466
 14   4.991436 -0.001575 0.000000 0.000000 0.000000 0.000000
 15   0.000005 0.001564 3.638375 -0.000010 -1.283555 3.140806
 16   8.842831 0.000000 -0.000002 -0.727162 0.128985 -1.069887
 17   9.341934 0.000000 -0.000001 0.000000 0.000000 -0.896945
 18   11.168404 -0.000001 0.000002 -1.541308 -0.027849 -0.005023
 19   0.000005 0.001585 -3.638375 -0.000010 1.283575 3.140787
 20   8.842831 0.000000 0.000001 0.652582 -0.199057 -0.634691
 21   9.341937 0.000000 -0.000001 0.000000 0.000000 -1.374604
 22   11.168404 -0.000001 0.000001 1.527856 0.049962 -0.000040
 23   1.977383 0.000000 0.000000 0.269809 0.330465 0.762517
 24   3.723980 2.768054 -0.049087 0.000001 -3.141591 -1.570794
 25   12.421014 0.304721 4.492689 -0.091859 -0.075839 1.616818
 26   19.916998 1.704573 4.956909 2.262592 1.451744 0.734330
time 8
  0   2.221630 35.347095 20.847542 0.000000 -1.596621 -1.570748
  1   -9.452095 -0.132816 9.745319 -0.000032 -1.620790 -1.570770
  2   -0.000008 0.000010 5.615750 0.121465 3.215571 -0.835355
  3   15.693467 0.000000 0.000000 0.000000 0.000000 -1.160210
  4   22.146629 -0.000001 0.000000 -0.006432 -0.068205 -0.332530
  5   3.310129 5.734393 0.000000 0.000000 0.000000 1.570796
  6   0.000008 -0.000006 -5.615750 -0.046691 3.131428 -0.852947
  7   15.693467 0.000000 0.000000 0.000000 0.000000 -1.288499
  8   22.146629 0.000000 0.000000 -0.007615 0.092745 0.247265
  9   3.310129 5.734393 0.000000 0.000000 0.000000 1.570796
 10   1.384163 -0.004728 -0.066406 0.041060 0.014490 0.965115
 11   5.939814 -0.004730 0.000000 0.000000 -0.008365 0.241073
 12   5.939809 -0.003975 0.000000 0.000000 0.013950 0.241073
 13   4.991439 -0.003975 0.000000 0.000000 0.008365 0.241066
 14   4.991436 -0.001575 0.000000 0.000000 0.000000 0.000000
 15   0.000005 0.001564 3.638375 -0.000010 -1.283555 3.140806
 16   8.842831 0.000000 -0.000002 -0.810650 0.059217 -1.048985
 17   9.341934 0.000000 -0.000001 0.000000 0.000000 -0.726379
 18   11.168404 -0.000001 0.000002 -1.529752 -0.018374 -0.006939
 19   0.000005 0.001585 -3.638375 -0.000010 1.283575 3.140787
 20   8.842831 0.000000 0.000001 0.793031 -0.167807 -0.641173
 21   9.341937 0.000000 -0.000001 0.000000 0.000000 -1.268815
 22   11.168404 -0.000001 0.000001 1.510611 0.049962 -0.000040
 23   1.977383 0.000000 0.000000 0.350054 0.245251 0.843884
 24   3.723980 2.768054 -0.049087 0.000001 -3.141591 -1.570794
 25   12.421014 0.304721 4.492689 -0.091859 -0.075839 1.616818
 26   19.916998 1.704573 4.956909 2.262592 1.451744 0.734330
time 9
  0   2.236702 38.777531 19.534115 0.000000 -1.774373 -1.570844
  1   -9.706009 -0.132816 9.745319 -0.000032 -1.620790 -1.570770
  2   -0.000008 0.000010 5.615750 0.134024 3.224100 -0.866608
  3   15.693467 0.000000 0.000000 0.000000 0.000000 -1.244295
  4   22.146629 -0.000001 0.000000 0.010133 -0.078656 -0.339665
  5   3.310129 5.734393 0.000000 0.000000 0.000000 1.570796
  6   0.000008 -0.000006 -5.615750 -0.041801 3.113979 -1.015304
  7   15.693467 0.000000 0.000000 0.000000 0.000000 -1.359284
  8   22.146629 0.000000 0.000000 -0.026118 0.097811 0.227096
  9   3.310129 5.734393 0.000000 0.000000 0.000000 1.570796
 10   1.384163 -0.004728 -0.066406 0.043080 0.011350 1.039760
 11   5.939814 -0.004730 0.000000 0.000000 -0.008365 0.259755
 12   5.939809 -0.003975 0.000000 0.000000 0.013950 0.259750
 13   4.991439 -0.003975 0.000000 0.000000 0.008365 0.259752
 14   4.991436 -0.001575 0.000000 0.000000 0.000000 0.000000
 15   0.000005 0.001564 3.638375 -0.000010 -1.283555 3.140806
 16   8.842831 0.000000 -0.000002 -0.872649 0.041449 -1.012406
 17   9.341934 0.000000 -0.000001 0.000000 0.000000 -0.572049
 18   11.168404 -0.000001 0.000002 -1.523067 -0.012919 -0.008020
 19   0.000005 0.001585 -3.638375 -0.000010 1.283575 3.140787
 20   8.842831 0.000000 0.000001 0.887685 -0.168781 -0.632023
 21   9.341937 0.000000 -0.000001 0.000000 0.000000 -1.168556
 22   11.168404 -0.000001 0.000001 1.500636 0.049962 -0.000040
 23   1.977383 0.000000 0.000000 0.382406 0.191143 0.856559
 24   3.723980 2.768054 -0.049087 0.000001 -3.141591 -1.570794
 25   12.421014 0.304721 4.492689 -0.091859 -0.075839 1.616818
 26   19.916998 1.704573 4.956909 2.262592 1.451744 0.734330
time 10
  0   2.251774 41.876896 18.220688 0.000000 -1.953751 -1.570844
  1   -9.764605 -0.128909 9.745319 -0.000032 -1.620790 -1.570770
  2   -0.000008 0.000010 5.615750 0.147445 3.231862 -0.908374
  3   15.693467 0.000000 0.000000 0.000000 0.000000 -1.334852
  4   22.146629 -0.000001 0.000000 0.027857 -0.086829 -0.333536
  5   3.310129 5.734393 0.000000 0.000000 0.000000 1.570796
  6   0.000008 -0.000006 -5.615750 -0.040363 3.094805 -1.178503
  7   15.693467 0.000000 0.000000 0.000000 0.000000 -1.444286
  8   22.146629 0.000000 0.000000 -0.046820 0.102231 0.206750
  9   3.310129 5.734393 0.000000 0.000000 0.000000 1.570796
 10   1.384163 -0.004728 -0.066406 0.043619 0.010384 1.061878
 11   5.939814 -0.004730 0.000000 0.000000 -0.008365 0.265282
 12   5.939809 -0.003975 0.000000 0.000000 0.013950 0.265297
 13   4.991439 -0.003975 0.000000 0.000000 0.008365 0.265285
 14   4.991436 -0.001575 0.000000 0.000000 0.000000 0.000000
 15   0.000005 0.001564 3.638375 -0.000010 -1.283555 3.140806
 16   8.842831 0.000000 -0.000002 -0.892310 0.090659 -0.951119
 17   9.341934 0.000000 -0.000001 0.000000 0.000000 -0.445272
 18   11.168404 -0.000001 0.000002 -1.524881 -0.014450 -0.007725
 19   0.000005 0.001585 -3.638375 -0.000010 1.283575 3.140787
 20   8.842831 0.000000 0.000001 0.911873 -0.206139 -0.593040
 21   9.341937 0.000000 -0.000001 0.000000 0.000000 -1.077689
 22   11.168404 -0.000001 0.000001 1.503340 0.049962 -0.000040
 23   1.977383 0.000000 0.000000 0.375957 0.204676 0.782996
 24   3.723980 2.768054 -0.049087 0.000001 -3.141591 -1.570794
 25   12.421014 0.304721 4.492689 -0.091859 -0.075839 1.616818
 26   19.916998 1.704573 4.956909 2.262592 1.451744 0.734330
time 11
  0   2.259310 43.687210 16.221142 0.000000 -1.953751 -1.570844
  1   -8.405188 -0.136722 9.745319 -0.000032 -1.620790 -1.570770
  2   -0.000008 0.000010 5.615750 0.161825 3.238379 -0.965432
  3   15.693467 0.000000 0.000000 0.000000 0.000000 -1.435085
  4   22.146629 -0.000001 0.000000 0.046329 -0.092798 -0.314098
  5   3.310129 5.734393 0.000000 0.000000 0.000000 1.570796
  6   0.000008 -0.000006 -5.615750 -0.041801 3.074096 -1.331463
  7   15.693467 0.000000 0.000000 0.000000 0.000000 -1.533903
  8   22.146629 0.000000 0.000000 -0.070286 0.104595 0.185259
  9   3.310129 5.734393 0.000000 0.000000 0.000000 1.570796
 10   1.384163 -0.004728 -0.066406 0.034699 0.022003 0.767802
 11   5.939814 -0.004730 0.000000 0.000000 -0.008365 0.191700
 12   5.939809 -0.003975 0.000000 0.000000 0.013950 0.191714
 13   4.991439 -0.003975 0.000000 0.000000 0.008365 0.191702
 14   4.991436 -0.001575 0.000000 0.000000 0.000000 0.000000
 15   0.000005 0.001564 3.638375 -0.000010 -1.283555 3.140806
 16   8.842831 0.000000 -0.000002 -0.509525 0.494105 -0.606981
 17   9.341934 0.000000 -0.000001 0.000000 0.000000 -0.357610
 18   11.168404 -0.000001 0.000002 -1.538825 -0.025839 -0.005416
 19   0.000005 0.001585 -3.638375 -0.000010 1.283575 3.140787
 20   8.842831 0.000000 0.000001 0.422799 -0.423916 -0.229229
 21   9.341937 0.000000 -0.000001 0.000000 0.000000 -0.999880
 22   11.168404 -0.000001 0.000001 1.524221 0.049962 -0.000040
 23   1.977383 0.000000 0.000000 -0.072950 0.416996 0.033349
 24   3.723980 2.768054 -0.049087 0.000001 -3.141591 -1.570794
 25   12.421014 0.304721 4.492689 -0.091859 -0.075839 1.616818
 26   19.916998 1.704573 4.956909 2.262592 1.451744 0.734330
time 12
  0   2.259310 43.954880 14.496042 0.000000 -1.953751 -1.570844
  1   -5.178527 -0.140628 9.745319 -0.000032 -1.620790 -1.570770
  2   -0.000008 0.000010 5.615750 0.177260 3.242595 -1.042466
  3   15.693467 0.000000 0.000000 0.000000 0.000000 -1.548122
  4   22.146629 -0.000001 0.000000 0.065138 -0.096562 -0.281214
  5   3.310129 5.734393 0.000000 0.000000 0.000000 1.570796
  6   0.000008 -0.000006 -5.615750 -0.044965 3.051661 -1.463103
  7   15.693467 0.000000 0.000000 0.000000 0.000000 -1.618607
  8   22.146629 0.000000 0.000000 -0.096516 0.103828 0.161742
  9   3.310129 5.734393 0.000000 0.000000 0.000000 1.570796
 10   1.384163 -0.004728 -0.066406 0.019417 0.032093 0.399989
 11   5.939814 -0.004730 0.000000 0.000000 -0.008365 0.099741
 12   5.939809 -0.003975 0.000000 0.000000 0.013950 0.099755
 13   4.991439 -0.003975 0.000000 0.000000 0.008365 0.099753
 14   4.991436 -0.001575 0.000000 0.000000 0.000000 0.000000
 15   0.000005 0.001564 3.638375 -0.000010 -1.283555 3.140806
 16   8.842831 0.000000 -0.000002 0.245161 0.642479 0.078607
 17   9.341934 0.000000 -0.000001 0.000000 0.000000 -0.320463
 18   11.168404 -0.000001 0.000002 -1.568718 -0.049956 -0.000011
 19   0.000005 0.001585 -3.638375 -0.000010 1.283575 3.140787
 20   8.842831 0.000000 0.000001 -0.250422 -0.375314 0.261349
 21   9.341937 0.000000 -0.000001 0.000000 0.000000 -0.938991
 22   11.168404 -0.000001 0.000001 1.568687 0.049962 -0.000040
 23   1.977383 0.000000 0.000000 -0.423268 0.013002 -0.675192
 24   3.723980 2.768054 -0.049087 0.000001 -3.141591 -1.570794
 25   12.421014 0.304721 4.492689 -0.091859 -0.075839 1.616818
 26   19.916998 1.704573 4.956909 2.262592 1.451744 0.734330
time 13
  0   2.251774 43.715385 18.142275 0.000000 -1.953751 -1.570844
  1   -7.041865 -0.136722 9.745319 -0.000032 -1.620790 -1.570770
  2   -0.000008 0.000010 5.615750 0.213594 3.222663 -1.336837
  3   15.693467 0.000000 0.000000 0.000000 0.000000 -1.821218
  4   22.146629 -0.000001 0.000000 0.076281 -0.114022 -0.039725
  5   3.310129 5.734393 0.000000 0.000000 0.000000 1.564149
  6   0.000008 -0.000006 -5.615750 -0.048417 3.027214 -1.562481
  7   15.693467 0.000000 0.000000 0.000000 0.000000 -1.688871
  8   22.146629 0.000000 0.000000 -0.125567 0.099039 0.135319
  9   3.310129 5.734393 0.000000 0.000000 0.000000 1.570796
 10   1.384163 -0.004728 -0.066406 0.027866 0.027531 0.591862
 11   5.939814 -0.004730 0.000000 0.000000 -0.008365 0.147719
 12   5.939809 -0.003975 0.000000 0.000000 0.013950 0.147715
 13   4.991439 -0.003975 0.000000 0.000000 0.008365 0.147721
 14   4.991436 -0.001575 0.000000 0.000000 0.000000 0.000000
 15   0.000005 0.001564 3.638375 -0.000010 -1.283555 3.140806
 16   8.842831 0.000000 -0.000002 -0.164599 0.522571 -0.198047
 17   9.341934 0.000000 -0.000001 0.000000 0.000000 -0.464050
 18   11.168404 -0.000001 0.000002 -1.682367 -0.124126 0.022396
 19   0.000005 0.001585 -3.638375 -0.000010 1.283575 3.140787
 20   8.842831 0.000000 0.000001 0.158832 -0.313434 -0.065576
 21   9.341937 0.000000 -0.000001 0.000000 0.000000 -0.929065
 22   11.168404 -0.000001 0.000001 1.726601 0.049962 -0.000040
 23   1.977383 0.000000 0.000000 -0.148173 0.397343 0.157412
 24   3.723980 2.768054 -0.049087 0.000001 -3.141591 -1.570794
 25   12.421014 0.304721 4.492689 -0.091859 -0.075839 1.616818
 26   19.916998 1.704573 4.956909 2.262592 1.451744 0.734330
time 14
  0   2.251774 43.990101 19.083237 0.000000 -1.953751 -1.570844
  1   -6.830921 -0.136722 9.745319 -0.000032 -1.620790 -1.570770
  2   -0.000008 0.000010 5.615750 -2.920599 6.210143 1.538922
  3   15.693467 0.000000 0.000000 0.000000 0.000000 -2.030077
  4   22.146629 -0.000001 0.000000 0.083834 -0.114517 0.228565
  5   3.310129 5.734393 0.000000 0.000000 0.000000 1.557480
  6   0.000008 -0.000006 -5.615750 3.091447 0.141606 1.523296
  7   15.693467 0.000000 0.000000 0.000000 0.000000 -1.735093
  8   22.146629 0.000000 0.000000 -0.157044 0.089675 0.105373
  9   3.310129 5.734393 0.000000 0.000000 0.000000 1.570796
 10   1.384163 -0.004728 -0.066406 0.026856 0.028175 0.567833
 11   5.939814 -0.004730 0.000000 0.000000 -0.008365 0.141695
 12   5.939809 -0.003975 0.000000 0.000000 0.013950 0.141706
 13   4.991439 -0.003975 0.000000 0.000000 0.008365 0.141700
 14   4.991436 -0.001575 0.000000 0.000000 0.000000 0.000000
 15   0.000005 0.001564 3.638375 -0.000010 -1.283555 3.140806
 16   8.842831 0.000000 -0.000002 -0.189838 0.370848 -0.164678
 17   9.341934 0.000000 -0.000001 0.000000 0.000000 -0.792637
 18   11.168404 -0.000001 0.000002 -1.878914 -0.240598 0.079150
 19   0.000005 0.001585 -3.638375 -0.000010 1.283575 3.140787
 20   8.842831 0.000000 0.000001 0.213335 -0.121419 -0.240094
 21   9.341937 0.000000 -0.000001 0.000000 0.000000 -0.974831
 22   11.168404 -0.000001 0.000001 1.989761 0.049962 -0.000040
 23   1.977383 0.000000 0.000000 -0.136860 0.399052 0.221034
 24   3.723980 2.768054 -0.049087 0.000001 -3.141591 -1.570794
 25   12.421014 0.304721 4.492689 -0.091859 -0.075839 1.616818
 26   19.916998 1.704573 4.956909 2.262592 1.451744 0.734330
time 15
  0   2.251774 45.427082 18.906807 0.000000 -1.953751 -1.570844
  1   -6.432471 -0.136722 9.745319 -0.000032 -1.620790 -1.570770
  2   -0.000008 0.000010 5.615750 -2.954920 6.165869 1.521049
  3   15.693467 0.000000 0.000000 0.000000 0.000000 -1.998420
  4   22.146629 -0.000001 0.000000 0.118235 -0.085170 0.311531
  5   3.310129 5.734393 0.000000 0.000000 0.000000 1.552259
  6   0.000008 -0.000006 -5.615750 3.092501 0.172860 1.525961
  7   15.693467 0.000000 0.000000 0.000000 0.000000 -1.771193
  8   22.146629 0.000000 0.000000 -0.193992 0.072115 0.067235
  9   3.310129 5.734393 0.000000 0.000000 0.000000 1.570796
 10   1.384163 -0.004728 -0.066406 0.025005 0.029302 0.524925
 11   5.939814 -0.004730 0.000000 0.000000 -0.008365 0.130968
 12   5.939809 -0.003975 0.000000 0.000000 0.013950 0.130974
 13   4.991439 -0.003975 0.000000 0.000000 0.008365 0.130969
 14   4.991436 -0.001575 0.000000 0.000000 0.000000 0.000000
 15   0.000005 0.001564 3.638375 -0.000010 -1.283555 3.140806
 16   8.842831 0.000000 -0.000002 -0.188740 0.225730 -0.134669
 17   9.341934 0.000000 -0.000001 0.000000 0.000000 -1.128522
 18   11.168404 -0.000001 0.000002 -2.053782 -0.340895 0.152857
 19   0.000005 0.001585 -3.638375 -0.000010 1.283575 3.140787
 20   8.842831 0.000000 0.000001 0.190195 0.052713 -0.404986
 21   9.341937 0.000000 -0.000001 0.000000 0.000000 -1.036186
 22   11.168404 -0.000001 0.000001 2.216844 0.049962 -0.000040
 23   1.977383 0.000000 0.000000 -0.155732 0.387182 0.228838
 24   3.723980 2.768054 -0.049087 0.000001 -3.141591 -1.570794
 25   12.421014 0.304721 4.492689 -0.091859 -0.075839 1.616818
 26   19.916998 1.704573 4.956909 2.262592 1.451744 0.734330
time 16
  0   2.251774 47.145821 18.495134 0.000000 -1.953751 -1.570844
  1   -5.909018 -0.136722 9.745319 -0.000032 -1.620790 -1.570770
  2   -0.000008 0.000010 5.615750 -2.999594 6.112588 1.533952
  3   15.693467 0.000000 0.000000 0.000000 0.000000 -1.927354
  4   22.146629 -0.000001 0.000000 0.173165 -0.060825 0.374739
  5   3.310129 5.734393 0.000000 0.000000 0.000000 1.538044
  6   0.000008 -0.000006 -5.615750 -0.043335 2.933161 -1.555117
  7   15.693467 0.000000 0.000000 0.000000 0.000000 -1.807814
  8   22.146629 0.000000 0.000000 -0.235396 0.040831 0.021523
  9   3.310129 5.734393 0.000000 0.000000 0.000000 1.570796
 10   1.384163 -0.004728 -0.066406 0.022649 0.030590 0.471039
 11   5.939814 -0.004730 0.000000 0.000000 -0.008365 0.117506
 12   5.939809 -0.003975 0.000000 0.000000 0.013950 0.117507
 13   4.991439 -0.003975 0.000000 0.000000 0.008365 0.117514
 14   4.991436 -0.001575 0.000000 0.000000 0.000000 0.000000
 15   0.000005 0.001564 3.638375 -0.000010 -1.283555 3.140806
 16   8.842831 0.000000 -0.000002 -0.132594 0.153915 -0.095403
 17   9.341934 0.000000 -0.000001 0.000000 0.000000 -1.293923
 18   11.168404 -0.000001 0.000002 -2.081001 -0.389417 0.184845
 19   0.000005 0.001585 -3.638375 -0.000010 1.283575 3.140787
 20   8.842831 0.000000 0.000001 0.086834 0.109813 -0.475804
 21   9.341937 0.000000 -0.000001 0.000000 0.000000 -1.073226
 22   11.168404 -0.000001 0.000001 2.266903 0.049962 -0.000040
 23   1.977383 0.000000 0.000000 -0.193899 0.363327 0.198319
 24   3.723980 2.768054 -0.049087 0.000001 -3.141591 -1.570794
 25   12.421014 0.304721 4.492689 -0.091859 -0.075839 1.616818
 26   19.916998 1.704573 4.956909 2.262592 1.451744 0.734330
time 17
  0   2.251774 48.554623 17.867826 0.000000 -1.953751 -1.570844
  1   -5.326969 -0.140628 9.745319 -0.000032 -1.620790 -1.570770
  2   -0.000008 0.000010 5.615750 0.088678 3.369282 -1.563446
  3   15.693467 0.000000 0.000000 0.000000 0.000000 -1.828687
  4   22.146629 -0.000001 0.000000 0.238527 -0.045495 0.419515
  5   3.310129 5.734393 0.000000 0.000000 0.000000 1.518608
  6   0.000008 -0.000006 -5.615750 -0.028858 2.894716 -1.448094
  7   15.693467 0.000000 0.000000 0.000000 0.000000 -1.829994
  8   22.146629 0.000000 0.000000 -0.274488 -0.004022 -0.024277
  9   3.310129 5.734393 0.000000 0.000000 0.000000 1.570796
 10   1.384163 -0.004728 -0.066406 0.020091 0.031798 0.414108
 11   5.939814 -0.004730 0.000000 0.000000 -0.008365 0.103279
 12   5.939809 -0.003975 0.000000 0.000000 0.013950 0.103278
 13   4.991439 -0.003975 0.000000 0.000000 0.008365 0.103285
 14   4.991436 -0.001575 0.000000 0.000000 0.000000 0.000000
 15   0.000005 0.001564 3.638375 -0.000010 -1.283555 3.140806
 16   8.842831 0.000000 -0.000002 -0.031731 0.153171 -0.039042
 17   9.341934 0.000000 -0.000001 0.000000 0.000000 -1.280556
 18   11.168404 -0.000001 0.000002 -1.947009 -0.391809 0.157574
 19   0.000005 0.001585 -3.638375 -0.000010 1.283575 3.140787
 20   8.842831 0.000000 0.000001 -0.060550 0.072101 -0.431007
 21   9.341937 0.000000 -0.000001 0.000000 0.000000 -1.082086
 22   11.168404 -0.000001 0.000001 2.125302 0.047348 -0.000416
 23   1.977383 0.000000 0.000000 -0.239889 0.328964 0.147272
 24   3.723980 2.768054 -0.049087 0.000001 -3.141591 -1.570794
 25   12.421014 0.304721 4.492689 -0.091859 -0.075839 1.616818
 26   19.916998 1.704573 4.956909 2.262592 1.451744 0.734330
time 18
  0   2.251774 49.949337 17.162104 0.000000 -1.953751 -1.570844
  1   -4.768358 -0.140628 9.745319 -0.000032 -1.620790 -1.570770
  2   -0.000008 0.000010 5.615750 0.028378 3.424863 -1.488324
  3   15.693467 0.000000 0.000000 0.000000 0.000000 -1.714014
  4   22.146629 -0.000001 0.000000 0.301870 -0.037867 0.447780
  5   3.310129 5.734393 0.000000 0.000000 0.000000 1.499194
  6   0.000008 -0.000006 -5.615750 -0.001629 2.856271 -1.305374
  7   15.693467 0.000000 0.000000 0.000000 0.000000 -1.822849
  8   22.146629 0.000000 0.000000 -0.306923 -0.056979 -0.064264
  9   3.310129 5.734393 0.000000 0.000000 0.000000 1.570796
 10   1.384163 -0.004728 -0.066406 0.017667 0.032791 0.362068
 11   5.939814 -0.004730 0.000000 0.000000 -0.008365 0.090276
 12   5.939809 -0.003975 0.000000 0.000000 0.013950 0.090273
 13   4.991439 -0.003975 0.000000 0.000000 0.008365 0.090267
 14   4.991436 -0.001575 0.000000 0.000000 0.000000 0.000000
 15   0.000005 0.001564 3.638375 -0.000010 -1.283555 3.140806
 16   8.842831 0.000000 -0.000002 0.074161 0.171683 0.022320
 17   9.341934 0.000000 -0.000001 0.000000 0.000000 -1.209459
 18   11.168404 -0.000001 0.000002 -1.747310 -0.369797 0.110205
 19   0.000005 0.001585 -3.638375 -0.000010 1.283575 3.140787
 20   8.842831 0.000000 0.000001 -0.219624 0.024473 -0.337600
 21   9.341937 0.000000 -0.000001 0.000000 0.000000 -1.086283
 22   11.168404 -0.000001 0.000001 1.894956 0.041361 -0.000134
 23   1.977383 0.000000 0.000000 -0.284716 0.289244 0.091752
 24   3.723980 2.768054 -0.049087 0.000001 -3.141591 -1.570794
 25   12.421014 0.304721 4.492689 -0.091859 -0.075839 1.616818
 26   19.916998 1.704573 4.956909 2.262592 1.451744 0.734330
time 19
  0   2.251774 51.337009 16.475985 0.000000 -1.953751 -1.570844
  1   -4.338657 -0.140628 9.745319 -0.000032 -1.620790 -1.570770
  2   -0.000008 0.000010 5.615750 -0.036429 3.473352 -1.383382
  3   15.693467 0.000000 0.000000 0.000000 0.000000 -1.595143
  4   22.146629 -0.000001 0.000000 0.349583 -0.031849 0.462736
  5   3.310129 5.734393 0.000000 0.000000 0.000000 1.484957
  6   0.000008 -0.000006 -5.615750 0.040653 2.821660 -1.138317
  7   15.693467 0.000000 0.000000 0.000000 0.000000 -1.771714
  8   22.146629 0.000000 0.000000 -0.333548 -0.108126 -0.093946
  9   3.310129 5.734393 0.000000 0.000000 0.000000 1.570796
 10   1.384163 -0.004728 -0.066406 0.015816 0.033435 0.322819
 11   5.939814 -0.004730 0.000000 0.000000 -0.008365 0.080466
 12   5.939809 -0.003975 0.000000 0.000000 0.013950 0.080466
 13   4.991439 -0.003975 0.000000 0.000000 0.008365 0.080462
 14   4.991436 -0.001575 0.000000 0.000000 0.000000 0.000000
 15   0.000005 0.001564 3.638375 -0.000010 -1.283555 3.140806
 16   8.842831 0.000000 -0.000002 0.169537 0.201451 0.084355
 17   9.341934 0.000000 -0.000001 0.000000 0.000000 -1.096623
 18   11.168404 -0.000001 0.000002 -1.508550 -0.322137 0.058660
 19   0.000005 0.001585 -3.638375 -0.000010 1.283575 3.140787
 20   8.842831 0.000000 0.000001 -0.378214 -0.008901 -0.211691
 21   9.341937 0.000000 -0.000001 0.000000 0.000000 -1.086616
 22   11.168404 -0.000001 0.000001 1.610729 0.035122 0.001841
 23   1.977383 0.000000 0.000000 -0.324099 0.253357 0.045278
 24   3.723980 2.768054 -0.049087 0.000001 -3.141591 -1.570794
 25   12.421014 0.304721 4.492689 -0.091859 -0.075839 1.616818
 26   19.916998 1.704573 4.956909 2.262592 1.451744 0.734330
time 20
  0   2.251775 52.710594 15.946693 0.000000 -1.953751 -1.570844
  1   -4.131620 -0.140628 9.745319 -0.000032 -1.620790 -1.570770
  2   -0.000008 0.000010 5.615750 -0.102002 3.510055 -1.251202
  3   15.693467 0.000000 0.000000 0.000000 0.000000 -1.483814
  4   22.146629 -0.000001 0.000000 0.367756 -0.018723 0.468407
  5   3.310129 5.734393 0.000000 0.000000 0.000000 1.479758
  6   0.000008 -0.000006 -5.615750 0.098562 2.794912 -0.958707
  7   15.693467 0.000000 0.000000 0.000000 0.000000 -1.661703
  8   22.146629 0.000000 0.000000 -0.361415 -0.145058 -0.109448
  9   3.310129 5.734393 0.000000 0.000000 0.000000 1.570796
 10   1.384163 -0.004728 -0.066406 0.014941 0.033730 0.304295
 11   5.939814 -0.004730 0.000000 0.000000 -0.008365 0.075839
 12   5.939809 -0.003975 0.000000 0.000000 0.013950 0.075831
 13   4.991439 -0.003975 0.000000 0.000000 0.008365 0.075837
 14   4.991436 -0.001575 0.000000 0.000000 0.000000 0.000000
 15   0.000005 0.001564 3.638375 -0.000010 -1.283555 3.140806
 16   8.842831 0.000000 -0.000002 0.237846 0.238754 0.137132
 17   9.341934 0.000000 -0.000001 0.000000 0.000000 -0.958202
 18   11.168404 -0.000001 0.000002 -1.255274 -0.253996 0.017679
 19   0.000005 0.001585 -3.638375 -0.000010 1.283575 3.140787
 20   8.842831 0.000000 0.000001 -0.518099 -0.018374 -0.075393
 21   9.341937 0.000000 -0.000001 0.000000 0.000000 -1.083818
 22   11.168404 -0.000001 0.000001 1.307205 0.031580 0.005225
 23   1.977383 0.000000 0.000000 -0.357561 0.233242 0.019382
 24   3.723980 2.768054 -0.049087 0.000001 -3.141591 -1.570794
 25   12.421014 0.304721 4.492689 -0.091859 -0.075839 1.616818
 26   19.916998 1.704573 4.956909 2.262592 1.451744 0.734330
time 21
  0   2.251775 54.084175 15.319386 0.000000 -1.953751 -1.570844
  1   -4.069118 -0.140628 9.745319 -0.000032 -1.620790 -1.570770
  2   -0.000008 0.000010 5.615750 -0.167096 3.528454 -1.072572
  3   15.693467 0.000000 0.000000 0.000000 0.000000 -1.372413
  4   22.146629 -0.000001 0.000000 0.339936 0.009783 0.463468
  5   3.310129 5.734393 0.000000 0.000000 0.000000 1.472409
  6   0.000008 -0.000006 -5.615750 0.183029 2.782256 -0.735684
  7   15.693467 0.000000 0.000000 0.000000 0.000000 -1.451804
  8   22.146629 0.000000 0.000000 -0.402086 -0.157676 -0.110681
  9   3.310129 5.734393 0.000000 0.000000 0.000000 1.570796
 10   1.384163 -0.004728 -0.066406 0.014705 0.033810 0.298984
 11   5.939814 -0.004730 0.000000 0.000000 -0.008365 0.074500
 12   5.939809 -0.003975 0.000000 0.000000 0.013950 0.074507
 13   4.991439 -0.003975 0.000000 0.000000 0.008365 0.074508
 14   4.991436 -0.001575 0.000000 0.000000 0.000000 0.000000
 15   0.000005 0.001564 3.638375 -0.000010 -1.283555 3.140806
 16   8.842831 0.000000 -0.000002 0.288231 0.278847 0.180280
 17   9.341934 0.000000 -0.000001 0.000000 0.000000 -0.810350
 18   11.168404 -0.000001 0.000002 -1.007537 -0.176572 -0.004335
 19   0.000005 0.001585 -3.638375 -0.000010 1.283575 3.140787
 20   8.842831 0.000000 0.000001 -0.643794 -0.008724 0.055854
 21   9.341937 0.000000 -0.000001 0.000000 0.000000 -1.078755
 22   11.168404 -0.000001 0.000001 1.018783 0.032761 0.007763
 23   1.977383 0.000000 0.000000 -0.389225 0.225783 0.009093
 24   3.723980 2.768054 -0.049087 0.000001 -3.141591 -1.570794
 25   12.421014 0.304721 4.492689 -0.091859 -0.075839 1.616818
 26   19.916998 1.704573 4.956909 2.262592 1.451744 0.734330
time 22
  0   2.251775 55.457760 14.456836 0.000000 -1.953751 -1.570844
  1   -4.014429 -0.140628 9.745319 -0.000032 -1.620790 -1.570770
  2   -0.000008 0.000010 5.615750 -0.231519 3.524813 -0.843956
  3   15.693467 0.000000 0.000000 0.000000 0.000000 -1.249986
  4   22.146629 -0.000001 0.000000 0.266422 0.048640 0.441148
  5   3.310129 5.734393 0.000000 0.000000 0.000000 1.452359
  6   0.000008 -0.000006 -5.615750 0.290891 2.798459 -0.456205
  7   15.693467 0.000000 0.000000 0.000000 0.000000 -1.145663
  8   22.146629 0.000000 0.000000 -0.456352 -0.140054 -0.103282
  9   3.310129 5.734393 0.000000 0.000000 0.000000 1.570796
 10   1.384163 -0.004728 -0.066406 0.014470 0.033891 0.294192
 11   5.939814 -0.004730 0.000000 0.000000 -0.008365 0.073314
 12   5.939809 -0.003975 0.000000 0.000000 0.013950 0.073308
 13   4.991439 -0.003975 0.000000 0.000000 0.008365 0.073314
 14   4.991436 -0.001575 0.000000 0.000000 0.000000 0.000000
 15   0.000005 0.001564 3.638375 -0.000010 -1.283555 3.140806
 16   8.842831 0.000000 -0.000002 0.337702 0.313452 0.218874
 17   9.341934 0.000000 -0.000001 0.000000 0.000000 -0.669058
 18   11.168404 -0.000001 0.000002 -0.781097 -0.104220 -0.007725
 19   0.000005 0.001585 -3.638375 -0.000010 1.283575 3.140787
 20   8.842831 0.000000 0.000001 -0.770134 0.016152 0.170516
 21   9.341937 0.000000 -0.000001 0.000000 0.000000 -1.072093
 22   11.168404 -0.000001 0.000001 0.780327 0.039085 0.006541
 23   1.977383 0.000000 0.000000 -0.422951 0.219155 0.001936
 24   3.723980 2.768054 -0.049087 0.000001 -3.141591 -1.570794
 25   12.421014 0.304721 4.492689 -0.091859 -0.075839 1.616818
 26   19.916998 1.704573 4.956909 2.262592 1.451744 0.734330
time 23
  0   2.251775 56.824299 13.496269 0.000000 -1.953751 -1.570844
  1   -3.967552 -0.140628 9.745319 -0.000032 -1.620790 -1.570770
  2   -0.000008 0.000010 5.615750 -0.290957 3.502868 -0.592976
  3   15.693467 0.000000 0.000000 0.000000 0.000000 -1.123361
  4   22.146629 -0.000001 0.000000 0.161087 0.084155 0.396921
  5   3.310129 5.734393 0.000000 0.000000 0.000000 1.424981
  6   0.000008 -0.000006 -5.615750 0.395971 2.849176 -0.162559
  7   15.693467 0.000000 0.000000 0.000000 0.000000 -0.795459
  8   22.146629 0.000000 0.000000 -0.511633 -0.090135 -0.093594
  9   3.310129 5.734393 0.000000 0.000000 0.000000 1.570796
 10   1.384163 -0.004728 -0.066406 0.014268 0.033945 0.289820
 11   5.939814 -0.004730 0.000000 0.000000 -0.008365 0.072224
 12   5.939809 -0.003975 0.000000 0.000000 0.013950 0.072221
 13   4.991439 -0.003975 0.000000 0.000000 0.008365 0.072220
 14   4.991436 -0.001575 0.000000 0.000000 0.000000 0.000000
 15   0.000005 0.001564 3.638375 -0.000010 -1.283555 3.140806
 16   8.842831 0.000000 -0.000002 0.380590 0.336894 0.246122
 17   9.341934 0.000000 -0.000001 0.000000 0.000000 -0.550564
 18   11.168404 -0.000001 0.000002 -0.591426 -0.049956 -0.000011
 19   0.000005 0.001585 -3.638375 -0.000010 1.283575 3.140787
 20   8.842831 0.000000 0.000001 -0.892604 0.051385 0.250769
 21   9.341937 0.000000 -0.000001 0.000000 0.000000 -1.064699
 22   11.168404 -0.000001 0.000001 0.626328 0.049962 -0.000040
 23   1.977383 0.000000 0.000000 -0.458422 0.213382 -0.002339
 24   3.723980 2.768054 -0.049087 0.000001 -3.141591 -1.570794
 25   12.421014 0.304721 4.492689 -0.091859 -0.075839 1.616818
 26   19.916998 1.704573 4.956909 2.262592 1.451744 0.734330
time 24
  0   2.251775 58.204926 12.574910 0.000000 -1.953751 -1.570844
  1   -3.920676 -0.140628 9.745319 -0.000032 -1.620790 -1.570770
  2   -0.000008 0.000010 5.615750 -0.344259 3.469232 -0.345055
  3   15.693467 0.000000 0.000000 0.000000 0.000000 -0.999298
  4   22.146629 -0.000001 0.000000 0.043600 0.105106 0.332067
  5   3.310129 5.734393 0.000000 0.000000 0.000000 1.397582
  6   0.000008 -0.000006 -5.615750 0.476700 2.922616 0.107243
  7   15.693467 0.000000 0.000000 0.000000 0.000000 -0.453293
  8   22.146629 0.000000 0.000000 -0.553601 -0.017591 -0.085315
  9   3.310129 5.734393 0.000000 0.000000 0.000000 1.570796
 10   1.384163 -0.004728 -0.066406 0.014066 0.033998 0.285934
 11   5.939814 -0.004730 0.000000 0.000000 -0.008365 0.071230
 12   5.939809 -0.003975 0.000000 0.000000 0.013950 0.071246
 13   4.991439 -0.003975 0.000000 0.000000 0.008365 0.071245
 14   4.991436 -0.001575 0.000000 0.000000 0.000000 0.000000
 15   0.000005 0.001564 3.638375 -0.000010 -1.283555 3.140806
 16   8.842831 0.000000 -0.000002 0.418539 0.349359 0.237761
 17   9.341934 0.000000 -0.000001 0.000000 0.000000 -0.440351
 18   11.168404 -0.000001 0.000002 -0.462687 -0.028997 0.003134
 19   0.000005 0.001585 -3.638375 -0.000010 1.283575 3.140787
 20   8.842831 0.000000 0.000001 -1.059982 0.085911 0.264876
 21   9.341937 0.000000 -0.000001 0.000000 0.000000 -1.045446
 22   11.168404 -0.000001 0.000001 0.732598 0.088454 -0.024576
 23   1.977383 0.000000 0.000000 -0.495425 0.208532 -0.004128
 24   3.723980 2.768054 -0.049087 0.000001 -3.141591 -1.570794
 25   12.421014 0.304721 4.492689 -0.091859 -0.075839 1.616818
 26   19.916998 1.704573 4.956909 2.262592 1.451744 0.734330
time 25
  0   2.251775 58.204926 12.535704 0.000000 -1.953751 -1.570844
  1   -3.881612 -0.140628 9.745319 -0.000032 -1.620790 -1.570770
  2   -0.000008 0.000010 5.615750 -0.395260 3.432050 -0.123034
  3   15.693467 0.000000 0.000000 0.000000 0.000000 -0.884554
  4   22.146629 -0.000001 0.000000 -0.061473 0.109218 0.255275
  5   3.310129 5.734393 0.000000 0.000000 0.000000 1.377532
  6   0.000008 -0.000006 -5.615750 0.526460 2.995863 0.324725
  7   15.693467 0.000000 0.000000 0.000000 0.000000 -0.171418
  8   22.146629 0.000000 0.000000 -0.576109 0.057071 -0.077124
  9   3.310129 5.734393 0.000000 0.000000 0.000000 1.570796
 10   1.384163 -0.004728 -0.066406 0.013897 0.034052 0.282436
 11   5.939814 -0.004730 0.000000 0.000000 -0.008365 0.070370
 12   5.939809 -0.003975 0.000000 0.000000 0.013950 0.070372
 13   4.991439 -0.003975 0.000000 0.000000 0.008365 0.070370
 14   4.991436 -0.001575 0.000000 0.000000 0.000000 0.000000
 15   0.000005 0.001564 3.638375 -0.000010 -1.283555 3.140806
 16   8.842831 0.000000 -0.000002 0.451733 0.357360 0.201406
 17   9.341934 0.000000 -0.000001 0.000000 0.000000 -0.336945
 18   11.168404 -0.000001 0.000002 -0.392683 -0.032634 -0.003303
 19   0.000005 0.001585 -3.638375 -0.000010 1.283575 3.140787
 20   8.842831 0.000000 0.000001 -1.256869 0.104236 0.228085
 21   9.341937 0.000000 -0.000001 0.000000 0.000000 -1.016401
 22   11.168404 -0.000001 0.000001 1.047588 0.155109 -0.045916
 23   1.977383 0.000000 0.000000 -0.533592 0.204630 -0.003631
 24   3.723980 2.768054 -0.049087 0.000001 -3.141591 -1.570794
 25   12.421014 0.304721 4.492689 -0.091859 -0.075839 1.616818
 26   19.916998 1.704573 4.956909 2.262592 1.451744 0.734330
time 26
  0   2.251775 58.204926 12.516100 0.000000 -1.953751 -1.570844
  1   -3.846455 -0.140628 9.745319 -0.000032 -1.620790 -1.570770
  2   -0.000008 0.000010 5.615750 -0.452589 3.398605 0.052156
  3   15.693467 0.000000 0.000000 0.000000 0.000000 -0.785957
  4   22.146629 -0.000001 0.000000 -0.129939 0.106171 0.178667
  5   3.310129 5.734393 0.000000 0.000000 0.000000 1.370205
  6   0.000008 -0.000006 -5.615750 0.550908 3.043992 0.465972
  7   15.693467 0.000000 0.000000 0.000000 0.000000 -0.001861
  8   22.146629 0.000000 0.000000 -0.584796 0.110183 -0.065321
  9   3.310129 5.734393 0.000000 0.000000 0.000000 1.570796
 10   1.384163 -0.004728 -0.066406 0.013763 0.034079 0.279360
 11   5.939814 -0.004730 0.000000 0.000000 -0.008365 0.069605
 12   5.939809 -0.003975 0.000000 0.000000 0.013950 0.069610
 13   4.991439 -0.003975 0.000000 0.000000 0.008365 0.069597
 14   4.991436 -0.001575 0.000000 0.000000 0.000000 0.000000
 15   0.000005 0.001564 3.638375 -0.000010 -1.283555 3.140806
 16   8.842831 0.000000 -0.000002 0.472765 0.361825 0.177145
 17   9.341934 0.000000 -0.000001 0.000000 0.000000 -0.276263
 18   11.168404 -0.000001 0.000002 -0.358779 -0.037802 -0.008856
 19   0.000005 0.001585 -3.638375 -0.000010 1.283575 3.140787
 20   8.842831 0.000000 0.000001 -1.380306 0.108839 0.199110
 21   9.341937 0.000000 -0.000001 0.000000 0.000000 -0.997681
 22   11.168404 -0.000001 0.000001 1.264883 0.200010 -0.046950
 23   1.977383 0.000000 0.000000 -0.572763 0.201743 -0.001146
 24   3.723980 2.768054 -0.049087 0.000001 -3.141591 -1.570794
 25   12.421014 0.304721 4.492689 -0.091859 -0.075839 1.616818
 26   19.916998 1.704573 4.956909 2.262592 1.451744 0.734330
time 27
  0   2.251775 58.204926 12.476893 0.000000 -1.953751 -1.570844
  1   -3.815204 -0.140628 9.745319 -0.000032 -1.620790 -1.570770
  2   -0.000008 0.000010 5.615750 -0.564370 3.392664 0.128424
  3   15.693467 0.000000 0.000000 0.000000 0.000000 -0.730684
  4   22.146629 -0.000001 0.000000 -0.109299 0.146787 0.083809
  5   3.310129 5.734393 0.000000 0.000000 0.000000 1.370205
  6   0.000008 -0.000006 -5.615750 0.544197 2.992795 0.392894
  7   15.693467 0.000000 0.000000 0.000000 0.000000 -0.158541
  8   22.146629 0.000000 0.000000 -0.590493 0.097135 -0.025422
  9   3.310129 5.734393 0.000000 0.000000 0.000000 1.570796
 10   1.384163 -0.004728 -0.066406 0.013628 0.034132 0.276672
 11   5.939814 -0.004730 0.000000 0.000000 -0.008365 0.068935
 12   5.939809 -0.003975 0.000000 0.000000 0.013950 0.068935
 13   4.991439 -0.003975 0.000000 0.000000 0.008365 0.068924
 14   4.991436 -0.001575 0.000000 0.000000 0.000000 0.000000
 15   0.000005 0.001564 3.638375 -0.000010 -1.283555 3.140806
 16   8.842831 0.000000 -0.000002 0.483555 0.364243 0.175055
 17   9.341934 0.000000 -0.000001 0.000000 0.000000 -0.256992
 18   11.168404 -0.000001 0.000002 -0.337959 -0.036845 -0.009396
 19   0.000005 0.001585 -3.638375 -0.000010 1.283575 3.140787
 20   8.842831 0.000000 0.000001 -1.423038 0.112115 0.195964
 21   9.341937 0.000000 -0.000001 0.000000 0.000000 -0.995882
 22   11.168404 -0.000001 0.000001 1.311214 0.212194 -0.046668
 23   1.977383 0.000000 0.000000 -0.612568 0.199872 0.002980
 24   3.723980 2.768054 -0.049087 0.000001 -3.141591 -1.570794
 25   12.421014 0.304721 4.492689 -0.091859 -0.075839 1.616818
 26   19.916998 1.704573 4.956909 2.262592 1.451744 0.734330
time 28
  0   2.251775 58.204926 12.457290 0.000000 -1.953751 -1.570844
  1   -3.791766 -0.140628 9.745319 -0.000032 -1.620790 -1.570770
  2   -0.000008 0.000010 5.615750 -0.714786 3.415375 0.126226
  3   15.693467 0.000000 0.000000 0.000000 0.000000 -0.712757
  4   22.146629 -0.000001 0.000000 -0.031335 0.230892 -0.018412
  5   3.310129 5.734393 0.000000 0.000000 0.000000 1.370205
  6   0.000008 -0.000006 -5.615750 0.490985 2.873624 0.146938
  7   15.693467 0.000000 0.000000 0.000000 0.000000 -0.555936
  8   22.146629 0.000000 0.000000 -0.587842 0.034783 0.032885
  9   3.310129 5.734393 0.000000 0.000000 0.000000 1.570796
 10   1.384163 -0.004728 -0.066406 0.013527 0.034159 0.274373
 11   5.939814 -0.004730 0.000000 0.000000 -0.008365 0.068362
 12   5.939809 -0.003975 0.000000 0.000000 0.013950 0.068361
 13   4.991439 -0.003975 0.000000 0.000000 0.008365 0.068352
 14   4.991436 -0.001575 0.000000 0.000000 0.000000 0.000000
 15   0.000005 0.001564 3.638375 -0.000010 -1.283555 3.140806
 16   8.842831 0.000000 -0.000002 0.491328 0.366476 0.177070
 17   9.341934 0.000000 -0.000001 0.000000 0.000000 -0.251170
 18   11.168404 -0.000001 0.000002 -0.322392 -0.036271 -0.009593
 19   0.000005 0.001585 -3.638375 -0.000010 1.283575 3.140787
 20   8.842831 0.000000 0.000001 -1.448435 0.112912 0.197108
 21   9.341937 0.000000 -0.000001 0.000000 0.000000 -1.001279
 22   11.168404 -0.000001 0.000001 1.327341 0.217802 -0.046856
 23   1.977383 0.000000 0.000000 -0.652797 0.199018 0.008447
 24   3.723980 2.768054 -0.049087 0.000001 -3.141591 -1.570794
 25   12.421014 0.304721 4.492689 -0.091859 -0.075839 1.616818
 26   19.916998 1.704573 4.956909 2.262592 1.451744 0.734330
time 29
  0   2.251775 58.204926 12.437686 0.000000 -1.953751 -1.570844
  1   -3.768327 -0.140628 9.745319 -0.000032 -1.620790 -1.570770
  2   -0.000008 0.000010 5.615750 -0.814105 3.430996 0.127660
  3   15.693467 0.000000 0.000000 0.000000 0.000000 -0.689282
  4   22.146629 -0.000001 0.000000 0.022249 0.261875 -0.090127
  5   3.310129 5.734393 0.000000 0.000000 0.000000 1.370205
  6   0.000008 -0.000006 -5.615750 0.439212 2.809964 -0.012825
  7   15.693467 0.000000 0.000000 0.000000 0.000000 -0.797394
  8   22.146629 0.000000 0.000000 -0.578027 -0.005741 0.058339
  9   3.310129 5.734393 0.000000 0.000000 0.000000 1.570796
 10   1.384163 -0.004728 -0.066406 0.013426 0.034186 0.272430
 11   5.939814 -0.004730 0.000000 0.000000 -0.008365 0.067865
 12   5.939809 -0.003975 0.000000 0.000000 0.013950 0.067873
 13   4.991439 -0.003975 0.000000 0.000000 0.008365 0.067864
 14   4.991436 -0.001575 0.000000 0.000000 0.000000 0.000000
 15   0.000005 0.001564 3.638375 -0.000010 -1.283555 3.140806
 16   8.842831 0.000000 -0.000002 0.496266 0.368057 0.181475
 17   9.341934 0.000000 -0.000001 0.000000 0.000000 -0.254614
 18   11.168404 -0.000001 0.000002 -0.313224 -0.036175 -0.009543
 19   0.000005 0.001585 -3.638375 -0.000010 1.283575 3.140787
 20   8.842831 0.000000 0.000001 -1.458997 0.112380 0.200635
 21   9.341937 0.000000 -0.000001 0.000000 0.000000 -1.009872
 22   11.168404 -0.000001 0.000001 1.322120 0.218392 -0.047420
 23   1.977383 0.000000 0.000000 -0.693078 0.199157 0.015008
 24   3.723980 2.768054 -0.049087 0.000001 -3.141591 -1.570794
 25   12.421014 0.304721 4.492689 -0.091859 -0.075839 1.616818
 26   19.916998 1.704573 4.956909 2.262592 1.451744 0.734330
time 30
  0   2.251775 58.204926 12.418083 0.000000 -1.953751 -1.570844
  1   -3.748796 -0.140628 9.745319 -0.000032 -1.620790 -1.570770
  2   -0.000008 0.000010 5.615750 -0.832032 3.422850 0.155185
  3   15.693467 0.000000 0.000000 0.000000 0.000000 -0.645959
  4   22.146629 -0.000001 0.000000 0.038365 0.191465 -0.128317
  5   3.310129 5.734393 0.000000 0.000000 0.000000 1.370205
  6   0.000008 -0.000006 -5.615750 0.441992 2.822331 0.017753
  7   15.693467 0.000000 0.000000 0.000000 0.000000 -0.751618
  8   22.146629 0.000000 0.000000 -0.573570 -0.006232 0.034999
  9   3.310129 5.734393 0.000000 0.000000 0.000000 1.570796
 10   1.384163 -0.004728 -0.066406 0.013325 0.034213 0.270811
 11   5.939814 -0.004730 0.000000 0.000000 -0.008365 0.067463
 12   5.939809 -0.003975 0.000000 0.000000 0.013950 0.067474
 13   4.991439 -0.003975 0.000000 0.000000 0.008365 0.067461
 14   4.991436 -0.001575 0.000000 0.000000 0.000000 0.000000
 15   0.000005 0.001564 3.638375 -0.000010 -1.283555 3.140806
 16   8.842831 0.000000 -0.000002 0.498735 0.368336 0.186626
 17   9.341934 0.000000 -0.000001 0.000000 0.000000 -0.263060
 18   11.168404 -0.000001 0.000002 -0.311314 -0.036462 -0.009396
 19   0.000005 0.001585 -3.638375 -0.000010 1.283575 3.140787
 20   8.842831 0.000000 0.000001 -1.456981 0.111230 0.204924
 21   9.341937 0.000000 -0.000001 0.000000 0.000000 -1.017800
 22   11.168404 -0.000001 0.000001 1.304409 0.215356 -0.048172
 23   1.977383 0.000000 0.000000 -0.733200 0.200265 0.022315
 24   3.723980 2.768054 -0.049087 0.000001 -3.141591 -1.570794
 25   12.421014 0.304721 4.492689 -0.091859 -0.075839 1.616818
 26   19.916998 1.704573 4.956909 2.262592 1.451744 0.734330
time 31
  0   2.251775 58.204926 12.398479 0.000000 -1.953751 -1.570844
  1   -3.737077 -0.140628 9.745319 -0.000032 -1.620790 -1.570770
  2   -0.000008 0.000010 5.615750 -0.813146 3.410105 0.183093
  3   15.693467 0.000000 0.000000 0.000000 0.000000 -0.598795
  4   22.146629 -0.000001 0.000000 0.046030 0.072614 -0.150270
  5   3.310129 5.734393 0.000000 0.000000 0.000000 1.370205
  6   0.000008 -0.000006 -5.615750 0.462797 2.864420 0.117272
  7   15.693467 0.000000 0.000000 0.000000 0.000000 -0.596129
  8   22.146629 0.000000 0.000000 -0.569170 0.005495 -0.011066
  9   3.310129 5.734393 0.000000 0.000000 0.000000 1.570796
 10   1.384163 -0.004728 -0.066406 0.013291 0.034213 0.269548
 11   5.939814 -0.004730 0.000000 0.000000 -0.008365 0.067157
 12   5.939809 -0.003975 0.000000 0.000000 0.013950 0.067149
 13   4.991439 -0.003975 0.000000 0.000000 0.008365 0.067158
 14   4.991436 -0.001575 0.000000 0.000000 0.000000 0.000000
 15   0.000005 0.001564 3.638375 -0.000010 -1.283555 3.140806
 16   8.842831 0.000000 -0.000002 0.498827 0.367127 0.190806
 17   9.341934 0.000000 -0.000001 0.000000 0.000000 -0.272245
 18   11.168404 -0.000001 0.000002 -0.317712 -0.036845 -0.009150
 19   0.000005 0.001585 -3.638375 -0.000010 1.283575 3.140787
 20   8.842831 0.000000 0.000001 -1.444807 0.110344 0.207878
 21   9.341937 0.000000 -0.000001 0.000000 0.000000 -1.020997
 22   11.168404 -0.000001 0.000001 1.282968 0.210255 -0.048548
 23   1.977383 0.000000 0.000000 -0.772741 0.202228 0.030118
 24   3.723980 2.768054 -0.049087 0.000001 -3.141591 -1.570794
 25   12.421014 0.304721 4.492689 -0.091859 -0.075839 1.616818
 26   19.916998 1.704573 4.956909 2.262592 1.451744 0.734330
time 32
  0   2.251775 58.204926 12.398479 0.000000 -1.953751 -1.570844
  1   -3.725357 -0.140628 9.745319 -0.000032 -1.620790 -1.570770
  2   -0.000008 0.000010 5.615750 -0.779401 3.396497 0.211384
  3   15.693467 0.000000 0.000000 0.000000 0.000000 -0.549995
  4   22.146629 -0.000001 0.000000 0.048199 -0.064961 -0.162802
  5   3.310129 5.734393 0.000000 0.000000 0.000000 1.370205
  6   0.000008 -0.000006 -5.615750 0.484274 2.920985 0.241477
  7   15.693467 0.000000 0.000000 0.000000 0.000000 -0.396725
  8   22.146629 0.000000 0.000000 -0.563586 0.021521 -0.066026
  9   3.310129 5.734393 0.000000 0.000000 0.000000 1.570796
 10   1.384163 -0.004728 -0.066406 0.013224 0.034240 0.268576
 11   5.939814 -0.004730 0.000000 0.000000 -0.008365 0.066908
 12   5.939809 -0.003975 0.000000 0.000000 0.013950 0.066911
 13   4.991439 -0.003975 0.000000 0.000000 0.008365 0.066906
 14   4.991436 -0.001575 0.000000 0.000000 0.000000 0.000000
 15   0.000005 0.001564 3.638375 -0.000010 -1.283555 3.140806
 16   8.842831 0.000000 -0.000002 0.496815 0.363964 0.192448
 17   9.341934 0.000000 -0.000001 0.000000 0.000000 -0.278067
 18   11.168404 -0.000001 0.000002 -0.333184 -0.037323 -0.008954
 19   0.000005 0.001585 -3.638375 -0.000010 1.283575 3.140787
 20   8.842831 0.000000 0.000001 -1.424731 0.110521 0.207783
 21   9.341937 0.000000 -0.000001 0.000000 0.000000 -1.015668
 22   11.168404 -0.000001 0.000001 1.266841 0.204648 -0.048266
 23   1.977383 0.000000 0.000000 -0.811489 0.204930 0.038071
 24   3.723980 2.768054 -0.049087 0.000001 -3.141591 -1.570794
 25   12.421014 0.304721 4.492689 -0.091859 -0.075839 1.616818
 26   19.916998 1.704573 4.956909 2.262592 1.451744 0.734330
time 33
  0   2.251775 58.204926 12.378876 0.000000 -1.953751 -1.570844
  1   -3.717545 -0.140628 9.745319 -0.000032 -1.620790 -1.570770
  2   -0.000008 0.000010 5.615750 -0.752654 3.384518 0.239769
  3   15.693467 0.000000 0.000000 0.000000 0.000000 -0.502049
  4   22.146629 -0.000001 0.000000 0.050966 -0.192307 -0.177026
  5   3.310129 5.734393 0.000000 0.000000 0.000000 1.370205
  6   0.000008 -0.000006 -5.615750 0.496450 2.973045 0.350043
  7   15.693467 0.000000 0.000000 0.000000 0.000000 -0.219278
  8   22.146629 0.000000 0.000000 -0.556873 0.034231 -0.116318
  9   3.310129 5.734393 0.000000 0.000000 0.000000 1.570796
 10   1.384163 -0.004728 -0.066406 0.013190 0.034240 0.267928
 11   5.939814 -0.004730 0.000000 0.000000 -0.008365 0.066736
 12   5.939809 -0.003975 0.000000 0.000000 0.013950 0.066749
 13   4.991439 -0.003975 0.000000 0.000000 0.008365 0.066738
 14   4.991436 -0.001575 0.000000 0.000000 0.000000 0.000000
 15   0.000005 0.001564 3.638375 -0.000010 -1.283555 3.140806
 16   8.842831 0.000000 -0.000002 0.492974 0.358383 0.189836
 17   9.341934 0.000000 -0.000001 0.000000 0.000000 -0.276263
 18   11.168404 -0.000001 0.000002 -0.358779 -0.037802 -0.008856
 19   0.000005 0.001585 -3.638375 -0.000010 1.283575 3.140787
 20   8.842831 0.000000 0.000001 -1.399173 0.112735 0.202827
 21   9.341937 0.000000 -0.000001 0.000000 0.000000 -0.997681
 22   11.168404 -0.000001 0.000001 1.264883 0.200010 -0.046950
 23   1.977383 0.000000 0.000000 -0.849074 0.208278 0.045924
 24   3.723980 2.768054 -0.049087 0.000001 -3.141591 -1.570794
 25   12.421014 0.304721 4.492689 -0.091859 -0.075839 1.616818
 26   19.916998 1.704573 4.956909 2.262592 1.451744 0.734330
end
