version 1
nodes
  0 "Bip01" -1
  1 "Bip01 Pelvis" 0
  2 "Bip01 L Thigh" 1
  3 "Bip01 L Calf" 2
  4 "Bip01 L Foot" 3
  5 "Bip01 L Toe0" 4
  6 "Bip01 R Thigh" 1
  7 "Bip01 R Calf" 6
  8 "Bip01 R Foot" 7
  9 "Bip01 R Toe0" 8
 10 "Bip01 Spine" 1
 11 "Bip01 Spine1" 10
 12 "Bip01 Spine2" 11
 13 "Bip01 Spine3" 12
 14 "Bip01 Neck" 13
 15 "Bip01 L Clavicle" 14
 16 "Bip01 L UpperArm" 15
 17 "Bip01 L Forearm" 16
 18 "Bip01 L Hand" 17
 19 "Bip01 R Clavicle" 14
 20 "Bip01 R UpperArm" 19
 21 "Bip01 R Forearm" 20
 22 "Bip01 R Hand" 21
 23 "Bip01 Head" 14
 24 "Bone05" 23
 25 "m4" 22
 26 "SHOTGUN" 22
end
skeleton
time 0
  0   -0.061767 -0.647824 28.041988 0.000000 0.000000 -2.033353
  1   -1.373723 -0.035156 9.745319 -1.570795 -1.570451 0.000000
  2   -0.000008 0.000010 5.615750 -0.233053 3.472298 -0.563921
  3   15.693467 0.000000 0.000000 0.000000 0.000000 -0.487323
  4   22.146629 -0.000001 0.000000 0.376768 -0.144038 -0.143135
  5   3.310129 5.734393 0.000000 0.000000 0.000000 1.570796
  6   0.000008 -0.000006 -5.615750 0.212080 2.899510 0.054433
  7   15.693467 0.000000 0.000000 0.000000 0.000000 -0.482099
  8   22.146629 0.000000 0.000000 -0.158285 0.203664 0.478821
  9   3.310129 5.734393 0.000000 0.000000 0.000000 1.570796
 10   1.384163 -0.004728 0.000002 -0.372579 -0.003463 0.086548
 11   5.939814 -0.004730 0.000000 0.000000 0.000000 0.000000
 12   5.939809 -0.003975 0.000000 0.000000 0.000000 0.000000
 13   4.991439 -0.003975 0.000000 0.000000 0.000000 0.000000
 14   4.991436 -0.001575 0.000000 0.000000 0.000000 0.000000
 15   0.000005 0.001564 3.638375 -0.000010 -1.284244 3.140806
 16   8.842831 0.000000 -0.000002 -0.414972 -0.110832 -0.914689
 17   9.341934 0.000000 -0.000001 0.000000 0.000000 -0.853073
 18   11.168404 -0.000001 0.000002 -4.515872 0.471532 -0.520821
 19   0.000005 0.001585 -3.638375 -0.000010 1.284244 3.140787
 20   8.842831 0.000000 0.000001 0.953960 -0.539089 -2.198116
 21   9.341937 0.000000 -0.000001 0.000000 0.000000 -0.994883
 22   11.168404 -0.000001 0.000001 1.806863 0.075089 0.649563
 23   1.977383 0.000000 0.000000 0.835700 0.294324 0.196082
 24   3.723980 2.768054 -0.049087 0.000001 -3.141591 -1.570794
 25   12.421014 0.304721 4.492689 -0.091859 -0.075839 1.616818
 26   19.916998 1.704573 4.956909 2.262592 1.451744 0.734330
time 1
  0   0.752116 -0.647824 27.375473 0.063588 -0.030390 -1.530959
  1   -1.498727 -0.660175 9.745319 -1.570795 -1.570451 0.000000
  2   -0.000008 0.000010 5.615750 -0.256540 3.253999 -0.647072
  3   15.693467 0.000000 0.000000 0.000000 0.000000 -0.549640
  4   22.146629 -0.000001 0.000000 0.699541 0.015107 -0.139979
  5   3.310129 5.734393 0.000000 0.000000 0.000000 1.570796
  6   0.000008 -0.000006 -5.615750 0.222722 2.992028 0.127160
  7   15.693467 0.000000 0.000000 0.000000 0.000000 -0.558466
  8   22.146629 0.000000 0.000000 0.277872 0.072053 0.616133
  9   3.310129 5.734393 0.000000 0.000000 0.000000 1.570796
 10   1.384163 -0.004728 0.000002 -0.343666 -0.034993 0.142960
 11   5.939814 -0.004730 0.000000 -0.031983 -0.017641 -0.113528
 12   5.939809 -0.003975 0.000000 -0.017442 -0.028943 0.048922
 13   4.991439 -0.003975 0.000000 -0.021576 0.022064 0.017408
 14   4.991436 -0.001575 0.000000 0.000000 0.000000 0.000000
 15   0.000005 0.001564 3.638375 -0.000010 -1.278439 3.140806
 16   8.842831 0.000000 -0.000002 -0.055506 0.011495 -0.994490
 17   9.341934 0.000000 -0.000001 0.000000 0.000000 -0.711700
 18   11.168404 -0.000001 0.000002 -4.237192 0.284432 -0.419401
 19   0.000005 0.001585 -3.638375 -0.000010 1.243357 3.140787
 20   8.842831 0.000000 0.000001 0.856403 -0.654174 -2.153224
 21   9.341937 0.000000 -0.000001 0.000000 0.000000 -0.842795
 22   11.168404 -0.000001 0.000001 1.962727 0.076818 0.621172
 23   1.977383 0.000000 0.000000 0.786327 0.343605 -0.092702
 24   3.723980 2.768054 -0.049087 0.000001 -3.141591 -1.570794
 25   12.421014 0.304721 4.492689 -0.091859 -0.075839 1.616818
 26   19.916998 1.704573 4.956909 2.262592 1.451744 0.734330
time 2
  0   1.671503 -0.647824 26.708958 0.103866 0.002198 -1.538437
  1   -1.600292 -1.273475 9.745319 -1.570795 -1.570451 0.000000
  2   -0.000008 0.000010 5.615750 -0.232477 3.233396 -0.742073
  3   15.693467 0.000000 0.000000 0.000000 0.000000 -0.785033
  4   22.146629 -0.000001 0.000000 0.577491 -0.006266 0.039125
  5   3.310129 5.734393 0.000000 0.000000 0.000000 1.570796
  6   0.000008 -0.000006 -5.615750 0.131927 2.898455 -0.011072
  7   15.693467 0.000000 0.000000 0.000000 0.000000 -0.711871
  8   22.146629 0.000000 0.000000 0.276067 0.109016 0.673736
  9   3.310129 5.734393 0.000000 0.000000 0.000000 1.570796
 10   1.384163 -0.004728 0.000002 -0.316503 -0.068107 0.198563
 11   5.939814 -0.004730 0.000000 -0.061800 -0.038782 -0.226521
 12   5.939809 -0.003975 0.000000 -0.036301 -0.056999 0.098418
 13   4.991439 -0.003975 0.000000 -0.042779 0.044511 0.034344
 14   4.991436 -0.001575 0.000000 0.000000 0.000000 0.000000
 15   0.000005 0.001564 3.638375 -0.000010 -1.272635 3.140806
 16   8.842831 0.000000 -0.000002 0.293718 0.173916 -0.998074
 17   9.341934 0.000000 -0.000001 0.000000 0.000000 -0.570326
 18   11.168404 -0.000001 0.000002 -3.988309 0.079435 -0.376307
 19   0.000005 0.001585 -3.638375 -0.000010 1.199538 3.140787
 20   8.842831 0.000000 0.000001 0.719098 -0.778997 -2.075734
 21   9.341937 0.000000 -0.000001 0.000000 0.000000 -0.676983
 22   11.168404 -0.000001 0.000001 2.129124 0.086431 0.592687
 23   1.977383 0.000000 0.000000 0.702381 0.378268 -0.384220
 24   3.723980 2.768054 -0.049087 3.141593 -0.000001 1.569820
 25   12.421014 0.304721 4.492689 -0.091859 -0.075839 1.616818
 26   19.916998 1.704573 4.956909 2.262592 1.451744 0.734330
time 3
  0   2.636106 -0.647824 26.101252 0.142746 0.033830 -1.543327
  1   -1.795611 -1.796929 9.745319 -1.570795 -1.570451 0.000000
  2   -0.000008 0.000010 5.615750 -0.214550 3.188931 -0.797603
  3   15.693467 0.000000 0.000000 0.000000 0.000000 -0.927023
  4   22.146629 -0.000001 0.000000 0.446206 -0.015627 0.169062
  5   3.310129 5.734393 0.000000 0.000000 0.000000 1.570796
  6   0.000008 -0.000006 -5.615750 0.034229 2.826166 -0.129456
  7   15.693467 0.000000 0.000000 0.000000 0.000000 -0.825753
  8   22.146629 0.000000 0.000000 0.271949 0.144444 0.720417
  9   3.310129 5.734393 0.000000 0.000000 0.000000 1.570796
 10   1.384163 -0.004728 0.000002 -0.285705 -0.113591 0.233926
 11   5.939814 -0.004730 0.000000 -0.079097 -0.049089 -0.267232
 12   5.939809 -0.003975 0.000000 -0.043293 -0.075048 0.129800
 13   4.991439 -0.003975 0.000000 -0.052211 0.058748 0.044923
 14   4.991436 -0.001575 0.000000 0.000000 0.000000 0.000000
 15   0.000005 0.001564 3.638375 -0.000010 -1.266069 3.140806
 16   8.842831 0.000000 -0.000002 0.587801 0.313080 -0.954403
 17   9.341934 0.000000 -0.000001 0.000000 0.000000 -0.493407
 18   11.168404 -0.000001 0.000002 -3.819936 -0.067279 -0.376995
 19   0.000005 0.001585 -3.638375 -0.000010 1.154948 3.140787
 20   8.842831 0.000000 0.000001 0.510197 -0.859203 -1.905409
 21   9.341937 0.000000 -0.000001 0.000000 0.000000 -0.507774
 22   11.168404 -0.000001 0.000001 2.298132 0.101482 0.566083
 23   1.977383 0.000000 0.000000 0.615740 0.376074 -0.535372
 24   3.723980 2.768054 -0.049087 3.141593 -0.000001 1.567232
 25   12.421014 0.304721 4.492689 -0.091859 -0.075839 1.616818
 26   19.916998 1.704573 4.956909 2.262592 1.451744 0.734330
time 4
  0   3.585637 -0.647824 25.513149 0.178083 0.062309 -1.545628
  1   -2.154997 -2.261787 9.745319 -1.570795 -1.570451 0.000000
  2   -0.000008 0.000010 5.615750 -0.198924 3.135554 -0.845295
  3   15.693467 0.000000 0.000000 0.000000 0.000000 -1.026046
  4   22.146629 -0.000001 0.000000 0.311742 -0.014711 0.263965
  5   3.310129 5.734393 0.000000 0.000000 0.000000 1.570796
  6   0.000008 -0.000006 -5.615750 -0.064907 2.774107 -0.239845
  7   15.693467 0.000000 0.000000 0.000000 0.000000 -0.923929
  8   22.146629 0.000000 0.000000 0.264334 0.175635 0.763398
  9   3.310129 5.734393 0.000000 0.000000 0.000000 1.570796
 10   1.384163 -0.004728 0.000002 -0.245751 -0.175525 0.245940
 11   5.939814 -0.004730 0.000000 -0.083839 -0.042737 -0.217916
 12   5.939809 -0.003975 0.000000 -0.034094 -0.082574 0.139407
 13   4.991439 -0.003975 0.000000 -0.047502 0.063123 0.048809
 14   4.991436 -0.001575 0.000000 0.000000 0.000000 0.000000
 15   0.000005 0.001564 3.638375 -0.000010 -1.258269 3.140806
 16   8.842831 0.000000 -0.000002 0.810467 0.362011 -0.881918
 17   9.341934 0.000000 -0.000001 0.000000 0.000000 -0.567374
 18   11.168404 -0.000001 0.000002 -3.770082 -0.120011 -0.396110
 19   0.000005 0.001585 -3.638375 -0.000010 1.111850 3.140787
 20   8.842831 0.000000 0.000001 0.273401 -0.852120 -1.667983
 21   9.341937 0.000000 -0.000001 0.000000 0.000000 -0.345360
 22   11.168404 -0.000001 0.000001 2.461639 0.118894 0.542298
 23   1.977383 0.000000 0.000000 0.527883 0.352704 -0.578416
 24   3.723980 2.768054 -0.049087 3.141593 -0.000001 1.563878
 25   12.421014 0.304721 4.492689 -0.091859 -0.075839 1.616818
 26   19.916998 1.704573 4.956909 2.262592 1.451744 0.734330
time 5
  0   4.437201 -0.647824 24.905445 0.208944 0.086678 -1.545628
  1   -2.596417 -2.742270 9.745319 -1.570795 -1.570451 0.000000
  2   -0.000008 0.000010 5.615750 -0.182531 3.083327 -0.896810
  3   15.693467 0.000000 0.000000 0.000000 0.000000 -1.105364
  4   22.146629 -0.000001 0.000000 0.178886 -0.010278 0.331884
  5   3.310129 5.734393 0.000000 0.000000 0.000000 1.570796
  6   0.000008 -0.000006 -5.615750 -0.158291 2.743619 -0.341608
  7   15.693467 0.000000 0.000000 0.000000 0.000000 -1.016151
  8   22.146629 0.000000 0.000000 0.251416 0.198630 0.807261
  9   3.310129 5.734393 0.000000 0.000000 0.000000 1.570796
 10   1.384163 -0.004728 0.000002 -0.198931 -0.246073 0.245810
 11   5.939814 -0.004730 0.000000 -0.082081 -0.028415 -0.125575
 12   5.939809 -0.003975 0.000000 -0.016970 -0.085690 0.139307
 13   4.991439 -0.003975 0.000000 -0.036190 0.063147 0.049935
 14   4.991436 -0.001575 0.000000 0.000000 0.000000 0.000000
 15   0.000005 0.001564 3.638375 -0.000010 -1.249671 3.140806
 16   8.842831 0.000000 -0.000002 0.973146 0.347778 -0.811896
 17   9.341934 0.000000 -0.000001 0.000000 0.000000 -0.705796
 18   11.168404 -0.000001 0.000002 -3.793195 -0.110441 -0.407461
 19   0.000005 0.001585 -3.638375 -0.000010 1.072403 3.140787
 20   8.842831 0.000000 0.000001 0.096750 -0.782273 -1.459533
 21   9.341937 0.000000 -0.000001 0.000000 0.000000 -0.200133
 22   11.168404 -0.000001 0.000001 2.611723 0.135041 0.520958
 23   1.977383 0.000000 0.000000 0.421524 0.319888 -0.626431
 24   3.723980 2.768054 -0.049087 3.141593 -0.000001 1.560523
 25   12.421014 0.304721 4.492689 -0.091859 -0.075839 1.616818
 26   19.916998 1.704573 4.956909 2.262592 1.451744 0.734330
time 6
  0   5.130508 -0.647824 24.278137 0.235424 0.107416 -1.544765
  1   -3.026117 -3.230566 9.745319 -1.570795 -1.570451 0.000000
  2   -0.000008 0.000010 5.615750 -0.164220 3.037808 -0.956448
  3   15.693467 0.000000 0.000000 0.000000 0.000000 -1.177070
  4   22.146629 -0.000001 0.000000 0.049620 -0.008074 0.379175
  5   3.310129 5.734393 0.000000 0.000000 0.000000 1.570796
  6   0.000008 -0.000006 -5.615750 -0.239786 2.733457 -0.433342
  7   15.693467 0.000000 0.000000 0.000000 0.000000 -1.108596
  8   22.146629 0.000000 0.000000 0.230940 0.211401 0.854911
  9   3.310129 5.734393 0.000000 0.000000 0.000000 1.570796
 10   1.384163 -0.004728 0.000002 -0.150663 -0.317721 0.235869
 11   5.939814 -0.004730 0.000000 -0.075315 -0.011325 -0.015986
 12   5.939809 -0.003975 0.000000 0.003343 -0.085965 0.133935
 13   4.991439 -0.003975 0.000000 -0.022021 0.060750 0.049195
 14   4.991436 -0.001575 0.000000 0.000000 0.000000 0.000000
 15   0.000005 0.001564 3.638375 -0.000010 -1.240892 3.140806
 16   8.842831 0.000000 -0.000002 1.104642 0.363034 -0.789128
 17   9.341934 0.000000 -0.000001 0.000000 0.000000 -0.713422
 18   11.168404 -0.000001 0.000002 -3.819936 -0.067279 -0.376995
 19   0.000005 0.001585 -3.638375 -0.000010 1.038767 3.140787
 20   8.842831 0.000000 0.000001 0.002661 -0.688080 -1.310558
 21   9.341937 0.000000 -0.000001 0.000000 0.000000 -0.082486
 22   11.168404 -0.000001 0.000001 2.740553 0.146551 0.500558
 23   1.977383 0.000000 0.000000 0.317385 0.288689 -0.659882
 24   3.723980 2.768054 -0.049087 3.141593 -0.000001 1.557935
 25   12.421014 0.304721 4.492689 -0.091859 -0.075839 1.616818
 26   19.916998 1.704573 4.956909 2.262592 1.451744 0.734330
time 7
  0   5.597738 -0.647824 23.611622 0.264980 0.135130 -1.552723
  1   -3.354252 -3.699331 9.745319 -1.570795 -1.570451 0.000000
  2   -0.000008 0.000010 5.615750 -0.146389 2.999764 -1.030232
  3   15.693467 0.000000 0.000000 0.000000 0.000000 -1.244366
  4   22.146629 -0.000001 0.000000 -0.084881 -0.015281 0.413386
  5   3.310129 5.734393 0.000000 0.000000 0.000000 1.570796
  6   0.000008 -0.000006 -5.615750 -0.316871 2.738634 -0.530756
  7   15.693467 0.000000 0.000000 0.000000 0.000000 -1.209601
  8   22.146629 0.000000 0.000000 0.197320 0.213181 0.908638
  9   3.310129 5.734393 0.000000 0.000000 0.000000 1.570796
 10   1.384163 -0.004728 0.000002 -0.107209 -0.383304 0.220001
 11   5.939814 -0.004730 0.000000 -0.066524 0.003763 0.085036
 12   5.939809 -0.003975 0.000000 0.022138 -0.085115 0.127689
 13   4.991439 -0.003975 0.000000 -0.008699 0.057826 0.047497
 14   4.991436 -0.001575 0.000000 0.000000 0.000000 0.000000
 15   0.000005 0.001564 3.638375 -0.000010 -1.231459 3.140806
 16   8.842831 0.000000 -0.000002 1.134362 0.700991 -0.985084
 17   9.341934 0.000000 -0.000001 0.000000 0.000000 -0.002536
 18   11.168404 -0.000001 0.000002 -3.811245 0.135709 -0.125410
 19   0.000005 0.001585 -3.638375 -0.000010 1.013155 3.140787
 20   8.842831 0.000000 0.000001 -0.026364 -0.603006 -1.216007
 21   9.341937 0.000000 -0.000001 0.000000 0.000000 -0.002478
 22   11.168404 -0.000001 0.000001 2.839832 0.149966 0.479124
 23   1.977383 0.000000 0.000000 0.233546 0.269383 -0.662914
 24   3.723980 2.768054 -0.049087 3.141593 -0.000001 1.556977
 25   12.421014 0.304721 4.492689 -0.091859 -0.075839 1.616818
 26   19.916998 1.704573 4.956909 2.262592 1.451744 0.734330
time 8
  0   5.763529 -0.647824 23.199949 0.363065 0.265196 -1.634506
  1   -3.518320 -4.101686 9.745319 -1.570795 -1.570451 0.000000
  2   -0.000008 0.000010 5.615750 -0.190488 2.965169 -1.137276
  3   15.693467 0.000000 0.000000 0.000000 0.000000 -1.271184
  4   22.146629 -0.000001 0.000000 -0.219046 -0.040715 0.474719
  5   3.310129 5.734393 0.000000 0.000000 0.000000 1.570796
  6   0.000008 -0.000006 -5.615750 -0.398942 2.740839 -0.626347
  7   15.693467 0.000000 0.000000 0.000000 0.000000 -1.313359
  8   22.146629 0.000000 0.000000 0.093357 0.147391 1.061012
  9   3.310129 5.734393 0.000000 0.000000 0.000000 1.570796
 10   1.384163 -0.004728 0.000002 -0.076242 -0.436222 0.204068
 11   5.939814 -0.004730 0.000000 -0.060344 0.013231 0.151543
 12   5.939809 -0.003975 0.000000 0.034655 -0.085055 0.124903
 13   4.991439 -0.003975 0.000000 0.000043 0.056280 0.045781
 14   4.991436 -0.001575 0.000000 0.000000 0.000000 0.000000
 15   0.000005 0.001564 3.638375 -0.000010 -1.219306 3.140806
 16   8.842831 0.000000 -0.000002 1.084250 0.669921 -1.131026
 17   9.341934 0.000000 -0.000001 0.000000 0.000000 0.082173
 18   11.168404 -0.000001 0.000002 -3.815542 0.107380 -0.161133
 19   0.000005 0.001585 -3.638375 -0.000010 0.998703 3.140787
 20   8.842831 0.000000 0.000001 -0.003548 -0.544401 -1.177692
 21   9.341937 0.000000 -0.000001 0.000000 0.000000 0.024568
 22   11.168404 -0.000001 0.000001 2.883086 0.143094 0.451580
 23   1.977383 0.000000 0.000000 0.186181 0.268298 -0.620864
 24   3.723980 2.768054 -0.049087 3.141593 -0.000001 1.558318
 25   12.421014 0.304721 4.492689 -0.091859 -0.075839 1.616818
 26   19.916998 1.704573 4.956909 2.262592 1.451744 0.734330
time 9
  0   5.725849 -0.647824 22.533434 0.413413 0.342413 -1.679280
  1   -3.393316 -4.507949 9.745319 -1.570795 -1.570451 0.000000
  2   -0.000008 0.000010 5.615750 -0.197869 2.977819 -1.217846
  3   15.693467 0.000000 0.000000 0.000000 0.000000 -1.330228
  4   22.146629 -0.000001 0.000000 -0.295701 -0.079127 0.533170
  5   3.310129 5.734393 0.000000 0.000000 0.000000 1.570796
  6   0.000008 -0.000006 -5.615750 -0.479670 2.748605 -0.775941
  7   15.693467 0.000000 0.000000 0.000000 0.000000 -1.415704
  8   22.146629 0.000000 0.000000 0.049471 0.145918 1.106107
  9   3.310129 5.734393 0.000000 0.000000 0.000000 1.570796
 10   1.384163 -0.004728 0.000002 -0.061129 -0.485463 0.178355
 11   5.939814 -0.004730 0.000000 -0.058302 0.016742 0.176173
 12   5.939809 -0.003975 0.000000 0.039644 -0.085738 0.125815
 13   4.991439 -0.003975 0.000000 0.003388 0.056124 0.043830
 14   4.991436 -0.001575 0.000000 0.000000 0.000000 0.000000
 15   0.000005 0.001564 3.638375 -0.000010 -1.206028 3.140806
 16   8.842831 0.000000 -0.000002 1.046484 0.615502 -1.224413
 17   9.341934 0.000000 -0.000001 0.000000 0.000000 0.081107
 18   11.168404 -0.000001 0.000002 -3.821559 0.042972 -0.241179
 19   0.000005 0.001585 -3.638375 -0.000010 0.994640 3.140787
 20   8.842831 0.000000 0.000001 0.051197 -0.531299 -1.181599
 21   9.341937 0.000000 -0.000001 0.000000 0.000000 0.001785
 22   11.168404 -0.000001 0.000001 2.870128 0.125344 0.417455
 23   1.977383 0.000000 0.000000 0.183115 0.291576 -0.516832
 24   3.723980 2.768054 -0.049087 3.141593 -0.000001 1.562919
 25   12.421014 0.304721 4.492689 -0.091859 -0.075839 1.616818
 26   19.916998 1.704573 4.956909 2.262592 1.451744 0.734330
time 10
  0   5.605274 -0.647824 21.827711 0.459659 0.418674 -1.719932
  1   -3.045649 -4.937650 9.745319 -1.570795 -1.570790 0.000000
  2   -0.000008 0.000010 5.615750 -0.201225 2.998709 -1.308069
  3   15.693467 0.000000 0.000000 0.000000 0.000000 -1.415522
  4   22.146629 -0.000001 0.000000 -0.371869 -0.116969 0.606577
  5   3.310129 5.734393 0.000000 0.000000 0.000000 1.570796
  6   0.000008 -0.000006 -5.615750 -0.558864 2.773532 -0.923220
  7   15.693467 0.000000 0.000000 0.000000 0.000000 -1.532860
  8   22.146629 0.000000 0.000000 0.007672 0.145334 1.162565
  9   3.310129 5.734393 0.000000 0.000000 0.000000 1.570796
 10   1.384163 -0.004728 0.000002 -0.056148 -0.535482 0.140175
 11   5.939814 -0.004730 0.000000 -0.058071 0.017006 0.176211
 12   5.939809 -0.003975 0.000000 0.040257 -0.085882 0.127539
 13   4.991439 -0.003975 0.000000 0.003804 0.056112 0.041005
 14   4.991436 -0.001575 0.000000 0.000000 0.000000 0.000000
 15   0.000005 0.001564 3.638375 -0.000010 -1.194528 3.140806
 16   8.842831 0.000000 -0.000002 1.017313 0.554199 -1.241583
 17   9.341934 0.000000 -0.000001 0.000000 0.000000 0.038219
 18   11.168404 -0.000001 0.000002 -3.822323 -0.026030 -0.325990
 19   0.000005 0.001585 -3.638375 -0.000010 0.997520 3.140787
 20   8.842831 0.000000 0.000001 0.122470 -0.554847 -1.204189
 21   9.341937 0.000000 -0.000001 0.000000 0.000000 -0.053641
 22   11.168404 -0.000001 0.000001 2.832934 0.096675 0.382013
 23   1.977383 0.000000 0.000000 0.217476 0.326262 -0.364885
 24   3.723980 2.768054 -0.049087 0.000001 -3.141591 -1.570123
 25   12.421014 0.304721 4.492689 -0.091859 -0.075839 1.616818
 26   19.916998 1.704573 4.956909 2.262592 1.451744 0.734330
time 11
  0   5.424411 -0.647824 21.102386 0.503760 0.495892 -1.757707
  1   -2.690170 -5.269691 9.745319 -1.570795 -1.570451 0.000000
  2   -0.000008 0.000010 5.615750 -0.199116 3.023817 -1.398388
  3   15.693467 0.000000 0.000000 0.000000 0.000000 -1.509138
  4   22.146629 -0.000001 0.000000 -0.450132 -0.153870 0.688811
  5   3.310129 5.734393 0.000000 0.000000 0.000000 1.570796
  6   0.000008 -0.000006 -5.615750 -0.634990 2.813607 -1.064467
  7   15.693467 0.000000 0.000000 0.000000 0.000000 -1.653143
  8   22.146629 0.000000 0.000000 -0.031589 0.145457 1.222898
  9   3.310129 5.734393 0.000000 0.000000 0.000000 1.570796
 10   1.384163 -0.004728 0.000002 -0.058605 -0.573802 0.107662
 11   5.939814 -0.004730 0.000000 -0.058888 0.015424 0.162538
 12   5.939809 -0.003975 0.000000 0.038381 -0.085714 0.129725
 13   4.991439 -0.003975 0.000000 0.002541 0.056172 0.037691
 14   4.991436 -0.001575 0.000000 0.000000 0.000000 0.000000
 15   0.000005 0.001564 3.638375 -0.000010 -1.187599 3.140806
 16   8.842831 0.000000 -0.000002 0.972872 0.492803 -1.181713
 17   9.341934 0.000000 -0.000001 0.000000 0.000000 -0.002536
 18   11.168404 -0.000001 0.000002 -3.819936 -0.067279 -0.376995
 19   0.000005 0.001585 -3.638375 -0.000010 1.003898 3.140787
 20   8.842831 0.000000 0.000001 0.192937 -0.587956 -1.225253
 21   9.341937 0.000000 -0.000001 0.000000 0.000000 -0.124722
 22   11.168404 -0.000001 0.000001 2.803196 0.059153 0.349862
 23   1.977383 0.000000 0.000000 0.274620 0.347508 -0.197827
 24   3.723980 2.768054 -0.049087 0.000001 -3.141591 -1.548845
 25   12.421014 0.304721 4.492689 -0.091859 -0.075839 1.616818
 26   19.916998 1.704573 4.956909 2.262592 1.451744 0.734330
time 12
  0   5.175725 -0.647824 20.298647 0.546183 0.573874 -1.792990
  1   -2.533915 -5.398601 9.745319 -1.570795 -1.570451 0.000000
  2   -0.000008 0.000010 5.615750 -0.187899 3.043174 -1.478480
  3   15.693467 0.000000 0.000000 0.000000 0.000000 -1.591302
  4   22.146629 -0.000001 0.000000 -0.537294 -0.186165 0.773149
  5   3.310129 5.734393 0.000000 0.000000 0.000000 1.570796
  6   0.000008 -0.000006 -5.615750 -0.698748 2.852148 -1.205575
  7   15.693467 0.000000 0.000000 0.000000 0.000000 -1.762187
  8   22.146629 0.000000 0.000000 -0.084219 0.156663 1.274423
  9   3.310129 5.734393 0.000000 0.000000 0.000000 1.570796
 10   1.384163 -0.004728 0.000002 -0.067996 -0.587595 0.099890
 11   5.939814 -0.004730 0.000000 -0.059953 0.013411 0.146074
 12   5.939809 -0.003975 0.000000 0.035867 -0.085474 0.131999
 13   4.991439 -0.003975 0.000000 0.000876 0.056244 0.034294
 14   4.991436 -0.001575 0.000000 0.000000 0.000000 0.000000
 15   0.000005 0.001564 3.638375 -0.000010 -1.184806 3.140806
 16   8.842831 0.000000 -0.000002 0.899899 0.427965 -1.085041
 17   9.341934 0.000000 -0.000001 0.000000 0.000000 -0.028285
 18   11.168404 -0.000001 0.000002 -3.818694 -0.080294 -0.393063
 19   0.000005 0.001585 -3.638375 -0.000010 1.010275 3.140787
 20   8.842831 0.000000 0.000001 0.240264 -0.606458 -1.223537
 21   9.341937 0.000000 -0.000001 0.000000 0.000000 -0.194337
 22   11.168404 -0.000001 0.000001 2.811959 0.017119 0.322787
 23   1.977383 0.000000 0.000000 0.327852 0.340210 -0.054081
 24   3.723980 2.768054 -0.049087 0.000001 -3.141591 -1.512519
 25   12.421014 0.304721 4.492689 -0.091859 -0.075839 1.616818
 26   19.916998 1.704573 4.956909 2.262592 1.451744 0.734330
time 13
  0   4.874286 -0.647824 19.338081 0.587114 0.652429 -1.825876
  1   -2.783922 -5.199377 9.745319 -1.570795 -1.570451 0.000000
  2   -0.000008 0.000010 5.615750 -0.176874 3.060328 -1.541559
  3   15.693467 0.000000 0.000000 0.000000 0.000000 -1.648639
  4   22.146629 -0.000001 0.000000 -0.622961 -0.210163 0.849987
  5   3.310129 5.734393 0.000000 0.000000 0.000000 1.570796
  6   0.000008 -0.000006 -5.615750 -0.751959 2.885896 -1.349487
  7   15.693467 0.000000 0.000000 0.000000 0.000000 -1.849347
  8   22.146629 0.000000 0.000000 -0.150444 0.181100 1.306747
  9   3.310129 5.734393 0.000000 0.000000 0.000000 1.570796
 10   1.384163 -0.004728 0.000002 -0.082739 -0.563524 0.134638
 11   5.939814 -0.004730 0.000000 -0.060451 0.012392 0.137737
 12   5.939809 -0.003975 0.000000 0.034617 -0.085378 0.133985
 13   4.991439 -0.003975 0.000000 0.000043 0.056280 0.031233
 14   4.991436 -0.001575 0.000000 0.000000 0.000000 0.000000
 15   0.000005 0.001564 3.638375 -0.000010 -1.183500 3.140806
 16   8.842831 0.000000 -0.000002 0.785046 0.349639 -1.019050
 17   9.341934 0.000000 -0.000001 0.000000 0.000000 -0.055920
 18   11.168404 -0.000001 0.000002 -3.818121 -0.086324 -0.400630
 19   0.000005 0.001585 -3.638375 -0.000010 1.013155 3.140787
 20   8.842831 0.000000 0.000001 0.242360 -0.586540 -1.178931
 21   9.341937 0.000000 -0.000001 0.000000 0.000000 -0.245233
 22   11.168404 -0.000001 0.000001 2.889518 -0.023608 0.300131
 23   1.977383 0.000000 0.000000 0.346195 0.301391 0.026689
 24   3.723980 2.768054 -0.049087 0.000001 -3.141591 -1.470251
 25   12.421014 0.304721 4.492689 -0.091859 -0.075839 1.616818
 26   19.916998 1.704573 4.956909 2.262592 1.451744 0.734330
time 14
  0   4.535168 -0.647824 17.436552 0.620680 0.718560 -1.851571
  1   -4.147245 -4.004027 9.745319 -1.570795 -1.570451 0.000000
  2   -0.000008 0.000010 5.615750 -0.158372 3.072594 -1.558094
  3   15.693467 0.000000 0.000000 0.000000 0.000000 -1.706687
  4   22.146629 -0.000001 0.000000 -0.603965 -0.269874 0.788654
  5   3.310129 5.734393 0.000000 0.000000 0.000000 1.570796
  6   0.000008 -0.000006 -5.615750 -0.740742 2.861256 -1.391357
  7   15.693467 0.000000 0.000000 0.000000 0.000000 -1.895123
  8   22.146629 0.000000 0.000000 -0.113157 0.203757 1.161068
  9   3.310129 5.734393 0.000000 0.000000 0.000000 1.570796
 10   1.384163 -0.004728 0.000002 -0.105358 -0.427474 0.284962
 11   5.939814 -0.004730 0.000000 -0.060451 0.012452 0.138712
 12   5.939809 -0.003975 0.000000 0.034604 -0.085426 0.135497
 13   4.991439 -0.003975 0.000000 0.000043 0.056280 0.028811
 14   4.991436 -0.001575 0.000000 0.000000 0.000000 0.000000
 15   0.000005 0.001564 3.638375 -0.000010 -1.183318 3.140806
 16   8.842831 0.000000 -0.000002 0.546012 0.252893 -1.074889
 17   9.341934 0.000000 -0.000001 0.000000 0.000000 -0.086180
 18   11.168404 -0.000001 0.000002 -3.818025 -0.087089 -0.401613
 19   0.000005 0.001585 -3.638375 -0.000010 1.013155 3.140787
 20   8.842831 0.000000 0.000001 0.203095 -0.425509 -1.090670
 21   9.341937 0.000000 -0.000001 0.000000 0.000000 -0.279808
 22   11.168404 -0.000001 0.000001 3.049204 -0.059402 0.279449
 23   1.977383 0.000000 0.000000 0.276734 0.186571 -0.043793
 24   3.723980 2.768054 -0.049087 0.000001 -3.141591 -1.430953
 25   12.421014 0.304721 4.492689 -0.091859 -0.075839 1.616818
 26   19.916998 1.704573 4.956909 2.262592 1.451744 0.734330
time 15
  0   4.158370 -0.647824 14.888110 0.655271 0.788132 -1.876786
  1   -6.112149 -1.980528 9.745319 -1.570795 -1.570790 0.000000
  2   -0.000008 0.000010 5.615750 2.998925 0.058665 1.554309
  3   15.693467 0.000000 0.000000 0.000000 0.000000 -1.783159
  4   22.146629 -0.000001 0.000000 -0.570574 -0.328916 0.718906
  5   3.310129 5.734393 0.000000 0.000000 0.000000 1.570796
  6   0.000008 -0.000006 -5.615750 -0.727894 2.839014 -1.433647
  7   15.693467 0.000000 0.000000 0.000000 0.000000 -1.942760
  8   22.146629 0.000000 0.000000 -0.077901 0.221563 0.997244
  9   3.310129 5.734393 0.000000 0.000000 0.000000 1.570796
 10   1.384163 -0.004728 0.000002 -0.093712 -0.207780 0.495877
 11   5.939814 -0.004730 0.000000 -0.060415 0.012656 0.142020
 12   5.939809 -0.003975 0.000000 0.034604 -0.085474 0.136908
 13   4.991439 -0.003975 0.000000 0.000043 0.056280 0.026557
 14   4.991436 -0.001575 0.000000 0.000000 0.000000 0.000000
 15   0.000005 0.001564 3.638375 -0.000010 -1.183935 3.140806
 16   8.842831 0.000000 -0.000002 0.219191 0.157543 -1.189626
 17   9.341934 0.000000 -0.000001 0.000000 0.000000 -0.119801
 18   11.168404 -0.000001 0.000002 -3.818312 -0.084218 -0.397977
 19   0.000005 0.001585 -3.638375 -0.000010 1.013155 3.140787
 20   8.842831 0.000000 0.000001 0.186728 -0.168604 -0.991068
 21   9.341937 0.000000 -0.000001 0.000000 0.000000 -0.311984
 22   11.168404 -0.000001 0.000001 3.269389 -0.091486 0.256793
 23   1.977383 0.000000 0.000000 0.162922 0.006882 -0.196138
 24   3.723980 2.768054 -0.049087 0.000001 -3.141591 -1.430953
 25   12.421014 0.304721 4.492689 -0.091859 -0.075839 1.616818
 26   19.916998 1.704573 4.956909 2.262592 1.451744 0.734330
time 16
  0   3.751428 -0.647824 13.143409 0.690887 0.860189 -1.900851
  1   -7.256715 -0.500014 9.745319 -1.570795 -1.570790 0.000000
  2   -0.000008 0.000010 5.615750 3.015414 0.048795 1.528313
  3   15.693467 0.000000 0.000000 0.000000 0.000000 -1.858778
  4   22.146629 -0.000001 0.000000 -0.520430 -0.387264 0.637129
  5   3.310129 5.734393 0.000000 0.000000 0.000000 1.570796
  6   0.000008 -0.000006 -5.615750 -0.712458 2.812648 -1.470116
  7   15.693467 0.000000 0.000000 0.000000 0.000000 -1.987940
  8   22.146629 0.000000 0.000000 -0.042758 0.234979 0.825669
  9   3.310129 5.734393 0.000000 0.000000 0.000000 1.570796
 10   1.384163 -0.004728 0.000002 -0.056552 -0.050503 0.632568
 11   5.939814 -0.004730 0.000000 -0.060380 0.012907 0.146227
 12   5.939809 -0.003975 0.000000 0.034591 -0.085534 0.138695
 13   4.991439 -0.003975 0.000000 0.000043 0.056280 0.023698
 14   4.991436 -0.001575 0.000000 0.000000 0.000000 0.000000
 15   0.000005 0.001564 3.638375 -0.000010 -1.185023 3.140806
 16   8.842831 0.000000 -0.000002 -0.058433 0.128706 -1.216351
 17   9.341934 0.000000 -0.000001 0.000000 0.000000 -0.157604
 18   11.168404 -0.000001 0.000002 -3.818885 -0.079241 -0.391736
 19   0.000005 0.001585 -3.638375 -0.000010 1.013155 3.140787
 20   8.842831 0.000000 0.000001 0.202853 -0.016957 -0.876883
 21   9.341937 0.000000 -0.000001 0.000000 0.000000 -0.342629
 22   11.168404 -0.000001 0.000001 3.528074 -0.120281 0.228120
 23   1.977383 0.000000 0.000000 0.083840 -0.128099 -0.270148
 24   3.723980 2.768054 -0.049087 0.000001 -3.141591 -1.430953
 25   12.421014 0.304721 4.492689 -0.091859 -0.075839 1.616818
 26   19.916998 1.704573 4.956909 2.262592 1.451744 0.734330
time 17
  0   3.329414 -0.647824 12.712133 0.727529 0.933871 -1.923095
  1   -7.221558 -0.171879 9.745319 -1.570795 -1.570451 0.000000
  2   -0.000008 0.000010 5.615750 3.036026 0.037870 1.520858
  3   15.693467 0.000000 0.000000 0.000000 0.000000 -1.914265
  4   22.146629 -0.000001 0.000000 -0.450581 -0.443458 0.539207
  5   3.310129 5.734393 0.000000 0.000000 0.000000 1.570796
  6   0.000008 -0.000006 -5.615750 -0.693570 2.775258 -1.494031
  7   15.693467 0.000000 0.000000 0.000000 0.000000 -2.026496
  8   22.146629 0.000000 0.000000 -0.006261 0.246092 0.656384
  9   3.310129 5.734393 0.000000 0.000000 0.000000 1.570796
 10   1.384163 -0.004728 0.000002 -0.047262 -0.016182 0.623727
 11   5.939814 -0.004730 0.000000 -0.060344 0.013195 0.151103
 12   5.939809 -0.003975 0.000000 0.034579 -0.085618 0.141118
 13   4.991439 -0.003975 0.000000 0.000043 0.056280 0.019830
 14   4.991436 -0.001575 0.000000 0.000000 0.000000 0.000000
 15   0.000005 0.001564 3.638375 -0.000010 -1.186220 3.140806
 16   8.842831 0.000000 -0.000002 -0.218094 0.205637 -1.105495
 17   9.341934 0.000000 -0.000001 0.000000 0.000000 -0.200164
 18   11.168404 -0.000001 0.000002 -3.819362 -0.073691 -0.384857
 19   0.000005 0.001585 -3.638375 -0.000010 1.013155 3.140787
 20   8.842831 0.000000 0.000001 0.193582 -0.061841 -0.743063
 21   9.341937 0.000000 -0.000001 0.000000 0.000000 -0.372740
 22   11.168404 -0.000001 0.000001 3.803911 -0.145366 0.190141
 23   1.977383 0.000000 0.000000 0.056087 -0.155626 -0.205035
 24   3.723980 2.768054 -0.049087 0.000001 -3.141591 -1.430953
 25   12.421014 0.304721 4.492689 -0.091859 -0.075839 1.616818
 26   19.916998 1.704573 4.956909 2.262592 1.451744 0.734330
time 18
  0   2.884793 -0.647824 12.731737 0.765290 1.008030 -1.942941
  1   -6.643415 -0.371104 9.745319 -1.570795 -1.570451 0.000000
  2   -0.000008 0.000010 5.615750 3.063540 0.023400 1.547428
  3   15.693467 0.000000 0.000000 0.000000 0.000000 -1.930484
  4   22.146629 -0.000001 0.000000 -0.357997 -0.494674 0.420887
  5   3.310129 5.734393 0.000000 0.000000 0.000000 1.570796
  6   0.000008 -0.000006 -5.615750 -0.669793 2.720801 -1.498239
  7   15.693467 0.000000 0.000000 0.000000 0.000000 -2.054036
  8   22.146629 0.000000 0.000000 0.030856 0.257850 0.499078
  9   3.310129 5.734393 0.000000 0.000000 0.000000 1.570796
 10   1.384163 -0.004728 0.000002 -0.055912 -0.038106 0.543027
 11   5.939814 -0.004730 0.000000 -0.060291 0.013543 0.156859
 12   5.939809 -0.003975 0.000000 0.034566 -0.085714 0.143917
 13   4.991439 -0.003975 0.000000 0.000043 0.056280 0.015356
 14   4.991436 -0.001575 0.000000 0.000000 0.000000 0.000000
 15   0.000005 0.001564 3.638375 -0.000010 -1.187200 3.140806
 16   8.842831 0.000000 -0.000002 -0.308715 0.322755 -0.931784
 17   9.341934 0.000000 -0.000001 0.000000 0.000000 -0.248300
 18   11.168404 -0.000001 0.000002 -3.819745 -0.069193 -0.379305
 19   0.000005 0.001585 -3.638375 -0.000010 1.013155 3.140787
 20   8.842831 0.000000 0.000001 0.138595 -0.184185 -0.598282
 21   9.341937 0.000000 -0.000001 0.000000 0.000000 -0.403051
 22   11.168404 -0.000001 0.000001 4.075181 -0.165561 0.140598
 23   1.977383 0.000000 0.000000 0.055823 -0.135973 -0.085892
 24   3.723980 2.768054 -0.049087 0.000001 -3.141591 -1.430953
 25   12.421014 0.304721 4.492689 -0.091859 -0.075839 1.616818
 26   19.916998 1.704573 4.956909 2.262592 1.451744 0.734330
time 19
  0   2.447707 -0.647824 12.378876 0.804636 1.081902 -1.959432
  1   -6.135587 -0.570329 9.745319 -1.570795 -1.570451 0.000000
  2   -0.000008 0.000010 5.615750 -0.041510 3.140058 -1.518430
  3   15.693467 0.000000 0.000000 0.000000 0.000000 -1.888087
  4   22.146629 -0.000001 0.000000 -0.241257 -0.537816 0.279287
  5   3.310129 5.734393 0.000000 0.000000 0.000000 1.570796
  6   0.000008 -0.000006 -5.615750 -0.637387 2.643527 -1.473903
  7   15.693467 0.000000 0.000000 0.000000 0.000000 -2.066392
  8   22.146629 0.000000 0.000000 0.065491 0.272832 0.362206
  9   3.310129 5.734393 0.000000 0.000000 0.000000 1.570796
 10   1.384163 -0.004728 0.000002 -0.062341 -0.059842 0.475313
 11   5.939814 -0.004730 0.000000 -0.060220 0.013902 0.162787
 12   5.939809 -0.003975 0.000000 0.034553 -0.085822 0.146803
 13   4.991439 -0.003975 0.000000 0.000043 0.056280 0.010730
 14   4.991436 -0.001575 0.000000 0.000000 0.000000 0.000000
 15   0.000005 0.001564 3.638375 -0.000010 -1.187599 3.140806
 16   8.842831 0.000000 -0.000002 -0.402262 0.424244 -0.776512
 17   9.341934 0.000000 -0.000001 0.000000 0.000000 -0.302832
 18   11.168404 -0.000001 0.000002 -3.819936 -0.067279 -0.376995
 19   0.000005 0.001585 -3.638375 -0.000010 1.013155 3.140787
 20   8.842831 0.000000 0.000001 0.076272 -0.280768 -0.467131
 21   9.341937 0.000000 -0.000001 0.000000 0.000000 -0.434495
 22   11.168404 -0.000001 0.000001 4.320162 -0.179938 0.077894
 23   1.977383 0.000000 0.000000 0.057673 -0.119300 0.001041
 24   3.723980 2.768054 -0.049087 0.000001 -3.141591 -1.430953
 25   12.421014 0.304721 4.492689 -0.091859 -0.075839 1.616818
 26   19.916998 1.704573 4.956909 2.262592 1.451744 0.734330
time 20
  0   2.010622 -0.647824 11.006639 0.846407 1.154246 -1.971129
  1   -6.073085 -0.570329 9.745319 -1.570795 -1.570451 0.000000
  2   -0.000008 0.000010 5.615750 0.020325 3.193531 -1.338844
  3   15.693467 0.000000 0.000000 0.000000 0.000000 -1.730731
  4   22.146629 -0.000001 0.000000 -0.079347 -0.589007 0.104894
  5   3.310129 5.734393 0.000000 0.000000 0.000000 1.570796
  6   0.000008 -0.000006 -5.615750 -0.597023 2.511413 -1.395845
  7   15.693467 0.000000 0.000000 0.000000 0.000000 -2.094899
  8   22.146629 0.000000 0.000000 0.070568 0.304576 0.306101
  9   3.310129 5.734393 0.000000 0.000000 0.000000 1.570796
 10   1.384163 -0.004728 0.000002 -0.062711 -0.060566 0.463785
 11   5.939814 -0.004730 0.000000 -0.060166 0.014262 0.168658
 12   5.939809 -0.003975 0.000000 0.034540 -0.085918 0.149676
 13   4.991439 -0.003975 0.000000 0.000043 0.056280 0.006139
 14   4.991436 -0.001575 0.000000 0.000000 0.000000 0.000000
 15   0.000005 0.001564 3.638375 -0.000010 -1.187599 3.140806
 16   8.842831 0.000000 -0.000002 -0.552504 0.499687 -0.683273
 17   9.341934 0.000000 -0.000001 0.000000 0.000000 -0.373027
 18   11.168404 -0.000001 0.000002 -3.878766 -0.071202 -0.381172
 19   0.000005 0.001585 -3.638375 -0.000010 1.013155 3.140787
 20   8.842831 0.000000 0.000001 -0.005483 -0.316710 -0.367052
 21   9.341937 0.000000 -0.000001 0.000000 0.000000 -0.482326
 22   11.168404 -0.000001 0.000001 4.567288 -0.203126 -0.007842
 23   1.977383 0.000000 0.000000 0.075593 -0.105444 -0.184904
 24   3.723980 2.768054 -0.049087 0.000001 -3.141591 -1.430953
 25   12.421014 0.304721 4.492689 -0.091859 -0.075839 1.616818
 26   19.916998 1.704573 4.956909 2.262592 1.451744 0.734330
time 21
  0   1.581072 -0.647824 9.046299 0.892093 1.224104 -1.976210
  1   -6.162932 -0.562516 9.745319 -1.570795 -1.570451 0.000000
  2   -0.000008 0.000010 5.615750 0.086090 3.287731 -1.062059
  3   15.693467 0.000000 0.000000 0.000000 0.000000 -1.461548
  4   22.146629 -0.000001 0.000000 0.113300 -0.644755 -0.092871
  5   3.310129 5.734393 0.000000 0.000000 0.000000 1.570796
  6   0.000008 -0.000006 -5.615750 -0.509583 2.333759 -1.233347
  7   15.693467 0.000000 0.000000 0.000000 0.000000 -2.123705
  8   22.146629 0.000000 0.000000 0.043661 0.343442 0.316670
  9   3.310129 5.734393 0.000000 0.000000 0.000000 1.570796
 10   1.384163 -0.004728 0.000002 -0.062476 -0.060083 0.471524
 11   5.939814 -0.004730 0.000000 -0.060113 0.014621 0.174643
 12   5.939809 -0.003975 0.000000 0.034515 -0.086013 0.152612
 13   4.991439 -0.003975 0.000000 0.000043 0.056280 0.001430
 14   4.991436 -0.001575 0.000000 0.000000 0.000000 0.000000
 15   0.000005 0.001564 3.638375 -0.000010 -1.187599 3.140806
 16   8.842831 0.000000 -0.000002 -0.742890 0.572804 -0.622807
 17   9.341934 0.000000 -0.000001 0.000000 0.000000 -0.462082
 18   11.168404 -0.000001 0.000002 -3.996331 -0.079720 -0.388739
 19   0.000005 0.001585 -3.638375 -0.000010 1.013155 3.140787
 20   8.842831 0.000000 0.000001 -0.130855 -0.326093 -0.277552
 21   9.341937 0.000000 -0.000001 0.000000 0.000000 -0.545879
 22   11.168404 -0.000001 0.000001 -1.446694 -0.223953 -0.121405
 23   1.977383 0.000000 0.000000 0.114658 -0.063761 -0.627674
 24   3.723980 2.768054 -0.049087 0.000001 -3.141591 -1.430953
 25   12.421014 0.304721 4.492689 -0.091859 -0.075839 1.616818
 26   19.916998 1.704573 4.956909 2.262592 1.451744 0.734330
time 22
  0   1.174130 -0.647824 6.948736 0.944492 1.290427 -1.971416
  1   -6.116055 -0.562516 9.745319 -1.570795 -1.570451 0.000000
  2   -0.000008 0.000010 5.615750 0.113891 3.384614 -0.758130
  3   15.693467 0.000000 0.000000 0.000000 0.000000 -1.150465
  4   22.146629 -0.000001 0.000000 0.274873 -0.682399 -0.278698
  5   3.310129 5.734393 0.000000 0.000000 0.000000 1.570796
  6   0.000008 -0.000006 -5.615750 -0.294340 2.181416 -0.945802
  7   15.693467 0.000000 0.000000 0.000000 0.000000 -2.077929
  8   22.146629 0.000000 0.000000 0.028261 0.369445 0.299847
  9   3.310129 5.734393 0.000000 0.000000 0.000000 1.570796
 10   1.384163 -0.004728 0.000002 -0.062779 -0.060647 0.462457
 11   5.939814 -0.004730 0.000000 -0.060042 0.014981 0.180666
 12   5.939809 -0.003975 0.000000 0.034502 -0.086121 0.155573
 13   4.991439 -0.003975 0.000000 0.000043 0.056280 -0.003280
 14   4.991436 -0.001575 0.000000 0.000000 0.000000 0.000000
 15   0.000005 0.001564 3.638375 -0.000010 -1.187599 3.140806
 16   8.842831 0.000000 -0.000002 -0.962356 0.662479 -0.589513
 17   9.341934 0.000000 -0.000001 0.000000 0.000000 -0.561224
 18   11.168404 -0.000001 0.000002 -4.084577 -0.086706 -0.393751
 19   0.000005 0.001585 -3.638375 -0.000010 1.013155 3.140787
 20   8.842831 0.000000 0.000001 -0.244053 -0.337159 -0.189197
 21   9.341937 0.000000 -0.000001 0.000000 0.000000 -0.602171
 22   11.168404 -0.000001 0.000001 -1.197611 -0.214509 -0.242019
 23   1.977383 0.000000 0.000000 0.134482 -0.011778 -1.031077
 24   3.723980 2.768054 -0.049087 0.000001 -3.141591 -1.430953
 25   12.421014 0.304721 4.492689 -0.091859 -0.075839 1.616818
 26   19.916998 1.704573 4.956909 2.262592 1.451744 0.734330
time 23
  0   0.797332 -0.647824 5.262844 1.008639 1.352163 -1.951282
  1   -5.639478 -0.593767 9.745319 -1.570795 -1.570451 0.000000
  2   -0.000008 0.000010 5.615750 0.099224 3.429079 -0.496923
  3   15.693467 0.000000 0.000000 0.000000 0.000000 -0.867338
  4   22.146629 -0.000001 0.000000 0.353659 -0.678759 -0.424323
  5   3.310129 5.734393 0.000000 0.000000 0.000000 1.570796
  6   0.000008 -0.000006 -5.615750 0.057623 2.145559 -0.556846
  7   15.693467 0.000000 0.000000 0.000000 0.000000 -1.882618
  8   22.146629 0.000000 0.000000 0.074178 0.372208 0.169669
  9   3.310129 5.734393 0.000000 0.000000 0.000000 1.570796
 10   1.384163 -0.004728 0.000002 -0.064563 -0.064591 0.400539
 11   5.939814 -0.004730 0.000000 -0.059971 0.015340 0.186651
 12   5.939809 -0.003975 0.000000 0.034489 -0.086217 0.158508
 13   4.991439 -0.003975 0.000000 0.000043 0.056280 -0.007972
 14   4.991436 -0.001575 0.000000 0.000000 0.000000 0.000000
 15   0.000005 0.001564 3.638375 -0.000010 -1.187599 3.140806
 16   8.842831 0.000000 -0.000002 -1.195080 0.776248 -0.566222
 17   9.341934 0.000000 -0.000001 0.000000 0.000000 -0.661924
 18   11.168404 -0.000001 0.000002 -4.055161 -0.084314 -0.392130
 19   0.000005 0.001585 -3.638375 -0.000010 1.013155 3.140787
 20   8.842831 0.000000 0.000001 -0.297105 -0.383016 -0.085782
 21   9.341937 0.000000 -0.000001 0.000000 0.000000 -0.628086
 22   11.168404 -0.000001 0.000001 -1.016019 -0.168344 -0.338284
 23   1.977383 0.000000 0.000000 0.135063 0.041037 -1.331841
 24   3.723980 2.768054 -0.049087 0.000001 -3.141591 -1.430953
 25   12.421014 0.304721 4.492689 -0.091859 -0.075839 1.616818
 26   19.916998 1.704573 4.956909 2.262592 1.451744 0.734330
time 24
  0   0.458214 -0.647824 4.929586 1.094697 1.407973 -1.905166
  1   -3.955833 -0.707052 9.745319 -1.570795 -1.570451 0.000000
  2   -0.000008 0.000010 5.615750 0.054837 3.348774 -0.300134
  3   15.693467 0.000000 0.000000 0.000000 0.000000 -0.591255
  4   22.146629 -0.000001 0.000000 0.293008 -0.596833 -0.541911
  5   3.310129 5.734393 0.000000 0.000000 0.000000 1.570796
  6   0.000008 -0.000006 -5.615750 0.409969 2.322446 -0.233743
  7   15.693467 0.000000 0.000000 0.000000 0.000000 -1.314178
  8   22.146629 0.000000 0.000000 0.244591 0.309273 -0.178148
  9   3.310129 5.734393 0.000000 0.000000 0.000000 1.570796
 10   1.384163 -0.004728 0.000002 -0.068669 -0.077660 0.204780
 11   5.939814 -0.004730 0.000000 -0.059900 0.015760 0.193555
 12   5.939809 -0.003975 0.000000 0.034464 -0.086337 0.161881
 13   4.991439 -0.003975 0.000000 0.000043 0.056280 -0.013388
 14   4.991436 -0.001575 0.000000 0.000000 0.000000 0.000000
 15   0.000005 0.001564 3.638375 -0.000010 -1.187599 3.140806
 16   8.842831 0.000000 -0.000002 -1.358308 0.933366 -0.448723
 17   9.341934 0.000000 -0.000001 0.000000 0.000000 -0.755572
 18   11.168404 -0.000001 0.000002 -3.819936 -0.067279 -0.376995
 19   0.000005 0.001585 -3.638375 -0.000010 1.013155 3.140787
 20   8.842831 0.000000 0.000001 -0.288478 -0.483406 0.093788
 21   9.341937 0.000000 -0.000001 0.000000 0.000000 -0.600706
 22   11.168404 -0.000001 0.000001 -0.944799 -0.095364 -0.385383
 23   1.977383 0.000000 0.000000 0.139504 0.079810 -1.315935
 24   3.723980 2.768054 -0.049087 0.000001 -3.141591 -1.430953
 25   12.421014 0.304721 4.492689 -0.091859 -0.075839 1.616818
 26   19.916998 1.704573 4.956909 2.262592 1.451744 0.734330
time 25
  0   0.156776 -0.647824 5.811739 1.224856 1.456521 -1.810344
  1   -1.451850 -0.878932 9.745319 -1.570795 -1.570451 0.000000
  2   -0.000008 0.000010 5.615750 0.017545 3.187397 -0.158301
  3   15.693467 0.000000 0.000000 0.000000 0.000000 -0.323494
  4   22.146629 -0.000001 0.000000 0.163630 -0.462231 -0.666772
  5   3.310129 5.734393 0.000000 0.000000 0.000000 1.570796
  6   0.000008 -0.000006 -5.615750 0.620802 2.628858 -0.097686
  7   15.693467 0.000000 0.000000 0.000000 0.000000 -0.524451
  8   22.146629 0.000000 0.000000 0.428260 0.134958 -0.633772
  9   3.310129 5.734393 0.000000 0.000000 0.000000 1.570796
 10   1.384163 -0.004728 0.000002 -0.069982 -0.096337 -0.063874
 11   5.939814 -0.004730 0.000000 -0.059811 0.016167 0.200400
 12   5.939809 -0.003975 0.000000 0.034451 -0.086457 0.165242
 13   4.991439 -0.003975 0.000000 0.000043 0.056280 -0.018753
 14   4.991436 -0.001575 0.000000 0.000000 0.000000 0.000000
 15   0.000005 0.001564 3.638375 -0.000010 -1.187599 3.140806
 16   8.842831 0.000000 -0.000002 -1.979669 0.973366 -0.663640
 17   9.341934 0.000000 -0.000001 0.000000 0.000000 -0.852991
 18   11.168404 -0.000001 0.000002 -2.499594 -0.059239 -0.258229
 19   0.000005 0.001585 -3.638375 -0.000010 1.013155 3.140787
 20   8.842831 0.000000 0.000001 0.906149 -0.777138 -0.166608
 21   9.341937 0.000000 -0.000001 0.000000 0.000000 -0.299660
 22   11.168404 -0.000001 0.000001 -1.384983 0.075890 -0.305945
 23   1.977383 0.000000 0.000000 0.185652 0.034178 -0.697608
 24   3.723980 2.768054 -0.049087 0.000001 -3.141591 -1.430953
 25   12.421014 0.304721 4.492689 -0.091859 -0.075839 1.616818
 26   19.916998 1.704573 4.956909 2.262592 1.451744 0.734330
time 26
  0   -0.084375 -0.647824 6.341031 1.449371 1.495607 -1.615906
  1   0.114604 -0.988310 9.745319 -1.570795 -1.570451 0.000000
  2   -0.000008 0.000010 5.615750 0.004699 3.076810 -0.081172
  3   15.693467 0.000000 0.000000 0.000000 0.000000 -0.167348
  4   22.146629 -0.000001 0.000000 0.078786 -0.365346 -0.759434
  5   3.310129 5.734393 0.000000 0.000000 0.000000 1.570796
  6   0.000008 -0.000006 -5.615750 0.727225 2.860585 -0.051889
  7   15.693467 0.000000 0.000000 0.000000 0.000000 -0.001861
  8   22.146629 0.000000 0.000000 0.485233 -0.047554 -0.891663
  9   3.310129 5.734393 0.000000 0.000000 0.000000 1.570796
 10   1.384163 -0.004728 0.000002 -0.068299 -0.107661 -0.228027
 11   5.939814 -0.004730 0.000000 -0.059758 0.016395 0.204320
 12   5.939809 -0.003975 0.000000 0.034438 -0.086517 0.167166
 13   4.991439 -0.003975 0.000000 0.000043 0.056280 -0.021831
 14   4.991436 -0.001575 0.000000 0.000000 0.000000 0.000000
 15   0.000005 0.001564 3.638375 -0.000010 -1.187599 3.140806
 16   8.842831 0.000000 -0.000002 -2.447222 0.817737 -0.828170
 17   9.341934 0.000000 -0.000001 0.000000 0.000000 -0.913838
 18   11.168404 -0.000001 0.000002 -1.243527 -0.166045 -0.219067
 19   0.000005 0.001585 -3.638375 -0.000010 1.013155 3.140787
 20   8.842831 0.000000 0.000001 2.126011 -0.469773 -0.505828
 21   9.341937 0.000000 -0.000001 0.000000 0.000000 -0.002412
 22   11.168404 -0.000001 0.000001 4.416179 0.245121 -0.281879
 23   1.977383 0.000000 0.000000 0.200877 -0.045494 -0.144246
 24   3.723980 2.768054 -0.049087 0.000001 -3.141591 -1.430953
 25   12.421014 0.304721 4.492689 -0.091859 -0.075839 1.616818
 26   19.916998 1.704573 4.956909 2.262592 1.451744 0.734330
time 27
  0   -0.257702 -0.647824 6.203807 1.795840 1.519021 -1.291171
  1   0.509147 -1.015655 9.745319 -1.570795 -1.570451 0.000000
  2   -0.000008 0.000010 5.615750 0.003548 3.048541 -0.050397
  3   15.693467 0.000000 0.000000 0.000000 0.000000 -0.129218
  4   22.146629 -0.000001 0.000000 0.008077 -0.348506 -0.727968
  5   3.310129 5.734393 0.000000 0.000000 0.000000 1.570796
  6   0.000008 -0.000006 -5.615750 0.759440 2.921369 -0.019207
  7   15.693467 0.000000 0.000000 0.000000 0.000000 -0.032155
  8   22.146629 0.000000 0.000000 0.430290 -0.118226 -0.691375
  9   3.310129 5.734393 0.000000 0.000000 0.000000 1.570796
 10   1.384163 -0.004728 0.000002 -0.067592 -0.110478 -0.269510
 11   5.939814 -0.004730 0.000000 -0.059740 0.016467 0.205487
 12   5.939809 -0.003975 0.000000 0.034438 -0.086541 0.167728
 13   4.991439 -0.003975 0.000000 0.000043 0.056280 -0.022739
 14   4.991436 -0.001575 0.000000 0.000000 0.000000 0.000000
 15   0.000005 0.001564 3.638375 -0.000010 -1.187599 3.140806
 16   8.842831 0.000000 -0.000002 -2.494681 0.800062 -0.818166
 17   9.341934 0.000000 -0.000001 0.000000 0.000000 -0.925236
 18   11.168404 -0.000001 0.000002 -1.056721 -0.182697 -0.225651
 19   0.000005 0.001585 -3.638375 -0.000010 1.013155 3.140787
 20   8.842831 0.000000 0.000001 2.256301 -0.407361 -0.491245
 21   9.341937 0.000000 -0.000001 0.000000 0.000000 0.040557
 22   11.168404 -0.000001 0.000001 4.348688 0.271092 -0.287331
 23   1.977383 0.000000 0.000000 0.207590 -0.033000 -0.171882
 24   3.723980 2.768054 -0.049087 0.000001 -3.141591 -1.430953
 25   12.421014 0.304721 4.492689 -0.091859 -0.075839 1.616818
 26   19.916998 1.704573 4.956909 2.262592 1.451744 0.734330
time 28
  0   -0.340598 -0.647824 6.125393 2.107998 1.527144 -0.990406
  1   0.720091 -1.027374 9.745319 -1.570795 -1.570451 0.000000
  2   -0.000008 0.000010 5.615750 0.003356 3.040587 -0.041699
  3   15.693467 0.000000 0.000000 0.000000 0.000000 -0.135763
  4   22.146629 -0.000001 0.000000 -0.116104 -0.362573 -0.572235
  5   3.310129 5.734393 0.000000 0.000000 0.000000 1.570796
  6   0.000008 -0.000006 -5.615750 0.753975 2.893566 0.004638
  7   15.693467 0.000000 0.000000 0.000000 0.000000 -0.329438
  8   22.146629 0.000000 0.000000 0.334733 -0.123445 -0.253190
  9   3.310129 5.734393 0.000000 0.000000 0.000000 1.570796
 10   1.384163 -0.004728 0.000002 -0.067154 -0.111954 -0.291563
 11   5.939814 -0.004730 0.000000 -0.059740 0.016503 0.206099
 12   5.939809 -0.003975 0.000000 0.034438 -0.086553 0.168040
 13   4.991439 -0.003975 0.000000 0.000043 0.056280 -0.023227
 14   4.991436 -0.001575 0.000000 0.000000 0.000000 0.000000
 15   0.000005 0.001564 3.638375 -0.000010 -1.187599 3.140806
 16   8.842831 0.000000 -0.000002 -2.518731 0.790108 -0.811597
 17   9.341934 0.000000 -0.000001 0.000000 0.000000 -0.931223
 18   11.168404 -0.000001 0.000002 -0.957206 -0.191023 -0.230417
 19   0.000005 0.001585 -3.638375 -0.000010 1.013155 3.140787
 20   8.842831 0.000000 0.000001 2.323623 -0.373278 -0.479712
 21   9.341937 0.000000 -0.000001 0.000000 0.000000 0.063407
 22   11.168404 -0.000001 0.000001 4.312612 0.284710 -0.290904
 23   1.977383 0.000000 0.000000 0.212189 -0.006374 -0.278747
 24   3.723980 2.768054 -0.049087 0.000001 -3.141591 -1.430953
 25   12.421014 0.304721 4.492689 -0.091859 -0.075839 1.616818
 26   19.916998 1.704573 4.956909 2.262592 1.451744 0.734330
time 29
  0   -0.363206 -0.647824 6.105790 2.218857 1.528578 -0.882928
  1   0.778686 -1.031281 9.745319 -1.570795 -1.570451 0.000000
  2   -0.000008 0.000010 5.615750 0.003548 3.046241 -0.047912
  3   15.693467 0.000000 0.000000 0.000000 0.000000 -0.170265
  4   22.146629 -0.000001 0.000000 -0.270124 -0.374213 -0.345656
  5   3.310129 5.734393 0.000000 0.000000 0.000000 1.570796
  6   0.000008 -0.000006 -5.615750 0.747072 2.865091 0.020488
  7   15.693467 0.000000 0.000000 0.000000 0.000000 -0.525121
  8   22.146629 0.000000 0.000000 0.238442 -0.120621 0.089255
  9   3.310129 5.734393 0.000000 0.000000 0.000000 1.570796
 10   1.384163 -0.004728 0.000002 -0.067053 -0.112384 -0.298040
 11   5.939814 -0.004730 0.000000 -0.059740 0.016515 0.206290
 12   5.939809 -0.003975 0.000000 0.034438 -0.086553 0.168128
 13   4.991439 -0.003975 0.000000 0.000043 0.056280 -0.023361
 14   4.991436 -0.001575 0.000000 0.000000 0.000000 0.000000
 15   0.000005 0.001564 3.638375 -0.000010 -1.187599 3.140806
 16   8.842831 0.000000 -0.000002 -2.525681 0.787132 -0.809507
 17   9.341934 0.000000 -0.000001 0.000000 0.000000 -0.933027
 18   11.168404 -0.000001 0.000002 -0.927887 -0.193320 -0.231941
 19   0.000005 0.001585 -3.638375 -0.000010 1.013155 3.140787
 20   8.842831 0.000000 0.000001 2.343215 -0.363186 -0.475899
 21   9.341937 0.000000 -0.000001 0.000000 0.000000 0.070135
 22   11.168404 -0.000001 0.000001 4.301891 0.288715 -0.292126
 23   1.977383 0.000000 0.000000 0.211819 -0.021939 -0.201058
 24   3.723980 2.768054 -0.049087 0.000001 -3.141591 -1.430953
 25   12.421014 0.304721 4.492689 -0.091859 -0.075839 1.616818
 26   19.916998 1.704573 4.956909 2.262592 1.451744 0.734330
time 30
  0   -0.348134 -0.647824 6.125393 2.129536 1.527526 -0.969505
  1   0.731810 -1.027374 9.745319 -1.570795 -1.570451 0.000000
  2   -0.000008 0.000010 5.615750 0.003836 3.058699 -0.061483
  3   15.693467 0.000000 0.000000 0.000000 0.000000 -0.215650
  4   22.146629 -0.000001 0.000000 -0.422461 -0.365569 -0.109885
  5   3.310129 5.734393 0.000000 0.000000 0.000000 1.570796
  6   0.000008 -0.000006 -5.615750 0.749277 2.865762 0.028483
  7   15.693467 0.000000 0.000000 0.000000 0.000000 -0.452475
  8   22.146629 0.000000 0.000000 0.152531 -0.130967 0.164737
  9   3.310129 5.734393 0.000000 0.000000 0.000000 1.570796
 10   1.384163 -0.004728 0.000002 -0.067154 -0.112035 -0.292859
 11   5.939814 -0.004730 0.000000 -0.059740 0.016515 0.206137
 12   5.939809 -0.003975 0.000000 0.034438 -0.086553 0.168053
 13   4.991439 -0.003975 0.000000 0.000043 0.056280 -0.023261
 14   4.991436 -0.001575 0.000000 0.000000 0.000000 0.000000
 15   0.000005 0.001564 3.638375 -0.000010 -1.187599 3.140806
 16   8.842831 0.000000 -0.000002 -2.520103 0.789550 -0.811224
 17   9.341934 0.000000 -0.000001 0.000000 0.000000 -0.931633
 18   11.168404 -0.000001 0.000002 -0.951285 -0.191406 -0.230712
 19   0.000005 0.001585 -3.638375 -0.000010 1.013155 3.140787
 20   8.842831 0.000000 0.000001 2.327493 -0.371242 -0.478950
 21   9.341937 0.000000 -0.000001 0.000000 0.000000 0.064739
 22   11.168404 -0.000001 0.000001 4.310468 0.285511 -0.291186
 23   1.977383 0.000000 0.000000 0.207114 -0.047665 -0.084203
 24   3.723980 2.768054 -0.049087 0.000001 -3.141591 -1.430953
 25   12.421014 0.304721 4.492689 -0.091859 -0.075839 1.616818
 26   19.916998 1.704573 4.956909 2.262592 1.451744 0.734330
time 31
  0   -0.295382 -0.647824 6.164600 1.929542 1.523417 -1.162792
  1   0.606806 -1.019561 9.745319 -1.570795 -1.570451 0.000000
  2   -0.000008 0.000010 5.615750 0.004411 3.071157 -0.075055
  3   15.693467 0.000000 0.000000 0.000000 0.000000 -0.255345
  4   22.146629 -0.000001 0.000000 -0.536696 -0.343156 0.072009
  5   3.310129 5.734393 0.000000 0.000000 0.000000 1.570796
  6   0.000008 -0.000006 -5.615750 0.749277 2.865762 0.028483
  7   15.693467 0.000000 0.000000 0.000000 0.000000 -0.278080
  8   22.146629 0.000000 0.000000 0.089973 -0.134344 0.094187
  9   3.310129 5.734393 0.000000 0.000000 0.000000 1.570796
 10   1.384163 -0.004728 0.000002 -0.067390 -0.111176 -0.279873
 11   5.939814 -0.004730 0.000000 -0.059740 0.016491 0.205774
 12   5.939809 -0.003975 0.000000 0.034438 -0.086541 0.167878
 13   4.991439 -0.003975 0.000000 0.000043 0.056280 -0.022975
 14   4.991436 -0.001575 0.000000 0.000000 0.000000 0.000000
 15   0.000005 0.001564 3.638375 -0.000010 -1.187599 3.140806
 16   8.842831 0.000000 -0.000002 -2.506112 0.795411 -0.815180
 17   9.341934 0.000000 -0.000001 0.000000 0.000000 -0.928024
 18   11.168404 -0.000001 0.000002 -1.009925 -0.186621 -0.227764
 19   0.000005 0.001585 -3.638375 -0.000010 1.013155 3.140787
 20   8.842831 0.000000 0.000001 2.288148 -0.391426 -0.486098
 21   9.341937 0.000000 -0.000001 0.000000 0.000000 0.051349
 22   11.168404 -0.000001 0.000001 4.331722 0.277501 -0.288929
 23   1.977383 0.000000 0.000000 0.201458 -0.063599 -0.016803
 24   3.723980 2.768054 -0.049087 0.000001 -3.141591 -1.430953
 25   12.421014 0.304721 4.492689 -0.091859 -0.075839 1.616818
 26   19.916998 1.704573 4.956909 2.262592 1.451744 0.734330
time 32
  0   -0.227558 -0.647824 6.223411 1.723675 1.515867 -1.359915
  1   0.446645 -1.007842 9.745319 -1.570795 -1.570451 0.000000
  2   -0.000008 0.000010 5.615750 0.004699 3.076810 -0.081172
  3   15.693467 0.000000 0.000000 0.000000 0.000000 -0.272275
  4   22.146629 -0.000001 0.000000 -0.581118 -0.330427 0.144273
  5   3.310129 5.734393 0.000000 0.000000 0.000000 1.570796
  6   0.000008 -0.000006 -5.615750 0.747072 2.865091 0.020488
  7   15.693467 0.000000 0.000000 0.000000 0.000000 -0.132788
  8   22.146629 0.000000 0.000000 0.066337 -0.138734 -0.017319
  9   3.310129 5.734393 0.000000 0.000000 0.000000 1.570796
 10   1.384163 -0.004728 0.000002 -0.067727 -0.110022 -0.263033
 11   5.939814 -0.004730 0.000000 -0.059758 0.016455 0.205296
 12   5.939809 -0.003975 0.000000 0.034438 -0.086541 0.167641
 13   4.991439 -0.003975 0.000000 0.000043 0.056280 -0.022605
 14   4.991436 -0.001575 0.000000 0.000000 0.000000 0.000000
 15   0.000005 0.001564 3.638375 -0.000010 -1.187599 3.140806
 16   8.842831 0.000000 -0.000002 -2.487457 0.802853 -0.819958
 17   9.341934 0.000000 -0.000001 0.000000 0.000000 -0.923432
 18   11.168404 -0.000001 0.000002 -1.085946 -0.180209 -0.224423
 19   0.000005 0.001585 -3.638375 -0.000010 1.013155 3.140787
 20   8.842831 0.000000 0.000001 2.236306 -0.417276 -0.494104
 21   9.341937 0.000000 -0.000001 0.000000 0.000000 0.033895
 22   11.168404 -0.000001 0.000001 4.359221 0.267045 -0.286297
 23   1.977383 0.000000 0.000000 0.199502 -0.064222 -0.025750
 24   3.723980 2.768054 -0.049087 0.000001 -3.141591 -1.430953
 25   12.421014 0.304721 4.492689 -0.091859 -0.075839 1.616818
 26   19.916998 1.704573 4.956909 2.262592 1.451744 0.734330
time 33
  0   -0.159735 -0.647824 6.282221 1.570766 1.506693 -1.504018
  1   0.286484 -1.000030 9.745319 -1.570795 -1.570451 0.000000
  2   -0.000008 0.000010 5.615750 0.004699 3.076810 -0.081172
  3   15.693467 0.000000 0.000000 0.000000 0.000000 -0.252855
  4   22.146629 -0.000001 0.000000 -0.466211 -0.373915 -0.016354
  5   3.310129 5.734393 0.000000 0.000000 0.000000 1.570796
  6   0.000008 -0.000006 -5.615750 0.741990 2.863845 0.001763
  7   15.693467 0.000000 0.000000 0.000000 0.000000 -0.069743
  8   22.146629 0.000000 0.000000 0.146100 -0.148097 -0.225446
  9   3.310129 5.734393 0.000000 0.000000 0.000000 1.570796
 10   1.384163 -0.004728 0.000002 -0.068030 -0.108895 -0.246161
 11   5.939814 -0.004730 0.000000 -0.059758 0.016431 0.204837
 12   5.939809 -0.003975 0.000000 0.034438 -0.086529 0.167416
 13   4.991439 -0.003975 0.000000 0.000043 0.056280 -0.022235
 14   4.991436 -0.001575 0.000000 0.000000 0.000000 0.000000
 15   0.000005 0.001564 3.638375 -0.000010 -1.187599 3.140806
 16   8.842831 0.000000 -0.000002 -2.468345 0.810202 -0.824139
 17   9.341934 0.000000 -0.000001 0.000000 0.000000 -0.918840
 18   11.168404 -0.000001 0.000002 -1.161871 -0.173509 -0.221523
 19   0.000005 0.001585 -3.638375 -0.000010 1.013155 3.140787
 20   8.842831 0.000000 0.000001 2.183658 -0.442772 -0.500586
 21   9.341937 0.000000 -0.000001 0.000000 0.000000 0.016375
 22   11.168404 -0.000001 0.000001 4.386721 0.256547 -0.284041
 23   1.977383 0.000000 0.000000 0.199344 -0.058911 -0.064370
 24   3.723980 2.768054 -0.049087 0.000001 -3.141591 -1.430953
 25   12.421014 0.304721 4.492689 -0.091859 -0.075839 1.616818
 26   19.916998 1.704573 4.956909 2.262592 1.451744 0.734330
time 34
  0   -0.106983 -0.647824 6.321427 1.480326 1.498857 -1.587622
  1   0.165386 -0.988310 9.745319 -1.570795 -1.570451 0.000000
  2   -0.000008 0.000010 5.615750 0.004699 3.076810 -0.081172
  3   15.693467 0.000000 0.000000 0.000000 0.000000 -0.210030
  4   22.146629 -0.000001 0.000000 -0.192684 -0.411683 -0.388831
  5   3.310129 5.734393 0.000000 0.000000 0.000000 1.570796
  6   0.000008 -0.000006 -5.615750 0.734608 2.862119 -0.025028
  7   15.693467 0.000000 0.000000 0.000000 0.000000 -0.035802
  8   22.146629 0.000000 0.000000 0.321364 -0.122800 -0.564808
  9   3.310129 5.734393 0.000000 0.000000 0.000000 1.570796
 10   1.384163 -0.004728 0.000002 -0.068232 -0.108010 -0.233208
 11   5.939814 -0.004730 0.000000 -0.059758 0.016407 0.204473
 12   5.939809 -0.003975 0.000000 0.034438 -0.086517 0.167241
 13   4.991439 -0.003975 0.000000 0.000043 0.056280 -0.021949
 14   4.991436 -0.001575 0.000000 0.000000 0.000000 0.000000
 15   0.000005 0.001564 3.638375 -0.000010 -1.187599 3.140806
 16   8.842831 0.000000 -0.000002 -2.453257 0.815597 -0.827050
 17   9.341934 0.000000 -0.000001 0.000000 0.000000 -0.915314
 18   11.168404 -0.000001 0.000002 -1.220224 -0.168150 -0.219705
 19   0.000005 0.001585 -3.638375 -0.000010 1.013155 3.140787
 20   8.842831 0.000000 0.000001 2.142539 -0.462071 -0.504493
 21   9.341937 0.000000 -0.000001 0.000000 0.000000 0.002984
 22   11.168404 -0.000001 0.000001 4.407696 0.248410 -0.282443
 23   1.977383 0.000000 0.000000 0.200031 -0.051429 -0.111043
 24   3.723980 2.768054 -0.049087 0.000001 -3.141591 -1.430953
 25   12.421014 0.304721 4.492689 -0.091859 -0.075839 1.616818
 26   19.916998 1.704573 4.956909 2.262592 1.451744 0.734330
time 35
  0   -0.084375 -0.647824 6.341031 1.449371 1.495607 -1.615906
  1   0.114604 -0.988310 9.745319 -1.570795 -1.570451 0.000000
  2   -0.000008 0.000010 5.615750 0.004699 3.076810 -0.081172
  3   15.693467 0.000000 0.000000 0.000000 0.000000 -0.167348
  4   22.146629 -0.000001 0.000000 0.078786 -0.365346 -0.759434
  5   3.310129 5.734393 0.000000 0.000000 0.000000 1.570796
  6   0.000008 -0.000006 -5.615750 0.727225 2.860585 -0.051889
  7   15.693467 0.000000 0.000000 0.000000 0.000000 -0.001861
  8   22.146629 0.000000 0.000000 0.485233 -0.047554 -0.891663
  9   3.310129 5.734393 0.000000 0.000000 0.000000 1.570796
 10   1.384163 -0.004728 0.000002 -0.068299 -0.107661 -0.228027
 11   5.939814 -0.004730 0.000000 -0.059758 0.016395 0.204320
 12   5.939809 -0.003975 0.000000 0.034438 -0.086517 0.167166
 13   4.991439 -0.003975 0.000000 0.000043 0.056280 -0.021831
 14   4.991436 -0.001575 0.000000 0.000000 0.000000 0.000000
 15   0.000005 0.001564 3.638375 -0.000010 -1.187599 3.140806
 16   8.842831 0.000000 -0.000002 -2.447222 0.817737 -0.828170
 17   9.341934 0.000000 -0.000001 0.000000 0.000000 -0.913838
 18   11.168404 -0.000001 0.000002 -1.243527 -0.166045 -0.219067
 19   0.000005 0.001585 -3.638375 -0.000010 1.013155 3.140787
 20   8.842831 0.000000 0.000001 2.126011 -0.469773 -0.505828
 21   9.341937 0.000000 -0.000001 0.000000 0.000000 -0.002412
 22   11.168404 -0.000001 0.000001 4.416179 0.245121 -0.281879
 23   1.977383 0.000000 0.000000 0.200877 -0.045494 -0.144246
 24   3.723980 2.768054 -0.049087 0.000001 -3.141591 -1.430953
 25   12.421014 0.304721 4.492689 -0.091859 -0.075839 1.616818
 26   19.916998 1.704573 4.956909 2.262592 1.451744 0.734330
end
