version 1
nodes
  0 "Bip01" -1
  1 "Bip01 Pelvis" 0
  2 "Bip01 L Thigh" 1
  3 "Bip01 L Calf" 2
  4 "Bip01 L Foot" 3
  5 "Bip01 L Toe0" 4
  6 "Bip01 R Thigh" 1
  7 "Bip01 R Calf" 6
  8 "Bip01 R Foot" 7
  9 "Bip01 R Toe0" 8
 10 "Bip01 Spine" 1
 11 "Bip01 Spine1" 10
 12 "Bip01 Spine2" 11
 13 "Bip01 Spine3" 12
 14 "Bip01 Neck" 13
 15 "Bip01 L Clavicle" 14
 16 "Bip01 L UpperArm" 15
 17 "Bip01 L Forearm" 16
 18 "Bip01 L Hand" 17
 19 "Bip01 R Clavicle" 14
 20 "Bip01 R UpperArm" 19
 21 "Bip01 R Forearm" 20
 22 "Bip01 R Hand" 21
 23 "Bip01 Head" 14
 24 "Bone05" 23
 25 "m4" 22
 26 "SHOTGUN" 22
end
skeleton
time 0
  0   0.073880 -0.006819 28.041988 0.000000 0.000000 -2.033353
  1   -0.526041 0.000001 9.745319 -1.570795 -1.570451 0.000000
  2   -0.000008 0.000010 5.615750 -0.233053 3.472298 -0.563921
  3   15.693467 0.000000 0.000000 0.000000 0.000000 -0.487323
  4   22.146629 -0.000001 0.000000 0.114982 -0.144038 -0.143135
  5   3.310129 5.734393 0.000000 0.000000 0.000000 1.570796
  6   0.000008 -0.000006 -5.615750 0.212080 2.899510 0.054433
  7   15.693467 0.000000 0.000000 0.000000 0.000000 -0.482099
  8   22.146629 0.000000 0.000000 0.274883 0.248026 0.484986
  9   3.310129 5.734393 0.000000 0.000000 0.000000 1.570796
 10   1.384163 -0.004728 0.000002 -0.372579 -0.003463 0.086548
 11   5.939814 -0.004730 0.000000 0.000000 0.000000 0.000000
 12   5.939809 -0.003975 0.000000 0.000000 0.000000 0.000000
 13   4.991439 -0.003975 0.000000 0.000000 0.000000 0.000000
 14   4.991436 -0.001575 0.000000 0.000000 0.000000 0.000000
 15   0.000005 0.001564 3.638375 -0.000010 -1.284244 3.140806
 16   8.842831 0.000000 -0.000002 -0.414972 -0.110832 -0.914689
 17   9.341934 0.000000 -0.000001 0.000000 0.000000 -0.853073
 18   11.168404 -0.000001 0.000002 -4.515872 0.471532 -0.520821
 19   0.000005 0.001585 -3.638375 -0.000010 1.284244 3.140787
 20   8.842831 0.000000 0.000001 0.955975 -0.539709 -2.199069
 21   9.341937 0.000000 -0.000001 0.000000 0.000000 -0.994883
 22   11.168404 -0.000001 0.000001 1.804999 0.075469 0.649469
 23   1.977383 0.000000 0.000000 0.835700 0.294324 0.196082
 24   3.723980 2.768054 -0.049087 0.000001 -3.141591 -1.570794
 25   12.421014 0.304721 4.492689 -0.091859 -0.075839 1.616818
 26   19.916998 1.704573 4.956909 2.262592 1.451744 0.734330
time 1
  0   0.058808 -0.091347 27.551903 0.000932 -0.014335 -1.967294
  1   -0.526041 0.000001 9.745319 -1.570795 -1.570451 0.000000
  2   -0.000008 0.000010 5.615750 -0.258170 3.476036 -0.618208
  3   15.693467 0.000000 0.000000 0.000000 0.000000 -0.556753
  4   22.146629 -0.000001 0.000000 0.139811 -0.106072 -0.141717
  5   3.310129 5.734393 0.000000 0.000000 0.000000 1.570796
  6   0.000008 -0.000006 -5.615750 0.223298 2.904879 0.049944
  7   15.693467 0.000000 0.000000 0.000000 0.000000 -0.557648
  8   22.146629 0.000000 0.000000 0.359497 0.237803 0.540122
  9   3.310129 5.734393 0.000000 0.000000 0.000000 1.570796
 10   1.384163 -0.004728 0.000002 -0.209163 -0.003302 0.100149
 11   5.939814 -0.004730 0.000000 0.079541 -0.004195 0.025299
 12   5.939809 -0.003975 0.000000 0.008434 -0.003116 0.051095
 13   4.991439 -0.003975 0.000000 0.034123 -0.000024 0.000000
 14   4.991436 -0.001575 0.000000 0.000000 0.000000 0.000000
 15   0.000005 0.001564 3.638375 -0.091185 -1.283119 3.228245
 16   8.842831 0.000000 -0.000002 0.160850 0.441267 -0.422819
 17   9.341934 0.000000 -0.000001 0.000000 0.000000 -1.237013
 18   11.168404 -0.000001 0.000002 -3.909518 0.122023 -0.424020
 19   0.000005 0.001585 -3.638375 0.142745 1.281467 3.277694
 20   8.842831 0.000000 0.000001 0.607915 -0.926660 -1.559421
 21   9.341937 0.000000 -0.000001 0.000000 0.000000 -1.376470
 22   11.168404 -0.000001 0.000001 1.571576 0.125639 0.675321
 23   1.977383 0.000000 0.000000 0.881373 0.264418 0.065210
 24   3.723980 2.768054 -0.049087 0.000001 -3.141591 -1.570794
 25   12.421014 0.304721 4.492689 -0.091859 -0.075839 1.616818
 26   19.916998 1.704573 4.956909 2.262592 1.451744 0.734330
time 2
  0   0.043736 -0.253359 27.571507 -0.000186 -0.031059 -1.800852
  1   -0.526041 0.000001 9.745319 -1.570795 -1.570451 0.000000
  2   -0.000008 0.000010 5.615750 -0.256828 3.406176 -0.618208
  3   15.693467 0.000000 0.000000 0.000000 0.000000 -0.491449
  4   22.146629 -0.000001 0.000000 0.143513 -0.047625 -0.200946
  5   3.310129 5.734393 0.000000 0.000000 0.000000 1.570796
  6   0.000008 -0.000006 -5.615750 0.269606 2.973045 0.156476
  7   15.693467 0.000000 0.000000 0.000000 0.000000 -0.486044
  8   22.146629 0.000000 0.000000 0.524381 0.195222 0.563727
  9   3.310129 5.734393 0.000000 0.000000 0.000000 1.570796
 10   1.384163 -0.004728 0.000002 0.051798 -0.005985 0.102837
 11   5.939814 -0.004730 0.000000 0.172472 -0.011649 0.054403
 12   5.939809 -0.003975 0.000000 0.018080 -0.007323 0.110873
 13   4.991439 -0.003975 0.000000 0.074074 -0.000048 0.000000
 14   4.991436 -0.001575 0.000000 0.000000 0.000000 0.000000
 15   0.000005 0.001564 3.638375 -0.209396 -1.278222 3.341474
 16   8.842831 0.000000 -0.000002 0.294358 0.864621 -0.062408
 17   9.341934 0.000000 -0.000001 0.000000 0.000000 -0.711044
 18   11.168404 -0.000001 0.000002 -2.856588 0.173894 -0.179118
 19   0.000005 0.001585 -3.638375 0.301031 1.271541 3.429173
 20   8.842831 0.000000 0.000001 -0.267273 -1.086186 -0.108753
 21   9.341937 0.000000 -0.000001 0.000000 0.000000 -1.617893
 22   11.168404 -0.000001 0.000001 1.368264 0.189934 0.434940
 23   1.977383 0.000000 0.000000 0.766239 0.157473 -0.118996
 24   3.723980 2.768054 -0.049087 0.000001 -3.141591 -1.570794
 25   12.421014 0.304721 4.492689 -0.091859 -0.075839 1.616818
 26   19.916998 1.704573 4.956909 2.262592 1.451744 0.734330
time 3
  0   0.073880 -0.359020 27.532299 0.000000 -0.043578 -1.666816
  1   -0.526041 0.000001 9.745319 -1.570795 -1.570451 0.000000
  2   -0.000008 0.000010 5.615750 -0.255869 3.342737 -0.607695
  3   15.693467 0.000000 0.000000 0.000000 0.000000 -0.429418
  4   22.146629 -0.000001 0.000000 0.167070 -0.000322 -0.247917
  5   3.310129 5.734393 0.000000 0.000000 0.000000 1.570796
  6   0.000008 -0.000006 -5.615750 0.302492 3.033733 0.232009
  7   15.693467 0.000000 0.000000 0.000000 0.000000 -0.426572
  8   22.146629 0.000000 0.000000 0.652543 0.157430 0.576234
  9   3.310129 5.734393 0.000000 0.000000 0.000000 1.570796
 10   1.384163 -0.004728 0.000002 0.264323 -0.007327 0.103711
 11   5.939814 -0.004730 0.000000 0.243596 -0.019163 0.076183
 12   5.939809 -0.003975 0.000000 0.025302 -0.010930 0.156697
 13   4.991439 -0.003975 0.000000 0.104709 -0.000072 0.000000
 14   4.991436 -0.001575 0.000000 0.000000 0.000000 0.000000
 15   0.000005 0.001564 3.638375 -0.252060 -1.275428 3.382413
 16   8.842831 0.000000 -0.000002 0.789161 0.312336 0.050986
 17   9.341934 0.000000 -0.000001 0.000000 0.000000 0.021983
 18   11.168404 -0.000001 0.000002 -3.629405 0.224521 -0.037257
 19   0.000005 0.001585 -3.638375 0.383099 1.263209 3.507501
 20   8.842831 0.000000 0.000001 -0.163911 -1.090258 0.220841
 21   9.341937 0.000000 -0.000001 0.000000 0.000000 -1.015468
 22   11.168404 -0.000001 0.000001 1.258078 0.094062 -0.039993
 23   1.977383 0.000000 0.000000 0.596181 0.069372 -0.224668
 24   3.723980 2.768054 -0.049087 0.000001 -3.141591 -1.570794
 25   12.421014 0.304721 4.492689 -0.091859 -0.075839 1.616818
 26   19.916998 1.704573 4.956909 2.262592 1.451744 0.734330
time 4
  0   0.156776 -0.387196 27.199041 0.010629 -0.045872 -1.648504
  1   -0.526041 0.000001 9.745319 -1.570795 -1.570451 0.000000
  2   -0.000008 0.000010 5.615750 -0.253760 3.334687 -0.640382
  3   15.693467 0.000000 0.000000 0.000000 0.000000 -0.478075
  4   22.146629 -0.000001 0.000000 0.165537 0.005151 -0.233739
  5   3.310129 5.734393 0.000000 0.000000 0.000000 1.570796
  6   0.000008 -0.000006 -5.615750 0.303930 3.017722 0.200169
  7   15.693467 0.000000 0.000000 0.000000 0.000000 -0.501005
  8   22.146629 0.000000 0.000000 0.685261 0.152979 0.615869
  9   3.310129 5.734393 0.000000 0.000000 0.000000 1.570796
 10   1.384163 -0.004728 0.000002 0.327333 -0.002765 0.106205
 11   5.939814 -0.004730 0.000000 0.258869 -0.020613 0.079854
 12   5.939809 -0.003975 0.000000 0.026527 -0.011577 0.164530
 13   4.991439 -0.003975 0.000000 0.109949 -0.000084 0.000000
 14   4.991436 -0.001575 0.000000 0.000000 0.000000 0.000000
 15   0.000005 0.001564 3.638375 -0.280247 -1.273288 3.409354
 16   8.842831 0.000000 -0.000002 1.090011 -0.400323 -0.037773
 17   9.341934 0.000000 -0.000001 0.000000 0.000000 0.782480
 18   11.168404 -0.000001 0.000002 1.527709 0.358602 -0.047723
 19   0.000005 0.001585 -3.638375 0.400931 1.261049 3.524567
 20   8.842831 0.000000 0.000001 -0.372006 -1.089550 0.544144
 21   9.341937 0.000000 -0.000001 0.000000 0.000000 -1.158696
 22   11.168404 -0.000001 0.000001 1.233468 0.078631 -0.084178
 23   1.977383 0.000000 0.000000 0.551882 0.047503 -0.237691
 24   3.723980 2.768054 -0.049087 0.000001 -3.141591 -1.570794
 25   12.421014 0.304721 4.492689 -0.091859 -0.075839 1.616818
 26   19.916998 1.704573 4.956909 2.262592 1.451744 0.734330
time 5
  0   0.269815 -0.394240 26.865784 0.026106 -0.043578 -1.666816
  1   -0.526041 0.000001 9.745319 -1.570795 -1.570451 0.000000
  2   -0.000008 0.000010 5.615750 -0.248487 3.338329 -0.674120
  3   15.693467 0.000000 0.000000 0.000000 0.000000 -0.537973
  4   22.146629 -0.000001 0.000000 0.134464 -0.005770 -0.209544
  5   3.310129 5.734393 0.000000 0.000000 0.000000 1.570796
  6   0.000008 -0.000006 -5.615750 0.293863 2.981578 0.151216
  7   15.693467 0.000000 0.000000 0.000000 0.000000 -0.586899
  8   22.146629 0.000000 0.000000 0.687009 0.158689 0.652069
  9   3.310129 5.734393 0.000000 0.000000 0.000000 1.570796
 10   1.384163 -0.004728 0.000002 0.325415 0.000858 0.106464
 11   5.939814 -0.004730 0.000000 0.243596 -0.019163 0.076183
 12   5.939809 -0.003975 0.000000 0.025302 -0.010930 0.156697
 13   4.991439 -0.003975 0.000000 0.104709 -0.000072 0.000000
 14   4.991436 -0.001575 0.000000 0.000000 0.000000 0.000000
 15   0.000005 0.001564 3.638375 -0.300188 -1.271619 3.428338
 16   8.842831 0.000000 -0.000002 1.462462 -0.911584 -0.265680
 17   9.341934 0.000000 -0.000001 0.000000 0.000000 1.358963
 18   11.168404 -0.000001 0.000002 0.623861 0.425499 -0.131454
 19   0.000005 0.001585 -3.638375 0.415791 1.259197 3.538660
 20   8.842831 0.000000 0.000001 -0.421187 -1.113186 0.547861
 21   9.341937 0.000000 -0.000001 0.000000 0.000000 -1.233242
 22   11.168404 -0.000001 0.000001 1.157308 0.066952 -0.048830
 23   1.977383 0.000000 0.000000 0.609132 0.035425 -0.219101
 24   3.723980 2.768054 -0.049087 0.000001 -3.141591 -1.570794
 25   12.421014 0.304721 4.492689 -0.091859 -0.075839 1.616818
 26   19.916998 1.704573 4.956909 2.262592 1.451744 0.734330
time 6
  0   0.390390 -0.394240 26.610941 0.045593 -0.043578 -1.666816
  1   -0.526041 0.000001 9.745319 -1.570795 -1.570451 0.000000
  2   -0.000008 0.000010 5.615750 -0.250501 3.327021 -0.688934
  3   15.693467 0.000000 0.000000 0.000000 0.000000 -0.562515
  4   22.146629 -0.000001 0.000000 0.119656 -0.010352 -0.202227
  5   3.310129 5.734393 0.000000 0.000000 0.000000 1.570796
  6   0.000008 -0.000006 -5.615750 0.285234 2.955500 0.119937
  7   15.693467 0.000000 0.000000 0.000000 0.000000 -0.648083
  8   22.146629 0.000000 0.000000 0.701901 0.155987 0.682279
  9   3.310129 5.734393 0.000000 0.000000 0.000000 1.570796
 10   1.384163 -0.004728 0.000002 0.320837 -0.005556 0.104003
 11   5.939814 -0.004730 0.000000 0.222392 -0.019151 0.076183
 12   5.939809 -0.003975 0.000000 0.025302 -0.010930 0.156697
 13   4.991439 -0.003975 0.000000 0.104709 -0.000072 0.000000
 14   4.991436 -0.001575 0.000000 0.000000 0.000000 0.000000
 15   0.000005 0.001564 3.638375 -0.300763 -1.267483 3.428625
 16   8.842831 0.000000 -0.000002 1.527936 -1.063307 -0.296959
 17   9.341934 0.000000 -0.000001 0.000000 0.000000 1.511325
 18   11.168404 -0.000001 0.000002 0.453482 0.564747 -0.081137
 19   0.000005 0.001585 -3.638375 0.427680 1.257655 3.549973
 20   8.842831 0.000000 0.000001 -0.440698 -1.140807 0.521650
 21   9.341937 0.000000 -0.000001 0.000000 0.000000 -1.269548
 22   11.168404 -0.000001 0.000001 1.098766 0.053714 -0.039523
 23   1.977383 0.000000 0.000000 0.662576 0.033231 -0.217858
 24   3.723980 2.768054 -0.049087 0.000001 -3.141591 -1.570794
 25   12.421014 0.304721 4.492689 -0.091859 -0.075839 1.616818
 26   19.916998 1.704573 4.956909 2.262592 1.451744 0.734330
time 7
  0   0.510966 -0.387196 26.493320 0.052306 -0.043578 -1.666816
  1   -0.526041 0.000001 9.745319 -1.570795 -1.570451 0.000000
  2   -0.000008 0.000010 5.615750 -0.251172 3.321750 -0.697631
  3   15.693467 0.000000 0.000000 0.000000 0.000000 -0.575960
  4   22.146629 -0.000001 0.000000 0.109523 -0.010030 -0.197744
  5   3.310129 5.734393 0.000000 0.000000 0.000000 1.570796
  6   0.000008 -0.000006 -5.615750 0.281207 2.943708 0.107032
  7   15.693467 0.000000 0.000000 0.000000 0.000000 -0.672497
  8   22.146629 0.000000 0.000000 0.709460 0.157184 0.693289
  9   3.310129 5.734393 0.000000 0.000000 0.000000 1.570796
 10   1.384163 -0.004728 0.000002 0.303570 -0.015887 0.100278
 11   5.939814 -0.004730 0.000000 0.193499 -0.019127 0.076183
 12   5.939809 -0.003975 0.000000 0.025302 -0.010930 0.156697
 13   4.991439 -0.003975 0.000000 0.104709 -0.000072 0.000000
 14   4.991436 -0.001575 0.000000 0.000000 0.000000 0.000000
 15   0.000005 0.001564 3.638375 -0.300188 -1.271619 3.428338
 16   8.842831 0.000000 -0.000002 1.413906 -0.988888 -0.185282
 17   9.341934 0.000000 -0.000001 0.000000 0.000000 1.358963
 18   11.168404 -0.000001 0.000002 0.715162 0.624849 0.049324
 19   0.000005 0.001585 -3.638375 0.436787 1.256420 3.558697
 20   8.842831 0.000000 0.000001 -0.439973 -1.123455 0.489243
 21   9.341937 0.000000 -0.000001 0.000000 0.000000 -1.263486
 22   11.168404 -0.000001 0.000001 1.077045 0.002827 -0.052309
 23   1.977383 0.000000 0.000000 0.730346 0.037342 -0.217610
 24   3.723980 2.768054 -0.049087 0.000001 -3.141591 -1.570794
 25   12.421014 0.304721 4.492689 -0.091859 -0.075839 1.616818
 26   19.916998 1.704573 4.956909 2.262592 1.451744 0.734330
time 8
  0   0.624005 -0.373108 26.610941 0.025267 -0.043578 -1.666816
  1   -0.526041 0.000001 9.745319 -1.570795 -1.570451 0.000000
  2   -0.000008 0.000010 5.615750 -0.244653 3.337275 -0.706615
  3   15.693467 0.000000 0.000000 0.000000 0.000000 -0.586915
  4   22.146629 -0.000001 0.000000 0.108700 0.003121 -0.190975
  5   3.310129 5.734393 0.000000 0.000000 0.000000 1.570796
  6   0.000008 -0.000006 -5.615750 0.291274 2.964033 0.128914
  7   15.693467 0.000000 0.000000 0.000000 0.000000 -0.627986
  8   22.146629 0.000000 0.000000 0.702296 0.169986 0.666778
  9   3.310129 5.734393 0.000000 0.000000 0.000000 1.570796
 10   1.384163 -0.004728 0.000002 0.281186 -0.029358 0.095680
 11   5.939814 -0.004730 0.000000 0.156010 -0.019103 0.076202
 12   5.939809 -0.003975 0.000000 0.025302 -0.010930 0.156697
 13   4.991439 -0.003975 0.000000 0.104709 -0.000072 0.000000
 14   4.991436 -0.001575 0.000000 0.000000 0.000000 0.000000
 15   0.000005 0.001564 3.638375 -0.328854 -1.297594 3.458347
 16   8.842831 0.000000 -0.000002 1.517969 -0.773723 -0.261350
 17   9.341934 0.000000 -0.000001 0.000000 0.000000 1.018568
 18   11.168404 -0.000001 0.000002 1.076358 0.442534 0.067160
 19   0.000005 0.001585 -3.638375 0.443403 1.255494 3.564929
 20   8.842831 0.000000 0.000001 -0.344351 -1.106989 0.349037
 21   9.341937 0.000000 -0.000001 0.000000 0.000000 -1.168356
 22   11.168404 -0.000001 0.000001 1.091681 -0.041399 0.003251
 23   1.977383 0.000000 0.000000 0.805939 0.047249 -0.217660
 24   3.723980 2.768054 -0.049087 0.000001 -3.141591 -1.570794
 25   12.421014 0.304721 4.492689 -0.091859 -0.075839 1.616818
 26   19.916998 1.704573 4.956909 2.262592 1.451744 0.734330
time 9
  0   0.721973 -0.366064 26.846180 -0.013053 -0.043578 -1.666816
  1   -0.526041 0.000001 9.745319 -1.570795 -1.570451 0.000000
  2   -0.000008 0.000010 5.615750 -0.235833 3.359603 -0.713879
  3   15.693467 0.000000 0.000000 0.000000 0.000000 -0.593531
  4   22.146629 -0.000001 0.000000 0.112776 0.020085 -0.184527
  5   3.310129 5.734393 0.000000 0.000000 0.000000 1.570796
  6   0.000008 -0.000006 -5.615750 0.304793 2.998451 0.167978
  7   15.693467 0.000000 0.000000 0.000000 0.000000 -0.549907
  8   22.146629 0.000000 0.000000 0.688532 0.185705 0.623179
  9   3.310129 5.734393 0.000000 0.000000 0.000000 1.570796
 10   1.384163 -0.004728 0.000002 0.256750 -0.043607 0.091211
 11   5.939814 -0.004730 0.000000 0.117261 -0.019067 0.076202
 12   5.939809 -0.003975 0.000000 0.025302 -0.010930 0.156697
 13   4.991439 -0.003975 0.000000 0.104709 -0.000072 0.000000
 14   4.991436 -0.001575 0.000000 0.000000 0.000000 0.000000
 15   0.000005 0.001564 3.638375 -0.373819 -1.329809 3.504751
 16   8.842831 0.000000 -0.000002 1.585180 -0.482091 -0.310470
 17   9.341934 0.000000 -0.000001 0.000000 0.000000 0.591249
 18   11.168404 -0.000001 0.000002 1.479766 0.203658 -0.044923
 19   0.000005 0.001585 -3.638375 0.447429 1.254929 3.568764
 20   8.842831 0.000000 0.000001 -0.183665 -1.092028 0.129817
 21   9.341937 0.000000 -0.000001 0.000000 0.000000 -0.999347
 22   11.168404 -0.000001 0.000001 1.106410 -0.103290 0.018010
 23   1.977383 0.000000 0.000000 0.879153 0.060089 -0.216914
 24   3.723980 2.768054 -0.049087 0.000001 -3.141591 -1.570794
 25   12.421014 0.304721 4.492689 -0.091859 -0.075839 1.616818
 26   19.916998 1.704573 4.956909 2.262592 1.451744 0.734330
time 10
  0   0.782260 -0.359020 27.003008 -0.034871 -0.043578 -1.666816
  1   -0.526041 0.000001 9.745319 -1.570795 -1.570451 0.000000
  2   -0.000008 0.000010 5.615750 -0.231423 3.371486 -0.715026
  3   15.693467 0.000000 0.000000 0.000000 0.000000 -0.592678
  4   22.146629 -0.000001 0.000000 0.115580 0.029892 -0.182240
  5   3.310129 5.734393 0.000000 0.000000 0.000000 1.570796
  6   0.000008 -0.000006 -5.615750 0.311217 3.020503 0.195961
  7   15.693467 0.000000 0.000000 0.000000 0.000000 -0.494231
  8   22.146629 0.000000 0.000000 0.678266 0.194239 0.593497
  9   3.310129 5.734393 0.000000 0.000000 0.000000 1.570796
 10   1.384163 -0.004728 0.000002 0.247224 -0.048679 0.089721
 11   5.939814 -0.004730 0.000000 0.103977 -0.019055 0.076202
 12   5.939809 -0.003975 0.000000 0.025302 -0.010930 0.156697
 13   4.991439 -0.003975 0.000000 0.104709 -0.000072 0.000000
 14   4.991436 -0.001575 0.000000 0.000000 0.000000 0.000000
 15   0.000005 0.001564 3.638375 -0.400663 -1.345445 3.532363
 16   8.842831 0.000000 -0.000002 1.604749 -0.327950 -0.330103
 17   9.341934 0.000000 -0.000001 0.000000 0.000000 0.381239
 18   11.168404 -0.000001 0.000002 -4.610612 0.093695 -0.160888
 19   0.000005 0.001585 -3.638375 0.449059 1.254672 3.570298
 20   8.842831 0.000000 0.000001 -0.126340 -1.074323 0.057951
 21   9.341937 0.000000 -0.000001 0.000000 0.000000 -0.903750
 22   11.168404 -0.000001 0.000001 1.097740 -0.142078 0.062570
 23   1.977383 0.000000 0.000000 0.906060 0.064384 -0.216417
 24   3.723980 2.768054 -0.049087 0.000001 -3.141591 -1.570794
 25   12.421014 0.304721 4.492689 -0.091859 -0.075839 1.616818
 26   19.916998 1.704573 4.956909 2.262592 1.451744 0.734330
time 11
  0   0.827476 -0.366064 27.022612 -0.024801 -0.043578 -1.666816
  1   -0.526041 0.000001 9.745319 -1.570795 -1.570451 0.000000
  2   -0.000008 0.000010 5.615750 -0.235833 3.361999 -0.705468
  3   15.693467 0.000000 0.000000 0.000000 0.000000 -0.579517
  4   22.146629 -0.000001 0.000000 0.113225 0.027020 -0.187408
  5   3.310129 5.734393 0.000000 0.000000 0.000000 1.570796
  6   0.000008 -0.000006 -5.615750 0.306327 3.012257 0.190841
  7   15.693467 0.000000 0.000000 0.000000 0.000000 -0.503610
  8   22.146629 0.000000 0.000000 0.677533 0.190525 0.599398
  9   3.310129 5.734393 0.000000 0.000000 0.000000 1.570796
 10   1.384163 -0.004728 0.000002 0.266544 -0.035905 0.093640
 11   5.939814 -0.004730 0.000000 0.139903 -0.019091 0.076202
 12   5.939809 -0.003975 0.000000 0.025302 -0.010930 0.156697
 13   4.991439 -0.003975 0.000000 0.104709 -0.000072 0.000000
 14   4.991436 -0.001575 0.000000 0.000000 0.000000 0.000000
 15   0.000005 0.001564 3.638375 -0.373819 -1.329809 3.504751
 16   8.842831 0.000000 -0.000002 1.594050 -0.446742 -0.332492
 17   9.341934 0.000000 -0.000001 0.000000 0.000000 0.591249
 18   11.168404 -0.000001 0.000002 1.443284 0.142025 -0.154107
 19   0.000005 0.001585 -3.638375 0.448484 1.254774 3.569723
 20   8.842831 0.000000 0.000001 -0.134806 -1.048030 0.150214
 21   9.341937 0.000000 -0.000001 0.000000 0.000000 -0.955845
 22   11.168404 -0.000001 0.000001 1.071266 -0.179390 0.120762
 23   1.977383 0.000000 0.000000 0.848810 0.050136 -0.217361
 24   3.723980 2.768054 -0.049087 0.000001 -3.141591 -1.570794
 25   12.421014 0.304721 4.492689 -0.091859 -0.075839 1.616818
 26   19.916998 1.704573 4.956909 2.262592 1.451744 0.734330
time 12
  0   0.857620 -0.366064 26.963800 0.001585 -0.043578 -1.666816
  1   -0.526041 0.000001 9.745319 -1.570795 -1.570451 0.000000
  2   -0.000008 0.000010 5.615750 -0.244557 3.341491 -0.690272
  3   15.693467 0.000000 0.000000 0.000000 0.000000 -0.559314
  4   22.146629 -0.000001 0.000000 0.109149 0.017609 -0.196693
  5   3.310129 5.734393 0.000000 0.000000 0.000000 1.570796
  6   0.000008 -0.000006 -5.615750 0.295205 2.988768 0.169170
  7   15.693467 0.000000 0.000000 0.000000 0.000000 -0.545664
  8   22.146629 0.000000 0.000000 0.681143 0.180363 0.623356
  9   3.310129 5.734393 0.000000 0.000000 0.000000 1.570796
 10   1.384163 -0.004728 0.000002 0.300877 -0.014089 0.100959
 11   5.939814 -0.004730 0.000000 0.201295 -0.019139 0.076183
 12   5.939809 -0.003975 0.000000 0.025302 -0.010930 0.156697
 13   4.991439 -0.003975 0.000000 0.104709 -0.000072 0.000000
 14   4.991436 -0.001575 0.000000 0.000000 0.000000 0.000000
 15   0.000005 0.001564 3.638375 -0.328854 -1.297594 3.458347
 16   8.842831 0.000000 -0.000002 1.544305 -0.702931 -0.315397
 17   9.341934 0.000000 -0.000001 0.000000 0.000000 1.018568
 18   11.168404 -0.000001 0.000002 0.989640 0.284145 -0.126344
 19   0.000005 0.001585 -3.638375 0.445512 1.255186 3.566942
 20   8.842831 0.000000 0.000001 -0.378939 -1.041745 0.523556
 21   9.341937 0.000000 -0.000001 0.000000 0.000000 -1.157164
 22   11.168404 -0.000001 0.000001 1.021300 -0.147348 0.200294
 23   1.977383 0.000000 0.000000 0.745623 0.027435 -0.216367
 24   3.723980 2.768054 -0.049087 0.000001 -3.141591 -1.570794
 25   12.421014 0.304721 4.492689 -0.091859 -0.075839 1.616818
 26   19.916998 1.704573 4.956909 2.262592 1.451744 0.734330
time 13
  0   0.872692 -0.380152 26.865784 0.026106 -0.043578 -1.666816
  1   -0.526041 0.000001 9.745319 -1.570795 -1.570451 0.000000
  2   -0.000008 0.000010 5.615750 -0.251459 3.323667 -0.680905
  3   15.693467 0.000000 0.000000 0.000000 0.000000 -0.547363
  4   22.146629 -0.000001 0.000000 0.107616 0.008693 -0.202913
  5   3.310129 5.734393 0.000000 0.000000 0.000000 1.570796
  6   0.000008 -0.000006 -5.615750 0.283125 2.967197 0.147078
  7   15.693467 0.000000 0.000000 0.000000 0.000000 -0.588611
  8   22.146629 0.000000 0.000000 0.682779 0.170631 0.647577
  9   3.310129 5.734393 0.000000 0.000000 0.000000 1.570796
 10   1.384163 -0.004728 0.000002 0.325415 0.000858 0.106464
 11   5.939814 -0.004730 0.000000 0.243596 -0.019163 0.076183
 12   5.939809 -0.003975 0.000000 0.025302 -0.010930 0.156697
 13   4.991439 -0.003975 0.000000 0.104709 -0.000072 0.000000
 14   4.991436 -0.001575 0.000000 0.000000 0.000000 0.000000
 15   0.000005 0.001564 3.638375 -0.300188 -1.271619 3.428338
 16   8.842831 0.000000 -0.000002 1.462462 -0.911584 -0.265680
 17   9.341934 0.000000 -0.000001 0.000000 0.000000 1.358963
 18   11.168404 -0.000001 0.000002 0.623861 0.425499 -0.131454
 19   0.000005 0.001585 -3.638375 0.440431 1.255906 3.562053
 20   8.842831 0.000000 0.000001 -0.534869 -1.027846 0.764985
 21   9.341937 0.000000 -0.000001 0.000000 0.000000 -1.273812
 22   11.168404 -0.000001 0.000001 0.967326 -0.153545 0.140128
 23   1.977383 0.000000 0.000000 0.666435 0.014687 -0.214429
 24   3.723980 2.768054 -0.049087 0.000001 -3.141591 -1.570794
 25   12.421014 0.304721 4.492689 -0.091859 -0.075839 1.616818
 26   19.916998 1.704573 4.956909 2.262592 1.451744 0.734330
time 14
  0   0.880228 -0.387196 26.650146 0.046619 -0.043578 -1.666816
  1   -0.526041 0.000001 9.745319 -1.570795 -1.570451 0.000000
  2   -0.000008 0.000010 5.615750 -0.254335 3.313126 -0.689220
  3   15.693467 0.000000 0.000000 0.000000 0.000000 -0.562302
  4   22.146629 -0.000001 0.000000 0.108925 0.001040 -0.199528
  5   3.310129 5.734393 0.000000 0.000000 0.000000 1.570796
  6   0.000008 -0.000006 -5.615750 0.269798 2.946776 0.118604
  7   15.693467 0.000000 0.000000 0.000000 0.000000 -0.644138
  8   22.146629 0.000000 0.000000 0.682102 0.162465 0.677435
  9   3.310129 5.734393 0.000000 0.000000 0.000000 1.570796
 10   1.384163 -0.004728 0.000002 0.321241 -0.003409 0.104845
 11   5.939814 -0.004730 0.000000 0.230011 -0.019163 0.076183
 12   5.939809 -0.003975 0.000000 0.025302 -0.010930 0.156697
 13   4.991439 -0.003975 0.000000 0.104709 -0.000072 0.000000
 14   4.991436 -0.001575 0.000000 0.000000 0.000000 0.000000
 15   0.000005 0.001564 3.638375 -0.292806 -1.264110 3.420668
 16   8.842831 0.000000 -0.000002 1.398817 -1.009353 -0.196554
 17   9.341934 0.000000 -0.000001 0.000000 0.000000 1.456711
 18   11.168404 -0.000001 0.000002 0.550609 0.571542 -0.063398
 19   0.000005 0.001585 -3.638375 0.433144 1.256883 3.555150
 20   8.842831 0.000000 0.000001 -0.580019 -1.039266 0.783476
 21   9.341937 0.000000 -0.000001 0.000000 0.000000 -1.319112
 22   11.168404 -0.000001 0.000001 0.917546 -0.169313 0.101772
 23   1.977383 0.000000 0.000000 0.667334 0.025934 -0.216516
 24   3.723980 2.768054 -0.049087 0.000001 -3.141591 -1.570794
 25   12.421014 0.304721 4.492689 -0.091859 -0.075839 1.616818
 26   19.916998 1.704573 4.956909 2.262592 1.451744 0.734330
time 15
  0   0.880228 -0.387196 26.493320 0.052306 -0.043578 -1.666816
  1   -0.526041 0.000001 9.745319 -1.570795 -1.570451 0.000000
  2   -0.000008 0.000010 5.615750 -0.253472 3.313221 -0.701932
  3   15.693467 0.000000 0.000000 0.000000 0.000000 -0.582718
  4   22.146629 -0.000001 0.000000 0.115207 -0.001214 -0.192988
  5   3.310129 5.734393 0.000000 0.000000 0.000000 1.570796
  6   0.000008 -0.000006 -5.615750 0.262032 2.940256 0.103946
  7   15.693467 0.000000 0.000000 0.000000 0.000000 -0.672571
  8   22.146629 0.000000 0.000000 0.675445 0.159364 0.692584
  9   3.310129 5.734393 0.000000 0.000000 0.000000 1.570796
 10   1.384163 -0.004728 0.000002 0.303570 -0.015887 0.100278
 11   5.939814 -0.004730 0.000000 0.193499 -0.019127 0.076183
 12   5.939809 -0.003975 0.000000 0.025302 -0.010930 0.156697
 13   4.991439 -0.003975 0.000000 0.104709 -0.000072 0.000000
 14   4.991436 -0.001575 0.000000 0.000000 0.000000 0.000000
 15   0.000005 0.001564 3.638375 -0.300188 -1.271619 3.428338
 16   8.842831 0.000000 -0.000002 1.413906 -0.988888 -0.185282
 17   9.341934 0.000000 -0.000001 0.000000 0.000000 1.358963
 18   11.168404 -0.000001 0.000002 0.715162 0.624849 0.049324
 19   0.000005 0.001585 -3.638375 0.423749 1.258169 3.546234
 20   8.842831 0.000000 0.000001 -0.537368 -1.070339 0.665859
 21   9.341937 0.000000 -0.000001 0.000000 0.000000 -1.290466
 22   11.168404 -0.000001 0.000001 0.884826 -0.203632 0.041042
 23   1.977383 0.000000 0.000000 0.700055 0.048473 -0.219250
 24   3.723980 2.768054 -0.049087 0.000001 -3.141591 -1.570794
 25   12.421014 0.304721 4.492689 -0.091859 -0.075839 1.616818
 26   19.916998 1.704573 4.956909 2.262592 1.451744 0.734330
time 16
  0   0.857620 -0.387196 26.591337 0.025360 -0.044725 -1.657804
  1   -0.526041 0.000001 9.745319 -1.570795 -1.570451 0.000000
  2   -0.000008 0.000010 5.615750 -0.247433 3.328458 -0.710438
  3   15.693467 0.000000 0.000000 0.000000 0.000000 -0.591112
  4   22.146629 -0.000001 0.000000 0.137642 0.012532 -0.189375
  5   3.310129 5.734393 0.000000 0.000000 0.000000 1.570796
  6   0.000008 -0.000006 -5.615750 0.271428 2.968635 0.129545
  7   15.693467 0.000000 0.000000 0.000000 0.000000 -0.627912
  8   22.146629 0.000000 0.000000 0.664164 0.164522 0.670741
  9   3.310129 5.734393 0.000000 0.000000 0.000000 1.570796
 10   1.384163 -0.004728 0.000002 0.298689 -0.029063 0.096004
 11   5.939814 -0.004730 0.000000 0.162634 -0.019727 0.078038
 12   5.939809 -0.003975 0.000000 0.025915 -0.011242 0.160557
 13   4.991439 -0.003975 0.000000 0.107293 -0.000084 0.000000
 14   4.991436 -0.001575 0.000000 0.000000 0.000000 0.000000
 15   0.000005 0.001564 3.638375 -0.329525 -1.294547 3.458635
 16   8.842831 0.000000 -0.000002 1.572104 -0.836886 -0.310470
 17   9.341934 0.000000 -0.000001 0.000000 0.000000 1.087778
 18   11.168404 -0.000001 0.000002 0.918968 0.456602 0.020529
 19   0.000005 0.001585 -3.638375 0.412340 1.259660 3.535305
 20   8.842831 0.000000 0.000001 -0.406513 -1.068746 0.516408
 21   9.341937 0.000000 -0.000001 0.000000 0.000000 -1.161228
 22   11.168404 -0.000001 0.000001 0.892470 -0.283104 -0.091604
 23   1.977383 0.000000 0.000000 0.706505 0.072444 -0.228296
 24   3.723980 2.768054 -0.049087 0.000001 -3.141591 -1.570794
 25   12.421014 0.304721 4.492689 -0.091859 -0.075839 1.616818
 26   19.916998 1.704573 4.956909 2.262592 1.451744 0.734330
time 17
  0   0.827476 -0.380152 26.806974 -0.012773 -0.045585 -1.648695
  1   -0.526041 0.000001 9.745319 -1.570795 -1.570451 0.000000
  2   -0.000008 0.000010 5.615750 -0.238996 3.350307 -0.717128
  3   15.693467 0.000000 0.000000 0.000000 0.000000 -0.594812
  4   22.146629 -0.000001 0.000000 0.164340 0.030264 -0.186265
  5   3.310129 5.734393 0.000000 0.000000 0.000000 1.570796
  6   0.000008 -0.000006 -5.615750 0.284371 3.009765 0.170923
  7   15.693467 0.000000 0.000000 0.000000 0.000000 -0.551246
  8   22.146629 0.000000 0.000000 0.648651 0.173333 0.632339
  9   3.310129 5.734393 0.000000 0.000000 0.000000 1.570796
 10   1.384163 -0.004728 0.000002 0.291755 -0.042936 0.091632
 11   5.939814 -0.004730 0.000000 0.130491 -0.020266 0.079892
 12   5.939809 -0.003975 0.000000 0.026515 -0.011565 0.164430
 13   4.991439 -0.003975 0.000000 0.109877 -0.000084 0.000000
 14   4.991436 -0.001575 0.000000 0.000000 0.000000 0.000000
 15   0.000005 0.001564 3.638375 -0.374010 -1.323751 3.504463
 16   8.842831 0.000000 -0.000002 1.687232 -0.602000 -0.396691
 17   9.341934 0.000000 -0.000001 0.000000 0.000000 0.729670
 18   11.168404 -0.000001 0.000002 1.190772 0.229115 -0.089540
 19   0.000005 0.001585 -3.638375 0.398726 1.261357 3.522457
 20   8.842831 0.000000 0.000001 -0.236635 -1.066621 0.313009
 21   9.341937 0.000000 -0.000001 0.000000 0.000000 -0.984291
 22   11.168404 -0.000001 0.000001 0.909996 -0.309074 -0.089254
 23   1.977383 0.000000 0.000000 0.711897 0.099001 -0.236200
 24   3.723980 2.768054 -0.049087 0.000001 -3.141591 -1.570794
 25   12.421014 0.304721 4.492689 -0.091859 -0.075839 1.616818
 26   19.916998 1.704573 4.956909 2.262592 1.451744 0.734330
time 18
  0   0.782260 -0.359020 27.003008 -0.034871 -0.043578 -1.666816
  1   -0.526041 0.000001 9.745319 -1.570795 -1.570451 0.000000
  2   -0.000008 0.000010 5.615750 -0.232094 3.371677 -0.715026
  3   15.693467 0.000000 0.000000 0.000000 0.000000 -0.592678
  4   22.146629 -0.000001 0.000000 0.166883 0.030165 -0.182194
  5   3.310129 5.734393 0.000000 0.000000 0.000000 1.570796
  6   0.000008 -0.000006 -5.615750 0.286001 3.027597 0.193716
  7   15.693467 0.000000 0.000000 0.000000 0.000000 -0.494231
  8   22.146629 0.000000 0.000000 0.616893 0.184293 0.598077
  9   3.310129 5.734393 0.000000 0.000000 0.000000 1.570796
 10   1.384163 -0.004728 0.000002 0.247224 -0.048679 0.089721
 11   5.939814 -0.004730 0.000000 0.103977 -0.019055 0.076202
 12   5.939809 -0.003975 0.000000 0.025302 -0.010930 0.156697
 13   4.991439 -0.003975 0.000000 0.104709 -0.000072 0.000000
 14   4.991436 -0.001575 0.000000 0.000000 0.000000 0.000000
 15   0.000005 0.001564 3.638375 -0.400663 -1.345445 3.532363
 16   8.842831 0.000000 -0.000002 1.604749 -0.327950 -0.330103
 17   9.341934 0.000000 -0.000001 0.000000 0.000000 0.381239
 18   11.168404 -0.000001 0.000002 -4.610612 0.093695 -0.160888
 19   0.000005 0.001585 -3.638375 0.383099 1.263209 3.507501
 20   8.842831 0.000000 0.000001 -0.036120 -1.059628 0.008006
 21   9.341937 0.000000 -0.000001 0.000000 0.000000 -0.814282
 22   11.168404 -0.000001 0.000001 0.880725 -0.308906 -0.007654
 23   1.977383 0.000000 0.000000 0.754398 0.120616 -0.218157
 24   3.723980 2.768054 -0.049087 0.000001 -3.141591 -1.570794
 25   12.421014 0.304721 4.492689 -0.091859 -0.075839 1.616818
 26   19.916998 1.704573 4.956909 2.262592 1.451744 0.734330
time 19
  0   0.714437 -0.323800 27.179440 -0.036269 -0.038895 -1.713892
  1   -0.526041 0.000001 9.745319 -1.570795 -1.570451 0.000000
  2   -0.000008 0.000010 5.615750 -0.227876 3.390651 -0.702697
  3   15.693467 0.000000 0.000000 0.000000 0.000000 -0.585350
  4   22.146629 -0.000001 0.000000 0.151477 0.009807 -0.177117
  5   3.310129 5.734393 0.000000 0.000000 0.000000 1.570796
  6   0.000008 -0.000006 -5.615750 0.276509 3.015325 0.186423
  7   15.693467 0.000000 0.000000 0.000000 0.000000 -0.477707
  8   22.146629 0.000000 0.000000 0.568945 0.195713 0.577203
  9   3.310129 5.734393 0.000000 0.000000 0.000000 1.570796
 10   1.384163 -0.004728 0.000002 0.163446 -0.045485 0.090272
 11   5.939814 -0.004730 0.000000 0.083821 -0.016203 0.066545
 12   5.939809 -0.003975 0.000000 0.022163 -0.009312 0.136646
 13   4.991439 -0.003975 0.000000 0.091301 -0.000072 0.000000
 14   4.991436 -0.001575 0.000000 0.000000 0.000000 0.000000
 15   0.000005 0.001564 3.638375 -0.354932 -1.347658 3.487589
 16   8.842831 0.000000 -0.000002 1.167007 0.008239 -0.110333
 17   9.341934 0.000000 -0.000001 0.000000 0.000000 0.082829
 18   11.168404 -0.000001 0.000002 -3.581462 0.008901 -0.003893
 19   0.000005 0.001585 -3.638375 0.353474 1.266500 3.479219
 20   8.842831 0.000000 0.000001 0.187938 -1.032715 -0.391642
 21   9.341937 0.000000 -0.000001 0.000000 0.000000 -0.643341
 22   11.168404 -0.000001 0.000001 0.833555 -0.261475 0.135333
 23   1.977383 0.000000 0.000000 0.809692 0.144125 -0.172478
 24   3.723980 2.768054 -0.049087 0.000001 -3.141591 -1.570794
 25   12.421014 0.304721 4.492689 -0.091859 -0.075839 1.616818
 26   19.916998 1.704573 4.956909 2.262592 1.451744 0.734330
time 20
  0   0.608933 -0.267447 27.355869 -0.031980 -0.032970 -1.771130
  1   -0.526041 0.000001 9.745319 -1.570795 -1.570451 0.000000
  2   -0.000008 0.000010 5.615750 -0.225383 3.409434 -0.684346
  3   15.693467 0.000000 0.000000 0.000000 0.000000 -0.573470
  4   22.146629 -0.000001 0.000000 0.141980 -0.017361 -0.171858
  5   3.310129 5.734393 0.000000 0.000000 0.000000 1.570796
  6   0.000008 -0.000006 -5.615750 0.264429 2.995000 0.168399
  7   15.693467 0.000000 0.000000 0.000000 0.000000 -0.473092
  8   22.146629 0.000000 0.000000 0.514284 0.206919 0.559147
  9   3.310129 5.734393 0.000000 0.000000 0.000000 1.570796
 10   1.384163 -0.004728 0.000002 0.065564 -0.039126 0.091017
 11   5.939814 -0.004730 0.000000 0.065760 -0.012931 0.054747
 12   5.939809 -0.003975 0.000000 0.018297 -0.007418 0.112223
 13   4.991439 -0.003975 0.000000 0.074979 -0.000060 0.000000
 14   4.991436 -0.001575 0.000000 0.000000 0.000000 0.000000
 15   0.000005 0.001564 3.638375 -0.276220 -1.339749 3.410025
 16   8.842831 0.000000 -0.000002 0.571159 0.388802 -0.024187
 17   9.341934 0.000000 -0.000001 0.000000 0.000000 -0.198196
 18   11.168404 -0.000001 0.000002 -2.526908 -0.189779 0.083327
 19   0.000005 0.001585 -3.638375 0.301319 1.271541 3.429461
 20   8.842831 0.000000 0.000001 -0.164798 -1.030148 -0.155075
 21   9.341937 0.000000 -0.000001 0.000000 0.000000 -1.255359
 22   11.168404 -0.000001 0.000001 1.002190 -0.228928 0.379005
 23   1.977383 0.000000 0.000000 0.834696 0.178072 -0.114025
 24   3.723980 2.768054 -0.049087 0.000001 -3.141591 -1.570794
 25   12.421014 0.304721 4.492689 -0.091859 -0.075839 1.616818
 26   19.916998 1.704573 4.956909 2.262592 1.451744 0.734330
time 21
  0   0.480822 -0.204051 27.532299 -0.024148 -0.025803 -1.835176
  1   -0.526041 0.000001 9.745319 -1.570795 -1.570451 0.000000
  2   -0.000008 0.000010 5.615750 -0.224616 3.427450 -0.660261
  3   15.693467 0.000000 0.000000 0.000000 0.000000 -0.557180
  4   22.146629 -0.000001 0.000000 0.135810 -0.048913 -0.165866
  5   3.310129 5.734393 0.000000 0.000000 0.000000 1.570796
  6   0.000008 -0.000006 -5.615750 0.250718 2.970169 0.142519
  7   15.693467 0.000000 0.000000 0.000000 0.000000 -0.475921
  8   22.146629 0.000000 0.000000 0.455054 0.217848 0.542324
  9   3.310129 5.734393 0.000000 0.000000 0.000000 1.570796
 10   1.384163 -0.004728 0.000002 -0.041607 -0.030619 0.091341
 11   5.939814 -0.004730 0.000000 0.049032 -0.009468 0.041476
 12   5.939809 -0.003975 0.000000 0.013921 -0.005429 0.084913
 13   4.991439 -0.003975 0.000000 0.056719 -0.000036 0.000000
 14   4.991436 -0.001575 0.000000 0.000000 0.000000 0.000000
 15   0.000005 0.001564 3.638375 -0.198371 -1.328757 3.333517
 16   8.842831 0.000000 -0.000002 -0.067486 0.597269 -0.222756
 17   9.341934 0.000000 -0.000001 0.000000 0.000000 -0.449208
 18   11.168404 -0.000001 0.000002 -2.526240 -0.058378 0.076005
 19   0.000005 0.001585 -3.638375 0.232578 1.276787 3.363692
 20   8.842831 0.000000 0.000001 -0.072724 -1.033158 -0.454359
 21   9.341937 0.000000 -0.000001 0.000000 0.000000 -1.511371
 22   11.168404 -0.000001 0.000001 1.194968 -0.159954 0.548597
 23   1.977383 0.000000 0.000000 0.839929 0.215738 -0.044389
 24   3.723980 2.768054 -0.049087 0.000001 -3.141591 -1.570794
 25   12.421014 0.304721 4.492689 -0.091859 -0.075839 1.616818
 26   19.916998 1.704573 4.956909 2.262592 1.451744 0.734330
time 22
  0   0.337639 -0.133611 27.689127 -0.014918 -0.017489 -1.902385
  1   -0.526041 0.000001 9.745319 -1.570795 -1.570451 0.000000
  2   -0.000008 0.000010 5.615750 -0.225767 3.444028 -0.631206
  3   15.693467 0.000000 0.000000 0.000000 0.000000 -0.536693
  4   22.146629 -0.000001 0.000000 0.130650 -0.082223 -0.159051
  5   3.310129 5.734393 0.000000 0.000000 0.000000 1.570796
  6   0.000008 -0.000006 -5.615750 0.236433 2.943995 0.112292
  7   15.693467 0.000000 0.000000 0.000000 0.000000 -0.481354
  8   22.146629 0.000000 0.000000 0.393681 0.228409 0.525237
  9   3.310129 5.734393 0.000000 0.000000 0.000000 1.570796
 10   1.384163 -0.004728 0.000002 -0.153491 -0.021066 0.090725
 11   5.939814 -0.004730 0.000000 0.032960 -0.006016 0.027479
 12   5.939809 -0.003975 0.000000 0.009251 -0.003452 0.056130
 13   4.991439 -0.003975 0.000000 0.037482 -0.000024 0.000000
 14   4.991436 -0.001575 0.000000 0.000000 0.000000 0.000000
 15   0.000005 0.001564 3.638375 -0.125891 -1.315552 3.262664
 16   8.842831 0.000000 -0.000002 -0.341269 0.504431 -0.572940
 17   9.341934 0.000000 -0.000001 0.000000 0.000000 -0.626335
 18   11.168404 -0.000001 0.000002 -3.005669 0.154849 -0.068509
 19   0.000005 0.001585 -3.638375 0.153866 1.281055 3.288336
 20   8.842831 0.000000 0.000001 0.308473 -0.997924 -1.084189
 21   9.341937 0.000000 -0.000001 0.000000 0.000000 -1.527959
 22   11.168404 -0.000001 0.000001 1.402662 -0.078079 0.674851
 23   1.977383 0.000000 0.000000 0.835436 0.250886 0.033200
 24   3.723980 2.768054 -0.049087 0.000001 -3.141591 -1.570794
 25   12.421014 0.304721 4.492689 -0.091859 -0.075839 1.616818
 26   19.916998 1.704573 4.956909 2.262592 1.451744 0.734330
time 23
  0   0.201991 -0.070215 27.865557 -0.006154 -0.008601 -1.969595
  1   -0.526041 0.000001 9.745319 -1.570795 -1.570451 0.000000
  2   -0.000008 0.000010 5.615750 -0.228643 3.458882 -0.598424
  3   15.693467 0.000000 0.000000 0.000000 0.000000 -0.512862
  4   22.146629 -0.000001 0.000000 0.124330 -0.114740 -0.151368
  5   3.310129 5.734393 0.000000 0.000000 0.000000 1.570796
  6   0.000008 -0.000006 -5.615750 0.223010 2.919548 0.081504
  7   15.693467 0.000000 0.000000 0.000000 0.000000 -0.484853
  8   22.146629 0.000000 0.000000 0.332589 0.238478 0.506565
  9   3.310129 5.734393 0.000000 0.000000 0.000000 1.570796
 10   1.384163 -0.004728 0.000002 -0.265374 -0.011620 0.089074
 11   5.939814 -0.004730 0.000000 0.016835 -0.002792 0.013405
 12   5.939809 -0.003975 0.000000 0.004530 -0.001618 0.027334
 13   4.991439 -0.003975 0.000000 0.018260 -0.000012 0.000000
 14   4.991436 -0.001575 0.000000 0.000000 0.000000 0.000000
 15   0.000005 0.001564 3.638375 -0.060122 -1.300859 3.198715
 16   8.842831 0.000000 -0.000002 -0.431981 0.285545 -0.841159
 17   9.341934 0.000000 -0.000001 0.000000 0.000000 -0.774760
 18   11.168404 -0.000001 0.000002 -3.655764 0.297447 -0.305647
 19   0.000005 0.001585 -3.638375 0.073333 1.283524 3.211158
 20   8.842831 0.000000 0.000001 0.706117 -0.827598 -1.726601
 21   9.341937 0.000000 -0.000001 0.000000 0.000000 -1.345093
 22   11.168404 -0.000001 0.000001 1.609331 0.001140 0.715369
 23   1.977383 0.000000 0.000000 0.830784 0.278367 0.114865
 24   3.723980 2.768054 -0.049087 0.000001 -3.141591 -1.570794
 25   12.421014 0.304721 4.492689 -0.091859 -0.075839 1.616818
 26   19.916998 1.704573 4.956909 2.262592 1.451744 0.734330
time 24
  0   0.073880 -0.006819 28.041988 0.000000 0.000000 -2.033353
  1   -0.526041 0.000001 9.745319 -1.570795 -1.570451 0.000000
  2   -0.000008 0.000010 5.615750 -0.233053 3.472298 -0.563921
  3   15.693467 0.000000 0.000000 0.000000 0.000000 -0.487323
  4   22.146629 -0.000001 0.000000 0.114982 -0.144038 -0.143135
  5   3.310129 5.734393 0.000000 0.000000 0.000000 1.570796
  6   0.000008 -0.000006 -5.615750 0.212080 2.899510 0.054433
  7   15.693467 0.000000 0.000000 0.000000 0.000000 -0.482099
  8   22.146629 0.000000 0.000000 0.274883 0.248026 0.484986
  9   3.310129 5.734393 0.000000 0.000000 0.000000 1.570796
 10   1.384163 -0.004728 0.000002 -0.372579 -0.003463 0.086548
 11   5.939814 -0.004730 0.000000 0.000000 0.000000 0.000000
 12   5.939809 -0.003975 0.000000 0.000000 0.000000 0.000000
 13   4.991439 -0.003975 0.000000 0.000000 0.000000 0.000000
 14   4.991436 -0.001575 0.000000 0.000000 0.000000 0.000000
 15   0.000005 0.001564 3.638375 -0.000010 -1.284244 3.140806
 16   8.842831 0.000000 -0.000002 -0.414972 -0.110832 -0.914689
 17   9.341934 0.000000 -0.000001 0.000000 0.000000 -0.853073
 18   11.168404 -0.000001 0.000002 -4.515872 0.471532 -0.520821
 19   0.000005 0.001585 -3.638375 -0.000010 1.284244 3.140787
 20   8.842831 0.000000 0.000001 0.955975 -0.539709 -2.199069
 21   9.341937 0.000000 -0.000001 0.000000 0.000000 -0.994883
 22   11.168404 -0.000001 0.000001 1.804999 0.075469 0.649469
 23   1.977383 0.000000 0.000000 0.835700 0.294324 0.196082
 24   3.723980 2.768054 -0.049087 0.000001 -3.141591 -1.570794
 25   12.421014 0.304721 4.492689 -0.091859 -0.075839 1.616818
 26   19.916998 1.704573 4.956909 2.262592 1.451744 0.734330
end
