version 1
nodes
  0 "Bip01" -1
  1 "Bip01 Pelvis" 0
  2 "Bip01 L Thigh" 1
  3 "Bip01 L Calf" 2
  4 "Bip01 L Foot" 3
  5 "Bip01 L Toe0" 4
  6 "Bip01 R Thigh" 1
  7 "Bip01 R Calf" 6
  8 "Bip01 R Foot" 7
  9 "Bip01 R Toe0" 8
 10 "Bip01 Spine" 1
 11 "Bip01 Spine1" 10
 12 "Bip01 Spine2" 11
 13 "Bip01 Spine3" 12
 14 "Bip01 Neck" 13
 15 "Bip01 L Clavicle" 14
 16 "Bip01 L UpperArm" 15
 17 "Bip01 L Forearm" 16
 18 "Bip01 L Hand" 17
 19 "Bip01 R Clavicle" 14
 20 "Bip01 R UpperArm" 19
 21 "Bip01 R Forearm" 20
 22 "Bip01 R Hand" 21
 23 "Bip01 Head" 14
 24 "Bone05" 23
 25 "m4" 22
 26 "SHOTGUN" 22
end
skeleton
time 0
  0   0.073880 -0.006819 31.080515 0.000000 0.000000 -1.588293
  1   -0.526041 0.000001 9.745319 -1.570795 -1.570451 0.000000
  2   -0.000008 0.000010 5.615750 0.000001 3.141112 -0.115865
  3   15.693467 0.000000 0.000000 0.000000 0.000000 -0.231514
  4   22.146629 -0.000001 0.000000 -0.017425 0.000545 0.115642
  5   3.310129 5.734393 0.000000 0.000000 0.000000 1.570796
  6   0.000008 -0.000006 -5.615750 0.000001 3.141112 -0.121952
  7   15.693467 0.000000 0.000000 0.000000 0.000000 -0.233122
  8   22.146629 0.000000 0.000000 -0.017430 0.000491 0.111098
  9   3.310129 5.734393 0.000000 0.000000 0.000000 1.570796
 10   1.384163 -0.004728 0.000002 -0.000004 -0.000001 0.000796
 11   5.939814 -0.004730 0.000000 0.000000 0.000000 0.000000
 12   5.939809 -0.003975 0.000000 0.000000 0.000000 0.000000
 13   4.991439 -0.003975 0.000000 0.000000 0.000000 0.000000
 14   4.991436 -0.001575 0.000000 0.000000 0.000000 0.000000
 15   0.000005 0.001564 3.638375 -0.000010 -1.283555 3.140806
 16   8.842831 0.000000 -0.000002 0.198342 0.816155 0.269263
 17   9.341934 0.000000 -0.000001 0.000000 0.000000 -0.775908
 18   11.168404 -0.000001 0.000002 -1.675778 0.097523 0.028440
 19   0.000005 0.001585 -3.638375 -0.000010 1.283575 3.140787
 20   8.842831 0.000000 0.000001 -0.313068 -0.813257 0.402794
 21   9.341937 0.000000 -0.000001 0.000000 0.000000 -0.706228
 22   11.168404 -0.000001 0.000001 1.195994 -0.115770 -0.059077
 23   1.977383 0.000000 0.000000 0.000000 0.000000 -0.000798
 24   3.723980 2.768054 -0.049087 0.000001 -3.141591 -1.570794
 25   12.421014 0.304721 4.492689 -0.091859 -0.075839 1.616818
 26   19.916998 1.704573 4.956909 2.262592 1.451744 0.734330
time 1
  0   -0.084375 0.169282 29.865103 -0.044661 -0.001242 -1.586663
  1   -0.526041 0.000001 9.745319 -1.570795 -1.570451 0.000000
  2   -0.000008 0.000010 5.615750 0.023009 3.164878 -0.335879
  3   15.693467 0.000000 0.000000 0.000000 0.000000 -0.605980
  4   22.146629 -0.000001 0.000000 -0.028867 0.006142 0.269820
  5   3.310129 5.734393 0.000000 0.000000 0.000000 1.570796
  6   0.000008 -0.000006 -5.615750 0.019368 3.166614 -0.294619
  7   15.693467 0.000000 0.000000 0.000000 0.000000 -0.528247
  8   22.146629 0.000000 0.000000 -0.026061 0.006140 0.233349
  9   3.310129 5.734393 0.000000 0.000000 0.000000 1.570796
 10   1.384163 -0.004728 0.000002 -0.062005 0.000026 0.000796
 11   5.939814 -0.004730 0.000000 0.000000 0.000000 0.000000
 12   5.939809 -0.003975 0.000000 0.000000 0.000000 0.000000
 13   4.991439 -0.003975 0.000000 0.000000 0.000000 0.000000
 14   4.991436 -0.001575 0.000000 0.000000 0.000000 0.000000
 15   0.000005 0.001564 3.638375 -0.000010 -1.283555 3.140806
 16   8.842831 0.000000 -0.000002 -0.019478 0.586013 0.178713
 17   9.341934 0.000000 -0.000001 0.000000 0.000000 -1.241277
 18   11.168404 -0.000001 0.000002 -1.477321 -0.248924 -0.100989
 19   0.000005 0.001585 -3.638375 -0.214382 1.336754 2.932071
 20   8.842831 0.000000 0.000001 -0.458839 -0.804936 0.563874
 21   9.341937 0.000000 -0.000001 0.000000 0.000000 -0.864379
 22   11.168404 -0.000001 0.000001 1.273832 -0.016061 -0.060958
 23   1.977383 0.000000 0.000000 0.062007 0.000000 -0.000798
 24   3.723980 2.768054 -0.049087 0.000001 -3.141591 -1.570794
 25   12.421014 0.304721 4.492689 -0.091859 -0.075839 1.616818
 26   19.916998 1.704573 4.956909 2.262592 1.451744 0.734330
time 2
  0   -0.031623 0.535570 28.120401 -0.086990 -0.003440 -1.586855
  1   -0.526041 0.000001 9.745319 -1.570795 -1.570451 0.000000
  2   -0.000008 0.000010 5.615750 0.060589 3.197939 -0.518810
  3   15.693467 0.000000 0.000000 0.000000 0.000000 -0.912511
  4   22.146629 -0.000001 0.000000 -0.035635 0.009485 0.393674
  5   3.310129 5.734393 0.000000 0.000000 0.000000 1.570796
  6   0.000008 -0.000006 -5.615750 0.051487 3.203717 -0.443721
  7   15.693467 0.000000 0.000000 0.000000 0.000000 -0.780721
  8   22.146629 0.000000 0.000000 -0.030743 0.010285 0.337104
  9   3.310129 5.734393 0.000000 0.000000 0.000000 1.570796
 10   1.384163 -0.004728 0.000002 -0.124274 0.000080 0.000796
 11   5.939814 -0.004730 0.000000 0.000000 0.000000 0.000000
 12   5.939809 -0.003975 0.000000 0.000000 0.000000 0.000000
 13   4.991439 -0.003975 0.000000 0.000000 0.000000 0.000000
 14   4.991436 -0.001575 0.000000 0.000000 0.000000 0.000000
 15   0.000005 0.001564 3.638375 -0.000010 -1.283555 3.140806
 16   8.842831 0.000000 -0.000002 -0.161764 0.422570 0.076442
 17   9.341934 0.000000 -0.000001 0.000000 0.000000 -1.490484
 18   11.168404 -0.000001 0.000002 -1.222803 -0.428559 -0.267025
 19   0.000005 0.001585 -3.638375 -0.549554 1.376613 2.599679
 20   8.842831 0.000000 0.000001 -0.622105 -0.777492 0.725906
 21   9.341937 0.000000 -0.000001 0.000000 0.000000 -1.034321
 22   11.168404 -0.000001 0.000001 1.357544 0.090899 -0.054189
 23   1.977383 0.000000 0.000000 0.124279 0.000000 -0.000798
 24   3.723980 2.768054 -0.049087 0.000001 -3.141591 -1.570794
 25   12.421014 0.304721 4.492689 -0.091859 -0.075839 1.616818
 26   19.916998 1.704573 4.956909 2.262592 1.451744 0.734330
time 3
  0   -0.084375 0.803243 26.003235 -0.130439 -0.005161 -1.586088
  1   -0.526041 0.000001 9.745319 -1.570795 -1.570451 0.000000
  2   -0.000008 0.000010 5.615750 0.105455 3.230137 -0.685589
  3   15.693467 0.000000 0.000000 0.000000 0.000000 -1.183899
  4   22.146629 -0.000001 0.000000 -0.032382 0.011690 0.500377
  5   3.310129 5.734393 0.000000 0.000000 0.000000 1.570796
  6   0.000008 -0.000006 -5.615750 0.090125 3.240725 -0.582865
  7   15.693467 0.000000 0.000000 0.000000 0.000000 -1.011387
  8   22.146629 0.000000 0.000000 -0.027359 0.014583 0.430730
  9   3.310129 5.734393 0.000000 0.000000 0.000000 1.570796
 10   1.384163 -0.004728 0.000002 -0.186679 0.000133 0.000796
 11   5.939814 -0.004730 0.000000 0.000000 0.000000 0.000000
 12   5.939809 -0.003975 0.000000 0.000000 0.000000 0.000000
 13   4.991439 -0.003975 0.000000 0.000000 0.000000 0.000000
 14   4.991436 -0.001575 0.000000 0.000000 0.000000 0.000000
 15   0.000005 0.001564 3.638375 -0.000010 -1.283555 3.140806
 16   8.842831 0.000000 -0.000002 -0.278812 0.397546 -0.237910
 17   9.341934 0.000000 -0.000001 0.000000 0.000000 -1.301877
 18   11.168404 -0.000001 0.000002 -0.944504 -0.304910 -0.337194
 19   0.000005 0.001585 -3.638375 -0.966410 1.386436 2.182344
 20   8.842831 0.000000 0.000001 -0.762958 -0.731547 0.863443
 21   9.341937 0.000000 -0.000001 0.000000 0.000000 -1.198334
 22   11.168404 -0.000001 0.000001 1.440323 0.193307 -0.039053
 23   1.977383 0.000000 0.000000 0.186657 0.000000 -0.000798
 24   3.723980 2.768054 -0.049087 0.000001 -3.141591 -1.570794
 25   12.421014 0.304721 4.492689 -0.091859 -0.075839 1.616818
 26   19.916998 1.704573 4.956909 2.262592 1.451744 0.734330
time 4
  0   -0.544069 0.711671 23.748844 -0.178829 -0.004683 -1.581486
  1   -0.526041 0.000001 9.745319 -1.570795 -1.570451 0.000000
  2   -0.000008 0.000010 5.615750 0.148116 3.254095 -0.837266
  3   15.693467 0.000000 0.000000 0.000000 0.000000 -1.421284
  4   22.146629 -0.000001 0.000000 -0.018883 0.014587 0.590341
  5   3.310129 5.734393 0.000000 0.000000 0.000000 1.570796
  6   0.000008 -0.000006 -5.615750 0.126942 3.268816 -0.713452
  7   15.693467 0.000000 0.000000 0.000000 0.000000 -1.221659
  8   22.146629 0.000000 0.000000 -0.015907 0.020600 0.514492
  9   3.310129 5.734393 0.000000 0.000000 0.000000 1.570796
 10   1.384163 -0.004728 0.000002 -0.249151 0.000187 0.000796
 11   5.939814 -0.004730 0.000000 0.000000 0.000000 0.000000
 12   5.939809 -0.003975 0.000000 0.000000 0.000000 0.000000
 13   4.991439 -0.003975 0.000000 0.000000 0.000000 0.000000
 14   4.991436 -0.001575 0.000000 0.000000 0.000000 0.000000
 15   0.000005 0.001564 3.638375 -0.000010 -1.283555 3.140806
 16   8.842831 0.000000 -0.000002 -0.386351 0.389546 -0.637662
 17   9.341934 0.000000 -0.000001 0.000000 0.000000 -1.001663
 18   11.168404 -0.000001 0.000002 -0.669931 -0.082878 -0.306040
 19   0.000005 0.001585 -3.638375 -1.308868 1.366275 1.837297
 20   8.842831 0.000000 0.000001 -0.850195 -0.677811 0.963522
 21   9.341937 0.000000 -0.000001 0.000000 0.000000 -1.338964
 22   11.168404 -0.000001 0.000001 1.514060 0.279777 -0.018841
 23   1.977383 0.000000 0.000000 0.249140 0.000000 -0.000798
 24   3.723980 2.768054 -0.049087 0.000001 -3.141591 -1.570794
 25   12.421014 0.304721 4.492689 -0.091859 -0.075839 1.616818
 26   19.916998 1.704573 4.956909 2.262592 1.451744 0.734330
time 5
  0   -1.742286 -0.006819 22.513830 -0.235424 0.000000 -1.570844
  1   -0.526041 0.000001 9.745319 -1.570795 -1.570451 0.000000
  2   -0.000008 0.000010 5.615750 0.174671 3.268277 -0.921086
  3   15.693467 0.000000 0.000000 0.000000 0.000000 -1.546628
  4   22.146629 -0.000001 0.000000 -0.006020 0.020060 0.635849
  5   3.310129 5.734393 0.000000 0.000000 0.000000 1.570796
  6   0.000008 -0.000006 -5.615750 0.148897 3.285785 -0.780990
  7   15.693467 0.000000 0.000000 0.000000 0.000000 -1.326832
  8   22.146629 0.000000 0.000000 -0.005246 0.028612 0.555888
  9   3.310129 5.734393 0.000000 0.000000 0.000000 1.570796
 10   1.384163 -0.004728 0.000002 -0.311589 0.000241 0.000764
 11   5.939814 -0.004730 0.000000 0.000000 0.000000 0.000000
 12   5.939809 -0.003975 0.000000 0.000000 0.000000 0.000000
 13   4.991439 -0.003975 0.000000 0.000000 0.000000 0.000000
 14   4.991436 -0.001575 0.000000 0.000000 0.000000 0.000000
 15   0.000005 0.001564 3.638375 -0.000010 -1.283555 3.140806
 16   8.842831 0.000000 -0.000002 -0.478435 0.332150 -1.008972
 17   9.341934 0.000000 -0.000001 0.000000 0.000000 -0.557206
 18   11.168404 -0.000001 0.000002 -0.451704 0.119152 -0.220049
 19   0.000005 0.001585 -3.638375 -1.500614 1.334543 1.642195
 20   8.842831 0.000000 0.000001 -0.861966 -0.631600 1.025381
 21   9.341937 0.000000 -0.000001 0.000000 0.000000 -1.438491
 22   11.168404 -0.000001 0.000001 1.568687 0.340024 -0.000040
 23   1.977383 0.000000 0.000000 0.311570 0.000000 -0.000798
 24   3.723980 2.768054 -0.049087 0.000001 -3.141591 -1.570794
 25   12.421014 0.304721 4.492689 -0.091859 -0.075839 1.616818
 26   19.916998 1.704573 4.956909 2.262592 1.451744 0.734330
time 6
  0   -4.214081 -1.669206 28.904537 -0.370431 0.047879 -1.504209
  1   -0.526041 0.000001 9.745319 -1.570795 -1.570451 0.000000
  2   -0.000008 0.000010 5.615750 0.238998 3.490889 -0.511451
  3   15.693467 0.000000 0.000000 0.000000 0.000000 -0.854605
  4   22.146629 -0.000001 0.000000 0.020641 -0.045644 0.426284
  5   3.310129 5.734393 0.000000 0.000000 0.000000 1.570796
  6   0.000008 -0.000006 -5.615750 0.143145 2.929806 -0.976591
  7   15.693467 0.000000 0.000000 0.000000 0.000000 -1.456642
  8   22.146629 0.000000 0.000000 0.093752 0.092346 0.482784
  9   3.310129 5.734393 0.000000 0.000000 0.000000 1.570796
 10   1.384163 -0.004728 0.000002 -0.373892 0.000267 0.000764
 11   5.939814 -0.004730 0.000000 0.000000 0.000000 0.000000
 12   5.939809 -0.003975 0.000000 0.000000 0.000000 0.000000
 13   4.991439 -0.003975 0.000000 0.000000 0.000000 0.000000
 14   4.991436 -0.001575 0.000000 0.000000 0.000000 0.000000
 15   0.000005 0.001564 3.638375 -0.000010 -1.283555 3.140806
 16   8.842831 0.000000 -0.000002 -0.489225 0.283219 -1.106540
 17   9.341934 0.000000 -0.000001 0.000000 0.000000 -0.326449
 18   11.168404 -0.000001 0.000002 -0.371577 0.222320 -0.191795
 19   0.000005 0.001585 -3.638375 -1.572327 1.306719 1.568373
 20   8.842831 0.000000 0.000001 -0.773923 -0.608052 1.052640
 21   9.341937 0.000000 -0.000001 0.000000 0.000000 -1.485390
 22   11.168404 -0.000001 0.000001 1.595068 0.372993 0.010301
 23   1.977383 0.000000 0.000000 0.257122 0.000000 -0.000798
 24   3.723980 2.768054 -0.049087 0.000001 -3.141591 -1.570794
 25   12.421014 0.304721 4.492689 -0.091859 -0.075839 1.616818
 26   19.916998 1.704573 4.956909 2.262592 1.451744 0.734330
time 7
  0   -7.771053 -4.176876 37.020344 -0.566229 0.148223 -1.404018
  1   -0.526041 0.000001 9.745319 -1.570795 -1.570451 0.000000
  2   -0.000008 0.000010 5.615750 0.393824 3.752599 -0.455061
  3   15.693467 0.000000 0.000000 0.000000 0.000000 -0.307062
  4   22.146629 -0.000001 0.000000 0.092360 -0.084724 -0.450804
  5   3.310129 5.734393 0.000000 0.000000 0.000000 1.570796
  6   0.000008 -0.000006 -5.615750 0.059157 2.587441 -1.193161
  7   15.693467 0.000000 0.000000 0.000000 0.000000 -1.573798
  8   22.146629 0.000000 0.000000 0.152700 0.095447 0.384314
  9   3.310129 5.734393 0.000000 0.000000 0.000000 1.570796
 10   1.384163 -0.004728 0.000002 -0.435994 0.000321 0.000731
 11   5.939814 -0.004730 0.000000 0.000000 0.000000 0.000000
 12   5.939809 -0.003975 0.000000 0.000000 0.000000 0.000000
 13   4.991439 -0.003975 0.000000 0.000000 0.000000 0.000000
 14   4.991436 -0.001575 0.000000 0.000000 0.000000 0.000000
 15   0.000005 0.001564 3.638375 -0.000010 -1.283555 3.140806
 16   8.842831 0.000000 -0.000002 -0.382510 0.485640 -0.907971
 17   9.341934 0.000000 -0.000001 0.000000 0.000000 -0.551302
 18   11.168404 -0.000001 0.000002 -0.092132 0.063070 -0.112143
 19   0.000005 0.001585 -3.638375 -1.579614 1.285838 1.560799
 20   8.842831 0.000000 0.000001 -0.607674 -0.608583 1.055500
 21   9.341937 0.000000 -0.000001 0.000000 0.000000 -1.491252
 22   11.168404 -0.000001 0.000001 1.598144 0.386485 0.011900
 23   1.977383 0.000000 0.000000 0.204683 0.000000 -0.000798
 24   3.723980 2.768054 -0.049087 0.000001 -3.141591 -1.570794
 25   12.421014 0.304721 4.492689 -0.091859 -0.075839 1.616818
 26   19.916998 1.704573 4.956909 2.262592 1.451744 0.734330
time 8
  0   -11.606856 -7.128318 45.096939 -0.714569 0.225345 -1.350231
  1   -0.526041 0.000001 9.745319 -1.570795 -1.570451 0.000000
  2   -0.000008 0.000010 5.615750 0.602719 3.756528 -0.688838
  3   15.693467 0.000000 0.000000 0.000000 0.000000 -0.275334
  4   22.146629 -0.000001 0.000000 -0.040122 -0.004483 -0.724171
  5   3.310129 5.734393 0.000000 0.000000 0.000000 1.570796
  6   0.000008 -0.000006 -5.615750 -0.093670 2.360508 -1.429930
  7   15.693467 0.000000 0.000000 0.000000 0.000000 -1.665052
  8   22.146629 0.000000 0.000000 0.201381 0.048322 0.308303
  9   3.310129 5.734393 0.000000 0.000000 0.000000 1.570796
 10   1.384163 -0.004728 0.000002 -0.497826 0.000375 0.000731
 11   5.939814 -0.004730 0.000000 0.000000 0.000000 0.000000
 12   5.939809 -0.003975 0.000000 0.000000 0.000000 0.000000
 13   4.991439 -0.003975 0.000000 0.000000 0.000000 0.000000
 14   4.991436 -0.001575 0.000000 0.000000 0.000000 0.000000
 15   0.000005 0.001564 3.638375 -0.000010 -1.283555 3.140806
 16   8.842831 0.000000 -0.000002 -0.275155 0.528803 -0.595783
 17   9.341934 0.000000 -0.000001 0.000000 0.000000 -0.609934
 18   11.168404 -0.000001 0.000002 0.081876 -0.028136 -0.257541
 19   0.000005 0.001585 -3.638375 -1.558234 1.269638 1.583233
 20   8.842831 0.000000 0.000001 -0.410303 -0.623455 1.043014
 21   9.341937 0.000000 -0.000001 0.000000 0.000000 -1.473665
 22   11.168404 -0.000001 0.000001 1.587703 0.383533 0.008045
 23   1.977383 0.000000 0.000000 0.196912 -0.002101 -0.010888
 24   3.723980 2.768054 -0.049087 0.000001 -3.141591 -1.570794
 25   12.421014 0.304721 4.492689 -0.091859 -0.075839 1.616818
 26   19.916998 1.704573 4.956909 2.262592 1.451744 0.734330
time 9
  0   -14.922679 -10.143156 51.840508 -0.843143 0.327791 -1.291555
  1   -0.526041 0.000001 9.745319 -1.570795 -1.570451 0.000000
  2   -0.000008 0.000010 5.615750 0.741823 3.635400 -0.862594
  3   15.693467 0.000000 0.000000 0.000000 0.000000 -0.412771
  4   22.146629 -0.000001 0.000000 -0.252699 0.090569 -0.869202
  5   3.310129 5.734393 0.000000 0.000000 0.000000 1.570796
  6   0.000008 -0.000006 -5.615750 2.817335 0.968229 1.415221
  7   15.693467 0.000000 0.000000 0.000000 0.000000 -1.736805
  8   22.146629 0.000000 0.000000 0.192130 -0.011789 0.250965
  9   3.310129 5.734393 0.000000 0.000000 0.000000 1.570796
 10   1.384163 -0.004728 0.000002 -0.559254 0.000402 0.000699
 11   5.939814 -0.004730 0.000000 0.000000 0.000000 0.000000
 12   5.939809 -0.003975 0.000000 0.000000 0.000000 0.000000
 13   4.991439 -0.003975 0.000000 0.000000 0.000000 0.000000
 14   4.991436 -0.001575 0.000000 0.000000 0.000000 0.000000
 15   0.000005 0.001564 3.638375 -0.000010 -1.283555 3.140806
 16   8.842831 0.000000 -0.000002 -0.244247 0.460989 -0.419385
 17   9.341934 0.000000 -0.000001 0.000000 0.000000 -0.600258
 18   11.168404 -0.000001 0.000002 0.186262 -0.099626 -0.411785
 19   0.000005 0.001585 -3.638375 -1.532348 1.254826 1.610461
 20   8.842831 0.000000 0.000001 -0.229944 -0.640453 1.027954
 21   9.341937 0.000000 -0.000001 0.000000 0.000000 -1.450216
 22   11.168404 -0.000001 0.000001 1.574466 0.367049 0.002781
 23   1.977383 0.000000 0.000000 0.166728 0.000000 -0.000798
 24   3.723980 2.768054 -0.049087 0.000001 -3.141591 -1.570794
 25   12.421014 0.304721 4.492689 -0.091859 -0.075839 1.616818
 26   19.916998 1.704573 4.956909 2.262592 1.451744 0.734330
time 10
  0   -18.035030 -13.193214 57.309856 -0.898713 0.571676 -1.133742
  1   -0.526041 0.000001 9.745319 -1.570795 -1.570451 0.000000
  2   -0.000008 0.000010 5.615750 0.673086 3.335071 -0.631302
  3   15.693467 0.000000 0.000000 0.000000 0.000000 -0.879930
  4   22.146629 -0.000001 0.000000 -0.666373 -0.038040 -0.805033
  5   3.310129 5.734393 0.000000 0.000000 0.000000 1.570796
  6   0.000008 -0.000006 -5.615750 2.545142 1.201586 1.110213
  7   15.693467 0.000000 0.000000 0.000000 0.000000 -1.736805
  8   22.146629 0.000000 0.000000 -0.077168 0.008136 0.226391
  9   3.310129 5.734393 0.000000 0.000000 0.000000 1.570796
 10   1.384163 -0.004728 0.000002 -0.620245 0.000455 0.000666
 11   5.939814 -0.004730 0.000000 0.000000 0.000000 0.000000
 12   5.939809 -0.003975 0.000000 0.000000 0.000000 0.000000
 13   4.991439 -0.003975 0.000000 0.000000 0.000000 0.000000
 14   4.991436 -0.001575 0.000000 0.000000 0.000000 0.000000
 15   0.000005 0.001564 3.638375 -0.000010 -1.283555 3.140806
 16   8.842831 0.000000 -0.000002 -0.398513 0.243684 -0.856985
 17   9.341934 0.000000 -0.000001 0.000000 0.000000 -0.002372
 18   11.168404 -0.000001 0.000002 0.267536 -0.127380 -0.743955
 19   0.000005 0.001585 -3.638375 -1.521802 1.238780 1.621870
 20   8.842831 0.000000 0.000001 -0.118681 -0.647269 1.031195
 21   9.341937 0.000000 -0.000001 0.000000 0.000000 -1.438491
 22   11.168404 -0.000001 0.000001 1.568687 0.340024 -0.000040
 23   1.977383 0.000000 0.000000 -0.016916 0.030830 0.118742
 24   3.723980 2.768054 -0.049087 0.000001 -3.141591 -1.570794
 25   12.421014 0.304721 4.492689 -0.091859 -0.075839 1.616818
 26   19.916998 1.704573 4.956909 2.262592 1.451744 0.734330
time 11
  0   -20.702759 -16.588430 60.956085 -0.874378 0.834195 -0.929429
  1   -0.526041 0.000001 9.745319 -1.570795 -1.570790 0.000000
  2   -0.000008 0.000010 5.615750 0.654296 2.989223 -0.352987
  3   15.693467 0.000000 0.000000 0.000000 0.000000 -1.414170
  4   22.146629 -0.000001 0.000000 -1.033344 -0.453488 -0.449432
  5   3.310129 5.734393 0.000000 0.000000 0.000000 1.570796
  6   0.000008 -0.000006 -5.615750 1.807946 1.371570 0.352497
  7   15.693467 0.000000 0.000000 0.000000 0.000000 -1.736805
  8   22.146629 0.000000 0.000000 -0.337441 0.029595 0.233085
  9   3.310129 5.734393 0.000000 0.000000 0.000000 1.570796
 10   1.384163 -0.004728 0.000002 -0.680664 0.000482 0.000634
 11   5.939814 -0.004730 0.000000 0.000000 0.000000 0.000000
 12   5.939809 -0.003975 0.000000 0.000000 0.000000 0.000000
 13   4.991439 -0.003975 0.000000 0.000000 0.000000 0.000000
 14   4.991436 -0.001575 0.000000 0.000000 0.000000 0.000000
 15   0.000005 0.001564 3.638375 -0.000010 -1.283555 3.140806
 16   8.842831 0.000000 -0.000002 -0.402719 0.136148 -1.057943
 17   9.341934 0.000000 -0.000001 0.000000 0.000000 -0.002372
 18   11.168404 -0.000001 0.000002 0.301248 -0.183175 -0.759778
 19   0.000005 0.001585 -3.638375 -1.531102 1.214247 1.612379
 20   8.842831 0.000000 0.000001 -0.110941 -0.630980 1.107541
 21   9.341937 0.000000 -0.000001 0.000000 0.000000 -1.448151
 22   11.168404 -0.000001 0.000001 1.571017 0.296346 -0.000792
 23   1.977383 0.000000 0.000000 -0.218744 0.084845 0.251603
 24   3.723980 2.768054 -0.049087 0.000001 -3.141591 -1.570794
 25   12.421014 0.304721 4.492689 -0.091859 -0.075839 1.616818
 26   19.916998 1.704573 4.956909 2.262592 1.451744 0.734330
time 12
  0   -21.260420 -20.448551 60.328777 -0.785709 1.015006 -0.724828
  1   -0.526041 0.000001 9.745319 -1.570795 -1.570790 0.000000
  2   -0.000008 0.000010 5.615750 0.701463 2.743612 -0.136319
  3   15.693467 0.000000 0.000000 0.000000 0.000000 -1.799592
  4   22.146629 -0.000001 0.000000 -0.296561 0.134726 -0.560023
  5   3.310129 5.734393 0.000000 0.000000 0.000000 1.570796
  6   0.000008 -0.000006 -5.615750 0.930004 1.343671 -0.538681
  7   15.693467 0.000000 0.000000 0.000000 0.000000 -1.736805
  8   22.146629 0.000000 0.000000 -0.520884 0.046726 0.237929
  9   3.310129 5.734393 0.000000 0.000000 0.000000 1.570796
 10   1.384163 -0.004728 0.000002 -0.753031 0.000536 0.000602
 11   5.939814 -0.004730 0.000000 0.000000 0.000000 0.000000
 12   5.939809 -0.003975 0.000000 0.000000 0.000000 0.000000
 13   4.991439 -0.003975 0.000000 0.000000 0.000000 0.000000
 14   4.991436 -0.001575 0.000000 0.000000 0.000000 0.000000
 15   0.000005 0.001564 3.638375 -0.000010 -1.283555 3.140806
 16   8.842831 0.000000 -0.000002 -0.339440 0.185637 -1.023231
 17   9.341934 0.000000 -0.000001 0.000000 0.000000 -0.417472
 18   11.168404 -0.000001 0.000002 0.322546 -0.359078 -0.576003
 19   0.000005 0.001585 -3.638375 -1.544908 1.182926 1.597998
 20   8.842831 0.000000 0.000001 -0.166250 -0.590346 1.226492
 21   9.341937 0.000000 -0.000001 0.000000 0.000000 -1.467403
 22   11.168404 -0.000001 0.000001 1.574373 0.234033 -0.002014
 23   1.977383 0.000000 0.000000 -0.332874 0.124704 0.344550
 24   3.723980 2.768054 -0.049087 0.000001 -3.141591 -1.570794
 25   12.421014 0.304721 4.492689 -0.091859 -0.075839 1.616818
 26   19.916998 1.704573 4.956909 2.262592 1.451744 0.734330
time 13
  0   -19.286001 -24.844017 52.742264 -0.501150 0.817758 -0.568357
  1   -0.526041 0.000001 9.745319 -1.570795 -1.570451 0.000000
  2   -0.000008 0.000010 5.615750 0.652762 2.632066 -0.196244
  3   15.693467 0.000000 0.000000 0.000000 0.000000 -1.379882
  4   22.146629 -0.000001 0.000000 -0.112552 0.365916 -0.617102
  5   3.310129 5.734393 0.000000 0.000000 0.000000 1.570796
  6   0.000008 -0.000006 -5.615750 0.930004 1.343671 -0.538681
  7   15.693467 0.000000 0.000000 0.000000 0.000000 -1.736805
  8   22.146629 0.000000 0.000000 -0.520884 0.046726 0.237929
  9   3.310129 5.734393 0.000000 0.000000 0.000000 1.570796
 10   1.384163 -0.004728 0.000002 -0.841421 0.000589 0.000537
 11   5.939814 -0.004730 0.000000 0.000000 0.000000 0.000000
 12   5.939809 -0.003975 0.000000 0.000000 0.000000 0.000000
 13   4.991439 -0.003975 0.000000 0.000000 0.000000 0.000000
 14   4.991436 -0.001575 0.000000 0.000000 0.000000 0.000000
 15   0.000005 0.001564 3.638375 -0.000010 -1.283555 3.140806
 16   8.842831 0.000000 -0.000002 -0.023775 0.458384 0.059272
 17   9.341934 0.000000 -0.000001 0.000000 0.000000 -1.460881
 18   11.168404 -0.000001 0.000002 0.134021 -0.685906 -0.420138
 19   0.000005 0.001585 -3.638375 -1.553920 1.155977 1.588410
 20   8.842831 0.000000 0.000001 -0.230347 -0.538027 1.302647
 21   9.341937 0.000000 -0.000001 0.000000 0.000000 -1.481859
 22   11.168404 -0.000001 0.000001 1.578102 0.162277 -0.003612
 23   1.977383 0.000000 0.000000 -0.198921 0.100156 0.362693
 24   3.723980 2.768054 -0.049087 0.000001 -3.141591 -1.570794
 25   12.421014 0.304721 4.492689 -0.091859 -0.075839 1.616818
 26   19.916998 1.704573 4.956909 2.262592 1.451744 0.734330
time 14
  0   -16.015394 -29.577595 42.979774 -0.288849 0.551702 -0.537964
  1   -0.526041 0.000001 9.745319 -1.570795 -1.570790 0.000000
  2   -0.000008 0.000010 5.615750 0.569741 2.544383 -0.313228
  3   15.693467 0.000000 0.000000 0.000000 0.000000 -0.850123
  4   22.146629 -0.000001 0.000000 0.085517 0.441625 -0.652365
  5   3.310129 5.734393 0.000000 0.000000 0.000000 1.570796
  6   0.000008 -0.000006 -5.615750 0.930004 1.343671 -0.538681
  7   15.693467 0.000000 0.000000 0.000000 0.000000 -1.736805
  8   22.146629 0.000000 0.000000 -0.520884 0.046726 0.237929
  9   3.310129 5.734393 0.000000 0.000000 0.000000 1.570796
 10   1.384163 -0.004728 0.000002 -0.933277 0.000616 0.000505
 11   5.939814 -0.004730 0.000000 0.000000 0.000000 0.000000
 12   5.939809 -0.003975 0.000000 0.000000 0.000000 0.000000
 13   4.991439 -0.003975 0.000000 0.000000 0.000000 0.000000
 14   4.991436 -0.001575 0.000000 0.000000 0.000000 0.000000
 15   0.000005 0.001564 3.638375 -0.000010 -1.283555 3.140806
 16   8.842831 0.000000 -0.000002 0.353614 0.458198 1.145881
 17   9.341934 0.000000 -0.000001 0.000000 0.000000 -1.832602
 18   11.168404 -0.000001 0.000002 -0.227939 -0.845444 -0.590351
 19   0.000005 0.001585 -3.638375 -1.552098 1.144765 1.590520
 20   8.842831 0.000000 0.000001 -0.265661 -0.502882 1.282727
 21   9.341937 0.000000 -0.000001 0.000000 0.000000 -1.477063
 22   11.168404 -0.000001 0.000001 1.581551 0.090394 -0.005304
 23   1.977383 0.000000 0.000000 -0.027858 0.065539 0.367514
 24   3.723980 2.768054 -0.049087 0.000001 -3.141591 -1.570794
 25   12.421014 0.304721 4.492689 -0.091859 -0.075839 1.616818
 26   19.916998 1.704573 4.956909 2.262592 1.451744 0.734330
time 15
  0   -12.254951 -34.395702 32.962440 -0.093983 0.263380 -0.574589
  1   -0.526041 0.000001 9.745319 -1.570795 -1.570451 0.000000
  2   -0.000008 0.000010 5.615750 0.455850 2.460915 -0.465861
  3   15.693467 0.000000 0.000000 0.000000 0.000000 -0.355150
  4   22.146629 -0.000001 0.000000 0.255803 0.375897 -0.648386
  5   3.310129 5.734393 0.000000 0.000000 0.000000 1.570796
  6   0.000008 -0.000006 -5.615750 0.930004 1.343671 -0.538681
  7   15.693467 0.000000 0.000000 0.000000 0.000000 -1.736805
  8   22.146629 0.000000 0.000000 -0.520884 0.046726 0.237929
  9   3.310129 5.734393 0.000000 0.000000 0.000000 1.570796
 10   1.384163 -0.004728 0.003908 -1.015877 0.000670 0.000440
 11   5.939814 -0.004730 0.000000 0.000000 0.000000 0.000000
 12   5.939809 -0.003975 0.000000 0.000000 0.000000 0.000000
 13   4.991439 -0.003975 0.000000 0.000000 0.000000 0.000000
 14   4.991436 -0.001575 0.000000 0.000000 0.000000 0.000000
 15   0.000005 0.001564 3.638375 -0.000010 -1.283555 3.140806
 16   8.842831 0.000000 -0.000002 0.293444 0.325266 1.635064
 17   9.341934 0.000000 -0.000001 0.000000 0.000000 -1.513855
 18   11.168404 -0.000001 0.000002 -1.008492 -0.724187 -0.537331
 19   0.000005 0.001585 -3.638375 -1.531965 1.160348 1.612379
 20   8.842831 0.000000 0.000001 -0.241957 -0.516780 1.119836
 21   9.341937 0.000000 -0.000001 0.000000 0.000000 -1.438491
 22   11.168404 -0.000001 0.000001 1.583788 0.027575 -0.006526
 23   1.977383 0.000000 0.000000 0.141830 0.034270 0.368458
 24   3.723980 2.768054 -0.049087 0.000001 -3.141591 -1.570794
 25   12.421014 0.304721 4.492689 -0.091859 -0.075839 1.616818
 26   19.916998 1.704573 4.956909 2.262592 1.451744 0.734330
time 16
  0   -8.818554 -39.023621 24.415359 0.111698 -0.022362 -0.668740
  1   -0.526041 0.000001 9.745319 -1.570795 -1.570451 0.000000
  2   -0.000008 0.000010 5.615750 0.282330 2.402938 -0.705850
  3   15.693467 0.000000 0.000000 0.000000 0.000000 -0.532780
  4   22.146629 -0.000001 0.000000 -0.069962 0.206226 -0.315882
  5   3.310129 5.734393 0.000000 0.000000 0.000000 1.570796
  6   0.000008 -0.000006 -5.615750 0.930004 1.343671 -0.538681
  7   15.693467 0.000000 0.000000 0.000000 0.000000 -1.736805
  8   22.146629 0.000000 0.000000 -0.520884 0.046726 0.237929
  9   3.310129 5.734393 0.000000 0.000000 0.000000 1.570796
 10   1.384163 -0.004728 0.003908 -1.076666 0.000697 0.000407
 11   5.939814 -0.004730 0.000000 0.000000 0.000000 0.000000
 12   5.939809 -0.003975 0.000000 0.000000 0.000000 0.000000
 13   4.991439 -0.003975 0.000000 0.000000 0.000000 0.000000
 14   4.991436 -0.001575 0.000000 0.000000 0.000000 0.000000
 15   0.000005 0.001564 3.638375 -0.000010 -1.283555 3.140806
 16   8.842831 0.000000 -0.000002 0.007681 0.271126 1.023231
 17   9.341934 0.000000 -0.000001 0.000000 0.000000 -0.002372
 18   11.168404 -0.000001 0.000002 -1.462135 -0.375444 -0.911368
 19   0.000005 0.001585 -3.638375 -1.477030 1.216356 1.669999
 20   8.842831 0.000000 0.000001 -0.098927 -0.584415 0.725716
 21   9.341937 0.000000 -0.000001 0.000000 0.000000 -1.349090
 22   11.168404 -0.000001 0.000001 1.590780 -0.030522 -0.006150
 23   1.977383 0.000000 0.000000 0.294179 0.011408 0.366719
 24   3.723980 2.768054 -0.049087 0.000001 -3.141591 -1.570794
 25   12.421014 0.304721 4.492689 -0.091859 -0.075839 1.616818
 26   19.916998 1.704573 4.956909 2.262592 1.451744 0.734330
time 17
  0   -6.527622 -43.200722 18.063860 0.237568 -0.168387 -0.744962
  1   -0.526041 0.000001 9.745319 -1.570795 -1.570790 0.000000
  2   -0.000008 0.000010 5.615750 -0.233820 2.278935 -1.334639
  3   15.693467 0.000000 0.000000 0.000000 0.000000 -1.204173
  4   22.146629 -0.000001 0.000000 -0.218896 0.107088 -0.159417
  5   3.310129 5.734393 0.000000 0.000000 0.000000 1.570796
  6   0.000008 -0.000006 -5.615750 0.930004 1.343671 -0.538681
  7   15.693467 0.000000 0.000000 0.000000 0.000000 -1.736805
  8   22.146629 0.000000 0.000000 -0.523761 -0.063641 0.221018
  9   3.310129 5.734393 0.000000 0.000000 0.000000 1.570796
 10   1.384163 -0.004728 0.003908 -1.102954 0.000697 0.000375
 11   5.939814 -0.004730 0.000000 0.000000 0.000000 0.000000
 12   5.939809 -0.003975 0.000000 0.000000 0.000000 0.000000
 13   4.991439 -0.003975 0.000000 0.000000 0.000000 0.000000
 14   4.991436 -0.001575 0.000000 0.000000 0.000000 0.000000
 15   0.000005 0.001564 3.638375 -0.000010 -1.283555 3.140806
 16   8.842831 0.000000 -0.000002 -0.027067 0.201451 1.019423
 17   9.341934 0.000000 -0.000001 0.000000 0.000000 -0.086016
 18   11.168404 -0.000001 0.000002 -1.532235 -0.189683 -0.910434
 19   0.000005 0.001585 -3.638375 -1.351724 1.302605 1.796934
 20   8.842831 0.000000 0.000001 0.158106 -0.614071 0.131437
 21   9.341937 0.000000 -0.000001 0.000000 0.000000 -1.218386
 22   11.168404 -0.000001 0.000001 1.602898 -0.090094 -0.004740
 23   1.977383 0.000000 0.000000 0.370565 0.001709 0.365526
 24   3.723980 2.768054 -0.049087 0.000001 -3.141591 -1.570794
 25   12.421014 0.304721 4.492689 -0.091859 -0.075839 1.616818
 26   19.916998 1.704573 4.956909 2.262592 1.451744 0.734330
time 18
  0   -6.489942 -46.638203 13.437459 0.236822 -0.158926 -0.836236
  1   -0.526041 0.000001 9.745319 -1.570795 -1.570451 0.000000
  2   -0.000008 0.000010 5.615750 2.645941 0.693343 1.395368
  3   15.693467 0.000000 0.000000 0.000000 0.000000 -1.692104
  4   22.146629 -0.000001 0.000000 -0.259841 0.080885 0.008527
  5   3.310129 5.734393 0.000000 0.000000 0.000000 1.570796
  6   0.000008 -0.000006 -5.615750 1.527507 1.142240 0.160473
  7   15.693467 0.000000 0.000000 0.000000 0.000000 -2.105022
  8   22.146629 0.000000 0.000000 -0.477110 0.029165 0.321603
  9   3.310129 5.734393 0.000000 0.000000 0.000000 1.570796
 10   1.384163 -0.004728 0.003908 -1.082085 0.000697 0.000375
 11   5.939814 -0.004730 0.000000 0.000000 0.000000 0.000000
 12   5.939809 -0.003975 0.000000 0.000000 0.000000 0.000000
 13   4.991439 -0.003975 0.000000 0.000000 0.000000 0.000000
 14   4.991436 -0.001575 0.000000 0.000000 0.000000 0.000000
 15   0.000005 0.001564 3.638375 -0.000010 -1.283555 3.140806
 16   8.842831 0.000000 -0.000002 -0.008504 0.111217 1.355872
 17   9.341934 0.000000 -0.000001 0.000000 0.000000 -1.011094
 18   11.168404 -0.000001 0.000002 -1.677306 -0.088046 -0.608925
 19   0.000005 0.001585 -3.638375 -1.062379 1.389676 2.085512
 20   8.842831 0.000000 0.000001 0.396193 -0.541302 -0.468751
 21   9.341937 0.000000 -0.000001 0.000000 0.000000 -1.072160
 22   11.168404 -0.000001 0.000001 1.611381 -0.144565 -0.004082
 23   1.977383 0.000000 0.000000 0.427920 -0.003510 0.330732
 24   3.723980 2.768054 -0.049087 0.000001 -3.141591 -1.570794
 25   12.421014 0.304721 4.492689 -0.091859 -0.075839 1.616818
 26   19.916998 1.704573 4.956909 2.262592 1.451744 0.734330
time 19
  0   -8.117709 -49.314926 10.849812 0.214072 -0.129492 -0.929524
  1   -0.526041 0.000001 9.745319 -1.570795 -1.570451 0.000000
  2   -0.000008 0.000010 5.615750 2.648050 0.520275 1.260033
  3   15.693467 0.000000 0.000000 0.000000 0.000000 -1.937883
  4   22.146629 -0.000001 0.000000 -0.242528 0.059042 0.100915
  5   3.310129 5.734393 0.000000 0.000000 0.000000 1.570796
  6   0.000008 -0.000006 -5.615750 1.918300 1.010413 0.555532
  7   15.693467 0.000000 0.000000 0.000000 0.000000 -2.305245
  8   22.146629 0.000000 0.000000 -0.363671 0.065637 0.417695
  9   3.310129 5.734393 0.000000 0.000000 0.000000 1.570796
 10   1.384163 -0.004728 0.003908 -1.005342 0.000670 0.000440
 11   5.939814 -0.004730 0.000000 0.000000 0.000000 0.000000
 12   5.939809 -0.003975 0.000000 0.000000 0.000000 0.000000
 13   4.991439 -0.003975 0.000000 0.000000 0.000000 0.000000
 14   4.991436 -0.001575 0.000000 0.000000 0.000000 0.000000
 15   0.000005 0.001564 3.638375 -0.000010 -1.283555 3.140806
 16   8.842831 0.000000 -0.000002 0.066297 0.303499 1.246286
 17   9.341934 0.000000 -0.000001 0.000000 0.000000 -1.221596
 18   11.168404 -0.000001 0.000002 -1.735086 0.034359 -0.452471
 19   0.000005 0.001585 -3.638375 -0.490784 1.435500 2.653848
 20   8.842831 0.000000 0.000001 0.508666 -0.428785 -0.899472
 21   9.341937 0.000000 -0.000001 0.000000 0.000000 -0.936260
 22   11.168404 -0.000001 0.000001 1.607373 -0.187442 -0.004740
 23   1.977383 0.000000 0.000000 0.436431 0.006882 0.290074
 24   3.723980 2.768054 -0.049087 0.000001 -3.141591 -1.570794
 25   12.421014 0.304721 4.492689 -0.091859 -0.075839 1.616818
 26   19.916998 1.704573 4.956909 2.262592 1.451744 0.734330
time 20
  0   -9.647510 -51.357693 10.928225 0.186101 -0.099675 -1.031825
  1   -0.526041 0.000001 9.745319 -1.570795 -1.570790 0.000000
  2   -0.000008 0.000010 5.615750 2.757531 0.420900 1.316423
  3   15.693467 0.000000 0.000000 0.000000 0.000000 -2.007384
  4   22.146629 -0.000001 0.000000 -0.218634 0.043117 0.184292
  5   3.310129 5.734393 0.000000 0.000000 0.000000 1.570796
  6   0.000008 -0.000006 -5.615750 2.370455 0.961422 0.993372
  7   15.693467 0.000000 0.000000 0.000000 0.000000 -2.314177
  8   22.146629 0.000000 0.000000 -0.232858 0.078469 0.512466
  9   3.310129 5.734393 0.000000 0.000000 0.000000 1.570796
 10   1.384163 -0.004728 0.000002 -0.881038 0.000589 0.000537
 11   5.939814 -0.004730 0.000000 0.000000 0.000000 0.000000
 12   5.939809 -0.003975 0.000000 0.000000 0.000000 0.000000
 13   4.991439 -0.003975 0.000000 0.000000 0.000000 0.000000
 14   4.991436 -0.001575 0.000000 0.000000 0.000000 0.000000
 15   0.000005 0.001564 3.638375 -0.000010 -1.283555 3.140806
 16   8.842831 0.000000 -0.000002 0.115585 0.693735 0.812344
 17   9.341934 0.000000 -0.000001 0.000000 0.000000 -1.017736
 18   11.168404 -0.000001 0.000002 -1.762591 0.078669 -0.366431
 19   0.000005 0.001585 -3.638375 -0.000010 1.422437 3.140787
 20   8.842831 0.000000 0.000001 0.505602 -0.375403 -1.079519
 21   9.341937 0.000000 -0.000001 0.000000 0.000000 -0.836399
 22   11.168404 -0.000001 0.000001 1.582017 -0.212148 -0.007090
 23   1.977383 0.000000 0.000000 0.404978 0.024987 0.243948
 24   3.723980 2.768054 -0.049087 0.000001 -3.141591 -1.570794
 25   12.421014 0.304721 4.492689 -0.091859 -0.075839 1.616818
 26   19.916998 1.704573 4.956909 2.262592 1.451744 0.734330
time 21
  0   -10.514145 -52.914417 13.398252 0.152443 -0.070814 -1.144288
  1   -0.526041 0.000001 9.745319 -1.570795 -1.570451 0.000000
  2   -0.000008 0.000010 5.615750 2.917054 0.356215 1.539208
  3   15.693467 0.000000 0.000000 0.000000 0.000000 -1.933828
  4   22.146629 -0.000001 0.000000 -0.200163 0.032889 0.324932
  5   3.310129 5.734393 0.000000 0.000000 0.000000 1.570796
  6   0.000008 -0.000006 -5.615750 2.890681 0.861234 1.560606
  7   15.693467 0.000000 0.000000 0.000000 0.000000 -2.149086
  8   22.146629 0.000000 0.000000 -0.087660 0.079575 0.638769
  9   3.310129 5.734393 0.000000 0.000000 0.000000 1.570796
 10   1.384163 -0.004728 0.000002 -0.722132 0.000509 0.000602
 11   5.939814 -0.004730 0.000000 0.000000 0.000000 0.000000
 12   5.939809 -0.003975 0.000000 0.000000 0.000000 0.000000
 13   4.991439 -0.003975 0.000000 0.000000 0.000000 0.000000
 14   4.991436 -0.001575 0.000000 0.000000 0.000000 0.000000
 15   0.000005 0.001564 3.638375 -0.000010 -1.283555 3.140806
 16   8.842831 0.000000 -0.000002 0.069040 0.946203 0.461114
 17   9.341934 0.000000 -0.000001 0.000000 0.000000 -0.883825
 18   11.168404 -0.000001 0.000002 -1.779972 0.114558 -0.302650
 19   0.000005 0.001585 -3.638375 0.149073 1.393225 3.287569
 20   8.842831 0.000000 0.000001 0.426186 -0.419489 -1.007271
 21   9.341937 0.000000 -0.000001 0.000000 0.000000 -0.780174
 22   11.168404 -0.000001 0.000001 1.529255 -0.213371 -0.011509
 23   1.977383 0.000000 0.000000 0.345719 0.041083 0.191211
 24   3.723980 2.768054 -0.049087 0.000001 -3.141591 -1.570794
 25   12.421014 0.304721 4.492689 -0.091859 -0.075839 1.616818
 26   19.916998 1.704573 4.956909 2.262592 1.451744 0.734330
time 22
  0   -11.335564 -54.154167 17.201311 0.113376 -0.044343 -1.265860
  1   -0.526041 0.000001 9.745319 -1.570795 -1.570451 0.000000
  2   -0.000008 0.000010 5.615750 -0.078994 2.877581 -1.308547
  3   15.693467 0.000000 0.000000 0.000000 0.000000 -1.745741
  4   22.146629 -0.000001 0.000000 -0.197358 0.007281 0.401220
  5   3.310129 5.734393 0.000000 0.000000 0.000000 1.570796
  6   0.000008 -0.000006 -5.615750 0.042187 2.523685 -1.173243
  7   15.693467 0.000000 0.000000 0.000000 0.000000 -1.890955
  8   22.146629 0.000000 0.000000 0.048512 0.075062 0.670917
  9   3.310129 5.734393 0.000000 0.000000 0.000000 1.570796
 10   1.384163 -0.004728 0.000002 -0.541583 0.000402 0.000699
 11   5.939814 -0.004730 0.000000 0.000000 0.000000 0.000000
 12   5.939809 -0.003975 0.000000 0.000000 0.000000 0.000000
 13   4.991439 -0.003975 0.000000 0.000000 0.000000 0.000000
 14   4.991436 -0.001575 0.000000 0.000000 0.000000 0.000000
 15   0.000005 0.001564 3.638375 -0.000010 -1.283555 3.140806
 16   8.842831 0.000000 -0.000002 0.098211 0.992064 0.350035
 17   9.341934 0.000000 -0.000001 0.000000 0.000000 -0.851679
 18   11.168404 -0.000001 0.000002 -1.765551 0.131210 -0.222015
 19   0.000005 0.001585 -3.638375 0.145142 1.365298 3.282967
 20   8.842831 0.000000 0.000001 0.293880 -0.523774 -0.763269
 21   9.341937 0.000000 -0.000001 0.000000 0.000000 -0.750329
 22   11.168404 -0.000001 0.000001 1.455052 -0.195748 -0.018935
 23   1.977383 0.000000 0.000000 0.269862 0.047364 0.133604
 24   3.723980 2.768054 -0.049087 0.000001 -3.141591 -1.570794
 25   12.421014 0.304721 4.492689 -0.091859 -0.075839 1.616818
 26   19.916998 1.704573 4.956909 2.262592 1.451744 0.734330
time 23
  0   -12.119305 -55.217812 21.808109 0.069368 -0.021980 -1.394622
  1   -0.526041 0.000001 9.745319 -1.570795 -1.570451 0.000000
  2   -0.000008 0.000010 5.615750 0.002398 2.995260 -0.995730
  3   15.693467 0.000000 0.000000 0.000000 0.000000 -1.447391
  4   22.146629 -0.000001 0.000000 -0.215830 -0.010773 0.421070
  5   3.310129 5.734393 0.000000 0.000000 0.000000 1.570796
  6   0.000008 -0.000006 -5.615750 0.118888 2.807375 -0.878475
  7   15.693467 0.000000 0.000000 0.000000 0.000000 -1.529064
  8   22.146629 0.000000 0.000000 0.173910 0.043502 0.609439
  9   3.310129 5.734393 0.000000 0.000000 0.000000 1.570796
 10   1.384163 -0.004728 0.000002 -0.352418 0.000267 0.000764
 11   5.939814 -0.004730 0.000000 0.000000 0.000000 0.000000
 12   5.939809 -0.003975 0.000000 0.000000 0.000000 0.000000
 13   4.991439 -0.003975 0.000000 0.000000 0.000000 0.000000
 14   4.991436 -0.001575 0.000000 0.000000 0.000000 0.000000
 15   0.000005 0.001564 3.638375 -0.000010 -1.283555 3.140806
 16   8.842831 0.000000 -0.000002 0.151157 0.951599 0.321071
 17   9.341934 0.000000 -0.000001 0.000000 0.000000 -0.825274
 18   11.168404 -0.000001 0.000002 -1.737187 0.126425 -0.138481
 19   0.000005 0.001585 -3.638375 0.085605 1.338606 3.224101
 20   8.842831 0.000000 0.000001 0.115778 -0.642666 -0.398028
 21   9.341937 0.000000 -0.000001 0.000000 0.000000 -0.735607
 22   11.168404 -0.000001 0.000001 1.368637 -0.168006 -0.030029
 23   1.977383 0.000000 0.000000 0.189458 0.038935 0.075250
 24   3.723980 2.768054 -0.049087 0.000001 -3.141591 -1.570794
 25   12.421014 0.304721 4.492689 -0.091859 -0.075839 1.616818
 26   19.916998 1.704573 4.956909 2.262592 1.451744 0.734330
time 24
  0   -12.903045 -56.225105 26.630543 0.023030 -0.005543 -1.524152
  1   -0.526041 0.000001 9.745319 -1.570795 -1.570451 0.000000
  2   -0.000008 0.000010 5.615750 0.012176 3.103547 -0.668194
  3   15.693467 0.000000 0.000000 0.000000 0.000000 -1.035791
  4   22.146629 -0.000001 0.000000 -0.254307 -0.017856 0.350453
  5   3.310129 5.734393 0.000000 0.000000 0.000000 1.570796
  6   0.000008 -0.000006 -5.615750 0.051007 3.040924 -0.594787
  7   15.693467 0.000000 0.000000 0.000000 0.000000 -1.069370
  8   22.146629 0.000000 0.000000 0.278606 0.033279 0.454335
  9   3.310129 5.734393 0.000000 0.000000 0.000000 1.570796
 10   1.384163 -0.004728 0.000002 -0.167560 0.000106 0.000796
 11   5.939814 -0.004730 0.000000 0.000000 0.000000 0.000000
 12   5.939809 -0.003975 0.000000 0.000000 0.000000 0.000000
 13   4.991439 -0.003975 0.000000 0.000000 0.000000 0.000000
 14   4.991436 -0.001575 0.000000 0.000000 0.000000 0.000000
 15   0.000005 0.001564 3.638375 -0.000010 -1.283555 3.140806
 16   8.842831 0.000000 -0.000002 0.184808 0.873830 0.302931
 17   9.341934 0.000000 -0.000001 0.000000 0.000000 -0.801165
 18   11.168404 -0.000001 0.000002 -1.704715 0.111113 -0.054554
 19   0.000005 0.001585 -3.638375 0.025492 1.311348 3.165426
 20   8.842831 0.000000 0.000001 -0.097234 -0.743409 0.021445
 21   9.341937 0.000000 -0.000001 0.000000 0.000000 -0.724681
 22   11.168404 -0.000001 0.000001 1.279239 -0.138621 -0.044224
 23   1.977383 0.000000 0.000000 0.113495 0.015981 0.022414
 24   3.723980 2.768054 -0.049087 0.000001 -3.141591 -1.570794
 25   12.421014 0.304721 4.492689 -0.091859 -0.075839 1.616818
 26   19.916998 1.704573 4.956909 2.262592 1.451744 0.734330
time 25
  0   -13.701856 -57.331017 31.100117 0.000000 0.000000 -1.588293
  1   -0.526041 0.000001 9.745319 -1.570795 -1.570451 0.000000
  2   -0.000008 0.000010 5.615750 0.000289 3.143220 -0.214308
  3   15.693467 0.000000 0.000000 0.000000 0.000000 -0.321360
  4   22.146629 -0.000001 0.000000 -0.285268 -0.016544 0.104299
  5   3.310129 5.734393 0.000000 0.000000 0.000000 1.570796
  6   0.000008 -0.000006 -5.615750 -0.004889 3.115801 -0.152810
  7   15.693467 0.000000 0.000000 0.000000 0.000000 -0.321622
  8   22.146629 0.000000 0.000000 0.311605 0.014890 0.143686
  9   3.310129 5.734393 0.000000 0.000000 0.000000 1.570796
 10   1.384163 -0.004728 0.000002 -0.000004 -0.000001 0.000796
 11   5.939814 -0.004730 0.000000 0.000000 0.000000 0.000000
 12   5.939809 -0.003975 0.000000 0.000000 0.000000 0.000000
 13   4.991439 -0.003975 0.000000 0.000000 0.000000 0.000000
 14   4.991436 -0.001575 0.000000 0.000000 0.000000 0.000000
 15   0.000005 0.001564 3.638375 -0.000010 -1.283555 3.140806
 16   8.842831 0.000000 -0.000002 0.198342 0.816155 0.269263
 17   9.341934 0.000000 -0.000001 0.000000 0.000000 -0.775908
 18   11.168404 -0.000001 0.000002 -1.675778 0.097523 0.028440
 19   0.000005 0.001585 -3.638375 -0.000010 1.283575 3.140787
 20   8.842831 0.000000 0.000001 -0.313068 -0.813257 0.402794
 21   9.341937 0.000000 -0.000001 0.000000 0.000000 -0.706228
 22   11.168404 -0.000001 0.000001 1.195994 -0.115770 -0.059077
 23   1.977383 0.000000 0.000000 0.000000 0.000000 -0.000798
 24   3.723980 2.768054 -0.049087 0.000001 -3.141591 -1.570794
 25   12.421014 0.304721 4.492689 -0.091859 -0.075839 1.616818
 26   19.916998 1.704573 4.956909 2.262592 1.451744 0.734330
end
