version 1
nodes
  0 "Bip01" -1
  1 "Bip01 Pelvis" 0
  2 "Bip01 L Thigh" 1
  3 "Bip01 L Calf" 2
  4 "Bip01 L Foot" 3
  5 "Bip01 L Toe0" 4
  6 "Bip01 R Thigh" 1
  7 "Bip01 R Calf" 6
  8 "Bip01 R Foot" 7
  9 "Bip01 R Toe0" 8
 10 "Bip01 Spine" 1
 11 "Bip01 Spine1" 10
 12 "Bip01 Spine2" 11
 13 "Bip01 Spine3" 12
 14 "Bip01 Neck" 13
 15 "Bip01 L Clavicle" 14
 16 "Bip01 L UpperArm" 15
 17 "Bip01 L Forearm" 16
 18 "Bip01 L Hand" 17
 19 "Bip01 R Clavicle" 14
 20 "Bip01 R UpperArm" 19
 21 "Bip01 R Forearm" 20
 22 "Bip01 R Hand" 21
 23 "Bip01 Head" 14
 24 "Bone05" 23
 25 "m4" 22
 26 "SHOTGUN" 22
end
skeleton
time 0
  0   -0.204950 1.416072 23.690035 0.000000 0.000000 -1.570844
  1   -3.807391 0.000001 9.745319 -1.570795 -1.570451 0.000000
  2   -0.000008 0.000010 5.615750 0.006520 3.185098 -0.154669
  3   15.693467 0.000000 0.000000 0.000000 0.000000 -1.010111
  4   22.146629 -0.000001 0.000000 0.001047 -0.044059 0.836723
  5   3.310129 5.734393 0.000000 0.000000 0.000000 1.570796
  6   0.000008 -0.000006 -5.615750 -0.020421 3.115801 -0.736456
  7   15.693467 0.000000 0.000000 0.000000 0.000000 -1.339560
  8   22.146629 0.000000 0.000000 -0.002369 0.032911 0.597637
  9   3.310129 5.734393 0.000000 0.000000 0.000000 1.570796
 10   1.384163 -0.004728 0.000002 -0.000004 -0.000001 0.332307
 11   5.939814 -0.004730 0.000000 0.000000 0.000000 -0.000096
 12   5.939809 -0.003975 0.000000 0.000000 0.000000 0.026072
 13   4.991439 -0.003975 0.000000 0.000000 0.000000 0.000000
 14   4.991436 -0.001575 0.000000 0.000000 0.000000 0.000000
 15   0.000005 0.001564 3.638375 -0.000010 -1.283555 3.140806
 16   8.842831 0.000000 -0.000002 -0.164508 0.832993 -0.508144
 17   9.341934 0.000000 -0.000001 0.000000 0.000000 -0.374503
 18   11.168404 -0.000001 0.000002 -1.523544 0.126521 -0.189977
 19   0.000005 0.001585 -3.638375 -0.000010 1.283575 3.140787
 20   8.842831 0.000000 0.000001 0.398693 -0.892754 -0.563588
 21   9.341937 0.000000 -0.000001 0.000000 0.000000 -0.775644
 22   11.168404 -0.000001 0.000001 1.568687 -0.000040 -0.000040
 23   1.977383 0.000000 0.000000 0.000000 0.000000 -0.183811
 24   3.723980 2.768054 -0.049087 0.000001 -3.141591 -1.570794
 25   12.421014 0.304721 4.492689 -0.091859 -0.075839 1.616818
 26   19.916998 1.704573 4.956909 2.262592 1.451744 0.734330
time 1
  0   -0.204950 1.416072 28.747709 0.000000 0.000000 -1.570844
  1   -5.002740 0.000001 9.745319 -1.570795 -1.570451 0.000000
  2   -0.000008 0.000010 5.615750 -0.007093 3.181360 0.130336
  3   15.693467 0.000000 0.000000 0.000000 0.000000 -0.344409
  4   22.146629 -0.000001 0.000000 0.002580 -0.040393 0.455876
  5   3.310129 5.734393 0.000000 0.000000 0.000000 1.570796
  6   0.000008 -0.000006 -5.615750 -0.007957 3.114842 -0.380952
  7   15.693467 0.000000 0.000000 0.000000 0.000000 -0.743728
  8   22.146629 0.000000 0.000000 -0.002651 0.027876 0.357186
  9   3.310129 5.734393 0.000000 0.000000 0.000000 1.570796
 10   1.384163 -0.004728 0.000002 -0.000004 -0.000001 0.459445
 11   5.939814 -0.004730 0.000000 0.000000 0.000000 0.004188
 12   5.939809 -0.003975 0.000000 0.000000 0.000000 0.030283
 13   4.991439 -0.003975 0.000000 0.000000 0.000000 0.006929
 14   4.991436 -0.001575 0.000000 0.000000 0.000000 0.000000
 15   0.000005 0.001564 3.638375 -0.000010 -1.283555 3.140806
 16   8.842831 0.000000 -0.000002 -0.629226 0.368895 -0.991131
 17   9.341934 0.000000 -0.000001 0.000000 0.000000 -0.591483
 18   11.168404 -0.000001 0.000002 -1.527651 0.049193 -0.149930
 19   0.000005 0.001585 -3.638375 -0.000010 1.283575 3.140787
 20   8.842831 0.000000 0.000001 0.831893 -0.406210 -0.993832
 21   9.341937 0.000000 -0.000001 0.000000 0.000000 -0.889227
 22   11.168404 -0.000001 0.000001 1.568687 -0.000040 -0.000040
 23   1.977383 0.000000 0.000000 0.000000 0.000000 -0.345053
 24   3.723980 2.768054 -0.049087 0.000001 -3.141591 -1.570794
 25   12.421014 0.304721 4.492689 -0.091859 -0.075839 1.616818
 26   19.916998 1.704573 4.956909 2.262592 1.451744 0.734330
time 2
  0   -0.204951 -3.873983 33.550541 0.000000 0.045394 -1.570844
  1   -5.420722 0.000001 9.745319 -1.570795 -1.570451 0.000000
  2   -0.000008 0.000010 5.615750 0.000768 3.181648 -0.069894
  3   15.693467 0.000000 0.000000 0.000000 0.000000 -0.592464
  4   22.146629 -0.000001 0.000000 0.015107 -0.037174 0.185527
  5   3.310129 5.734393 0.000000 0.000000 0.000000 1.570796
  6   0.000008 -0.000006 -5.615750 -0.002492 3.114555 -0.189069
  7   15.693467 0.000000 0.000000 0.000000 0.000000 -0.554894
  8   22.146629 0.000000 0.000000 -0.007333 0.026156 0.188694
  9   3.310129 5.734393 0.000000 0.000000 0.000000 1.570796
 10   1.384163 -0.004728 0.000002 -0.000004 -0.000001 0.503422
 11   5.939814 -0.004730 0.000000 0.000000 0.000000 0.008414
 12   5.939809 -0.003975 0.000000 0.000000 0.000000 0.034443
 13   4.991439 -0.003975 0.000000 0.000000 0.000000 0.013792
 14   4.991436 -0.001575 0.000000 0.000000 0.000000 0.000000
 15   0.000005 0.001564 3.638375 -0.000010 -1.283555 3.140806
 16   8.842831 0.000000 -0.000002 -0.808821 -0.176972 -1.203063
 17   9.341934 0.000000 -0.000001 0.000000 0.000000 -0.840609
 18   11.168404 -0.000001 0.000002 -1.535578 -0.034261 -0.106345
 19   0.000005 0.001585 -3.638375 -0.000010 1.283575 3.140787
 20   8.842831 0.000000 0.000001 1.003947 0.137965 -1.150813
 21   9.341937 0.000000 -0.000001 0.000000 0.000000 -1.025727
 22   11.168404 -0.000001 0.000001 1.568687 -0.000040 -0.000040
 23   1.977383 0.000000 0.000000 0.000000 0.000000 -0.424680
 24   3.723980 2.768054 -0.049087 0.000001 -3.141591 -1.570794
 25   12.421014 0.304721 4.492689 -0.091859 -0.075839 1.616818
 26   19.916998 1.704573 4.956909 2.262592 1.451744 0.734330
time 3
  0   -0.204951 -9.297875 38.706234 0.000000 0.095279 -1.570844
  1   -4.362095 0.000001 9.745319 -1.570795 -1.570451 0.000000
  2   -0.000008 0.000010 5.615750 0.011697 3.180115 -0.340085
  3   15.693467 0.000000 0.000000 0.000000 0.000000 -0.983221
  4   22.146629 -0.000001 0.000000 0.027970 -0.028976 -0.079836
  5   3.310129 5.734393 0.000000 0.000000 0.000000 1.570796
  6   0.000008 -0.000006 -5.615750 0.002877 3.115034 0.010670
  7   15.693467 0.000000 0.000000 0.000000 0.000000 -0.378340
  8   22.146629 0.000000 0.000000 -0.012015 0.023854 0.021875
  9   3.310129 5.734393 0.000000 0.000000 0.000000 1.570796
 10   1.384163 -0.004728 0.000002 -0.000004 -0.000001 0.379943
 11   5.939814 -0.004730 0.000000 0.000000 0.000000 0.012544
 12   5.939809 -0.003975 0.000000 0.000000 0.000000 0.038478
 13   4.991439 -0.003975 0.000000 0.000000 0.000000 0.020485
 14   4.991436 -0.001575 0.000000 0.000000 0.000000 0.000000
 15   0.000005 0.001564 3.638375 -0.000010 -1.283555 3.140806
 16   8.842831 0.000000 -0.000002 -0.851251 -0.562464 -1.325340
 17   9.341934 0.000000 -0.000001 0.000000 0.000000 -1.073744
 18   11.168404 -0.000001 0.000002 -1.546656 -0.114173 -0.063546
 19   0.000005 0.001585 -3.638375 -0.000010 1.283575 3.140787
 20   8.842831 0.000000 0.000001 1.053048 0.519604 -1.216389
 21   9.341937 0.000000 -0.000001 0.000000 0.000000 -1.150769
 22   11.168404 -0.000001 0.000001 1.568687 -0.000040 -0.000040
 23   1.977383 0.000000 0.000000 0.000000 0.000000 -0.337746
 24   3.723980 2.768054 -0.049087 0.000001 -3.141591 -1.570794
 25   12.421014 0.304721 4.492689 -0.091859 -0.075839 1.616818
 26   19.916998 1.704573 4.956909 2.262592 1.451744 0.734330
time 4
  0   -0.204951 -14.834472 43.940342 0.000000 0.147936 -1.570844
  1   -2.709701 0.000001 9.745319 -1.570795 -1.570451 0.000000
  2   -0.000008 0.000010 5.615750 0.022626 3.175227 -0.633022
  3   15.693467 0.000000 0.000000 0.000000 0.000000 -1.388490
  4   22.146629 -0.000001 0.000000 0.036308 -0.018203 -0.310439
  5   3.310129 5.734393 0.000000 0.000000 0.000000 1.570796
  6   0.000008 -0.000006 -5.615750 0.007383 3.116184 0.185090
  7   15.693467 0.000000 0.000000 0.000000 0.000000 -0.245032
  8   22.146629 0.000000 0.000000 -0.016359 0.020845 -0.137016
  9   3.310129 5.734393 0.000000 0.000000 0.000000 1.570796
 10   1.384163 -0.004728 0.000002 -0.000004 -0.000001 0.200279
 11   5.939814 -0.004730 0.000000 0.000000 0.000000 0.016636
 12   5.939809 -0.003975 0.000000 0.000000 0.000000 0.042450
 13   4.991439 -0.003975 0.000000 0.000000 0.000000 0.027095
 14   4.991436 -0.001575 0.000000 0.000000 0.000000 0.000000
 15   0.000005 0.001564 3.638375 -0.000010 -1.283555 3.140806
 16   8.842831 0.000000 -0.000002 -0.843936 -0.783490 -1.430074
 17   9.341934 0.000000 -0.000001 0.000000 0.000000 -1.242589
 18   11.168404 -0.000001 0.000002 -1.558881 -0.181357 -0.026201
 19   0.000005 0.001585 -3.638375 -0.000010 1.283575 3.140787
 20   8.842831 0.000000 0.000001 1.044099 0.739063 -1.279582
 21   9.341937 0.000000 -0.000001 0.000000 0.000000 -1.230044
 22   11.168404 -0.000001 0.000001 1.568687 -0.000040 -0.000040
 23   1.977383 0.000000 0.000000 0.000000 0.000000 -0.195640
 24   3.723980 2.768054 -0.049087 0.000001 -3.141591 -1.570794
 25   12.421014 0.304721 4.492689 -0.091859 -0.075839 1.616818
 26   19.916998 1.704573 4.956909 2.262592 1.451744 0.734330
time 5
  0   -0.204951 -20.462639 48.860794 0.000000 0.201931 -1.570844
  1   -0.865895 0.000001 9.745319 -1.570795 -1.570451 0.000000
  2   -0.000008 0.000010 5.615750 0.030966 3.168136 -0.901302
  3   15.693467 0.000000 0.000000 0.000000 0.000000 -1.680295
  4   22.146629 -0.000001 0.000000 0.039337 -0.011120 -0.476737
  5   3.310129 5.734393 0.000000 0.000000 0.000000 1.570796
  6   0.000008 -0.000006 -5.615750 0.010260 3.117239 0.300809
  7   15.693467 0.000000 0.000000 0.000000 0.000000 -0.185783
  8   22.146629 0.000000 0.000000 -0.020082 0.017100 -0.281287
  9   3.310129 5.734393 0.000000 0.000000 0.000000 1.570796
 10   1.384163 -0.004728 0.000002 -0.000004 -0.000001 0.008244
 11   5.939814 -0.004730 0.000000 0.000000 0.000000 0.020728
 12   5.939809 -0.003975 0.000000 0.000000 0.000000 0.046448
 13   4.991439 -0.003975 0.000000 0.000000 0.000000 0.033722
 14   4.991436 -0.001575 0.000000 0.000000 0.000000 0.000000
 15   0.000005 0.001564 3.638375 -0.000010 -1.283555 3.140806
 16   8.842831 0.000000 -0.000002 -0.842107 -0.799397 -1.474790
 17   9.341934 0.000000 -0.000001 0.000000 0.000000 -1.298925
 18   11.168404 -0.000001 0.000002 -1.568718 -0.226721 -0.000011
 19   0.000005 0.001585 -3.638375 -0.000010 1.283575 3.140787
 20   8.842831 0.000000 0.000001 1.005802 0.751545 -1.327048
 21   9.341937 0.000000 -0.000001 0.000000 0.000000 -1.229178
 22   11.168404 -0.000001 0.000001 1.568687 -0.000040 -0.000040
 23   1.977383 0.000000 0.000000 0.000000 0.000000 -0.041954
 24   3.723980 2.768054 -0.049087 0.000001 -3.141591 -1.570794
 25   12.421014 0.304721 4.492689 -0.091859 -0.075839 1.616818
 26   19.916998 1.704573 4.956909 2.262592 1.451744 0.734330
time 6
  0   -0.204952 -26.147160 52.977505 0.000000 0.255830 -1.570844
  1   0.673214 0.000001 9.745319 -1.570795 -1.570451 0.000000
  2   -0.000008 0.000010 5.615750 0.036910 3.158936 -1.168434
  3   15.693467 0.000000 0.000000 0.000000 0.000000 -1.863473
  4   22.146629 -0.000001 0.000000 0.039599 -0.009807 -0.595377
  5   3.310129 5.734393 0.000000 0.000000 0.000000 1.570796
  6   0.000008 -0.000006 -5.615750 0.010739 3.117623 0.324584
  7   15.693467 0.000000 0.000000 0.000000 0.000000 -0.231262
  8   22.146629 0.000000 0.000000 -0.022902 0.012863 -0.404419
  9   3.310129 5.734393 0.000000 0.000000 0.000000 1.570796
 10   1.384163 -0.004728 0.000002 -0.000004 -0.000001 -0.152314
 11   5.939814 -0.004730 0.000000 0.000000 0.000000 0.024897
 12   5.939809 -0.003975 0.000000 0.000000 0.000000 0.050521
 13   4.991439 -0.003975 0.000000 0.000000 0.000000 0.040466
 14   4.991436 -0.001575 0.000000 0.000000 0.000000 0.000000
 15   0.000005 0.001564 3.638375 -0.000010 -1.283555 3.140806
 16   8.842831 0.000000 -0.000002 -0.879050 -0.618093 -1.431717
 17   9.341934 0.000000 -0.000001 0.000000 0.000000 -1.205195
 18   11.168404 -0.000001 0.000002 -1.573971 -0.248637 0.012962
 19   0.000005 0.001585 -3.638375 -0.000010 1.283575 3.140787
 20   8.842831 0.000000 0.000001 0.991612 0.560946 -1.323616
 21   9.341937 0.000000 -0.000001 0.000000 0.000000 -1.122056
 22   11.168404 -0.000001 0.000001 1.568687 -0.000040 -0.000040
 23   1.977383 0.000000 0.000000 0.000000 0.000000 0.079425
 24   3.723980 2.768054 -0.049087 0.000001 -3.141591 -1.570794
 25   12.421014 0.304721 4.492689 -0.091859 -0.075839 1.616818
 26   19.916998 1.704573 4.956909 2.262592 1.451744 0.734330
time 7
  0   -0.204952 -31.888033 55.937618 0.000000 0.308105 -1.570844
  1   1.911533 0.000001 9.745319 -1.570795 -1.570451 0.000000
  2   -0.000008 0.000010 5.615750 0.040265 3.147149 -1.466341
  3   15.693467 0.000000 0.000000 0.000000 0.000000 -2.022963
  4   22.146629 -0.000001 0.000000 0.039000 -0.011368 -0.697553
  5   3.310129 5.734393 0.000000 0.000000 0.000000 1.570796
  6   0.000008 -0.000006 -5.615750 0.007671 3.116568 0.197574
  7   15.693467 0.000000 0.000000 0.000000 0.000000 -0.482024
  8   22.146629 0.000000 0.000000 -0.025159 0.007307 -0.507469
  9   3.310129 5.734393 0.000000 0.000000 0.000000 1.570796
 10   1.384163 -0.004728 0.000002 -0.000004 -0.000001 -0.283824
 11   5.939814 -0.004730 0.000000 0.000000 0.000000 0.029123
 12   5.939809 -0.003975 0.000000 0.000000 0.000000 0.054656
 13   4.991439 -0.003975 0.000000 0.000000 0.000000 0.047295
 14   4.991436 -0.001575 0.000000 0.000000 0.000000 0.000000
 15   0.000005 0.001564 3.638375 -0.000010 -1.283555 3.140806
 16   8.842831 0.000000 -0.000002 -0.912885 -0.299299 -1.349004
 17   9.341934 0.000000 -0.000001 0.000000 0.000000 -0.995677
 18   11.168404 -0.000001 0.000002 -1.575499 -0.254762 0.016598
 19   0.000005 0.001585 -3.638375 -0.000010 1.283575 3.140787
 20   8.842831 0.000000 0.000001 0.993627 0.230741 -1.281678
 21   9.341937 0.000000 -0.000001 0.000000 0.000000 -0.933262
 22   11.168404 -0.000001 0.000001 1.568687 -0.000040 -0.000040
 23   1.977383 0.000000 0.000000 0.000000 0.000000 0.171379
 24   3.723980 2.768054 -0.049087 0.000001 -3.141591 -1.570794
 25   12.421014 0.304721 4.492689 -0.091859 -0.075839 1.616818
 26   19.916998 1.704573 4.956909 2.262592 1.451744 0.734330
time 8
  0   -0.204952 -37.650036 57.839146 0.000000 0.357226 -1.570844
  1   3.095163 0.000001 9.745319 -1.570795 -1.570451 0.000000
  2   -0.000008 0.000010 5.615750 -3.101501 0.006630 1.381223
  3   15.693467 0.000000 0.000000 0.000000 0.000000 -2.151010
  4   22.146629 -0.000001 0.000000 0.037654 -0.014959 -0.775579
  5   3.310129 5.734393 0.000000 0.000000 0.000000 1.570796
  6   0.000008 -0.000006 -5.615750 0.000864 3.115417 -0.064583
  7   15.693467 0.000000 0.000000 0.000000 0.000000 -0.915667
  8   22.146629 0.000000 0.000000 -0.026174 0.000798 -0.588236
  9   3.310129 5.734393 0.000000 0.000000 0.000000 1.570796
 10   1.384163 -0.004728 0.000002 -0.000004 -0.000001 -0.413909
 11   5.939814 -0.004730 0.000000 0.000000 0.000000 0.033349
 12   5.939809 -0.003975 0.000000 0.000000 0.000000 0.058804
 13   4.991439 -0.003975 0.000000 0.000000 0.000000 0.054157
 14   4.991436 -0.001575 0.000000 0.000000 0.000000 0.000000
 15   0.000005 0.001564 3.638375 -0.000010 -1.283555 3.140806
 16   8.842831 0.000000 -0.000002 -0.902368 0.110566 -1.241657
 17   9.341934 0.000000 -0.000001 0.000000 0.000000 -0.730315
 18   11.168404 -0.000001 0.000002 -1.574448 -0.250455 0.013994
 19   0.000005 0.001585 -3.638375 -0.000010 1.283575 3.140787
 20   8.842831 0.000000 0.000001 0.967263 -0.189142 -1.202282
 21   9.341937 0.000000 -0.000001 0.000000 0.000000 -0.704763
 22   11.168404 -0.000001 0.000001 1.568687 -0.000040 -0.000040
 23   1.977383 0.000000 0.000000 0.000000 0.000000 0.261941
 24   3.723980 2.768054 -0.049087 0.000001 -3.141591 -1.570794
 25   12.421014 0.304721 4.492689 -0.091859 -0.075839 1.616818
 26   19.916998 1.704573 4.956909 2.262592 1.451744 0.734330
time 9
  0   -0.204952 -43.419086 58.897732 0.000000 0.401759 -1.570844
  1   4.153790 0.000001 9.745319 -1.570795 -1.570451 0.000000
  2   -0.000008 0.000010 5.615750 -3.104569 0.016596 1.125942
  3   15.693467 0.000000 0.000000 0.000000 0.000000 -2.239789
  4   22.146629 -0.000001 0.000000 0.035523 -0.019491 -0.821864
  5   3.310129 5.734393 0.000000 0.000000 0.000000 1.570796
  6   0.000008 -0.000006 -5.615750 -0.007286 3.116376 -0.383267
  7   15.693467 0.000000 0.000000 0.000000 0.000000 -1.378860
  8   22.146629 0.000000 0.000000 -0.025892 -0.004145 -0.634917
  9   3.310129 5.734393 0.000000 0.000000 0.000000 1.570796
 10   1.384163 -0.004728 0.000002 -0.000004 -0.000001 -0.536481
 11   5.939814 -0.004730 0.000000 0.000000 0.000000 0.037613
 12   5.939809 -0.003975 0.000000 0.000000 0.000000 0.062976
 13   4.991439 -0.003975 0.000000 0.000000 0.000000 0.061036
 14   4.991436 -0.001575 0.000000 0.000000 0.000000 0.000000
 15   0.000005 0.001564 3.638375 -0.000010 -1.283555 3.140806
 16   8.842831 0.000000 -0.000002 -0.825464 0.528059 -1.092058
 17   9.341934 0.000000 -0.000001 0.000000 0.000000 -0.469216
 18   11.168404 -0.000001 0.000002 -1.572060 -0.240789 0.008244
 19   0.000005 0.001585 -3.638375 -0.000010 1.283575 3.140787
 20   8.842831 0.000000 0.000001 0.870109 -0.613717 -1.059503
 21   9.341937 0.000000 -0.000001 0.000000 0.000000 -0.478462
 22   11.168404 -0.000001 0.000001 1.568687 -0.000040 -0.000040
 23   1.977383 0.000000 0.000000 0.000000 0.000000 0.345346
 24   3.723980 2.768054 -0.049087 0.000001 -3.141591 -1.570794
 25   12.421014 0.304721 4.492689 -0.091859 -0.075839 1.616818
 26   19.916998 1.704573 4.956909 2.262592 1.451744 0.734330
time 10
  0   -0.204953 -49.167004 59.270195 0.000000 0.440177 -1.570844
  1   5.036629 0.000001 9.745319 -1.570795 -1.570451 0.000000
  2   -0.000008 0.000010 5.615750 -3.108020 0.023017 0.944062
  3   15.693467 0.000000 0.000000 0.000000 0.000000 -2.281547
  4   22.146629 -0.000001 0.000000 0.032793 -0.024023 -0.828679
  5   3.310129 5.734393 0.000000 0.000000 0.000000 1.570796
  6   0.000008 -0.000006 -5.615750 -0.014380 3.119636 -0.680069
  7   15.693467 0.000000 0.000000 0.000000 0.000000 -1.718644
  8   22.146629 0.000000 0.000000 -0.025723 -0.005280 -0.635446
  9   3.310129 5.734393 0.000000 0.000000 0.000000 1.570796
 10   1.384163 -0.004728 0.000002 -0.000004 -0.000001 -0.645549
 11   5.939814 -0.004730 0.000000 0.000000 0.000000 0.041897
 12   5.939809 -0.003975 0.000000 0.000000 0.000000 0.067186
 13   4.991439 -0.003975 0.000000 0.000000 0.000000 0.067982
 14   4.991436 -0.001575 0.000000 0.000000 0.000000 0.000000
 15   0.000005 0.001564 3.638375 -0.000010 -1.283555 3.140806
 16   8.842831 0.000000 -0.000002 -0.650989 0.865458 -0.865271
 17   9.341934 0.000000 -0.000001 0.000000 0.000000 -0.272491
 18   11.168404 -0.000001 0.000002 -1.569768 -0.231123 0.002544
 19   0.000005 0.001585 -3.638375 -0.000010 1.283575 3.140787
 20   8.842831 0.000000 0.000001 0.624040 -0.944720 -0.784333
 21   9.341937 0.000000 -0.000001 0.000000 0.000000 -0.296196
 22   11.168404 -0.000001 0.000001 1.568687 -0.000040 -0.000040
 23   1.977383 0.000000 0.000000 0.000000 0.000000 0.415777
 24   3.723980 2.768054 -0.049087 0.000001 -3.141591 -1.570794
 25   12.421014 0.304721 4.492689 -0.091859 -0.075839 1.616818
 26   19.916998 1.704573 4.956909 2.262592 1.451744 0.734330
time 11
  0   -0.204953 -54.886742 59.113369 0.000000 0.470949 -1.570844
  1   5.712430 0.000001 9.745319 -1.570795 -1.570451 0.000000
  2   -0.000008 0.000010 5.615750 -3.109266 0.025125 0.870469
  3   15.693467 0.000000 0.000000 0.000000 0.000000 -2.268386
  4   22.146629 -0.000001 0.000000 0.029989 -0.027763 -0.788477
  5   3.310129 5.734393 0.000000 0.000000 0.000000 1.570796
  6   0.000008 -0.000006 -5.615750 -0.020133 3.124813 -0.973505
  7   15.693467 0.000000 0.000000 0.000000 0.000000 -1.943802
  8   22.146629 0.000000 0.000000 -0.026061 -0.002425 -0.596516
  9   3.310129 5.734393 0.000000 0.000000 0.000000 1.570796
 10   1.384163 -0.004728 0.000002 -0.000004 -0.000001 -0.735025
 11   5.939814 -0.004730 0.000000 0.000000 0.000000 0.046237
 12   5.939809 -0.003975 0.000000 0.000000 0.000000 0.071446
 13   4.991439 -0.003975 0.000000 0.000000 0.000000 0.074996
 14   4.991436 -0.001575 0.000000 0.000000 0.000000 0.000000
 15   0.000005 0.001564 3.638375 -0.000010 -1.283555 3.140806
 16   8.842831 0.000000 -0.000002 -0.415338 1.047507 -0.599292
 17   9.341934 0.000000 -0.000001 0.000000 0.000000 -0.200000
 18   11.168404 -0.000001 0.000002 -1.568718 -0.226721 -0.000011
 19   0.000005 0.001585 -3.638375 -0.000010 1.283575 3.140787
 20   8.842831 0.000000 0.000001 0.236152 -1.081140 -0.394597
 21   9.341937 0.000000 -0.000001 0.000000 0.000000 -0.200000
 22   11.168404 -0.000001 0.000001 1.568687 -0.000040 -0.000040
 23   1.977383 0.000000 0.000000 0.000000 0.000000 0.467520
 24   3.723980 2.768054 -0.049087 0.000001 -3.141591 -1.570794
 25   12.421014 0.304721 4.492689 -0.091859 -0.075839 1.616818
 26   19.916998 1.704573 4.956909 2.262592 1.451744 0.734330
time 12
  0   -0.204953 -60.543087 58.348835 0.000000 0.492547 -1.570844
  1   6.153851 0.000001 9.745319 -1.570795 -1.570790 0.000000
  2   -0.000008 0.000010 5.615750 -3.107924 0.023879 0.894459
  3   15.693467 0.000000 0.000000 0.000000 0.000000 -2.205287
  4   22.146629 -0.000001 0.000000 0.027259 -0.030957 -0.704871
  5   3.310129 5.734393 0.000000 0.000000 0.000000 1.570796
  6   0.000008 -0.000006 -5.615750 -0.024352 3.132579 -1.308179
  7   15.693467 0.000000 0.000000 0.000000 0.000000 -2.153775
  8   22.146629 0.000000 0.000000 -0.025892 0.002548 -0.534949
  9   3.310129 5.734393 0.000000 0.000000 0.000000 1.570796
 10   1.384163 -0.004728 0.000002 -0.000004 -0.000001 -0.798950
 11   5.939814 -0.004730 0.000000 0.000000 0.000000 0.050616
 12   5.939809 -0.003975 0.000000 0.000000 0.000000 0.075781
 13   4.991439 -0.003975 0.000000 0.000000 0.000000 0.082093
 14   4.991436 -0.001575 0.000000 0.000000 0.000000 0.000000
 15   0.000005 0.001564 3.638375 -0.000010 -1.283555 3.140806
 16   8.842831 0.000000 -0.000002 -0.263084 1.106391 -0.440586
 17   9.341934 0.000000 -0.000001 0.000000 0.000000 -0.237721
 18   11.168404 -0.000001 0.000002 -1.568718 -0.226721 -0.000011
 19   0.000005 0.001585 -3.638375 -0.000010 1.283575 3.140787
 20   8.842831 0.000000 0.000001 -0.057970 -1.058123 -0.127625
 21   9.341937 0.000000 -0.000001 0.000000 0.000000 -0.174752
 22   11.168404 -0.000001 0.000001 1.568687 -0.000040 0.002217
 23   1.977383 0.000000 0.000000 0.000000 0.000000 0.494758
 24   3.723980 2.768054 -0.049087 0.000001 -3.141591 -1.570794
 25   12.421014 0.304721 4.492689 -0.091859 -0.075839 1.616818
 26   19.916998 1.704573 4.956909 2.262592 1.451744 0.734330
time 13
  0   -0.204953 -66.121948 56.976597 0.000000 0.505639 -1.570844
  1   6.481986 0.000001 9.745319 -1.570795 -1.570451 0.000000
  2   -0.000008 0.000010 5.615750 -3.104952 0.020429 0.977609
  3   15.693467 0.000000 0.000000 0.000000 0.000000 -2.108399
  4   22.146629 -0.000001 0.000000 0.024118 -0.034202 -0.586322
  5   3.310129 5.734393 0.000000 0.000000 0.000000 1.570796
  6   0.000008 -0.000006 -5.615750 3.115608 0.000288 1.496785
  7   15.693467 0.000000 0.000000 0.000000 0.000000 -2.331594
  8   22.146629 0.000000 0.000000 -0.024369 0.008780 -0.454711
  9   3.310129 5.734393 0.000000 0.000000 0.000000 1.570796
 10   1.384163 -0.004728 0.000002 -0.000004 -0.000001 -0.849468
 11   5.939814 -0.004730 0.000000 0.000000 0.000000 0.055072
 12   5.939809 -0.003975 0.000000 0.000000 0.000000 0.080179
 13   4.991439 -0.003975 0.000000 0.000000 0.000000 0.089292
 14   4.991436 -0.001575 0.000000 0.000000 0.000000 0.000000
 15   0.000005 0.001564 3.638375 -0.000010 -1.283555 3.140806
 16   8.842831 0.000000 -0.000002 -0.191392 1.121926 -0.379522
 17   9.341934 0.000000 -0.000001 0.000000 0.000000 -0.324809
 18   11.168404 -0.000001 0.000002 -1.568718 -0.226721 -0.000011
 19   0.000005 0.001585 -3.638375 -0.000010 1.283575 3.140787
 20   8.842831 0.000000 0.000001 -0.239377 -0.970658 0.005909
 21   9.341937 0.000000 -0.000001 0.000000 0.000000 -0.175418
 22   11.168404 -0.000001 0.000001 1.568687 -0.000040 0.007951
 23   1.977383 0.000000 0.000000 0.000000 0.000000 0.510017
 24   3.723980 2.768054 -0.049087 0.000001 -3.141591 -1.570794
 25   12.421014 0.304721 4.492689 -0.091859 -0.075839 1.616818
 26   19.916998 1.704573 4.956909 2.262592 1.451744 0.734330
time 14
  0   -0.204954 -71.602188 54.957447 0.000000 0.511947 -1.570844
  1   6.782776 0.000001 9.745319 -1.570795 -1.570451 0.000000
  2   -0.000008 0.000010 5.615750 -3.101309 0.014775 1.108929
  3   15.693467 0.000000 0.000000 0.000000 0.000000 -1.989955
  4   22.146629 -0.000001 0.000000 0.020603 -0.037570 -0.433379
  5   3.310129 5.734393 0.000000 0.000000 0.000000 1.570796
  6   0.000008 -0.000006 -5.615750 3.116662 6.275608 1.197809
  7   15.693467 0.000000 0.000000 0.000000 0.000000 -2.460139
  8   22.146629 0.000000 0.000000 -0.021154 0.014982 -0.359587
  9   3.310129 5.734393 0.000000 0.000000 0.000000 1.570796
 10   1.384163 -0.004728 0.000002 -0.000004 -0.000001 -0.898886
 11   5.939814 -0.004730 0.000000 0.000000 0.000000 0.059566
 12   5.939809 -0.003975 0.000000 0.000000 0.000000 0.084626
 13   4.991439 -0.003975 0.000000 0.000000 0.000000 0.096557
 14   4.991436 -0.001575 0.000000 0.000000 0.000000 0.000000
 15   0.000005 0.001564 3.638375 -0.000010 -1.283555 3.140806
 16   8.842831 0.000000 -0.000002 -0.178681 1.115600 -0.388778
 17   9.341934 0.000000 -0.000001 0.000000 0.000000 -0.450930
 18   11.168404 -0.000001 0.000002 -1.568718 -0.226721 -0.000011
 19   0.000005 0.001585 -3.638375 -0.000010 1.283575 3.140787
 20   8.842831 0.000000 0.000001 -0.345883 -0.853802 0.046227
 21   9.341937 0.000000 -0.000001 0.000000 0.000000 -0.198867
 22   11.168404 -0.000001 0.000001 1.568687 -0.000040 0.015472
 23   1.977383 0.000000 0.000000 0.000000 0.000000 0.525873
 24   3.723980 2.768054 -0.049087 0.000001 -3.141591 -1.570794
 25   12.421014 0.304721 4.492689 -0.091859 -0.075839 1.616818
 26   19.916998 1.704573 4.956909 2.262592 1.451744 0.734330
time 15
  0   -0.204954 -76.955643 52.271782 0.000000 0.513094 -1.570844
  1   7.024971 0.000001 9.745319 -1.570795 -1.570451 0.000000
  2   -0.000008 0.000010 5.615750 -3.097954 0.007205 1.272745
  3   15.693467 0.000000 0.000000 0.000000 0.000000 -1.860841
  4   22.146629 -0.000001 0.000000 0.016378 -0.041012 -0.252765
  5   3.310129 5.734393 0.000000 0.000000 0.000000 1.570796
  6   0.000008 -0.000006 -5.615750 3.118772 6.270335 0.975908
  7   15.693467 0.000000 0.000000 0.000000 0.000000 -2.522439
  8   22.146629 0.000000 0.000000 -0.016641 0.020047 -0.253454
  9   3.310129 5.734393 0.000000 0.000000 0.000000 1.570796
 10   1.384163 -0.004728 0.000002 -0.000004 -0.000001 -0.941244
 11   5.939814 -0.004730 0.000000 0.000000 0.000000 0.064078
 12   5.939809 -0.003975 0.000000 0.000000 0.000000 0.089111
 13   4.991439 -0.003975 0.000000 0.000000 0.000000 0.103874
 14   4.991436 -0.001575 0.000000 0.000000 0.000000 0.000000
 15   0.000005 0.001564 3.638375 -0.000010 -1.283555 3.140806
 16   8.842831 0.000000 -0.000002 -0.212058 1.093554 -0.451111
 17   9.341934 0.000000 -0.000001 0.000000 0.000000 -0.605506
 18   11.168404 -0.000001 0.000002 -1.568718 -0.226721 -0.000011
 19   0.000005 0.001585 -3.638375 -0.000010 1.283575 3.140787
 20   8.842831 0.000000 0.000001 -0.406352 -0.726147 0.024781
 21   9.341937 0.000000 -0.000001 0.000000 0.000000 -0.241769
 22   11.168404 -0.000001 0.000001 1.568687 -0.000040 0.022899
 23   1.977383 0.000000 0.000000 0.000000 0.000000 0.536758
 24   3.723980 2.768054 -0.049087 0.000001 -3.141591 -1.570794
 25   12.421014 0.304721 4.492689 -0.091859 -0.075839 1.616818
 26   19.916998 1.704573 4.956909 2.262592 1.451744 0.734330
time 16
  0   -0.204954 -81.886452 48.664757 0.000000 0.510896 -1.570844
  1   7.177319 0.000001 9.745319 -1.570795 -1.570451 0.000000
  2   -0.000008 0.000010 5.615750 -3.095845 6.281536 1.451948
  3   15.693467 0.000000 0.000000 0.000000 0.000000 -1.725325
  4   22.146629 -0.000001 0.000000 0.011180 -0.044281 -0.059346
  5   3.310129 5.734393 0.000000 0.000000 0.000000 1.570796
  6   0.000008 -0.000006 -5.615750 3.119826 6.268226 0.870499
  7   15.693467 0.000000 0.000000 0.000000 0.000000 -2.501374
  8   22.146629 0.000000 0.000000 -0.011902 0.023455 -0.140275
  9   3.310129 5.734393 0.000000 0.000000 0.000000 1.570796
 10   1.380257 -0.004728 0.000002 -0.000004 -0.000001 -0.970616
 11   5.939814 -0.004730 0.000000 0.000000 0.000000 0.068629
 12   5.939809 -0.003975 0.000000 0.000000 0.000000 0.093621
 13   4.991439 -0.003975 0.000000 0.000000 0.000000 0.111240
 14   4.991436 -0.001575 0.000000 0.000000 0.000000 0.000000
 15   0.000005 0.001564 3.638375 -0.000010 -1.283555 3.140806
 16   8.842831 0.000000 -0.000002 -0.271680 1.058483 -0.541513
 17   9.341934 0.000000 -0.000001 0.000000 0.000000 -0.778287
 18   11.168404 -0.000001 0.000002 -1.568718 -0.226721 -0.000011
 19   0.000005 0.001585 -3.638375 -0.000010 1.283575 3.140787
 20   8.842831 0.000000 0.000001 -0.440618 -0.598314 -0.032978
 21   9.341937 0.000000 -0.000001 0.000000 0.000000 -0.301259
 22   11.168404 -0.000001 0.000001 1.568687 -0.000040 0.028633
 23   1.977383 0.000000 0.000000 0.000000 0.000000 0.537106
 24   3.723980 2.768054 -0.049087 0.000001 -3.141591 -1.570794
 25   12.421014 0.304721 4.492689 -0.091859 -0.075839 1.616818
 26   19.916998 1.704573 4.956909 2.262592 1.451744 0.734330
time 17
  0   -0.204954 -86.281921 44.214787 0.000000 0.507073 -1.570844
  1   7.212476 0.000001 9.745319 -1.570795 -1.570451 0.000000
  2   -0.000008 0.000010 5.615750 0.046017 3.151941 -1.509541
  3   15.693467 0.000000 0.000000 0.000000 0.000000 -1.580631
  4   22.146629 -0.000001 0.000000 0.004936 -0.046907 0.127762
  5   3.310129 5.734393 0.000000 0.000000 0.000000 1.570796
  6   0.000008 -0.000006 -5.615750 3.117046 6.271773 0.998421
  7   15.693467 0.000000 0.000000 0.000000 0.000000 -2.302566
  8   22.146629 0.000000 0.000000 -0.007672 0.025849 0.006902
  9   3.310129 5.734393 0.000000 0.000000 0.000000 1.570796
 10   1.380257 -0.004728 0.000002 -0.000004 -0.000001 -0.981075
 11   5.939814 -0.004730 0.000000 0.000000 0.000000 0.073181
 12   5.939809 -0.003975 0.000000 0.000000 0.000000 0.098143
 13   4.991439 -0.003975 0.000000 0.000000 0.000000 0.118607
 14   4.991436 -0.001575 0.000000 0.000000 0.000000 0.000000
 15   0.000005 0.001564 3.638375 -0.000010 -1.283555 3.140806
 16   8.842831 0.000000 -0.000002 -0.339531 1.013274 -0.636841
 17   9.341934 0.000000 -0.000001 0.000000 0.000000 -0.958940
 18   11.168404 -0.000001 0.000002 -1.568718 -0.226721 -0.000011
 19   0.000005 0.001585 -3.638375 -0.000010 1.283575 3.140787
 20   8.842831 0.000000 0.000001 -0.458033 -0.476855 -0.109229
 21   9.341937 0.000000 -0.000001 0.000000 0.000000 -0.373939
 22   11.168404 -0.000001 0.000001 1.568687 -0.000040 0.030983
 23   1.977383 0.000000 0.000000 0.000000 0.000000 0.521400
 24   3.723980 2.768054 -0.049087 0.000001 -3.141591 -1.570794
 25   12.421014 0.304721 4.492689 -0.091859 -0.075839 1.616818
 26   19.916998 1.704573 4.956909 2.262592 1.451744 0.734330
time 18
  0   -0.204954 -90.430847 39.215923 0.000000 0.503346 -1.570844
  1   7.091379 0.000001 9.745319 -1.570795 -1.570451 0.000000
  2   -0.000008 0.000010 5.615750 0.044675 3.160278 -1.336933
  3   15.693467 0.000000 0.000000 0.000000 0.000000 -1.419932
  4   22.146629 -0.000001 0.000000 -0.002169 -0.048442 0.291407
  5   3.310129 5.734393 0.000000 0.000000 0.000000 1.570796
  6   0.000008 -0.000006 -5.615750 3.112731 6.282415 1.361780
  7   15.693467 0.000000 0.000000 0.000000 0.000000 -1.945811
  8   22.146629 0.000000 0.000000 -0.003385 0.028582 0.232028
  9   3.310129 5.734393 0.000000 0.000000 0.000000 1.570796
 10   1.384163 -0.004728 0.000002 -0.000004 -0.000001 -0.966729
 11   5.939814 -0.004730 0.000000 0.000000 0.000000 0.077732
 12   5.939809 -0.003975 0.000000 0.000000 0.000000 0.102666
 13   4.991439 -0.003975 0.000000 0.000000 0.000000 0.125974
 14   4.991436 -0.001575 0.000000 0.000000 0.000000 0.000000
 15   0.000005 0.001564 3.638375 -0.000010 -1.283555 3.140806
 16   8.842831 0.000000 -0.000002 -0.404548 0.962575 -0.720375
 17   9.341934 0.000000 -0.000001 0.000000 0.000000 -1.136969
 18   11.168404 -0.000001 0.000002 -1.568718 -0.226721 -0.000011
 19   0.000005 0.001585 -3.638375 -0.000010 1.283575 3.140787
 20   8.842831 0.000000 0.000001 -0.460613 -0.365753 -0.189864
 21   9.341937 0.000000 -0.000001 0.000000 0.000000 -0.456811
 22   11.168404 -0.000001 0.000001 1.568687 -0.000040 0.028069
 23   1.977383 0.000000 0.000000 0.000000 0.000000 0.483922
 24   3.723980 2.768054 -0.049087 0.000001 -3.141591 -1.570794
 25   12.421014 0.304721 4.492689 -0.091859 -0.075839 1.616818
 26   19.916998 1.704573 4.956909 2.262592 1.451744 0.734330
time 19
  0   -0.204955 -94.614990 34.001419 0.000000 0.501530 -1.570844
  1   6.771057 0.000001 9.745319 -1.570795 -1.570451 0.000000
  2   -0.000008 0.000010 5.615750 0.041991 3.167657 -1.173882
  3   15.693467 0.000000 0.000000 0.000000 0.000000 -1.237252
  4   22.146629 -0.000001 0.000000 -0.009759 -0.048541 0.421710
  5   3.310129 5.734393 0.000000 0.000000 0.000000 1.570796
  6   0.000008 -0.000006 -5.615750 -0.028283 3.129894 -1.378312
  7   15.693467 0.000000 0.000000 0.000000 0.000000 -1.532339
  8   22.146629 0.000000 0.000000 0.002538 0.030547 0.438833
  9   3.310129 5.734393 0.000000 0.000000 0.000000 1.570796
 10   1.384163 -0.004728 0.000002 -0.000004 -0.000001 -0.921651
 11   5.939814 -0.004730 0.000000 0.000000 0.000000 0.082264
 12   5.939809 -0.003975 0.000000 0.000000 0.000000 0.107163
 13   4.991439 -0.003975 0.000000 0.000000 0.000000 0.133307
 14   4.991436 -0.001575 0.000000 0.000000 0.000000 0.000000
 15   0.000005 0.001564 3.638375 -0.000010 -1.283555 3.140806
 16   8.842831 0.000000 -0.000002 -0.463163 0.913273 -0.782409
 17   9.341934 0.000000 -0.000001 0.000000 0.000000 -1.302041
 18   11.168404 -0.000001 0.000002 -1.568718 -0.226721 -0.000011
 19   0.000005 0.001585 -3.638375 -0.000010 1.283575 3.140787
 20   8.842831 0.000000 0.000001 -0.446100 -0.268462 -0.262684
 21   9.341937 0.000000 -0.000001 0.000000 0.000000 -0.546612
 22   11.168404 -0.000001 0.000001 1.568687 -0.000040 0.018292
 23   1.977383 0.000000 0.000000 0.000000 0.000000 0.419207
 24   3.723980 2.768054 -0.049087 0.000001 -3.141591 -1.570794
 25   12.421014 0.304721 4.492689 -0.091859 -0.075839 1.616818
 26   19.916998 1.704573 4.956909 2.262592 1.451744 0.734330
time 20
  0   -0.204955 -99.130203 28.865330 0.000000 0.503155 -1.570844
  1   6.169476 0.000001 9.745319 -1.570795 -1.570790 0.000000
  2   -0.000008 0.000010 5.615750 0.038348 3.174173 -1.018763
  3   15.693467 0.000000 0.000000 0.000000 0.000000 -1.033159
  4   22.146629 -0.000001 0.000000 -0.017313 -0.047253 0.518580
  5   3.310129 5.734393 0.000000 0.000000 0.000000 1.570796
  6   0.000008 -0.000006 -5.615750 -0.023393 3.120211 -1.019442
  7   15.693467 0.000000 0.000000 0.000000 0.000000 -1.034461
  8   22.146629 0.000000 0.000000 0.009759 0.030178 0.518632
  9   3.310129 5.734393 0.000000 0.000000 0.000000 1.570796
 10   1.384163 -0.004728 0.000002 -0.000004 -0.000001 -0.839915
 11   5.939814 -0.004730 0.000000 0.000000 0.000000 0.086776
 12   5.939809 -0.003975 0.000000 0.000000 0.000000 0.111623
 13   4.991439 -0.003975 0.000000 0.000000 0.000000 0.140606
 14   4.991436 -0.001575 0.000000 0.000000 0.000000 0.000000
 15   0.000005 0.001564 3.638375 -0.000010 -1.283555 3.140806
 16   8.842831 0.000000 -0.000002 -0.517755 0.874481 -0.819286
 17   9.341934 0.000000 -0.000001 0.000000 0.000000 -1.443825
 18   11.168404 -0.000001 0.000002 -1.568718 -0.226721 -0.000011
 19   0.000005 0.001585 -3.638375 -0.000010 1.283575 3.140787
 20   8.842831 0.000000 0.000001 -0.409496 -0.189939 -0.317489
 21   9.341937 0.000000 -0.000001 0.000000 0.000000 -0.640210
 22   11.168404 -0.000001 0.000001 1.568687 -0.000040 -0.000040
 23   1.977383 0.000000 0.000000 0.000000 0.000000 0.321686
 24   3.723980 2.768054 -0.049087 0.000001 -3.141591 -1.570794
 25   12.421014 0.304721 4.492689 -0.091859 -0.075839 1.616818
 26   19.916998 1.704573 4.956909 2.262592 1.451744 0.734330
time 21
  0   -0.204955 -105.582520 22.670658 0.000000 0.511756 -1.570844
  1   4.259261 0.000001 9.745319 -1.570795 -1.570790 0.000000
  2   -0.000008 0.000010 5.615750 0.045346 3.174748 -1.098569
  3   15.693467 0.000000 0.000000 0.000000 0.000000 -1.444048
  4   22.146629 -0.000001 0.000000 -0.019407 -0.052751 0.858494
  5   3.310129 5.734393 0.000000 0.000000 0.000000 1.570796
  6   0.000008 -0.000006 -5.615750 -0.027995 3.119636 -1.099253
  7   15.693467 0.000000 0.000000 0.000000 0.000000 -1.445402
  8   22.146629 0.000000 0.000000 0.011169 0.033893 0.858434
  9   3.310129 5.734393 0.000000 0.000000 0.000000 1.570796
 10   1.384163 -0.004728 0.000002 -0.000004 -0.000001 -0.604098
 11   5.939814 -0.004730 0.000000 0.000000 0.000000 0.091595
 12   5.939809 -0.003975 0.000000 0.000000 0.000000 0.116458
 13   4.991439 -0.003975 0.000000 0.000000 0.000000 0.148410
 14   4.991436 -0.001575 0.000000 0.000000 0.000000 0.000000
 15   0.000005 0.001564 3.638375 -0.000010 -1.283555 3.140806
 16   8.842831 0.000000 -0.000002 -0.576737 0.924342 -0.738067
 17   9.341934 0.000000 -0.000001 0.000000 0.000000 -1.592988
 18   11.168404 -0.000001 0.000002 -1.568718 -0.226721 -0.000011
 19   0.000005 0.001585 -3.638375 -0.000010 1.283318 3.140787
 20   8.842831 0.000000 0.000001 -0.246472 -0.217825 -0.372389
 21   9.341937 0.000000 -0.000001 0.000000 0.000000 -0.835867
 22   11.168404 -0.000001 0.000001 1.568594 0.003839 -0.081922
 23   1.977383 0.000000 0.000000 0.000000 0.000000 0.079724
 24   3.723980 2.768054 -0.049087 0.000001 -3.141591 -1.570794
 25   12.421014 0.304721 4.492689 -0.091859 -0.075839 1.616818
 26   19.916998 1.704573 4.956909 2.262592 1.451744 0.734330
time 22
  0   -0.204955 -106.209442 15.044938 0.000000 0.459194 -1.570844
  1   0.520866 0.000001 9.745319 -1.570795 -1.570451 0.000000
  2   -0.000008 0.000010 5.615750 0.067588 3.164398 -1.422090
  3   15.693467 0.000000 0.000000 0.000000 0.000000 -1.901531
  4   22.146629 -0.000001 0.000000 -0.019930 -0.068577 0.939996
  5   3.310129 5.734393 0.000000 0.000000 0.000000 1.570796
  6   0.000008 -0.000006 -5.615750 -0.042568 3.126060 -1.423127
  7   15.693467 0.000000 0.000000 0.000000 0.000000 -1.903087
  8   22.146629 0.000000 0.000000 0.011451 0.043901 0.939729
  9   3.310129 5.734393 0.000000 0.000000 0.000000 1.570796
 10   1.384163 -0.004728 0.000002 -0.000004 -0.000001 -0.207690
 11   5.939814 -0.004730 0.000000 0.000000 0.000000 0.096624
 12   5.939809 -0.003975 0.000000 0.000000 0.000000 0.121530
 13   4.991439 -0.003975 0.000000 0.000000 0.000000 0.156534
 14   4.991436 -0.001575 0.000000 0.000000 0.000000 0.000000
 15   0.000005 0.001564 3.638375 -0.000010 -1.283555 3.140806
 16   8.842831 0.000000 -0.000002 -0.724876 1.064437 -0.699473
 17   9.341934 0.000000 -0.000001 0.000000 0.000000 -1.719109
 18   11.168404 -0.000001 0.000002 -1.568718 -0.226721 -0.000011
 19   0.000005 0.001585 -3.638375 -0.000010 1.283061 3.140787
 20   8.842831 0.000000 0.000001 0.067645 -0.313080 -0.538520
 21   9.341937 0.000000 -0.000001 0.000000 0.000000 -1.122656
 22   11.168404 -0.000001 0.000001 1.567941 0.007633 -0.210432
 23   1.977383 0.000000 0.000000 0.000000 0.000000 -0.307973
 24   3.723980 2.768054 -0.049087 0.000001 -3.141591 -1.570794
 25   12.421014 0.304721 4.492689 -0.091859 -0.075839 1.616818
 26   19.916998 1.704573 4.956909 2.262592 1.451744 0.734330
time 23
  0   -0.204955 -106.723656 9.497177 0.000000 0.318617 -1.570844
  1   -3.373784 0.000001 9.745319 -1.570795 -1.570451 0.000000
  2   -0.000008 0.000010 5.615750 -3.053663 6.275785 1.443442
  3   15.693467 0.000000 0.000000 0.000000 0.000000 -2.184871
  4   22.146629 -0.000001 0.000000 -0.009535 -0.087671 0.806263
  5   3.310129 5.734393 0.000000 0.000000 0.000000 1.570796
  6   0.000008 -0.000006 -5.615750 3.085790 0.005848 1.441661
  7   15.693467 0.000000 0.000000 0.000000 0.000000 -2.186898
  8   22.146629 0.000000 0.000000 0.004795 0.055813 0.805940
  9   3.310129 5.734393 0.000000 0.000000 0.000000 1.570796
 10   1.384163 -0.004728 0.000002 -0.000004 -0.000001 0.189010
 11   5.939814 -0.004730 0.000000 0.000000 0.000000 0.101156
 12   5.939809 -0.003975 0.000000 0.000000 0.000000 0.126015
 13   4.991439 -0.003975 0.000000 0.000000 0.000000 0.163867
 14   4.991436 -0.001575 0.000000 0.000000 0.000000 0.000000
 15   0.000005 0.001564 3.638375 -0.000010 -1.283555 3.140806
 16   8.842831 0.000000 -0.000002 -1.032950 1.058111 -0.964630
 17   9.341934 0.000000 -0.000001 0.000000 0.000000 -1.719601
 18   11.168404 -0.000001 0.000002 -1.568718 -0.226721 -0.000011
 19   0.000005 0.001585 -3.638375 -0.000010 1.283575 3.140787
 20   8.842831 0.000000 0.000001 0.392081 -0.267666 -0.767940
 21   9.341937 0.000000 -0.000001 0.000000 0.000000 -1.333168
 22   11.168404 -0.000001 0.000001 1.568687 -0.000040 -0.279058
 23   1.977383 0.000000 0.000000 0.000000 0.000000 -0.681753
 24   3.723980 2.768054 -0.049087 0.000001 -3.141591 -1.570794
 25   12.421014 0.304721 4.492689 -0.091859 -0.075839 1.616818
 26   19.916998 1.704573 4.956909 2.262592 1.451744 0.734330
time 24
  0   -0.204955 -107.153336 6.321427 0.000000 0.185876 -1.570844
  1   -5.526194 0.000001 9.745319 -1.570795 -1.570451 0.000000
  2   -0.000008 0.000010 5.615750 -3.038420 0.009601 1.226678
  3   15.693467 0.000000 0.000000 0.000000 0.000000 -2.357023
  4   22.146629 -0.000001 0.000000 0.006843 -0.103299 0.627250
  5   3.310129 5.734393 0.000000 0.000000 0.000000 1.570796
  6   0.000008 -0.000006 -5.615750 3.075915 6.278293 1.225932
  7   15.693467 0.000000 0.000000 0.000000 0.000000 -2.359432
  8   22.146629 0.000000 0.000000 -0.005585 0.065575 0.629433
  9   3.310129 5.734393 0.000000 0.000000 0.000000 1.570796
 10   1.384163 -0.004728 0.000002 -0.000004 -0.000001 0.425734
 11   5.939814 -0.004730 0.000000 0.000000 0.000000 0.104484
 12   5.939809 -0.003975 0.000000 0.000000 0.000000 0.129125
 13   4.991439 -0.003975 0.000000 0.000000 0.000000 0.169266
 14   4.991436 -0.001575 0.000000 0.000000 0.000000 0.000000
 15   0.000005 0.001564 3.638375 -0.000010 -1.283555 3.140806
 16   8.842831 0.000000 -0.000002 -1.152925 0.896528 -1.127592
 17   9.341934 0.000000 -0.000001 0.000000 0.000000 -1.588724
 18   11.168404 -0.000001 0.000002 -1.569195 -0.230836 -0.000650
 19   0.000005 0.001585 -3.638375 -0.000010 1.284707 3.140787
 20   8.842831 0.000000 0.000001 0.581470 -0.173119 -0.879551
 21   9.341937 0.000000 -0.000001 0.000000 0.000000 -1.446352
 22   11.168404 -0.000001 0.000001 1.572509 -0.017916 -0.276990
 23   1.977383 0.000000 0.000000 0.000000 0.000000 -0.881864
 24   3.723980 2.768054 -0.049087 0.000001 -3.141591 -1.570794
 25   12.421014 0.304721 4.492689 -0.091859 -0.075839 1.616818
 26   19.916998 1.704573 4.956909 2.262592 1.451744 0.734330
time 25
  0   -0.204955 -107.498497 5.752929 0.000000 0.185876 -1.570844
  1   -6.049647 0.000001 9.745319 -1.570795 -1.570451 0.000000
  2   -0.000008 0.000010 5.615750 -3.035257 0.007684 1.236426
  3   15.693467 0.000000 0.000000 0.000000 0.000000 -2.384909
  4   22.146629 -0.000001 0.000000 0.008226 -0.106270 0.664891
  5   3.310129 5.734393 0.000000 0.000000 0.000000 1.570796
  6   0.000008 -0.000006 -5.615750 3.073901 6.279731 1.238486
  7   15.693467 0.000000 0.000000 0.000000 0.000000 -2.387493
  8   22.146629 0.000000 0.000000 -0.006431 0.067448 0.670036
  9   3.310129 5.734393 0.000000 0.000000 0.000000 1.570796
 10   1.384163 -0.004728 0.000002 -0.000004 -0.000001 0.485935
 11   5.939814 -0.004730 0.000000 0.000000 0.000000 0.107868
 12   5.939809 -0.003975 0.000000 0.000000 0.000000 0.132286
 13   4.991439 -0.003975 0.000000 0.000000 0.000000 0.174749
 14   4.991436 -0.001575 0.000000 0.000000 0.000000 0.000000
 15   0.000005 0.001564 3.638375 -0.000010 -1.283555 3.140806
 16   8.842831 0.000000 -0.000002 -1.112872 0.814574 -1.122068
 17   9.341934 0.000000 -0.000001 0.000000 0.000000 -1.403971
 18   11.168404 -0.000001 0.000002 -1.570341 -0.240310 -0.002075
 19   0.000005 0.001585 -3.638375 -0.000010 1.286044 3.140787
 20   8.842831 0.000000 0.000001 0.656291 -0.188257 -0.917677
 21   9.341937 0.000000 -0.000001 0.000000 0.000000 -1.552407
 22   11.168404 -0.000001 0.000001 1.578382 -0.037394 -0.265521
 23   1.977383 0.000000 0.000000 0.000000 0.000000 -0.899807
 24   3.723980 2.768054 -0.049087 0.000001 -3.141591 -1.570794
 25   12.421014 0.304721 4.492689 -0.091859 -0.075839 1.616818
 26   19.916998 1.704573 4.956909 2.262592 1.451744 0.734330
time 26
  0   -0.204955 -107.780258 8.418990 0.000000 0.172210 -1.570844
  1   -5.994958 0.000001 9.745319 -1.570795 -1.570451 0.000000
  2   -0.000008 0.000010 5.615750 -3.050404 6.279619 1.385524
  3   15.693467 0.000000 0.000000 0.000000 0.000000 -2.223285
  4   22.146629 -0.000001 0.000000 0.004711 -0.091114 0.639553
  5   3.310129 5.734393 0.000000 0.000000 0.000000 1.570796
  6   0.000008 -0.000006 -5.615750 3.083681 0.003451 1.383591
  7   15.693467 0.000000 0.000000 0.000000 0.000000 -2.225379
  8   22.146629 0.000000 0.000000 -0.004174 0.057808 0.639738
  9   3.310129 5.734393 0.000000 0.000000 0.000000 1.570796
 10   1.384163 -0.004728 0.000002 -0.000004 -0.000001 0.475475
 11   5.939814 -0.004730 0.000000 0.000000 0.000000 0.112152
 12   5.939809 -0.003975 0.000000 0.000000 0.000000 0.136496
 13   4.991439 -0.003975 0.000000 0.000000 0.000000 0.181678
 14   4.991436 -0.001575 0.000000 0.000000 0.000000 0.000000
 15   0.000005 0.001564 3.638375 -0.000010 -1.283555 3.140806
 16   8.842831 0.000000 -0.000002 -1.033773 0.744806 -1.080711
 17   9.341934 0.000000 -0.000001 0.000000 0.000000 -1.188549
 18   11.168404 -0.000001 0.000002 -1.571583 -0.251125 -0.003647
 19   0.000005 0.001585 -3.638375 -0.000010 1.287484 3.140787
 20   8.842831 0.000000 0.000001 0.695555 -0.245357 -0.928638
 21   9.341937 0.000000 -0.000001 0.000000 0.000000 -1.651535
 22   11.168404 -0.000001 0.000001 1.585187 -0.058348 -0.246437
 23   1.977383 0.000000 0.000000 0.000000 0.000000 -0.847866
 24   3.723980 2.768054 -0.049087 0.000001 -3.141591 -1.570794
 25   12.421014 0.304721 4.492689 -0.091859 -0.075839 1.616818
 26   19.916998 1.704573 4.956909 2.262592 1.451744 0.734330
time 27
  0   -0.204955 -108.005661 11.124259 0.000000 0.156441 -1.570844
  1   -5.541819 0.000001 9.745319 -1.570795 -1.570451 0.000000
  2   -0.000008 0.000010 5.615750 0.078325 3.157211 -1.562968
  3   15.693467 0.000000 0.000000 0.000000 0.000000 -2.062302
  4   22.146629 -0.000001 0.000000 0.002655 -0.079845 0.656293
  5   3.310129 5.734393 0.000000 0.000000 0.000000 1.570796
  6   0.000008 -0.000006 -5.615750 -0.049471 3.130566 -1.564164
  7   15.693467 0.000000 0.000000 0.000000 0.000000 -2.064084
  8   22.146629 0.000000 0.000000 -0.002877 0.050686 0.656561
  9   3.310129 5.734393 0.000000 0.000000 0.000000 1.570796
 10   1.384163 -0.004728 0.000002 -0.000004 -0.000001 0.417638
 11   5.939814 -0.004730 0.000000 0.000000 0.000000 0.116014
 12   5.939809 -0.003975 0.000000 0.000000 0.000000 0.140206
 13   4.991439 -0.003975 0.000000 0.000000 0.000000 0.187918
 14   4.991436 -0.001575 0.000000 0.000000 0.000000 0.000000
 15   0.000005 0.001564 3.638375 -0.000010 -1.283555 3.140806
 16   8.842831 0.000000 -0.000002 -0.932179 0.692154 -1.022559
 17   9.341934 0.000000 -0.000001 0.000000 0.000000 -0.965336
 18   11.168404 -0.000001 0.000002 -1.572538 -0.259260 -0.004875
 19   0.000005 0.001585 -3.638375 -0.000010 1.288975 3.140787
 20   8.842831 0.000000 0.000001 0.709342 -0.333618 -0.915199
 21   9.341937 0.000000 -0.000001 0.000000 0.000000 -1.743800
 22   11.168404 -0.000001 0.000001 1.591712 -0.080566 -0.221525
 23   1.977383 0.000000 0.000000 0.000000 0.000000 -0.747462
 24   3.723980 2.768054 -0.049087 0.000001 -3.141591 -1.570794
 25   12.421014 0.304721 4.492689 -0.091859 -0.075839 1.616818
 26   19.916998 1.704573 4.956909 2.262592 1.451744 0.734330
time 28
  0   -0.204955 -108.188805 13.790320 0.000000 0.139144 -1.570844
  1   -4.854298 0.000001 9.745319 -1.570795 -1.570451 0.000000
  2   -0.000008 0.000010 5.615750 0.066725 3.166411 -1.379942
  3   15.693467 0.000000 0.000000 0.000000 0.000000 -1.899113
  4   22.146629 -0.000001 0.000000 0.001795 -0.071177 0.659083
  5   3.310129 5.734393 0.000000 0.000000 0.000000 1.570796
  6   0.000008 -0.000006 -5.615750 -0.041993 3.124813 -1.380696
  7   15.693467 0.000000 0.000000 0.000000 0.000000 -1.900705
  8   22.146629 0.000000 0.000000 -0.002313 0.045221 0.659467
  9   3.310129 5.734393 0.000000 0.000000 0.000000 1.570796
 10   1.384163 -0.004728 0.000002 -0.000004 -0.000001 0.335772
 11   5.939814 -0.004730 0.000000 0.000000 0.000000 0.118118
 12   5.939809 -0.003975 0.000000 0.000000 0.000000 0.141881
 13   4.991439 -0.003975 0.000000 0.000000 0.000000 0.191315
 14   4.991436 -0.001575 0.000000 0.000000 0.000000 0.000000
 15   0.000005 0.001564 3.638375 -0.000010 -1.283555 3.140806
 16   8.842831 0.000000 -0.000002 -0.816960 0.662386 -0.956717
 17   9.341934 0.000000 -0.000001 0.000000 0.000000 -0.757622
 18   11.168404 -0.000001 0.000002 -1.572634 -0.260600 -0.005072
 19   0.000005 0.001585 -3.638375 -0.000010 1.290570 3.140787
 20   8.842831 0.000000 0.000001 0.703456 -0.440028 -0.879361
 21   9.341937 0.000000 -0.000001 0.000000 0.000000 -1.829271
 22   11.168404 -0.000001 0.000001 1.597026 -0.103838 -0.192476
 23   1.977383 0.000000 0.000000 0.000000 0.000000 -0.620268
 24   3.723980 2.768054 -0.049087 0.000001 -3.141591 -1.570794
 25   12.421014 0.304721 4.492689 -0.091859 -0.075839 1.616818
 26   19.916998 1.704573 4.956909 2.262592 1.451744 0.734330
time 29
  0   -0.204955 -108.343773 16.338762 0.000000 0.120318 -1.570844
  1   -4.104275 0.000001 9.745319 -1.570795 -1.570451 0.000000
  2   -0.000008 0.000010 5.615750 0.056083 3.173215 -1.207715
  3   15.693467 0.000000 0.000000 0.000000 0.000000 -1.731585
  4   22.146629 -0.000001 0.000000 0.001907 -0.064391 0.644996
  5   3.310129 5.734393 0.000000 0.000000 0.000000 1.570796
  6   0.000008 -0.000006 -5.615750 -0.035090 3.120499 -1.208240
  7   15.693467 0.000000 0.000000 0.000000 0.000000 -1.733009
  8   22.146629 0.000000 0.000000 -0.002369 0.040923 0.645375
  9   3.310129 5.734393 0.000000 0.000000 0.000000 1.570796
 10   1.384163 -0.004728 0.000002 -0.000004 -0.000001 0.253129
 11   5.939814 -0.004730 0.000000 0.000000 0.000000 0.117142
 12   5.939809 -0.003975 0.000000 0.000000 0.000000 0.139994
 13   4.991439 -0.003975 0.000000 0.000000 0.000000 0.189734
 14   4.991436 -0.001575 0.000000 0.000000 0.000000 0.000000
 15   0.000005 0.001564 3.638375 -0.000010 -1.283555 3.140806
 16   8.842831 0.000000 -0.000002 -0.693328 0.661456 -0.882888
 17   9.341934 0.000000 -0.000001 0.000000 0.000000 -0.588285
 18   11.168404 -0.000001 0.000002 -1.571583 -0.251125 -0.003647
 19   0.000005 0.001585 -3.638375 -0.000010 1.292113 3.140787
 20   8.842831 0.000000 0.000001 0.683300 -0.550686 -0.824651
 21   9.341937 0.000000 -0.000001 0.000000 0.000000 -1.907946
 22   11.168404 -0.000001 0.000001 1.600102 -0.127870 -0.160889
 23   1.977383 0.000000 0.000000 0.000000 0.000000 -0.487805
 24   3.723980 2.768054 -0.049087 0.000001 -3.141591 -1.570794
 25   12.421014 0.304721 4.492689 -0.091859 -0.075839 1.616818
 26   19.916998 1.704573 4.956909 2.262592 1.451744 0.734330
time 30
  0   -0.204955 -108.477615 18.749979 0.000000 0.100058 -1.570844
  1   -3.498788 0.000001 9.745319 -1.570795 -1.570451 0.000000
  2   -0.000008 0.000010 5.615750 0.046401 3.178102 -1.049156
  3   15.693467 0.000000 0.000000 0.000000 0.000000 -1.559433
  4   22.146629 -0.000001 0.000000 0.002617 -0.059017 0.611105
  5   3.310129 5.734393 0.000000 0.000000 0.000000 1.570796
  6   0.000008 -0.000006 -5.615750 -0.028858 3.117431 -1.049529
  7   15.693467 0.000000 0.000000 0.000000 0.000000 -1.560773
  8   22.146629 0.000000 0.000000 -0.002820 0.037546 0.611553
  9   3.310129 5.734393 0.000000 0.000000 0.000000 1.570796
 10   1.384163 -0.004728 0.000002 -0.000004 -0.000001 0.193058
 11   5.939814 -0.004730 0.000000 0.000000 0.000000 0.111769
 12   5.939809 -0.003975 0.000000 0.000000 0.000000 0.132998
 13   4.991439 -0.003975 0.000000 0.000000 0.000000 0.181039
 14   4.991436 -0.001575 0.000000 0.000000 0.000000 0.000000
 15   0.000005 0.001564 3.638375 -0.000010 -1.283555 3.140806
 16   8.842831 0.000000 -0.000002 -0.562380 0.693642 -0.791666
 17   9.341934 0.000000 -0.000001 0.000000 0.000000 -0.480533
 18   11.168404 -0.000001 0.000002 -1.568718 -0.226721 -0.000011
 19   0.000005 0.001585 -3.638375 -0.000010 1.293759 3.140787
 20   8.842831 0.000000 0.000001 0.656774 -0.653023 -0.759266
 21   9.341937 0.000000 -0.000001 0.000000 0.000000 -1.980027
 22   11.168404 -0.000001 0.000001 1.599915 -0.152281 -0.128456
 23   1.977383 0.000000 0.000000 0.000000 0.000000 -0.371595
 24   3.723980 2.768054 -0.049087 0.000001 -3.141591 -1.570794
 25   12.421014 0.304721 4.492689 -0.091859 -0.075839 1.616818
 26   19.916998 1.704573 4.956909 2.262592 1.451744 0.734330
time 31
  0   -0.204955 -108.611450 21.004370 0.000000 0.078651 -1.570844
  1   -2.916739 0.000001 9.745319 -1.570795 -1.570451 0.000000
  2   -0.000008 0.000010 5.615750 0.037389 3.181648 -0.895854
  3   15.693467 0.000000 0.000000 0.000000 0.000000 -1.383297
  4   22.146629 -0.000001 0.000000 0.003590 -0.054782 0.566787
  5   3.310129 5.734393 0.000000 0.000000 0.000000 1.570796
  6   0.000008 -0.000006 -5.615750 -0.023009 3.115226 -0.896148
  7   15.693467 0.000000 0.000000 0.000000 0.000000 -1.384591
  8   22.146629 0.000000 0.000000 -0.003441 0.034845 0.567338
  9   3.310129 5.734393 0.000000 0.000000 0.000000 1.570796
 10   1.384163 -0.004728 0.000002 -0.000004 -0.000001 0.149534
 11   5.939814 -0.004730 0.000000 0.000000 0.000000 0.093507
 12   5.939809 -0.003975 0.000000 0.000000 0.000000 0.111023
 13   4.991439 -0.003975 0.000000 0.000000 0.000000 0.151454
 14   4.991436 -0.001575 0.000000 0.000000 0.000000 0.000000
 15   0.000005 0.001564 3.638375 -0.000010 -1.283555 3.140806
 16   8.842831 0.000000 -0.000002 -0.362667 0.785550 -0.615939
 17   9.341934 0.000000 -0.000001 0.000000 0.000000 -0.465444
 18   11.168404 -0.000001 0.000002 -1.562606 -0.176763 0.007606
 19   0.000005 0.001585 -3.638375 -0.000010 1.295301 3.140787
 20   8.842831 0.000000 0.000001 0.580745 -0.770764 -0.644223
 21   9.341937 0.000000 -0.000001 0.000000 0.000000 -2.045578
 22   11.168404 -0.000001 0.000001 1.595907 -0.176607 -0.096681
 23   1.977383 0.000000 0.000000 0.000000 0.000000 -0.255038
 24   3.723980 2.768054 -0.049087 0.000001 -3.141591 -1.570794
 25   12.421014 0.304721 4.492689 -0.091859 -0.075839 1.616818
 26   19.916998 1.704573 4.956909 2.262592 1.451744 0.734330
time 32
  0   -0.204955 -108.752327 23.043123 0.000000 0.056384 -1.570844
  1   -2.170622 0.000001 9.745319 -1.570795 -1.570451 0.000000
  2   -0.000008 0.000010 5.615750 0.028761 3.184523 -0.739780
  3   15.693467 0.000000 0.000000 0.000000 0.000000 -1.203746
  4   22.146629 -0.000001 0.000000 0.004749 -0.051488 0.520821
  5   3.310129 5.734393 0.000000 0.000000 0.000000 1.570796
  6   0.000008 -0.000006 -5.615750 -0.017449 3.113596 -0.740173
  7   15.693467 0.000000 0.000000 0.000000 0.000000 -1.204986
  8   22.146629 0.000000 0.000000 -0.004118 0.032788 0.521450
  9   3.310129 5.734393 0.000000 0.000000 0.000000 1.570796
 10   1.384163 -0.004728 0.000002 -0.000004 -0.000001 0.103031
 11   5.939814 -0.004730 0.000000 0.000000 0.000000 0.062950
 12   5.939809 -0.003975 0.000000 0.000000 0.000000 0.074782
 13   4.991439 -0.003975 0.000000 0.000000 0.000000 0.101956
 14   4.991436 -0.001575 0.000000 0.000000 0.000000 0.000000
 15   0.000005 0.001564 3.638375 -0.000010 -1.283555 3.140806
 16   8.842831 0.000000 -0.000002 -0.014448 0.892528 -0.280685
 17   9.341934 0.000000 -0.000001 0.000000 0.000000 -0.534737
 18   11.168404 -0.000001 0.000002 -1.552769 -0.100966 0.019644
 19   0.000005 0.001585 -3.638375 -0.000010 1.296896 3.140787
 20   8.842831 0.000000 0.000001 0.399015 -0.899217 -0.423668
 21   9.341937 0.000000 -0.000001 0.000000 0.000000 -2.104602
 22   11.168404 -0.000001 0.000001 1.587237 -0.200385 -0.067256
 23   1.977383 0.000000 0.000000 0.000000 0.000000 -0.119692
 24   3.723980 2.768054 -0.049087 0.000001 -3.141591 -1.570794
 25   12.421014 0.304721 4.492689 -0.091859 -0.075839 1.616818
 26   19.916998 1.704573 4.956909 2.262592 1.451744 0.734330
time 33
  0   -0.204955 -108.914345 24.827032 0.000000 0.033448 -1.570844
  1   -1.404974 0.000001 9.745319 -1.570795 -1.570451 0.000000
  2   -0.000008 0.000010 5.615750 0.020517 3.186439 -0.586095
  3   15.693467 0.000000 0.000000 0.000000 0.000000 -1.023200
  4   22.146629 -0.000001 0.000000 0.005983 -0.048987 0.470923
  5   3.310129 5.734393 0.000000 0.000000 0.000000 1.570796
  6   0.000008 -0.000006 -5.615750 -0.012175 3.112445 -0.586582
  7   15.693467 0.000000 0.000000 0.000000 0.000000 -1.024562
  8   22.146629 0.000000 0.000000 -0.004908 0.031222 0.471598
  9   3.310129 5.734393 0.000000 0.000000 0.000000 1.570796
 10   1.384163 -0.004728 0.000002 -0.000004 -0.000001 0.056496
 11   5.939814 -0.004730 0.000000 0.000000 0.000000 0.032393
 12   5.939809 -0.003975 0.000000 0.000000 0.000000 0.038540
 13   4.991439 -0.003975 0.000000 0.000000 0.000000 0.052458
 14   4.991436 -0.001575 0.000000 0.000000 0.000000 0.000000
 15   0.000005 0.001564 3.638375 -0.000010 -1.283555 3.140806
 16   8.842831 0.000000 -0.000002 0.429512 0.913366 0.159453
 17   9.341934 0.000000 -0.000001 0.000000 0.000000 -0.652330
 18   11.168404 -0.000001 0.000002 -1.539780 -0.010335 0.034975
 19   0.000005 0.001585 -3.638375 -0.000010 1.298387 3.140787
 20   8.842831 0.000000 0.000001 0.131742 -0.987921 -0.115329
 21   9.341937 0.000000 -0.000001 0.000000 0.000000 -2.157230
 22   11.168404 -0.000001 0.000001 1.573348 -0.223110 -0.041498
 23   1.977383 0.000000 0.000000 0.000000 0.000000 0.015605
 24   3.723980 2.768054 -0.049087 0.000001 -3.141591 -1.570794
 25   12.421014 0.304721 4.492689 -0.091859 -0.075839 1.616818
 26   19.916998 1.704573 4.956909 2.262592 1.451744 0.734330
time 34
  0   -0.204955 -109.111572 26.258080 0.000000 0.013666 -1.566050
  1   -1.404974 0.000001 9.745319 -1.570795 -1.570451 0.000000
  2   -0.000008 0.000010 5.615750 0.014381 3.187302 -0.466530
  3   15.693467 0.000000 0.000000 0.000000 0.000000 -0.853609
  4   22.146629 -0.000001 0.000000 0.011853 -0.047476 0.400946
  5   3.310129 5.734393 0.000000 0.000000 0.000000 1.570796
  6   0.000008 -0.000006 -5.615750 -0.007765 3.112541 -0.464971
  7   15.693467 0.000000 0.000000 0.000000 0.000000 -0.854856
  8   22.146629 0.000000 0.000000 -0.000790 0.029533 0.403514
  9   3.310129 5.734393 0.000000 0.000000 0.000000 1.570796
 10   1.384163 -0.004728 0.000002 -0.000004 -0.000001 0.056496
 11   5.939814 -0.004730 0.000000 0.000000 0.000000 0.032393
 12   5.939809 -0.003975 0.000000 0.000000 0.000000 0.038540
 13   4.991439 -0.003975 0.000000 0.000000 0.000000 0.052458
 14   4.991436 -0.001575 0.000000 0.000000 0.000000 0.000000
 15   0.000005 0.001564 3.638375 -0.000010 -1.283555 3.140806
 16   8.842831 0.000000 -0.000002 0.622916 0.886761 0.358172
 17   9.341934 0.000000 -0.000001 0.000000 0.000000 -0.781977
 18   11.168404 -0.000001 0.000002 -1.524691 0.083646 0.052272
 19   0.000005 0.001585 -3.638375 -0.000010 1.299673 3.140787
 20   8.842831 0.000000 0.000001 0.029831 -1.003944 0.037268
 21   9.341937 0.000000 -0.000001 0.000000 0.000000 -2.083218
 22   11.168404 -0.000001 0.000001 1.502314 -0.243726 -0.020722
 23   1.977383 0.000000 0.000000 0.000000 0.000000 0.015605
 24   3.723980 2.768054 -0.049087 0.000001 -3.141591 -1.570794
 25   12.421014 0.304721 4.492689 -0.091859 -0.075839 1.616818
 26   19.916998 1.704573 4.956909 2.262592 1.451744 0.734330
time 35
  0   -0.204955 -109.351074 29.100571 0.000000 0.000000 -1.562119
  1   -1.404974 0.000001 9.745319 -1.570795 -1.570451 0.000000
  2   -0.000008 0.000010 5.615750 -0.001629 3.186535 -0.139186
  3   15.693467 0.000000 0.000000 0.000000 0.000000 -0.322854
  4   22.146629 -0.000001 0.000000 0.016602 -0.044331 0.183423
  5   3.310129 5.734393 0.000000 0.000000 0.000000 1.570796
  6   0.000008 -0.000006 -5.615750 0.002398 3.114075 -0.136890
  7   15.693467 0.000000 0.000000 0.000000 0.000000 -0.324674
  8   22.146629 0.000000 0.000000 0.002482 0.026985 0.187549
  9   3.310129 5.734393 0.000000 0.000000 0.000000 1.570796
 10   1.384163 -0.004728 0.000002 -0.000004 -0.000001 0.056496
 11   5.939814 -0.004730 0.000000 0.000000 0.000000 0.032393
 12   5.939809 -0.003975 0.000000 0.000000 0.000000 0.038540
 13   4.991439 -0.003975 0.000000 0.000000 0.000000 0.052458
 14   4.991436 -0.001575 0.000000 0.000000 0.000000 0.000000
 15   0.000005 0.001564 3.638375 -0.000010 -1.283555 3.140806
 16   8.842831 0.000000 -0.000002 0.782211 0.839876 0.517923
 17   9.341934 0.000000 -0.000001 0.000000 0.000000 -0.887433
 18   11.168404 -0.000001 0.000002 -1.509314 0.169970 0.069667
 19   0.000005 0.001585 -3.638375 -0.000010 1.300959 3.140787
 20   8.842831 0.000000 0.000001 -0.115939 -0.989072 0.237711
 21   9.341937 0.000000 -0.000001 0.000000 0.000000 -1.926799
 22   11.168404 -0.000001 0.000001 1.394272 -0.261771 -0.000040
 23   1.977383 0.000000 0.000000 0.000000 0.000000 0.015605
 24   3.723980 2.768054 -0.049087 0.000001 -3.141591 -1.570794
 25   12.421014 0.304721 4.492689 -0.091859 -0.075839 1.616818
 26   19.916998 1.704573 4.956909 2.262592 1.451744 0.734330
end
