version 1
nodes
  0 "Bip01" -1
  1 "Bip01 Pelvis" 0
  2 "Bip01 L Thigh" 1
  3 "Bip01 L Calf" 2
  4 "Bip01 L Foot" 3
  5 "Bip01 L Toe0" 4
  6 "Bip01 R Thigh" 1
  7 "Bip01 R Calf" 6
  8 "Bip01 R Foot" 7
  9 "Bip01 R Toe0" 8
 10 "Bip01 Spine" 1
 11 "Bip01 Spine1" 10
 12 "Bip01 Spine2" 11
 13 "Bip01 Spine3" 12
 14 "Bip01 Neck" 13
 15 "Bip01 L Clavicle" 14
 16 "Bip01 L UpperArm" 15
 17 "Bip01 L Forearm" 16
 18 "Bip01 L Hand" 17
 19 "Bip01 R Clavicle" 14
 20 "Bip01 R UpperArm" 19
 21 "Bip01 R Forearm" 20
 22 "Bip01 R Hand" 21
 23 "Bip01 Head" 14
 24 "Bone05" 23
 25 "m4" 22
 26 "SHOTGUN" 22
end
skeleton
time 0
  0   0.073880 -0.006819 28.041988 0.000000 0.000000 -2.033353
  1   -0.526041 0.000001 9.745319 -1.570795 -1.570451 0.000000
  2   -0.000008 0.000010 5.615750 -0.233053 3.472298 -0.563921
  3   15.693467 0.000000 0.000000 0.000000 0.000000 -0.487323
  4   22.146629 -0.000001 0.000000 0.114982 -0.144038 -0.143135
  5   3.310129 5.734393 0.000000 0.000000 0.000000 1.570796
  6   0.000008 -0.000006 -5.615750 0.212080 2.899510 0.054433
  7   15.693467 0.000000 0.000000 0.000000 0.000000 -0.482099
  8   22.146629 0.000000 0.000000 0.274883 0.248026 0.484986
  9   3.310129 5.734393 0.000000 0.000000 0.000000 1.570796
 10   1.384163 -0.004728 0.000002 -0.372579 -0.003463 0.086548
 11   5.939814 -0.004730 0.000000 0.000000 0.000000 0.000000
 12   5.939809 -0.003975 0.000000 0.000000 0.000000 0.000000
 13   4.991439 -0.003975 0.000000 0.000000 0.000000 0.000000
 14   4.991436 -0.001575 0.000000 0.000000 0.000000 0.000000
 15   0.000005 0.001564 3.638375 -0.000010 -1.284244 3.140806
 16   8.842831 0.000000 -0.000002 -0.414972 -0.110832 -0.914689
 17   9.341934 0.000000 -0.000001 0.000000 0.000000 -0.853073
 18   11.168404 -0.000001 0.000002 -4.515872 0.471532 -0.520821
 19   0.000005 0.001585 -3.638375 -0.000010 1.284244 3.140787
 20   8.842831 0.000000 0.000001 0.953960 -0.539089 -2.198116
 21   9.341937 0.000000 -0.000001 0.000000 0.000000 -0.994883
 22   11.168404 -0.000001 0.000001 1.806863 0.075089 0.649563
 23   1.977383 0.000000 0.000000 0.835700 0.294324 0.196082
 24   3.723980 2.768054 -0.049087 0.000001 -3.141591 -1.570794
 25   12.421014 0.304721 4.492689 -0.091859 -0.075839 1.616818
 26   19.916998 1.704573 4.956909 2.262592 1.451744 0.734330
time 1
  0   0.073880 1.810537 27.551903 0.000000 -0.069763 -2.033353
  1   -0.526041 0.000001 9.745319 -1.570795 -1.570790 0.000000
  2   -0.000008 0.000010 5.615750 -0.247720 3.478240 -0.503614
  3   15.693467 0.000000 0.000000 0.000000 0.000000 -0.391146
  4   22.146629 -0.000001 0.000000 0.131622 -0.136386 -0.251851
  5   3.310129 5.734393 0.000000 0.000000 0.000000 1.570796
  6   0.000008 -0.000006 -5.615750 0.183892 2.885704 -0.077838
  7   15.693467 0.000000 0.000000 0.000000 0.000000 -0.726460
  8   22.146629 0.000000 0.000000 0.255139 0.221041 0.530082
  9   3.310129 5.734393 0.000000 0.000000 0.000000 1.570796
 10   1.384163 -0.004728 0.000002 -0.150192 -0.057427 -0.051698
 11   5.939814 -0.004730 0.000000 0.000000 0.000000 0.000000
 12   5.939809 -0.003975 0.000000 0.000000 0.000000 0.000000
 13   4.991439 -0.003975 0.000000 0.000000 0.000000 0.000000
 14   4.991436 -0.001575 0.000000 0.000000 0.000000 0.000000
 15   0.000005 0.001564 3.638375 -0.000010 -1.284244 3.140806
 16   8.842831 0.000000 -0.000002 -0.297193 0.188800 -0.341002
 17   9.341934 0.000000 -0.000001 0.000000 0.000000 -2.071559
 18   11.168404 -0.000001 0.000002 -4.010657 0.094747 0.555147
 19   0.000005 0.001585 -3.638375 -0.000010 1.284244 3.140787
 20   8.842831 0.000000 0.000001 0.826088 -0.872924 -1.694576
 21   9.341937 0.000000 -0.000001 0.000000 0.000000 -1.275610
 22   11.168404 -0.000001 0.000001 1.793719 -0.609719 0.046401
 23   1.977383 0.000000 0.000000 0.573292 -0.117360 0.441425
 24   3.723980 2.768054 -0.049087 0.000001 -3.141591 -1.570794
 25   12.421014 0.304721 4.492689 -0.091859 -0.075839 1.616818
 26   19.916998 1.704573 4.956909 2.262592 1.451744 0.734330
time 2
  0   0.073880 2.233178 27.355869 0.000000 -0.068139 -2.033353
  1   -0.526041 0.000001 9.745319 -1.570795 -1.570790 0.000000
  2   -0.000008 0.000010 5.615750 -0.242448 3.483319 -0.519575
  3   15.693467 0.000000 0.000000 0.000000 0.000000 -0.394845
  4   22.146629 -0.000001 0.000000 0.132145 -0.137996 -0.262553
  5   3.310129 5.734393 0.000000 0.000000 0.000000 1.570796
  6   0.000008 -0.000006 -5.615750 0.176702 2.884937 -0.116411
  7   15.693467 0.000000 0.000000 0.000000 0.000000 -0.774022
  8   22.146629 0.000000 0.000000 0.254124 0.215023 0.542060
  9   3.310129 5.734393 0.000000 0.000000 0.000000 1.570796
 10   1.384163 -0.004728 0.000002 -0.155477 -0.056541 -0.048362
 11   5.939814 -0.004730 0.000000 0.000000 0.000000 0.000000
 12   5.939809 -0.003975 0.000000 0.000000 0.000000 0.000000
 13   4.991439 -0.003975 0.000000 0.000000 0.000000 0.000000
 14   4.991436 -0.001575 0.000000 0.000000 0.000000 0.000000
 15   0.000005 0.001564 3.638375 -0.000010 -1.284244 3.140806
 16   8.842831 0.000000 -0.000002 -0.324534 0.200242 -0.297183
 17   9.341934 0.000000 -0.000001 0.000000 0.000000 -2.229825
 18   11.168404 -0.000001 0.000002 -3.907608 0.096183 0.690177
 19   0.000005 0.001585 -3.638375 -0.000010 1.284244 3.140787
 20   8.842831 0.000000 0.000001 0.767473 -0.929847 -1.643583
 21   9.341937 0.000000 -0.000001 0.000000 0.000000 -1.299193
 22   11.168404 -0.000001 0.000001 1.848439 -0.603732 -0.116141
 23   1.977383 0.000000 0.000000 0.580745 0.038704 0.164967
 24   3.723980 2.768054 -0.049087 0.000001 -3.141591 -1.570794
 25   12.421014 0.304721 4.492689 -0.091859 -0.075839 1.616818
 26   19.916998 1.704573 4.956909 2.262592 1.451744 0.734330
time 3
  0   0.073880 2.381102 27.336266 0.000000 -0.063647 -2.033353
  1   -0.526041 0.000001 9.745319 -1.570795 -1.570451 0.000000
  2   -0.000008 0.000010 5.615750 -0.242448 3.482935 -0.520339
  3   15.693467 0.000000 0.000000 0.000000 0.000000 -0.384245
  4   22.146629 -0.000001 0.000000 0.131472 -0.139135 -0.269505
  5   3.310129 5.734393 0.000000 0.000000 0.000000 1.570796
  6   0.000008 -0.000006 -5.615750 0.175455 2.886375 -0.126931
  7   15.693467 0.000000 0.000000 0.000000 0.000000 -0.780200
  8   22.146629 0.000000 0.000000 0.254406 0.212660 0.542765
  9   3.310129 5.734393 0.000000 0.000000 0.000000 1.570796
 10   1.384163 -0.004728 0.000002 -0.170017 -0.053938 -0.039101
 11   5.939814 -0.004730 0.000000 0.000000 0.000000 0.000000
 12   5.939809 -0.003975 0.000000 0.000000 0.000000 0.000000
 13   4.991439 -0.003975 0.000000 0.000000 0.000000 0.000000
 14   4.991436 -0.001575 0.000000 0.000000 0.000000 0.000000
 15   0.000005 0.001564 3.638375 -0.000010 -1.284244 3.140806
 16   8.842831 0.000000 -0.000002 -0.449813 0.156613 -0.364517
 17   9.341934 0.000000 -0.000001 0.000000 0.000000 -2.232695
 18   11.168404 -0.000001 0.000002 -3.922411 0.207869 0.761083
 19   0.000005 0.001585 -3.638375 -0.000010 1.284244 3.140787
 20   8.842831 0.000000 0.000001 0.775213 -0.907804 -1.656260
 21   9.341937 0.000000 -0.000001 0.000000 0.000000 -1.397121
 22   11.168404 -0.000001 0.000001 1.849558 -0.599727 0.002499
 23   1.977383 0.000000 0.000000 0.550191 0.259315 -0.108309
 24   3.723980 2.768054 -0.049087 0.000001 -3.141591 -1.570794
 25   12.421014 0.304721 4.492689 -0.091859 -0.075839 1.616818
 26   19.916998 1.704573 4.956909 2.262592 1.451744 0.734330
time 4
  0   0.073880 2.282486 27.355869 0.000000 -0.056862 -2.033353
  1   -0.526041 0.000001 9.745319 -1.570795 -1.570451 0.000000
  2   -0.000008 0.000010 5.615750 -0.240051 3.483223 -0.528750
  3   15.693467 0.000000 0.000000 0.000000 0.000000 -0.393920
  4   22.146629 -0.000001 0.000000 0.129939 -0.140249 -0.261181
  5   3.310129 5.734393 0.000000 0.000000 0.000000 1.570796
  6   0.000008 -0.000006 -5.615750 0.176222 2.886854 -0.123424
  7   15.693467 0.000000 0.000000 0.000000 0.000000 -0.769482
  8   22.146629 0.000000 0.000000 0.255929 0.214225 0.542324
  9   3.310129 5.734393 0.000000 0.000000 0.000000 1.570796
 10   1.384163 -0.004728 0.000002 -0.191963 -0.049779 -0.025240
 11   5.939814 -0.004730 0.000000 0.000000 0.000000 0.000000
 12   5.939809 -0.003975 0.000000 0.000000 0.000000 0.000000
 13   4.991439 -0.003975 0.000000 0.000000 0.000000 0.000000
 14   4.991436 -0.001575 0.000000 0.000000 0.000000 0.000000
 15   0.000005 0.001564 3.638375 -0.000010 -1.284244 3.140806
 16   8.842831 0.000000 -0.000002 -0.593197 0.111775 -0.431329
 17   9.341934 0.000000 -0.000001 0.000000 0.000000 -2.264513
 18   11.168404 -0.000001 0.000002 -3.913243 0.330369 0.869874
 19   0.000005 0.001585 -3.638375 -0.000010 1.284244 3.140787
 20   8.842831 0.000000 0.000001 0.774649 -0.893108 -1.667793
 21   9.341937 0.000000 -0.000001 0.000000 0.000000 -1.522829
 22   11.168404 -0.000001 0.000001 1.844990 -0.594878 0.139470
 23   1.977383 0.000000 0.000000 0.553680 0.328387 -0.165122
 24   3.723980 2.768054 -0.049087 0.000001 -3.141591 -1.570794
 25   12.421014 0.304721 4.492689 -0.091859 -0.075839 1.616818
 26   19.916998 1.704573 4.956909 2.262592 1.451744 0.734330
time 5
  0   0.073880 2.028902 27.375473 0.000000 -0.048356 -2.033353
  1   -0.526041 0.000001 9.745319 -1.570795 -1.570451 0.000000
  2   -0.000008 0.000010 5.615750 -0.235162 3.484564 -0.544806
  3   15.693467 0.000000 0.000000 0.000000 0.000000 -0.420881
  4   22.146629 -0.000001 0.000000 0.127883 -0.141388 -0.241194
  5   3.310129 5.734393 0.000000 0.000000 0.000000 1.570796
  6   0.000008 -0.000006 -5.615750 0.178140 2.886663 -0.111642
  7   15.693467 0.000000 0.000000 0.000000 0.000000 -0.749311
  8   22.146629 0.000000 0.000000 0.258411 0.218585 0.541972
  9   3.310129 5.734393 0.000000 0.000000 0.000000 1.570796
 10   1.384163 -0.004728 0.000002 -0.219362 -0.044144 -0.007948
 11   5.939814 -0.004730 0.000000 0.000000 0.000000 0.000000
 12   5.939809 -0.003975 0.000000 0.000000 0.000000 0.000000
 13   4.991439 -0.003975 0.000000 0.000000 0.000000 0.000000
 14   4.991436 -0.001575 0.000000 0.000000 0.000000 0.000000
 15   0.000005 0.001564 3.638375 -0.000010 -1.284244 3.140806
 16   8.842831 0.000000 -0.000002 -0.552504 0.067031 -0.425357
 17   9.341934 0.000000 -0.000001 0.000000 0.000000 -2.040890
 18   11.168404 -0.000001 0.000002 -4.057740 0.369129 0.581632
 19   0.000005 0.001585 -3.638375 -0.000010 1.284244 3.140787
 20   8.842831 0.000000 0.000001 0.832699 -0.828130 -1.778356
 21   9.341937 0.000000 -0.000001 0.000000 0.000000 -1.424634
 22   11.168404 -0.000001 0.000001 1.801550 -0.491038 0.244572
 23   1.977383 0.000000 0.000000 0.585291 0.358385 -0.142506
 24   3.723980 2.768054 -0.049087 0.000001 -3.141591 -1.570794
 25   12.421014 0.304721 4.492689 -0.091859 -0.075839 1.616818
 26   19.916998 1.704573 4.956909 2.262592 1.451744 0.734330
time 6
  0   0.073880 1.683745 27.473490 0.000000 -0.038609 -2.033353
  1   -0.526041 0.000001 9.745319 -1.570795 -1.570451 0.000000
  2   -0.000008 0.000010 5.615750 -0.232382 3.483989 -0.555224
  3   15.693467 0.000000 0.000000 0.000000 0.000000 -0.441724
  4   22.146629 -0.000001 0.000000 0.125340 -0.142354 -0.220476
  5   3.310129 5.734393 0.000000 0.000000 0.000000 1.570796
  6   0.000008 -0.000006 -5.615750 0.182071 2.887238 -0.090181
  7   15.693467 0.000000 0.000000 0.000000 0.000000 -0.714402
  8   22.146629 0.000000 0.000000 0.261344 0.224049 0.537480
  9   3.310129 5.734393 0.000000 0.000000 0.000000 1.570796
 10   1.384163 -0.004728 0.000002 -0.250295 -0.037194 0.011418
 11   5.939814 -0.004730 0.000000 0.000000 0.000000 0.000000
 12   5.939809 -0.003975 0.000000 0.000000 0.000000 0.000000
 13   4.991439 -0.003975 0.000000 0.000000 0.000000 0.000000
 14   4.991436 -0.001575 0.000000 0.000000 0.000000 0.000000
 15   0.000005 0.001564 3.638375 -0.000010 -1.284244 3.140806
 16   8.842831 0.000000 -0.000002 -0.521413 0.028333 -0.469923
 17   9.341934 0.000000 -0.000001 0.000000 0.000000 -1.822269
 18   11.168404 -0.000001 0.000002 -4.170053 0.396788 0.338548
 19   0.000005 0.001585 -3.638375 -0.000010 1.284244 3.140787
 20   8.842831 0.000000 0.000001 0.870915 -0.769082 -1.874051
 21   9.341937 0.000000 -0.000001 0.000000 0.000000 -1.339563
 22   11.168404 -0.000001 0.000001 1.774236 -0.380409 0.339427
 23   1.977383 0.000000 0.000000 0.630964 0.370717 -0.092553
 24   3.723980 2.768054 -0.049087 0.000001 -3.141591 -1.570794
 25   12.421014 0.304721 4.492689 -0.091859 -0.075839 1.616818
 26   19.916998 1.704573 4.956909 2.262592 1.451744 0.734330
time 7
  0   0.073880 1.275192 27.591110 0.000000 -0.028383 -2.033353
  1   -0.526041 0.000001 9.745319 -1.570795 -1.570451 0.000000
  2   -0.000008 0.000010 5.615750 -0.231327 3.481881 -0.560959
  3   15.693467 0.000000 0.000000 0.000000 0.000000 -0.457517
  4   22.146629 -0.000001 0.000000 0.122610 -0.143097 -0.199711
  5   3.310129 5.734393 0.000000 0.000000 0.000000 1.570796
  6   0.000008 -0.000006 -5.615750 0.187919 2.888868 -0.060796
  7   15.693467 0.000000 0.000000 0.000000 0.000000 -0.667138
  8   22.146629 0.000000 0.000000 0.264673 0.230128 0.529025
  9   3.310129 5.734393 0.000000 0.000000 0.000000 1.570796
 10   1.384163 -0.004728 0.000002 -0.282945 -0.029143 0.031722
 11   5.939814 -0.004730 0.000000 0.000000 0.000000 0.000000
 12   5.939809 -0.003975 0.000000 0.000000 0.000000 0.000000
 13   4.991439 -0.003975 0.000000 0.000000 0.000000 0.000000
 14   4.991436 -0.001575 0.000000 0.000000 0.000000 0.000000
 15   0.000005 0.001564 3.638375 -0.000010 -1.284244 3.140806
 16   8.842831 0.000000 -0.000002 -0.495992 -0.005714 -0.542110
 17   9.341934 0.000000 -0.000001 0.000000 0.000000 -1.607257
 18   11.168404 -0.000001 0.000002 -4.265843 0.420331 0.119885
 19   0.000005 0.001585 -3.638375 -0.000010 1.284244 3.140787
 20   8.842831 0.000000 0.000001 0.897441 -0.714018 -1.960786
 21   9.341937 0.000000 -0.000001 0.000000 0.000000 -1.261954
 22   11.168404 -0.000001 0.000001 1.761931 -0.265818 0.426573
 23   1.977383 0.000000 0.000000 0.682822 0.372056 -0.033752
 24   3.723980 2.768054 -0.049087 0.000001 -3.141591 -1.570794
 25   12.421014 0.304721 4.492689 -0.091859 -0.075839 1.616818
 26   19.916998 1.704573 4.956909 2.262592 1.451744 0.734330
time 8
  0   0.073880 0.838463 27.747936 0.000000 -0.018158 -2.033353
  1   -0.526041 0.000001 9.745319 -1.570795 -1.570451 0.000000
  2   -0.000008 0.000010 5.615750 -0.231423 3.478815 -0.563444
  3   15.693467 0.000000 0.000000 0.000000 0.000000 -0.469397
  4   22.146629 -0.000001 0.000000 0.119843 -0.143593 -0.179587
  5   3.310129 5.734393 0.000000 0.000000 0.000000 1.570796
  6   0.000008 -0.000006 -5.615750 0.195206 2.891456 -0.025308
  7   15.693467 0.000000 0.000000 0.000000 0.000000 -0.610271
  8   22.146629 0.000000 0.000000 0.268170 0.236391 0.516870
  9   3.310129 5.734393 0.000000 0.000000 0.000000 1.570796
 10   1.384163 -0.004728 0.000002 -0.315392 -0.020476 0.051735
 11   5.939814 -0.004730 0.000000 0.000000 0.000000 0.000000
 12   5.939809 -0.003975 0.000000 0.000000 0.000000 0.000000
 13   4.991439 -0.003975 0.000000 0.000000 0.000000 0.000000
 14   4.991436 -0.001575 0.000000 0.000000 0.000000 0.000000
 15   0.000005 0.001564 3.638375 -0.000010 -1.284244 3.140806
 16   8.842831 0.000000 -0.000002 -0.472308 -0.037808 -0.636095
 17   9.341934 0.000000 -0.000001 0.000000 0.000000 -1.387570
 18   11.168404 -0.000001 0.000002 -4.352847 0.440716 -0.087034
 19   0.000005 0.001585 -3.638375 -0.000010 1.284244 3.140787
 20   8.842831 0.000000 0.000001 0.917678 -0.660105 -2.042183
 21   9.341937 0.000000 -0.000001 0.000000 0.000000 -1.184744
 22   11.168404 -0.000001 0.000001 1.763703 -0.149962 0.507327
 23   1.977383 0.000000 0.000000 0.738751 0.355013 0.041600
 24   3.723980 2.768054 -0.049087 0.000001 -3.141591 -1.570794
 25   12.421014 0.304721 4.492689 -0.091859 -0.075839 1.616818
 26   19.916998 1.704573 4.956909 2.262592 1.451744 0.734330
time 9
  0   0.073880 0.401734 27.904764 0.000000 -0.008505 -2.033353
  1   -0.526041 0.000001 9.745319 -1.570795 -1.570451 0.000000
  2   -0.000008 0.000010 5.615750 -0.232190 3.475461 -0.563826
  3   15.693467 0.000000 0.000000 0.000000 0.000000 -0.478716
  4   22.146629 -0.000001 0.000000 0.117263 -0.143890 -0.160606
  5   3.310129 5.734393 0.000000 0.000000 0.000000 1.570796
  6   0.000008 -0.000006 -5.615750 0.203451 2.895100 0.014106
  7   15.693467 0.000000 0.000000 0.000000 0.000000 -0.546929
  8   22.146629 0.000000 0.000000 0.271611 0.242469 0.501809
  9   3.310129 5.734393 0.000000 0.000000 0.000000 1.570796
 10   1.384163 -0.004728 0.000002 -0.345888 -0.011674 0.070356
 11   5.939814 -0.004730 0.000000 0.000000 0.000000 0.000000
 12   5.939809 -0.003975 0.000000 0.000000 0.000000 0.000000
 13   4.991439 -0.003975 0.000000 0.000000 0.000000 0.000000
 14   4.991436 -0.001575 0.000000 0.000000 0.000000 0.000000
 15   0.000005 0.001564 3.638375 -0.000010 -1.284244 3.140806
 16   8.842831 0.000000 -0.000002 -0.446703 -0.071110 -0.755236
 17   9.341934 0.000000 -0.000001 0.000000 0.000000 -1.147465
 18   11.168404 -0.000001 0.000002 -4.435267 0.457847 -0.294395
 19   0.000005 0.001585 -3.638375 -0.000010 1.284244 3.140787
 20   8.842831 0.000000 0.000001 0.935496 -0.603448 -2.120626
 21   9.341937 0.000000 -0.000001 0.000000 0.000000 -1.099406
 22   11.168404 -0.000001 0.000001 1.778804 -0.035539 0.582064
 23   1.977383 0.000000 0.000000 0.791349 0.325985 0.121426
 24   3.723980 2.768054 -0.049087 0.000001 -3.141591 -1.570794
 25   12.421014 0.304721 4.492689 -0.091859 -0.075839 1.616818
 26   19.916998 1.704573 4.956909 2.262592 1.451744 0.734330
time 10
  0   0.073880 -0.006819 28.041988 0.000000 0.000000 -2.033353
  1   -0.526041 0.000001 9.745319 -1.570795 -1.570451 0.000000
  2   -0.000008 0.000010 5.615750 -0.233053 3.472298 -0.563921
  3   15.693467 0.000000 0.000000 0.000000 0.000000 -0.487323
  4   22.146629 -0.000001 0.000000 0.114982 -0.144038 -0.143135
  5   3.310129 5.734393 0.000000 0.000000 0.000000 1.570796
  6   0.000008 -0.000006 -5.615750 0.212080 2.899510 0.054433
  7   15.693467 0.000000 0.000000 0.000000 0.000000 -0.482099
  8   22.146629 0.000000 0.000000 0.274883 0.248026 0.484986
  9   3.310129 5.734393 0.000000 0.000000 0.000000 1.570796
 10   1.384163 -0.004728 0.000002 -0.372579 -0.003463 0.086548
 11   5.939814 -0.004730 0.000000 0.000000 0.000000 0.000000
 12   5.939809 -0.003975 0.000000 0.000000 0.000000 0.000000
 13   4.991439 -0.003975 0.000000 0.000000 0.000000 0.000000
 14   4.991436 -0.001575 0.000000 0.000000 0.000000 0.000000
 15   0.000005 0.001564 3.638375 -0.000010 -1.284244 3.140806
 16   8.842831 0.000000 -0.000002 -0.414972 -0.110832 -0.914689
 17   9.341934 0.000000 -0.000001 0.000000 0.000000 -0.853073
 18   11.168404 -0.000001 0.000002 -4.515872 0.471532 -0.520821
 19   0.000005 0.001585 -3.638375 -0.000010 1.284244 3.140787
 20   8.842831 0.000000 0.000001 0.953960 -0.539089 -2.198116
 21   9.341937 0.000000 -0.000001 0.000000 0.000000 -0.994883
 22   11.168404 -0.000001 0.000001 1.806863 0.075089 0.649563
 23   1.977383 0.000000 0.000000 0.835700 0.294324 0.196082
 24   3.723980 2.768054 -0.049087 0.000001 -3.141591 -1.570794
 25   12.421014 0.304721 4.492689 -0.091859 -0.075839 1.616818
 26   19.916998 1.704573 4.956909 2.262592 1.451744 0.734330
end
