version 1
nodes
  0 "Bip01" -1
  1 "Bip01 Pelvis" 0
  2 "Bip01 L Thigh" 1
  3 "Bip01 L Calf" 2
  4 "Bip01 L Foot" 3
  5 "Bip01 L Toe0" 4
  6 "Bip01 R Thigh" 1
  7 "Bip01 R Calf" 6
  8 "Bip01 R Foot" 7
  9 "Bip01 R Toe0" 8
 10 "Bip01 Spine" 1
 11 "Bip01 Spine1" 10
 12 "Bip01 Spine2" 11
 13 "Bip01 Spine3" 12
 14 "Bip01 Neck" 13
 15 "Bip01 L Clavicle" 14
 16 "Bip01 L UpperArm" 15
 17 "Bip01 L Forearm" 16
 18 "Bip01 L Hand" 17
 19 "Bip01 R Clavicle" 14
 20 "Bip01 R UpperArm" 19
 21 "Bip01 R Forearm" 20
 22 "Bip01 R Hand" 21
 23 "Bip01 Head" 14
 24 "Bone05" 23
 25 "m4" 22
 26 "SHOTGUN" 22
end
skeleton
time 0
  0   0.073880 -0.077259 30.668842 0.000000 0.000000 -1.570844
  1   -0.279940 0.000001 9.745319 -1.570795 -1.570451 0.000000
  2   -0.000008 0.000010 5.615750 -0.346560 3.366215 -0.222718
  3   15.693467 0.000000 0.000000 0.000000 0.000000 -0.244816
  4   22.146629 -0.000001 0.000000 0.390678 -0.129649 -0.043109
  5   3.310129 5.734393 0.000000 0.000000 0.000000 1.570796
  6   0.000008 -0.000006 -5.615750 0.016300 3.216372 -0.191594
  7   15.693467 0.000000 0.000000 0.000000 0.000000 -0.341422
  8   22.146629 0.000000 0.000000 -0.001805 -0.076566 0.150468
  9   3.310129 5.734393 0.000000 0.000000 0.000000 1.570796
 10   1.384163 -0.004728 0.000002 -0.000004 -0.000001 0.000796
 11   5.939814 -0.004730 0.000000 0.000000 0.000000 -0.043560
 12   5.939809 -0.003975 0.000000 0.000000 0.000000 0.000000
 13   4.991439 -0.003975 0.000000 0.000000 0.000000 0.000000
 14   4.991436 -0.001575 0.000000 0.000000 0.000000 0.000000
 15   0.000005 0.001564 3.638375 -0.000010 -1.283555 3.140806
 16   8.842831 0.000000 -0.000002 0.072972 0.680991 -1.380357
 17   9.341934 0.000000 -0.000001 0.000000 0.000000 -1.001745
 18   11.168404 -0.000001 0.000002 -1.631655 0.355252 0.129221
 19   0.000005 0.001585 -3.638375 -0.000010 1.283575 3.140787
 20   8.842831 0.000000 0.000001 -0.141901 -0.791214 -1.274816
 21   9.341937 0.000000 -0.000001 0.000000 0.000000 -1.039717
 22   11.168404 -0.000001 0.000001 1.681762 -0.689444 0.540230
 23   1.977383 0.000000 0.000000 0.000000 0.000000 0.217257
 24   3.723980 2.768054 -0.049087 0.000001 -3.141591 -1.570794
 25   12.421014 0.304721 4.492689 -0.091859 -0.075839 1.616818
 26   19.916998 1.704573 4.956909 2.262592 1.451744 0.734330
time 1
  0   -0.031623 0.091797 29.727880 0.000000 0.000000 -1.309196
  1   0.247420 0.191413 9.745319 -1.570795 -1.570451 0.000000
  2   -0.000008 0.000010 5.615750 -0.243598 3.365353 -0.423713
  3   15.693467 0.000000 0.000000 0.000000 0.000000 -0.663175
  4   22.146629 -0.000001 0.000000 0.265936 -0.054386 0.111114
  5   3.310129 5.734393 0.000000 0.000000 0.000000 1.570796
  6   0.000008 -0.000006 -5.615750 0.025600 3.219249 -0.294338
  7   15.693467 0.000000 0.000000 0.000000 0.000000 -0.562858
  8   22.146629 0.000000 0.000000 0.259596 -0.081785 0.269549
  9   3.310129 5.734393 0.000000 0.000000 0.000000 1.570796
 10   1.384163 -0.004728 0.000002 0.244195 -0.000189 0.000796
 11   5.939814 -0.004730 0.000000 0.000000 0.000000 -0.139554
 12   5.939809 -0.003975 0.000000 0.000000 0.000000 0.000000
 13   4.991439 -0.003975 0.000000 0.000000 0.000000 0.000000
 14   4.991436 -0.001575 0.000000 0.000000 0.000000 0.000000
 15   0.000005 0.001564 3.638375 -0.036729 -1.283373 3.175992
 16   8.842831 0.000000 -0.000002 0.194867 0.815783 -1.039728
 17   9.341934 0.000000 -0.000001 0.000000 0.000000 -0.968698
 18   11.168404 -0.000001 0.000002 -1.619908 0.335920 0.103522
 19   0.000005 0.001585 -3.638375 -0.000010 1.283575 3.140787
 20   8.842831 0.000000 0.000001 -0.027493 -0.604245 -0.886033
 21   9.341937 0.000000 -0.000001 0.000000 0.000000 -1.211724
 22   11.168404 -0.000001 0.000001 1.464933 -0.429273 0.505447
 23   1.977383 0.000000 0.000000 0.169265 0.041984 0.308166
 24   3.723980 2.768054 -0.049087 0.000001 -3.141591 -1.570794
 25   12.421014 0.304721 4.492689 -0.091859 -0.075839 1.616818
 26   19.916998 1.704573 4.956909 2.262592 1.451744 0.734330
time 2
  0   0.073880 0.401734 28.904537 0.000000 0.000000 -1.047549
  1   0.177105 0.371106 9.745319 -1.570795 -1.570451 0.000000
  2   -0.000008 0.000010 5.615750 -0.150223 3.353374 -0.553982
  3   15.693467 0.000000 0.000000 0.000000 0.000000 -0.930722
  4   22.146629 -0.000001 0.000000 0.139325 -0.043563 0.206246
  5   3.310129 5.734393 0.000000 0.000000 0.000000 1.570796
  6   0.000008 -0.000006 -5.615750 0.031449 3.217236 -0.369310
  7   15.693467 0.000000 0.000000 0.000000 0.000000 -0.705024
  8   22.146629 0.000000 0.000000 0.521222 -0.081939 0.336928
  9   3.310129 5.734393 0.000000 0.000000 0.000000 1.570796
 10   1.384163 -0.004728 0.000002 0.488427 -0.000350 0.000731
 11   5.939814 -0.004730 0.000000 0.000000 0.000000 -0.139554
 12   5.939809 -0.003975 0.000000 0.000000 0.000000 0.000000
 13   4.991439 -0.003975 0.000000 0.000000 0.000000 0.000000
 14   4.991436 -0.001575 0.000000 0.000000 0.000000 0.000000
 15   0.000005 0.001564 3.638375 -0.073449 -1.282829 3.211179
 16   8.842831 0.000000 -0.000002 0.337154 0.812434 -0.715000
 17   9.341934 0.000000 -0.000001 0.000000 0.000000 -0.935651
 18   11.168404 -0.000001 0.000002 -1.607779 0.316971 0.077774
 19   0.000005 0.001585 -3.638375 -0.000010 1.283575 3.140787
 20   8.842831 0.000000 0.000001 0.251632 -0.258636 -0.531277
 21   9.341937 0.000000 -0.000001 0.000000 0.000000 -1.211724
 22   11.168404 -0.000001 0.000001 1.464933 -0.429273 0.505447
 23   1.977383 0.000000 0.000000 0.337737 0.081566 0.293205
 24   3.723980 2.768054 -0.049087 0.000001 -3.141591 -1.570794
 25   12.421014 0.304721 4.492689 -0.091859 -0.075839 1.616818
 26   19.916998 1.704573 4.956909 2.262592 1.451744 0.734330
time 3
  0   1.392673 1.430160 28.747709 0.000000 0.000000 -1.047549
  1   -0.358067 0.089847 9.745319 -1.570795 -1.570451 0.000000
  2   -0.000008 0.000010 5.615750 -0.074584 3.355770 -0.528559
  3   15.693467 0.000000 0.000000 0.000000 0.000000 -0.860580
  4   22.146629 -0.000001 0.000000 0.024754 -0.112115 0.190695
  5   3.310129 5.734393 0.000000 0.000000 0.000000 1.570796
  6   0.000008 -0.000006 -5.615750 0.018409 3.181091 -0.414125
  7   15.693467 0.000000 0.000000 0.000000 0.000000 -0.745515
  8   22.146629 0.000000 0.000000 0.522350 -0.043625 0.331731
  9   3.310129 5.734393 0.000000 0.000000 0.000000 1.570796
 10   1.384163 -0.004728 0.000002 0.488427 -0.000350 0.000731
 11   5.939814 -0.004730 0.000000 0.000000 0.000000 -0.033617
 12   5.939809 -0.003975 0.000000 0.000000 0.000000 0.000000
 13   4.991439 -0.003975 0.000000 0.000000 0.000000 0.000000
 14   4.991436 -0.001575 0.000000 0.000000 0.000000 0.000000
 15   0.000005 0.001564 3.638375 -0.109880 -1.281886 3.246174
 16   8.842831 0.000000 -0.000002 0.269851 0.668340 -0.335030
 17   9.341934 0.000000 -0.000001 0.000000 0.000000 -0.902603
 18   11.168404 -0.000001 0.000002 -1.595172 0.298213 0.051977
 19   0.000005 0.001585 -3.638375 -0.000010 1.283575 3.140787
 20   8.842831 0.000000 0.000001 0.218334 -0.333087 -0.032121
 21   9.341937 0.000000 -0.000001 0.000000 0.000000 -1.211724
 22   11.168404 -0.000001 0.000001 1.464933 -0.429273 0.505447
 23   1.977383 0.000000 0.000000 0.444202 0.015750 0.167850
 24   3.723980 2.768054 -0.049087 0.000001 -3.141591 -1.570794
 25   12.421014 0.304721 4.492689 -0.091859 -0.075839 1.616818
 26   19.916998 1.704573 4.956909 2.262592 1.451744 0.734330
time 4
  0   2.967688 2.529027 28.845728 0.000000 0.000000 -1.047549
  1   -0.936210 -0.218756 9.745319 -1.570795 -1.570451 0.000000
  2   -0.000008 0.000010 5.615750 -0.006326 3.371869 -0.442350
  3   15.693467 0.000000 0.000000 0.000000 0.000000 -0.656345
  4   22.146629 -0.000001 0.000000 -0.099576 -0.193867 0.140019
  5   3.310129 5.734393 0.000000 0.000000 0.000000 1.570796
  6   0.000008 -0.000006 -5.615750 0.000576 3.139482 -0.431097
  7   15.693467 0.000000 0.000000 0.000000 0.000000 -0.738890
  8   22.146629 0.000000 0.000000 0.521843 0.001719 0.307774
  9   3.310129 5.734393 0.000000 0.000000 0.000000 1.570796
 10   1.384163 -0.004728 0.000002 0.488427 -0.000350 0.000731
 11   5.939814 -0.004730 0.000000 0.000000 0.000000 0.081709
 12   5.939809 -0.003975 0.000000 0.000000 0.000000 0.000000
 13   4.991439 -0.003975 0.000000 0.000000 0.000000 0.000000
 14   4.991436 -0.001575 0.000000 0.000000 0.000000 0.000000
 15   0.000005 0.001564 3.638375 -0.146120 -1.280616 3.280881
 16   8.842831 0.000000 -0.000002 0.125918 0.598944 0.010376
 17   9.341934 0.000000 -0.000001 0.000000 0.000000 -0.869556
 18   11.168404 -0.000001 0.000002 -1.582184 0.279838 0.026032
 19   0.000005 0.001585 -3.638375 -0.000010 1.283575 3.140787
 20   8.842831 0.000000 0.000001 0.073530 -0.447287 0.510117
 21   9.341937 0.000000 -0.000001 0.000000 0.000000 -1.211724
 22   11.168404 -0.000001 0.000001 1.464933 -0.429273 0.505447
 23   1.977383 0.000000 0.000000 0.505839 -0.054523 0.027285
 24   3.723980 2.768054 -0.049087 0.000001 -3.141591 -1.570794
 25   12.421014 0.304721 4.492689 -0.091859 -0.075839 1.616818
 26   19.916998 1.704573 4.956909 2.262592 1.451744 0.734330
time 5
  0   3.743892 3.078460 28.904537 0.000000 0.000000 -1.047549
  1   -1.315128 -0.417980 9.745319 -1.570795 -1.570451 0.000000
  2   -0.000008 0.000010 5.615750 0.060397 3.393526 -0.357001
  3   15.693467 0.000000 0.000000 0.000000 0.000000 -0.452181
  4   22.146629 -0.000001 0.000000 -0.239350 -0.257095 0.098811
  5   3.310129 5.734393 0.000000 0.000000 0.000000 1.570796
  6   0.000008 -0.000006 -5.615750 -0.007190 3.119828 -0.437900
  7   15.693467 0.000000 0.000000 0.000000 0.000000 -0.728023
  8   22.146629 0.000000 0.000000 0.520602 0.022810 0.290071
  9   3.310129 5.734393 0.000000 0.000000 0.000000 1.570796
 10   1.384163 -0.004728 0.000002 0.488427 -0.000350 0.000731
 11   5.939814 -0.004730 0.000000 0.000000 0.000000 0.156993
 12   5.939809 -0.003975 0.000000 0.000000 0.000000 0.000000
 13   4.991439 -0.003975 0.000000 0.000000 0.000000 0.000000
 14   4.991436 -0.001575 0.000000 0.000000 0.000000 0.000000
 15   0.000005 0.001564 3.638375 -0.181977 -1.278984 3.315300
 16   8.842831 0.000000 -0.000002 0.019843 0.608711 0.394825
 17   9.341934 0.000000 -0.000001 0.000000 0.000000 -0.836509
 18   11.168404 -0.000001 0.000002 -1.568718 0.261750 -0.000011
 19   0.000005 0.001585 -3.638375 -0.000010 1.283575 3.140787
 20   8.842831 0.000000 0.000001 -0.081754 -0.651341 0.899281
 21   9.341937 0.000000 -0.000001 0.000000 0.000000 -0.958643
 22   11.168404 -0.000001 0.000001 1.664330 -0.326023 0.035684
 23   1.977383 0.000000 0.000000 0.547653 -0.099509 -0.066856
 24   3.723980 2.768054 -0.049087 0.000001 -3.141591 -1.570794
 25   12.421014 0.304721 4.492689 -0.091859 -0.075839 1.616818
 26   19.916998 1.704573 4.956909 2.262592 1.451744 0.734330
end
