version 1
nodes
  0 "Bip01" -1
  1 "Bip01 Pelvis" 0
  2 "Bip01 L Thigh" 1
  3 "Bip01 L Calf" 2
  4 "Bip01 L Foot" 3
  5 "Bip01 L Toe0" 4
  6 "Bip01 R Thigh" 1
  7 "Bip01 R Calf" 6
  8 "Bip01 R Foot" 7
  9 "Bip01 R Toe0" 8
 10 "Bip01 Spine" 1
 11 "Bip01 Spine1" 10
 12 "Bip01 Spine2" 11
 13 "Bip01 Spine3" 12
 14 "Bip01 Neck" 13
 15 "Bip01 L Clavicle" 14
 16 "Bip01 L UpperArm" 15
 17 "Bip01 L Forearm" 16
 18 "Bip01 L Hand" 17
 19 "Bip01 R Clavicle" 14
 20 "Bip01 R UpperArm" 19
 21 "Bip01 R Forearm" 20
 22 "Bip01 R Hand" 21
 23 "Bip01 Head" 14
 24 "Bone05" 23
 25 "m4" 22
 26 "SHOTGUN" 22
end
skeleton
time 0
  0   -0.001480 -4.860146 28.041988 0.000000 0.000000 -2.033353
  1   -1.373723 -0.035156 9.745319 -1.570795 -1.570451 0.000000
  2   -0.000008 0.000010 5.615750 -0.233053 3.472298 -0.563921
  3   15.693467 0.000000 0.000000 0.000000 0.000000 -0.487323
  4   22.146629 -0.000001 0.000000 0.114982 -0.144038 -0.143135
  5   3.310129 5.734393 0.000000 0.000000 0.000000 1.570796
  6   0.000008 -0.000006 -5.615750 0.212080 2.899510 0.054433
  7   15.693467 0.000000 0.000000 0.000000 0.000000 -0.482099
  8   22.146629 0.000000 0.000000 0.274883 0.248026 0.484986
  9   3.310129 5.734393 0.000000 0.000000 0.000000 1.570796
 10   1.384163 -0.004728 0.000002 -0.372579 -0.003463 0.086548
 11   5.939814 -0.004730 0.000000 0.000000 0.000000 0.000000
 12   5.939809 -0.003975 0.000000 0.000000 0.000000 0.000000
 13   4.991439 -0.003975 0.000000 0.000000 0.000000 0.000000
 14   4.991436 -0.001575 0.000000 0.000000 0.000000 0.000000
 15   0.000005 0.001564 3.638375 -0.000010 -1.284244 3.140806
 16   8.842831 0.000000 -0.000002 -0.414972 -0.110832 -0.914689
 17   9.341934 0.000000 -0.000001 0.000000 0.000000 -0.853073
 18   11.168404 -0.000001 0.000002 -4.515872 0.471532 -0.520821
 19   0.000005 0.001585 -3.638375 -0.000010 1.284244 3.140787
 20   8.842831 0.000000 0.000001 0.953960 -0.539089 -2.198116
 21   9.341937 0.000000 -0.000001 0.000000 0.000000 -0.994883
 22   11.168404 -0.000001 0.000001 1.806863 0.075089 0.649563
 23   1.977383 0.000000 0.000000 0.835700 0.294324 0.196082
 24   3.723980 2.768054 -0.049087 0.000001 -3.141591 -1.570794
 25   12.421014 0.304721 4.492689 -0.091859 -0.075839 1.616818
 26   19.916998 1.704573 4.956909 2.262592 1.451744 0.734330
time 1
  0   -0.348134 -4.810837 27.532299 -0.019580 -0.010417 -2.002960
  1   -1.643263 -0.046875 9.745319 -0.000032 -1.552100 -1.570770
  2   -0.000008 0.000010 5.615750 -0.221261 3.482456 -0.618973
  3   15.693467 0.000000 0.000000 0.000000 0.000000 -0.556255
  4   22.146629 -0.000001 0.000000 0.124966 -0.133934 -0.137281
  5   3.310129 5.734393 0.000000 0.000000 0.000000 1.570796
  6   0.000008 -0.000006 -5.615750 0.209396 2.896058 0.006251
  7   15.693467 0.000000 0.000000 0.000000 0.000000 -0.595534
  8   22.146629 0.000000 0.000000 0.293611 0.240105 0.538977
  9   3.310129 5.734393 0.000000 0.000000 0.000000 1.570796
 10   1.384163 -0.004728 0.023440 -0.269649 -0.024903 0.108051
 11   5.939814 -0.004730 0.000000 0.031539 -0.000024 0.000000
 12   5.939809 -0.003975 0.000000 0.000000 0.000000 0.021025
 13   4.991439 -0.003975 0.000000 0.000000 0.000000 0.006997
 14   4.991436 -0.001575 0.000000 0.000000 0.000000 0.000000
 15   0.000005 0.001564 3.638375 -0.000010 -1.284244 3.140806
 16   8.842831 0.000000 -0.000002 0.000640 0.148427 -0.287926
 17   9.341934 0.000000 -0.000001 0.000000 0.000000 -1.620377
 18   11.168404 -0.000001 0.000002 -3.232396 0.336112 0.078904
 19   0.000005 0.001585 -3.638375 -0.000010 1.284244 3.140787
 20   8.842831 0.000000 0.000001 0.819638 -0.630892 -1.889778
 21   9.341937 0.000000 -0.000001 0.000000 0.000000 -1.030857
 22   11.168404 -0.000001 0.000001 1.665449 0.076143 0.575202
 23   1.977383 0.000000 0.000000 0.781463 0.184400 0.188378
 24   3.723980 2.768054 -0.049087 0.000001 -3.141591 -1.570794
 25   12.421014 0.304721 4.492689 -0.091859 -0.075839 1.616818
 26   19.916998 1.704573 4.956909 2.262592 1.451744 0.734330
time 2
  0   -0.732468 -4.761529 27.081421 -0.041397 -0.021216 -1.969403
  1   -1.936240 -0.105471 9.745319 -0.000032 -1.531621 -1.570770
  2   -0.000008 0.000010 5.615750 -0.214646 3.489643 -0.660930
  3   15.693467 0.000000 0.000000 0.000000 0.000000 -0.600360
  4   22.146629 -0.000001 0.000000 0.136259 -0.122566 -0.143364
  5   3.310129 5.734393 0.000000 0.000000 0.000000 1.570796
  6   0.000008 -0.000006 -5.615750 0.213614 2.898168 -0.027623
  7   15.693467 0.000000 0.000000 0.000000 0.000000 -0.684852
  8   22.146629 0.000000 0.000000 0.312564 0.229146 0.582752
  9   3.310129 5.734393 0.000000 0.000000 0.000000 1.570796
 10   1.384163 -0.004728 0.054691 -0.157934 -0.050799 0.131172
 11   5.939814 -0.004730 0.000000 0.066098 -0.000048 0.000000
 12   5.939809 -0.003975 0.000000 0.000000 0.000000 0.044062
 13   4.991439 -0.003975 0.000000 0.000000 0.000000 0.014683
 14   4.991436 -0.001575 0.000000 0.000000 0.000000 0.000000
 15   0.000005 0.001564 3.638375 -0.000010 -1.284244 3.140806
 16   8.842831 0.000000 -0.000002 0.377023 0.254289 -0.053375
 17   9.341934 0.000000 -0.000001 0.000000 0.000000 -1.665069
 18   11.168404 -0.000001 0.000002 -2.449168 -0.016747 0.153741
 19   0.000005 0.001585 -3.638375 -0.000010 1.284244 3.140787
 20   8.842831 0.000000 0.000001 0.675076 -0.701271 -1.532352
 21   9.341937 0.000000 -0.000001 0.000000 0.000000 -1.069428
 22   11.168404 -0.000001 0.000001 1.509958 0.065561 0.494448
 23   1.977383 0.000000 0.000000 0.718663 0.072813 0.204135
 24   3.723980 2.768054 -0.049087 0.000001 -3.141591 -1.570794
 25   12.421014 0.304721 4.492689 -0.091859 -0.075839 1.616818
 26   19.916998 1.704573 4.956909 2.262592 1.451744 0.734330
time 3
  0   -1.131874 -4.705177 26.689354 -0.064427 -0.031632 -1.934408
  1   -2.229218 -0.214849 9.745319 -0.000032 -1.510441 -1.570770
  2   -0.000008 0.000010 5.615750 -0.211770 3.495297 -0.692852
  3   15.693467 0.000000 0.000000 0.000000 0.000000 -0.626539
  4   22.146629 -0.000001 0.000000 0.148374 -0.110704 -0.157313
  5   3.310129 5.734393 0.000000 0.000000 0.000000 1.570796
  6   0.000008 -0.000006 -5.615750 0.223394 2.904112 -0.052029
  7   15.693467 0.000000 0.000000 0.000000 0.000000 -0.757350
  8   22.146629 0.000000 0.000000 0.330502 0.215607 0.619392
  9   3.310129 5.734393 0.000000 0.000000 0.000000 1.570796
 10   1.384163 -0.004728 0.082036 -0.043425 -0.080209 0.154456
 11   5.939814 -0.004730 0.000000 0.101846 -0.000072 0.000000
 12   5.939809 -0.003975 0.000000 0.000000 0.000000 0.067898
 13   4.991439 -0.003975 0.000000 0.000000 0.000000 0.022621
 14   4.991436 -0.001575 0.000000 0.000000 0.000000 0.000000
 15   0.000005 0.001564 3.638375 -0.000010 -1.284244 3.140806
 16   8.842831 0.000000 -0.000002 0.447069 0.411128 0.005226
 17   9.341934 0.000000 -0.000001 0.000000 0.000000 -1.630874
 18   11.168404 -0.000001 0.000002 -2.122258 -0.021724 0.003969
 19   0.000005 0.001585 -3.638375 -0.000010 1.284244 3.140787
 20   8.842831 0.000000 0.000001 0.538416 -0.753944 -1.155579
 21   9.341937 0.000000 -0.000001 0.000000 0.000000 -1.109066
 22   11.168404 -0.000001 0.000001 1.349993 0.041741 0.413788
 23   1.977383 0.000000 0.000000 0.648356 -0.028335 0.245886
 24   3.723980 2.768054 -0.049087 0.000001 -3.141591 -1.570794
 25   12.421014 0.304721 4.492689 -0.091859 -0.075839 1.616818
 26   19.916998 1.704573 4.956909 2.262592 1.451744 0.734330
time 4
  0   -1.516208 -4.655869 26.356096 -0.087363 -0.041093 -1.899796
  1   -2.494851 -0.367198 9.745319 -0.000032 -1.489623 -1.570770
  2   -0.000008 0.000010 5.615750 -0.211674 3.499993 -0.716842
  3   15.693467 0.000000 0.000000 0.000000 0.000000 -0.639628
  4   22.146629 -0.000001 0.000000 0.160788 -0.099039 -0.175700
  5   3.310129 5.734393 0.000000 0.000000 0.000000 1.570796
  6   0.000008 -0.000006 -5.615750 0.237679 2.912740 -0.069282
  7   15.693467 0.000000 0.000000 0.000000 0.000000 -0.815853
  8   22.146629 0.000000 0.000000 0.346466 0.200441 0.650219
  9   3.310129 5.734393 0.000000 0.000000 0.000000 1.570796
 10   1.384163 -0.004728 0.109380 0.068055 -0.111552 0.176445
 11   5.939814 -0.004730 0.000000 0.137008 -0.000108 0.000000
 12   5.939809 -0.003975 0.000000 0.000000 0.000000 0.091335
 13   4.991439 -0.003975 0.000000 0.000000 0.000000 0.030442
 14   4.991436 -0.001575 0.000000 0.000000 0.000000 0.000000
 15   0.000005 0.001564 3.638375 -0.000010 -1.284244 3.140806
 16   8.842831 0.000000 -0.000002 0.468193 0.575781 0.080697
 17   9.341934 0.000000 -0.000001 0.000000 0.000000 -1.583968
 18   11.168404 -0.000001 0.000002 -1.877195 0.084124 -0.149635
 19   0.000005 0.001585 -3.638375 -0.000010 1.284244 3.140787
 20   8.842831 0.000000 0.000001 0.416914 -0.800952 -0.785668
 21   9.341937 0.000000 -0.000001 0.000000 0.000000 -1.148237
 22   11.168404 -0.000001 0.000001 1.195435 0.006157 0.339145
 23   1.977383 0.000000 0.000000 0.573926 -0.109139 0.310403
 24   3.723980 2.768054 -0.049087 0.000001 -3.141591 -1.570794
 25   12.421014 0.304721 4.492689 -0.091859 -0.075839 1.616818
 26   19.916998 1.704573 4.956909 2.262592 1.451744 0.734330
time 5
  0   -1.885470 -4.606561 26.062046 -0.108994 -0.049121 -1.867390
  1   -2.721421 -0.546891 9.745319 -0.000032 -1.470208 -1.570770
  2   -0.000008 0.000010 5.615750 -0.213400 3.504018 -0.734619
  3   15.693467 0.000000 0.000000 0.000000 0.000000 -0.644110
  4   22.146629 -0.000001 0.000000 0.172829 -0.088216 -0.195458
  5   3.310129 5.734393 0.000000 0.000000 0.000000 1.570796
  6   0.000008 -0.000006 -5.615750 0.254458 2.922519 -0.080924
  7   15.693467 0.000000 0.000000 0.000000 0.000000 -0.861927
  8   22.146629 0.000000 0.000000 0.359892 0.184968 0.675850
  9   3.310129 5.734393 0.000000 0.000000 0.000000 1.570796
 10   1.380257 -0.004728 0.136725 0.171053 -0.142760 0.195972
 11   5.939814 -0.004730 0.000000 0.169755 -0.000132 0.000000
 12   5.939809 -0.003975 0.000000 0.000000 0.000000 0.113172
 13   4.991439 -0.003975 0.000000 0.000000 0.000000 0.037725
 14   4.991436 -0.001575 0.000000 0.000000 0.000000 0.000000
 15   0.000005 0.001564 3.638375 -0.000010 -1.284244 3.140806
 16   8.842831 0.000000 -0.000002 0.463986 0.730666 0.170352
 17   9.341934 0.000000 -0.000001 0.000000 0.000000 -1.537554
 18   11.168404 -0.000001 0.000002 -1.717895 0.254477 -0.278474
 19   0.000005 0.001585 -3.638375 -0.000010 1.284244 3.140787
 20   8.842831 0.000000 0.000001 0.303555 -0.850615 -0.438251
 21   9.341937 0.000000 -0.000001 0.000000 0.000000 -1.185210
 22   11.168404 -0.000001 0.000001 1.055046 -0.036972 0.275313
 23   1.977383 0.000000 0.000000 0.501980 -0.164470 0.388688
 24   3.723980 2.768054 -0.049087 0.000001 -3.141591 -1.570794
 25   12.421014 0.304721 4.492689 -0.091859 -0.075839 1.616818
 26   19.916998 1.704573 4.956909 2.262592 1.451744 0.734330
time 6
  0   -2.201980 -4.557253 25.826805 -0.128108 -0.055524 -1.838915
  1   -2.893301 -0.730490 9.745319 -0.000032 -1.453283 -1.570770
  2   -0.000008 0.000010 5.615750 -0.215988 3.507468 -0.747617
  3   15.693467 0.000000 0.000000 0.000000 0.000000 -0.643896
  4   22.146629 -0.000001 0.000000 0.183710 -0.078780 -0.213752
  5   3.310129 5.734393 0.000000 0.000000 0.000000 1.570796
  6   0.000008 -0.000006 -5.615750 0.271811 2.932107 -0.088148
  7   15.693467 0.000000 0.000000 0.000000 0.000000 -0.896761
  8   22.146629 0.000000 0.000000 0.370327 0.170631 0.696548
  9   3.310129 5.734393 0.000000 0.000000 0.000000 1.570796
 10   1.376350 -0.004728 0.160163 0.260183 -0.171473 0.212099
 11   5.939814 -0.004730 0.000000 0.198311 -0.000156 0.000000
 12   5.939809 -0.003975 0.000000 0.000000 0.000000 0.132211
 13   4.991439 -0.003975 0.000000 0.000000 0.000000 0.044066
 14   4.991436 -0.001575 0.000000 0.000000 0.000000 0.000000
 15   0.000005 0.001564 3.638375 -0.000010 -1.284244 3.140806
 16   8.842831 0.000000 -0.000002 0.449172 0.861923 0.259036
 17   9.341934 0.000000 -0.000001 0.000000 0.000000 -1.493600
 18   11.168404 -0.000001 0.000002 -1.627357 0.443395 -0.382793
 19   0.000005 0.001585 -3.638375 -0.000010 1.284244 3.140787
 20   8.842831 0.000000 0.000001 0.188422 -0.900633 -0.124098
 21   9.341937 0.000000 -0.000001 0.000000 0.000000 -1.218519
 22   11.168404 -0.000001 0.000001 0.936470 -0.081578 0.224924
 23   1.977383 0.000000 0.000000 0.439973 -0.195462 0.468216
 24   3.723980 2.768054 -0.049087 0.000001 -3.141591 -1.570794
 25   12.421014 0.304721 4.492689 -0.091859 -0.075839 1.616818
 26   19.916998 1.704573 4.956909 2.262592 1.451744 0.734330
time 7
  0   -2.450666 -4.529077 25.630770 -0.143305 -0.060302 -1.816384
  1   -3.014398 -0.890651 9.745319 -0.000032 -1.439913 -1.570770
  2   -0.000008 0.000010 5.615750 -0.218289 3.510438 -0.757365
  3   15.693467 0.000000 0.000000 0.000000 0.000000 -0.642829
  4   22.146629 -0.000001 0.000000 0.192534 -0.071351 -0.228251
  5   3.310129 5.734393 0.000000 0.000000 0.000000 1.570796
  6   0.000008 -0.000006 -5.615750 0.287056 2.940160 -0.092426
  7   15.693467 0.000000 0.000000 0.000000 0.000000 -0.921920
  8   22.146629 0.000000 0.000000 0.377773 0.158934 0.712402
  9   3.310129 5.734393 0.000000 0.000000 0.000000 1.570796
 10   1.376350 -0.004728 0.175789 0.330194 -0.195007 0.224178
 11   5.939814 -0.004730 0.000000 0.220865 -0.000168 0.000000
 12   5.939809 -0.003975 0.000000 0.000000 0.000000 0.147240
 13   4.991439 -0.003975 0.000000 0.000000 0.000000 0.049078
 14   4.991436 -0.001575 0.000000 0.000000 0.000000 0.000000
 15   0.000005 0.001564 3.638375 -0.000010 -1.284244 3.140806
 16   8.842831 0.000000 -0.000002 0.425671 0.961273 0.323161
 17   9.341934 0.000000 -0.000001 0.000000 0.000000 -1.447433
 18   11.168404 -0.000001 0.000002 -1.578173 0.611068 -0.465738
 19   0.000005 0.001585 -3.638375 -0.000010 1.284244 3.140787
 20   8.842831 0.000000 0.000001 0.073853 -0.942064 0.140015
 21   9.341937 0.000000 -0.000001 0.000000 0.000000 -1.246565
 22   11.168404 -0.000001 0.000001 0.846979 -0.120787 0.189013
 23   1.977383 0.000000 0.000000 0.393824 -0.208302 0.536311
 24   3.723980 2.768054 -0.049087 0.000001 -3.141591 -1.570794
 25   12.421014 0.304721 4.492689 -0.091859 -0.075839 1.616818
 26   19.916998 1.704573 4.956909 2.262592 1.451744 0.734330
time 8
  0   -2.616458 -4.507945 25.493547 -0.153375 -0.063169 -1.801619
  1   -3.080806 -1.003936 9.745319 -0.000032 -1.431184 -1.570770
  2   -0.000008 0.000010 5.615750 -0.219439 3.512738 -0.765203
  3   15.693467 0.000000 0.000000 0.000000 0.000000 -0.644039
  4   22.146629 -0.000001 0.000000 0.198405 -0.066472 -0.236986
  5   3.310129 5.734393 0.000000 0.000000 0.000000 1.570796
  6   0.000008 -0.000006 -5.615750 0.297602 2.945338 -0.095301
  7   15.693467 0.000000 0.000000 0.000000 0.000000 -0.938816
  8   22.146629 0.000000 0.000000 0.382173 0.151259 0.723323
  9   3.310129 5.734393 0.000000 0.000000 0.000000 1.570796
 10   1.372444 -0.004728 0.187508 0.375836 -0.210812 0.231756
 11   5.939814 -0.004730 0.000000 0.235605 -0.000180 -0.000019
 12   5.939809 -0.003975 0.000000 0.000000 0.000000 0.157072
 13   4.991439 -0.003975 0.000000 0.000000 0.000000 0.052357
 14   4.991436 -0.001575 0.000000 0.000000 0.000000 0.000000
 15   0.000005 0.001564 3.638375 -0.000010 -1.284244 3.140806
 16   8.842831 0.000000 -0.000002 0.384247 1.025181 0.335030
 17   9.341934 0.000000 -0.000001 0.000000 0.000000 -1.389456
 18   11.168404 -0.000001 0.000002 -1.531185 0.723519 -0.516448
 19   0.000005 0.001585 -3.638375 -0.000010 1.284244 3.140787
 20   8.842831 0.000000 0.000001 -0.018866 -0.967737 0.324351
 21   9.341937 0.000000 -0.000001 0.000000 0.000000 -1.267683
 22   11.168404 -0.000001 0.000001 0.793657 -0.148107 0.167390
 23   1.977383 0.000000 0.000000 0.365966 -0.211304 0.582437
 24   3.723980 2.768054 -0.049087 0.000001 -3.141591 -1.570794
 25   12.421014 0.304721 4.492689 -0.091859 -0.075839 1.616818
 26   19.916998 1.704573 4.956909 2.262592 1.451744 0.734330
time 9
  0   -2.714425 -4.500901 25.395531 -0.159435 -0.065176 -1.794332
  1   -3.127683 -1.078157 9.745319 -0.000032 -1.425768 -1.570770
  2   -0.000008 0.000010 5.615750 -0.219439 3.515134 -0.770746
  3   15.693467 0.000000 0.000000 0.000000 0.000000 -0.647098
  4   22.146629 -0.000001 0.000000 0.201509 -0.064218 -0.241240
  5   3.310129 5.734393 0.000000 0.000000 0.000000 1.570796
  6   0.000008 -0.000006 -5.615750 0.303642 2.947447 -0.098177
  7   15.693467 0.000000 0.000000 0.000000 0.000000 -0.950874
  8   22.146629 0.000000 0.000000 0.383301 0.147053 0.730369
  9   3.310129 5.734393 0.000000 0.000000 0.000000 1.570796
 10   1.372444 -0.004728 0.195320 0.403168 -0.221036 0.237067
 11   5.939814 -0.004730 0.000000 0.244626 -0.000240 0.000210
 12   5.939809 -0.003975 0.000000 0.000000 0.000000 0.163368
 13   4.991439 -0.003975 0.000000 0.000000 0.000000 0.054359
 14   4.991436 -0.001575 0.000000 0.000000 0.000000 0.000000
 15   0.000005 0.001564 3.638375 -0.000010 -1.284244 3.140806
 16   8.842831 0.000000 -0.000002 0.325998 1.065832 0.297332
 17   9.341934 0.000000 -0.000001 0.000000 0.000000 -1.327790
 18   11.168404 -0.000001 0.000002 -1.478371 0.787736 -0.537037
 19   0.000005 0.001585 -3.638375 -0.000010 1.284244 3.140787
 20   8.842831 0.000000 0.000001 -0.084415 -0.982078 0.440729
 21   9.341937 0.000000 -0.000001 0.000000 0.000000 -1.283072
 22   11.168404 -0.000001 0.000001 0.765598 -0.163832 0.155357
 23   1.977383 0.000000 0.000000 0.353067 -0.213682 0.611813
 24   3.723980 2.768054 -0.049087 0.000001 -3.141591 -1.570794
 25   12.421014 0.304721 4.492689 -0.091859 -0.075839 1.616818
 26   19.916998 1.704573 4.956909 2.262592 1.451744 0.734330
time 10
  0   -2.789785 -4.507945 25.317116 -0.163724 -0.067374 -1.792223
  1   -3.178466 -1.148472 9.745319 -0.000032 -1.421634 -1.570770
  2   -0.000008 0.000010 5.615750 -0.219439 3.518200 -0.773327
  3   15.693467 0.000000 0.000000 0.000000 0.000000 -0.649658
  4   22.146629 -0.000001 0.000000 0.202780 -0.063921 -0.243755
  5   3.310129 5.734393 0.000000 0.000000 0.000000 1.570796
  6   0.000008 -0.000006 -5.615750 0.307094 2.947447 -0.101052
  7   15.693467 0.000000 0.000000 0.000000 0.000000 -0.960699
  8   22.146629 0.000000 0.000000 0.381158 0.144812 0.734773
  9   3.310129 5.734393 0.000000 0.000000 0.000000 1.570796
 10   1.372444 -0.004728 0.203133 0.422488 -0.229543 0.242572
 11   5.939814 -0.004730 0.000000 0.251357 -0.000407 0.000899
 12   5.939809 -0.003975 0.000000 0.000000 0.000000 0.168640
 13   4.991439 -0.003975 0.000000 0.000000 0.000000 0.055856
 14   4.991436 -0.001575 0.000000 0.000000 0.000000 0.000000
 15   0.000005 0.001564 3.638375 -0.000010 -1.284244 3.140806
 16   8.842831 0.000000 -0.000002 0.266650 1.097647 0.240971
 17   9.341934 0.000000 -0.000001 0.000000 0.000000 -1.280638
 18   11.168404 -0.000001 0.000002 -1.442271 0.833004 -0.548093
 19   0.000005 0.001585 -3.638375 -0.000010 1.284244 3.140787
 20   8.842831 0.000000 0.000001 -0.136741 -0.992347 0.526987
 21   9.341937 0.000000 -0.000001 0.000000 0.000000 -1.295263
 22   11.168404 -0.000001 0.000001 0.746488 -0.172813 0.147743
 23   1.977383 0.000000 0.000000 0.349790 -0.219663 0.635323
 24   3.723980 2.768054 -0.049087 0.000001 -3.141591 -1.570794
 25   12.421014 0.304721 4.492689 -0.091859 -0.075839 1.616818
 26   19.916998 1.704573 4.956909 2.262592 1.451744 0.734330
time 11
  0   -2.835001 -4.529077 25.277910 -0.166615 -0.069572 -1.794524
  1   -3.233155 -1.207067 9.745319 -0.000032 -1.418636 -1.570770
  2   -0.000008 0.000010 5.615750 -0.219344 3.521650 -0.773613
  3   15.693467 0.000000 0.000000 0.000000 0.000000 -0.651793
  4   22.146629 -0.000001 0.000000 0.202593 -0.065233 -0.244807
  5   3.310129 5.734393 0.000000 0.000000 0.000000 1.570796
  6   0.000008 -0.000006 -5.615750 0.308340 2.945721 -0.104068
  7   15.693467 0.000000 0.000000 0.000000 0.000000 -0.968514
  8   22.146629 0.000000 0.000000 0.376645 0.144198 0.736887
  9   3.310129 5.734393 0.000000 0.000000 0.000000 1.570796
 10   1.372444 -0.004728 0.207040 0.434740 -0.236386 0.248077
 11   5.939814 -0.004730 0.000000 0.256027 -0.000647 0.001893
 12   5.939809 -0.003975 0.000000 0.000000 0.000000 0.172888
 13   4.991439 -0.003975 0.000000 0.000000 0.000000 0.056882
 14   4.991436 -0.001575 0.000000 0.000000 0.000000 0.000000
 15   0.000005 0.001564 3.638375 -0.000010 -1.284244 3.140806
 16   8.842831 0.000000 -0.000002 0.212333 1.122019 0.176398
 17   9.341934 0.000000 -0.000001 0.000000 0.000000 -1.247427
 18   11.168404 -0.000001 0.000002 -1.420496 0.862002 -0.552908
 19   0.000005 0.001585 -3.638375 -0.000010 1.284244 3.140787
 20   8.842831 0.000000 0.000001 -0.174957 -0.999695 0.584652
 21   9.341937 0.000000 -0.000001 0.000000 0.000000 -1.304789
 22   11.168404 -0.000001 0.000001 0.735675 -0.175890 0.143606
 23   1.977383 0.000000 0.000000 0.353913 -0.229016 0.653167
 24   3.723980 2.768054 -0.049087 0.000001 -3.141591 -1.570794
 25   12.421014 0.304721 4.492689 -0.091859 -0.075839 1.616818
 26   19.916998 1.704573 4.956909 2.262592 1.451744 0.734330
time 12
  0   -2.865144 -4.557253 25.258307 -0.168107 -0.071770 -1.800085
  1   -3.283938 -1.253944 9.745319 -0.000032 -1.416677 -1.570770
  2   -0.000008 0.000010 5.615750 -0.219152 3.525196 -0.771893
  3   15.693467 0.000000 0.000000 0.000000 0.000000 -0.653500
  4   22.146629 -0.000001 0.000000 0.201210 -0.067735 -0.244670
  5   3.310129 5.734393 0.000000 0.000000 0.000000 1.570796
  6   0.000008 -0.000006 -5.615750 0.307765 2.942749 -0.107154
  7   15.693467 0.000000 0.000000 0.000000 0.000000 -0.974543
  8   22.146629 0.000000 0.000000 0.370440 0.144904 0.737151
  9   3.310129 5.734393 0.000000 0.000000 0.000000 1.570796
 10   1.372444 -0.004728 0.207040 0.440833 -0.241565 0.253388
 11   5.939814 -0.004730 0.000000 0.258869 -0.000947 0.003117
 12   5.939809 -0.003975 0.000000 0.000000 0.000000 0.176173
 13   4.991439 -0.003975 0.000000 0.000000 0.000000 0.057521
 14   4.991436 -0.001575 0.000000 0.000000 0.000000 0.000000
 15   0.000005 0.001564 3.638375 -0.000010 -1.284244 3.140806
 16   8.842831 0.000000 -0.000002 0.165056 1.140159 0.110034
 17   9.341934 0.000000 -0.000001 0.000000 0.000000 -1.226024
 18   11.168404 -0.000001 0.000002 -1.410754 0.877793 -0.553743
 19   0.000005 0.001585 -3.638375 -0.000010 1.284244 3.140787
 20   8.842831 0.000000 0.000001 -0.199145 -1.004829 0.616201
 21   9.341937 0.000000 -0.000001 0.000000 0.000000 -1.312117
 22   11.168404 -0.000001 0.000001 0.732505 -0.174120 0.142290
 23   1.977383 0.000000 0.000000 0.363428 -0.241094 0.665742
 24   3.723980 2.768054 -0.049087 0.000001 -3.141591 -1.570794
 25   12.421014 0.304721 4.492689 -0.091859 -0.075839 1.616818
 26   19.916998 1.704573 4.956909 2.262592 1.451744 0.734330
time 13
  0   -2.872680 -4.592473 25.258307 -0.168479 -0.073777 -1.808138
  1   -3.334720 -1.289101 9.745319 -0.000032 -1.415638 -1.570770
  2   -0.000008 0.000010 5.615750 -0.219056 3.528646 -0.768643
  3   15.693467 0.000000 0.000000 0.000000 0.000000 -0.654780
  4   22.146629 -0.000001 0.000000 0.198891 -0.071053 -0.243527
  5   3.310129 5.734393 0.000000 0.000000 0.000000 1.570796
  6   0.000008 -0.000006 -5.615750 0.305560 2.938914 -0.110169
  7   15.693467 0.000000 0.000000 0.000000 0.000000 -0.978935
  8   22.146629 0.000000 0.000000 0.363163 0.146624 0.736006
  9   3.310129 5.734393 0.000000 0.000000 0.000000 1.570796
 10   1.372444 -0.004728 0.210946 0.441809 -0.245134 0.258311
 11   5.939814 -0.004730 0.000000 0.260112 -0.001258 0.004436
 12   5.939809 -0.003975 0.000000 0.000000 0.000000 0.178509
 13   4.991439 -0.003975 0.000000 0.000000 0.000000 0.057790
 14   4.991436 -0.001575 0.000000 0.000000 0.000000 0.000000
 15   0.000005 0.001564 3.638375 -0.000010 -1.284244 3.140806
 16   8.842831 0.000000 -0.000002 0.124638 1.153089 0.045985
 17   9.341934 0.000000 -0.000001 0.000000 0.000000 -1.213396
 18   11.168404 -0.000001 0.000002 -1.410086 0.883344 -0.552269
 19   0.000005 0.001585 -3.638375 -0.000010 1.284244 3.140787
 20   8.842831 0.000000 0.000001 -0.210432 -1.008282 0.624684
 21   9.341937 0.000000 -0.000001 0.000000 0.000000 -1.317713
 22   11.168404 -0.000001 0.000001 0.736047 -0.168554 0.143324
 23   1.977383 0.000000 0.000000 0.376485 -0.254927 0.673347
 24   3.723980 2.768054 -0.049087 0.000001 -3.141591 -1.570794
 25   12.421014 0.304721 4.492689 -0.091859 -0.075839 1.616818
 26   19.916998 1.704573 4.956909 2.262592 1.451744 0.734330
time 14
  0   -2.865144 -4.627693 25.277910 -0.167920 -0.075593 -1.817438
  1   -3.381597 -1.316445 9.745319 -0.000032 -1.415396 -1.570770
  2   -0.000008 0.000010 5.615750 -0.218960 3.531712 -0.764438
  3   15.693467 0.000000 0.000000 0.000000 0.000000 -0.655634
  4   22.146629 -0.000001 0.000000 0.196049 -0.074768 -0.241652
  5   3.310129 5.734393 0.000000 0.000000 0.000000 1.570796
  6   0.000008 -0.000006 -5.615750 0.302204 2.934695 -0.112975
  7   15.693467 0.000000 0.000000 0.000000 0.000000 -0.981614
  8   22.146629 0.000000 0.000000 0.355548 0.149049 0.733628
  9   3.310129 5.734393 0.000000 0.000000 0.000000 1.570796
 10   1.372444 -0.004728 0.210946 0.438544 -0.247173 0.262585
 11   5.939814 -0.004730 0.000000 0.259987 -0.001570 0.005756
 12   5.939809 -0.003975 0.000000 0.000000 0.000000 0.179946
 13   4.991439 -0.003975 0.000000 0.000000 0.000000 0.057773
 14   4.991436 -0.001575 0.000000 0.000000 0.000000 0.000000
 15   0.000005 0.001564 3.638375 -0.000010 -1.284244 3.140806
 16   8.842831 0.000000 -0.000002 0.090347 1.161740 -0.011795
 17   9.341934 0.000000 -0.000001 0.000000 0.000000 -1.206671
 18   11.168404 -0.000001 0.000002 -1.415243 0.882196 -0.549419
 19   0.000005 0.001585 -3.638375 -0.000010 1.284244 3.140787
 20   8.842831 0.000000 0.000001 -0.210593 -1.010141 0.613723
 21   9.341937 0.000000 -0.000001 0.000000 0.000000 -1.322110
 22   11.168404 -0.000001 0.000001 0.745742 -0.160291 0.146238
 23   1.977383 0.000000 0.000000 0.391604 -0.269337 0.676429
 24   3.723980 2.768054 -0.049087 0.000001 -3.141591 -1.570794
 25   12.421014 0.304721 4.492689 -0.091859 -0.075839 1.616818
 26   19.916998 1.704573 4.956909 2.262592 1.451744 0.734330
time 15
  0   -2.850072 -4.662913 25.297512 -0.166522 -0.076931 -1.827218
  1   -3.420660 -1.328165 9.745319 -0.000032 -1.415879 -1.570770
  2   -0.000008 0.000010 5.615750 -0.218864 3.534204 -0.759755
  3   15.693467 0.000000 0.000000 0.000000 0.000000 -0.656061
  4   22.146629 -0.000001 0.000000 0.192871 -0.078483 -0.239365
  5   3.310129 5.734393 0.000000 0.000000 0.000000 1.570796
  6   0.000008 -0.000006 -5.615750 0.298273 2.930381 -0.115499
  7   15.693467 0.000000 0.000000 0.000000 0.000000 -0.982731
  8   22.146629 0.000000 0.000000 0.348271 0.151904 0.730458
  9   3.310129 5.734393 0.000000 0.000000 0.000000 1.570796
 10   1.372444 -0.004728 0.210946 0.432048 -0.247710 0.265985
 11   5.939814 -0.004730 0.000000 0.258726 -0.001858 0.006980
 12   5.939809 -0.003975 0.000000 0.000000 0.000000 0.180496
 13   4.991439 -0.003975 0.000000 0.000000 0.000000 0.057487
 14   4.991436 -0.001575 0.000000 0.000000 0.000000 0.000000
 15   0.000005 0.001564 3.638375 -0.000010 -1.284244 3.140806
 16   8.842831 0.000000 -0.000002 0.062365 1.167322 -0.058675
 17   9.341934 0.000000 -0.000001 0.000000 0.000000 -1.203637
 18   11.168404 -0.000001 0.000002 -1.422979 0.877315 -0.546225
 19   0.000005 0.001585 -3.638375 -0.000010 1.284244 3.140787
 20   8.842831 0.000000 0.000001 -0.201886 -1.010318 0.587416
 21   9.341937 0.000000 -0.000001 0.000000 0.000000 -1.325840
 22   11.168404 -0.000001 0.000001 0.760937 -0.150510 0.150563
 23   1.977383 0.000000 0.000000 0.407251 -0.283031 0.675385
 24   3.723980 2.768054 -0.049087 0.000001 -3.141591 -1.570794
 25   12.421014 0.304721 4.492689 -0.091859 -0.075839 1.616818
 26   19.916998 1.704573 4.956909 2.262592 1.451744 0.734330
time 16
  0   -2.819928 -4.698133 25.336720 -0.164657 -0.077886 -1.836326
  1   -3.448005 -1.332071 9.745319 -0.000032 -1.416919 -1.570770
  2   -0.000008 0.000010 5.615750 -0.218960 3.535929 -0.755167
  3   15.693467 0.000000 0.000000 0.000000 0.000000 -0.656061
  4   22.146629 -0.000001 0.000000 0.189767 -0.081851 -0.236849
  5   3.310129 5.734393 0.000000 0.000000 0.000000 1.570796
  6   0.000008 -0.000006 -5.615750 0.294055 2.926450 -0.117463
  7   15.693467 0.000000 0.000000 0.000000 0.000000 -0.982284
  8   22.146629 0.000000 0.000000 0.341897 0.154821 0.726846
  9   3.310129 5.734393 0.000000 0.000000 0.000000 1.570796
 10   1.372444 -0.004728 0.207040 0.423262 -0.246851 0.268252
 11   5.939814 -0.004730 0.000000 0.256578 -0.002085 0.007974
 12   5.939809 -0.003975 0.000000 0.000000 0.000000 0.180196
 13   4.991439 -0.003975 0.000000 0.000000 0.000000 0.057016
 14   4.991436 -0.001575 0.000000 0.000000 0.000000 0.000000
 15   0.000005 0.001564 3.638375 -0.000010 -1.284244 3.140806
 16   8.842831 0.000000 -0.000002 0.041881 1.171136 -0.088461
 17   9.341934 0.000000 -0.000001 0.000000 0.000000 -1.202653
 18   11.168404 -0.000001 0.000002 -1.430046 0.872051 -0.543572
 19   0.000005 0.001585 -3.638375 -0.000010 1.284244 3.140787
 20   8.842831 0.000000 0.000001 -0.187051 -1.008813 0.549863
 21   9.341937 0.000000 -0.000001 0.000000 0.000000 -1.329371
 22   11.168404 -0.000001 0.000001 0.780979 -0.140349 0.155827
 23   1.977383 0.000000 0.000000 0.422053 -0.294601 0.670713
 24   3.723980 2.768054 -0.049087 0.000001 -3.141591 -1.570794
 25   12.421014 0.304721 4.492689 -0.091859 -0.075839 1.616818
 26   19.916998 1.704573 4.956909 2.262592 1.451744 0.734330
time 17
  0   -2.789785 -4.719265 25.375927 -0.162419 -0.078269 -1.843900
  1   -3.463631 -1.320352 9.745319 -0.000032 -1.418442 -1.570770
  2   -0.000008 0.000010 5.615750 -0.218960 3.536695 -0.751058
  3   15.693467 0.000000 0.000000 0.000000 0.000000 -0.655563
  4   22.146629 -0.000001 0.000000 0.187038 -0.084526 -0.234425
  5   3.310129 5.734393 0.000000 0.000000 0.000000 1.570796
  6   0.000008 -0.000006 -5.615750 0.290220 2.923286 -0.118655
  7   15.693467 0.000000 0.000000 0.000000 0.000000 -0.980349
  8   22.146629 0.000000 0.000000 0.337215 0.157553 0.723235
  9   3.310129 5.734393 0.000000 0.000000 0.000000 1.570796
 10   1.372444 -0.004728 0.207040 0.413097 -0.244677 0.269127
 11   5.939814 -0.004730 0.000000 0.253736 -0.002229 0.008662
 12   5.939809 -0.003975 0.000000 0.000000 0.000000 0.179084
 13   4.991439 -0.003975 0.000000 0.000000 0.000000 0.056377
 14   4.991436 -0.001575 0.000000 0.000000 0.000000 0.000000
 15   0.000005 0.001564 3.638375 -0.000010 -1.284244 3.140806
 16   8.842831 0.000000 -0.000002 0.031091 1.174857 -0.094134
 17   9.341934 0.000000 -0.000001 0.000000 0.000000 -1.202653
 18   11.168404 -0.000001 0.000002 -1.433102 0.869563 -0.542491
 19   0.000005 0.001585 -3.638375 -0.000010 1.284244 3.140787
 20   8.842831 0.000000 0.000001 -0.168668 -1.005626 0.505447
 21   9.341937 0.000000 -0.000001 0.000000 0.000000 -1.333102
 22   11.168404 -0.000001 0.000001 0.804937 -0.130905 0.161562
 23   1.977383 0.000000 0.000000 0.434528 -0.302661 0.662959
 24   3.723980 2.768054 -0.049087 0.000001 -3.141591 -1.570794
 25   12.421014 0.304721 4.492689 -0.091859 -0.075839 1.616818
 26   19.916998 1.704573 4.956909 2.262592 1.451744 0.734330
time 18
  0   -2.752105 -4.733353 25.415133 -0.160088 -0.077886 -1.848982
  1   -3.459724 -1.296914 9.745319 -0.000032 -1.420328 -1.570770
  2   -0.000008 0.000010 5.615750 -0.219056 3.536408 -0.747999
  3   15.693467 0.000000 0.000000 0.000000 0.000000 -0.654709
  4   22.146629 -0.000001 0.000000 0.185019 -0.086136 -0.232367
  5   3.310129 5.734393 0.000000 0.000000 0.000000 1.570796
  6   0.000008 -0.000006 -5.615750 0.287056 2.921369 -0.118796
  7   15.693467 0.000000 0.000000 0.000000 0.000000 -0.976925
  8   22.146629 0.000000 0.000000 0.334846 0.159733 0.719976
  9   3.310129 5.734393 0.000000 0.000000 0.000000 1.570796
 10   1.372444 -0.004728 0.203133 0.402562 -0.241350 0.268382
 11   5.939814 -0.004730 0.000000 0.250469 -0.002265 0.008911
 12   5.939809 -0.003975 0.000000 0.000000 0.000000 0.177185
 13   4.991439 -0.003975 0.000000 0.000000 0.000000 0.055654
 14   4.991436 -0.001575 0.000000 0.000000 0.000000 0.000000
 15   0.000005 0.001564 3.638375 -0.000010 -1.284244 3.140806
 16   8.842831 0.000000 -0.000002 0.016186 1.181648 -0.104734
 17   9.341934 0.000000 -0.000001 0.000000 0.000000 -1.196831
 18   11.168404 -0.000001 0.000002 -1.434248 0.870424 -0.541508
 19   0.000005 0.001585 -3.638375 -0.000010 1.284244 3.140787
 20   8.842831 0.000000 0.000001 -0.149641 -1.000846 0.458552
 21   9.341937 0.000000 -0.000001 0.000000 0.000000 -1.337698
 22   11.168404 -0.000001 0.000001 0.832343 -0.123274 0.167108
 23   1.977383 0.000000 0.000000 0.443145 -0.305848 0.652769
 24   3.723980 2.768054 -0.049087 0.000001 -3.141591 -1.570794
 25   12.421014 0.304721 4.492689 -0.091859 -0.075839 1.616818
 26   19.916998 1.704573 4.956909 2.262592 1.451744 0.734330
time 19
  0   -2.714425 -4.726309 25.454340 -0.157757 -0.076835 -1.850516
  1   -3.440192 -1.261756 9.745319 -0.000032 -1.422456 -1.570770
  2   -0.000008 0.000010 5.615750 -0.219056 3.534971 -0.746565
  3   15.693467 0.000000 0.000000 0.000000 0.000000 -0.653358
  4   22.146629 -0.000001 0.000000 0.184084 -0.086408 -0.230995
  5   3.310129 5.734393 0.000000 0.000000 0.000000 1.570796
  6   0.000008 -0.000006 -5.615750 0.285138 2.921177 -0.117603
  7   15.693467 0.000000 0.000000 0.000000 0.000000 -0.972013
  8   22.146629 0.000000 0.000000 0.335523 0.161053 0.717598
  9   3.310129 5.734393 0.000000 0.000000 0.000000 1.570796
 10   1.372444 -0.004728 0.199227 0.392531 -0.236949 0.265759
 11   5.939814 -0.004730 0.000000 0.246988 -0.002181 0.008624
 12   5.939809 -0.003975 0.000000 0.000000 0.000000 0.174549
 13   4.991439 -0.003975 0.000000 0.000000 0.000000 0.054880
 14   4.991436 -0.001575 0.000000 0.000000 0.000000 0.000000
 15   0.000005 0.001564 3.638375 -0.000010 -1.284244 3.140806
 16   8.842831 0.000000 -0.000002 -0.000732 1.188717 -0.128772
 17   9.341934 0.000000 -0.000001 0.000000 0.000000 -1.187893
 18   11.168404 -0.000001 0.000002 -1.439023 0.868893 -0.539002
 19   0.000005 0.001585 -3.638375 -0.000010 1.284244 3.140787
 20   8.842831 0.000000 0.000001 -0.132468 -0.994914 0.413374
 21   9.341937 0.000000 -0.000001 0.000000 0.000000 -1.343561
 22   11.168404 -0.000001 0.000001 0.862360 -0.118552 0.171903
 23   1.977383 0.000000 0.000000 0.446316 -0.302915 0.640691
 24   3.723980 2.768054 -0.049087 0.000001 -3.141591 -1.570794
 25   12.421014 0.304721 4.492689 -0.091859 -0.075839 1.616818
 26   19.916998 1.704573 4.956909 2.262592 1.451744 0.734330
time 20
  0   -2.676745 -4.705177 25.493547 -0.155799 -0.074924 -1.847544
  1   -3.393316 -1.214880 9.745319 -0.000032 -1.424729 -1.570770
  2   -0.000008 0.000010 5.615750 -0.219056 3.532096 -0.747043
  3   15.693467 0.000000 0.000000 0.000000 0.000000 -0.651650
  4   22.146629 -0.000001 0.000000 0.184645 -0.084972 -0.230538
  5   3.310129 5.734393 0.000000 0.000000 0.000000 1.570796
  6   0.000008 -0.000006 -5.615750 0.284850 2.922999 -0.114798
  7   15.693467 0.000000 0.000000 0.000000 0.000000 -0.965760
  8   22.146629 0.000000 0.000000 0.339866 0.161176 0.716365
  9   3.310129 5.734393 0.000000 0.000000 0.000000 1.570796
 10   1.372444 -0.004728 0.199227 0.383948 -0.231582 0.260998
 11   5.939814 -0.004730 0.000000 0.243525 -0.001953 0.007706
 12   5.939809 -0.003975 0.000000 0.000000 0.000000 0.171176
 13   4.991439 -0.003975 0.000000 0.000000 0.000000 0.054107
 14   4.991436 -0.001575 0.000000 0.000000 0.000000 0.000000
 15   0.000005 0.001564 3.638375 -0.000010 -1.284244 3.140806
 16   8.842831 0.000000 -0.000002 0.011156 1.188997 -0.123770
 17   9.341934 0.000000 -0.000001 0.000000 0.000000 -1.190271
 18   11.168404 -0.000001 0.000002 -1.449433 0.859227 -0.535464
 19   0.000005 0.001585 -3.638375 -0.000010 1.284244 3.140787
 20   8.842831 0.000000 0.000001 -0.119406 -0.988275 0.373724
 21   9.341937 0.000000 -0.000001 0.000000 0.000000 -1.351222
 22   11.168404 -0.000001 0.000001 0.894335 -0.117793 0.175193
 23   1.977383 0.000000 0.000000 0.442246 -0.292754 0.627370
 24   3.723980 2.768054 -0.049087 0.000001 -3.141591 -1.570794
 25   12.421014 0.304721 4.492689 -0.091859 -0.075839 1.616818
 26   19.916998 1.704573 4.956909 2.262592 1.451744 0.734330
time 21
  0   -2.646601 -4.662913 25.513149 -0.154307 -0.072057 -1.839011
  1   -3.319095 -1.156284 9.745319 -0.000032 -1.427001 -1.570770
  2   -0.000008 0.000010 5.615750 -0.218960 3.527592 -0.750102
  3   15.693467 0.000000 0.000000 0.000000 0.000000 -0.649516
  4   22.146629 -0.000001 0.000000 0.186963 -0.081480 -0.231224
  5   3.310129 5.734393 0.000000 0.000000 0.000000 1.570796
  6   0.000008 -0.000006 -5.615750 0.286672 2.927409 -0.110239
  7   15.693467 0.000000 0.000000 0.000000 0.000000 -0.958094
  8   22.146629 0.000000 0.000000 0.348666 0.159825 0.716717
  9   3.310129 5.734393 0.000000 0.000000 0.000000 1.570796
 10   1.372444 -0.004728 0.195320 0.377721 -0.225410 0.253906
 11   5.939814 -0.004730 0.000000 0.240328 -0.001558 0.006023
 12   5.939809 -0.003975 0.000000 0.000000 0.000000 0.167116
 13   4.991439 -0.003975 0.000000 0.000000 0.000000 0.053400
 14   4.991436 -0.001575 0.000000 0.000000 0.000000 0.000000
 15   0.000005 0.001564 3.638375 -0.000010 -1.284244 3.140806
 16   8.842831 0.000000 -0.000002 0.085226 1.173741 -0.046806
 17   9.341934 0.000000 -0.000001 0.000000 0.000000 -1.219710
 18   11.168404 -0.000001 0.000002 -1.467579 0.835588 -0.531042
 19   0.000005 0.001585 -3.638375 -0.000010 1.284244 3.140787
 20   8.842831 0.000000 0.000001 -0.112553 -0.981281 0.343414
 21   9.341937 0.000000 -0.000001 0.000000 0.000000 -1.361148
 22   11.168404 -0.000001 0.000001 0.927334 -0.121883 0.176227
 23   1.977383 0.000000 0.000000 0.428925 -0.274487 0.613105
 24   3.723980 2.768054 -0.049087 0.000001 -3.141591 -1.570794
 25   12.421014 0.304721 4.492689 -0.091859 -0.075839 1.616818
 26   19.916998 1.704573 4.956909 2.262592 1.451744 0.734330
time 22
  0   -2.623994 -4.599517 25.513149 -0.153468 -0.068139 -1.824054
  1   -3.217529 -1.085970 9.745319 -0.000032 -1.429202 -1.570770
  2   -0.000008 0.000010 5.615750 -0.219056 3.521267 -0.756027
  3   15.693467 0.000000 0.000000 0.000000 0.000000 -0.646955
  4   22.146629 -0.000001 0.000000 0.191450 -0.075462 -0.233327
  5   3.310129 5.734393 0.000000 0.000000 0.000000 1.570796
  6   0.000008 -0.000006 -5.615750 0.290795 2.934695 -0.103717
  7   15.693467 0.000000 0.000000 0.000000 0.000000 -0.949087
  8   22.146629 0.000000 0.000000 0.362543 0.156601 0.719007
  9   3.310129 5.734393 0.000000 0.000000 0.000000 1.570796
 10   1.372444 -0.004728 0.191414 0.374726 -0.218460 0.244224
 11   5.939814 -0.004730 0.000000 0.237611 -0.000971 0.003480
 12   5.939809 -0.003975 0.000000 0.000000 0.000000 0.162406
 13   4.991439 -0.003975 0.000000 0.000000 0.000000 0.052795
 14   4.991436 -0.001575 0.000000 0.000000 0.000000 0.000000
 15   0.000005 0.001564 3.638375 -0.000010 -1.284244 3.140806
 16   8.842831 0.000000 -0.000002 0.227147 1.126763 0.118619
 17   9.341934 0.000000 -0.000001 0.000000 0.000000 -1.287526
 18   11.168404 -0.000001 0.000002 -1.494511 0.792330 -0.525244
 19   0.000005 0.001585 -3.638375 -0.000010 1.284244 3.140787
 20   8.842831 0.000000 0.000001 -0.113440 -0.974376 0.325876
 21   9.341937 0.000000 -0.000001 0.000000 0.000000 -1.373872
 22   11.168404 -0.000001 0.000001 0.960894 -0.131706 0.173877
 23   1.977383 0.000000 0.000000 0.404238 -0.247422 0.598193
 24   3.723980 2.768054 -0.049087 0.000001 -3.141591 -1.570794
 25   12.421014 0.304721 4.492689 -0.091859 -0.075839 1.616818
 26   19.916998 1.704573 4.956909 2.262592 1.451744 0.734330
time 23
  0   -2.616458 -4.507945 25.493547 -0.153375 -0.063169 -1.801619
  1   -3.080806 -1.003936 9.745319 -0.000032 -1.431184 -1.570770
  2   -0.000008 0.000010 5.615750 -0.219439 3.512738 -0.765203
  3   15.693467 0.000000 0.000000 0.000000 0.000000 -0.644039
  4   22.146629 -0.000001 0.000000 0.198405 -0.066472 -0.236986
  5   3.310129 5.734393 0.000000 0.000000 0.000000 1.570796
  6   0.000008 -0.000006 -5.615750 0.297602 2.945338 -0.095301
  7   15.693467 0.000000 0.000000 0.000000 0.000000 -0.938816
  8   22.146629 0.000000 0.000000 0.382173 0.151259 0.723323
  9   3.310129 5.734393 0.000000 0.000000 0.000000 1.570796
 10   1.372444 -0.004728 0.187508 0.375836 -0.210812 0.231756
 11   5.939814 -0.004730 0.000000 0.235605 -0.000180 -0.000019
 12   5.939809 -0.003975 0.000000 0.000000 0.000000 0.157072
 13   4.991439 -0.003975 0.000000 0.000000 0.000000 0.052357
 14   4.991436 -0.001575 0.000000 0.000000 0.000000 0.000000
 15   0.000005 0.001564 3.638375 -0.000010 -1.284244 3.140806
 16   8.842831 0.000000 -0.000002 0.384247 1.025181 0.335030
 17   9.341934 0.000000 -0.000001 0.000000 0.000000 -1.389456
 18   11.168404 -0.000001 0.000002 -1.531185 0.723519 -0.516448
 19   0.000005 0.001585 -3.638375 -0.000010 1.284244 3.140787
 20   8.842831 0.000000 0.000001 -0.123599 -0.967737 0.324351
 21   9.341937 0.000000 -0.000001 0.000000 0.000000 -1.389860
 22   11.168404 -0.000001 0.000001 0.994359 -0.148107 0.167390
 23   1.977383 0.000000 0.000000 0.365966 -0.211304 0.582437
 24   3.723980 2.768054 -0.049087 0.000001 -3.141591 -1.570794
 25   12.421014 0.304721 4.492689 -0.091859 -0.075839 1.616818
 26   19.916998 1.704573 4.956909 2.262592 1.451744 0.734330
time 24
  0   -2.691817 -4.141656 25.415133 -0.155986 -0.046827 -1.706701
  1   -2.553447 -0.714865 9.745319 -0.000032 -1.436890 -1.570770
  2   -0.000008 0.000010 5.615750 -0.224329 3.478910 -0.798845
  3   15.693467 0.000000 0.000000 0.000000 0.000000 -0.631661
  4   22.146629 -0.000001 0.000000 0.229927 -0.027119 -0.253497
  5   3.310129 5.734393 0.000000 0.000000 0.000000 1.570796
  6   0.000008 -0.000006 -5.615750 0.328091 2.992220 -0.061287
  7   15.693467 0.000000 0.000000 0.000000 0.000000 -0.899962
  8   22.146629 0.000000 0.000000 0.460413 0.126300 0.741115
  9   3.310129 5.734393 0.000000 0.000000 0.000000 1.570796
 10   1.376350 -0.004728 0.179695 0.391690 -0.184971 0.185901
 11   5.939814 -0.004730 0.000000 0.236191 0.002840 -0.015623
 12   5.939809 -0.003975 0.000000 0.001034 -0.000060 0.138932
 13   4.991439 -0.003975 0.000000 0.000000 0.000000 0.051382
 14   4.991436 -0.001575 0.000000 0.000000 0.000000 0.000000
 15   0.000005 0.001564 3.638375 -0.000010 -1.284244 3.140806
 16   8.842831 0.000000 -0.000002 0.527266 0.745364 0.667597
 17   9.341934 0.000000 -0.000001 0.000000 0.000000 -1.534766
 18   11.168404 -0.000001 0.000002 -1.579128 0.598339 -0.499446
 19   0.000005 0.001585 -3.638375 -0.000010 1.284244 3.140787
 20   8.842831 0.000000 0.000001 -0.181407 -0.953130 0.384971
 21   9.341937 0.000000 -0.000001 0.000000 0.000000 -1.473399
 22   11.168404 -0.000001 0.000001 1.059520 -0.223320 0.124146
 23   1.977383 0.000000 0.000000 0.190040 -0.075238 0.525973
 24   3.723980 2.768054 -0.049087 0.000001 -3.141591 -1.570794
 25   12.421014 0.304721 4.492689 -0.091859 -0.075839 1.616818
 26   19.916998 1.704573 4.956909 2.262592 1.451744 0.734330
time 25
  0   -2.819928 -3.479518 25.356323 -0.156359 -0.016055 -1.533356
  1   -1.565135 -0.167973 9.745319 -0.000032 -1.447480 -1.570770
  2   -0.000008 0.000010 5.615750 -0.245995 3.403109 -0.848257
  3   15.693467 0.000000 0.000000 0.000000 0.000000 -0.604557
  4   22.146629 -0.000001 0.000000 0.284707 0.053470 -0.276686
  5   3.310129 5.734393 0.000000 0.000000 0.000000 1.570796
  6   0.000008 -0.000006 -5.615750 0.372194 3.075917 -0.014298
  7   15.693467 0.000000 0.000000 0.000000 0.000000 -0.826125
  8   22.146629 0.000000 0.000000 0.604031 0.080925 0.761725
  9   3.310129 5.734393 0.000000 0.000000 0.000000 1.570796
 10   1.376350 -0.004728 0.167976 0.415992 -0.135381 0.102966
 11   5.939814 -0.004730 0.000000 0.236137 0.008437 -0.044019
 12   5.939809 -0.003975 0.000000 0.002782 -0.000108 0.105414
 13   4.991439 -0.003975 0.000000 0.000000 0.000000 0.049549
 14   4.991436 -0.001575 0.000000 0.000000 0.000000 0.000000
 15   0.000005 0.001564 3.638375 -0.000010 -1.284244 3.140806
 16   8.842831 0.000000 -0.000002 0.419362 0.371685 0.864450
 17   9.341934 0.000000 -0.000001 0.000000 0.000000 -1.461947
 18   11.168404 -0.000001 0.000002 -1.643115 0.416885 -0.467409
 19   0.000005 0.001585 -3.638375 -0.000010 1.284244 3.140787
 20   8.842831 0.000000 0.000001 -0.237845 -0.919135 0.448735
 21   9.341937 0.000000 -0.000001 0.000000 0.000000 -1.589114
 22   11.168404 -0.000001 0.000001 1.205316 -0.355029 0.031171
 23   1.977383 0.000000 0.000000 -0.176877 0.097384 0.373230
 24   3.723980 2.768054 -0.049087 0.000001 -3.141591 -1.570794
 25   12.421014 0.304721 4.492689 -0.091859 -0.075839 1.616818
 26   19.916998 1.704573 4.956909 2.262592 1.451744 0.734330
time 26
  0   -2.835001 -2.810337 25.356323 -0.147874 0.016915 -1.368448
  1   -0.572917 0.390638 9.745319 -0.000032 -1.458699 -1.570770
  2   -0.000008 0.000010 5.615750 -0.279165 3.309197 -0.877408
  3   15.693467 0.000000 0.000000 0.000000 0.000000 -0.566215
  4   22.146629 -0.000001 0.000000 0.331224 0.138615 -0.290635
  5   3.310129 5.734393 0.000000 0.000000 0.000000 1.570796
  6   0.000008 -0.000006 -5.615750 0.397505 3.146001 0.010179
  7   15.693467 0.000000 0.000000 0.000000 0.000000 -0.757350
  8   22.146629 0.000000 0.000000 0.747593 0.039419 0.770268
  9   3.310129 5.734393 0.000000 0.000000 0.000000 1.570796
 10   1.376350 -0.004728 0.152350 0.428278 -0.082973 0.020939
 11   5.939814 -0.004730 0.000000 0.228146 0.013746 -0.069624
 12   5.939809 -0.003975 0.000000 0.003139 -0.000072 0.070947
 13   4.991439 -0.003975 0.000000 0.000000 0.000000 0.047463
 14   4.991436 -0.001575 0.000000 0.000000 0.000000 0.000000
 15   0.000005 0.001564 3.638375 -0.000010 -1.284244 3.140806
 16   8.842831 0.000000 -0.000002 0.242326 0.139218 0.803386
 17   9.341934 0.000000 -0.000001 0.000000 0.000000 -1.030282
 18   11.168404 -0.000001 0.000002 -1.731265 0.221267 -0.415470
 19   0.000005 0.001585 -3.638375 -0.000010 1.284244 3.140787
 20   8.842831 0.000000 0.000001 -0.185680 -0.873632 0.379156
 21   9.341937 0.000000 -0.000001 0.000000 0.000000 -1.587981
 22   11.168404 -0.000001 0.000001 1.447035 -0.462200 -0.078349
 23   1.977383 0.000000 0.000000 -0.562931 0.134865 0.180574
 24   3.723980 2.768054 -0.049087 0.000001 -3.141591 -1.570794
 25   12.421014 0.304721 4.492689 -0.091859 -0.075839 1.616818
 26   19.916998 1.704573 4.956909 2.262592 1.451744 0.734330
time 27
  0   -2.563706 -2.429960 25.415133 -0.132956 0.040042 -1.298746
  1   -0.045558 0.679709 9.745319 -0.000032 -1.466291 -1.570770
  2   -0.000008 0.000010 5.615750 -0.297476 3.252178 -0.887443
  3   15.693467 0.000000 0.000000 0.000000 0.000000 -0.546367
  4   22.146629 -0.000001 0.000000 0.345021 0.177794 -0.288348
  5   3.310129 5.734393 0.000000 0.000000 0.000000 1.570796
  6   0.000008 -0.000006 -5.615750 0.394917 3.163834 0.013124
  7   15.693467 0.000000 0.000000 0.000000 0.000000 -0.723929
  8   22.146629 0.000000 0.000000 0.819966 0.026156 0.770621
  9   3.310129 5.734393 0.000000 0.000000 0.000000 1.570796
 10   1.380257 -0.004728 0.140631 0.416430 -0.052113 -0.025046
 11   5.939814 -0.004730 0.000000 0.205220 0.015868 -0.076890
 12   5.939809 -0.003975 0.000000 0.000000 0.000000 0.049946
 13   4.991439 -0.003975 0.000000 0.000000 0.000000 0.045731
 14   4.991436 -0.001575 0.000000 0.000000 0.000000 0.000000
 15   0.000005 0.001564 3.638375 -0.000010 -1.284244 3.140806
 16   8.842831 0.000000 -0.000002 0.172920 0.078194 0.618701
 17   9.341934 0.000000 -0.000001 0.000000 0.000000 -0.522109
 18   11.168404 -0.000001 0.000002 -1.851505 0.055318 -0.340486
 19   0.000005 0.001585 -3.638375 -0.000010 1.284244 3.140787
 20   8.842831 0.000000 0.000001 0.354429 -0.666834 -0.258490
 21   9.341937 0.000000 -0.000001 0.000000 0.000000 -0.952847
 22   11.168404 -0.000001 0.000001 2.072074 -0.476029 -0.142745
 23   1.977383 0.000000 0.000000 -0.717394 0.090849 0.074206
 24   3.723980 2.768054 -0.049087 0.000001 -3.141591 -1.570794
 25   12.421014 0.304721 4.492689 -0.091859 -0.075839 1.616818
 26   19.916998 1.704573 4.956909 2.262592 1.451744 0.734330
time 28
  0   -1.990973 -2.317256 25.473944 -0.115428 0.055715 -1.321852
  1   0.048195 0.722679 9.745319 -0.000032 -1.470595 -1.570770
  2   -0.000008 0.000010 5.615750 -0.297763 3.243745 -0.900537
  3   15.693467 0.000000 0.000000 0.000000 0.000000 -0.565076
  4   22.146629 -0.000001 0.000000 0.322100 0.169968 -0.269414
  5   3.310129 5.734393 0.000000 0.000000 0.000000 1.570796
  6   0.000008 -0.000006 -5.615750 0.373057 3.136606 0.006041
  7   15.693467 0.000000 0.000000 0.000000 0.000000 -0.718421
  8   22.146629 0.000000 0.000000 0.819910 0.041476 0.768595
  9   3.310129 5.734393 0.000000 0.000000 0.000000 1.570796
 10   1.380257 -0.004728 0.132819 0.386574 -0.042212 -0.038000
 11   5.939814 -0.004730 0.000000 0.167465 0.015424 -0.066469
 12   5.939809 -0.003975 0.000000 -0.006699 0.000048 0.041751
 13   4.991439 -0.003975 0.000000 0.000000 0.000000 0.044419
 14   4.991436 -0.001575 0.000000 0.000000 0.000000 0.000000
 15   0.000005 0.001564 3.638375 -0.000010 -1.284244 3.140806
 16   8.842831 0.000000 -0.000002 0.180236 0.136613 0.615267
 17   9.341934 0.000000 -0.000001 0.000000 0.000000 -0.441253
 18   11.168404 -0.000001 0.000002 -2.006699 -0.066704 -0.247960
 19   0.000005 0.001585 -3.638375 -0.000010 1.284244 3.140787
 20   8.842831 0.000000 0.000001 0.288639 -0.686841 -0.246957
 21   9.341937 0.000000 -0.000001 0.000000 0.000000 -0.936926
 22   11.168404 -0.000001 0.000001 2.038235 -0.458364 -0.129772
 23   1.977383 0.000000 0.000000 -0.664743 0.063992 0.034741
 24   3.723980 2.768054 -0.049087 0.000001 -3.141591 -1.570794
 25   12.421014 0.304721 4.492689 -0.091859 -0.075839 1.616818
 26   19.916998 1.704573 4.956909 2.262592 1.451744 0.734330
time 29
  0   -1.252449 -2.267948 25.552357 -0.095941 0.073108 -1.372379
  1   0.044289 0.714867 9.745319 -0.000032 -1.474826 -1.570770
  2   -0.000008 0.000010 5.615750 -0.294024 3.247291 -0.918983
  3   15.693467 0.000000 0.000000 0.000000 0.000000 -0.597657
  4   22.146629 -0.000001 0.000000 0.277640 0.150601 -0.242978
  5   3.310129 5.734393 0.000000 0.000000 0.000000 1.570796
  6   0.000008 -0.000006 -5.615750 0.343431 3.093367 -0.008827
  7   15.693467 0.000000 0.000000 0.000000 0.000000 -0.721473
  8   22.146629 0.000000 0.000000 0.800392 0.067049 0.765865
  9   3.310129 5.734393 0.000000 0.000000 0.000000 1.570796
 10   1.380257 -0.004728 0.128912 0.351097 -0.035771 -0.044800
 11   5.939814 -0.004730 0.000000 0.121327 0.015017 -0.050349
 12   5.939809 -0.003975 0.000000 -0.015261 0.000072 0.035817
 13   4.991439 -0.003975 0.000000 0.000000 0.000000 0.043208
 14   4.991436 -0.001575 0.000000 0.000000 0.000000 0.000000
 15   0.000005 0.001564 3.638375 -0.000010 -1.284244 3.140806
 16   8.842831 0.000000 -0.000002 0.244064 0.248428 0.713283
 17   9.341934 0.000000 -0.000001 0.000000 0.000000 -0.592713
 18   11.168404 -0.000001 0.000002 -2.193122 -0.159058 -0.136122
 19   0.000005 0.001585 -3.638375 -0.000010 1.284244 3.140787
 20   8.842831 0.000000 0.000001 0.204547 -0.711540 -0.226369
 21   9.341937 0.000000 -0.000001 0.000000 0.000000 -0.953514
 22   11.168404 -0.000001 0.000001 1.972235 -0.441584 -0.115765
 23   1.977383 0.000000 0.000000 -0.573979 0.043554 -0.008602
 24   3.723980 2.768054 -0.049087 0.000001 -3.141591 -1.570794
 25   12.421014 0.304721 4.492689 -0.091859 -0.075839 1.616818
 26   19.916998 1.704573 4.956909 2.262592 1.451744 0.734330
time 30
  0   -0.415957 -2.260904 25.611168 -0.076268 0.091839 -1.443136
  1   -0.037745 0.683616 9.745319 -0.000032 -1.478985 -1.570770
  2   -0.000008 0.000010 5.615750 -0.287314 3.258311 -0.938385
  3   15.693467 0.000000 0.000000 0.000000 0.000000 -0.634933
  4   22.146629 -0.000001 0.000000 0.217139 0.123904 -0.213295
  5   3.310129 5.734393 0.000000 0.000000 0.000000 1.570796
  6   0.000008 -0.000006 -5.615750 0.307861 3.039390 -0.034145
  7   15.693467 0.000000 0.000000 0.000000 0.000000 -0.731522
  8   22.146629 0.000000 0.000000 0.765644 0.100113 0.760492
  9   3.310129 5.734393 0.000000 0.000000 0.000000 1.570796
 10   1.380257 -0.004728 0.125006 0.311412 -0.032095 -0.046419
 11   5.939814 -0.004730 0.000000 0.069579 0.015232 -0.030060
 12   5.939809 -0.003975 0.000000 -0.025073 0.000072 0.031757
 13   4.991439 -0.003975 0.000000 0.000000 0.000000 0.042047
 14   4.991436 -0.001575 0.000000 0.000000 0.000000 0.000000
 15   0.000005 0.001564 3.638375 -0.000010 -1.284244 3.140806
 16   8.842831 0.000000 -0.000002 0.325906 0.412802 0.747995
 17   9.341934 0.000000 -0.000001 0.000000 0.000000 -0.683409
 18   11.168404 -0.000001 0.000002 -2.404759 -0.218490 0.001267
 19   0.000005 0.001585 -3.638375 -0.000010 1.284244 3.140787
 20   8.842831 0.000000 0.000001 0.103523 -0.734468 -0.195297
 21   9.341937 0.000000 -0.000001 0.000000 0.000000 -0.993817
 22   11.168404 -0.000001 0.000001 1.883024 -0.424172 -0.101663
 23   1.977383 0.000000 0.000000 -0.453506 0.032169 -0.054032
 24   3.723980 2.768054 -0.049087 0.000001 -3.141591 -1.570794
 25   12.421014 0.304721 4.492689 -0.091859 -0.075839 1.616818
 26   19.916998 1.704573 4.956909 2.262592 1.451744 0.734330
time 31
  0   0.458214 -2.289080 25.669977 -0.057993 0.111525 -1.526932
  1   -0.182280 0.636739 9.745319 -0.000032 -1.483071 -1.570770
  2   -0.000008 0.000010 5.615750 -0.278590 3.273165 -0.955970
  3   15.693467 0.000000 0.000000 0.000000 0.000000 -0.670359
  4   22.146629 -0.000001 0.000000 0.146317 0.093813 -0.183292
  5   3.310129 5.734393 0.000000 0.000000 0.000000 1.570796
  6   0.000008 -0.000006 -5.615750 0.267784 2.980140 -0.071105
  7   15.693467 0.000000 0.000000 0.000000 0.000000 -0.746259
  8   22.146629 0.000000 0.000000 0.719388 0.137997 0.750627
  9   3.310129 5.734393 0.000000 0.000000 0.000000 1.570796
 10   1.380257 -0.004728 0.117193 0.268968 -0.030404 -0.043764
 11   5.939814 -0.004730 0.000000 0.014935 0.016467 -0.007152
 12   5.939809 -0.003975 0.000000 -0.035523 0.000072 0.029208
 13   4.991439 -0.003975 0.000000 0.000000 0.000000 0.040920
 14   4.991436 -0.001575 0.000000 0.000000 0.000000 0.000000
 15   0.000005 0.001564 3.638375 -0.000010 -1.284244 3.140806
 16   8.842831 0.000000 -0.000002 0.330661 0.620804 0.637812
 17   9.341934 0.000000 -0.000001 0.000000 0.000000 -0.598700
 18   11.168404 -0.000001 0.000002 -2.632727 -0.240215 0.166566
 19   0.000005 0.001585 -3.638375 -0.000010 1.284244 3.140787
 20   8.842831 0.000000 0.000001 -0.010562 -0.749872 -0.154598
 21   9.341937 0.000000 -0.000001 0.000000 0.000000 -1.048844
 22   11.168404 -0.000001 0.000001 1.779363 -0.404736 -0.088220
 23   1.977383 0.000000 0.000000 -0.311465 0.030368 -0.098716
 24   3.723980 2.768054 -0.049087 0.000001 -3.141591 -1.570794
 25   12.421014 0.304721 4.492689 -0.091859 -0.075839 1.616818
 26   19.916998 1.704573 4.956909 2.262592 1.451744 0.734330
time 32
  0   1.324849 -2.352476 25.748390 -0.042236 0.131116 -1.616385
  1   -0.369786 0.597676 9.745319 -0.000032 -1.487084 -1.570770
  2   -0.000008 0.000010 5.615750 -0.268811 3.289168 -0.970116
  3   15.693467 0.000000 0.000000 0.000000 0.000000 -0.700522
  4   22.146629 -0.000001 0.000000 0.071121 0.063599 -0.155072
  5   3.310129 5.734393 0.000000 0.000000 0.000000 1.570796
  6   0.000008 -0.000006 -5.615750 0.225311 2.921082 -0.118235
  7   15.693467 0.000000 0.000000 0.000000 0.000000 -0.762411
  8   22.146629 0.000000 0.000000 0.665348 0.177784 0.734685
  9   3.310129 5.734393 0.000000 0.000000 0.000000 1.570796
 10   1.380257 -0.004728 0.113287 0.225076 -0.030002 -0.037838
 11   5.939814 -0.004730 0.000000 -0.039815 0.018888 0.016732
 12   5.939809 -0.003975 0.000000 -0.046024 0.000060 0.027796
 13   4.991439 -0.003975 0.000000 0.000000 0.000000 0.039810
 14   4.991436 -0.001575 0.000000 0.000000 0.000000 0.000000
 15   0.000005 0.001564 3.638375 -0.000010 -1.284244 3.140806
 16   8.842831 0.000000 -0.000002 0.092724 0.814016 0.260604
 17   9.341934 0.000000 -0.000001 0.000000 0.000000 -0.257730
 18   11.168404 -0.000001 0.000002 -2.864897 -0.219160 0.358154
 19   0.000005 0.001585 -3.638375 -0.000010 1.284244 3.140787
 20   8.842831 0.000000 0.000001 -0.130694 -0.753855 -0.108276
 21   9.341937 0.000000 -0.000001 0.000000 0.000000 -1.109932
 22   11.168404 -0.000001 0.000001 1.669923 -0.382307 -0.076187
 23   1.977383 0.000000 0.000000 -0.155838 0.036903 -0.139574
 24   3.723980 2.768054 -0.049087 0.000001 -3.141591 -1.570794
 25   12.421014 0.304721 4.492689 -0.091859 -0.075839 1.616818
 26   19.916998 1.704573 4.956909 2.262592 1.451744 0.734330
time 33
  0   2.123661 -2.429960 25.807201 -0.029649 0.149178 -1.704496
  1   -0.576824 0.566425 9.745319 -0.000032 -1.491025 -1.570770
  2   -0.000008 0.000010 5.615750 -0.258745 3.304501 -0.979960
  3   15.693467 0.000000 0.000000 0.000000 0.000000 -0.723855
  4   22.146629 -0.000001 0.000000 -0.001944 0.035811 -0.130054
  5   3.310129 5.734393 0.000000 0.000000 0.000000 1.570796
  6   0.000008 -0.000006 -5.615750 0.183413 2.867872 -0.171115
  7   15.693467 0.000000 0.000000 0.000000 0.000000 -0.776255
  8   22.146629 0.000000 0.000000 0.607472 0.216221 0.712754
  9   3.310129 5.734393 0.000000 0.000000 0.000000 1.570796
 10   1.380257 -0.004728 0.109380 0.181083 -0.030270 -0.029709
 11   5.939814 -0.004730 0.000000 -0.092008 0.022339 0.040080
 12   5.939809 -0.003975 0.000000 -0.055964 0.000048 0.027147
 13   4.991439 -0.003975 0.000000 0.000000 0.000000 0.038667
 14   4.991436 -0.001575 0.000000 0.000000 0.000000 0.000000
 15   0.000005 0.001564 3.638375 -0.000010 -1.284244 3.140806
 16   8.842831 0.000000 -0.000002 -0.045722 0.878947 -0.017692
 17   9.341934 0.000000 -0.000001 0.000000 0.000000 -0.551548
 18   11.168404 -0.000001 0.000002 -3.119032 -0.014163 0.762950
 19   0.000005 0.001585 -3.638375 -0.000010 1.284244 3.140787
 20   8.842831 0.000000 0.000001 -0.248004 -0.745534 -0.062049
 21   9.341937 0.000000 -0.000001 0.000000 0.000000 -1.168089
 22   11.168404 -0.000001 0.000001 1.563466 -0.356083 -0.066034
 23   1.977383 0.000000 0.000000 0.005551 0.049235 -0.173969
 24   3.723980 2.768054 -0.049087 0.000001 -3.141591 -1.570794
 25   12.421014 0.304721 4.492689 -0.091859 -0.075839 1.616818
 26   19.916998 1.704573 4.956909 2.262592 1.451744 0.734330
time 34
  0   2.794361 -2.528577 25.885614 -0.020232 0.163991 -1.784073
  1   -0.783861 0.546893 9.745319 -0.000032 -1.494894 -1.570770
  2   -0.000008 0.000010 5.615750 -0.249254 3.318013 -0.985025
  3   15.693467 0.000000 0.000000 0.000000 0.000000 -0.739647
  4   22.146629 -0.000001 0.000000 -0.066185 0.012185 -0.109656
  5   3.310129 5.734393 0.000000 0.000000 0.000000 1.570796
  6   0.000008 -0.000006 -5.615750 0.146021 2.824824 -0.222522
  7   15.693467 0.000000 0.000000 0.000000 0.000000 -0.784964
  8   22.146629 0.000000 0.000000 0.550894 0.249807 0.686683
  9   3.310129 5.734393 0.000000 0.000000 0.000000 1.570796
 10   1.380257 -0.004728 0.101568 0.138269 -0.030700 -0.020480
 11   5.939814 -0.004730 0.000000 -0.138855 0.026378 0.061344
 12   5.939809 -0.003975 0.000000 -0.064755 0.000048 0.026897
 13   4.991439 -0.003975 0.000000 0.000000 0.000000 0.037456
 14   4.991436 -0.001575 0.000000 0.000000 0.000000 0.000000
 15   0.000005 0.001564 3.638375 -0.000010 -1.284244 3.140806
 16   8.842831 0.000000 -0.000002 -0.334868 0.736154 -0.366533
 17   9.341934 0.000000 -0.000001 0.000000 0.000000 -1.139019
 18   11.168404 -0.000001 0.000002 -3.310709 0.111687 0.792089
 19   0.000005 0.001585 -3.638375 -0.000010 1.284244 3.140787
 20   8.842831 0.000000 0.000001 -0.353784 -0.726855 -0.021445
 21   9.341937 0.000000 -0.000001 0.000000 0.000000 -1.214522
 22   11.168404 -0.000001 0.000001 1.468382 -0.325517 -0.058043
 23   1.977383 0.000000 0.000000 0.165459 0.064246 -0.200114
 24   3.723980 2.768054 -0.049087 0.000001 -3.141591 -1.570794
 25   12.421014 0.304721 4.492689 -0.091859 -0.075839 1.616818
 26   19.916998 1.704573 4.956909 2.262592 1.451744 0.734330
time 35
  0   3.269127 -2.620149 25.944426 -0.013799 0.174026 -1.847640
  1   -0.971367 0.542986 9.745319 -0.000032 -1.498714 -1.570770
  2   -0.000008 0.000010 5.615750 -0.241106 3.328650 -0.984739
  3   15.693467 0.000000 0.000000 0.000000 0.000000 -0.747472
  4   22.146629 -0.000001 0.000000 -0.114421 -0.006167 -0.095249
  5   3.310129 5.734393 0.000000 0.000000 0.000000 1.570796
  6   0.000008 -0.000006 -5.615750 0.117642 2.794816 -0.263620
  7   15.693467 0.000000 0.000000 0.000000 0.000000 -0.787346
  8   22.146629 0.000000 0.000000 0.502156 0.275196 0.660436
  9   3.310129 5.734393 0.000000 0.000000 0.000000 1.570796
 10   1.384163 -0.004728 0.097661 0.098012 -0.030914 -0.011315
 11   5.939814 -0.004730 0.000000 -0.177694 0.030381 0.079013
 12   5.939809 -0.003975 0.000000 -0.071773 0.000048 0.026672
 13   4.991439 -0.003975 0.000000 0.000000 0.000000 0.036178
 14   4.991436 -0.001575 0.000000 0.000000 0.000000 0.000000
 15   0.000005 0.001564 3.638375 -0.000010 -1.284244 3.140806
 16   8.842831 0.000000 -0.000002 -0.700826 0.044705 -1.139386
 17   9.341934 0.000000 -0.000001 0.000000 0.000000 -0.405664
 18   11.168404 -0.000001 0.000002 -3.503913 0.118386 0.552002
 19   0.000005 0.001585 -3.638375 -0.000010 1.284244 3.140787
 20   8.842831 0.000000 0.000001 -0.441746 -0.702775 0.010294
 21   9.341937 0.000000 -0.000001 0.000000 0.000000 -1.240436
 22   11.168404 -0.000001 0.000001 1.392874 -0.290397 -0.051933
 23   1.977383 0.000000 0.000000 0.316539 0.078771 -0.216914
 24   3.723980 2.768054 -0.049087 0.000001 -3.141591 -1.570794
 25   12.421014 0.304721 4.492689 -0.091859 -0.075839 1.616818
 26   19.916998 1.704573 4.956909 2.262592 1.451744 0.734330
time 36
  0   3.502741 -2.711721 26.022839 -0.009976 0.177466 -1.887908
  1   -1.115903 0.542986 9.745319 -0.000032 -1.502486 -1.570770
  2   -0.000008 0.000010 5.615750 -0.234874 3.335933 -0.978144
  3   15.693467 0.000000 0.000000 0.000000 0.000000 -0.746334
  4   22.146629 -0.000001 0.000000 -0.139325 -0.018574 -0.088572
  5   3.310129 5.734393 0.000000 0.000000 0.000000 1.570796
  6   0.000008 -0.000006 -5.615750 0.102589 2.779572 -0.285431
  7   15.693467 0.000000 0.000000 0.000000 0.000000 -0.783624
  8   22.146629 0.000000 0.000000 0.468762 0.289348 0.639914
  9   3.310129 5.734393 0.000000 0.000000 0.000000 1.570796
 10   1.384163 -0.004728 0.093755 0.061593 -0.030646 -0.003381
 11   5.939814 -0.004730 0.000000 -0.205877 0.033509 0.091710
 12   5.939809 -0.003975 0.000000 -0.076430 0.000036 0.026097
 13   4.991439 -0.003975 0.000000 0.000000 0.000000 0.034765
 14   4.991436 -0.001575 0.000000 0.000000 0.000000 0.000000
 15   0.000005 0.001564 3.638375 -0.000010 -1.284244 3.140806
 16   8.842831 0.000000 -0.000002 -0.641205 -0.286927 -1.162005
 17   9.341934 0.000000 -0.000001 0.000000 0.000000 -0.534983
 18   11.168404 -0.000001 0.000002 -3.384629 -0.296393 -0.611038
 19   0.000005 0.001585 -3.638375 -0.000010 1.284244 3.140787
 20   8.842831 0.000000 0.000001 -0.508666 -0.679139 0.032788
 21   9.341937 0.000000 -0.000001 0.000000 0.000000 -1.236839
 22   11.168404 -0.000001 0.000001 1.345146 -0.250387 -0.046762
 23   1.977383 0.000000 0.000000 0.451550 0.090202 -0.223674
 24   3.723980 2.768054 -0.049087 0.000001 -3.141591 -1.570794
 25   12.421014 0.304721 4.492689 -0.091859 -0.075839 1.616818
 26   19.916998 1.704573 4.956909 2.262592 1.451744 0.734330
time 37
  0   3.570565 -2.803293 26.120855 -0.007552 0.176319 -1.912261
  1   -1.194030 0.542986 9.745319 -0.000032 -1.506209 -1.570770
  2   -0.000008 0.000010 5.615750 -0.229697 3.341587 -0.967344
  3   15.693467 0.000000 0.000000 0.000000 0.000000 -0.741070
  4   22.146629 -0.000001 0.000000 -0.147701 -0.027763 -0.085644
  5   3.310129 5.734393 0.000000 0.000000 0.000000 1.570796
  6   0.000008 -0.000006 -5.615750 0.097412 2.773915 -0.290832
  7   15.693467 0.000000 0.000000 0.000000 0.000000 -0.775064
  8   22.146629 0.000000 0.000000 0.446875 0.296010 0.625117
  9   3.310129 5.734393 0.000000 0.000000 0.000000 1.570796
 10   1.384163 -0.004728 0.085942 0.030289 -0.029707 0.002027
 11   5.939814 -0.004730 0.000000 -0.220723 0.034959 0.098020
 12   5.939809 -0.003975 0.000000 -0.078114 -0.000012 0.024798
 13   4.991439 -0.003975 0.000000 0.000000 0.000000 0.033217
 14   4.991436 -0.001575 0.000000 0.000000 0.000000 0.000000
 15   0.000005 0.001564 3.638375 -0.000010 -1.284244 3.140806
 16   8.842831 0.000000 -0.000002 -0.651995 -0.295764 -1.056749
 17   9.341934 0.000000 -0.000001 0.000000 0.000000 -0.740975
 18   11.168404 -0.000001 0.000002 -3.327804 -0.298211 -0.741744
 19   0.000005 0.001585 -3.638375 -0.000010 1.284244 3.140787
 20   8.842831 0.000000 0.000001 -0.531886 -0.679050 0.008292
 21   9.341937 0.000000 -0.000001 0.000000 0.000000 -1.107734
 22   11.168404 -0.000001 0.000001 1.401357 -0.173487 -0.029088
 23   1.977383 0.000000 0.000000 0.563195 0.096830 -0.219896
 24   3.723980 2.768054 -0.049087 0.000001 -3.141591 -1.570794
 25   12.421014 0.304721 4.492689 -0.091859 -0.075839 1.616818
 26   19.916998 1.704573 4.956909 2.262592 1.451744 0.734330
time 38
  0   3.578101 -2.894866 26.199268 -0.005594 0.173357 -1.932970
  1   -1.233094 0.539080 9.745319 -0.000032 -1.509909 -1.570770
  2   -0.000008 0.000010 5.615750 -0.224520 3.347433 -0.954824
  3   15.693467 0.000000 0.000000 0.000000 0.000000 -0.736090
  4   22.146629 -0.000001 0.000000 -0.151664 -0.036678 -0.082306
  5   3.310129 5.734393 0.000000 0.000000 0.000000 1.570796
  6   0.000008 -0.000006 -5.615750 0.095590 2.770751 -0.289920
  7   15.693467 0.000000 0.000000 0.000000 0.000000 -0.764123
  8   22.146629 0.000000 0.000000 0.427244 0.300738 0.611905
  9   3.310129 5.734393 0.000000 0.000000 0.000000 1.570796
 10   1.384163 -0.004728 0.082036 0.002655 -0.028419 0.005880
 11   5.939814 -0.004730 0.000000 -0.225908 0.035019 0.099837
 12   5.939809 -0.003975 0.000000 -0.077642 -0.000072 0.023062
 13   4.991439 -0.003975 0.000000 0.000000 0.000000 0.031552
 14   4.991436 -0.001575 0.000000 0.000000 0.000000 0.000000
 15   0.000005 0.001564 3.638375 -0.000010 -1.284244 3.140806
 16   8.842831 0.000000 -0.000002 -0.659768 -0.280415 -0.966347
 17   9.341934 0.000000 -0.000001 0.000000 0.000000 -0.931961
 18   11.168404 -0.000001 0.000002 -3.312905 -0.274955 -0.751031
 19   0.000005 0.001585 -3.638375 -0.000010 1.284244 3.140787
 20   8.842831 0.000000 0.000001 -0.516889 -0.703661 -0.062811
 21   9.341937 0.000000 -0.000001 0.000000 0.000000 -0.873106
 22   11.168404 -0.000001 0.000001 1.549483 -0.071333 0.011900
 23   1.977383 0.000000 0.000000 0.654382 0.100548 -0.209508
 24   3.723980 2.768054 -0.049087 0.000001 -3.141591 -1.570794
 25   12.421014 0.304721 4.492689 -0.091859 -0.075839 1.616818
 26   19.916998 1.704573 4.956909 2.262592 1.451744 0.734330
time 39
  0   3.540421 -3.000526 26.297285 -0.004009 0.168865 -1.950419
  1   -1.260438 0.527361 9.745319 -0.000032 -1.513560 -1.570770
  2   -0.000008 0.000010 5.615750 -0.219727 3.353374 -0.940487
  3   15.693467 0.000000 0.000000 0.000000 0.000000 -0.729759
  4   22.146629 -0.000001 0.000000 -0.151664 -0.045173 -0.080019
  5   3.310129 5.734393 0.000000 0.000000 0.000000 1.570796
  6   0.000008 -0.000006 -5.615750 0.096069 2.769889 -0.285011
  7   15.693467 0.000000 0.000000 0.000000 0.000000 -0.752437
  8   22.146629 0.000000 0.000000 0.409757 0.303593 0.600015
  9   3.310129 5.734393 0.000000 0.000000 0.000000 1.570796
 10   1.384163 -0.004728 0.078129 -0.023768 -0.027211 0.009863
 11   5.939814 -0.004730 0.000000 -0.227151 0.034492 0.100047
 12   5.939809 -0.003975 0.000000 -0.076290 -0.000132 0.021400
 13   4.991439 -0.003975 0.000000 0.000000 0.000000 0.029854
 14   4.991436 -0.001575 0.000000 0.000000 0.000000 0.000000
 15   0.000005 0.001564 3.638375 -0.000010 -1.284244 3.140806
 16   8.842831 0.000000 -0.000002 -0.666718 -0.243577 -0.881246
 17   9.341934 0.000000 -0.000001 0.000000 0.000000 -1.114828
 18   11.168404 -0.000001 0.000002 -3.311282 -0.235717 -0.696046
 19   0.000005 0.001585 -3.638375 -0.000010 1.284244 3.140787
 20   8.842831 0.000000 0.000001 -0.503989 -0.723933 -0.121525
 21   9.341937 0.000000 -0.000001 0.000000 0.000000 -0.698301
 22   11.168404 -0.000001 0.000001 1.664517 -0.001811 0.051665
 23   1.977383 0.000000 0.000000 0.731667 0.104844 -0.197877
 24   3.723980 2.768054 -0.049087 0.000001 -3.141591 -1.570794
 25   12.421014 0.304721 4.492689 -0.091859 -0.075839 1.616818
 26   19.916998 1.704573 4.956909 2.262592 1.451744 0.734330
time 40
  0   3.457525 -3.099142 26.395304 -0.002797 0.162844 -1.964801
  1   -1.283877 0.507829 9.745319 -0.000032 -1.517162 -1.570770
  2   -0.000008 0.000010 5.615750 -0.215221 3.359411 -0.924335
  3   15.693467 0.000000 0.000000 0.000000 0.000000 -0.722076
  4   22.146629 -0.000001 0.000000 -0.148000 -0.053296 -0.078738
  5   3.310129 5.734393 0.000000 0.000000 0.000000 1.570796
  6   0.000008 -0.000006 -5.615750 0.098658 2.770943 -0.276454
  7   15.693467 0.000000 0.000000 0.000000 0.000000 -0.740230
  8   22.146629 0.000000 0.000000 0.394301 0.304852 0.589446
  9   3.310129 5.734393 0.000000 0.000000 0.000000 1.570796
 10   1.384163 -0.004728 0.074223 -0.049180 -0.026057 0.014041
 11   5.939814 -0.004730 0.000000 -0.224772 0.033413 0.098785
 12   5.939809 -0.003975 0.000000 -0.074133 -0.000192 0.019826
 13   4.991439 -0.003975 0.000000 0.000000 0.000000 0.028121
 14   4.991436 -0.001575 0.000000 0.000000 0.000000 0.000000
 15   0.000005 0.001564 3.638375 -0.000010 -1.284244 3.140806
 16   8.842831 0.000000 -0.000002 -0.671381 -0.181716 -0.803162
 17   9.341934 0.000000 -0.000001 0.000000 0.000000 -1.288592
 18   11.168404 -0.000001 0.000002 -3.294282 -0.185568 -0.632806
 19   0.000005 0.001585 -3.638375 -0.000010 1.284244 3.140787
 20   8.842831 0.000000 0.000001 -0.513100 -0.726678 -0.135917
 21   9.341937 0.000000 -0.000001 0.000000 0.000000 -0.639477
 22   11.168404 -0.000001 0.000001 1.687076 0.013536 0.055238
 23   1.977383 0.000000 0.000000 0.792617 0.111356 -0.185650
 24   3.723980 2.768054 -0.049087 0.000001 -3.141591 -1.570794
 25   12.421014 0.304721 4.492689 -0.091859 -0.075839 1.616818
 26   19.916998 1.704573 4.956909 2.262592 1.451744 0.734330
time 41
  0   3.329414 -3.204802 26.493320 -0.001865 0.155581 -1.976594
  1   -1.299502 0.488297 9.745319 -0.000032 -1.520765 -1.570770
  2   -0.000008 0.000010 5.615750 -0.211099 3.365544 -0.906749
  3   15.693467 0.000000 0.000000 0.000000 0.000000 -0.713113
  4   22.146629 -0.000001 0.000000 -0.141082 -0.061097 -0.078464
  5   3.310129 5.734393 0.000000 0.000000 0.000000 1.570796
  6   0.000008 -0.000006 -5.615750 0.102972 2.773819 -0.264532
  7   15.693467 0.000000 0.000000 0.000000 0.000000 -0.727428
  8   22.146629 0.000000 0.000000 0.380819 0.304637 0.580110
  9   3.310129 5.734393 0.000000 0.000000 0.000000 1.570796
 10   1.384163 -0.004728 0.066410 -0.073583 -0.024930 0.018316
 11   5.939814 -0.004730 0.000000 -0.219160 0.031855 0.096223
 12   5.939809 -0.003975 0.000000 -0.071250 -0.000240 0.018302
 13   4.991439 -0.003975 0.000000 0.000000 0.000000 0.026338
 14   4.991436 -0.001575 0.000000 0.000000 0.000000 0.000000
 15   0.000005 0.001564 3.638375 -0.000010 -1.284244 3.140806
 16   8.842831 0.000000 -0.000002 -0.672113 -0.090552 -0.733588
 17   9.341934 0.000000 -0.000001 0.000000 0.000000 -1.448417
 18   11.168404 -0.000001 0.000002 -3.238985 -0.130634 -0.613790
 19   0.000005 0.001585 -3.638375 -0.000010 1.284244 3.140787
 20   8.842831 0.000000 0.000001 -0.525758 -0.724819 -0.137823
 21   9.341937 0.000000 -0.000001 0.000000 0.000000 -0.640477
 22   11.168404 -0.000001 0.000001 1.673000 0.003375 0.043299
 23   1.977383 0.000000 0.000000 0.835013 0.121863 -0.173522
 24   3.723980 2.768054 -0.049087 0.000001 -3.141591 -1.570794
 25   12.421014 0.304721 4.492689 -0.091859 -0.075839 1.616818
 26   19.916998 1.704573 4.956909 2.262592 1.451744 0.734330
time 42
  0   3.171159 -3.317506 26.591337 -0.001305 0.147076 -1.986086
  1   -1.311221 0.460953 9.745319 -0.000032 -1.524319 -1.570770
  2   -0.000008 0.000010 5.615750 -0.207264 3.371869 -0.887634
  3   15.693467 0.000000 0.000000 0.000000 0.000000 -0.702940
  4   22.146629 -0.000001 0.000000 -0.131248 -0.068626 -0.079104
  5   3.310129 5.734393 0.000000 0.000000 0.000000 1.570796
  6   0.000008 -0.000006 -5.615750 0.108725 2.778229 -0.249664
  7   15.693467 0.000000 0.000000 0.000000 0.000000 -0.714179
  8   22.146629 0.000000 0.000000 0.368974 0.303163 0.571918
  9   3.310129 5.734393 0.000000 0.000000 0.000000 1.570796
 10   1.384163 -0.004728 0.062504 -0.097145 -0.023803 0.022720
 11   5.939814 -0.004730 0.000000 -0.210654 0.029890 0.092456
 12   5.939809 -0.003975 0.000000 -0.067728 -0.000276 0.016853
 13   4.991439 -0.003975 0.000000 0.000000 0.000000 0.024539
 14   4.991436 -0.001575 0.000000 0.000000 0.000000 0.000000
 15   0.000005 0.001564 3.638375 -0.000010 -1.284244 3.140806
 16   8.842831 0.000000 -0.000002 -0.667175 0.048984 -0.663118
 17   9.341934 0.000000 -0.000001 0.000000 0.000000 -1.608323
 18   11.168404 -0.000001 0.000002 -3.133645 -0.064120 -0.639931
 19   0.000005 0.001585 -3.638375 -0.000010 1.284244 3.140787
 20   8.842831 0.000000 0.000001 -0.533256 -0.730396 -0.146497
 21   9.341937 0.000000 -0.000001 0.000000 0.000000 -0.698301
 22   11.168404 -0.000001 0.000001 1.664517 -0.001811 0.051665
 23   1.977383 0.000000 0.000000 0.862343 0.134611 -0.159455
 24   3.723980 2.768054 -0.049087 0.000001 -3.141591 -1.570794
 25   12.421014 0.304721 4.492689 -0.091859 -0.075839 1.616818
 26   19.916998 1.704573 4.956909 2.262592 1.451744 0.734330
time 43
  0   2.982760 -3.430211 26.689354 -0.000839 0.137615 -1.993372
  1   -1.322940 0.429702 9.745319 -0.000032 -1.527873 -1.570770
  2   -0.000008 0.000010 5.615750 -0.203909 3.378385 -0.867277
  3   15.693467 0.000000 0.000000 0.000000 0.000000 -0.691558
  4   22.146629 -0.000001 0.000000 -0.118834 -0.075932 -0.080613
  5   3.310129 5.734393 0.000000 0.000000 0.000000 1.570796
  6   0.000008 -0.000006 -5.615750 0.115820 2.784078 -0.232130
  7   15.693467 0.000000 0.000000 0.000000 0.000000 -0.700334
  8   22.146629 0.000000 0.000000 0.358763 0.300646 0.564608
  9   3.310129 5.734393 0.000000 0.000000 0.000000 1.570796
 10   1.384163 -0.004728 0.058598 -0.119966 -0.022703 0.027221
 11   5.939814 -0.004730 0.000000 -0.199608 0.027601 0.087656
 12   5.939809 -0.003975 0.000000 -0.063645 -0.000300 0.015454
 13   4.991439 -0.003975 0.000000 0.000000 0.000000 0.022706
 14   4.991436 -0.001575 0.000000 0.000000 0.000000 0.000000
 15   0.000005 0.001564 3.638375 -0.000010 -1.284244 3.140806
 16   8.842831 0.000000 -0.000002 -0.644039 0.242009 -0.581899
 17   9.341934 0.000000 -0.000001 0.000000 0.000000 -1.763555
 18   11.168404 -0.000001 0.000002 -2.994209 0.019907 -0.669119
 19   0.000005 0.001585 -3.638375 -0.000010 1.284244 3.140787
 20   8.842831 0.000000 0.000001 -0.542044 -0.739160 -0.152692
 21   9.341937 0.000000 -0.000001 0.000000 0.000000 -0.801492
 22   11.168404 -0.000001 0.000001 1.674212 0.006621 0.084474
 23   1.977383 0.000000 0.000000 0.880580 0.146642 -0.141264
 24   3.723980 2.768054 -0.049087 0.000001 -3.141591 -1.570794
 25   12.421014 0.304721 4.492689 -0.091859 -0.075839 1.616818
 26   19.916998 1.704573 4.956909 2.262592 1.451744 0.734330
time 44
  0   2.771753 -3.549959 26.806974 -0.000653 0.127294 -1.999029
  1   -1.326847 0.398451 9.745319 -0.000032 -1.531403 -1.570770
  2   -0.000008 0.000010 5.615750 -0.200937 3.385093 -0.845677
  3   15.693467 0.000000 0.000000 0.000000 0.000000 -0.679038
  4   22.146629 -0.000001 0.000000 -0.104251 -0.083065 -0.082946
  5   3.310129 5.734393 0.000000 0.000000 0.000000 1.570796
  6   0.000008 -0.000006 -5.615750 0.123778 2.791268 -0.212283
  7   15.693467 0.000000 0.000000 0.000000 0.000000 -0.685894
  8   22.146629 0.000000 0.000000 0.349794 0.297208 0.558090
  9   3.310129 5.734393 0.000000 0.000000 0.000000 1.570796
 10   1.384163 -0.004728 0.054691 -0.142114 -0.021576 0.031852
 11   5.939814 -0.004730 0.000000 -0.186378 0.025084 0.081938
 12   5.939809 -0.003975 0.000000 -0.059077 -0.000324 0.014092
 13   4.991439 -0.003975 0.000000 0.000000 0.000000 0.020855
 14   4.991436 -0.001575 0.000000 0.000000 0.000000 0.000000
 15   0.000005 0.001564 3.638375 -0.000010 -1.284244 3.140806
 16   8.842831 0.000000 -0.000002 -0.588259 0.464151 -0.481494
 17   9.341934 0.000000 -0.000001 0.000000 0.000000 -1.883362
 18   11.168404 -0.000001 0.000002 -2.843217 0.115037 -0.689413
 19   0.000005 0.001585 -3.638375 -0.000010 1.284244 3.140787
 20   8.842831 0.000000 0.000001 -0.560508 -0.741462 -0.141254
 21   9.341937 0.000000 -0.000001 0.000000 0.000000 -0.932396
 22   11.168404 -0.000001 0.000001 1.685864 0.016065 0.121420
 23   1.977383 0.000000 0.000000 0.890941 0.158166 -0.119692
 24   3.723980 2.768054 -0.049087 0.000001 -3.141591 -1.570794
 25   12.421014 0.304721 4.492689 -0.091859 -0.075839 1.616818
 26   19.916998 1.704573 4.956909 2.262592 1.451744 0.734330
time 45
  0   2.530602 -3.662663 26.904991 -0.000559 0.116208 -2.003152
  1   -1.330753 0.359387 9.745319 -0.000032 -1.534933 -1.570770
  2   -0.000008 0.000010 5.615750 -0.198445 3.391993 -0.823026
  3   15.693467 0.000000 0.000000 0.000000 0.000000 -0.665522
  4   22.146629 -0.000001 0.000000 -0.087873 -0.089999 -0.086056
  5   3.310129 5.734393 0.000000 0.000000 0.000000 1.570796
  6   0.000008 -0.000006 -5.615750 0.132407 2.799609 -0.190542
  7   15.693467 0.000000 0.000000 0.000000 0.000000 -0.670785
  8   22.146629 0.000000 0.000000 0.341953 0.293063 0.552189
  9   3.310129 5.734393 0.000000 0.000000 0.000000 1.570796
 10   1.384163 -0.004728 0.046878 -0.163723 -0.020449 0.036580
 11   5.939814 -0.004730 0.000000 -0.171336 0.022399 0.075437
 12   5.939809 -0.003975 0.000000 -0.054101 -0.000324 0.012768
 13   4.991439 -0.003975 0.000000 0.000000 0.000000 0.018972
 14   4.991436 -0.001575 0.000000 0.000000 0.000000 0.000000
 15   0.000005 0.001564 3.638375 -0.000010 -1.284244 3.140806
 16   8.842831 0.000000 -0.000002 -0.493980 0.678293 -0.353021
 17   9.341934 0.000000 -0.000001 0.000000 0.000000 -1.944290
 18   11.168404 -0.000001 0.000002 -2.700248 0.211410 -0.694081
 19   0.000005 0.001585 -3.638375 -0.000010 1.284244 3.140787
 20   8.842831 0.000000 0.000001 -0.582277 -0.741727 -0.122287
 21   9.341937 0.000000 -0.000001 0.000000 0.000000 -1.079221
 22   11.168404 -0.000001 0.000001 1.699194 0.025931 0.161844
 23   1.977383 0.000000 0.000000 0.894642 0.169436 -0.095287
 24   3.723980 2.768054 -0.049087 0.000001 -3.141591 -1.570794
 25   12.421014 0.304721 4.492689 -0.091859 -0.075839 1.616818
 26   19.916998 1.704573 4.956909 2.262592 1.451744 0.734330
time 46
  0   2.281916 -3.782411 27.022612 -0.000653 0.104549 -2.006220
  1   -1.330753 0.320323 9.745319 -0.000032 -1.538439 -1.570770
  2   -0.000008 0.000010 5.615750 -0.196431 3.399085 -0.799419
  3   15.693467 0.000000 0.000000 0.000000 0.000000 -0.650939
  4   22.146629 -0.000001 0.000000 -0.070111 -0.096810 -0.089852
  5   3.310129 5.734393 0.000000 0.000000 0.000000 1.570796
  6   0.000008 -0.000006 -5.615750 0.141515 2.808813 -0.167257
  7   15.693467 0.000000 0.000000 0.000000 0.000000 -0.655005
  8   22.146629 0.000000 0.000000 0.334959 0.288366 0.546640
  9   3.310129 5.734393 0.000000 0.000000 0.000000 1.570796
 10   1.384163 -0.004728 0.042972 -0.184861 -0.019241 0.041373
 11   5.939814 -0.004730 0.000000 -0.154820 0.019655 0.068304
 12   5.939809 -0.003975 0.000000 -0.048818 -0.000324 0.011481
 13   4.991439 -0.003975 0.000000 0.000000 0.000000 0.017088
 14   4.991436 -0.001575 0.000000 0.000000 0.000000 0.000000
 15   0.000005 0.001564 3.638375 -0.000010 -1.284244 3.140806
 16   8.842831 0.000000 -0.000002 -0.374463 0.842574 -0.209095
 17   9.341934 0.000000 -0.000001 0.000000 0.000000 -1.937566
 18   11.168404 -0.000001 0.000002 -2.584975 0.297639 -0.682926
 19   0.000005 0.001585 -3.638375 -0.000010 1.284244 3.140787
 20   8.842831 0.000000 0.000001 -0.601143 -0.744649 -0.105893
 21   9.341937 0.000000 -0.000001 0.000000 0.000000 -1.230044
 22   11.168404 -0.000001 0.000001 1.713643 0.035754 0.205088
 23   1.977383 0.000000 0.000000 0.892897 0.180659 -0.068645
 24   3.723980 2.768054 -0.049087 0.000001 -3.141591 -1.570794
 25   12.421014 0.304721 4.492689 -0.091859 -0.075839 1.616818
 26   19.916998 1.704573 4.956909 2.262592 1.451744 0.734330
time 47
  0   2.010621 -3.902159 27.120628 -0.000932 0.092508 -2.008425
  1   -1.330753 0.281260 9.745319 -0.000032 -1.541969 -1.570770
  2   -0.000008 0.000010 5.615750 -0.194993 3.406368 -0.775047
  3   15.693467 0.000000 0.000000 0.000000 0.000000 -0.635360
  4   22.146629 -0.000001 0.000000 -0.051303 -0.103497 -0.094289
  5   3.310129 5.734393 0.000000 0.000000 0.000000 1.570796
  6   0.000008 -0.000006 -5.615750 0.150911 2.818880 -0.142781
  7   15.693467 0.000000 0.000000 0.000000 0.000000 -0.638481
  8   22.146629 0.000000 0.000000 0.328641 0.283270 0.541267
  9   3.310129 5.734393 0.000000 0.000000 0.000000 1.570796
 10   1.384163 -0.004728 0.039066 -0.205696 -0.018007 0.046230
 11   5.939814 -0.004730 0.000000 -0.137204 0.016886 0.060675
 12   5.939809 -0.003975 0.000000 -0.043281 -0.000312 0.010219
 13   4.991439 -0.003975 0.000000 0.000000 0.000000 0.015171
 14   4.991436 -0.001575 0.000000 0.000000 0.000000 0.000000
 15   0.000005 0.001564 3.638375 -0.000010 -1.284244 3.140806
 16   8.842831 0.000000 -0.000002 -0.270125 0.933087 -0.098613
 17   9.341934 0.000000 -0.000001 0.000000 0.000000 -1.872701
 18   11.168404 -0.000001 0.000002 -2.519650 0.363483 -0.661355
 19   0.000005 0.001585 -3.638375 -0.000010 1.284244 3.140787
 20   8.842831 0.000000 0.000001 -0.611060 -0.755538 -0.101604
 21   9.341937 0.000000 -0.000001 0.000000 0.000000 -1.373139
 22   11.168404 -0.000001 0.000001 1.728559 0.044987 0.250400
 23   1.977383 0.000000 0.000000 0.886976 0.192090 -0.040313
 24   3.723980 2.768054 -0.049087 0.000001 -3.141591 -1.570794
 25   12.421014 0.304721 4.492689 -0.091859 -0.075839 1.616818
 26   19.916998 1.704573 4.956909 2.262592 1.451744 0.734330
time 48
  0   1.739327 -4.028952 27.238249 -0.001119 0.080275 -2.010055
  1   -1.330753 0.238290 9.745319 -0.000032 -1.545499 -1.570770
  2   -0.000008 0.000010 5.615750 -0.193939 3.413842 -0.750006
  3   15.693467 0.000000 0.000000 0.000000 0.000000 -0.618927
  4   22.146629 -0.000001 0.000000 -0.031896 -0.110084 -0.099274
  5   3.310129 5.734393 0.000000 0.000000 0.000000 1.570796
  6   0.000008 -0.000006 -5.615750 0.160307 2.829426 -0.117393
  7   15.693467 0.000000 0.000000 0.000000 0.000000 -0.621213
  8   22.146629 0.000000 0.000000 0.322718 0.277959 0.535807
  9   3.310129 5.734393 0.000000 0.000000 0.000000 1.570796
 10   1.384163 -0.004728 0.035159 -0.226296 -0.016665 0.051153
 11   5.939814 -0.004730 0.000000 -0.118841 0.014190 0.052701
 12   5.939809 -0.003975 0.000000 -0.037590 -0.000300 0.008970
 13   4.991439 -0.003975 0.000000 0.000000 0.000000 0.013270
 14   4.991436 -0.001575 0.000000 0.000000 0.000000 0.000000
 15   0.000005 0.001564 3.638375 -0.000010 -1.284244 3.140806
 16   8.842831 0.000000 -0.000002 -0.231902 0.940343 -0.097493
 17   9.341934 0.000000 -0.000001 0.000000 0.000000 -1.726244
 18   11.168404 -0.000001 0.000002 -2.527386 0.399659 -0.637474
 19   0.000005 0.001585 -3.638375 -0.000010 1.284244 3.140787
 20   8.842831 0.000000 0.000001 -0.605093 -0.779440 -0.119714
 21   9.341937 0.000000 -0.000001 0.000000 0.000000 -1.496515
 22   11.168404 -0.000001 0.000001 1.743474 0.053335 0.296935
 23   1.977383 0.000000 0.000000 0.878043 0.203937 -0.010789
 24   3.723980 2.768054 -0.049087 0.000001 -3.141591 -1.570794
 25   12.421014 0.304721 4.492689 -0.091859 -0.075839 1.616818
 26   19.916998 1.704573 4.956909 2.262592 1.451744 0.734330
time 49
  0   1.460496 -4.148700 27.355869 -0.001399 0.067852 -2.011589
  1   -1.330753 0.195319 9.745319 -0.000032 -1.549053 -1.570770
  2   -0.000008 0.000010 5.615750 -0.193459 3.421317 -0.724392
  3   15.693467 0.000000 0.000000 0.000000 0.000000 -0.601712
  4   22.146629 -0.000001 0.000000 -0.012340 -0.116598 -0.104671
  5   3.310129 5.734393 0.000000 0.000000 0.000000 1.570796
  6   0.000008 -0.000006 -5.615750 0.169511 2.840452 -0.091584
  7   15.693467 0.000000 0.000000 0.000000 0.000000 -0.603051
  8   22.146629 0.000000 0.000000 0.316964 0.272586 0.530258
  9   3.310129 5.734393 0.000000 0.000000 0.000000 1.570796
 10   1.384163 -0.004728 0.031253 -0.246727 -0.015243 0.056140
 11   5.939814 -0.004730 0.000000 -0.100088 0.011613 0.044516
 12   5.939809 -0.003975 0.000000 -0.031823 -0.000276 0.007721
 13   4.991439 -0.003975 0.000000 0.000000 0.000000 0.011353
 14   4.991436 -0.001575 0.000000 0.000000 0.000000 0.000000
 15   0.000005 0.001564 3.638375 -0.000010 -1.284244 3.140806
 16   8.842831 0.000000 -0.000002 -0.261621 0.880900 -0.216859
 17   9.341934 0.000000 -0.000001 0.000000 0.000000 -1.496225
 18   11.168404 -0.000001 0.000002 -2.609997 0.412005 -0.615460
 19   0.000005 0.001585 -3.638375 -0.000010 1.284244 3.140787
 20   8.842831 0.000000 0.000001 -0.573327 -0.820782 -0.173280
 21   9.341937 0.000000 -0.000001 0.000000 0.000000 -1.588314
 22   11.168404 -0.000001 0.000001 1.757550 0.060418 0.343939
 23   1.977383 0.000000 0.000000 0.867417 0.216269 0.019482
 24   3.723980 2.768054 -0.049087 0.000001 -3.141591 -1.570794
 25   12.421014 0.304721 4.492689 -0.091859 -0.075839 1.616818
 26   19.916998 1.704573 4.956909 2.262592 1.451744 0.734330
time 50
  0   1.189202 -4.268448 27.473490 -0.001678 0.055524 -2.013123
  1   -1.330753 0.152349 9.745319 -0.000032 -1.552607 -1.570770
  2   -0.000008 0.000010 5.615750 -0.193555 3.428887 -0.698396
  3   15.693467 0.000000 0.000000 0.000000 0.000000 -0.583714
  4   22.146629 -0.000001 0.000000 0.006955 -0.123037 -0.110388
  5   3.310129 5.734393 0.000000 0.000000 0.000000 1.570796
  6   0.000008 -0.000006 -5.615750 0.178427 2.851573 -0.065565
  7   15.693467 0.000000 0.000000 0.000000 0.000000 -0.584220
  8   22.146629 0.000000 0.000000 0.311210 0.267306 0.524269
  9   3.310129 5.734393 0.000000 0.000000 0.000000 1.570796
 10   1.384163 -0.004728 0.023440 -0.267158 -0.013687 0.061159
 11   5.939814 -0.004730 0.000000 -0.081317 0.009180 0.036275
 12   5.939809 -0.003975 0.000000 -0.026042 -0.000240 0.006471
 13   4.991439 -0.003975 0.000000 0.000000 0.000000 0.009435
 14   4.991436 -0.001575 0.000000 0.000000 0.000000 0.000000
 15   0.000005 0.001564 3.638375 -0.000010 -1.284244 3.140806
 16   8.842831 0.000000 -0.000002 -0.306337 0.787783 -0.384299
 17   9.341934 0.000000 -0.000001 0.000000 0.000000 -1.238899
 18   11.168404 -0.000001 0.000002 -2.757073 0.413919 -0.594429
 19   0.000005 0.001585 -3.638375 -0.000010 1.284244 3.140787
 20   8.842831 0.000000 0.000001 -0.498184 -0.880892 -0.282127
 21   9.341937 0.000000 -0.000001 0.000000 0.000000 -1.636812
 22   11.168404 -0.000001 0.000001 1.770135 0.066025 0.390568
 23   1.977383 0.000000 0.000000 0.856316 0.229109 0.050100
 24   3.723980 2.768054 -0.049087 0.000001 -3.141591 -1.570794
 25   12.421014 0.304721 4.492689 -0.091859 -0.075839 1.616818
 26   19.916998 1.704573 4.956909 2.262592 1.451744 0.734330
time 51
  0   0.917907 -4.388196 27.571507 -0.001772 0.043387 -2.015136
  1   -1.334659 0.113286 9.745319 -0.000032 -1.556186 -1.570770
  2   -0.000008 0.000010 5.615750 -0.194130 3.436362 -0.672017
  3   15.693467 0.000000 0.000000 0.000000 0.000000 -0.565076
  4   22.146629 -0.000001 0.000000 0.025614 -0.129402 -0.116288
  5   3.310129 5.734393 0.000000 0.000000 0.000000 1.570796
  6   0.000008 -0.000006 -5.615750 0.186769 2.862503 -0.039686
  7   15.693467 0.000000 0.000000 0.000000 0.000000 -0.564644
  8   22.146629 0.000000 0.000000 0.305231 0.262302 0.517839
  9   3.310129 5.734393 0.000000 0.000000 0.000000 1.570796
 10   1.384163 -0.004728 0.019534 -0.287691 -0.011996 0.066211
 11   5.939814 -0.004730 0.000000 -0.062901 0.006927 0.028167
 12   5.939809 -0.003975 0.000000 -0.020352 -0.000192 0.005222
 13   4.991439 -0.003975 0.000000 0.000000 0.000000 0.007518
 14   4.991436 -0.001575 0.000000 0.000000 0.000000 0.000000
 15   0.000005 0.001564 3.638375 -0.000010 -1.284244 3.140806
 16   8.842831 0.000000 -0.000002 -0.332124 0.692340 -0.527926
 17   9.341934 0.000000 -0.000001 0.000000 0.000000 -1.034219
 18   11.168404 -0.000001 0.000002 -2.958204 0.418991 -0.573693
 19   0.000005 0.001585 -3.638375 -0.000010 1.284244 3.140787
 20   8.842831 0.000000 0.000001 -0.308150 -0.964107 -0.530609
 21   9.341937 0.000000 -0.000001 0.000000 0.000000 -1.605169
 22   11.168404 -0.000001 0.000001 1.780296 0.069904 0.438889
 23   1.977383 0.000000 0.000000 0.845903 0.242364 0.080668
 24   3.723980 2.768054 -0.049087 0.000001 -3.141591 -1.570794
 25   12.421014 0.304721 4.492689 -0.091859 -0.075839 1.616818
 26   19.916998 1.704573 4.956909 2.262592 1.451744 0.734330
time 52
  0   0.661685 -4.507945 27.689127 -0.001772 0.031537 -2.017821
  1   -1.338566 0.070316 9.745319 -0.000032 -1.559788 -1.570770
  2   -0.000008 0.000010 5.615750 -0.195377 3.443645 -0.645447
  3   15.693467 0.000000 0.000000 0.000000 0.000000 -0.546012
  4   22.146629 -0.000001 0.000000 0.043151 -0.135767 -0.122234
  5   3.310129 5.734393 0.000000 0.000000 0.000000 1.570796
  6   0.000008 -0.000006 -5.615750 0.194439 2.873145 -0.014368
  7   15.693467 0.000000 0.000000 0.000000 0.000000 -0.544473
  8   22.146629 0.000000 0.000000 0.298800 0.257697 0.510793
  9   3.310129 5.734393 0.000000 0.000000 0.000000 1.570796
 10   1.384163 -0.004728 0.015627 -0.308357 -0.010144 0.071295
 11   5.939814 -0.004730 0.000000 -0.045196 0.004878 0.020308
 12   5.939809 -0.003975 0.000000 -0.014827 -0.000156 0.003960
 13   4.991439 -0.003975 0.000000 0.000000 0.000000 0.005618
 14   4.991436 -0.001575 0.000000 0.000000 0.000000 0.000000
 15   0.000005 0.001564 3.638375 -0.000010 -1.284244 3.140806
 16   8.842831 0.000000 -0.000002 -0.329381 0.592804 -0.613401
 17   9.341934 0.000000 -0.000001 0.000000 0.000000 -0.955413
 18   11.168404 -0.000001 0.000002 -3.266395 0.428083 -0.554137
 19   0.000005 0.001585 -3.638375 -0.000010 1.284244 3.140787
 20   8.842831 0.000000 0.000001 0.071192 -1.015010 -0.994690
 21   9.341937 0.000000 -0.000001 0.000000 0.000000 -1.488921
 22   11.168404 -0.000001 0.000001 1.787940 0.072180 0.490218
 23   1.977383 0.000000 0.000000 0.837445 0.255828 0.110888
 24   3.723980 2.768054 -0.049087 0.000001 -3.141591 -1.570794
 25   12.421014 0.304721 4.492689 -0.091859 -0.075839 1.616818
 26   19.916998 1.704573 4.956909 2.262592 1.451744 0.734330
time 53
  0   0.420534 -4.627693 27.806747 -0.001492 0.020260 -2.021560
  1   -1.346379 0.031252 9.745319 -0.000032 -1.563415 -1.570770
  2   -0.000008 0.000010 5.615750 -0.197007 3.450641 -0.618782
  3   15.693467 0.000000 0.000000 0.000000 0.000000 -0.526520
  4   22.146629 -0.000001 0.000000 0.059155 -0.142082 -0.128088
  5   3.310129 5.734393 0.000000 0.000000 0.000000 1.570796
  6   0.000008 -0.000006 -5.615750 0.201246 2.883019 0.010038
  7   15.693467 0.000000 0.000000 0.000000 0.000000 -0.523855
  8   22.146629 0.000000 0.000000 0.291749 0.253706 0.503042
  9   3.310129 5.734393 0.000000 0.000000 0.000000 1.570796
 10   1.384163 -0.004728 0.011721 -0.329361 -0.008132 0.076379
 11   5.939814 -0.004730 0.000000 -0.028556 0.003044 0.012888
 12   5.939809 -0.003975 0.000000 -0.009531 -0.000096 0.002673
 13   4.991439 -0.003975 0.000000 0.000000 0.000000 0.003717
 14   4.991436 -0.001575 0.000000 0.000000 0.000000 0.000000
 15   0.000005 0.001564 3.638375 -0.000010 -1.284244 3.140806
 16   8.842831 0.000000 -0.000002 -0.317676 0.461826 -0.672001
 17   9.341934 0.000000 -0.000001 0.000000 0.000000 -0.959514
 18   11.168404 -0.000001 0.000002 -3.677539 0.438036 -0.536594
 19   0.000005 0.001585 -3.638375 -0.000010 1.284244 3.140787
 20   8.842831 0.000000 0.000001 0.513745 -0.943038 -1.537595
 21   9.341937 0.000000 -0.000001 0.000000 0.000000 -1.324241
 22   11.168404 -0.000001 0.000001 1.794185 0.073487 0.543333
 23   1.977383 0.000000 0.000000 0.832158 0.269245 0.140314
 24   3.723980 2.768054 -0.049087 0.000001 -3.141591 -1.570794
 25   12.421014 0.304721 4.492689 -0.091859 -0.075839 1.616818
 26   19.916998 1.704573 4.956909 2.262592 1.451744 0.734330
time 54
  0   0.194455 -4.747441 27.924368 -0.000932 0.009748 -2.026641
  1   -1.358098 0.000001 9.745319 -0.000032 -1.567090 -1.570770
  2   -0.000008 0.000010 5.615750 -0.199211 3.457349 -0.592212
  3   15.693467 0.000000 0.000000 0.000000 0.000000 -0.506886
  4   22.146629 -0.000001 0.000000 0.073103 -0.148422 -0.133622
  5   3.310129 5.734393 0.000000 0.000000 0.000000 1.570796
  6   0.000008 -0.000006 -5.615750 0.207190 2.891936 0.033112
  7   15.693467 0.000000 0.000000 0.000000 0.000000 -0.503014
  8   22.146629 0.000000 0.000000 0.283795 0.250421 0.494410
  9   3.310129 5.734393 0.000000 0.000000 0.000000 1.570796
 10   1.384163 -0.004728 0.003908 -0.350701 -0.005905 0.081464
 11   5.939814 -0.004730 0.000000 -0.013372 0.001426 0.006062
 12   5.939809 -0.003975 0.000000 -0.004555 -0.000048 0.001349
 13   4.991439 -0.003975 0.000000 0.000000 0.000000 0.001850
 14   4.991436 -0.001575 0.000000 0.000000 0.000000 0.000000
 15   0.000005 0.001564 3.638375 -0.000010 -1.284244 3.140806
 16   8.842831 0.000000 -0.000002 -0.323071 0.289173 -0.739560
 17   9.341934 0.000000 -0.000001 0.000000 0.000000 -0.962302
 18   11.168404 -0.000001 0.000002 -4.096706 0.453253 -0.524752
 19   0.000005 0.001585 -3.638375 -0.000010 1.284244 3.140787
 20   8.842831 0.000000 0.000001 0.808431 -0.758193 -1.941533
 21   9.341937 0.000000 -0.000001 0.000000 0.000000 -1.147438
 22   11.168404 -0.000001 0.000001 1.800151 0.074288 0.596918
 23   1.977383 0.000000 0.000000 0.831207 0.282223 0.168844
 24   3.723980 2.768054 -0.049087 0.000001 -3.141591 -1.570794
 25   12.421014 0.304721 4.492689 -0.091859 -0.075839 1.616818
 26   19.916998 1.704573 4.956909 2.262592 1.451744 0.734330
time 55
  0   -0.001480 -4.860146 28.041988 0.000000 0.000000 -2.033353
  1   -1.373723 -0.035156 9.745319 -1.570795 -1.570451 0.000000
  2   -0.000008 0.000010 5.615750 -0.201800 3.463482 -0.565929
  3   15.693467 0.000000 0.000000 0.000000 0.000000 -0.487323
  4   22.146629 -0.000001 0.000000 0.084619 -0.154737 -0.138653
  5   3.310129 5.734393 0.000000 0.000000 0.000000 1.570796
  6   0.000008 -0.000006 -5.615750 0.212080 2.899510 0.054433
  7   15.693467 0.000000 0.000000 0.000000 0.000000 -0.482099
  8   22.146629 0.000000 0.000000 0.274883 0.248026 0.484986
  9   3.310129 5.734393 0.000000 0.000000 0.000000 1.570796
 10   1.384163 -0.004728 0.000002 -0.372579 -0.003463 0.086548
 11   5.939814 -0.004730 0.000000 0.000000 0.000000 0.000000
 12   5.939809 -0.003975 0.000000 0.000000 0.000000 0.000000
 13   4.991439 -0.003975 0.000000 0.000000 0.000000 0.000000
 14   4.991436 -0.001575 0.000000 0.000000 0.000000 0.000000
 15   0.000005 0.001564 3.638375 -0.000010 -1.284244 3.140806
 16   8.842831 0.000000 -0.000002 -0.414972 -0.110832 -0.914689
 17   9.341934 0.000000 -0.000001 0.000000 0.000000 -0.853073
 18   11.168404 -0.000001 0.000002 -4.515872 0.471532 -0.520821
 19   0.000005 0.001585 -3.638375 -0.000010 1.284244 3.140787
 20   8.842831 0.000000 0.000001 0.953960 -0.539089 -2.198116
 21   9.341937 0.000000 -0.000001 0.000000 0.000000 -0.994883
 22   11.168404 -0.000001 0.000001 1.806863 0.075089 0.649563
 23   1.977383 0.000000 0.000000 0.835700 0.294324 0.196082
 24   3.723980 2.768054 -0.049087 0.000001 -3.141591 -1.570794
 25   12.421014 0.304721 4.492689 -0.091859 -0.075839 1.616818
 26   19.916998 1.704573 4.956909 2.262592 1.451744 0.734330
end
