version 1
nodes
  0 "Bip01" -1
  1 "Bip01 Pelvis" 0
  2 "Bip01 L Thigh" 1
  3 "Bip01 L Calf" 2
  4 "Bip01 L Foot" 3
  5 "Bip01 L Toe0" 4
  6 "Bip01 R Thigh" 1
  7 "Bip01 R Calf" 6
  8 "Bip01 R Foot" 7
  9 "Bip01 R Toe0" 8
 10 "Bip01 Spine" 1
 11 "Bip01 Spine1" 10
 12 "Bip01 Spine2" 11
 13 "Bip01 Spine3" 12
 14 "Bip01 Neck" 13
 15 "Bip01 L Clavicle" 14
 16 "Bip01 L UpperArm" 15
 17 "Bip01 L Forearm" 16
 18 "Bip01 L Hand" 17
 19 "Bip01 R Clavicle" 14
 20 "Bip01 R UpperArm" 19
 21 "Bip01 R Forearm" 20
 22 "Bip01 R Hand" 21
 23 "Bip01 Head" 14
 24 "Bone05" 23
 25 "m4" 22
 26 "SHOTGUN" 22
end
skeleton
time 0
  0   -0.001480 -0.281535 29.159382 0.000000 0.000000 -1.570844
  1   -0.526041 0.000001 9.745319 -1.570795 -1.570451 0.000000
  2   -0.000008 0.000010 5.615750 -0.294408 3.473352 -0.272513
  3   15.693467 0.000000 0.000000 0.000000 0.000000 -0.550707
  4   22.146629 -0.000001 0.000000 -0.228880 -0.223983 0.184933
  5   3.310129 5.734393 0.000000 0.000000 0.000000 1.570796
  6   0.000008 -0.000006 -5.615750 0.275646 2.805362 -0.341678
  7   15.693467 0.000000 0.000000 0.000000 0.000000 -0.557127
  8   22.146629 0.000000 0.000000 0.230714 0.209467 0.127832
  9   3.310129 5.734393 0.000000 0.000000 0.000000 1.570796
 10   1.384163 -0.004728 0.000002 -0.000004 -0.000001 0.000796
 11   5.939814 -0.004730 0.000000 0.000000 0.000000 -0.087254
 12   5.939809 -0.003975 0.000000 0.000000 0.000000 -0.087262
 13   4.991439 -0.003975 0.000000 0.000000 0.000000 0.000000
 14   4.991436 -0.001575 0.000000 0.000000 0.000000 0.000000
 15   0.000005 0.001564 3.638375 1.379601 -1.348493 1.765946
 16   8.842831 0.000000 -0.000002 -0.693328 -0.398463 0.155123
 17   9.341934 0.000000 -0.000001 0.000000 0.000000 -0.200000
 18   11.168404 -0.000001 0.000002 -1.961430 -0.427602 -0.000011
 19   0.000005 0.001585 -3.638375 -0.839186 1.441620 2.305733
 20   8.842831 0.000000 0.000001 1.038213 0.442497 0.031453
 21   9.341937 0.000000 -0.000001 0.000000 0.000000 -0.200000
 22   11.168404 -0.000001 0.000001 1.568687 -0.261771 -0.000040
 23   1.977383 0.000000 0.000000 0.000000 0.000000 0.173715
 24   3.723980 2.768054 -0.049087 0.000001 -3.141591 -1.570794
 25   12.421014 0.304721 4.492689 -0.091859 -0.075839 1.616818
 26   19.916998 1.704573 4.956909 2.262592 1.451744 0.734330
time 1
  0   -0.001480 -0.281535 29.277002 0.000000 0.000000 -1.570844
  1   -0.526041 0.000001 9.745319 -1.570795 -1.570451 0.000000
  2   -0.000008 0.000010 5.615750 -0.299776 3.467986 -0.256743
  3   15.693467 0.000000 0.000000 0.000000 0.000000 -0.524030
  4   22.146629 -0.000001 0.000000 -0.228917 -0.223165 0.174230
  5   3.310129 5.734393 0.000000 0.000000 0.000000 1.570796
  6   0.000008 -0.000006 -5.615750 0.281111 2.810347 -0.325688
  7   15.693467 0.000000 0.000000 0.000000 0.000000 -0.530852
  8   22.146629 0.000000 0.000000 0.230827 0.208730 0.117527
  9   3.310129 5.734393 0.000000 0.000000 0.000000 1.570796
 10   1.384163 -0.004728 0.000002 -0.000004 -0.000001 0.038847
 11   5.939814 -0.004730 0.000000 0.000018 0.035642 -0.087254
 12   5.939809 -0.003975 0.000000 0.000000 0.000000 -0.087262
 13   4.991439 -0.003975 0.000000 0.000000 0.000000 0.000000
 14   4.991436 -0.001575 0.000000 0.000000 0.000000 0.000000
 15   0.000005 0.001564 3.638375 1.379601 -1.348493 1.765946
 16   8.842831 0.000000 -0.000002 -0.624836 -0.548604 -0.077786
 17   9.341934 0.000000 -0.000001 0.000000 0.000000 -0.200000
 18   11.168404 -0.000001 0.000002 -1.734035 -0.381090 -0.004237
 19   0.000005 0.001585 -3.638375 -0.839186 1.441620 2.305733
 20   8.842831 0.000000 0.000001 0.973068 0.728971 -0.140015
 21   9.341937 0.000000 -0.000001 0.000000 0.000000 -0.200000
 22   11.168404 -0.000001 0.000001 1.568687 -0.261771 -0.000040
 23   1.977383 0.000000 0.000000 -0.001744 -0.035610 0.135691
 24   3.723980 2.768054 -0.049087 0.000001 -3.141591 -1.570794
 25   12.421014 0.304721 4.492689 -0.091859 -0.075839 1.616818
 26   19.916998 1.704573 4.956909 2.262592 1.451744 0.734330
time 2
  0   -0.001480 -0.281535 29.433828 0.000000 0.000000 -1.570844
  1   -0.526041 0.000001 9.745319 -1.570795 -1.570451 0.000000
  2   -0.000008 0.000010 5.615750 -0.306104 3.461374 -0.237628
  3   15.693467 0.000000 0.000000 0.000000 0.000000 -0.491734
  4   22.146629 -0.000001 0.000000 -0.228955 -0.222249 0.161195
  5   3.310129 5.734393 0.000000 0.000000 0.000000 1.570796
  6   0.000008 -0.000006 -5.615750 0.287631 2.816579 -0.306471
  7   15.693467 0.000000 0.000000 0.000000 0.000000 -0.499069
  8   22.146629 0.000000 0.000000 0.230883 0.207870 0.104932
  9   3.310129 5.734393 0.000000 0.000000 0.000000 1.570796
 10   1.384163 -0.004728 0.000002 -0.000004 -0.000001 0.073756
 11   5.939814 -0.004730 0.000000 0.000036 0.061385 -0.087254
 12   5.939809 -0.003975 0.000000 0.000000 0.000000 -0.087262
 13   4.991439 -0.003975 0.000000 0.000000 0.000000 0.000000
 14   4.991436 -0.001575 0.000000 0.000000 0.000000 0.000000
 15   0.000005 0.001564 3.638375 1.379601 -1.348493 1.765946
 16   8.842831 0.000000 -0.000002 -0.510440 -0.688977 -0.330999
 17   9.341934 0.000000 -0.000001 0.000000 0.000000 -0.200000
 18   11.168404 -0.000001 0.000002 -1.568718 -0.331612 -0.000011
 19   0.000005 0.001585 -3.638375 -0.839186 1.441620 2.305733
 20   8.842831 0.000000 0.000001 0.807705 0.981095 -0.384399
 21   9.341937 0.000000 -0.000001 0.000000 0.000000 -0.200000
 22   11.168404 -0.000001 0.000001 1.568687 -0.261771 -0.000040
 23   1.977383 0.000000 0.000000 -0.000846 -0.061382 0.100749
 24   3.723980 2.768054 -0.049087 0.000001 -3.141591 -1.570794
 25   12.421014 0.304721 4.492689 -0.091859 -0.075839 1.616818
 26   19.916998 1.704573 4.956909 2.262592 1.451744 0.734330
time 3
  0   -0.001480 -0.281535 29.590656 0.000000 0.000000 -1.570844
  1   -0.526041 0.000001 9.745319 -1.570795 -1.570451 0.000000
  2   -0.000008 0.000010 5.615750 -0.312814 3.454091 -0.216697
  3   15.693467 0.000000 0.000000 0.000000 0.000000 -0.456165
  4   22.146629 -0.000001 0.000000 -0.228992 -0.221308 0.146788
  5   3.310129 5.734393 0.000000 0.000000 0.000000 1.570796
  6   0.000008 -0.000006 -5.615750 0.294534 2.823482 -0.285431
  7   15.693467 0.000000 0.000000 0.000000 0.000000 -0.464012
  8   22.146629 0.000000 0.000000 0.230996 0.206980 0.091104
  9   3.310129 5.734393 0.000000 0.000000 0.000000 1.570796
 10   1.384163 -0.004728 0.000002 -0.000004 -0.000001 0.102934
 11   5.939814 -0.004730 0.000000 0.000053 0.067102 -0.087254
 12   5.939809 -0.003975 0.000000 0.000000 0.000000 -0.087262
 13   4.991439 -0.003975 0.000000 0.000000 0.000000 0.000000
 14   4.991436 -0.001575 0.000000 0.000000 0.000000 0.000000
 15   0.000005 0.001564 3.638375 1.379601 -1.348493 1.765946
 16   8.842831 0.000000 -0.000002 -0.326729 -0.808886 -0.626241
 17   9.341934 0.000000 -0.000001 0.000000 0.000000 -0.200000
 18   11.168404 -0.000001 0.000002 -1.529179 -0.269691 0.002495
 19   0.000005 0.001585 -3.638375 -0.839186 1.441620 2.305733
 20   8.842831 0.000000 0.000001 0.466418 1.159477 -0.786144
 21   9.341937 0.000000 -0.000001 0.000000 0.000000 -0.200000
 22   11.168404 -0.000001 0.000001 1.568687 -0.261771 -0.000040
 23   1.977383 0.000000 0.000000 0.000952 -0.067086 0.071522
 24   3.723980 2.768054 -0.049087 0.000001 -3.141591 -1.570794
 25   12.421014 0.304721 4.492689 -0.091859 -0.075839 1.616818
 26   19.916998 1.704573 4.956909 2.262592 1.451744 0.734330
time 4
  0   -0.001480 -0.281535 29.747482 0.000000 0.000000 -1.570844
  1   -0.526041 0.000001 9.745319 -1.570795 -1.570451 0.000000
  2   -0.000008 0.000010 5.615750 -0.319525 3.446616 -0.195575
  3   15.693467 0.000000 0.000000 0.000000 0.000000 -0.420027
  4   22.146629 -0.000001 0.000000 -0.229030 -0.220441 0.132107
  5   3.310129 5.734393 0.000000 0.000000 0.000000 1.570796
  6   0.000008 -0.000006 -5.615750 0.301245 2.830481 -0.264251
  7   15.693467 0.000000 0.000000 0.000000 0.000000 -0.428582
  8   22.146629 0.000000 0.000000 0.231053 0.206151 0.077012
  9   3.310129 5.734393 0.000000 0.000000 0.000000 1.570796
 10   1.384163 -0.004728 0.000002 -0.000004 -0.000001 0.129327
 11   5.939814 -0.004730 0.000000 0.000036 0.064010 -0.087254
 12   5.939809 -0.003975 0.000000 0.000000 0.000000 -0.087262
 13   4.991439 -0.003975 0.000000 0.000000 0.000000 0.000000
 14   4.991436 -0.001575 0.000000 0.000000 0.000000 0.000000
 15   0.000005 0.001564 3.638375 1.379601 -1.348493 1.765946
 16   8.842831 0.000000 -0.000002 -0.071326 -0.882375 -0.975231
 17   9.341934 0.000000 -0.000001 0.000000 0.000000 -0.200000
 18   11.168404 -0.000001 0.000002 -1.540926 -0.204804 0.001611
 19   0.000005 0.001585 -3.638375 -0.839186 1.441620 2.305733
 20   8.842831 0.000000 0.000001 -0.118439 1.228262 -1.420836
 21   9.341937 0.000000 -0.000001 0.000000 0.000000 -0.200000
 22   11.168404 -0.000001 0.000001 1.568687 -0.261771 -0.000040
 23   1.977383 0.000000 0.000000 0.002643 -0.063945 0.045079
 24   3.723980 2.768054 -0.049087 0.000001 -3.141591 -1.570794
 25   12.421014 0.304721 4.492689 -0.091859 -0.075839 1.616818
 26   19.916998 1.704573 4.956909 2.262592 1.451744 0.734330
time 5
  0   -0.001480 -0.281535 29.865103 0.000000 0.000000 -1.570844
  1   -0.526041 0.000001 9.745319 -1.570795 -1.570451 0.000000
  2   -0.000008 0.000010 5.615750 -0.325373 3.439812 -0.176556
  3   15.693467 0.000000 0.000000 0.000000 0.000000 -0.387304
  4   22.146629 -0.000001 0.000000 -0.229067 -0.219698 0.118798
  5   3.310129 5.734393 0.000000 0.000000 0.000000 1.570796
  6   0.000008 -0.000006 -5.615750 0.307190 2.836808 -0.245315
  7   15.693467 0.000000 0.000000 0.000000 0.000000 -0.396576
  8   22.146629 0.000000 0.000000 0.231165 0.205476 0.064153
  9   3.310129 5.734393 0.000000 0.000000 0.000000 1.570796
 10   1.384163 -0.004728 0.000002 -0.000004 -0.000001 0.151898
 11   5.939814 -0.004730 0.000000 0.000036 0.054302 -0.087254
 12   5.939809 -0.003975 0.000000 0.000000 0.000000 -0.087262
 13   4.991439 -0.003975 0.000000 0.000000 0.000000 0.000000
 14   4.991436 -0.001575 0.000000 0.000000 0.000000 0.000000
 15   0.000005 0.001564 3.638375 1.379601 -1.348493 1.765946
 16   8.842831 0.000000 -0.000002 0.194501 -0.893817 -1.313097
 17   9.341934 0.000000 -0.000001 0.000000 0.000000 -0.200000
 18   11.168404 -0.000001 0.000002 -1.568718 -0.157048 -0.000011
 19   0.000005 0.001585 -3.638375 -0.839186 1.441620 2.305733
 20   8.842831 0.000000 0.000001 -0.616139 1.175412 -1.956783
 21   9.341937 0.000000 -0.000001 0.000000 0.000000 -0.200000
 22   11.168404 -0.000001 0.000001 1.568687 -0.261771 -0.000040
 23   1.977383 0.000000 0.000000 0.003436 -0.054177 0.022514
 24   3.723980 2.768054 -0.049087 0.000001 -3.141591 -1.570794
 25   12.421014 0.304721 4.492689 -0.091859 -0.075839 1.616818
 26   19.916998 1.704573 4.956909 2.262592 1.451744 0.734330
time 6
  0   -0.001480 -0.281535 29.943518 0.000000 0.000000 -1.570844
  1   -0.526041 0.000001 9.745319 -1.570795 -1.570451 0.000000
  2   -0.000008 0.000010 5.615750 -0.329495 3.434733 -0.162506
  3   15.693467 0.000000 0.000000 0.000000 0.000000 -0.363189
  4   22.146629 -0.000001 0.000000 -0.229104 -0.219203 0.108964
  5   3.310129 5.734393 0.000000 0.000000 0.000000 1.570796
  6   0.000008 -0.000006 -5.615750 0.311408 2.841506 -0.231429
  7   15.693467 0.000000 0.000000 0.000000 0.000000 -0.373055
  8   22.146629 0.000000 0.000000 0.231165 0.205015 0.054728
  9   3.310129 5.734393 0.000000 0.000000 0.000000 1.570796
 10   1.384163 -0.004728 0.000002 -0.000004 -0.000001 0.171782
 11   5.939814 -0.004730 0.000000 0.000018 0.029590 -0.087254
 12   5.939809 -0.003975 0.000000 0.000000 0.000000 -0.087262
 13   4.991439 -0.003975 0.000000 0.000000 0.000000 0.000000
 14   4.991436 -0.001575 0.000000 0.000000 0.000000 0.000000
 15   0.000005 0.001564 3.638375 1.379601 -1.348493 1.765946
 16   8.842831 0.000000 -0.000002 0.427134 -0.859863 -1.594753
 17   9.341934 0.000000 -0.000001 0.000000 0.000000 -0.165149
 18   11.168404 -0.000001 0.000002 -1.635188 -0.176285 0.001218
 19   0.000005 0.001585 -3.638375 -0.839186 1.441620 2.305733
 20   8.842831 0.000000 0.000001 -0.860353 1.093524 -2.230141
 21   9.341937 0.000000 -0.000001 0.000000 0.000000 -0.161295
 22   11.168404 -0.000001 0.000001 1.568687 -0.261771 -0.000040
 23   1.977383 0.000000 0.000000 0.002432 -0.029467 0.002681
 24   3.723980 2.768054 -0.049087 0.000001 -3.141591 -1.570794
 25   12.421014 0.304721 4.492689 -0.091859 -0.075839 1.616818
 26   19.916998 1.704573 4.956909 2.262592 1.451744 0.734330
time 7
  0   -0.001480 -0.281535 29.982723 0.000000 0.000000 -1.570844
  1   -0.526041 0.000001 9.745319 -1.570795 -1.570451 0.000000
  2   -0.000008 0.000010 5.615750 -0.331125 3.432817 -0.157154
  3   15.693467 0.000000 0.000000 0.000000 0.000000 -0.353799
  4   22.146629 -0.000001 0.000000 -0.229104 -0.219030 0.105122
  5   3.310129 5.734393 0.000000 0.000000 0.000000 1.570796
  6   0.000008 -0.000006 -5.615750 0.313038 2.843328 -0.226029
  7   15.693467 0.000000 0.000000 0.000000 0.000000 -0.363975
  8   22.146629 0.000000 0.000000 0.231222 0.204862 0.051029
  9   3.310129 5.734393 0.000000 0.000000 0.000000 1.570796
 10   1.384163 -0.004728 0.000002 -0.000004 -0.000001 0.175311
 11   5.939814 -0.004730 0.000000 0.000000 0.000000 -0.087254
 12   5.939809 -0.003975 0.000000 0.000000 0.000000 -0.087262
 13   4.991439 -0.003975 0.000000 0.000000 0.000000 0.000000
 14   4.991436 -0.001575 0.000000 0.000000 0.000000 0.000000
 15   0.000005 0.001564 3.638375 1.379601 -1.348493 1.765946
 16   8.842831 0.000000 -0.000002 0.513549 -0.835863 -1.686498
 17   9.341934 0.000000 -0.000001 0.000000 0.000000 -0.200000
 18   11.168404 -0.000001 0.000002 -1.689721 -0.169394 0.001807
 19   0.000005 0.001585 -3.638375 -0.839186 1.441620 2.305733
 20   8.842831 0.000000 0.000001 -0.871641 1.084937 -2.250634
 21   9.341937 0.000000 -0.000001 0.000000 0.000000 -0.200000
 22   11.168404 -0.000001 0.000001 1.568687 -0.261771 -0.000040
 23   1.977383 0.000000 0.000000 0.000000 0.000000 -0.000798
 24   3.723980 2.768054 -0.049087 0.000001 -3.141591 -1.570794
 25   12.421014 0.304721 4.492689 -0.091859 -0.075839 1.616818
 26   19.916998 1.704573 4.956909 2.262592 1.451744 0.734330
time 8
  0   -0.001480 -0.281535 29.963121 0.000000 0.000000 -1.570844
  1   -0.526041 0.000001 9.745319 -1.570795 -1.570451 0.000000
  2   -0.000008 0.000010 5.615750 -0.329879 3.434254 -0.161359
  3   15.693467 0.000000 0.000000 0.000000 0.000000 -0.361055
  4   22.146629 -0.000001 0.000000 -0.229104 -0.219153 0.108095
  5   3.310129 5.734393 0.000000 0.000000 0.000000 1.570796
  6   0.000008 -0.000006 -5.615750 0.311792 2.841986 -0.230167
  7   15.693467 0.000000 0.000000 0.000000 0.000000 -0.371046
  8   22.146629 0.000000 0.000000 0.231165 0.204985 0.053847
  9   3.310129 5.734393 0.000000 0.000000 0.000000 1.570796
 10   1.384163 -0.004728 0.000002 -0.000004 -0.000001 0.157241
 11   5.939814 -0.004730 0.000000 -0.000018 -0.024580 -0.087254
 12   5.939809 -0.003975 0.000000 0.000000 0.000000 -0.087262
 13   4.991439 -0.003975 0.000000 0.000000 0.000000 0.000000
 14   4.991436 -0.001575 0.000000 0.000000 0.000000 0.000000
 15   0.000005 0.001564 3.638375 1.379601 -1.348493 1.765946
 16   8.842831 0.000000 -0.000002 0.445789 -0.855770 -1.580644
 17   9.341934 0.000000 -0.000001 0.000000 0.000000 -0.409272
 18   11.168404 -0.000001 0.000002 -1.664413 -0.035026 -0.003647
 19   0.000005 0.001585 -3.638375 -0.839186 1.441620 2.305733
 20   8.842831 0.000000 0.000001 -0.659919 1.152572 -2.026933
 21   9.341937 0.000000 -0.000001 0.000000 0.000000 -0.432563
 22   11.168404 -0.000001 0.000001 1.568687 -0.261771 -0.000040
 23   1.977383 0.000000 0.000000 -0.001692 0.024502 0.017245
 24   3.723980 2.768054 -0.049087 0.000001 -3.141591 -1.570794
 25   12.421014 0.304721 4.492689 -0.091859 -0.075839 1.616818
 26   19.916998 1.704573 4.956909 2.262592 1.451744 0.734330
time 9
  0   -0.001480 -0.281535 29.884706 0.000000 0.000000 -1.570844
  1   -0.526041 0.000001 9.745319 -1.570795 -1.570451 0.000000
  2   -0.000008 0.000010 5.615750 -0.326523 3.438279 -0.172446
  3   15.693467 0.000000 0.000000 0.000000 0.000000 -0.380262
  4   22.146629 -0.000001 0.000000 -0.229067 -0.219550 0.115916
  5   3.310129 5.734393 0.000000 0.000000 0.000000 1.570796
  6   0.000008 -0.000006 -5.615750 0.308436 2.838151 -0.241248
  7   15.693467 0.000000 0.000000 0.000000 0.000000 -0.389654
  8   22.146629 0.000000 0.000000 0.231165 0.205353 0.061422
  9   3.310129 5.734393 0.000000 0.000000 0.000000 1.570796
 10   1.384163 -0.004728 0.000002 -0.000004 -0.000001 0.131334
 11   5.939814 -0.004730 0.000000 -0.000036 -0.050000 -0.087254
 12   5.939809 -0.003975 0.000000 0.000000 0.000000 -0.087262
 13   4.991439 -0.003975 0.000000 0.000000 0.000000 0.000000
 14   4.991436 -0.001575 0.000000 0.000000 0.000000 0.000000
 15   0.000005 0.001564 3.638375 1.379601 -1.348493 1.765946
 16   8.842831 0.000000 -0.000002 0.321425 -0.880514 -1.399542
 17   9.341934 0.000000 -0.000001 0.000000 0.000000 -0.688411
 18   11.168404 -0.000001 0.000002 -1.612745 0.147671 -0.002615
 19   0.000005 0.001585 -3.638375 -0.839186 1.441620 2.305733
 20   8.842831 0.000000 0.000001 -0.261226 1.201881 -1.606411
 21   9.341937 0.000000 -0.000001 0.000000 0.000000 -0.742735
 22   11.168404 -0.000001 0.000001 1.568687 -0.261771 -0.000040
 23   1.977383 0.000000 0.000000 -0.002114 0.049951 0.043091
 24   3.723980 2.768054 -0.049087 0.000001 -3.141591 -1.570794
 25   12.421014 0.304721 4.492689 -0.091859 -0.075839 1.616818
 26   19.916998 1.704573 4.956909 2.262592 1.451744 0.734330
time 10
  0   -0.001480 -0.281535 29.786690 0.000000 0.000000 -1.570844
  1   -0.526041 0.000001 9.745319 -1.570795 -1.570451 0.000000
  2   -0.000008 0.000010 5.615750 -0.321826 3.443933 -0.188025
  3   15.693467 0.000000 0.000000 0.000000 0.000000 -0.407081
  4   22.146629 -0.000001 0.000000 -0.229067 -0.220144 0.126893
  5   3.310129 5.734393 0.000000 0.000000 0.000000 1.570796
  6   0.000008 -0.000006 -5.615750 0.303642 2.832973 -0.256747
  7   15.693467 0.000000 0.000000 0.000000 0.000000 -0.415928
  8   22.146629 0.000000 0.000000 0.231109 0.205906 0.071903
  9   3.310129 5.734393 0.000000 0.000000 0.000000 1.570796
 10   1.384163 -0.004728 0.000002 -0.000004 -0.000001 0.103096
 11   5.939814 -0.004730 0.000000 -0.000053 -0.069918 -0.087254
 12   5.939809 -0.003975 0.000000 0.000000 0.000000 -0.087262
 13   4.991439 -0.003975 0.000000 0.000000 0.000000 0.000000
 14   4.991436 -0.001575 0.000000 0.000000 0.000000 0.000000
 15   0.000005 0.001564 3.638375 1.379601 -1.348493 1.765946
 16   8.842831 0.000000 -0.000002 0.147956 -0.894375 -1.157079
 17   9.341934 0.000000 -0.000001 0.000000 0.000000 -0.932699
 18   11.168404 -0.000001 0.000002 -1.567858 0.301371 0.004313
 19   0.000005 0.001585 -3.638375 -0.839186 1.441620 2.305733
 20   8.842831 0.000000 0.000001 0.220269 1.174172 -1.092863
 21   9.341937 0.000000 -0.000001 0.000000 0.000000 -1.014136
 22   11.168404 -0.000001 0.000001 1.568687 -0.261771 -0.000040
 23   1.977383 0.000000 0.000000 -0.001004 0.069903 0.071373
 24   3.723980 2.768054 -0.049087 0.000001 -3.141591 -1.570794
 25   12.421014 0.304721 4.492689 -0.091859 -0.075839 1.616818
 26   19.916998 1.704573 4.956909 2.262592 1.451744 0.734330
time 11
  0   -0.001480 -0.281535 29.669069 0.000000 0.000000 -1.570844
  1   -0.526041 0.000001 9.745319 -1.570795 -1.570451 0.000000
  2   -0.000008 0.000010 5.615750 -0.316266 3.450353 -0.205993
  3   15.693467 0.000000 0.000000 0.000000 0.000000 -0.437954
  4   22.146629 -0.000001 0.000000 -0.229030 -0.220862 0.139425
  5   3.310129 5.734393 0.000000 0.000000 0.000000 1.570796
  6   0.000008 -0.000006 -5.615750 0.297890 2.826933 -0.274771
  7   15.693467 0.000000 0.000000 0.000000 0.000000 -0.446148
  8   22.146629 0.000000 0.000000 0.231053 0.206550 0.083970
  9   3.310129 5.734393 0.000000 0.000000 0.000000 1.570796
 10   1.384163 -0.004728 0.000002 -0.000004 -0.000001 0.077901
 11   5.939814 -0.004730 0.000000 -0.000053 -0.077960 -0.087254
 12   5.939809 -0.003975 0.000000 0.000000 0.000000 -0.087262
 13   4.991439 -0.003975 0.000000 0.000000 0.000000 0.000000
 14   4.991436 -0.001575 0.000000 0.000000 0.000000 0.000000
 15   0.000005 0.001564 3.638375 1.379601 -1.348493 1.765946
 16   8.842831 0.000000 -0.000002 -0.055781 -0.881910 -0.879902
 17   9.341934 0.000000 -0.000001 0.000000 0.000000 -1.037335
 18   11.168404 -0.000001 0.000002 -1.568718 0.348936 -0.000011
 19   0.000005 0.001585 -3.638375 -0.839186 1.441620 2.305733
 20   8.842831 0.000000 0.000001 0.565990 1.075730 -0.706558
 21   9.341937 0.000000 -0.000001 0.000000 0.000000 -1.130384
 22   11.168404 -0.000001 0.000001 1.568687 -0.261771 -0.000040
 23   1.977383 0.000000 0.000000 0.000740 0.077963 0.096623
 24   3.723980 2.768054 -0.049087 0.000001 -3.141591 -1.570794
 25   12.421014 0.304721 4.492689 -0.091859 -0.075839 1.616818
 26   19.916998 1.704573 4.956909 2.262592 1.451744 0.734330
time 12
  0   -0.001480 -0.281535 29.531845 0.000000 0.000000 -1.570844
  1   -0.526041 0.000001 9.745319 -1.570795 -1.570451 0.000000
  2   -0.000008 0.000010 5.615750 -0.310322 3.456870 -0.224630
  3   15.693467 0.000000 0.000000 0.000000 0.000000 -0.469752
  4   22.146629 -0.000001 0.000000 -0.228992 -0.221655 0.152277
  5   3.310129 5.734393 0.000000 0.000000 0.000000 1.570796
  6   0.000008 -0.000006 -5.615750 0.291849 2.820797 -0.293426
  7   15.693467 0.000000 0.000000 0.000000 0.000000 -0.477335
  8   22.146629 0.000000 0.000000 0.230940 0.207318 0.096389
  9   3.310129 5.734393 0.000000 0.000000 0.000000 1.570796
 10   1.384163 -0.004728 0.000002 -0.000004 -0.000001 0.057208
 11   5.939814 -0.004730 0.000000 -0.000053 -0.069439 -0.087254
 12   5.939809 -0.003975 0.000000 0.000000 0.000000 -0.087262
 13   4.991439 -0.003975 0.000000 0.000000 0.000000 0.000000
 14   4.991436 -0.001575 0.000000 0.000000 0.000000 0.000000
 15   0.000005 0.001564 3.638375 1.379601 -1.348493 1.765946
 16   8.842831 0.000000 -0.000002 -0.276709 -0.826467 -0.580331
 17   9.341934 0.000000 -0.000001 0.000000 0.000000 -0.945737
 18   11.168404 -0.000001 0.000002 -1.634424 0.247012 -0.023105
 19   0.000005 0.001585 -3.638375 -0.839186 1.441620 2.305733
 20   8.842831 0.000000 0.000001 0.777067 0.943294 -0.445113
 21   9.341937 0.000000 -0.000001 0.000000 0.000000 -1.028658
 22   11.168404 -0.000001 0.000001 1.568687 -0.261771 -0.000040
 23   1.977383 0.000000 0.000000 0.002114 0.069395 0.117350
 24   3.723980 2.768054 -0.049087 0.000001 -3.141591 -1.570794
 25   12.421014 0.304721 4.492689 -0.091859 -0.075839 1.616818
 26   19.916998 1.704573 4.956909 2.262592 1.451744 0.734330
time 13
  0   -0.001480 -0.281535 29.394623 0.000000 0.000000 -1.570844
  1   -0.526041 0.000001 9.745319 -1.570795 -1.570451 0.000000
  2   -0.000008 0.000010 5.615750 -0.304474 3.463099 -0.242598
  3   15.693467 0.000000 0.000000 0.000000 0.000000 -0.500270
  4   22.146629 -0.000001 0.000000 -0.228955 -0.222472 0.164626
  5   3.310129 5.734393 0.000000 0.000000 0.000000 1.570796
  6   0.000008 -0.000006 -5.615750 0.285905 2.814949 -0.311521
  7   15.693467 0.000000 0.000000 0.000000 0.000000 -0.507406
  8   22.146629 0.000000 0.000000 0.230883 0.208085 0.108191
  9   3.310129 5.734393 0.000000 0.000000 0.000000 1.570796
 10   1.384163 -0.004728 0.000002 -0.000004 -0.000001 0.038070
 11   5.939814 -0.004730 0.000000 -0.000036 -0.048729 -0.087254
 12   5.939809 -0.003975 0.000000 0.000000 0.000000 -0.087262
 13   4.991439 -0.003975 0.000000 0.000000 0.000000 0.000000
 14   4.991436 -0.001575 0.000000 0.000000 0.000000 0.000000
 15   0.000005 0.001564 3.638375 1.379601 -1.348493 1.765946
 16   8.842831 0.000000 -0.000002 -0.476148 -0.715489 -0.289195
 17   9.341934 0.000000 -0.000001 0.000000 0.000000 -0.723344
 18   11.168404 -0.000001 0.000002 -1.733940 0.042206 -0.040451
 19   0.000005 0.001585 -3.638375 -0.839186 1.441620 2.305733
 20   8.842831 0.000000 0.000001 0.911309 0.785982 -0.248387
 21   9.341937 0.000000 -0.000001 0.000000 0.000000 -0.781506
 22   11.168404 -0.000001 0.000001 1.568687 -0.261771 -0.000040
 23   1.977383 0.000000 0.000000 0.002432 0.048658 0.136486
 24   3.723980 2.768054 -0.049087 0.000001 -3.141591 -1.570794
 25   12.421014 0.304721 4.492689 -0.091859 -0.075839 1.616818
 26   19.916998 1.704573 4.956909 2.262592 1.451744 0.734330
time 14
  0   -0.001480 -0.281535 29.257399 0.000000 0.000000 -1.570844
  1   -0.526041 0.000001 9.745319 -1.570795 -1.570451 0.000000
  2   -0.000008 0.000010 5.615750 -0.299009 3.468752 -0.258941
  3   15.693467 0.000000 0.000000 0.000000 0.000000 -0.527729
  4   22.146629 -0.000001 0.000000 -0.228917 -0.223265 0.175694
  5   3.310129 5.734393 0.000000 0.000000 0.000000 1.570796
  6   0.000008 -0.000006 -5.615750 0.280344 2.809676 -0.327932
  7   15.693467 0.000000 0.000000 0.000000 0.000000 -0.534499
  8   22.146629 0.000000 0.000000 0.230827 0.208822 0.118937
  9   3.310129 5.734393 0.000000 0.000000 0.000000 1.570796
 10   1.384163 -0.004728 0.000002 -0.000004 -0.000001 0.019578
 11   5.939814 -0.004730 0.000000 -0.000018 -0.023142 -0.087254
 12   5.939809 -0.003975 0.000000 0.000000 0.000000 -0.087262
 13   4.991439 -0.003975 0.000000 0.000000 0.000000 0.000000
 14   4.991436 -0.001575 0.000000 0.000000 0.000000 0.000000
 15   0.000005 0.001564 3.638375 1.379601 -1.348493 1.765946
 16   8.842831 0.000000 -0.000002 -0.615235 -0.563488 -0.043745
 17   9.341934 0.000000 -0.000001 0.000000 0.000000 -0.448552
 18   11.168404 -0.000001 0.000002 -1.846443 -0.203943 -0.033326
 19   0.000005 0.001585 -3.638375 -0.839186 1.441620 2.305733
 20   8.842831 0.000000 0.000001 0.992982 0.615922 -0.094265
 21   9.341937 0.000000 -0.000001 0.000000 0.000000 -0.476197
 22   11.168404 -0.000001 0.000001 1.568687 -0.261771 -0.000040
 23   1.977383 0.000000 0.000000 0.001533 0.023070 0.154927
 24   3.723980 2.768054 -0.049087 0.000001 -3.141591 -1.570794
 25   12.421014 0.304721 4.492689 -0.091859 -0.075839 1.616818
 26   19.916998 1.704573 4.956909 2.262592 1.451744 0.734330
time 15
  0   -0.001480 -0.281535 29.159382 0.000000 0.000000 -1.570844
  1   -0.526041 0.000001 9.745319 -1.570795 -1.570451 0.000000
  2   -0.000008 0.000010 5.615750 -0.294408 3.473352 -0.272513
  3   15.693467 0.000000 0.000000 0.000000 0.000000 -0.550707
  4   22.146629 -0.000001 0.000000 -0.228880 -0.223983 0.184933
  5   3.310129 5.734393 0.000000 0.000000 0.000000 1.570796
  6   0.000008 -0.000006 -5.615750 0.275646 2.805362 -0.341678
  7   15.693467 0.000000 0.000000 0.000000 0.000000 -0.557127
  8   22.146629 0.000000 0.000000 0.230714 0.209467 0.127832
  9   3.310129 5.734393 0.000000 0.000000 0.000000 1.570796
 10   1.384163 -0.004728 0.000002 -0.000004 -0.000001 0.000796
 11   5.939814 -0.004730 0.000000 0.000000 0.000000 -0.087254
 12   5.939809 -0.003975 0.000000 0.000000 0.000000 -0.087262
 13   4.991439 -0.003975 0.000000 0.000000 0.000000 0.000000
 14   4.991436 -0.001575 0.000000 0.000000 0.000000 0.000000
 15   0.000005 0.001564 3.638375 1.379601 -1.348493 1.765946
 16   8.842831 0.000000 -0.000002 -0.693328 -0.398463 0.155123
 17   9.341934 0.000000 -0.000001 0.000000 0.000000 -0.200000
 18   11.168404 -0.000001 0.000002 -1.961430 -0.427602 -0.000011
 19   0.000005 0.001585 -3.638375 -0.839186 1.441620 2.305733
 20   8.842831 0.000000 0.000001 1.038213 0.442497 0.031453
 21   9.341937 0.000000 -0.000001 0.000000 0.000000 -0.200000
 22   11.168404 -0.000001 0.000001 1.568687 -0.261771 -0.000040
 23   1.977383 0.000000 0.000000 0.000000 0.000000 0.173715
 24   3.723980 2.768054 -0.049087 0.000001 -3.141591 -1.570794
 25   12.421014 0.304721 4.492689 -0.091859 -0.075839 1.616818
 26   19.916998 1.704573 4.956909 2.262592 1.451744 0.734330
end
