version 1
nodes
  0 "Bip01" -1
  1 "Bip01 Pelvis" 0
  2 "Bip01 L Thigh" 1
  3 "Bip01 L Calf" 2
  4 "Bip01 L Foot" 3
  5 "Bip01 L Toe0" 4
  6 "Bip01 R Thigh" 1
  7 "Bip01 R Calf" 6
  8 "Bip01 R Foot" 7
  9 "Bip01 R Toe0" 8
 10 "Bip01 Spine" 1
 11 "Bip01 Spine1" 10
 12 "Bip01 Spine2" 11
 13 "Bip01 Spine3" 12
 14 "Bip01 Neck" 13
 15 "Bip01 L Clavicle" 14
 16 "Bip01 L UpperArm" 15
 17 "Bip01 L Forearm" 16
 18 "Bip01 L Hand" 17
 19 "Bip01 R Clavicle" 14
 20 "Bip01 R UpperArm" 19
 21 "Bip01 R Forearm" 20
 22 "Bip01 R Hand" 21
 23 "Bip01 Head" 14
 24 "Bone05" 23
 25 "m4" 22
 26 "SHOTGUN" 22
end
skeleton
time 0
  0   7.979100 -25.006029 29.355415 0.000093 -0.001242 1.862599
  1   -1.194030 0.125005 9.745319 -1.570795 -1.570451 0.000000
  2   -0.000008 0.000010 5.615750 0.019846 3.156253 -0.518237
  3   15.693467 0.000000 0.000000 0.000000 0.000000 -0.404448
  4   22.146629 -0.000001 0.000000 -0.250530 -0.022735 -0.114413
  5   3.310129 5.734393 0.000000 0.000000 0.000000 1.570796
  6   0.000008 -0.000006 -5.615750 -0.032885 3.041499 -0.619685
  7   15.693467 0.000000 0.000000 0.000000 0.000000 -1.026869
  8   22.146629 0.000000 0.000000 0.350358 0.133822 0.284082
  9   3.310129 5.734393 0.000000 0.000000 0.000000 1.570796
 10   1.384163 -0.004728 0.000002 -0.140532 0.013443 0.058277
 11   5.939814 -0.004730 0.000000 -0.140347 0.003907 0.036217
 12   5.939809 -0.003975 0.000000 -0.140369 -0.006795 -0.032756
 13   4.991439 -0.003975 0.000000 -0.140382 -0.005848 -0.032847
 14   4.991436 -0.001575 0.000000 0.000000 0.000000 0.518519
 15   0.000005 0.001564 3.638375 1.563869 -0.952625 1.059916
 16   8.842831 0.000000 -0.000002 0.037492 0.530106 -0.605115
 17   9.341934 0.000000 -0.000001 0.000000 0.000000 -0.693987
 18   11.168404 -0.000001 0.000002 -1.479135 -0.250359 -0.326727
 19   0.000005 0.001585 -3.638375 0.317617 1.287484 2.928140
 20   8.842831 0.000000 0.000001 -0.784001 -0.558654 0.230563
 21   9.341937 0.000000 -0.000001 0.000000 0.000000 -1.473732
 22   11.168404 -0.000001 0.000001 1.565051 -0.261771 0.014250
 23   1.977383 0.000000 0.000000 1.215093 -0.145788 -0.374627
 24   3.723980 2.768054 -0.049087 0.000001 -3.141591 -1.570794
 25   12.421014 0.304721 4.492689 -0.091859 -0.075839 1.616818
 26   19.916998 1.704573 4.956909 2.262592 1.451744 0.734330
time 1
  0   7.971564 -24.484772 29.433828 0.000093 -0.001433 1.875542
  1   -1.182311 0.132818 9.745319 -1.570795 -1.570451 0.000000
  2   -0.000008 0.000010 5.615750 0.019654 3.156349 -0.509539
  3   15.693467 0.000000 0.000000 0.000000 0.000000 -0.409784
  4   22.146629 -0.000001 0.000000 -0.236433 -0.022636 -0.100417
  5   3.310129 5.734393 0.000000 0.000000 0.000000 1.570796
  6   0.000008 -0.000006 -5.615750 -0.034227 3.035746 -0.626978
  7   15.693467 0.000000 0.000000 0.000000 0.000000 -0.991886
  8   22.146629 0.000000 0.000000 0.361471 0.133423 0.260213
  9   3.310129 5.734393 0.000000 0.000000 0.000000 1.570796
 10   1.384163 -0.004728 0.000002 -0.154332 0.014651 0.057046
 11   5.939814 -0.004730 0.000000 -0.154128 0.004278 0.035911
 12   5.939809 -0.003975 0.000000 -0.154149 -0.007454 -0.032918
 13   4.991439 -0.003975 0.000000 -0.154164 -0.006424 -0.033032
 14   4.991436 -0.001575 0.000000 0.000000 0.000000 0.518519
 15   0.000005 0.001564 3.638375 1.611518 -0.871036 0.998172
 16   8.842831 0.000000 -0.000002 -0.008413 0.472338 -0.617656
 17   9.341934 0.000000 -0.000001 0.000000 0.000000 -0.698087
 18   11.168404 -0.000001 0.000002 -1.469298 -0.301848 -0.374882
 19   0.000005 0.001585 -3.638375 0.347146 1.284707 2.956519
 20   8.842831 0.000000 0.000001 -0.816816 -0.505095 0.194535
 21   9.341937 0.000000 -0.000001 0.000000 0.000000 -1.391792
 22   11.168404 -0.000001 0.000001 1.564678 -0.261728 0.015660
 23   1.977383 0.000000 0.000000 1.277682 -0.151007 -0.378604
 24   3.723980 2.768054 -0.049087 0.000001 -3.141591 -1.570794
 25   12.421014 0.304721 4.492689 -0.091859 -0.075839 1.616818
 26   19.916998 1.704573 4.956909 2.262592 1.451744 0.734330
time 2
  0   7.964028 -23.970560 29.531845 0.000093 -0.001433 1.888294
  1   -1.170592 0.144537 9.745319 -1.570795 -1.570451 0.000000
  2   -0.000008 0.000010 5.615750 0.019462 3.156924 -0.499982
  3   15.693467 0.000000 0.000000 0.000000 0.000000 -0.414834
  4   22.146629 -0.000001 0.000000 -0.221850 -0.022983 -0.085965
  5   3.310129 5.734393 0.000000 0.000000 0.000000 1.570796
  6   0.000008 -0.000006 -5.615750 -0.033652 3.029706 -0.618492
  7   15.693467 0.000000 0.000000 0.000000 0.000000 -0.929363
  8   22.146629 0.000000 0.000000 0.373091 0.132440 0.225070
  9   3.310129 5.734393 0.000000 0.000000 0.000000 1.570796
 10   1.384163 -0.004728 0.000002 -0.167493 0.015697 0.056107
 11   5.939814 -0.004730 0.000000 -0.167287 0.004674 0.035663
 12   5.939809 -0.003975 0.000000 -0.167304 -0.008030 -0.032993
 13   4.991439 -0.003975 0.000000 -0.167328 -0.006939 -0.033116
 14   4.991436 -0.001575 0.000000 0.000000 0.000000 0.518519
 15   0.000005 0.001564 3.638375 1.644594 -0.792566 0.947933
 16   8.842831 0.000000 -0.000002 -0.038772 0.412151 -0.620567
 17   9.341934 0.000000 -0.000001 0.000000 0.000000 -0.701040
 18   11.168404 -0.000001 0.000002 -1.453063 -0.351518 -0.423529
 19   0.000005 0.001585 -3.638375 0.375525 1.281827 2.983651
 20   8.842831 0.000000 0.000001 -0.845196 -0.453838 0.157076
 21   9.341937 0.000000 -0.000001 0.000000 0.000000 -1.312050
 22   11.168404 -0.000001 0.000001 1.564305 -0.261728 0.017070
 23   1.977383 0.000000 0.000000 1.337786 -0.155787 -0.382928
 24   3.723980 2.768054 -0.049087 0.000001 -3.141591 -1.570794
 25   12.421014 0.304721 4.492689 -0.091859 -0.075839 1.616818
 26   19.916998 1.704573 4.956909 2.262592 1.451744 0.734330
time 3
  0   7.956492 -23.449303 29.629864 0.000093 -0.001529 1.900758
  1   -1.166686 0.152349 9.745319 -1.570795 -1.570451 0.000000
  2   -0.000008 0.000010 5.615750 0.019366 3.158074 -0.489660
  3   15.693467 0.000000 0.000000 0.000000 0.000000 -0.419316
  4   22.146629 -0.000001 0.000000 -0.206893 -0.023850 -0.071192
  5   3.310129 5.734393 0.000000 0.000000 0.000000 1.570796
  6   0.000008 -0.000006 -5.615750 -0.030967 3.023379 -0.592613
  7   15.693467 0.000000 0.000000 0.000000 0.000000 -0.836099
  8   22.146629 0.000000 0.000000 0.385558 0.130875 0.177244
  9   3.310129 5.734393 0.000000 0.000000 0.000000 1.570796
 10   1.384163 -0.004728 0.000002 -0.179880 0.016583 0.055557
 11   5.939814 -0.004730 0.000000 -0.179682 0.005093 0.035510
 12   5.939809 -0.003975 0.000000 -0.179707 -0.008485 -0.032993
 13   4.991439 -0.003975 0.000000 -0.179716 -0.007383 -0.033133
 14   4.991436 -0.001575 0.000000 0.000000 0.000000 0.518519
 15   0.000005 0.001564 3.638375 1.667412 -0.718813 0.905268
 16   8.842831 0.000000 -0.000002 -0.055872 0.351499 -0.617581
 17   9.341934 0.000000 -0.000001 0.000000 0.000000 -0.702434
 18   11.168404 -0.000001 0.000002 -1.429569 -0.398413 -0.473010
 19   0.000005 0.001585 -3.638375 0.402561 1.278792 3.009633
 20   8.842831 0.000000 0.000001 -0.869142 -0.405679 0.119428
 21   9.341937 0.000000 -0.000001 0.000000 0.000000 -1.235040
 22   11.168404 -0.000001 0.000001 1.563932 -0.261728 0.018386
 23   1.977383 0.000000 0.000000 1.394719 -0.159967 -0.387550
 24   3.723980 2.768054 -0.049087 0.000001 -3.141591 -1.570794
 25   12.421014 0.304721 4.492689 -0.091859 -0.075839 1.616818
 26   19.916998 1.704573 4.956909 2.262592 1.451744 0.734330
time 4
  0   7.948956 -22.935089 29.708277 0.000093 -0.001529 1.912934
  1   -1.166686 0.160162 9.745319 -1.570795 -1.570451 0.000000
  2   -0.000008 0.000010 5.615750 0.019366 3.159799 -0.478477
  3   15.693467 0.000000 0.000000 0.000000 0.000000 -0.423086
  4   22.146629 -0.000001 0.000000 -0.191674 -0.025236 -0.056282
  5   3.310129 5.734393 0.000000 0.000000 0.000000 1.570796
  6   0.000008 -0.000006 -5.615750 -0.026461 3.016955 -0.553409
  7   15.693467 0.000000 0.000000 0.000000 0.000000 -0.720059
  8   22.146629 0.000000 0.000000 0.398645 0.128848 0.120082
  9   3.310129 5.734393 0.000000 0.000000 0.000000 1.570796
 10   1.384163 -0.004728 0.000002 -0.191357 0.017254 0.055492
 11   5.939814 -0.004730 0.000000 -0.191172 0.005537 0.035452
 12   5.939809 -0.003975 0.000000 -0.191203 -0.008821 -0.032893
 13   4.991439 -0.003975 0.000000 -0.191215 -0.007718 -0.033032
 14   4.991436 -0.001575 0.000000 0.000000 0.000000 0.518519
 15   0.000005 0.001564 3.638375 1.682943 -0.651263 0.867780
 16   8.842831 0.000000 -0.000002 -0.062273 0.291312 -0.612057
 17   9.341934 0.000000 -0.000001 0.000000 0.000000 -0.702106
 18   11.168404 -0.000001 0.000002 -1.398148 -0.441862 -0.523524
 19   0.000005 0.001585 -3.638375 0.428255 1.275655 3.034080
 20   8.842831 0.000000 0.000001 -0.888734 -0.360973 0.082923
 21   9.341937 0.000000 -0.000001 0.000000 0.000000 -1.161361
 22   11.168404 -0.000001 0.000001 1.563653 -0.261728 0.019702
 23   1.977383 0.000000 0.000000 1.447898 -0.163477 -0.392421
 24   3.723980 2.768054 -0.049087 0.000001 -3.141591 -1.570794
 25   12.421014 0.304721 4.492689 -0.091859 -0.075839 1.616818
 26   19.916998 1.704573 4.956909 2.262592 1.451744 0.734330
time 5
  0   7.941421 -22.427919 29.786690 0.000093 -0.001433 1.924727
  1   -1.174498 0.167975 9.745319 -1.570795 -1.570451 0.000000
  2   -0.000008 0.000010 5.615750 0.019462 3.162099 -0.466626
  3   15.693467 0.000000 0.000000 0.000000 0.000000 -0.426216
  4   22.146629 -0.000001 0.000000 -0.176269 -0.027168 -0.041326
  5   3.310129 5.734393 0.000000 0.000000 0.000000 1.570796
  6   0.000008 -0.000006 -5.615750 -0.020421 3.010819 -0.505158
  7   15.693467 0.000000 0.000000 0.000000 0.000000 -0.589430
  8   22.146629 0.000000 0.000000 0.411957 0.126515 0.057371
  9   3.310129 5.734393 0.000000 0.000000 0.000000 1.570796
 10   1.384163 -0.004728 0.000002 -0.201792 0.017763 0.055945
 11   5.939814 -0.004730 0.000000 -0.201614 0.006028 0.035529
 12   5.939809 -0.003975 0.000000 -0.201653 -0.009000 -0.032681
 13   4.991439 -0.003975 0.000000 -0.201666 -0.007946 -0.032831
 14   4.991436 -0.001575 0.000000 0.000000 0.000000 0.518519
 15   0.000005 0.001564 3.638375 1.693393 -0.591150 0.833744
 16   8.842831 0.000000 -0.000002 -0.060262 0.232521 -0.607056
 17   9.341934 0.000000 -0.000001 0.000000 0.000000 -0.699727
 18   11.168404 -0.000001 0.000002 -1.358036 -0.481100 -0.575266
 19   0.000005 0.001585 -3.638375 0.452319 1.272518 3.057186
 20   8.842831 0.000000 0.000001 -0.903891 -0.320251 0.048800
 21   9.341937 0.000000 -0.000001 0.000000 0.000000 -1.091479
 22   11.168404 -0.000001 0.000001 1.563280 -0.261728 0.021018
 23   1.977383 0.000000 0.000000 1.496690 -0.166156 -0.397392
 24   3.723980 2.768054 -0.049087 0.000001 -3.141591 -1.570794
 25   12.421014 0.304721 4.492689 -0.091859 -0.075839 1.616818
 26   19.916998 1.704573 4.956909 2.262592 1.451744 0.734330
time 6
  0   7.933885 -21.920752 29.845501 0.000000 -0.001338 1.936040
  1   -1.186217 0.175788 9.745319 -1.570795 -1.570451 0.000000
  2   -0.000008 0.000010 5.615750 0.019654 3.164878 -0.454392
  3   15.693467 0.000000 0.000000 0.000000 0.000000 -0.428920
  4   22.146629 -0.000001 0.000000 -0.161013 -0.029694 -0.026278
  5   3.310129 5.734393 0.000000 0.000000 0.000000 1.570796
  6   0.000008 -0.000006 -5.615750 -0.013518 3.005354 -0.451927
  7   15.693467 0.000000 0.000000 0.000000 0.000000 -0.452326
  8   22.146629 0.000000 0.000000 0.425270 0.123998 -0.007807
  9   3.310129 5.734393 0.000000 0.000000 0.000000 1.570796
 10   1.384163 -0.004728 0.000002 -0.210981 0.018032 0.057014
 11   5.939814 -0.004730 0.000000 -0.210867 0.006556 0.035720
 12   5.939809 -0.003975 0.000000 -0.210917 -0.009000 -0.032356
 13   4.991439 -0.003975 0.000000 -0.210925 -0.008042 -0.032494
 14   4.991436 -0.001575 0.000000 0.000000 0.000000 0.518519
 15   0.000005 0.001564 3.638375 1.700680 -0.539526 0.802393
 16   8.842831 0.000000 -0.000002 -0.052214 0.175218 -0.605040
 17   9.341934 0.000000 -0.000001 0.000000 0.000000 -0.695135
 18   11.168404 -0.000001 0.000002 -1.308852 -0.515075 -0.628187
 19   0.000005 0.001585 -3.638375 0.474753 1.269329 3.078565
 20   8.842831 0.000000 0.000001 -0.914372 -0.283866 0.018110
 21   9.341937 0.000000 -0.000001 0.000000 0.000000 -1.026060
 22   11.168404 -0.000001 0.000001 1.563000 -0.261728 0.022240
 23   1.977383 0.000000 0.000000 1.540566 -0.167934 -0.402511
 24   3.723980 2.768054 -0.049087 0.000001 -3.141591 -1.570794
 25   12.421014 0.304721 4.492689 -0.091859 -0.075839 1.616818
 26   19.916998 1.704573 4.956909 2.262592 1.451744 0.734330
time 7
  0   7.926349 -21.413582 29.904310 0.000000 -0.001147 1.946874
  1   -1.209656 0.179694 9.745319 -1.570795 -1.570451 0.000000
  2   -0.000008 0.000010 5.615750 0.019941 3.168328 -0.442063
  3   15.693467 0.000000 0.000000 0.000000 0.000000 -0.431552
  4   22.146629 -0.000001 0.000000 -0.146168 -0.032840 -0.011094
  5   3.310129 5.734393 0.000000 0.000000 0.000000 1.570796
  6   0.000008 -0.000006 -5.615750 -0.006231 3.000465 -0.397924
  7   15.693467 0.000000 0.000000 0.000000 0.000000 -0.316933
  8   22.146629 0.000000 0.000000 0.438075 0.121450 -0.071663
  9   3.310129 5.734393 0.000000 0.000000 0.000000 1.570796
 10   1.384163 -0.004728 0.000002 -0.218824 0.018059 0.058827
 11   5.939814 -0.004730 0.000000 -0.218805 0.007143 0.036084
 12   5.939809 -0.003975 0.000000 -0.218841 -0.008809 -0.031894
 13   4.991439 -0.003975 0.000000 -0.218850 -0.007994 -0.032006
 14   4.991436 -0.001575 0.000000 0.000000 0.000000 0.518519
 15   0.000005 0.001564 3.638375 1.706336 -0.497480 0.773055
 16   8.842831 0.000000 -0.000002 -0.040327 0.119497 -0.607877
 17   9.341934 0.000000 -0.000001 0.000000 0.000000 -0.687837
 18   11.168404 -0.000001 0.000002 -1.250117 -0.542925 -0.681944
 19   0.000005 0.001585 -3.638375 0.495462 1.266243 3.098411
 20   8.842831 0.000000 0.000001 -0.920016 -0.252173 -0.007720
 21   9.341937 0.000000 -0.000001 0.000000 0.000000 -0.965638
 22   11.168404 -0.000001 0.000001 1.562721 -0.261728 0.023369
 23   1.977383 0.000000 0.000000 1.578838 -0.168720 -0.407581
 24   3.723980 2.768054 -0.049087 0.000001 -3.141591 -1.570794
 25   12.421014 0.304721 4.492689 -0.091859 -0.075839 1.616818
 26   19.916998 1.704573 4.956909 2.262592 1.451744 0.734330
time 8
  0   7.918813 -20.913456 29.963121 0.000000 -0.000765 1.957229
  1   -1.237000 0.183600 9.745319 -1.570795 -1.570451 0.000000
  2   -0.000008 0.000010 5.615750 0.020325 3.172448 -0.430021
  3   15.693467 0.000000 0.000000 0.000000 0.000000 -0.434895
  4   22.146629 -0.000001 0.000000 -0.132071 -0.036604 0.004502
  5   3.310129 5.734393 0.000000 0.000000 0.000000 1.570796
  6   0.000008 -0.000006 -5.615750 0.000768 2.996438 -0.347289
  7   15.693467 0.000000 0.000000 0.000000 0.000000 -0.191366
  8   22.146629 0.000000 0.000000 0.449977 0.118963 -0.130851
  9   3.310129 5.734393 0.000000 0.000000 0.000000 1.570796
 10   1.384163 -0.004728 0.000002 -0.225151 0.017817 0.061386
 11   5.939814 -0.004730 0.000000 -0.225251 0.007790 0.036619
 12   5.939809 -0.003975 0.000000 -0.225297 -0.008401 -0.031282
 13   4.991439 -0.003975 0.000000 -0.225310 -0.007790 -0.031367
 14   4.991436 -0.001575 0.000000 0.000000 0.000000 0.518519
 15   0.000005 0.001564 3.638375 1.711897 -0.465882 0.745155
 16   8.842831 0.000000 -0.000002 -0.026976 0.065170 -0.616835
 17   9.341934 0.000000 -0.000001 0.000000 0.000000 -0.677751
 18   11.168404 -0.000001 0.000002 -1.182118 -0.563597 -0.735946
 19   0.000005 0.001585 -3.638375 0.514445 1.263209 3.116531
 20   8.842831 0.000000 0.000001 -0.920661 -0.225704 -0.027927
 21   9.341937 0.000000 -0.000001 0.000000 0.000000 -0.910678
 22   11.168404 -0.000001 0.000001 1.562441 -0.261686 0.024403
 23   1.977383 0.000000 0.000000 1.610979 -0.168396 -0.412602
 24   3.723980 2.768054 -0.049087 0.000001 -3.141591 -1.570794
 25   12.421014 0.304721 4.492689 -0.091859 -0.075839 1.616818
 26   19.916998 1.704573 4.956909 2.262592 1.451744 0.734330
time 9
  0   7.911277 -20.420376 30.002327 0.000000 -0.000478 1.966913
  1   -1.276064 0.187507 9.745319 -1.570795 -1.570451 0.000000
  2   -0.000008 0.000010 5.615750 0.020900 3.177048 -0.418934
  3   15.693467 0.000000 0.000000 0.000000 0.000000 -0.439732
  4   22.146629 -0.000001 0.000000 -0.119245 -0.040988 0.020830
  5   3.310129 5.734393 0.000000 0.000000 0.000000 1.570796
  6   0.000008 -0.000006 -5.615750 0.006904 2.993179 -0.304367
  7   15.693467 0.000000 0.000000 0.000000 0.000000 -0.083588
  8   22.146629 0.000000 0.000000 0.460582 0.116691 -0.181847
  9   3.310129 5.734393 0.000000 0.000000 0.000000 1.570796
 10   1.384163 -0.004728 0.000002 -0.229864 0.017280 0.064818
 11   5.939814 -0.004730 0.000000 -0.230064 0.008497 0.037346
 12   5.939809 -0.003975 0.000000 -0.230146 -0.007742 -0.030520
 13   4.991439 -0.003975 0.000000 -0.230147 -0.007406 -0.030577
 14   4.991436 -0.001575 0.000000 0.000000 0.000000 0.518519
 15   0.000005 0.001564 3.638375 1.718704 -0.445602 0.718693
 16   8.842831 0.000000 -0.000002 -0.014265 0.011960 -0.632735
 17   9.341934 0.000000 -0.000001 0.000000 0.000000 -0.664548
 18   11.168404 -0.000001 0.000002 -1.105237 -0.576325 -0.788916
 19   0.000005 0.001585 -3.638375 0.531606 1.260329 3.132829
 20   8.842831 0.000000 0.000001 -0.915904 -0.204811 -0.041366
 21   9.341937 0.000000 -0.000001 0.000000 0.000000 -0.861781
 22   11.168404 -0.000001 0.000001 1.562161 -0.261686 0.025343
 23   1.977383 0.000000 0.000000 1.636300 -0.166941 -0.417473
 24   3.723980 2.768054 -0.049087 0.000001 -3.141591 -1.570794
 25   12.421014 0.304721 4.492689 -0.091859 -0.075839 1.616818
 26   19.916998 1.704573 4.956909 2.262592 1.451744 0.734330
time 10
  0   7.896204 -19.934338 30.041534 0.000000 0.000000 1.976021
  1   -1.326847 0.187507 9.745319 -1.570795 -1.570451 0.000000
  2   -0.000008 0.000010 5.615750 0.021571 3.182318 -0.409568
  3   15.693467 0.000000 0.000000 0.000000 0.000000 -0.447415
  4   22.146629 -0.000001 0.000000 -0.108252 -0.045990 0.038439
  5   3.310129 5.734393 0.000000 0.000000 0.000000 1.570796
  6   0.000008 -0.000006 -5.615750 0.011506 2.990494 -0.273368
  7   15.693467 0.000000 0.000000 0.000000 0.000000 -0.001861
  8   22.146629 0.000000 0.000000 0.469382 0.114880 -0.221130
  9   3.310129 5.734393 0.000000 0.000000 0.000000 1.570796
 10   1.384163 -0.004728 0.000002 -0.232758 0.016422 0.069158
 11   5.939814 -0.004730 0.000000 -0.233136 0.009276 0.038283
 12   5.939809 -0.003975 0.000000 -0.233221 -0.006831 -0.029583
 13   4.991439 -0.003975 0.000000 -0.233219 -0.006831 -0.029585
 14   4.991436 -0.001575 0.000000 0.000000 0.000000 0.518519
 15   0.000005 0.001564 3.638375 1.728099 -0.437403 0.693190
 16   8.842831 0.000000 -0.000002 -0.004298 -0.040412 -0.656026
 17   9.341934 0.000000 -0.000001 0.000000 0.000000 -0.647901
 18   11.168404 -0.000001 0.000002 -1.020430 -0.580345 -0.839184
 19   0.000005 0.001585 -3.638375 0.546946 1.257655 3.147306
 20   8.842831 0.000000 0.000001 -0.905665 -0.190116 -0.047180
 21   9.341937 0.000000 -0.000001 0.000000 0.000000 -0.819479
 22   11.168404 -0.000001 0.000001 1.561882 -0.261686 0.026283
 23   1.977383 0.000000 0.000000 1.654273 -0.164216 -0.422294
 24   3.723980 2.768054 -0.049087 0.000001 -3.141591 -1.570794
 25   12.421014 0.304721 4.492689 -0.091859 -0.075839 1.616818
 26   19.916998 1.704573 4.956909 2.262592 1.451744 0.734330
time 11
  0   7.888669 -19.455345 30.041534 0.000000 0.001433 1.983595
  1   -1.404974 0.183600 9.745319 -1.570795 -1.570451 0.000000
  2   -0.000008 0.000010 5.615750 0.022434 3.187877 -0.403451
  3   15.693467 0.000000 0.000000 0.000000 0.000000 -0.458370
  4   22.146629 -0.000001 0.000000 -0.098343 -0.051364 0.056962
  5   3.310129 5.734393 0.000000 0.000000 0.000000 1.570796
  6   0.000008 -0.000006 -5.615750 0.014287 2.988768 -0.254292
  7   15.693467 0.000000 0.000000 0.000000 0.000000 0.048530
  8   22.146629 0.000000 0.000000 0.474741 0.113867 -0.245615
  9   3.310129 5.734393 0.000000 0.000000 0.000000 1.570796
 10   1.384163 -0.004728 0.000002 -0.230436 0.014516 0.076444
 11   5.939814 -0.004730 0.000000 -0.231094 0.010618 0.039908
 12   5.939809 -0.003975 0.000000 -0.231192 -0.005309 -0.028259
 13   4.991439 -0.003975 0.000000 -0.231195 -0.005393 -0.028239
 14   4.991436 -0.001575 0.000000 0.000000 0.000000 0.518519
 15   0.000005 0.001564 3.638375 1.778049 -0.549938 0.668838
 16   8.842831 0.000000 -0.000002 -0.048099 -0.111576 -0.674763
 17   9.341934 0.000000 -0.000001 0.000000 0.000000 -0.598372
 18   11.168404 -0.000001 0.000002 -0.852248 -0.529048 -0.856432
 19   0.000005 0.001585 -3.638375 0.560272 1.255237 3.160057
 20   8.842831 0.000000 0.000001 -0.884299 -0.182857 -0.033646
 21   9.341937 0.000000 -0.000001 0.000000 0.000000 -0.784371
 22   11.168404 -0.000001 0.000001 1.561695 -0.261686 0.027035
 23   1.977383 0.000000 0.000000 1.649885 -0.158397 -0.427513
 24   3.723980 2.768054 -0.049087 0.000001 -3.141591 -1.570794
 25   12.421014 0.304721 4.492689 -0.091859 -0.075839 1.616818
 26   19.916998 1.704573 4.956909 2.262592 1.451744 0.734330
time 12
  0   7.881133 -18.983397 30.002327 0.000000 0.004300 1.989060
  1   -1.529978 0.175788 9.745319 -1.570795 -1.570451 0.000000
  2   -0.000008 0.000010 5.615750 0.023680 3.193626 -0.402973
  3   15.693467 0.000000 0.000000 0.000000 0.000000 -0.475515
  4   22.146629 -0.000001 0.000000 -0.089518 -0.057110 0.078001
  5   3.310129 5.734393 0.000000 0.000000 0.000000 1.570796
  6   0.000008 -0.000006 -5.615750 0.015917 2.988193 -0.244053
  7   15.693467 0.000000 0.000000 0.000000 0.000000 0.071529
  8   22.146629 0.000000 0.000000 0.476320 0.113805 -0.256449
  9   3.310129 5.734393 0.000000 0.000000 0.000000 1.570796
 10   1.384163 -0.004728 0.000002 -0.220708 0.011028 0.087908
 11   5.939814 -0.004730 0.000000 -0.221682 0.012788 0.042528
 12   5.939809 -0.003975 0.000000 -0.221788 -0.002924 -0.026372
 13   4.991439 -0.003975 0.000000 -0.221821 -0.002673 -0.026406
 14   4.991436 -0.001575 0.000000 0.000000 0.000000 0.518519
 15   0.000005 0.001564 3.638375 1.904410 -0.828482 0.611792
 16   8.842831 0.000000 -0.000002 -0.181699 -0.176321 -0.686484
 17   9.341934 0.000000 -0.000001 0.000000 0.000000 -0.503166
 18   11.168404 -0.000001 0.000002 -0.582545 -0.412577 -0.797909
 19   0.000005 0.001585 -3.638375 0.571106 1.253180 3.170316
 20   8.842831 0.000000 0.000001 -0.846002 -0.188168 0.008197
 21   9.341937 0.000000 -0.000001 0.000000 0.000000 -0.761588
 22   11.168404 -0.000001 0.000001 1.561509 -0.261686 0.027693
 23   1.977383 0.000000 0.000000 1.613357 -0.148374 -0.434223
 24   3.723980 2.768054 -0.049087 0.000001 -3.141591 -1.570794
 25   12.421014 0.304721 4.492689 -0.091859 -0.075839 1.616818
 26   19.916998 1.704573 4.956909 2.262592 1.451744 0.734330
time 13
  0   7.873597 -18.518492 29.923914 -0.000093 0.008123 1.992800
  1   -1.694045 0.160162 9.745319 -1.570795 -1.570451 0.000000
  2   -0.000008 0.000010 5.615750 0.025406 3.199568 -0.408612
  3   15.693467 0.000000 0.000000 0.000000 0.000000 -0.499843
  4   22.146629 -0.000001 0.000000 -0.083161 -0.063252 0.102195
  5   3.310129 5.734393 0.000000 0.000000 0.000000 1.570796
  6   0.000008 -0.000006 -5.615750 0.016204 2.988289 -0.241739
  7   15.693467 0.000000 0.000000 0.000000 0.000000 0.072422
  8   22.146629 0.000000 0.000000 0.475305 0.114235 -0.256625
  9   3.310129 5.734393 0.000000 0.000000 0.000000 1.570796
 10   1.384163 -0.004728 0.000002 -0.205057 0.006117 0.102545
 11   5.939814 -0.004730 0.000000 -0.206445 0.015448 0.045951
 12   5.939809 -0.003975 0.000000 -0.206540 0.000144 -0.023949
 13   4.991439 -0.003975 0.000000 -0.206619 0.000899 -0.024051
 14   4.991436 -0.001575 0.000000 0.000000 0.000000 0.518519
 15   0.000005 0.001564 3.638375 2.195192 -1.168662 0.387155
 16   8.842831 0.000000 -0.000002 -0.349590 -0.174646 -0.726197
 17   9.341934 0.000000 -0.000001 0.000000 0.000000 -0.386557
 18   11.168404 -0.000001 0.000002 -0.276264 -0.295627 -0.669856
 19   0.000005 0.001585 -3.638375 0.579063 1.251689 3.177890
 20   8.842831 0.000000 0.000001 -0.791902 -0.209858 0.073010
 21   9.341937 0.000000 -0.000001 0.000000 0.000000 -0.754726
 22   11.168404 -0.000001 0.000001 1.561416 -0.261686 0.028163
 23   1.977383 0.000000 0.000000 1.551773 -0.135350 -0.443021
 24   3.723980 2.768054 -0.049087 0.000001 -3.141591 -1.570794
 25   12.421014 0.304721 4.492689 -0.091859 -0.075839 1.616818
 26   19.916998 1.704573 4.956909 2.262592 1.451744 0.734330
time 14
  0   7.866061 -18.060631 29.806293 -0.000093 0.012328 1.995005
  1   -1.881551 0.132818 9.745319 -1.570795 -1.570451 0.000000
  2   -0.000008 0.000010 5.615750 0.027611 3.205701 -0.418552
  3   15.693467 0.000000 0.000000 0.000000 0.000000 -0.529579
  4   22.146629 -0.000001 0.000000 -0.079796 -0.069766 0.128723
  5   3.310129 5.734393 0.000000 0.000000 0.000000 1.570796
  6   0.000008 -0.000006 -5.615750 0.015437 2.988960 -0.246437
  7   15.693467 0.000000 0.000000 0.000000 0.000000 0.056866
  8   22.146629 0.000000 0.000000 0.472992 0.114818 -0.248786
  9   3.310129 5.734393 0.000000 0.000000 0.000000 1.570796
 10   1.384163 -0.004728 0.000002 -0.185164 -0.000001 0.119385
 11   5.939814 -0.004730 0.000000 -0.186857 0.018253 0.049985
 12   5.939809 -0.003975 0.000000 -0.186967 0.003763 -0.021050
 13   4.991439 -0.003975 0.000000 -0.187081 0.004950 -0.021192
 14   4.991436 -0.001575 0.000000 0.000000 0.000000 0.518519
 15   0.000005 0.001564 3.638375 -3.015884 -1.372980 5.640578
 16   8.842831 0.000000 -0.000002 -0.478343 -0.115390 -0.821750
 17   9.341934 0.000000 -0.000001 0.000000 0.000000 -0.272901
 18   11.168404 -0.000001 0.000002 0.008911 -0.226338 -0.517824
 19   0.000005 0.001585 -3.638375 0.584528 1.250609 3.182971
 20   8.842831 0.000000 0.000001 -0.725548 -0.248190 0.152787
 21   9.341937 0.000000 -0.000001 0.000000 0.000000 -0.761521
 22   11.168404 -0.000001 0.000001 1.561322 -0.261686 0.028445
 23   1.977383 0.000000 0.000000 1.472215 -0.120686 -0.454602
 24   3.723980 2.768054 -0.049087 0.000001 -3.141591 -1.570794
 25   12.421014 0.304721 4.492689 -0.091859 -0.075839 1.616818
 26   19.916998 1.704573 4.956909 2.262592 1.451744 0.734330
time 15
  0   7.858525 -17.616858 29.669069 -0.000186 0.016342 1.995963
  1   -2.088589 0.097660 9.745319 -1.570795 -1.570451 0.000000
  2   -0.000008 0.000010 5.615750 0.030199 3.211930 -0.429638
  3   15.693467 0.000000 0.000000 0.000000 0.000000 -0.561235
  4   22.146629 -0.000001 0.000000 -0.079235 -0.076477 0.155753
  5   3.310129 5.734393 0.000000 0.000000 0.000000 1.570796
  6   0.000008 -0.000006 -5.615750 0.013807 2.989823 -0.257238
  7   15.693467 0.000000 0.000000 0.000000 0.000000 0.030294
  8   22.146629 0.000000 0.000000 0.470567 0.115156 -0.236015
  9   3.310129 5.734393 0.000000 0.000000 0.000000 1.570796
 10   1.384163 -0.004728 0.000002 -0.162579 -0.007112 0.137423
 11   5.939814 -0.004730 0.000000 -0.164481 0.020889 0.054403
 12   5.939809 -0.003975 0.000000 -0.164599 0.007754 -0.017715
 13   4.991439 -0.003975 0.000000 -0.164729 0.009072 -0.017862
 14   4.991436 -0.001575 0.000000 0.000000 0.000000 0.518519
 15   0.000005 0.001564 3.638375 -2.140373 -1.269080 4.783735
 16   8.842831 0.000000 -0.000002 -0.548755 -0.072413 -0.950372
 17   9.341934 0.000000 -0.000001 0.000000 0.000000 -0.186633
 18   11.168404 -0.000001 0.000002 0.203930 -0.208250 -0.408247
 19   0.000005 0.001585 -3.638375 0.587787 1.249940 3.186135
 20   8.842831 0.000000 0.000001 -0.650647 -0.302545 0.239332
 21   9.341937 0.000000 -0.000001 0.000000 0.000000 -0.779841
 22   11.168404 -0.000001 0.000001 1.561322 -0.261686 0.028727
 23   1.977383 0.000000 0.000000 1.381820 -0.105652 -0.469215
 24   3.723980 2.768054 -0.049087 0.000001 -3.141591 -1.570794
 25   12.421014 0.304721 4.492689 -0.091859 -0.075839 1.616818
 26   19.916998 1.704573 4.956909 2.262592 1.451744 0.734330
time 16
  0   7.843453 -17.180128 29.551449 -0.000280 0.019687 1.996155
  1   -2.303439 0.050784 9.745319 -1.570795 -1.570451 0.000000
  2   -0.000008 0.000010 5.615750 0.032788 3.218159 -0.438527
  3   15.693467 0.000000 0.000000 0.000000 0.000000 -0.590757
  4   22.146629 -0.000001 0.000000 -0.080319 -0.083164 0.181137
  5   3.310129 5.734393 0.000000 0.000000 0.000000 1.570796
  6   0.000008 -0.000006 -5.615750 0.011506 2.990494 -0.273368
  7   15.693467 0.000000 0.000000 0.000000 0.000000 -0.001861
  8   22.146629 0.000000 0.000000 0.469382 0.114880 -0.221130
  9   3.310129 5.734393 0.000000 0.000000 0.000000 1.570796
 10   1.384163 -0.004728 0.000002 -0.138849 -0.014921 0.155719
 11   5.939814 -0.004730 0.000000 -0.140809 0.023058 0.058954
 12   5.939809 -0.003975 0.000000 -0.140943 0.011973 -0.014004
 13   4.991439 -0.003975 0.000000 -0.141100 0.012859 -0.014094
 14   4.991436 -0.001575 0.000000 0.000000 0.000000 0.518519
 15   0.000005 0.001564 3.638375 1.146822 -1.945377 1.503054
 16   8.842831 0.000000 -0.000002 -0.588807 -0.101994 -1.097060
 17   9.341934 0.000000 -0.000001 0.000000 0.000000 -0.114963
 18   11.168404 -0.000001 0.000002 0.288546 -0.216385 -0.363089
 19   0.000005 0.001585 -3.638375 0.589130 1.249683 3.187381
 20   8.842831 0.000000 0.000001 -0.570505 -0.371242 0.325018
 21   9.341937 0.000000 -0.000001 0.000000 0.000000 -0.807687
 22   11.168404 -0.000001 0.000001 1.561229 -0.261686 0.028727
 23   1.977383 0.000000 0.000000 1.287514 -0.091265 -0.486512
 24   3.723980 2.768054 -0.049087 0.000001 -3.141591 -1.570794
 25   12.421014 0.304721 4.492689 -0.091859 -0.075839 1.616818
 26   19.916998 1.704573 4.956909 2.262592 1.451744 0.734330
time 17
  0   7.835917 -16.750444 29.433828 -0.000280 0.021885 1.995676
  1   -2.514383 0.000001 9.745319 -1.570795 -1.570451 0.000000
  2   -0.000008 0.000010 5.615750 0.035088 3.224388 -0.442541
  3   15.693467 0.000000 0.000000 0.000000 0.000000 -0.614944
  4   22.146629 -0.000001 0.000000 -0.082039 -0.089653 0.202953
  5   3.310129 5.734393 0.000000 0.000000 0.000000 1.570796
  6   0.000008 -0.000006 -5.615750 -0.007190 2.995671 -0.402273
  7   15.693467 0.000000 0.000000 0.000000 0.000000 -0.233197
  8   22.146629 0.000000 0.000000 0.468536 0.109753 -0.115525
  9   3.310129 5.734393 0.000000 0.000000 0.000000 1.570796
 10   1.384163 -0.004728 0.000002 -0.115489 -0.022971 0.173368
 11   5.939814 -0.004730 0.000000 -0.117367 0.024473 0.063371
 12   5.939809 -0.003975 0.000000 -0.117542 0.016275 -0.010007
 13   4.991439 -0.003975 0.000000 -0.117686 0.015928 -0.009974
 14   4.991436 -0.001575 0.000000 0.000000 0.000000 0.518519
 15   0.000005 0.001564 3.638375 1.143850 -1.958038 1.508135
 16   8.842831 0.000000 -0.000002 -0.608193 -0.183018 -1.254572
 17   9.341934 0.000000 -0.000001 0.000000 0.000000 -0.041570
 18   11.168404 -0.000001 0.000002 0.307456 -0.234090 -0.350019
 19   0.000005 0.001585 -3.638375 0.588842 1.249734 3.187189
 20   8.842831 0.000000 0.000001 -0.487784 -0.451359 0.402794
 21   9.341937 0.000000 -0.000001 0.000000 0.000000 -0.842928
 22   11.168404 -0.000001 0.000001 1.561322 -0.261686 0.028727
 23   1.977383 0.000000 0.000000 1.195164 -0.078332 -0.505997
 24   3.723980 2.768054 -0.049087 0.000001 -3.141591 -1.570794
 25   12.421014 0.304721 4.492689 -0.091859 -0.075839 1.616818
 26   19.916998 1.704573 4.956909 2.262592 1.451744 0.734330
time 18
  0   7.828382 -16.341890 29.335812 -0.000373 0.022362 1.995005
  1   -2.709701 -0.062501 9.745319 -1.570795 -1.570451 0.000000
  2   -0.000008 0.000010 5.615750 0.037102 3.230329 -0.440152
  3   15.693467 0.000000 0.000000 0.000000 0.000000 -0.631376
  4   22.146629 -0.000001 0.000000 -0.083460 -0.095794 0.219921
  5   3.310129 5.734393 0.000000 0.000000 0.000000 1.570796
  6   0.000008 -0.000006 -5.615750 -0.011600 3.001328 -0.439303
  7   15.693467 0.000000 0.000000 0.000000 0.000000 -0.313212
  8   22.146629 0.000000 0.000000 0.467351 0.104626 -0.074041
  9   3.310129 5.734393 0.000000 0.000000 0.000000 1.570796
 10   1.384163 -0.004728 0.000002 -0.094048 -0.030780 0.189463
 11   5.939814 -0.004730 0.000000 -0.095719 0.024880 0.067387
 12   5.939809 -0.003975 0.000000 -0.095901 0.020554 -0.005809
 13   4.991439 -0.003975 0.000000 -0.096024 0.017917 -0.005601
 14   4.991436 -0.001575 0.000000 0.000000 0.000000 0.518519
 15   0.000005 0.001564 3.638375 -2.062045 -1.208024 4.712787
 16   8.842831 0.000000 -0.000002 -0.599781 -0.278554 -1.396258
 17   9.341934 0.000000 -0.000001 0.000000 0.000000 0.014356
 18   11.168404 -0.000001 0.000002 0.286445 -0.253135 -0.352426
 19   0.000005 0.001585 -3.638375 0.587308 1.250043 3.185655
 20   8.842831 0.000000 0.000001 -0.404820 -0.538647 0.466845
 21   9.341937 0.000000 -0.000001 0.000000 0.000000 -0.883365
 22   11.168404 -0.000001 0.000001 1.561322 -0.261686 0.028633
 23   1.977383 0.000000 0.000000 1.110003 -0.067363 -0.526773
 24   3.723980 2.768054 -0.049087 0.000001 -3.141591 -1.570794
 25   12.421014 0.304721 4.492689 -0.091859 -0.075839 1.616818
 26   19.916998 1.704573 4.956909 2.262592 1.451744 0.734330
time 19
  0   7.820846 -15.940382 29.277002 -0.000466 0.020451 1.994429
  1   -2.877675 -0.125003 9.745319 -1.570795 -1.570451 0.000000
  2   -0.000008 0.000010 5.615750 0.038731 3.235887 -0.431359
  3   15.693467 0.000000 0.000000 0.000000 0.000000 -0.639272
  4   22.146629 -0.000001 0.000000 -0.084283 -0.101441 0.231767
  5   3.310129 5.734393 0.000000 0.000000 0.000000 1.570796
  6   0.000008 -0.000006 -5.615750 -0.012655 3.006313 -0.454452
  7   15.693467 0.000000 0.000000 0.000000 0.000000 -0.359881
  8   22.146629 0.000000 0.000000 0.466505 0.099653 -0.047353
  9   3.310129 5.734393 0.000000 0.000000 0.000000 1.570796
 10   1.384163 -0.004728 0.000002 -0.075973 -0.037703 0.203161
 11   5.939814 -0.004730 0.000000 -0.077375 0.024041 0.070695
 12   5.939809 -0.003975 0.000000 -0.077566 0.024688 -0.001537
 13   4.991439 -0.003975 0.000000 -0.077635 0.018480 -0.001093
 14   4.991436 -0.001575 0.000000 0.000000 0.000000 0.518519
 15   0.000005 0.001564 3.638375 -2.137113 -1.243540 4.784310
 16   8.842831 0.000000 -0.000002 -0.569513 -0.343578 -1.499200
 17   9.341934 0.000000 -0.000001 0.000000 0.000000 0.033709
 18   11.168404 -0.000001 0.000002 0.251013 -0.267395 -0.354294
 19   0.000005 0.001585 -3.638375 0.584720 1.250557 3.183259
 20   8.842831 0.000000 0.000001 -0.323550 -0.628147 0.512786
 21   9.341937 0.000000 -0.000001 0.000000 0.000000 -0.926866
 22   11.168404 -0.000001 0.000001 1.561322 -0.261686 0.028539
 23   1.977383 0.000000 0.000000 1.037951 -0.058126 -0.547152
 24   3.723980 2.768054 -0.049087 0.000001 -3.141591 -1.570794
 25   12.421014 0.304721 4.492689 -0.091859 -0.075839 1.616818
 26   19.916998 1.704573 4.956909 2.262592 1.451744 0.734330
time 20
  0   7.805774 -15.552961 29.277002 -0.000559 0.015864 1.994142
  1   -3.010492 -0.183598 9.745319 -1.570795 -1.570451 0.000000
  2   -0.000008 0.000010 5.615750 0.040745 3.240583 -0.417500
  3   15.693467 0.000000 0.000000 0.000000 0.000000 -0.639059
  4   22.146629 -0.000001 0.000000 -0.085442 -0.106469 0.239359
  5   3.310129 5.734393 0.000000 0.000000 0.000000 1.570796
  6   0.000008 -0.000006 -5.615750 -0.011888 3.010723 -0.456626
  7   15.693467 0.000000 0.000000 0.000000 0.000000 -0.386155
  8   22.146629 0.000000 0.000000 0.466223 0.095109 -0.029562
  9   3.310129 5.734393 0.000000 0.000000 0.000000 1.570796
 10   1.384163 -0.004728 0.000002 -0.062745 -0.043151 0.213718
 11   5.939814 -0.004730 0.000000 -0.063878 0.021764 0.073008
 12   5.939809 -0.003975 0.000000 -0.064066 0.028607 0.002648
 13   4.991439 -0.003975 0.000000 -0.064054 0.017294 0.003381
 14   4.991436 -0.001575 0.000000 0.000000 0.000000 0.518519
 15   0.000005 0.001564 3.638375 -2.140373 -1.269080 4.783735
 16   8.842831 0.000000 -0.000002 -0.539976 -0.336229 -1.533092
 17   9.341934 0.000000 -0.000001 0.000000 0.000000 -0.002536
 18   11.168404 -0.000001 0.000002 0.226564 -0.270648 -0.340633
 19   0.000005 0.001585 -3.638375 0.581364 1.251226 3.180095
 20   8.842831 0.000000 0.000001 -0.246391 -0.714904 0.537091
 21   9.341937 0.000000 -0.000001 0.000000 0.000000 -0.971434
 22   11.168404 -0.000001 0.000001 1.561416 -0.261686 0.028257
 23   1.977383 0.000000 0.000000 0.984825 -0.049789 -0.565294
 24   3.723980 2.768054 -0.049087 0.000001 -3.141591 -1.570794
 25   12.421014 0.304721 4.492689 -0.091859 -0.075839 1.616818
 26   19.916998 1.704573 4.956909 2.262592 1.451744 0.734330
time 21
  0   7.798238 -15.228936 29.316208 -0.000559 0.009365 1.994046
  1   -3.076900 -0.265632 9.745319 -1.570795 -1.570451 0.000000
  2   -0.000008 0.000010 5.615750 0.040169 3.242787 -0.404789
  3   15.693467 0.000000 0.000000 0.000000 0.000000 -0.634791
  4   22.146629 -0.000001 0.000000 -0.084769 -0.108202 0.240685
  5   3.310129 5.734393 0.000000 0.000000 0.000000 1.570796
  6   0.000008 -0.000006 -5.615750 -0.010450 3.012257 -0.448280
  7   15.693467 0.000000 0.000000 0.000000 0.000000 -0.389356
  8   22.146629 0.000000 0.000000 0.465490 0.093236 -0.025158
  9   3.310129 5.734393 0.000000 0.000000 0.000000 1.570796
 10   1.384163 -0.004728 0.000002 -0.055340 -0.048786 0.218382
 11   5.939814 -0.004730 0.000000 -0.056561 0.015999 0.073735
 12   5.939809 -0.003975 0.000000 -0.056729 0.032958 0.007458
 13   4.991439 -0.003975 0.000000 -0.056604 0.012320 0.008712
 14   4.991436 -0.001575 0.000000 0.000000 0.000000 0.518519
 15   0.000005 0.001564 3.638375 1.084888 -1.857693 1.554827
 16   8.842831 0.000000 -0.000002 -0.508245 -0.265066 -1.497483
 17   9.341934 0.000000 -0.000001 0.000000 0.000000 -0.086918
 18   11.168404 -0.000001 0.000002 0.214531 -0.264045 -0.312084
 19   0.000005 0.001585 -3.638375 0.577529 1.251946 3.176452
 20   8.842831 0.000000 0.000001 -0.182213 -0.796880 0.543381
 21   9.341937 0.000000 -0.000001 0.000000 0.000000 -1.014868
 22   11.168404 -0.000001 0.000001 1.561416 -0.261686 0.028069
 23   1.977383 0.000000 0.000000 0.906377 -0.036580 -0.577969
 24   3.723980 2.768054 -0.049087 0.000001 -3.141591 -1.570794
 25   12.421014 0.304721 4.492689 -0.091859 -0.075839 1.616818
 26   19.916998 1.704573 4.956909 2.262592 1.451744 0.734330
time 22
  0   7.783166 -15.017615 29.355415 -0.000653 0.002389 1.993950
  1   -3.084713 -0.378917 9.745319 -1.570795 -1.570451 0.000000
  2   -0.000008 0.000010 5.615750 0.039115 3.244416 -0.390453
  3   15.693467 0.000000 0.000000 0.000000 0.000000 -0.627819
  4   22.146629 -0.000001 0.000000 -0.084171 -0.109292 0.239130
  5   3.310129 5.734393 0.000000 0.000000 0.000000 1.570796
  6   0.000008 -0.000006 -5.615750 -0.008436 3.013216 -0.434604
  7   15.693467 0.000000 0.000000 0.000000 0.000000 -0.383327
  8   22.146629 0.000000 0.000000 0.464249 0.091793 -0.026391
  9   3.310129 5.734393 0.000000 0.000000 0.000000 1.570796
 10   1.384163 -0.004728 0.000002 -0.052816 -0.055199 0.217054
 11   5.939814 -0.004730 0.000000 -0.054537 0.006124 0.072817
 12   5.939809 -0.003975 0.000000 -0.054688 0.038111 0.013217
 13   4.991439 -0.003975 0.000000 -0.054479 0.003044 0.015305
 14   4.991436 -0.001575 0.000000 0.000000 0.000000 0.518519
 15   0.000005 0.001564 3.638375 1.198402 -1.842782 1.436804
 16   8.842831 0.000000 -0.000002 -0.458408 -0.173065 -1.417235
 17   9.341934 0.000000 -0.000001 0.000000 0.000000 -0.195408
 18   11.168404 -0.000001 0.000002 0.199441 -0.253613 -0.279555
 19   0.000005 0.001585 -3.638375 0.573502 1.252717 3.172617
 20   8.842831 0.000000 0.000001 -0.134322 -0.874252 0.539759
 21   9.341937 0.000000 -0.000001 0.000000 0.000000 -1.055039
 22   11.168404 -0.000001 0.000001 1.561509 -0.261686 0.027787
 23   1.977383 0.000000 0.000000 0.843841 -0.016119 -0.585027
 24   3.723980 2.768054 -0.049087 0.000001 -3.141591 -1.570794
 25   12.421014 0.304721 4.492689 -0.091859 -0.075839 1.616818
 26   19.916998 1.704573 4.956909 2.262592 1.451744 0.734330
time 23
  0   7.775630 -14.897867 29.433828 -0.000653 -0.004874 1.993662
  1   -3.057368 -0.488295 9.745319 -1.570795 -1.570451 0.000000
  2   -0.000008 0.000010 5.615750 0.037869 3.245853 -0.375256
  3   15.693467 0.000000 0.000000 0.000000 0.000000 -0.618714
  4   22.146629 -0.000001 0.000000 -0.083610 -0.110159 0.235289
  5   3.310129 5.734393 0.000000 0.000000 0.000000 1.570796
  6   0.000008 -0.000006 -5.615750 -0.005943 3.014175 -0.417141
  7   15.693467 0.000000 0.000000 0.000000 0.000000 -0.370525
  8   22.146629 0.000000 0.000000 0.462726 0.090320 -0.031764
  9   3.310129 5.734393 0.000000 0.000000 0.000000 1.570796
 10   1.384163 -0.004728 0.000002 -0.053691 -0.060083 0.212876
 11   5.939814 -0.004730 0.000000 -0.056046 -0.005968 0.070905
 12   5.939809 -0.003975 0.000000 -0.056168 0.043564 0.019301
 13   4.991439 -0.003975 0.000000 -0.055929 -0.008605 0.022436
 14   4.991436 -0.001575 0.000000 0.000000 0.000000 0.518519
 15   0.000005 0.001564 3.638375 1.340773 -1.830738 1.289155
 16   8.842831 0.000000 -0.000002 -0.394672 -0.075203 -1.296674
 17   9.341934 0.000000 -0.000001 0.000000 0.000000 -0.322267
 18   11.168404 -0.000001 0.000002 0.182537 -0.240023 -0.244422
 19   0.000005 0.001585 -3.638375 0.569572 1.253489 3.168782
 20   8.842831 0.000000 0.000001 -0.096105 -0.945251 0.528322
 21   9.341937 0.000000 -0.000001 0.000000 0.000000 -1.089880
 22   11.168404 -0.000001 0.000001 1.561602 -0.261686 0.027599
 23   1.977383 0.000000 0.000000 0.792089 0.006743 -0.589053
 24   3.723980 2.768054 -0.049087 0.000001 -3.141591 -1.570794
 25   12.421014 0.304721 4.492689 -0.091859 -0.075839 1.616818
 26   19.916998 1.704573 4.956909 2.262592 1.451744 0.734330
time 24
  0   7.760558 -14.841516 29.512243 -0.000746 -0.012710 1.993279
  1   -3.026117 -0.566423 9.745319 -1.570795 -1.570451 0.000000
  2   -0.000008 0.000010 5.615750 0.036526 3.247195 -0.359391
  3   15.693467 0.000000 0.000000 0.000000 0.000000 -0.608114
  4   22.146629 -0.000001 0.000000 -0.083086 -0.110852 0.229754
  5   3.310129 5.734393 0.000000 0.000000 0.000000 1.570796
  6   0.000008 -0.000006 -5.615750 -0.003163 3.015134 -0.396802
  7   15.693467 0.000000 0.000000 0.000000 0.000000 -0.352363
  8   22.146629 0.000000 0.000000 0.460977 0.088877 -0.040395
  9   3.310129 5.734393 0.000000 0.000000 0.000000 1.570796
 10   1.384163 -0.004728 0.000002 -0.056585 -0.061210 0.208861
 11   5.939814 -0.004730 0.000000 -0.059296 -0.018456 0.068610
 12   5.939809 -0.003975 0.000000 -0.059396 0.048801 0.025110
 13   4.991439 -0.003975 0.000000 -0.059216 -0.020709 0.029399
 14   4.991436 -0.001575 0.000000 0.000000 0.000000 0.518519
 15   0.000005 0.001564 3.638375 1.505962 -1.824280 1.118400
 16   8.842831 0.000000 -0.000002 -0.322431 0.016147 -1.143641
 17   9.341934 0.000000 -0.000001 0.000000 0.000000 -0.461836
 18   11.168404 -0.000001 0.000002 0.164582 -0.223658 -0.208011
 19   0.000005 0.001585 -3.638375 0.565928 1.254157 3.165426
 20   8.842831 0.000000 0.000001 -0.059018 -1.007839 0.508211
 21   9.341937 0.000000 -0.000001 0.000000 0.000000 -1.117193
 22   11.168404 -0.000001 0.000001 1.561602 -0.261686 0.027411
 23   1.977383 0.000000 0.000000 0.745887 0.027065 -0.592831
 24   3.723980 2.768054 -0.049087 0.000001 -3.141591 -1.570794
 25   12.421014 0.304721 4.492689 -0.091859 -0.075839 1.616818
 26   19.916998 1.704573 4.956909 2.262592 1.451744 0.734330
time 25
  0   7.745486 -14.834472 29.590656 -0.000746 -0.020833 1.992800
  1   -3.030024 -0.574235 9.745319 -1.570795 -1.570451 0.000000
  2   -0.000008 0.000010 5.615750 0.034993 3.248345 -0.343143
  3   15.693467 0.000000 0.000000 0.000000 0.000000 -0.596519
  4   22.146629 -0.000001 0.000000 -0.082600 -0.111298 0.223077
  5   3.310129 5.734393 0.000000 0.000000 0.000000 1.570796
  6   0.000008 -0.000006 -5.615750 -0.000095 3.015996 -0.373799
  7   15.693467 0.000000 0.000000 0.000000 0.000000 -0.329363
  8   22.146629 0.000000 0.000000 0.459059 0.087557 -0.051757
  9   3.310129 5.734393 0.000000 0.000000 0.000000 1.570796
 10   1.384163 -0.004728 0.000002 -0.060086 -0.056326 0.208148
 11   5.939814 -0.004730 0.000000 -0.062528 -0.029446 0.066507
 12   5.939809 -0.003975 0.000000 -0.062624 0.053295 0.030033
 13   4.991439 -0.003975 0.000000 -0.062547 -0.031364 0.035404
 14   4.991436 -0.001575 0.000000 0.000000 0.000000 0.518519
 15   0.000005 0.001564 3.638375 -1.460634 -1.316241 4.079239
 16   8.842831 0.000000 -0.000002 -0.249642 0.094938 -0.970602
 17   9.341934 0.000000 -0.000001 0.000000 0.000000 -0.608376
 18   11.168404 -0.000001 0.000002 0.146628 -0.205570 -0.171452
 19   0.000005 0.001585 -3.638375 0.563052 1.254723 3.162646
 20   8.842831 0.000000 0.000001 -0.011610 -1.060070 0.475232
 21   9.341937 0.000000 -0.000001 0.000000 0.000000 -1.134980
 22   11.168404 -0.000001 0.000001 1.561695 -0.261686 0.027223
 23   1.977383 0.000000 0.000000 0.699527 0.039974 -0.599690
 24   3.723980 2.768054 -0.049087 0.000001 -3.141591 -1.570794
 25   12.421014 0.304721 4.492689 -0.091859 -0.075839 1.616818
 26   19.916998 1.704573 4.956909 2.262592 1.451744 0.734330
time 26
  0   7.730414 -14.855603 29.688673 -0.000839 -0.029339 1.992320
  1   -3.092525 -0.484389 9.745319 -1.570795 -1.570451 0.000000
  2   -0.000008 0.000010 5.615750 0.033363 3.249207 -0.326417
  3   15.693467 0.000000 0.000000 0.000000 0.000000 -0.583928
  4   22.146629 -0.000001 0.000000 -0.082152 -0.111496 0.215668
  5   3.310129 5.734393 0.000000 0.000000 0.000000 1.570796
  6   0.000008 -0.000006 -5.615750 0.003165 3.016668 -0.348200
  7   15.693467 0.000000 0.000000 0.000000 0.000000 -0.301749
  8   22.146629 0.000000 0.000000 0.457028 0.086451 -0.065409
  9   3.310129 5.734393 0.000000 0.000000 0.000000 1.570796
 10   1.384163 -0.004728 0.000002 -0.062745 -0.043151 0.213718
 11   5.939814 -0.004730 0.000000 -0.064002 -0.037068 0.065111
 12   5.939809 -0.003975 0.000000 -0.064066 0.056459 0.033518
 13   4.991439 -0.003975 0.000000 -0.064097 -0.038710 0.039625
 14   4.991436 -0.001575 0.000000 0.000000 0.000000 0.518519
 15   0.000005 0.001564 3.638375 -1.292473 -1.307462 3.905320
 16   8.842831 0.000000 -0.000002 -0.184442 0.162660 -0.794502
 17   9.341934 0.000000 -0.000001 0.000000 0.000000 -0.756146
 18   11.168404 -0.000001 0.000002 0.129246 -0.186238 -0.135926
 19   0.000005 0.001585 -3.638375 0.561039 1.255083 3.160728
 20   8.842831 0.000000 0.000001 0.059663 -1.099199 0.422047
 21   9.341937 0.000000 -0.000001 0.000000 0.000000 -1.141043
 22   11.168404 -0.000001 0.000001 1.561695 -0.261686 0.027129
 23   1.977383 0.000000 0.000000 0.647457 0.040806 -0.613011
 24   3.723980 2.768054 -0.049087 0.000001 -3.141591 -1.570794
 25   12.421014 0.304721 4.492689 -0.091859 -0.075839 1.616818
 26   19.916998 1.704573 4.956909 2.262592 1.451744 0.734330
time 27
  0   7.715342 -14.876736 29.806293 -0.000839 -0.038226 1.991745
  1   -3.205810 -0.312509 9.745319 -1.570795 -1.570451 0.000000
  2   -0.000008 0.000010 5.615750 0.031158 3.248153 -0.310839
  3   15.693467 0.000000 0.000000 0.000000 0.000000 -0.571763
  4   22.146629 -0.000001 0.000000 -0.081778 -0.109787 0.207389
  5   3.310129 5.734393 0.000000 0.000000 0.000000 1.570796
  6   0.000008 -0.000006 -5.615750 0.006808 3.015709 -0.317061
  7   15.693467 0.000000 0.000000 0.000000 0.000000 -0.263268
  8   22.146629 0.000000 0.000000 0.454603 0.087035 -0.084522
  9   3.310129 5.734393 0.000000 0.000000 0.000000 1.570796
 10   1.384163 -0.004728 0.000002 -0.064260 -0.022944 0.225117
 11   5.939814 -0.004730 0.000000 -0.063683 -0.042378 0.064346
 12   5.939809 -0.003975 0.000000 -0.063709 0.058341 0.036117
 13   4.991439 -0.003975 0.000000 -0.063767 -0.043780 0.042619
 14   4.991436 -0.001575 0.000000 0.000000 0.000000 0.518519
 15   0.000005 0.001564 3.638375 -1.144637 -1.292370 3.751919
 16   8.842831 0.000000 -0.000002 -0.127107 0.221916 -0.625270
 17   9.341934 0.000000 -0.000001 0.000000 0.000000 -0.899487
 18   11.168404 -0.000001 0.000002 0.113201 -0.166906 -0.102463
 19   0.000005 0.001585 -3.638375 0.560272 1.255237 3.160057
 20   8.842831 0.000000 0.000001 0.149641 -1.125226 0.352850
 21   9.341937 0.000000 -0.000001 0.000000 0.000000 -1.133248
 22   11.168404 -0.000001 0.000001 1.561695 -0.261686 0.027035
 23   1.977383 0.000000 0.000000 0.590578 0.032723 -0.632893
 24   3.723980 2.768054 -0.049087 0.000001 -3.141591 -1.570794
 25   12.421014 0.304721 4.492689 -0.091859 -0.075839 1.616818
 26   19.916998 1.704573 4.956909 2.262592 1.451744 0.734330
time 28
  0   7.700270 -14.890823 29.923914 -0.000932 -0.047401 1.991073
  1   -3.350346 -0.105471 9.745319 -1.570795 -1.570451 0.000000
  2   -0.000008 0.000010 5.615750 0.028761 3.246812 -0.294591
  3   15.693467 0.000000 0.000000 0.000000 0.000000 -0.558816
  4   22.146629 -0.000001 0.000000 -0.081441 -0.107732 0.198928
  5   3.310129 5.734393 0.000000 0.000000 0.000000 1.570796
  6   0.000008 -0.000006 -5.615750 0.011219 3.014654 -0.280662
  7   15.693467 0.000000 0.000000 0.000000 0.000000 -0.215929
  8   22.146629 0.000000 0.000000 0.452064 0.087894 -0.107334
  9   3.310129 5.734393 0.000000 0.000000 0.000000 1.570796
 10   1.384163 -0.004728 0.000002 -0.065303 0.001046 0.239334
 11   5.939814 -0.004730 0.000000 -0.062759 -0.047651 0.063753
 12   5.939809 -0.003975 0.000000 -0.062765 0.059468 0.038715
 13   4.991439 -0.003975 0.000000 -0.062863 -0.048813 0.045462
 14   4.991436 -0.001575 0.000000 0.000000 0.000000 0.518519
 15   0.000005 0.001564 3.638375 -1.023837 -1.273469 3.625938
 16   8.842831 0.000000 -0.000002 -0.075898 0.272614 -0.466191
 17   9.341934 0.000000 -0.000001 0.000000 0.000000 -1.032496
 18   11.168404 -0.000001 0.000002 0.098876 -0.148339 -0.072096
 19   0.000005 0.001585 -3.638375 0.560272 1.255237 3.160057
 20   8.842831 0.000000 0.000001 0.244617 -1.142312 0.276218
 21   9.341937 0.000000 -0.000001 0.000000 0.000000 -1.114262
 22   11.168404 -0.000001 0.000001 1.561695 -0.261686 0.027035
 23   1.977383 0.000000 0.000000 0.535178 0.022170 -0.656353
 24   3.723980 2.768054 -0.049087 0.000001 -3.141591 -1.570794
 25   12.421014 0.304721 4.492689 -0.091859 -0.075839 1.616818
 26   19.916998 1.704573 4.956909 2.262592 1.451744 0.734330
time 29
  0   7.692734 -14.869692 30.041534 -0.000932 -0.056766 1.990307
  1   -3.514413 0.128911 9.745319 -1.570795 -1.570451 0.000000
  2   -0.000008 0.000010 5.615750 0.026365 3.245566 -0.277483
  3   15.693467 0.000000 0.000000 0.000000 0.000000 -0.545016
  4   22.146629 -0.000001 0.000000 -0.081217 -0.105726 0.190650
  5   3.310129 5.734393 0.000000 0.000000 0.000000 1.570796
  6   0.000008 -0.000006 -5.615750 0.016779 3.013791 -0.236058
  7   15.693467 0.000000 0.000000 0.000000 0.000000 -0.155564
  8   22.146629 0.000000 0.000000 0.449526 0.088754 -0.134902
  9   3.310129 5.734393 0.000000 0.000000 0.000000 1.570796
 10   1.384163 -0.004728 0.000002 -0.065808 0.028095 0.255785
 11   5.939814 -0.004730 0.000000 -0.061427 -0.052792 0.063275
 12   5.939809 -0.003975 0.000000 -0.061387 0.059995 0.041276
 13   4.991439 -0.003975 0.000000 -0.061499 -0.053751 0.048153
 14   4.991436 -0.001575 0.000000 0.000000 0.000000 0.518519
 15   0.000005 0.001564 3.638375 -0.930936 -1.253553 3.528432
 16   8.842831 0.000000 -0.000002 -0.033103 0.318941 -0.325326
 17   9.341934 0.000000 -0.000001 0.000000 0.000000 -1.149597
 18   11.168404 -0.000001 0.000002 0.086842 -0.131687 -0.045709
 19   0.000005 0.001585 -3.638375 0.560272 1.255237 3.160057
 20   8.842831 0.000000 0.000001 0.345883 -1.152669 0.191770
 21   9.341937 0.000000 -0.000001 0.000000 0.000000 -1.088548
 22   11.168404 -0.000001 0.000001 1.561695 -0.261686 0.027035
 23   1.977383 0.000000 0.000000 0.483161 0.009284 -0.682498
 24   3.723980 2.768054 -0.049087 0.000001 -3.141591 -1.570794
 25   12.421014 0.304721 4.492689 -0.091859 -0.075839 1.616818
 26   19.916998 1.704573 4.956909 2.262592 1.451744 0.734330
time 30
  0   7.677662 -14.792208 30.178759 -0.000932 -0.066418 1.989540
  1   -3.690200 0.386732 9.745319 -1.570795 -1.570451 0.000000
  2   -0.000008 0.000010 5.615750 0.023968 3.244512 -0.258846
  3   15.693467 0.000000 0.000000 0.000000 0.000000 -0.530006
  4   22.146629 -0.000001 0.000000 -0.080992 -0.103992 0.182875
  5   3.310129 5.734393 0.000000 0.000000 0.000000 1.570796
  6   0.000008 -0.000006 -5.615750 0.025408 3.014079 -0.167117
  7   15.693467 0.000000 0.000000 0.000000 0.000000 -0.055080
  8   22.146629 0.000000 0.000000 0.447044 0.089337 -0.178324
  9   3.310129 5.734393 0.000000 0.000000 0.000000 1.570796
 10   1.384163 -0.004728 0.000002 -0.065741 0.057478 0.273887
 11   5.939814 -0.004730 0.000000 -0.059811 -0.057766 0.062874
 12   5.939809 -0.003975 0.000000 -0.059753 0.060091 0.043750
 13   4.991439 -0.003975 0.000000 -0.059877 -0.058545 0.050675
 14   4.991436 -0.001575 0.000000 0.000000 0.000000 0.518519
 15   0.000005 0.001564 3.638375 -0.863729 -1.235414 3.457580
 16   8.842831 0.000000 -0.000002 -0.000183 0.364801 -0.210364
 17   9.341934 0.000000 -0.000001 0.000000 0.000000 -1.245049
 18   11.168404 -0.000001 0.000002 0.077387 -0.117906 -0.024186
 19   0.000005 0.001585 -3.638375 0.560272 1.255237 3.160057
 20   8.842831 0.000000 0.000001 0.448438 -1.155768 0.104368
 21   9.341937 0.000000 -0.000001 0.000000 0.000000 -1.056771
 22   11.168404 -0.000001 0.000001 1.561695 -0.261686 0.027035
 23   1.977383 0.000000 0.000000 0.436695 -0.005727 -0.710382
 24   3.723980 2.768054 -0.049087 0.000001 -3.141591 -1.570794
 25   12.421014 0.304721 4.492689 -0.091859 -0.075839 1.616818
 26   19.916998 1.704573 4.956909 2.262592 1.451744 0.734330
time 31
  0   7.670126 -14.658371 30.315981 -0.000932 -0.076262 1.988677
  1   -3.873799 0.660177 9.745319 -1.570795 -1.570451 0.000000
  2   -0.000008 0.000010 5.615750 0.021571 3.243937 -0.238488
  3   15.693467 0.000000 0.000000 0.000000 0.000000 -0.513857
  4   22.146629 -0.000001 0.000000 -0.080805 -0.102853 0.175923
  5   3.310129 5.734393 0.000000 0.000000 0.000000 1.570796
  6   0.000008 -0.000006 -5.615750 0.030777 3.014558 -0.125037
  7   15.693467 0.000000 0.000000 0.000000 0.000000 -0.001861
  8   22.146629 0.000000 0.000000 0.444675 0.089429 -0.200784
  9   3.310129 5.734393 0.000000 0.000000 0.000000 1.570796
 10   1.384163 -0.004728 0.000002 -0.065068 0.088472 0.293058
 11   5.939814 -0.004730 0.000000 -0.058106 -0.062512 0.062529
 12   5.939809 -0.003975 0.000000 -0.058018 0.059935 0.046098
 13   4.991439 -0.003975 0.000000 -0.058154 -0.063123 0.053030
 14   4.991436 -0.001575 0.000000 0.000000 0.000000 0.518519
 15   0.000005 0.001564 3.638375 -0.819819 -1.221410 3.410984
 16   8.842831 0.000000 -0.000002 0.020666 0.412988 -0.128398
 17   9.341934 0.000000 -0.000001 0.000000 0.000000 -1.313111
 18   11.168404 -0.000001 0.000002 0.070798 -0.108048 -0.008413
 19   0.000005 0.001585 -3.638375 0.560272 1.255237 3.160057
 20   8.842831 0.000000 0.000001 0.546801 -1.152050 0.019444
 21   9.341937 0.000000 -0.000001 0.000000 0.000000 -1.019399
 22   11.168404 -0.000001 0.000001 1.561695 -0.261686 0.027035
 23   1.977383 0.000000 0.000000 0.397842 -0.022678 -0.739161
 24   3.723980 2.768054 -0.049087 0.000001 -3.141591 -1.570794
 25   12.421014 0.304721 4.492689 -0.091859 -0.075839 1.616818
 26   19.916998 1.704573 4.956909 2.262592 1.451744 0.734330
time 32
  0   7.662591 -14.482270 30.453205 -0.000932 -0.086200 1.987814
  1   -4.053493 0.941436 9.745319 -1.570795 -1.570790 0.000000
  2   -0.000008 0.000010 5.615750 0.019174 3.243937 -0.216697
  3   15.693467 0.000000 0.000000 0.000000 0.000000 -0.496642
  4   22.146629 -0.000001 0.000000 -0.080618 -0.102258 0.169611
  5   3.310129 5.734393 0.000000 0.000000 0.000000 1.570796
  6   0.000008 -0.000006 -5.615750 0.032216 3.014654 -0.113606
  7   15.693467 0.000000 0.000000 0.000000 0.000000 -0.001861
  8   22.146629 0.000000 0.000000 0.442418 0.089122 -0.200168
  9   3.310129 5.734393 0.000000 0.000000 0.000000 1.570796
 10   1.384163 -0.004728 0.000002 -0.063822 0.120298 0.312683
 11   5.939814 -0.004730 0.000000 -0.056437 -0.066958 0.062185
 12   5.939809 -0.003975 0.000000 -0.056334 0.059683 0.048272
 13   4.991439 -0.003975 0.000000 -0.056460 -0.067413 0.055183
 14   4.991436 -0.001575 0.000000 0.000000 0.000000 0.518519
 15   0.000005 0.001564 3.638375 -0.792208 -1.211651 3.381550
 16   8.842831 0.000000 -0.000002 0.032371 0.465175 -0.073530
 17   9.341934 0.000000 -0.000001 0.000000 0.000000 -1.358295
 18   11.168404 -0.000001 0.000002 0.066500 -0.101636 0.002446
 19   0.000005 0.001585 -3.638375 0.560272 1.255237 3.160057
 20   8.842831 0.000000 0.000001 0.635973 -1.142046 -0.058427
 21   9.341937 0.000000 -0.000001 0.000000 0.000000 -0.977163
 22   11.168404 -0.000001 0.000001 1.561695 -0.261686 0.027035
 23   1.977383 0.000000 0.000000 0.379393 -0.040367 -0.768189
 24   3.723980 2.768054 -0.049087 0.000001 -3.141591 -1.570794
 25   12.421014 0.304721 4.492689 -0.091859 -0.075839 1.616818
 26   19.916998 1.704573 4.956909 2.262592 1.451744 0.734330
time 33
  0   7.655055 -14.285038 30.610033 -0.000932 -0.096330 1.986951
  1   -4.225373 1.226601 9.745319 -1.570795 -1.570790 0.000000
  2   -0.000008 0.000010 5.615750 0.016778 3.244224 -0.194046
  3   15.693467 0.000000 0.000000 0.000000 0.000000 -0.478645
  4   22.146629 -0.000001 0.000000 -0.080431 -0.102035 0.163619
  5   3.310129 5.734393 0.000000 0.000000 0.000000 1.570796
  6   0.000008 -0.000006 -5.615750 0.033750 3.014942 -0.101753
  7   15.693467 0.000000 0.000000 0.000000 0.000000 -0.001861
  8   22.146629 0.000000 0.000000 0.440275 0.088508 -0.198846
  9   3.310129 5.734393 0.000000 0.000000 0.000000 1.570796
 10   1.384163 -0.004728 0.000002 -0.062173 0.152231 0.332178
 11   5.939814 -0.004730 0.000000 -0.054999 -0.071045 0.061822
 12   5.939809 -0.003975 0.000000 -0.054879 0.059527 0.050221
 13   4.991439 -0.003975 0.000000 -0.054996 -0.071368 0.057117
 14   4.991436 -0.001575 0.000000 0.000000 0.000000 0.518519
 15   0.000005 0.001564 3.638375 -0.773704 -1.204577 3.361704
 16   8.842831 0.000000 -0.000002 0.039961 0.521733 -0.033145
 17   9.341934 0.000000 -0.000001 0.000000 0.000000 -1.390112
 18   11.168404 -0.000001 0.000002 0.063539 -0.097042 0.010062
 19   0.000005 0.001585 -3.638375 0.560272 1.255237 3.160057
 20   8.842831 0.000000 0.000001 0.712406 -1.126819 -0.126004
 21   9.341937 0.000000 -0.000001 0.000000 0.000000 -0.930664
 22   11.168404 -0.000001 0.000001 1.561695 -0.261686 0.027035
 23   1.977383 0.000000 0.000000 0.387058 -0.058010 -0.796869
 24   3.723980 2.768054 -0.049087 0.000001 -3.141591 -1.570794
 25   12.421014 0.304721 4.492689 -0.091859 -0.075839 1.616818
 26   19.916998 1.704573 4.956909 2.262592 1.451744 0.734330
time 34
  0   7.647519 -14.080762 30.747257 -0.000839 -0.106556 1.985992
  1   -4.385534 1.511766 9.745319 -1.570795 -1.570451 0.000000
  2   -0.000008 0.000010 5.615750 0.014477 3.244608 -0.171490
  3   15.693467 0.000000 0.000000 0.000000 0.000000 -0.460718
  4   22.146629 -0.000001 0.000000 -0.080282 -0.101936 0.157902
  5   3.310129 5.734393 0.000000 0.000000 0.000000 1.570796
  6   0.000008 -0.000006 -5.615750 0.035188 3.015421 -0.090041
  7   15.693467 0.000000 0.000000 0.000000 0.000000 -0.001861
  8   22.146629 0.000000 0.000000 0.438244 0.087833 -0.197349
  9   3.310129 5.734393 0.000000 0.000000 0.000000 1.570796
 10   1.384163 -0.004728 0.000002 -0.060254 0.183573 0.350928
 11   5.939814 -0.004730 0.000000 -0.053933 -0.074712 0.061382
 12   5.939809 -0.003975 0.000000 -0.053795 0.059611 0.051920
 13   4.991439 -0.003975 0.000000 -0.053905 -0.074916 0.058849
 14   4.991436 -0.001575 0.000000 0.000000 0.000000 0.518519
 15   0.000005 0.001564 3.638375 -0.762487 -1.200079 3.349624
 16   8.842831 0.000000 -0.000002 0.044076 0.581827 -0.004554
 17   9.341934 0.000000 -0.000001 0.000000 0.000000 -1.410203
 18   11.168404 -0.000001 0.000002 0.061629 -0.094171 0.014878
 19   0.000005 0.001585 -3.638375 0.560272 1.255237 3.160057
 20   8.842831 0.000000 0.000001 0.774084 -1.107786 -0.181572
 21   9.341937 0.000000 -0.000001 0.000000 0.000000 -0.880500
 22   11.168404 -0.000001 0.000001 1.561695 -0.261686 0.027035
 23   1.977383 0.000000 0.000000 0.412220 -0.075654 -0.824256
 24   3.723980 2.768054 -0.049087 0.000001 -3.141591 -1.570794
 25   12.421014 0.304721 4.492689 -0.091859 -0.075839 1.616818
 26   19.916998 1.704573 4.956909 2.262592 1.451744 0.734330
time 35
  0   7.639983 -13.883530 30.884480 -0.000839 -0.116973 1.985033
  1   -4.526163 1.781305 9.745319 -1.570795 -1.570790 0.000000
  2   -0.000008 0.000010 5.615750 0.012272 3.244799 -0.150368
  3   15.693467 0.000000 0.000000 0.000000 0.000000 -0.444428
  4   22.146629 -0.000001 0.000000 -0.080132 -0.101714 0.152734
  5   3.310129 5.734393 0.000000 0.000000 0.000000 1.570796
  6   0.000008 -0.000006 -5.615750 0.036626 3.015709 -0.078820
  7   15.693467 0.000000 0.000000 0.000000 0.000000 -0.001861
  8   22.146629 0.000000 0.000000 0.436213 0.087342 -0.196028
  9   3.310129 5.734393 0.000000 0.000000 0.000000 1.570796
 10   1.384163 -0.004728 0.000002 -0.058336 0.213601 0.368285
 11   5.939814 -0.004730 0.000000 -0.053383 -0.077912 0.060866
 12   5.939809 -0.003975 0.000000 -0.053246 0.060127 0.053319
 13   4.991439 -0.003975 0.000000 -0.053345 -0.077984 0.060363
 14   4.991436 -0.001575 0.000000 0.000000 0.000000 0.518519
 15   0.000005 0.001564 3.638375 -0.757023 -1.197829 3.343775
 16   8.842831 0.000000 -0.000002 0.045173 0.644805 0.014781
 17   9.341934 0.000000 -0.000001 0.000000 0.000000 -1.420126
 18   11.168404 -0.000001 0.000002 0.060770 -0.092736 0.017237
 19   0.000005 0.001585 -3.638375 0.560272 1.255237 3.160057
 20   8.842831 0.000000 0.000001 0.820605 -1.086009 -0.225035
 21   9.341937 0.000000 -0.000001 0.000000 0.000000 -0.827206
 22   11.168404 -0.000001 0.000001 1.561695 -0.261686 0.027035
 23   1.977383 0.000000 0.000000 0.446211 -0.093412 -0.849556
 24   3.723980 2.768054 -0.049087 0.000001 -3.141591 -1.570794
 25   12.421014 0.304721 4.492689 -0.091859 -0.075839 1.616818
 26   19.916998 1.704573 4.956909 2.262592 1.451744 0.734330
time 36
  0   7.639983 -13.693341 31.041307 -0.000746 -0.127294 1.984074
  1   -4.643354 2.039126 9.745319 -1.570795 -1.570451 0.000000
  2   -0.000008 0.000010 5.615750 0.010067 3.244799 -0.129533
  3   15.693467 0.000000 0.000000 0.000000 0.000000 -0.427995
  4   22.146629 -0.000001 0.000000 -0.079983 -0.101367 0.147429
  5   3.310129 5.734393 0.000000 0.000000 0.000000 1.570796
  6   0.000008 -0.000006 -5.615750 0.037968 3.015805 -0.067879
  7   15.693467 0.000000 0.000000 0.000000 0.000000 -0.001861
  8   22.146629 0.000000 0.000000 0.434183 0.086973 -0.194707
  9   3.310129 5.734393 0.000000 0.000000 0.000000 1.570796
 10   1.384163 -0.004728 0.000002 -0.056720 0.241616 0.383570
 11   5.939814 -0.004730 0.000000 -0.053542 -0.080560 0.060216
 12   5.939809 -0.003975 0.000000 -0.053386 0.061229 0.054369
 13   4.991439 -0.003975 0.000000 -0.053474 -0.080524 0.061658
 14   4.991436 -0.001575 0.000000 0.000000 0.000000 0.518519
 15   0.000005 0.001564 3.638375 -0.756256 -1.197503 3.343008
 16   8.842831 0.000000 -0.000002 0.043619 0.709735 0.027770
 17   9.341934 0.000000 -0.000001 0.000000 0.000000 -1.421438
 18   11.168404 -0.000001 0.000002 0.060579 -0.092544 0.017531
 19   0.000005 0.001585 -3.638375 0.560272 1.255237 3.160057
 20   8.842831 0.000000 0.000001 0.852049 -1.062814 -0.257251
 21   9.341937 0.000000 -0.000001 0.000000 0.000000 -0.771514
 22   11.168404 -0.000001 0.000001 1.561695 -0.261686 0.027035
 23   1.977383 0.000000 0.000000 0.480307 -0.111310 -0.871923
 24   3.723980 2.768054 -0.049087 0.000001 -3.141591 -1.570794
 25   12.421014 0.304721 4.492689 -0.091859 -0.075839 1.616818
 26   19.916998 1.704573 4.956909 2.262592 1.451744 0.734330
time 37
  0   7.632447 -13.482020 31.178532 -0.000746 -0.137711 1.983116
  1   -4.729294 2.273508 9.745319 -1.570795 -1.570451 0.000000
  2   -0.000008 0.000010 5.615750 0.007670 3.244799 -0.106881
  3   15.693467 0.000000 0.000000 0.000000 0.000000 -0.408503
  4   22.146629 -0.000001 0.000000 -0.079871 -0.101070 0.141117
  5   3.310129 5.734393 0.000000 0.000000 0.000000 1.570796
  6   0.000008 -0.000006 -5.615750 0.039310 3.015996 -0.057009
  7   15.693467 0.000000 0.000000 0.000000 0.000000 -0.001861
  8   22.146629 0.000000 0.000000 0.432265 0.086605 -0.193121
  9   3.310129 5.734393 0.000000 0.000000 0.000000 1.570796
 10   1.384163 -0.004728 0.000002 -0.055778 0.266894 0.396135
 11   5.939814 -0.004730 0.000000 -0.054555 -0.082610 0.059413
 12   5.939809 -0.003975 0.000000 -0.054382 0.063111 0.055043
 13   4.991439 -0.003975 0.000000 -0.054479 -0.082454 0.062718
 14   4.991436 -0.001575 0.000000 0.000000 0.000000 0.518519
 15   0.000005 0.001564 3.638375 -0.759324 -1.198809 3.346268
 16   8.842831 0.000000 -0.000002 0.039961 0.775597 0.037176
 17   9.341934 0.000000 -0.000001 0.000000 0.000000 -1.415779
 18   11.168404 -0.000001 0.000002 0.061152 -0.093406 0.016205
 19   0.000005 0.001585 -3.638375 0.560272 1.255237 3.160057
 20   8.842831 0.000000 0.000001 0.869222 -1.039089 -0.279173
 21   9.341937 0.000000 -0.000001 0.000000 0.000000 -0.714023
 22   11.168404 -0.000001 0.000001 1.561695 -0.261686 0.027035
 23   1.977383 0.000000 0.000000 0.505734 -0.129392 -0.890860
 24   3.723980 2.768054 -0.049087 0.000001 -3.141591 -1.570794
 25   12.421014 0.304721 4.492689 -0.091859 -0.075839 1.616818
 26   19.916998 1.704573 4.956909 2.262592 1.451744 0.734330
time 38
  0   7.632447 -13.270700 31.335358 -0.000653 -0.148127 1.982157
  1   -4.783983 2.480546 9.745319 -1.570795 -1.570451 0.000000
  2   -0.000008 0.000010 5.615750 0.005178 3.244895 -0.082892
  3   15.693467 0.000000 0.000000 0.000000 0.000000 -0.386308
  4   22.146629 -0.000001 0.000000 -0.079721 -0.100822 0.133936
  5   3.310129 5.734393 0.000000 0.000000 0.000000 1.570796
  6   0.000008 -0.000006 -5.615750 0.040749 3.016284 -0.046138
  7   15.693467 0.000000 0.000000 0.000000 0.000000 -0.001861
  8   22.146629 0.000000 0.000000 0.430460 0.086144 -0.191184
  9   3.310129 5.734393 0.000000 0.000000 0.000000 1.570796
 10   1.384163 -0.004728 0.000002 -0.055912 0.288764 0.405170
 11   5.939814 -0.004730 0.000000 -0.056561 -0.084000 0.058418
 12   5.939809 -0.003975 0.000000 -0.056385 0.065915 0.055268
 13   4.991439 -0.003975 0.000000 -0.056489 -0.083724 0.063525
 14   4.991436 -0.001575 0.000000 0.000000 0.000000 0.518519
 15   0.000005 0.001564 3.638375 -0.765459 -1.201276 3.352883
 16   8.842831 0.000000 -0.000002 0.035663 0.841644 0.046432
 17   9.341934 0.000000 -0.000001 0.000000 0.000000 -1.404873
 18   11.168404 -0.000001 0.000002 0.062107 -0.094937 0.013600
 19   0.000005 0.001585 -3.638375 0.560272 1.255237 3.160057
 20   8.842831 0.000000 0.000001 0.872850 -1.015718 -0.292231
 21   9.341937 0.000000 -0.000001 0.000000 0.000000 -0.655199
 22   11.168404 -0.000001 0.000001 1.561695 -0.261686 0.027035
 23   1.977383 0.000000 0.000000 0.513716 -0.147728 -0.905722
 24   3.723980 2.768054 -0.049087 0.000001 -3.141591 -1.570794
 25   12.421014 0.304721 4.492689 -0.091859 -0.075839 1.616818
 26   19.916998 1.704573 4.956909 2.262592 1.451744 0.734330
time 39
  0   7.624911 -13.066423 31.492186 -0.000559 -0.158448 1.981198
  1   -4.799609 2.656332 9.745319 -1.570795 -1.570451 0.000000
  2   -0.000008 0.000010 5.615750 0.002685 3.245087 -0.058138
  3   15.693467 0.000000 0.000000 0.000000 0.000000 -0.362833
  4   22.146629 -0.000001 0.000000 -0.079609 -0.100822 0.126573
  5   3.310129 5.734393 0.000000 0.000000 0.000000 1.570796
  6   0.000008 -0.000006 -5.615750 0.042091 3.016763 -0.035337
  7   15.693467 0.000000 0.000000 0.000000 0.000000 -0.001861
  8   22.146629 0.000000 0.000000 0.428711 0.085530 -0.188982
  9   3.310129 5.734393 0.000000 0.000000 0.000000 1.570796
 10   1.384163 -0.004728 0.000002 -0.057562 0.306502 0.409931
 11   5.939814 -0.004730 0.000000 -0.059758 -0.084671 0.057175
 12   5.939809 -0.003975 0.000000 -0.059562 0.069834 0.055006
 13   4.991439 -0.003975 0.000000 -0.059690 -0.084264 0.064097
 14   4.991436 -0.001575 0.000000 0.000000 0.000000 0.518519
 15   0.000005 0.001564 3.638375 -0.773704 -1.204577 3.361704
 16   8.842831 0.000000 -0.000002 0.032645 0.907133 0.059571
 17   9.341934 0.000000 -0.000001 0.000000 0.000000 -1.390112
 18   11.168404 -0.000001 0.000002 0.063539 -0.097042 0.010062
 19   0.000005 0.001585 -3.638375 0.560272 1.255237 3.160057
 20   8.842831 0.000000 0.000001 0.863417 -0.993232 -0.297664
 21   9.341937 0.000000 -0.000001 0.000000 0.000000 -0.595843
 22   11.168404 -0.000001 0.000001 1.561695 -0.261686 0.027035
 23   1.977383 0.000000 0.000000 0.495373 -0.166433 -0.915862
 24   3.723980 2.768054 -0.049087 0.000001 -3.141591 -1.570794
 25   12.421014 0.304721 4.492689 -0.091859 -0.075839 1.616818
 26   19.916998 1.704573 4.956909 2.262592 1.451744 0.734330
time 40
  0   7.624911 -12.883279 31.609806 -0.000466 -0.168674 1.980240
  1   -4.772264 2.796961 9.745319 -1.570795 -1.570451 0.000000
  2   -0.000008 0.000010 5.615750 0.000289 3.245662 -0.034435
  3   15.693467 0.000000 0.000000 0.000000 0.000000 -0.341136
  4   22.146629 -0.000001 0.000000 -0.079497 -0.101342 0.120307
  5   3.310129 5.734393 0.000000 0.000000 0.000000 1.570796
  6   0.000008 -0.000006 -5.615750 0.043433 3.017626 -0.024537
  7   15.693467 0.000000 0.000000 0.000000 0.000000 -0.001861
  8   22.146629 0.000000 0.000000 0.427132 0.084548 -0.186427
  9   3.310129 5.734393 0.000000 0.000000 0.000000 1.570796
 10   1.384163 -0.004728 0.000002 -0.061129 0.319436 0.409736
 11   5.939814 -0.004730 0.000000 -0.064269 -0.084563 0.055703
 12   5.939809 -0.003975 0.000000 -0.064066 0.075036 0.054194
 13   4.991439 -0.003975 0.000000 -0.064241 -0.084012 0.064400
 14   4.991436 -0.001575 0.000000 0.000000 0.000000 0.518519
 15   0.000005 0.001564 3.638375 -0.783484 -1.208314 3.372154
 16   8.842831 0.000000 -0.000002 0.034566 0.971041 0.081742
 17   9.341934 0.000000 -0.000001 0.000000 0.000000 -1.373302
 18   11.168404 -0.000001 0.000002 0.065067 -0.099531 0.006033
 19   0.000005 0.001585 -3.638375 0.560272 1.255237 3.160057
 20   8.842831 0.000000 0.000001 0.841406 -0.972163 -0.296234
 21   9.341937 0.000000 -0.000001 0.000000 0.000000 -0.536486
 22   11.168404 -0.000001 0.000001 1.561695 -0.261686 0.027035
 23   1.977383 0.000000 0.000000 0.441823 -0.185739 -0.920435
 24   3.723980 2.768054 -0.049087 0.000001 -3.141591 -1.570794
 25   12.421014 0.304721 4.492689 -0.091859 -0.075839 1.616818
 26   19.916998 1.704573 4.956909 2.262592 1.451744 0.734330
time 41
  0   7.624911 -12.721267 31.668615 -0.000373 -0.178899 1.979377
  1   -4.569133 2.804774 9.745319 -1.570795 -1.570451 0.000000
  2   -0.000008 0.000010 5.615750 -0.001437 3.246812 -0.014556
  3   15.693467 0.000000 0.000000 0.000000 0.000000 -0.327336
  4   22.146629 -0.000001 0.000000 -0.079347 -0.102382 0.118432
  5   3.310129 5.734393 0.000000 0.000000 0.000000 1.570796
  6   0.000008 -0.000006 -5.615750 0.044775 3.018777 -0.013176
  7   15.693467 0.000000 0.000000 0.000000 0.000000 -0.001861
  8   22.146629 0.000000 0.000000 0.425721 0.083351 -0.182816
  9   3.310129 5.734393 0.000000 0.000000 0.000000 1.570796
 10   1.384163 -0.004728 0.000002 -0.073179 0.313908 0.389011
 11   5.939814 -0.004730 0.000000 -0.074800 -0.080129 0.053064
 12   5.939809 -0.003975 0.000000 -0.074618 0.085498 0.050433
 13   4.991439 -0.003975 0.000000 -0.074778 -0.079398 0.062920
 14   4.991436 -0.001575 0.000000 0.000000 0.000000 0.518519
 15   0.000005 0.001564 3.638375 -0.793646 -1.212159 3.383084
 16   8.842831 0.000000 -0.000002 0.075075 1.029553 0.166395
 17   9.341934 0.000000 -0.000001 0.000000 0.000000 -1.355917
 18   11.168404 -0.000001 0.000002 0.066691 -0.102019 0.001906
 19   0.000005 0.001585 -3.638375 0.560272 1.255237 3.160057
 20   8.842831 0.000000 0.000001 0.766022 -0.951713 -0.267449
 21   9.341937 0.000000 -0.000001 0.000000 0.000000 -0.477729
 22   11.168404 -0.000001 0.000001 1.561695 -0.261686 0.027035
 23   1.977383 0.000000 0.000000 0.324997 -0.206500 -0.900950
 24   3.723980 2.768054 -0.049087 0.000001 -3.141591 -1.570794
 25   12.421014 0.304721 4.492689 -0.091859 -0.075839 1.616818
 26   19.916998 1.704573 4.956909 2.262592 1.451744 0.734330
time 42
  0   7.617374 -12.601519 31.609806 -0.000280 -0.188934 1.978418
  1   -4.115994 2.628988 9.745319 -1.570795 -1.570451 0.000000
  2   -0.000008 0.000010 5.615750 -0.002204 3.249495 -0.002418
  3   15.693467 0.000000 0.000000 0.000000 0.000000 -0.329327
  4   22.146629 -0.000001 0.000000 -0.079198 -0.105082 0.125201
  5   3.310129 5.734393 0.000000 0.000000 0.000000 1.570796
  6   0.000008 -0.000006 -5.615750 0.046309 3.021078 -0.000552
  7   15.693467 0.000000 0.000000 0.000000 0.000000 -0.001861
  8   22.146629 0.000000 0.000000 0.424593 0.081110 -0.177267
  9   3.310129 5.734393 0.000000 0.000000 0.000000 1.570796
 10   1.384163 -0.004728 0.000002 -0.095563 0.283102 0.341536
 11   5.939814 -0.004730 0.000000 -0.093553 -0.069642 0.048762
 12   5.939809 -0.003975 0.000000 -0.093541 0.102984 0.042313
 13   4.991439 -0.003975 0.000000 -0.093526 -0.068732 0.058732
 14   4.991436 -0.001575 0.000000 0.000000 0.000000 0.518519
 15   0.000005 0.001564 3.638375 -0.803521 -1.215715 3.393535
 16   8.842831 0.000000 -0.000002 0.187917 1.075321 0.355932
 17   9.341934 0.000000 -0.000001 0.000000 0.000000 -1.339598
 18   11.168404 -0.000001 0.000002 0.068219 -0.104316 -0.002025
 19   0.000005 0.001585 -3.638375 0.560272 1.255237 3.160057
 20   8.842831 0.000000 0.000001 0.621783 -0.925686 -0.203971
 21   9.341937 0.000000 -0.000001 0.000000 0.000000 -0.420172
 22   11.168404 -0.000001 0.000001 1.561695 -0.261686 0.027035
 23   1.977383 0.000000 0.000000 0.140349 -0.232942 -0.846623
 24   3.723980 2.768054 -0.049087 0.000001 -3.141591 -1.570794
 25   12.421014 0.304721 4.492689 -0.091859 -0.075839 1.616818
 26   19.916998 1.704573 4.956909 2.262592 1.451744 0.734330
time 43
  0   7.617374 -12.615606 31.354961 -0.000186 -0.198873 1.977555
  1   -3.506601 2.328197 9.745319 -1.570795 -1.570451 0.000000
  2   -0.000008 0.000010 5.615750 0.000768 3.251411 -0.026789
  3   15.693467 0.000000 0.000000 0.000000 0.000000 -0.382965
  4   22.146629 -0.000001 0.000000 -0.079048 -0.106914 0.147978
  5   3.310129 5.734393 0.000000 0.000000 0.000000 1.570796
  6   0.000008 -0.000006 -5.615750 0.047076 3.021749 0.005620
  7   15.693467 0.000000 0.000000 0.000000 0.000000 -0.001861
  8   22.146629 0.000000 0.000000 0.423352 0.080158 -0.177796
  9   3.310129 5.734393 0.000000 0.000000 0.000000 1.570796
 10   1.384163 -0.004728 0.000002 -0.121178 0.236625 0.280461
 11   5.939814 -0.004730 0.000000 -0.117048 -0.055800 0.043254
 12   5.939809 -0.003975 0.000000 -0.117478 0.124292 0.031294
 13   4.991439 -0.003975 0.000000 -0.116997 -0.054698 0.052778
 14   4.991436 -0.001575 0.000000 0.000000 0.000000 0.518519
 15   0.000005 0.001564 3.638375 -0.811862 -1.218689 3.402451
 16   8.842831 0.000000 -0.000002 0.365410 1.098856 0.627958
 17   9.341934 0.000000 -0.000001 0.000000 0.000000 -1.325904
 18   11.168404 -0.000001 0.000002 0.069556 -0.106230 -0.005318
 19   0.000005 0.001585 -3.638375 0.560272 1.255237 3.160057
 20   8.842831 0.000000 0.000001 0.447551 -0.886380 -0.127243
 21   9.341937 0.000000 -0.000001 0.000000 0.000000 -0.364479
 22   11.168404 -0.000001 0.000001 1.561695 -0.261686 0.027035
 23   1.977383 0.000000 0.000000 -0.086377 -0.269753 -0.768487
 24   3.723980 2.768054 -0.049087 0.000001 -3.141591 -1.570794
 25   12.421014 0.304721 4.492689 -0.091859 -0.075839 1.616818
 26   19.916998 1.704573 4.956909 2.262592 1.451744 0.734330
time 44
  0   7.617374 -12.763531 30.943291 -0.000093 -0.208525 1.976788
  1   -2.834705 1.972717 9.745319 -1.570795 -1.570451 0.000000
  2   -0.000008 0.000010 5.615750 0.007670 3.254766 -0.079929
  3   15.693467 0.000000 0.000000 0.000000 0.000000 -0.484905
  4   22.146629 -0.000001 0.000000 -0.078861 -0.110555 0.191153
  5   3.310129 5.734393 0.000000 0.000000 0.000000 1.570796
  6   0.000008 -0.000006 -5.615750 0.041324 3.020503 -0.042281
  7   15.693467 0.000000 0.000000 0.000000 0.000000 -0.091701
  8   22.146629 0.000000 0.000000 0.422393 0.078899 -0.141420
  9   3.310129 5.734393 0.000000 0.000000 0.000000 1.570796
 10   1.384163 -0.004728 0.000002 -0.144571 0.184996 0.217701
 11   5.939814 -0.004730 0.000000 -0.141785 -0.041227 0.037154
 12   5.939809 -0.003975 0.000000 -0.142933 0.146296 0.019076
 13   4.991439 -0.003975 0.000000 -0.141732 -0.039969 0.046067
 14   4.991436 -0.001575 0.000000 0.000000 0.000000 0.518519
 15   0.000005 0.001564 3.638375 -0.817614 -1.220685 3.408587
 16   8.842831 0.000000 -0.000002 0.571707 1.093461 0.933128
 17   9.341934 0.000000 -0.000001 0.000000 0.000000 -1.316556
 18   11.168404 -0.000001 0.000002 0.070416 -0.107570 -0.007578
 19   0.000005 0.001585 -3.638375 0.560272 1.255237 3.160057
 20   8.842831 0.000000 0.000001 0.280576 -0.833264 -0.058999
 21   9.341937 0.000000 -0.000001 0.000000 0.000000 -0.311185
 22   11.168404 -0.000001 0.000001 1.561695 -0.261686 0.027035
 23   1.977383 0.000000 0.000000 -0.329174 -0.316563 -0.681007
 24   3.723980 2.768054 -0.049087 0.000001 -3.141591 -1.570794
 25   12.421014 0.304721 4.492689 -0.091859 -0.075839 1.616818
 26   19.916998 1.704573 4.956909 2.262592 1.451744 0.734330
time 45
  0   7.617374 -12.911455 30.492413 0.000000 -0.217986 1.976021
  1   -2.225312 1.648489 9.745319 -1.570795 -1.570451 0.000000
  2   -0.000008 0.000010 5.615750 0.012368 3.257353 -0.112807
  3   15.693467 0.000000 0.000000 0.000000 0.000000 -0.550991
  4   22.146629 -0.000001 0.000000 -0.078674 -0.113502 0.219326
  5   3.310129 5.734393 0.000000 0.000000 0.000000 1.570796
  6   0.000008 -0.000006 -5.615750 0.028093 3.017435 -0.150706
  7   15.693467 0.000000 0.000000 0.000000 0.000000 -0.283215
  8   22.146629 0.000000 0.000000 0.421547 0.077855 -0.062767
  9   3.310129 5.734393 0.000000 0.000000 0.000000 1.570796
 10   1.384163 -0.004728 0.000002 -0.162915 0.139672 0.163588
 11   5.939814 -0.004730 0.000000 -0.164232 -0.028499 0.031265
 12   5.939809 -0.003975 0.000000 -0.166271 0.166070 0.007646
 13   4.991439 -0.003975 0.000000 -0.164184 -0.027073 0.039878
 14   4.991436 -0.001575 0.000000 0.000000 0.000000 0.518519
 15   0.000005 0.001564 3.638375 -0.819819 -1.221410 3.410984
 16   8.842831 0.000000 -0.000002 0.759625 1.065553 1.212991
 17   9.341934 0.000000 -0.000001 0.000000 0.000000 -1.313111
 18   11.168404 -0.000001 0.000002 0.070798 -0.108048 -0.008413
 19   0.000005 0.001585 -3.638375 0.560272 1.255237 3.160057
 20   8.842831 0.000000 0.000001 0.149560 -0.775633 -0.014106
 21   9.341937 0.000000 -0.000001 0.000000 0.000000 -0.261022
 22   11.168404 -0.000001 0.000001 1.561695 -0.261686 0.027035
 23   1.977383 0.000000 0.000000 -0.558913 -0.366491 -0.601827
 24   3.723980 2.768054 -0.049087 0.000001 -3.141591 -1.570794
 25   12.421014 0.304721 4.492689 -0.091859 -0.075839 1.616818
 26   19.916998 1.704573 4.956909 2.262592 1.451744 0.734330
end
