version 1
nodes
  0 "Bip01" -1
  1 "Bip01 Pelvis" 0
  2 "Bip01 L Thigh" 1
  3 "Bip01 L Calf" 2
  4 "Bip01 L Foot" 3
  5 "Bip01 L Toe0" 4
  6 "Bip01 R Thigh" 1
  7 "Bip01 R Calf" 6
  8 "Bip01 R Foot" 7
  9 "Bip01 R Toe0" 8
 10 "Bip01 Spine" 1
 11 "Bip01 Spine1" 10
 12 "Bip01 Spine2" 11
 13 "Bip01 Spine3" 12
 14 "Bip01 Neck" 13
 15 "Bip01 L Clavicle" 14
 16 "Bip01 L UpperArm" 15
 17 "Bip01 L Forearm" 16
 18 "Bip01 L Hand" 17
 19 "Bip01 R Clavicle" 14
 20 "Bip01 R UpperArm" 19
 21 "Bip01 R Forearm" 20
 22 "Bip01 R Hand" 21
 23 "Bip01 Head" 14
 24 "Bone05" 23
 25 "m4" 22
 26 "SHOTGUN" 22
end
skeleton
time 0
  0 0.077259 -0.287846 31.139324 0.000000 0.000000 -1.570795
  1 -0.526041 0.000001 9.745319 -1.570795 -1.570451 0.000000
  2 -0.000008 0.000010 5.615750 0.000001 3.141591 -0.100000
  3 15.693467 0.000000 0.000000 0.000000 0.000000 -0.200000
  4 22.146629 -0.000001 0.000000 0.000000 0.000000 0.100000
  5 3.310129 5.734393 0.000000 0.000000 0.000000 1.570796
  6 0.000008 -0.000006 -5.615750 0.000001 3.141591 -0.100000
  7 15.693467 0.000000 0.000000 0.000000 0.000000 -0.200000
  8 22.146629 0.000000 0.000000 0.000000 0.000000 0.100000
  9 3.310129 5.734393 0.000000 0.000000 0.000000 1.570796
 10 1.384163 -0.004728 0.000002 -0.000004 -0.000001 0.000796
 11 5.939814 -0.004730 0.000000 0.000000 0.000000 0.000000
 12 5.939809 -0.003975 0.000000 0.000000 0.000000 0.000000
 13 4.991439 -0.003975 0.000000 0.000000 0.000000 0.000000
 14 4.991436 -0.001575 0.000000 0.000000 0.000000 0.000000
 15 0.000005 0.001564 3.638375 -0.000010 -1.284244 3.140806
 16 8.842831 0.000000 -0.000002 0.000000 0.765364 0.000000
 17 9.341934 0.000000 -0.000001 0.000000 0.000000 -0.200000
 18 11.168404 -0.000001 0.000002 -1.512848 0.101351 -0.076469
 19 0.000005 0.001585 -3.638375 -0.000010 1.284244 3.140787
 20 8.842831 0.000000 0.000001 0.000000 -0.765364 0.000000
 21 9.341937 0.000000 -0.000001 0.000000 0.000000 -0.200000
 22 11.168404 -0.000001 0.000001 1.512848 -0.101351 -0.076469
 23 1.977383 0.000000 0.000000 0.000000 0.000000 -0.000798
 24 3.723980 2.768054 -0.049087 0.000001 -3.141591 -1.570794
 25 12.421014 0.304721 4.492689 -0.091859 -0.075839 1.616818
 26 19.916998 1.704573 4.956909 2.262592 1.451744 0.734330
end
triangles
DC_soldier_face_cmdr_blk.BMP
 23 3.837297 2.626463 74.919510 0.884513 0.448006 -0.130102 0.828125 0.769841
 23 0.277296 4.017367 72.299988 0.076098 0.940667 -0.330688 0.968750 0.571429
 23 0.277299 4.396623 74.470116 0.016400 0.996456 -0.082496 0.976563 0.785714
DC_soldier_face_cmdr_blk.BMP
 23 0.277299 4.396623 74.470116 0.016400 0.996456 -0.082496 0.976563 0.785714
 23 0.277296 4.017367 72.299988 0.076098 0.940667 -0.330688 0.968750 0.571429
 23 -2.932704 2.866710 74.229599 -0.815701 0.546101 -0.190800 0.828125 0.769841
DC_soldier_face_cmdr_blk.BMP
 23 0.277296 4.017367 72.299988 0.076098 0.940667 -0.330688 0.968750 0.571429
 23 -2.392711 1.238278 69.659035 -0.796380 0.597385 -0.094398 0.718750 0.420635
 23 -2.932704 2.866710 74.229599 -0.815701 0.546101 -0.190800 0.828125 0.769841
DC_soldier_face_cmdr_blk.BMP
 23 -2.932704 2.866710 74.229599 -0.815701 0.546101 -0.190800 0.828125 0.769841
 23 -2.392711 1.238278 69.659035 -0.796380 0.597385 -0.094398 0.718750 0.420635
 23 -3.412713 -0.842270 71.258324 -0.765363 0.507676 -0.395581 0.492188 0.563492
DC_soldier_face_cmdr_blk.BMP
 23 -2.392711 1.238278 69.659035 -0.796380 0.597385 -0.094398 0.718750 0.420635
 23 -2.962717 -1.791309 68.458000 -0.949623 -0.184804 -0.253106 0.414063 0.325397
 23 -3.412713 -0.842270 71.258324 -0.765363 0.507676 -0.395581 0.492188 0.563492
DC_soldier_face_cmdr_blk.BMP
 23 -3.412713 -0.842270 71.258324 -0.765363 0.507676 -0.395581 0.492188 0.563492
 23 -2.962717 -1.791309 68.458000 -0.949623 -0.184804 -0.253106 0.414063 0.325397
 23 -3.272715 -2.212191 71.027855 -0.968123 -0.186404 -0.167304 0.429688 0.547619
DC_soldier_face_cmdr_blk.BMP
 23 -2.962717 -1.791309 68.458000 -0.949623 -0.184804 -0.253106 0.414063 0.325397
 23 -2.772719 -4.281828 69.967140 -0.907011 -0.364604 -0.210702 0.320313 0.444444
 23 -3.272715 -2.212191 71.027855 -0.968123 -0.186404 -0.167304 0.429688 0.547619
DC_soldier_face_cmdr_blk.BMP
 23 -3.272715 -2.212191 71.027855 -0.968123 -0.186404 -0.167304 0.429688 0.547619
 23 -2.772719 -4.281828 69.967140 -0.907011 -0.364604 -0.210702 0.320313 0.444444
 23 -2.942719 -4.842357 71.506950 -0.915034 -0.390214 -0.102204 0.312500 0.563492
DC_soldier_face_cmdr_blk.BMP
 23 -2.772719 -4.281828 69.967140 -0.907011 -0.364604 -0.210702 0.320313 0.444444
 23 -1.912721 -5.982155 70.916557 -0.578632 -0.814245 -0.046803 0.187500 0.555556
 23 -2.942719 -4.842357 71.506950 -0.915034 -0.390214 -0.102204 0.312500 0.563492
DC_soldier_face_cmdr_blk.BMP
 23 -2.942719 -4.842357 71.506950 -0.915034 -0.390214 -0.102204 0.312500 0.563492
 23 -1.912721 -5.982155 70.916557 -0.578632 -0.814245 -0.046803 0.187500 0.555556
 23 -2.782716 -5.013163 73.856895 -0.861404 -0.489402 -0.135901 0.289063 0.746032
DC_soldier_face_cmdr_blk.BMP
 23 -1.912721 -5.982155 70.916557 -0.578632 -0.814245 -0.046803 0.187500 0.555556
 23 0.277282 -6.263116 73.706459 0.002100 -0.995513 -0.094601 0.015625 0.753968
 23 -2.782716 -5.013163 73.856895 -0.861404 -0.489402 -0.135901 0.289063 0.746032
DC_soldier_face_cmdr_blk.BMP
 23 -2.782716 -5.013163 73.856895 -0.861404 -0.489402 -0.135901 0.289063 0.746032
 23 0.277282 -6.263116 73.706459 0.002100 -0.995513 -0.094601 0.015625 0.753968
 23 -1.842718 -6.033199 73.956543 -0.537006 -0.804208 -0.254703 0.210938 0.801587
DC_soldier_face_cmdr_blk.BMP
 23 0.277282 -6.263116 73.706459 0.002100 -0.995513 -0.094601 0.015625 0.753968
 23 -1.242717 -6.273773 75.626457 -0.288300 -0.909298 -0.300099 0.156250 0.968254
 23 -1.842718 -6.033199 73.956543 -0.537006 -0.804208 -0.254703 0.210938 0.801587
DC_soldier_face_cmdr_blk.BMP
 23 -1.842718 -6.033199 73.956543 -0.537006 -0.804208 -0.254703 0.210938 0.801587
 23 -1.242717 -6.273773 75.626457 -0.288300 -0.909298 -0.300099 0.156250 0.968254
 23 -3.062715 -4.533544 74.967056 -0.772917 -0.532512 -0.345008 0.296875 0.912698
DC_soldier_face_cmdr_blk.BMP
 23 -3.062715 -4.533544 74.967056 -0.772917 -0.532512 -0.345008 0.851563 0.817460
 23 -1.242717 -6.273773 75.626457 -0.288300 -0.909298 -0.300099 0.882813 0.817460
 23 -3.352715 -5.203921 76.066826 -0.785569 -0.599176 -0.154494 0.859375 0.880952
DC_soldier_face_cmdr_blk.BMP
 23 -3.352715 -5.203921 76.066826 -0.785569 -0.599176 -0.154494 0.859375 0.880952
 23 -1.242717 -6.273773 75.626457 -0.288300 -0.909298 -0.300099 0.882813 0.817460
 23 -1.862716 -6.624164 76.766342 -0.421113 -0.890626 -0.171605 0.875000 0.880952
DC_soldier_face_cmdr_blk.BMP
 23 -1.242717 -6.273773 75.626457 -0.288300 -0.909298 -0.300099 0.882813 0.817460
 23 0.537284 -7.174270 77.066147 0.026300 -0.980410 -0.195202 0.906250 0.880952
 23 -1.862716 -6.624164 76.766342 -0.421113 -0.890626 -0.171605 0.875000 0.880952
DC_soldier_face_cmdr_blk.BMP
 23 -1.862716 -6.624164 76.766342 -0.421113 -0.890626 -0.171605 0.875000 0.880952
 23 0.537284 -7.174270 77.066147 0.026300 -0.980410 -0.195202 0.906250 0.880952
 23 -2.232714 -6.254606 78.056465 -0.589181 -0.588381 0.553782 0.867188 0.944444
DC_soldier_face_cmdr_blk.BMP
 23 0.537284 -7.174270 77.066147 0.026300 -0.980410 -0.195202 0.906250 0.880952
 23 0.607285 -7.204689 78.286140 0.135501 -0.846409 0.515006 0.906250 0.936508
 23 -2.232714 -6.254606 78.056465 -0.589181 -0.588381 0.553782 0.867188 0.944444
DC_soldier_face_cmdr_blk.BMP
 23 -2.232714 -6.254606 78.056465 -0.589181 -0.588381 0.553782 0.867188 0.944444
 23 0.607285 -7.204689 78.286140 0.135501 -0.846409 0.515006 0.906250 0.936508
 23 -0.022709 -3.985059 79.367241 -0.131302 -0.144102 0.980813 0.867188 0.984127
DC_soldier_face_cmdr_blk.BMP
 23 0.607285 -7.204689 78.286140 0.135501 -0.846409 0.515006 0.906250 0.936508
 23 3.867288 -5.324715 78.346779 0.690160 -0.328181 0.644962 0.929688 0.944444
 23 -0.022709 -3.985059 79.367241 -0.131302 -0.144102 0.980813 0.867188 0.984127
DC_soldier_face_cmdr_blk.BMP
 23 -0.022709 -3.985059 79.367241 -0.131302 -0.144102 0.980813 0.867188 0.984127
 23 3.867288 -5.324715 78.346779 0.690160 -0.328181 0.644962 0.929688 0.944444
 23 2.697298 0.404992 79.208748 0.285486 0.126094 0.950052 0.945313 0.992063
DC_soldier_face_cmdr_blk.BMP
 23 3.867288 -5.324715 78.346779 0.690160 -0.328181 0.644962 0.929688 0.944444
 23 4.687295 -0.524609 78.038429 0.882500 0.062800 0.466100 0.953125 0.976190
 23 2.697298 0.404992 79.208748 0.285486 0.126094 0.950052 0.945313 0.992063
DC_soldier_face_cmdr_blk.BMP
 23 2.697298 0.404992 79.208748 0.285486 0.126094 0.950052 0.945313 0.992063
 23 4.687295 -0.524609 78.038429 0.882500 0.062800 0.466100 0.953125 0.976190
 23 4.057300 2.335498 77.729408 0.756465 0.475677 0.448879 0.968750 0.952381
DC_soldier_face_cmdr_blk.BMP
 23 4.687295 -0.524609 78.038429 0.882500 0.062800 0.466100 0.953125 0.976190
 23 4.647294 -0.954125 76.628281 0.973392 -0.039600 -0.225698 0.953125 0.880952
 23 4.057300 2.335498 77.729408 0.756465 0.475677 0.448879 0.968750 0.952381
DC_soldier_face_cmdr_blk.BMP
 23 4.057300 2.335498 77.729408 0.756465 0.475677 0.448879 0.968750 0.952381
 23 4.647294 -0.954125 76.628281 0.973392 -0.039600 -0.225698 0.953125 0.880952
 23 3.837297 2.626463 74.919510 0.884513 0.448006 -0.130102 0.953125 0.817460
DC_soldier_face_cmdr_blk.BMP
 23 4.647294 -0.954125 76.628281 0.973392 -0.039600 -0.225698 0.953125 0.880952
 23 3.257286 -5.033870 75.886879 0.880362 -0.408282 -0.241390 0.921875 0.817460
 23 3.837297 2.626463 74.919510 0.884513 0.448006 -0.130102 0.953125 0.817460
DC_soldier_face_cmdr_blk.BMP
 23 3.837297 2.626463 74.919510 0.884513 0.448006 -0.130102 0.828125 0.769841
 23 3.567293 2.047483 71.949310 0.862147 0.455524 -0.221812 0.734375 0.563492
 23 0.277296 4.017367 72.299988 0.076098 0.940667 -0.330688 0.968750 0.571429
DC_soldier_face_cmdr_blk.BMP
 23 0.277296 4.017367 72.299988 0.076098 0.940667 -0.330688 0.968750 0.571429
 23 3.567293 2.047483 71.949310 0.862147 0.455524 -0.221812 0.734375 0.563492
 23 2.957290 1.238270 69.659035 0.798978 0.589083 -0.120897 0.718750 0.420635
DC_soldier_face_cmdr_blk.BMP
 23 3.567293 2.047483 71.949310 0.862147 0.455524 -0.221812 0.734375 0.563492
 23 3.977288 -0.842281 71.258316 0.761019 0.497112 -0.416810 0.492188 0.563492
 23 2.957290 1.238270 69.659035 0.798978 0.589083 -0.120897 0.718750 0.420635
DC_soldier_face_cmdr_blk.BMP
 23 2.957290 1.238270 69.659035 0.798978 0.589083 -0.120897 0.718750 0.420635
 23 3.977288 -0.842281 71.258316 0.761019 0.497112 -0.416810 0.492188 0.563492
 23 3.527284 -1.791319 68.457993 0.951645 -0.180490 -0.248586 0.414063 0.325397
DC_soldier_face_cmdr_blk.BMP
 23 3.977288 -0.842281 71.258316 0.761019 0.497112 -0.416810 0.492188 0.563492
 23 3.837286 -2.212202 71.027847 0.968139 -0.186408 -0.167207 0.429688 0.547619
 23 3.527284 -1.791319 68.457993 0.951645 -0.180490 -0.248586 0.414063 0.325397
DC_soldier_face_cmdr_blk.BMP
 23 3.527284 -1.791319 68.457993 0.951645 -0.180490 -0.248586 0.414063 0.325397
 23 3.837286 -2.212202 71.027847 0.968139 -0.186408 -0.167207 0.429688 0.547619
 23 3.337282 -4.281837 69.967140 0.897234 -0.380515 -0.224009 0.320313 0.444444
DC_soldier_face_cmdr_blk.BMP
 23 3.837286 -2.212202 71.027847 0.968139 -0.186408 -0.167207 0.429688 0.547619
 23 3.507282 -4.842366 71.506943 0.914998 -0.390299 -0.102200 0.312500 0.563492
 23 3.337282 -4.281837 69.967140 0.897234 -0.380515 -0.224009 0.320313 0.444444
DC_soldier_face_cmdr_blk.BMP
 23 3.337282 -4.281837 69.967140 0.897234 -0.380515 -0.224009 0.320313 0.444444
 23 3.507282 -4.842366 71.506943 0.914998 -0.390299 -0.102200 0.312500 0.563492
 23 2.477280 -5.982162 70.916557 0.572179 -0.817371 -0.067198 0.187500 0.555556
DC_soldier_face_cmdr_blk.BMP
 23 3.507282 -4.842366 71.506943 0.914998 -0.390299 -0.102200 0.312500 0.563492
 23 3.347284 -5.013172 73.856888 0.861307 -0.496904 -0.106001 0.289063 0.746032
 23 2.477280 -5.982162 70.916557 0.572179 -0.817371 -0.067198 0.187500 0.555556
DC_soldier_face_cmdr_blk.BMP
 23 2.477280 -5.982162 70.916557 0.572179 -0.817371 -0.067198 0.187500 0.555556
 23 3.347284 -5.013172 73.856888 0.861307 -0.496904 -0.106001 0.289063 0.746032
 23 0.277282 -6.263116 73.706459 0.002100 -0.995513 -0.094601 0.015625 0.753968
DC_soldier_face_cmdr_blk.BMP
 23 3.347284 -5.013172 73.856888 0.861307 -0.496904 -0.106001 0.289063 0.746032
 23 2.407283 -6.033206 73.956535 0.506412 -0.816519 -0.277207 0.210938 0.801587
 23 0.277282 -6.263116 73.706459 0.002100 -0.995513 -0.094601 0.015625 0.753968
DC_soldier_face_cmdr_blk.BMP
 23 0.277282 -6.263116 73.706459 0.002100 -0.995513 -0.094601 0.015625 0.753968
 23 2.407283 -6.033206 73.956535 0.506412 -0.816519 -0.277207 0.210938 0.801587
 23 1.897284 -6.203867 75.886482 0.316613 -0.912337 -0.259611 0.156250 0.968254
DC_soldier_face_cmdr_blk.BMP
 23 2.407283 -6.033206 73.956535 0.506412 -0.816519 -0.277207 0.210938 0.801587
 23 3.257286 -5.033870 75.886879 0.880362 -0.408282 -0.241390 0.304688 0.992063
 23 1.897284 -6.203867 75.886482 0.316613 -0.912337 -0.259611 0.156250 0.968254
DC_soldier_face_cmdr_blk.BMP
 23 1.587300 2.355148 78.759415 0.115400 0.461501 0.879602 0.695313 0.976190
 23 -0.722703 -0.025020 79.258606 -0.176308 0.151907 0.972543 0.765625 0.984127
 23 2.697298 0.404992 79.208748 0.285486 0.126094 0.950052 0.726563 0.984127
DC_soldier_face_cmdr_blk.BMP
 23 2.697298 0.404992 79.208748 0.285486 0.126094 0.950052 0.726563 0.984127
 23 -0.722703 -0.025020 79.258606 -0.176308 0.151907 0.972543 0.765625 0.984127
 23 -0.022709 -3.985059 79.367241 -0.131302 -0.144102 0.980813 0.867188 0.984127
DC_soldier_face_cmdr_blk.BMP
 23 -0.722703 -0.025020 79.258606 -0.176308 0.151907 0.972543 0.765625 0.984127
 23 -2.392703 1.065264 78.438980 -0.522493 0.103899 0.846289 0.757813 0.968254
 23 -0.022709 -3.985059 79.367241 -0.131302 -0.144102 0.980813 0.867188 0.984127
DC_soldier_face_cmdr_blk.BMP
 23 -0.022709 -3.985059 79.367241 -0.131302 -0.144102 0.980813 0.867188 0.984127
 23 -2.392703 1.065264 78.438980 -0.522493 0.103899 0.846289 0.757813 0.968254
 23 -2.232714 -6.254606 78.056465 -0.589181 -0.588381 0.553782 0.867188 0.944444
DC_soldier_face_cmdr_blk.BMP
 23 -2.392703 1.065264 78.438980 -0.522493 0.103899 0.846289 0.757813 0.968254
 23 -4.202708 -1.564232 76.978081 -0.849789 -0.086399 0.519993 0.789063 0.936508
 23 -2.232714 -6.254606 78.056465 -0.589181 -0.588381 0.553782 0.867188 0.944444
DC_soldier_face_cmdr_blk.BMP
 23 -2.232714 -6.254606 78.056465 -0.589181 -0.588381 0.553782 0.867188 0.944444
 23 -4.202708 -1.564232 76.978081 -0.849789 -0.086399 0.519993 0.789063 0.936508
 23 -3.352715 -5.203921 76.066826 -0.785569 -0.599176 -0.154494 0.859375 0.880952
DC_soldier_face_cmdr_blk.BMP
 23 -4.202708 -1.564232 76.978081 -0.849789 -0.086399 0.519993 0.789063 0.936508
 23 -4.772710 -1.863603 75.147972 -0.922900 -0.107600 -0.369700 0.796875 0.849206
 23 -3.352715 -5.203921 76.066826 -0.785569 -0.599176 -0.154494 0.859375 0.880952
DC_soldier_face_cmdr_blk.BMP
 23 -3.352715 -5.203921 76.066826 -0.785569 -0.599176 -0.154494 0.859375 0.880952
 23 -4.772710 -1.863603 75.147972 -0.922900 -0.107600 -0.369700 0.796875 0.849206
 23 -3.062715 -4.533544 74.967056 -0.772917 -0.532512 -0.345008 0.843750 0.817460
DC_soldier_face_cmdr_blk.BMP
 23 -4.772710 -1.863603 75.147972 -0.922900 -0.107600 -0.369700 0.796875 0.849206
 23 -3.152712 -2.133331 74.347878 -0.949623 -0.184804 -0.253106 0.796875 0.817460
 23 -3.062715 -4.533544 74.967056 -0.772917 -0.532512 -0.345008 0.843750 0.817460
DC_soldier_face_cmdr_blk.BMP
 23 2.157279 -5.791630 69.366623 0.507513 -0.850923 -0.135504 0.148438 0.404762
 23 1.547279 -6.242188 70.996468 0.403898 -0.913596 -0.047000 0.125000 0.523809
 23 0.247278 -6.741870 70.076294 0.006600 -0.997192 0.074599 0.015625 0.452381
DC_soldier_face_cmdr_blk.BMP
 23 0.247278 -6.741870 70.076294 0.006600 -0.997192 0.074599 0.015625 0.452381
 23 1.547279 -6.242188 70.996468 0.403898 -0.913596 -0.047000 0.125000 0.523809
 23 0.277279 -6.242186 70.996468 -0.000000 -0.877597 -0.479399 0.015625 0.523809
DC_soldier_face_cmdr_blk.BMP
 23 1.547279 -6.242188 70.996468 0.403898 -0.913596 -0.047000 0.125000 0.523809
 23 0.277278 -7.252210 71.066124 -0.000000 -0.673439 -0.739243 0.015625 0.547619
 23 0.277279 -6.242186 70.996468 -0.000000 -0.877597 -0.479399 0.015625 0.523809
DC_soldier_face_cmdr_blk.BMP
 23 0.277279 -6.242186 70.996468 -0.000000 -0.877597 -0.479399 0.015625 0.523809
 23 0.277278 -7.252210 71.066124 -0.000000 -0.673439 -0.739243 0.015625 0.547619
 23 -0.982721 -6.242184 70.996468 -0.402384 -0.914963 -0.030499 0.125000 0.523809
DC_soldier_face_cmdr_blk.BMP
 23 0.277278 -7.252210 71.066124 -0.000000 -0.673439 -0.739243 0.015625 0.547619
 23 0.277279 -7.162560 72.086151 -0.000000 -0.960986 0.276596 0.015625 0.619048
 23 -0.982721 -6.242184 70.996468 -0.402384 -0.914963 -0.030499 0.125000 0.523809
DC_soldier_face_cmdr_blk.BMP
 23 -0.982721 -6.242184 70.996468 -0.402384 -0.914963 -0.030499 0.125000 0.523809
 23 0.277279 -7.162560 72.086151 -0.000000 -0.960986 0.276596 0.015625 0.619048
 23 0.277282 -6.263116 73.706459 0.002100 -0.995513 -0.094601 0.015625 0.753968
DC_soldier_face_cmdr_blk.BMP
 23 0.277279 -7.162560 72.086151 -0.000000 -0.960986 0.276596 0.015625 0.619048
 23 1.547279 -6.242188 70.996468 0.403898 -0.913596 -0.047000 0.125000 0.523809
 23 0.277282 -6.263116 73.706459 0.002100 -0.995513 -0.094601 0.015625 0.753968
DC_soldier_face_cmdr_blk.BMP
 23 0.277282 -6.263116 73.706459 0.002100 -0.995513 -0.094601 0.015625 0.753968
 23 1.547279 -6.242188 70.996468 0.403898 -0.913596 -0.047000 0.125000 0.523809
 23 2.477280 -5.982162 70.916557 0.572179 -0.817371 -0.067198 0.187500 0.555556
DC_soldier_face_cmdr_blk.BMP
 23 -1.692722 -5.841624 69.366608 -0.505209 -0.854514 -0.120702 0.148438 0.404762
 23 0.247277 -6.491513 69.036385 0.014500 -0.972989 -0.230397 0.015625 0.380952
 23 0.247277 -6.771678 69.516289 0.002100 -0.995513 -0.094601 0.015625 0.412698
DC_soldier_face_cmdr_blk.BMP
 23 0.247277 -6.771678 69.516289 0.002100 -0.995513 -0.094601 0.015625 0.412698
 23 0.247277 -6.491513 69.036385 0.014500 -0.972989 -0.230397 0.015625 0.380952
 23 2.157279 -5.791630 69.366623 0.507513 -0.850923 -0.135504 0.148438 0.404762
DC_soldier_face_cmdr_blk.BMP
 23 0.247277 -6.491513 69.036385 0.014500 -0.972989 -0.230397 0.015625 0.380952
 23 0.237275 -6.590937 67.356346 0.006200 -0.986820 -0.161703 0.015625 0.277778
 23 2.157279 -5.791630 69.366623 0.507513 -0.850923 -0.135504 0.148438 0.404762
DC_soldier_face_cmdr_blk.BMP
 23 2.157279 -5.791630 69.366623 0.507513 -0.850923 -0.135504 0.148438 0.404762
 23 0.237275 -6.590937 67.356346 0.006200 -0.986820 -0.161703 0.015625 0.277778
 23 1.917277 -5.400764 66.846756 0.642485 -0.453790 -0.617486 0.140625 0.238095
DC_soldier_face_cmdr_blk.BMP
 23 0.237275 -6.590937 67.356346 0.006200 -0.986820 -0.161703 0.015625 0.277778
 23 0.237275 -6.400748 66.806412 0.001400 -0.506517 -0.862229 0.015625 0.238095
 23 1.917277 -5.400764 66.846756 0.642485 -0.453790 -0.617486 0.140625 0.238095
DC_soldier_face_cmdr_blk.BMP
 23 1.917277 -5.400764 66.846756 0.642485 -0.453790 -0.617486 0.140625 0.238095
 23 0.237275 -6.400748 66.806412 0.001400 -0.506517 -0.862229 0.015625 0.238095
 23 0.277280 -3.470810 66.987419 0.002500 -0.536686 -0.843778 0.085938 0.230159
DC_soldier_face_cmdr_blk.BMP
 23 -3.702703 1.945767 76.979286 -0.790406 0.464904 0.398903 0.742188 0.936508
 23 -2.932704 2.866710 74.229599 -0.815701 0.546101 -0.190800 0.710938 0.817460
 23 -4.772710 -1.863603 75.147972 -0.922900 -0.107600 -0.369700 0.796875 0.849206
DC_soldier_face_cmdr_blk.BMP
 23 -3.702703 1.945767 76.979286 -0.790406 0.464904 0.398903 0.742188 0.936508
 23 -1.102699 3.995883 76.629982 -0.345898 0.900396 0.263899 0.710938 0.936508
 23 -2.932704 2.866710 74.229599 -0.815701 0.546101 -0.190800 0.710938 0.817460
DC_soldier_face_cmdr_blk.BMP
 23 -3.702703 1.945767 76.979286 -0.790406 0.464904 0.398903 0.742188 0.936508
 23 -1.162700 2.785296 78.339569 -0.265703 0.568207 0.778809 0.726563 0.960317
 23 -1.102699 3.995883 76.629982 -0.345898 0.900396 0.263899 0.710938 0.936508
DC_soldier_face_cmdr_blk.BMP
 23 -3.702703 1.945767 76.979286 -0.790406 0.464904 0.398903 0.742188 0.936508
 23 -2.392703 1.065264 78.438980 -0.522493 0.103899 0.846289 0.757813 0.968254
 23 -1.162700 2.785296 78.339569 -0.265703 0.568207 0.778809 0.726563 0.960317
DC_soldier_face_cmdr_blk.BMP
 23 -3.702703 1.945767 76.979286 -0.790406 0.464904 0.398903 0.742188 0.936508
 23 -4.202708 -1.564232 76.978081 -0.849789 -0.086399 0.519993 0.789063 0.936508
 23 -2.392703 1.065264 78.438980 -0.522493 0.103899 0.846289 0.757813 0.968254
DC_soldier_face_cmdr_blk.BMP
 23 -3.702703 1.945767 76.979286 -0.790406 0.464904 0.398903 0.742188 0.936508
 23 -4.772710 -1.863603 75.147972 -0.922900 -0.107600 -0.369700 0.796875 0.849206
 23 -4.202708 -1.564232 76.978081 -0.849789 -0.086399 0.519993 0.789063 0.936508
DC_soldier_face_cmdr_blk.BMP
 14 -1.392722 -2.097870 63.798653 -0.541212 -0.826118 -0.156903 0.257813 0.015873
 23 -2.962717 -1.791309 68.458000 -0.949623 -0.184804 -0.253106 0.414063 0.325397
 14 -3.022719 -0.608440 64.300354 -0.920515 -0.379006 -0.094902 0.476563 0.023809
DC_soldier_face_cmdr_blk.BMP
 14 -3.022719 -0.608440 64.300354 -0.920515 -0.379006 -0.094902 0.476563 0.023809
 23 -2.962717 -1.791309 68.458000 -0.949623 -0.184804 -0.253106 0.414063 0.325397
 14 -3.022714 1.780646 65.103081 -0.948320 0.293007 0.121803 0.648438 0.253968
DC_soldier_face_cmdr_blk.BMP
 23 -2.962717 -1.791309 68.458000 -0.949623 -0.184804 -0.253106 0.414063 0.325397
 23 -2.392711 1.238278 69.659035 -0.796380 0.597385 -0.094398 0.718750 0.420635
 14 -3.022714 1.780646 65.103081 -0.948320 0.293007 0.121803 0.648438 0.253968
DC_soldier_face_cmdr_blk.BMP
 14 -3.022714 1.780646 65.103081 -0.948320 0.293007 0.121803 0.648438 0.253968
 23 -2.392711 1.238278 69.659035 -0.796380 0.597385 -0.094398 0.718750 0.420635
 14 -1.152711 3.439923 65.734970 -0.440786 0.876773 0.192294 0.828125 0.261905
DC_soldier_face_cmdr_blk.BMP
 23 -2.392711 1.238278 69.659035 -0.796380 0.597385 -0.094398 0.718750 0.420635
 23 0.277293 2.988095 70.179634 0.000000 0.999380 -0.035199 0.968750 0.420635
 14 -1.152711 3.439923 65.734970 -0.440786 0.876773 0.192294 0.828125 0.261905
DC_soldier_face_cmdr_blk.BMP
 14 -1.152711 3.439923 65.734970 -0.440786 0.876773 0.192294 0.828125 0.261905
 23 0.277293 2.988095 70.179634 0.000000 0.999380 -0.035199 0.968750 0.420635
 14 1.797289 3.439919 65.734970 0.447596 0.872492 0.195998 0.828125 0.261905
DC_soldier_face_cmdr_blk.BMP
 23 3.917286 -5.654244 76.976669 0.689500 -0.684100 -0.237900 0.921875 0.880952
 23 0.537284 -7.174270 77.066147 0.026300 -0.980410 -0.195202 0.906250 0.880952
 23 1.897284 -6.203867 75.886482 0.316613 -0.912337 -0.259611 0.914063 0.817460
DC_soldier_face_cmdr_blk.BMP
 23 3.917286 -5.654244 76.976669 0.689500 -0.684100 -0.237900 0.921875 0.880952
 23 0.607285 -7.204689 78.286140 0.135501 -0.846409 0.515006 0.906250 0.936508
 23 0.537284 -7.174270 77.066147 0.026300 -0.980410 -0.195202 0.906250 0.880952
DC_soldier_face_cmdr_blk.BMP
 23 3.917286 -5.654244 76.976669 0.689500 -0.684100 -0.237900 0.921875 0.880952
 23 3.867288 -5.324715 78.346779 0.690160 -0.328181 0.644962 0.929688 0.944444
 23 0.607285 -7.204689 78.286140 0.135501 -0.846409 0.515006 0.906250 0.936508
DC_soldier_face_cmdr_blk.BMP
 23 3.917286 -5.654244 76.976669 0.689500 -0.684100 -0.237900 0.921875 0.880952
 23 4.647294 -0.954125 76.628281 0.973392 -0.039600 -0.225698 0.953125 0.880952
 23 3.867288 -5.324715 78.346779 0.690160 -0.328181 0.644962 0.929688 0.944444
DC_soldier_face_cmdr_blk.BMP
 23 3.917286 -5.654244 76.976669 0.689500 -0.684100 -0.237900 0.921875 0.880952
 23 3.257286 -5.033870 75.886879 0.880362 -0.408282 -0.241390 0.921875 0.817460
 23 4.647294 -0.954125 76.628281 0.973392 -0.039600 -0.225698 0.953125 0.880952
DC_soldier_face_cmdr_blk.BMP
 23 3.917286 -5.654244 76.976669 0.689500 -0.684100 -0.237900 0.921875 0.880952
 23 1.897284 -6.203867 75.886482 0.316613 -0.912337 -0.259611 0.914063 0.817460
 23 3.257286 -5.033870 75.886879 0.880362 -0.408282 -0.241390 0.921875 0.817460
DC_soldier_face_cmdr_blk.BMP
 23 -1.432724 -5.400753 66.826759 -0.649577 -0.439384 -0.620477 0.140625 0.238095
 23 0.237275 -6.590937 67.356346 0.006200 -0.986820 -0.161703 0.015625 0.277778
 23 -1.692722 -5.841624 69.366608 -0.505209 -0.854514 -0.120702 0.148438 0.404762
DC_soldier_face_cmdr_blk.BMP
 23 -1.432724 -5.400753 66.826759 -0.649577 -0.439384 -0.620477 0.140625 0.238095
 23 0.237275 -6.400748 66.806412 0.001400 -0.506517 -0.862229 0.015625 0.238095
 23 0.237275 -6.590937 67.356346 0.006200 -0.986820 -0.161703 0.015625 0.277778
DC_soldier_face_cmdr_blk.BMP
 23 -1.432724 -5.400753 66.826759 -0.649577 -0.439384 -0.620477 0.140625 0.238095
 23 0.277280 -3.470810 66.987419 0.002500 -0.536686 -0.843778 0.085938 0.230159
 23 0.237275 -6.400748 66.806412 0.001400 -0.506517 -0.862229 0.015625 0.238095
DC_soldier_face_cmdr_blk.BMP
 23 -1.432724 -5.400753 66.826759 -0.649577 -0.439384 -0.620477 0.140625 0.238095
 23 -2.962717 -1.791309 68.458000 -0.949623 -0.184804 -0.253106 0.414063 0.325397
 23 0.277280 -3.470810 66.987419 0.002500 -0.536686 -0.843778 0.085938 0.230159
DC_soldier_face_cmdr_blk.BMP
 23 -1.432724 -5.400753 66.826759 -0.649577 -0.439384 -0.620477 0.140625 0.238095
 23 -2.772719 -4.281828 69.967140 -0.907011 -0.364604 -0.210702 0.320313 0.444444
 23 -2.962717 -1.791309 68.458000 -0.949623 -0.184804 -0.253106 0.414063 0.325397
DC_soldier_face_cmdr_blk.BMP
 23 -1.432724 -5.400753 66.826759 -0.649577 -0.439384 -0.620477 0.140625 0.238095
 23 -1.692722 -5.841624 69.366608 -0.505209 -0.854514 -0.120702 0.148438 0.404762
 23 -2.772719 -4.281828 69.967140 -0.907011 -0.364604 -0.210702 0.320313 0.444444
DC_soldier_face_cmdr_blk.BMP
 23 -3.152712 -2.133331 74.347878 -0.949623 -0.184804 -0.253106 0.523438 0.809524
 23 -3.262710 -0.513104 73.688438 -0.266700 0.731601 0.627401 0.554688 0.746032
 23 -3.932710 -1.003326 74.338272 0.073697 0.409881 0.909157 0.539063 0.817460
DC_soldier_face_cmdr_blk.BMP
 23 -3.932710 -1.003326 74.338272 0.073697 0.409881 0.909157 0.539063 0.817460
 23 -3.262710 -0.513104 73.688438 -0.266700 0.731601 0.627401 0.554688 0.746032
 23 -4.092709 -0.113100 73.678574 -0.876629 0.478316 -0.052302 0.570313 0.746032
DC_soldier_face_cmdr_blk.BMP
 23 -3.262710 -0.513104 73.688438 -0.266700 0.731601 0.627401 0.554688 0.746032
 23 -3.412713 -0.842270 71.258324 -0.765363 0.507676 -0.395581 0.523438 0.579365
 23 -4.092709 -0.113100 73.678574 -0.876629 0.478316 -0.052302 0.570313 0.746032
DC_soldier_face_cmdr_blk.BMP
 23 -4.092709 -0.113100 73.678574 -0.876629 0.478316 -0.052302 0.570313 0.746032
 23 -3.412713 -0.842270 71.258324 -0.765363 0.507676 -0.395581 0.523438 0.579365
 23 -3.882713 -0.892304 71.358307 -0.686170 0.334886 -0.645772 0.507813 0.587302
DC_soldier_face_cmdr_blk.BMP
 23 -3.412713 -0.842270 71.258324 -0.765363 0.507676 -0.395581 0.523438 0.579365
 23 -3.272715 -2.212191 71.027855 -0.968123 -0.186404 -0.167304 0.421875 0.547619
 23 -3.882713 -0.892304 71.358307 -0.686170 0.334886 -0.645772 0.507813 0.587302
DC_soldier_face_cmdr_blk.BMP
 23 3.837286 -2.212202 71.027847 0.968139 -0.186408 -0.167207 0.421875 0.547619
 23 3.977288 -0.842281 71.258316 0.761019 0.497112 -0.416810 0.523438 0.579365
 23 4.447289 -0.892316 71.358299 0.686171 0.334885 -0.645772 0.507813 0.587302
DC_soldier_face_cmdr_blk.BMP
 23 4.447289 -0.892316 71.358299 0.686171 0.334885 -0.645772 0.507813 0.587302
 23 3.977288 -0.842281 71.258316 0.761019 0.497112 -0.416810 0.523438 0.579365
 23 4.657292 -0.113113 73.678566 0.876629 0.478316 -0.052302 0.570313 0.746032
DC_soldier_face_cmdr_blk.BMP
 23 3.977288 -0.842281 71.258316 0.761019 0.497112 -0.416810 0.523438 0.579365
 23 3.827291 -0.513115 73.688431 0.584464 0.661459 0.469971 0.554688 0.746032
 23 4.657292 -0.113113 73.678566 0.876629 0.478316 -0.052302 0.570313 0.746032
DC_soldier_face_cmdr_blk.BMP
 23 4.657292 -0.113113 73.678566 0.876629 0.478316 -0.052302 0.570313 0.746032
 23 3.827291 -0.513115 73.688431 0.584464 0.661459 0.469971 0.554688 0.746032
 23 4.497291 -1.003339 74.338264 -0.073696 0.409881 0.909157 0.539063 0.817460
DC_soldier_face_cmdr_blk.BMP
 23 3.827291 -0.513115 73.688431 0.584464 0.661459 0.469971 0.554688 0.746032
 23 3.717289 -2.133341 74.347878 0.975803 -0.172701 0.134100 0.523438 0.809524
 23 4.497291 -1.003339 74.338264 -0.073696 0.409881 0.909157 0.539063 0.817460
DC_soldier_face_cmdr_blk.BMP
 23 0.277293 2.988095 70.179634 0.000000 0.999380 -0.035199 0.968750 0.420635
 23 2.957290 1.238270 69.659035 0.798978 0.589083 -0.120897 0.718750 0.420635
 14 1.797289 3.439919 65.734970 0.447596 0.872492 0.195998 0.828125 0.261905
DC_soldier_face_cmdr_blk.BMP
 14 1.797289 3.439919 65.734970 0.447596 0.872492 0.195998 0.828125 0.261905
 23 2.957290 1.238270 69.659035 0.798978 0.589083 -0.120897 0.718750 0.420635
 14 3.587286 1.780636 65.103073 0.950431 0.286509 0.120804 0.648438 0.253968
DC_soldier_face_cmdr_blk.BMP
 23 2.957290 1.238270 69.659035 0.798978 0.589083 -0.120897 0.718750 0.420635
 23 3.527284 -1.791319 68.457993 0.951645 -0.180490 -0.248586 0.414063 0.325397
 14 3.587286 1.780636 65.103073 0.950431 0.286509 0.120804 0.648438 0.253968
DC_soldier_face_cmdr_blk.BMP
 14 3.587286 1.780636 65.103073 0.950431 0.286509 0.120804 0.648438 0.253968
 23 3.527284 -1.791319 68.457993 0.951645 -0.180490 -0.248586 0.414063 0.325397
 14 3.577282 -0.608449 64.300346 0.920532 -0.378814 -0.095503 0.476563 0.023809
DC_soldier_face_cmdr_blk.BMP
 23 3.527284 -1.791319 68.457993 0.951645 -0.180490 -0.248586 0.414063 0.325397
 14 1.957279 -2.097875 63.798649 0.541222 -0.826035 -0.157307 0.257813 0.015873
 14 3.577282 -0.608449 64.300346 0.920532 -0.378814 -0.095503 0.476563 0.023809
DC_soldier_face_cmdr_blk.BMP
 23 -2.932704 2.866710 74.229599 -0.815701 0.546101 -0.190800 0.710938 0.817460
 23 -1.102699 3.995883 76.629982 -0.345898 0.900396 0.263899 0.710938 0.936508
 23 0.277299 4.396623 74.470116 0.016400 0.996456 -0.082496 0.695313 0.817460
DC_soldier_face_cmdr_blk.BMP
 23 0.277299 4.396623 74.470116 0.016400 0.996456 -0.082496 0.695313 0.817460
 23 -1.102699 3.995883 76.629982 -0.345898 0.900396 0.263899 0.710938 0.936508
 23 2.127301 3.885662 77.259941 0.242802 0.888006 0.390503 0.695313 0.944444
DC_soldier_face_cmdr_blk.BMP
 23 -1.102699 3.995883 76.629982 -0.345898 0.900396 0.263899 0.710938 0.936508
 23 -1.162700 2.785296 78.339569 -0.265703 0.568207 0.778809 0.726563 0.960317
 23 2.127301 3.885662 77.259941 0.242802 0.888006 0.390503 0.695313 0.944444
DC_soldier_face_cmdr_blk.BMP
 23 2.127301 3.885662 77.259941 0.242802 0.888006 0.390503 0.695313 0.944444
 23 -1.162700 2.785296 78.339569 -0.265703 0.568207 0.778809 0.726563 0.960317
 23 1.587300 2.355148 78.759415 0.115400 0.461501 0.879602 0.695313 0.976190
DC_soldier_face_cmdr_blk.BMP
 23 -1.162700 2.785296 78.339569 -0.265703 0.568207 0.778809 0.726563 0.960317
 23 -0.722703 -0.025020 79.258606 -0.176308 0.151907 0.972543 0.765625 0.984127
 23 1.587300 2.355148 78.759415 0.115400 0.461501 0.879602 0.695313 0.976190
DC_soldier_face_cmdr_blk.BMP
 23 1.547279 -6.242188 70.996468 0.403898 -0.913596 -0.047000 0.125000 0.523809
 23 2.157279 -5.791630 69.366623 0.507513 -0.850923 -0.135504 0.148438 0.404762
 23 2.477280 -5.982162 70.916557 0.572179 -0.817371 -0.067198 0.187500 0.555556
DC_soldier_face_cmdr_blk.BMP
 23 2.477280 -5.982162 70.916557 0.572179 -0.817371 -0.067198 0.187500 0.555556
 23 2.157279 -5.791630 69.366623 0.507513 -0.850923 -0.135504 0.148438 0.404762
 23 3.337282 -4.281837 69.967140 0.897234 -0.380515 -0.224009 0.320313 0.444444
DC_soldier_face_cmdr_blk.BMP
 23 2.157279 -5.791630 69.366623 0.507513 -0.850923 -0.135504 0.148438 0.404762
 23 1.917277 -5.400764 66.846756 0.642485 -0.453790 -0.617486 0.140625 0.238095
 23 3.337282 -4.281837 69.967140 0.897234 -0.380515 -0.224009 0.320313 0.444444
DC_soldier_face_cmdr_blk.BMP
 23 3.337282 -4.281837 69.967140 0.897234 -0.380515 -0.224009 0.320313 0.444444
 23 1.917277 -5.400764 66.846756 0.642485 -0.453790 -0.617486 0.140625 0.238095
 23 3.527284 -1.791319 68.457993 0.951645 -0.180490 -0.248586 0.414063 0.325397
DC_soldier_face_cmdr_blk.BMP
 23 1.917277 -5.400764 66.846756 0.642485 -0.453790 -0.617486 0.140625 0.238095
 23 0.277280 -3.470810 66.987419 0.002500 -0.536686 -0.843778 0.085938 0.230159
 23 3.527284 -1.791319 68.457993 0.951645 -0.180490 -0.248586 0.414063 0.325397
DC_soldier_face_cmdr_blk.BMP
 23 0.247277 -6.671771 69.786316 0.006600 -0.997192 0.074599 0.015625 0.428571
 23 0.247278 -6.741870 70.076294 0.006600 -0.997192 0.074599 0.015625 0.452381
 23 -1.692722 -5.841624 69.366608 -0.505209 -0.854514 -0.120702 0.148438 0.404762
DC_soldier_face_cmdr_blk.BMP
 23 0.247277 -6.671771 69.786316 0.006600 -0.997192 0.074599 0.015625 0.428571
 23 2.157279 -5.791630 69.366623 0.507513 -0.850923 -0.135504 0.148438 0.404762
 23 0.247278 -6.741870 70.076294 0.006600 -0.997192 0.074599 0.015625 0.452381
DC_soldier_face_cmdr_blk.BMP
 23 0.247277 -6.671771 69.786316 0.006600 -0.997192 0.074599 0.015625 0.428571
 23 0.247277 -6.771678 69.516289 0.002100 -0.995513 -0.094601 0.015625 0.412698
 23 2.157279 -5.791630 69.366623 0.507513 -0.850923 -0.135504 0.148438 0.404762
DC_soldier_face_cmdr_blk.BMP
 23 0.247277 -6.671771 69.786316 0.006600 -0.997192 0.074599 0.015625 0.428571
 23 -1.692722 -5.841624 69.366608 -0.505209 -0.854514 -0.120702 0.148438 0.404762
 23 0.247277 -6.771678 69.516289 0.002100 -0.995513 -0.094601 0.015625 0.412698
DC_soldier_face_cmdr_blk.BMP
 23 0.277280 -3.470810 66.987419 0.002500 -0.536686 -0.843778 0.015625 0.206349
 14 1.957279 -2.097875 63.798649 0.541222 -0.826035 -0.157307 0.257813 0.015873
 23 3.527284 -1.791319 68.457993 0.951645 -0.180490 -0.248586 0.414063 0.325397
DC_soldier_face_cmdr_blk.BMP
 23 0.277280 -3.470810 66.987419 0.002500 -0.536686 -0.843778 0.015625 0.206349
 14 0.277277 -2.817507 63.477829 -0.000000 -0.982777 -0.184796 0.015625 0.015873
 14 1.957279 -2.097875 63.798649 0.541222 -0.826035 -0.157307 0.257813 0.015873
DC_soldier_face_cmdr_blk.BMP
 23 0.277280 -3.470810 66.987419 0.002500 -0.536686 -0.843778 0.015625 0.206349
 14 -1.392722 -2.097870 63.798653 -0.541212 -0.826118 -0.156903 0.257813 0.015873
 14 0.277277 -2.817507 63.477829 -0.000000 -0.982777 -0.184796 0.015625 0.015873
DC_soldier_face_cmdr_blk.BMP
 23 0.277280 -3.470810 66.987419 0.002500 -0.536686 -0.843778 0.015625 0.206349
 23 -2.962717 -1.791309 68.458000 -0.949623 -0.184804 -0.253106 0.414063 0.325397
 14 -1.392722 -2.097870 63.798653 -0.541212 -0.826118 -0.156903 0.257813 0.015873
DC_soldier_face_cmdr_blk.BMP
 23 -2.782716 -5.013163 73.856895 -0.861404 -0.489402 -0.135901 0.289063 0.746032
 23 -3.272715 -2.212191 71.027855 -0.968123 -0.186404 -0.167304 0.429688 0.547619
 23 -2.942719 -4.842357 71.506950 -0.915034 -0.390214 -0.102204 0.312500 0.563492
DC_soldier_face_cmdr_blk.BMP
 23 -2.782716 -5.013163 73.856895 -0.861404 -0.489402 -0.135901 0.289063 0.746032
 23 -3.152712 -2.133331 74.347878 -0.949623 -0.184804 -0.253106 0.437500 0.817460
 23 -3.272715 -2.212191 71.027855 -0.968123 -0.186404 -0.167304 0.429688 0.547619
DC_soldier_face_cmdr_blk.BMP
 23 -2.782716 -5.013163 73.856895 -0.861404 -0.489402 -0.135901 0.289063 0.746032
 23 -3.062715 -4.533544 74.967056 -0.772917 -0.532512 -0.345008 0.296875 0.912698
 23 -3.152712 -2.133331 74.347878 -0.949623 -0.184804 -0.253106 0.437500 0.817460
DC_soldier_face_cmdr_blk.BMP
 23 -2.782716 -5.013163 73.856895 -0.861404 -0.489402 -0.135901 0.289063 0.746032
 23 -1.842718 -6.033199 73.956543 -0.537006 -0.804208 -0.254703 0.210938 0.801587
 23 -3.062715 -4.533544 74.967056 -0.772917 -0.532512 -0.345008 0.296875 0.912698
DC_soldier_face_cmdr_blk.BMP
 23 0.277279 -6.242186 70.996468 -0.000000 -0.877597 -0.479399 0.015625 0.523809
 23 -0.982721 -6.242184 70.996468 -0.402384 -0.914963 -0.030499 0.125000 0.523809
 23 0.247278 -6.741870 70.076294 0.006600 -0.997192 0.074599 0.015625 0.452381
DC_soldier_face_cmdr_blk.BMP
 23 0.247278 -6.741870 70.076294 0.006600 -0.997192 0.074599 0.015625 0.452381
 23 -0.982721 -6.242184 70.996468 -0.402384 -0.914963 -0.030499 0.125000 0.523809
 23 -1.692722 -5.841624 69.366608 -0.505209 -0.854514 -0.120702 0.148438 0.404762
DC_soldier_face_cmdr_blk.BMP
 23 -0.982721 -6.242184 70.996468 -0.402384 -0.914963 -0.030499 0.125000 0.523809
 23 -1.912721 -5.982155 70.916557 -0.578632 -0.814245 -0.046803 0.187500 0.555556
 23 -1.692722 -5.841624 69.366608 -0.505209 -0.854514 -0.120702 0.148438 0.404762
DC_soldier_face_cmdr_blk.BMP
 23 -1.692722 -5.841624 69.366608 -0.505209 -0.854514 -0.120702 0.148438 0.404762
 23 -1.912721 -5.982155 70.916557 -0.578632 -0.814245 -0.046803 0.187500 0.555556
 23 -2.772719 -4.281828 69.967140 -0.907011 -0.364604 -0.210702 0.320313 0.444444
DC_soldier_face_cmdr_blk.BMP
 23 0.277299 4.396623 74.470116 0.016400 0.996456 -0.082496 0.984375 0.817460
 23 2.127301 3.885662 77.259941 0.242802 0.888006 0.390503 0.984375 0.944444
 23 3.837297 2.626463 74.919510 0.884513 0.448006 -0.130102 0.953125 0.817460
DC_soldier_face_cmdr_blk.BMP
 23 3.837297 2.626463 74.919510 0.884513 0.448006 -0.130102 0.953125 0.817460
 23 2.127301 3.885662 77.259941 0.242802 0.888006 0.390503 0.984375 0.944444
 23 4.057300 2.335498 77.729408 0.756465 0.475677 0.448879 0.968750 0.952381
DC_soldier_face_cmdr_blk.BMP
 23 2.127301 3.885662 77.259941 0.242802 0.888006 0.390503 0.984375 0.944444
 23 1.587300 2.355148 78.759415 0.115400 0.461501 0.879602 0.976563 0.992063
 23 4.057300 2.335498 77.729408 0.756465 0.475677 0.448879 0.968750 0.952381
DC_soldier_face_cmdr_blk.BMP
 23 4.057300 2.335498 77.729408 0.756465 0.475677 0.448879 0.968750 0.952381
 23 1.587300 2.355148 78.759415 0.115400 0.461501 0.879602 0.976563 0.992063
 23 2.697298 0.404992 79.208748 0.285486 0.126094 0.950052 0.945313 0.992063
DC_soldier_face_cmdr_blk.BMP
 23 4.447289 -0.892316 71.358299 0.686171 0.334885 -0.645772 0.507813 0.587302
 23 4.657292 -0.113113 73.678566 0.876629 0.478316 -0.052302 0.570313 0.746032
 23 3.837286 -2.212202 71.027847 0.968139 -0.186408 -0.167207 0.429688 0.547619
DC_soldier_face_cmdr_blk.BMP
 23 3.837286 -2.212202 71.027847 0.968139 -0.186408 -0.167207 0.429688 0.547619
 23 4.657292 -0.113113 73.678566 0.876629 0.478316 -0.052302 0.570313 0.746032
 23 3.717289 -2.133341 74.347878 0.975803 -0.172701 0.134100 0.445313 0.793651
DC_soldier_face_cmdr_blk.BMP
 23 4.657292 -0.113113 73.678566 0.876629 0.478316 -0.052302 0.570313 0.746032
 23 4.497291 -1.003339 74.338264 -0.073696 0.409881 0.909157 0.539063 0.817460
 23 3.717289 -2.133341 74.347878 0.975803 -0.172701 0.134100 0.445313 0.793651
DC_soldier_face_cmdr_blk.BMP
 23 -3.932710 -1.003326 74.338272 0.073697 0.409881 0.909157 0.539063 0.817460
 23 -4.092709 -0.113100 73.678574 -0.876629 0.478316 -0.052302 0.570313 0.746032
 23 -3.152712 -2.133331 74.347878 -0.949623 -0.184804 -0.253106 0.445313 0.793651
DC_soldier_face_cmdr_blk.BMP
 23 -3.152712 -2.133331 74.347878 -0.949623 -0.184804 -0.253106 0.445313 0.793651
 23 -4.092709 -0.113100 73.678574 -0.876629 0.478316 -0.052302 0.570313 0.746032
 23 -3.272715 -2.212191 71.027855 -0.968123 -0.186404 -0.167304 0.429688 0.547619
DC_soldier_face_cmdr_blk.BMP
 23 -4.092709 -0.113100 73.678574 -0.876629 0.478316 -0.052302 0.570313 0.746032
 23 -3.882713 -0.892304 71.358307 -0.686170 0.334886 -0.645772 0.507813 0.587302
 23 -3.272715 -2.212191 71.027855 -0.968123 -0.186404 -0.167304 0.429688 0.547619
DC_soldier_face_cmdr_blk.BMP
 23 3.717289 -2.133341 74.347878 0.975803 -0.172701 0.134100 0.445313 0.817460
 23 3.827291 -0.513115 73.688431 0.584464 0.661459 0.469971 0.578125 0.730159
 23 3.837297 2.626463 74.919510 0.884513 0.448006 -0.130102 0.828125 0.769841
DC_soldier_face_cmdr_blk.BMP
 23 3.837297 2.626463 74.919510 0.884513 0.448006 -0.130102 0.828125 0.769841
 23 3.827291 -0.513115 73.688431 0.584464 0.661459 0.469971 0.578125 0.730159
 23 3.567293 2.047483 71.949310 0.862147 0.455524 -0.221812 0.734375 0.563492
DC_soldier_face_cmdr_blk.BMP
 23 3.827291 -0.513115 73.688431 0.584464 0.661459 0.469971 0.578125 0.730159
 23 3.977288 -0.842281 71.258316 0.761019 0.497112 -0.416810 0.492188 0.563492
 23 3.567293 2.047483 71.949310 0.862147 0.455524 -0.221812 0.734375 0.563492
DC_soldier_face_cmdr_blk.BMP
 23 3.257286 -5.033870 75.886879 0.880362 -0.408282 -0.241390 0.296875 0.912698
 23 3.347284 -5.013172 73.856888 0.861307 -0.496904 -0.106001 0.289063 0.746032
 23 3.717289 -2.133341 74.347878 0.975803 -0.172701 0.134100 0.445313 0.817460
DC_soldier_face_cmdr_blk.BMP
 23 3.717289 -2.133341 74.347878 0.975803 -0.172701 0.134100 0.445313 0.817460
 23 3.347284 -5.013172 73.856888 0.861307 -0.496904 -0.106001 0.289063 0.746032
 23 3.837286 -2.212202 71.027847 0.968139 -0.186408 -0.167207 0.429688 0.547619
DC_soldier_face_cmdr_blk.BMP
 23 3.347284 -5.013172 73.856888 0.861307 -0.496904 -0.106001 0.289063 0.746032
 23 3.507282 -4.842366 71.506943 0.914998 -0.390299 -0.102200 0.312500 0.563492
 23 3.837286 -2.212202 71.027847 0.968139 -0.186408 -0.167207 0.429688 0.547619
DC_soldier_face_cmdr_blk.BMP
 23 -3.412713 -0.842270 71.258324 -0.765363 0.507676 -0.395581 0.492188 0.563492
 23 -3.262710 -0.513104 73.688438 -0.266700 0.731601 0.627401 0.578125 0.730159
 23 -2.932704 2.866710 74.229599 -0.815701 0.546101 -0.190800 0.828125 0.769841
DC_soldier_face_cmdr_blk.BMP
 23 -2.932704 2.866710 74.229599 -0.815701 0.546101 -0.190800 0.828125 0.769841
 23 -3.262710 -0.513104 73.688438 -0.266700 0.731601 0.627401 0.578125 0.730159
 23 -3.152712 -2.133331 74.347878 -0.949623 -0.184804 -0.253106 0.562500 0.793651
DC_soldier_face_cmdr_blk.BMP
 23 2.957290 1.238270 69.659035 0.798978 0.589083 -0.120897 0.718750 0.420635
 23 0.277293 2.988095 70.179634 0.000000 0.999380 -0.035199 0.968750 0.420635
 23 0.277296 4.017367 72.299988 0.076098 0.940667 -0.330688 0.968750 0.571429
DC_soldier_face_cmdr_blk.BMP
 23 0.277296 4.017367 72.299988 0.076098 0.940667 -0.330688 0.968750 0.571429
 23 0.277293 2.988095 70.179634 0.000000 0.999380 -0.035199 0.968750 0.420635
 23 -2.392711 1.238278 69.659035 -0.796380 0.597385 -0.094398 0.718750 0.420635
DC_soldier_face_cmdr_blk.BMP
 23 -0.982721 -6.242184 70.996468 -0.402384 -0.914963 -0.030499 0.125000 0.523809
 23 0.277282 -6.263116 73.706459 0.002100 -0.995513 -0.094601 0.015625 0.753968
 23 -1.912721 -5.982155 70.916557 -0.578632 -0.814245 -0.046803 0.187500 0.555556
DC_soldier_face_cmdr_blk.BMP
 23 -1.692722 -5.841624 69.366608 -0.505209 -0.854514 -0.120702 0.148438 0.404762
 23 0.237275 -6.590937 67.356346 0.006200 -0.986820 -0.161703 0.015625 0.277778
 23 0.247277 -6.491513 69.036385 0.014500 -0.972989 -0.230397 0.015625 0.380952
DC_soldier_face_cmdr_blk.BMP
 23 3.717289 -2.133341 74.347878 0.975803 -0.172701 0.134100 0.445313 0.817460
 23 3.837297 2.626463 74.919510 0.884513 0.448006 -0.130102 0.828125 0.769841
 23 3.257286 -5.033870 75.886879 0.880362 -0.408282 -0.241390 0.296875 0.912698
DC_soldier_face_cmdr_blk.BMP
 23 1.897284 -6.203867 75.886482 0.316613 -0.912337 -0.259611 0.156250 0.968254
 23 -1.242717 -6.273773 75.626457 -0.288300 -0.909298 -0.300099 0.156250 0.968254
 23 0.277282 -6.263116 73.706459 0.002100 -0.995513 -0.094601 0.015625 0.753968
DC_soldier_face_cmdr_blk.BMP
 23 -1.242717 -6.273773 75.626457 -0.288300 -0.909298 -0.300099 0.882813 0.817460
 23 1.897284 -6.203867 75.886482 0.316613 -0.912337 -0.259611 0.914063 0.817460
 23 0.537284 -7.174270 77.066147 0.026300 -0.980410 -0.195202 0.906250 0.880952
DC_soldier_face_cmdr_blk.BMP
 23 -2.932704 2.866710 74.229599 -0.815701 0.546101 -0.190800 0.710938 0.817460
 23 -3.152712 -2.133331 74.347878 -0.949623 -0.184804 -0.253106 0.796875 0.817460
 23 -4.772710 -1.863603 75.147972 -0.922900 -0.107600 -0.369700 0.796875 0.849206
DC_soldier_face_cmdr_blk.BMP
 23 -2.392703 1.065264 78.438980 -0.522493 0.103899 0.846289 0.757813 0.968254
 23 -0.722703 -0.025020 79.258606 -0.176308 0.151907 0.972543 0.765625 0.984127
 23 -1.162700 2.785296 78.339569 -0.265703 0.568207 0.778809 0.726563 0.960317
DC_soldier_face_cmdr_blk.BMP
 23 1.547279 -6.242188 70.996468 0.403898 -0.913596 -0.047000 0.125000 0.523809
 23 0.277279 -7.162560 72.086151 -0.000000 -0.960986 0.276596 0.015625 0.619048
 23 0.277278 -7.252210 71.066124 -0.000000 -0.673439 -0.739243 0.015625 0.547619
DC_soldier_face_cmdr_blk.BMP
 23 4.687295 -0.524609 78.038429 0.882500 0.062800 0.466100 0.953125 0.976190
 23 3.867288 -5.324715 78.346779 0.690160 -0.328181 0.644962 0.929688 0.944444
 23 4.647294 -0.954125 76.628281 0.973392 -0.039600 -0.225698 0.953125 0.880952
DC_soldier_face_cmdr_blk.BMP
 23 3.347284 -5.013172 73.856888 0.861307 -0.496904 -0.106001 0.289063 0.746032
 23 3.257286 -5.033870 75.886879 0.880362 -0.408282 -0.241390 0.304688 0.992063
 23 2.407283 -6.033206 73.956535 0.506412 -0.816519 -0.277207 0.210938 0.801587
DC_soldier_face_cmdr_blk.BMP
 23 -2.232714 -6.254606 78.056465 -0.589181 -0.588381 0.553782 0.867188 0.944444
 23 -3.352715 -5.203921 76.066826 -0.785569 -0.599176 -0.154494 0.859375 0.880952
 23 -1.862716 -6.624164 76.766342 -0.421113 -0.890626 -0.171605 0.875000 0.880952
end
