version 1
nodes
  0 "Bip01" -1
  1 "Bip01 Pelvis" 0
  2 "Bip01 L Thigh" 1
  3 "Bip01 L Calf" 2
  4 "Bip01 L Foot" 3
  5 "Bip01 R Thigh" 1
  6 "Bip01 R Calf" 5
  7 "Bip01 R Foot" 6
  8 "Bip01 Spine" 1
  9 "Bip01 Spine1" 8
 10 "Bip01 Neck" 9
 11 "Bip01 L Clavicle" 10
 12 "Bip01 L UpperArm" 11
 13 "Bip01 L Forearm" 12
 14 "Bip01 L Hand" 13
 15 "Bip01 L Finger0" 14
 16 "Bip01 L Finger01" 15
 17 "Bip01 L Finger02" 16
 18 "Bip01 L Finger1" 14
 19 "Bip01 L Finger11" 18
 20 "Bip01 L Finger12" 19
 21 "Bip01 L Finger2" 14
 22 "Bip01 L Finger21" 21
 23 "Bip01 L Finger22" 22
 24 "Bip01 R Clavicle" 10
 25 "Bip01 R UpperArm" 24
 26 "Bip01 R Forearm" 25
 27 "Bip01 R Hand" 26
 28 "Bip01 R Finger0" 27
 29 "Bip01 R Finger01" 28
 30 "Bip01 R Finger02" 29
 31 "Bip01 R Finger1" 27
 32 "Bip01 R Finger11" 31
 33 "Bip01 R Finger12" 32
 34 "Bip01 R Finger2" 27
 35 "Bip01 R Finger21" 34
 36 "Bip01 R Finger22" 35
 37 "Bip01 Head" 10
 38 "Bone05" 37
 39 "Bone08" 9
 40 "Bone16" 8
 41 "Bone01" 8
 42 "Bone03" 1
 43 "Bip01 R Finger4" 27
end
skeleton
time 0
  0   0.430811 -0.007176 37.546017 0.000000 0.000000 -1.570843
  1   1.816789 0.000000 0.000000 -1.570795 -1.570451 0.000000
  2   -0.000007 0.000008 4.427393 -0.214995 -3.065695 -0.262296
  3   18.465939 0.000000 0.000000 0.000000 0.000000 -0.674846
  4   14.875443 0.000000 -0.000001 0.188085 0.129455 -0.263799
  5   0.000006 -0.000004 -4.427393 0.077896 3.058486 -0.139407
  6   18.465939 0.000000 0.000000 0.000000 0.000000 -1.140162
  7   14.875442 0.000000 0.000000 -0.106932 -0.039226 -0.029558
  8   2.255207 -0.007574 0.000003 -0.000004 -0.000001 -0.269563
  9   9.514219 -0.009357 0.000000 0.000000 0.000000 0.200593
 10   11.751820 -0.001633 0.000000 0.000000 -0.000001 0.239386
 11   -2.133122 0.444673 2.649729 -0.774228 -1.294515 3.656329
 12   4.640941 0.000000 -0.000001 -0.465904 0.781240 -1.373001
 13   10.828049 0.000000 0.000000 0.000000 0.000000 -2.311374
 14   9.393337 -0.000001 0.000000 -2.324924 0.199573 0.229740
 15   1.442245 0.107454 -1.746177 1.446563 0.953498 0.378181
 16   1.063452 0.000000 0.000001 0.000000 0.000000 0.312502
 17   1.376307 -0.000001 0.000001 0.000000 0.000000 0.312499
 18   4.172846 -0.251366 -1.312744 0.005965 -0.043817 0.138962
 19   1.215374 0.000002 0.000000 0.000000 0.000000 0.637019
 20   1.215371 -0.000002 0.000001 0.000000 0.000000 0.637019
 21   4.220534 -0.244854 -0.431465 -0.001867 0.026206 0.026145
 22   1.350417 0.000000 0.000001 0.000000 0.000000 0.741734
 23   1.350410 -0.000001 -0.000001 0.000000 0.000000 0.741734
 24   -2.133122 0.444686 -2.649726 0.897815 1.256382 3.774568
 25   4.640942 0.000000 0.000001 0.367049 -0.402030 -1.536181
 26   10.828047 0.000000 0.000001 0.000000 0.000000 -2.188307
 27   9.393339 0.000000 0.000000 3.025746 -0.416880 -0.186900
 28   1.442245 0.107455 1.746178 1.393092 -2.390996 -1.554997
 29   1.063450 -0.000001 0.000000 0.000000 0.000000 0.312502
 30   1.376307 0.000000 0.000000 0.000000 0.000000 0.312503
 31   4.172847 -0.251365 1.312745 -0.006348 0.043769 0.130226
 32   1.215373 -0.000001 0.000000 0.000000 0.000000 0.628287
 33   1.215372 0.000000 0.000000 0.000000 0.000000 0.628287
 34   4.220534 -0.244853 0.431466 0.002095 -0.026194 0.017416
 35   1.350416 0.000000 -0.000001 0.000000 0.000000 0.732997
 36   1.350410 0.000000 0.000001 0.000000 0.000000 0.733014
 37   2.110540 -0.000001 0.000000 0.000000 0.000000 -0.196544
 38   0.891923 2.373051 -0.014527 -3.141592 -0.000001 1.413797
 39   7.228122 5.709445 3.726568 3.140796 -1.570796 0.000000
 40   2.450426 5.076128 0.001325 3.140791 -1.570796 0.000000
 41   6.312404 -4.528058 0.001311 3.271681 -1.570796 0.000000
 42   2.233309 1.152535 -7.309138 -1.841252 -1.570796 0.000000
 43   4.262825 -0.232720 -1.392178 -0.009922 -0.192625 -0.084935
time 1
  0   0.410528 -0.007176 37.542110 0.000000 0.000000 -1.570843
  1   2.519935 0.000000 0.000000 -1.570795 -1.570451 0.000000
  2   -0.000007 0.000008 4.427393 -0.053378 -3.093791 0.469238
  3   18.465939 0.000000 0.000000 0.000000 0.000000 -0.674846
  4   14.875443 0.000000 -0.000001 0.067349 0.024567 -0.406209
  5   0.000006 -0.000004 -4.427393 -0.096425 3.048420 0.210607
  6   18.465939 0.000000 0.000000 0.000000 0.000000 -1.177115
  7   14.875442 0.000000 0.000000 -0.081031 0.106849 -0.273873
  8   2.255207 -0.007574 0.000003 -0.000004 -0.000001 -0.278926
  9   9.514219 -0.009357 0.000000 0.000000 0.000000 0.051545
 10   11.751820 -0.001633 0.000000 0.000000 -0.000001 0.239386
 11   -2.133122 0.444673 2.649729 0.365140 -1.357095 2.543849
 12   4.640941 0.000000 -0.000001 0.446012 0.432302 0.069723
 13   10.828049 0.000000 0.000000 0.000000 0.000000 -0.956110
 14   9.393337 -0.000001 0.000000 -1.883125 0.075492 0.109638
 15   1.442245 0.107454 -1.746177 1.594944 0.708125 0.360981
 16   1.063452 0.000000 0.000001 0.000000 0.000000 0.245652
 17   1.376307 -0.000001 0.000001 0.000000 0.000000 0.245646
 18   4.172846 -0.251366 -1.312744 -0.003000 0.038493 -0.004576
 19   1.215374 0.000002 0.000000 0.000000 0.000000 0.493039
 20   1.215371 -0.000002 0.000001 0.000000 0.000000 0.493039
 21   4.220534 -0.244854 -0.431465 -0.003881 0.025990 -0.051007
 22   1.350417 0.000000 0.000001 0.000000 0.000000 0.664588
 23   1.350410 -0.000001 -0.000001 0.000000 0.000000 0.664588
 24   -2.133122 0.444686 -2.649726 -0.486306 1.345410 2.425664
 25   4.640942 0.000000 0.000001 -0.240284 -0.295887 0.037487
 26   10.828047 0.000000 0.000001 0.000000 0.000000 -0.939958
 27   9.393339 0.000000 0.000000 2.142587 -0.217940 -0.000339
 28   1.442245 0.107455 1.746178 -1.669131 -0.632046 0.817003
 29   1.063450 -0.000001 0.000000 0.000000 0.000000 0.245652
 30   1.376307 0.000000 0.000000 0.000000 0.000000 0.245644
 31   4.172847 -0.251365 1.312745 0.002988 -0.038493 -0.008182
 32   1.215373 -0.000001 0.000000 0.000000 0.000000 0.489457
 33   1.215372 0.000000 0.000000 0.000000 0.000000 0.489457
 34   4.220534 -0.244853 0.431466 0.003976 -0.025966 -0.054571
 35   1.350416 0.000000 -0.000001 0.000000 0.000000 0.661022
 36   1.350410 0.000000 0.000001 0.000000 0.000000 0.661022
 37   2.110540 -0.000001 0.000000 0.000000 0.000000 -0.038201
 38   0.891923 2.373051 -0.014527 -3.141592 -0.000001 1.413797
 39   7.228122 5.709445 3.726568 3.140796 -1.570796 0.000000
 40   2.450426 5.076128 0.001325 3.140791 -1.570796 0.000000
 41   6.312404 -4.528058 0.001311 3.267956 -1.570796 0.000000
 42   2.233309 1.152535 -7.309138 -1.443765 -1.552098 -0.195023
 43   4.262825 -0.232720 -1.392178 -0.008579 -0.032811 -0.035026
time 2
  0   0.390245 -0.007176 37.534298 0.000000 0.000000 -1.570843
  1   2.836351 0.000000 0.000000 -1.570795 -1.570451 0.000000
  2   -0.000007 0.000008 4.427393 0.060413 -3.048019 0.891710
  3   18.465939 0.000000 0.000000 0.000000 0.000000 -0.674846
  4   14.875443 0.000000 -0.000001 0.059864 -0.093942 -0.465662
  5   0.000006 -0.000004 -4.427393 -0.216975 3.012069 0.390199
  6   18.465939 0.000000 0.000000 0.000000 0.000000 -1.140162
  7   14.875442 0.000000 0.000000 -0.124094 0.220157 -0.405447
  8   2.255207 -0.007574 0.000003 -0.000004 -0.000001 -0.269563
  9   9.514219 -0.009357 0.000000 0.000000 0.000000 -0.052324
 10   11.751820 -0.001633 0.000000 0.000000 -0.000001 0.239386
 11   -2.133122 0.444673 2.649729 0.898135 -1.256251 2.027902
 12   4.640941 0.000000 -0.000001 0.633946 -0.049090 0.670965
 13   10.828049 0.000000 0.000000 0.000000 0.000000 -0.016887
 14   9.393337 -0.000001 0.000000 -1.569611 0.034172 0.000037
 15   1.442245 0.107454 -1.746177 1.686435 0.539209 0.325885
 16   1.063452 0.000000 0.000001 0.000000 0.000000 0.199056
 17   1.376307 -0.000001 0.000001 0.000000 0.000000 0.199049
 18   4.172846 -0.251366 -1.312744 -0.016243 0.094689 -0.105517
 19   1.215374 0.000002 0.000000 0.000000 0.000000 0.392669
 20   1.215371 -0.000002 0.000001 0.000000 0.000000 0.392669
 21   4.220534 -0.244854 -0.431465 -0.005271 0.025739 -0.104777
 22   1.350417 0.000000 0.000001 0.000000 0.000000 0.610843
 23   1.350410 -0.000001 -0.000001 0.000000 0.000000 0.610843
 24   -2.133122 0.444686 -2.649726 -1.035056 1.192773 1.899022
 25   4.640942 0.000000 0.000001 -0.418563 0.031120 0.943554
 26   10.828047 0.000000 0.000001 0.000000 0.000000 -0.077910
 27   9.393339 0.000000 0.000000 1.569611 -0.034192 0.000001
 28   1.442245 0.107455 1.746178 -1.686405 -0.539236 0.325898
 29   1.063450 -0.000001 0.000000 0.000000 0.000000 0.199056
 30   1.376307 0.000000 0.000000 0.000000 0.000000 0.199059
 31   4.172847 -0.251365 1.312745 0.016243 -0.094689 -0.105517
 32   1.215373 -0.000001 0.000000 0.000000 0.000000 0.392679
 33   1.215372 0.000000 0.000000 0.000000 0.000000 0.392679
 34   4.220534 -0.244853 0.431466 0.005271 -0.025739 -0.104777
 35   1.350416 0.000000 -0.000001 0.000000 0.000000 0.610828
 36   1.350410 0.000000 0.000001 0.000000 0.000000 0.610833
 37   2.110540 -0.000001 0.000000 0.000000 0.000000 0.056365
 38   0.891923 2.373051 -0.014527 -3.141592 -0.000001 1.413797
 39   7.228122 5.709445 3.726568 3.140796 -1.570796 0.000000
 40   2.450426 5.076128 0.001325 3.140791 -1.570796 0.000000
 41   6.312404 -4.528058 0.001311 3.499833 -1.570796 0.000000
 42   2.233309 1.152535 -7.309138 1.276330 -1.545661 -2.818118
 43   4.262825 -0.232720 -1.392178 -0.002923 0.078442 -0.000042
time 3
  0   0.369962 -0.007176 37.522579 0.000000 0.000000 -1.570843
  1   2.433995 0.000000 0.000000 -1.570795 -1.570451 0.000000
  2   -0.000007 0.000008 4.427393 0.109194 -3.050717 0.735658
  3   18.465939 0.000000 0.000000 0.000000 0.000000 -0.674846
  4   14.875443 0.000000 -0.000001 0.022977 -0.140129 -0.362440
  5   0.000006 -0.000004 -4.427393 -0.266918 3.020644 0.242145
  6   18.465939 0.000000 0.000000 0.000000 0.000000 -0.951916
  7   14.875442 0.000000 0.000000 -0.033651 0.290560 -0.304037
  8   2.255207 -0.007574 0.000003 -0.000004 -0.000001 -0.223670
  9   9.514219 -0.009357 0.000000 0.000000 0.000000 -0.070920
 10   11.751820 -0.001633 0.000000 0.000000 -0.000001 0.239386
 11   -2.133122 0.444673 2.649729 0.863457 -1.268402 2.060947
 12   4.640941 0.000000 -0.000001 0.578539 0.046789 0.786929
 13   10.828049 0.000000 0.000000 0.000000 0.000000 0.176644
 14   9.393337 -0.000001 0.000000 -1.499643 0.055315 -0.024921
 15   1.442245 0.107454 -1.746177 1.706485 0.502003 0.316156
 16   1.063452 0.000000 0.000001 0.000000 0.000000 0.188677
 17   1.376307 -0.000001 0.000001 0.000000 0.000000 0.188686
 18   4.172846 -0.251366 -1.312744 -0.019970 0.106985 -0.128158
 19   1.215374 0.000002 0.000000 0.000000 0.000000 0.370333
 20   1.215371 -0.000002 0.000001 0.000000 0.000000 0.370333
 21   4.220534 -0.244854 -0.431465 -0.005582 0.025679 -0.116749
 22   1.350417 0.000000 0.000001 0.000000 0.000000 0.598877
 23   1.350410 -0.000001 -0.000001 0.000000 0.000000 0.598877
 24   -2.133122 0.444686 -2.649726 -1.009770 1.206770 1.922619
 25   4.640942 0.000000 0.000001 -0.434307 -0.085275 1.069963
 26   10.828047 0.000000 0.000001 0.000000 0.000000 0.093199
 27   9.393339 0.000000 0.000000 1.442713 -0.005466 -0.013481
 28   1.442245 0.107455 1.746178 -1.697133 -0.520247 0.219922
 29   1.063450 -0.000001 0.000000 0.000000 0.000000 0.188677
 30   1.376307 0.000000 0.000000 0.000000 0.000000 0.188680
 31   4.172847 -0.251365 1.312745 0.019946 -0.106997 -0.127356
 32   1.215373 -0.000001 0.000000 0.000000 0.000000 0.371149
 33   1.215372 0.000000 0.000000 0.000000 0.000000 0.371149
 34   4.220534 -0.244853 0.431466 0.005558 -0.025679 -0.115948
 35   1.350416 0.000000 -0.000001 0.000000 0.000000 0.599665
 36   1.350410 0.000000 0.000001 0.000000 0.000000 0.599669
 37   2.110540 -0.000001 0.000000 0.000000 0.000000 0.029057
 38   0.891923 2.373051 -0.014527 -3.141592 -0.000001 1.413797
 39   7.228122 5.709445 3.726568 3.140796 -1.570796 0.000000
 40   2.450426 5.076128 0.001325 3.140791 -1.570796 0.000000
 41   6.312404 -4.528058 0.001311 3.394355 -1.570796 0.000000
 42   2.233309 1.152535 -7.309138 1.107787 -1.545457 -2.767280
 43   4.262825 -0.232720 -1.392178 -0.001125 0.103154 0.007878
time 4
  0   0.329395 -0.007176 37.503044 0.000000 0.000000 -1.570843
  1   1.805070 0.000000 0.000000 -1.570795 -1.570451 0.000000
  2   -0.000007 0.000008 4.427393 0.139837 -3.083651 0.414926
  3   18.465939 0.000000 0.000000 0.000000 0.000000 -0.674846
  4   14.875443 0.000000 -0.000001 -0.044137 -0.144769 -0.203991
  5   0.000006 -0.000004 -4.427393 -0.301074 3.052335 -0.008480
  6   18.465939 0.000000 0.000000 0.000000 0.000000 -0.711490
  7   14.875442 0.000000 0.000000 0.131827 0.285445 -0.125941
  8   2.255207 -0.007574 0.000003 -0.000004 -0.000001 -0.166263
  9   9.514219 -0.009357 0.000000 0.000000 0.000000 -0.064729
 10   11.751820 -0.001633 0.000000 0.000000 -0.000001 0.239386
 11   -2.133122 0.444673 2.649729 0.683389 -1.315110 2.234143
 12   4.640941 0.000000 -0.000001 0.504367 0.327951 0.771123
 13   10.828049 0.000000 0.000000 0.000000 0.000000 0.181769
 14   9.393337 -0.000001 0.000000 -1.491232 0.089607 -0.026729
 15   1.442245 0.107454 -1.746177 1.708990 0.497361 0.314904
 16   1.063452 0.000000 0.000001 0.000000 0.000000 0.187383
 17   1.376307 -0.000001 0.000001 0.000000 0.000000 0.187389
 18   4.172846 -0.251366 -1.312744 -0.020449 0.108519 -0.131003
 19   1.215374 0.000002 0.000000 0.000000 0.000000 0.367557
 20   1.215371 -0.000002 0.000001 0.000000 0.000000 0.367557
 21   4.220534 -0.244854 -0.431465 -0.005618 0.025667 -0.118270
 22   1.350417 0.000000 0.000001 0.000000 0.000000 0.597366
 23   1.350410 -0.000001 -0.000001 0.000000 0.000000 0.597366
 24   -2.133122 0.444686 -2.649726 -0.865866 1.267617 2.058700
 25   4.640942 0.000000 0.000001 -0.450463 -0.338567 1.007179
 26   10.828047 0.000000 0.000001 0.000000 0.000000 0.090817
 27   9.393339 0.000000 0.000000 1.426832 -0.013143 -0.014596
 28   1.442245 0.107455 1.746178 -1.698588 -0.517944 0.206739
 29   1.063450 -0.000001 0.000000 0.000000 0.000000 0.187383
 30   1.376307 0.000000 0.000000 0.000000 0.000000 0.187380
 31   4.172847 -0.251365 1.312745 0.020425 -0.108531 -0.130121
 32   1.215373 -0.000001 0.000000 0.000000 0.000000 0.368463
 33   1.215372 0.000000 0.000000 0.000000 0.000000 0.368463
 34   4.220534 -0.244853 0.431466 0.005594 -0.025667 -0.117349
 35   1.350416 0.000000 -0.000001 0.000000 0.000000 0.598280
 36   1.350410 0.000000 0.000001 0.000000 0.000000 0.598285
 37   2.110540 -0.000001 0.000000 0.000000 0.000000 -0.034546
 38   0.891923 2.373051 -0.014527 -3.141592 -0.000001 1.413797
 39   7.228122 5.709445 3.726568 3.140796 -1.570796 0.000000
 40   2.450426 5.076128 0.001325 3.140791 -1.570796 0.000000
 41   6.312404 -4.528058 0.001311 3.281223 -1.570796 0.000000
 42   2.233309 1.152535 -7.309138 0.106302 -1.548399 -1.947072
 43   4.262825 -0.232720 -1.392178 -0.000885 0.106246 0.008873
time 5
  0   0.309112 -0.007176 37.483513 0.000000 0.000000 -1.570843
  1   1.098017 0.000000 0.000000 -1.570795 -1.570451 0.000000
  2   -0.000007 0.000008 4.427393 0.140410 -3.130353 0.032352
  3   18.465939 0.000000 0.000000 0.000000 0.000000 -0.674846
  4   14.875443 0.000000 -0.000001 -0.098869 -0.100498 -0.036576
  5   0.000006 -0.000004 -4.427393 -0.305953 3.094185 -0.284467
  6   18.465939 0.000000 0.000000 0.000000 0.000000 -0.461677
  7   14.875442 0.000000 0.000000 0.260455 0.169189 0.054481
  8   2.255207 -0.007574 0.000003 -0.000004 -0.000001 -0.105614
  9   9.514219 -0.009357 0.000000 0.000000 0.000000 -0.049250
 10   11.751820 -0.001633 0.000000 0.000000 -0.000001 0.239386
 11   -2.133122 0.444673 2.649729 0.342831 -1.358797 2.565627
 12   4.640941 0.000000 -0.000001 0.411235 0.680746 0.639530
 13   10.828049 0.000000 0.000000 0.000000 0.000000 0.081464
 14   9.393337 -0.000001 0.000000 -1.517525 0.126916 -0.016863
 15   1.442245 0.107454 -1.746177 1.701476 0.511286 0.318660
 16   1.063452 0.000000 0.000001 0.000000 0.000000 0.191278
 17   1.376307 -0.000001 0.000001 0.000000 0.000000 0.191280
 18   4.172846 -0.251366 -1.312744 -0.019011 0.103917 -0.122508
 19   1.215374 0.000002 0.000000 0.000000 0.000000 0.375927
 20   1.215371 -0.000002 0.000001 0.000000 0.000000 0.375927
 21   4.220534 -0.244854 -0.431465 -0.005498 0.025691 -0.113746
 22   1.350417 0.000000 0.000001 0.000000 0.000000 0.601858
 23   1.350410 -0.000001 -0.000001 0.000000 0.000000 0.601858
 24   -2.133122 0.444686 -2.649726 -0.545352 1.337996 2.368149
 25   4.640942 0.000000 0.000001 -0.443877 -0.655043 0.815676
 26   10.828047 0.000000 0.000001 0.000000 0.000000 -0.010187
 27   9.393339 0.000000 0.000000 1.474525 -0.041708 -0.008389
 28   1.442245 0.107455 1.746178 -1.694224 -0.524910 0.246339
 29   1.063450 -0.000001 0.000000 0.000000 0.000000 0.191278
 30   1.376307 0.000000 0.000000 0.000000 0.000000 0.191280
 31   4.172847 -0.251365 1.312745 0.018987 -0.103917 -0.121907
 32   1.215373 -0.000001 0.000000 0.000000 0.000000 0.376521
 33   1.215372 0.000000 0.000000 0.000000 0.000000 0.376521
 34   4.220534 -0.244853 0.431466 0.005486 -0.025691 -0.113145
 35   1.350416 0.000000 -0.000001 0.000000 0.000000 0.602477
 36   1.350410 0.000000 0.000001 0.000000 0.000000 0.602484
 37   2.110540 -0.000001 0.000000 0.000000 0.000000 -0.110621
 38   0.891923 2.373051 -0.014527 -3.141592 -0.000001 1.413797
 39   7.228122 5.709445 3.726568 3.140796 -1.570796 0.000000
 40   2.450426 5.076128 0.001325 3.140791 -1.570796 0.000000
 41   6.312404 -4.528058 0.001311 3.270762 -1.570796 0.000000
 42   2.233309 1.152535 -7.309138 -0.739485 -1.519449 -1.348503
 43   4.262825 -0.232720 -1.392178 -0.001592 0.096982 0.005888
time 6
  0   0.288829 -0.007176 37.463982 0.000000 0.000000 -1.570843
  1   0.465185 0.000000 0.000000 -1.570795 -1.570451 0.000000
  2   -0.000007 0.000008 4.427393 0.118931 -3.167752 -0.311820
  3   18.465939 0.000000 0.000000 0.000000 0.000000 -0.674846
  4   14.875443 0.000000 -0.000001 -0.113982 -0.042946 0.098645
  5   0.000006 -0.000004 -4.427393 -0.281939 3.126156 -0.511788
  6   18.465939 0.000000 0.000000 0.000000 0.000000 -0.245274
  7   14.875442 0.000000 0.000000 0.280881 0.029656 0.198511
  8   2.255207 -0.007574 0.000003 -0.000004 -0.000001 -0.050060
  9   9.514219 -0.009357 0.000000 0.000000 0.000000 -0.039963
 10   11.751820 -0.001633 0.000000 0.000000 -0.000001 0.239386
 11   -2.133122 0.444673 2.649729 -0.051073 -1.370534 2.951522
 12   4.640941 0.000000 -0.000001 0.263089 0.987875 0.417321
 13   10.828049 0.000000 0.000000 0.000000 0.000000 -0.041475
 14   9.393337 -0.000001 0.000000 -1.552290 0.158192 -0.005336
 15   1.442245 0.107454 -1.746177 1.691444 0.529901 0.323525
 16   1.063452 0.000000 0.000001 0.000000 0.000000 0.196467
 17   1.376307 -0.000001 0.000001 0.000000 0.000000 0.196454
 18   4.172846 -0.251366 -1.312744 -0.017141 0.097757 -0.111167
 19   1.215374 0.000002 0.000000 0.000000 0.000000 0.387075
 20   1.215371 -0.000002 0.000001 0.000000 0.000000 0.387075
 21   4.220534 -0.244854 -0.431465 -0.005343 0.025727 -0.107780
 22   1.350417 0.000000 0.000001 0.000000 0.000000 0.607861
 23   1.350410 -0.000001 -0.000001 0.000000 0.000000 0.607861
 24   -2.133122 0.444686 -2.649726 -0.026630 1.370724 2.875321
 25   4.640942 0.000000 0.000001 -0.385891 -0.962175 0.549770
 26   10.828047 0.000000 0.000001 0.000000 0.000000 -0.135004
 27   9.393339 0.000000 0.000000 1.537949 -0.076973 -0.002230
 28   1.442245 0.107455 1.746178 -1.688860 -0.534405 0.299275
 29   1.063450 -0.000001 0.000000 0.000000 0.000000 0.196467
 30   1.376307 0.000000 0.000000 0.000000 0.000000 0.196459
 31   4.172847 -0.251365 1.312745 0.017141 -0.097769 -0.110967
 32   1.215373 -0.000001 0.000000 0.000000 0.000000 0.387307
 33   1.215372 0.000000 0.000000 0.000000 0.000000 0.387307
 34   4.220534 -0.244853 0.431466 0.005343 -0.025727 -0.107580
 35   1.350416 0.000000 -0.000001 0.000000 0.000000 0.608058
 36   1.350410 0.000000 0.000001 0.000000 0.000000 0.608066
 37   2.110540 -0.000001 0.000000 0.000000 0.000000 -0.175471
 38   0.891923 2.373051 -0.014527 -3.141592 -0.000001 1.413797
 39   7.228122 5.709445 3.726568 3.140796 -1.570796 0.000000
 40   2.450426 5.076128 0.001325 3.140791 -1.570796 0.000000
 41   6.312404 -4.528058 0.001311 3.261067 -1.570796 0.000000
 42   2.233309 1.152535 -7.309138 -0.966895 -1.495479 -1.301112
 43   4.262825 -0.232720 -1.392178 -0.002491 0.084614 0.001908
time 7
  0   0.268546 -0.007176 37.444450 0.000000 0.000000 -1.570843
  1   0.062829 0.000000 0.000000 -1.570795 -1.570451 0.000000
  2   -0.000007 0.000008 4.427393 0.101939 -3.186265 -0.516149
  3   18.465939 0.000000 0.000000 0.000000 0.000000 -0.674846
  4   14.875443 0.000000 -0.000001 -0.110823 -0.010615 0.165722
  5   0.000006 -0.000004 -4.427393 -0.242138 3.134917 -0.615202
  6   18.465939 0.000000 0.000000 0.000000 0.000000 -0.105271
  7   14.875442 0.000000 0.000000 0.238906 -0.040386 0.297107
  8   2.255207 -0.007574 0.000003 -0.000004 -0.000001 -0.007906
  9   9.514219 -0.009357 0.000000 0.000000 0.000000 -0.052324
 10   11.751820 -0.001633 0.000000 0.000000 -0.000001 0.239386
 11   -2.133122 0.444673 2.649729 -0.257548 -1.364173 3.153710
 12   4.640941 0.000000 -0.000001 0.114107 1.146020 0.226839
 13   10.828049 0.000000 0.000000 0.000000 0.000000 -0.104135
 14   9.393337 -0.000001 0.000000 -1.569611 0.173816 0.000037
 15   1.442245 0.107454 -1.746177 1.686435 0.539209 0.325885
 16   1.063452 0.000000 0.000001 0.000000 0.000000 0.199056
 17   1.376307 -0.000001 0.000001 0.000000 0.000000 0.199049
 18   4.172846 -0.251366 -1.312744 -0.016243 0.094689 -0.105517
 19   1.215374 0.000002 0.000000 0.000000 0.000000 0.392669
 20   1.215371 -0.000002 0.000001 0.000000 0.000000 0.392669
 21   4.220534 -0.244854 -0.431465 -0.005271 0.025739 -0.104777
 22   1.350417 0.000000 0.000001 0.000000 0.000000 0.610843
 23   1.350410 -0.000001 -0.000001 0.000000 0.000000 0.610843
 24   -2.133122 0.444686 -2.649726 0.414433 1.352865 3.307092
 25   4.640942 0.000000 0.000001 -0.310052 -1.198032 0.318511
 26   10.828047 0.000000 0.000001 0.000000 0.000000 -0.208826
 27   9.393339 0.000000 0.000000 1.569611 -0.104009 0.000001
 28   1.442245 0.107455 1.746178 -1.686405 -0.539236 0.325898
 29   1.063450 -0.000001 0.000000 0.000000 0.000000 0.199056
 30   1.376307 0.000000 0.000000 0.000000 0.000000 0.199059
 31   4.172847 -0.251365 1.312745 0.016243 -0.094689 -0.105517
 32   1.215373 -0.000001 0.000000 0.000000 0.000000 0.392679
 33   1.215372 0.000000 0.000000 0.000000 0.000000 0.392679
 34   4.220534 -0.244853 0.431466 0.005271 -0.025739 -0.104777
 35   1.350416 0.000000 -0.000001 0.000000 0.000000 0.610828
 36   1.350410 0.000000 0.000001 0.000000 0.000000 0.610833
 37   2.110540 -0.000001 0.000000 0.000000 0.000000 -0.205273
 38   0.891923 2.373051 -0.014527 -3.141592 -0.000001 1.413797
 39   7.228122 5.709445 3.726568 3.140796 -1.570796 0.000000
 40   2.450426 5.076128 0.001325 3.140791 -1.570796 0.000000
 41   6.312404 -4.528058 0.001311 3.252086 -1.570796 0.000000
 42   2.233309 1.152535 -7.309138 -1.023651 -1.497343 -1.312218
 43   4.262825 -0.232720 -1.392178 -0.002923 0.078442 -0.000042
time 8
  0   0.248262 -0.007176 37.421013 0.000000 0.000000 -1.570843
  1   0.180020 0.054689 0.000000 -1.570795 -1.570451 0.000000
  2   -0.000007 0.000008 4.427393 0.106234 -3.174823 -0.406179
  3   18.465939 0.000000 0.000000 0.000000 0.000000 -0.691733
  4   14.875443 0.000000 -0.000001 -0.106639 -0.032112 0.096670
  5   0.000006 -0.000004 -4.427393 -0.152395 3.106582 -0.398736
  6   18.465939 0.000000 0.000000 0.000000 0.000000 -0.140518
  7   14.875442 0.000000 0.000000 0.156219 0.006930 0.323520
  8   2.255207 -0.007574 0.000003 0.000017 0.005116 0.006586
  9   9.514219 -0.009357 0.000000 0.000000 0.000000 -0.119737
 10   11.751820 -0.001633 0.000000 0.000000 -0.000001 0.239386
 11   -2.133122 0.444673 2.649729 -0.303153 -1.361517 3.198366
 12   4.640941 0.000000 -0.000001 0.210530 1.184661 0.322899
 13   10.828049 0.000000 0.000000 0.000000 0.000000 -0.108284
 14   9.393337 -0.000001 0.000000 -1.569611 0.176409 0.000037
 15   1.442245 0.107454 -1.746177 1.686435 0.539209 0.325885
 16   1.063452 0.000000 0.000001 0.000000 0.000000 0.199056
 17   1.376307 -0.000001 0.000001 0.000000 0.000000 0.199049
 18   4.172846 -0.251366 -1.312744 -0.016243 0.094689 -0.105517
 19   1.215374 0.000002 0.000000 0.000000 0.000000 0.392669
 20   1.215371 -0.000002 0.000001 0.000000 0.000000 0.392669
 21   4.220534 -0.244854 -0.431465 -0.005271 0.025739 -0.104777
 22   1.350417 0.000000 0.000001 0.000000 0.000000 0.610843
 23   1.350410 -0.000001 -0.000001 0.000000 0.000000 0.610843
 24   -2.133122 0.444686 -2.649726 0.508862 1.342731 3.399211
 25   4.640942 0.000000 0.000001 -0.360320 -1.166859 0.330480
 26   10.828047 0.000000 0.000001 0.000000 0.000000 -0.218119
 27   9.393339 0.000000 0.000000 1.569611 -0.140641 0.000001
 28   1.442245 0.107455 1.746178 -1.686405 -0.539236 0.325898
 29   1.063450 -0.000001 0.000000 0.000000 0.000000 0.199056
 30   1.376307 0.000000 0.000000 0.000000 0.000000 0.199059
 31   4.172847 -0.251365 1.312745 0.016243 -0.094689 -0.105517
 32   1.215373 -0.000001 0.000000 0.000000 0.000000 0.392679
 33   1.215372 0.000000 0.000000 0.000000 0.000000 0.392679
 34   4.220534 -0.244853 0.431466 0.005271 -0.025739 -0.104777
 35   1.350416 0.000000 -0.000001 0.000000 0.000000 0.610828
 36   1.350410 0.000000 0.000001 0.000000 0.000000 0.610833
 37   2.110540 -0.000001 0.000000 0.000095 -0.005112 -0.152421
 38   0.891923 2.373051 -0.014527 -3.141592 -0.000001 1.413797
 39   7.228122 5.709445 3.726568 3.140796 -1.570796 0.000000
 40   2.450426 5.076128 0.001325 3.140791 -1.570796 0.000000
 41   6.312404 -4.528058 0.001311 3.243819 -1.570796 0.000000
 42   2.233309 1.152535 -7.309138 -0.881952 -1.504333 -1.245200
 43   4.262825 -0.232720 -1.392178 -0.002923 0.078442 -0.000042
time 9
  0   0.207696 -0.007176 37.401482 0.000000 0.000000 -1.570843
  1   0.660504 0.105472 0.000000 -1.570795 -1.570451 0.000000
  2   -0.000007 0.000008 4.427393 0.111294 -3.140494 -0.095023
  3   18.465939 0.000000 0.000000 0.000000 0.000000 -0.708621
  4   14.875443 0.000000 -0.000001 -0.076953 -0.080555 -0.088681
  5   0.000006 -0.000004 -4.427393 -0.012613 3.099684 0.027271
  6   18.465939 0.000000 0.000000 0.000000 0.000000 -0.308350
  7   14.875442 0.000000 0.000000 0.010640 0.042512 0.260528
  8   2.255207 -0.007574 0.000003 0.000038 0.010234 -0.000627
  9   9.514219 -0.009357 0.000000 0.000000 0.000000 -0.218648
 10   11.751820 -0.001633 0.000000 0.000000 -0.000001 0.239386
 11   -2.133122 0.444673 2.649729 -0.324400 -1.360117 3.219114
 12   4.640941 0.000000 -0.000001 0.445276 1.173021 0.563841
 13   10.828049 0.000000 0.000000 0.000000 0.000000 -0.111090
 14   9.393337 -0.000001 0.000000 -1.569611 0.175867 0.000037
 15   1.442245 0.107454 -1.746177 1.686435 0.539209 0.325885
 16   1.063452 0.000000 0.000001 0.000000 0.000000 0.199056
 17   1.376307 -0.000001 0.000001 0.000000 0.000000 0.199049
 18   4.172846 -0.251366 -1.312744 -0.016243 0.094689 -0.105517
 19   1.215374 0.000002 0.000000 0.000000 0.000000 0.392669
 20   1.215371 -0.000002 0.000001 0.000000 0.000000 0.392669
 21   4.220534 -0.244854 -0.431465 -0.005271 0.025739 -0.104777
 22   1.350417 0.000000 0.000001 0.000000 0.000000 0.610843
 23   1.350410 -0.000001 -0.000001 0.000000 0.000000 0.610843
 24   -2.133122 0.444686 -2.649726 0.491082 1.344849 3.381875
 25   4.640942 0.000000 0.000001 -0.531087 -1.088403 0.501755
 26   10.828047 0.000000 0.000001 0.000000 0.000000 -0.219397
 27   9.393339 0.000000 0.000000 1.569611 -0.160616 0.000001
 28   1.442245 0.107455 1.746178 -1.686405 -0.539236 0.325898
 29   1.063450 -0.000001 0.000000 0.000000 0.000000 0.199056
 30   1.376307 0.000000 0.000000 0.000000 0.000000 0.199059
 31   4.172847 -0.251365 1.312745 0.016243 -0.094689 -0.105517
 32   1.215373 -0.000001 0.000000 0.000000 0.000000 0.392679
 33   1.215372 0.000000 0.000000 0.000000 0.000000 0.392679
 34   4.220534 -0.244853 0.431466 0.005271 -0.025739 -0.104777
 35   1.350416 0.000000 -0.000001 0.000000 0.000000 0.610828
 36   1.350410 0.000000 0.000001 0.000000 0.000000 0.610833
 37   2.110540 -0.000001 0.000000 0.000191 -0.010224 -0.046286
 38   0.891923 2.373051 -0.014527 -3.141592 -0.000001 1.413797
 39   7.228122 5.709445 3.726568 3.140796 -1.570796 0.000000
 40   2.450426 5.076128 0.001325 3.140791 -1.570796 0.000000
 41   6.312404 -4.528058 0.001311 3.236267 -1.570796 0.000000
 42   2.233309 1.152535 -7.309138 -0.714367 -1.493382 -1.008721
 43   4.262825 -0.232720 -1.392178 -0.002923 0.078442 -0.000042
time 10
  0   0.187413 -0.007176 37.385857 0.000000 0.000000 -1.570843
  1   0.976920 0.000000 0.000000 -1.570795 -1.570451 0.000000
  2   -0.000007 0.000008 4.427393 0.109194 -3.119933 0.090903
  3   18.465939 0.000000 0.000000 0.000000 0.000000 -0.674846
  4   14.875443 0.000000 -0.000001 -0.043738 -0.102414 -0.294889
  5   0.000006 -0.000004 -4.427393 0.084114 3.125783 0.269753
  6   18.465939 0.000000 0.000000 0.000000 0.000000 -0.439098
  7   14.875442 0.000000 0.000000 -0.085032 -0.010224 0.133080
  8   2.255207 -0.007574 0.000003 -0.000004 -0.000001 -0.007906
  9   9.514219 -0.009357 0.000000 0.000000 0.000000 -0.279090
 10   11.751820 -0.001633 0.000000 0.000000 -0.000001 0.239386
 11   -2.133122 0.444673 2.649729 -0.325310 -1.360054 3.220007
 12   4.640941 0.000000 -0.000001 0.558547 1.142576 0.683317
 13   10.828049 0.000000 0.000000 0.000000 0.000000 -0.112737
 14   9.393337 -0.000001 0.000000 -1.569611 0.172670 0.000037
 15   1.442245 0.107454 -1.746177 1.686435 0.539209 0.325885
 16   1.063452 0.000000 0.000001 0.000000 0.000000 0.199056
 17   1.376307 -0.000001 0.000001 0.000000 0.000000 0.199049
 18   4.172846 -0.251366 -1.312744 -0.016243 0.094689 -0.105517
 19   1.215374 0.000002 0.000000 0.000000 0.000000 0.392669
 20   1.215371 -0.000002 0.000001 0.000000 0.000000 0.392669
 21   4.220534 -0.244854 -0.431465 -0.005271 0.025739 -0.104777
 22   1.350417 0.000000 0.000001 0.000000 0.000000 0.610843
 23   1.350410 -0.000001 -0.000001 0.000000 0.000000 0.610843
 24   -2.133122 0.444686 -2.649726 0.465752 1.347715 3.357107
 25   4.640942 0.000000 0.000001 -0.614130 -1.032263 0.586377
 26   10.828047 0.000000 0.000001 0.000000 0.000000 -0.220210
 27   9.393339 0.000000 0.000000 1.569611 -0.181568 0.000001
 28   1.442245 0.107455 1.746178 -1.686405 -0.539236 0.325898
 29   1.063450 -0.000001 0.000000 0.000000 0.000000 0.199056
 30   1.376307 0.000000 0.000000 0.000000 0.000000 0.199059
 31   4.172847 -0.251365 1.312745 0.016243 -0.094689 -0.105517
 32   1.215373 -0.000001 0.000000 0.000000 0.000000 0.392679
 33   1.215372 0.000000 0.000000 0.000000 0.000000 0.392679
 34   4.220534 -0.244853 0.431466 0.005271 -0.025739 -0.104777
 35   1.350416 0.000000 -0.000001 0.000000 0.000000 0.610828
 36   1.350410 0.000000 0.000001 0.000000 0.000000 0.610833
 37   2.110540 -0.000001 0.000000 0.000000 0.000000 0.021446
 38   0.891923 2.373051 -0.014527 -3.141592 -0.000001 1.413797
 39   7.228122 5.709445 3.726568 3.140796 -1.570796 0.000000
 40   2.450426 5.076128 0.001325 3.140791 -1.570796 0.000000
 41   6.312404 -4.528058 0.001311 3.229276 -1.570796 0.000000
 42   2.233309 1.152535 -7.309138 -0.729227 -1.479752 -0.770997
 43   4.262825 -0.232720 -1.392178 -0.002923 0.078442 -0.000042
time 11
  0   0.167130 -0.007176 37.370228 0.000000 0.000000 -1.570843
  1   0.973013 -0.386731 0.000000 -1.570795 -1.570451 0.000000
  2   -0.000007 0.000008 4.427393 0.111008 -3.133516 -0.032333
  3   18.465939 0.000000 0.000000 0.000000 0.000000 -0.537257
  4   14.875443 0.000000 -0.000001 -0.046385 -0.101264 -0.530566
  5   0.000006 -0.000004 -4.427393 0.103250 3.114225 0.096150
  6   18.465939 0.000000 0.000000 0.000000 0.000000 -0.473164
  7   14.875442 0.000000 0.000000 -0.101773 -0.032627 -0.095965
  8   2.255207 -0.007574 0.000003 -0.000025 -0.036506 -0.007906
  9   9.514219 -0.009357 0.000000 0.000000 0.000000 -0.278030
 10   11.751820 -0.001633 0.000000 0.000000 -0.000001 0.239386
 11   -2.133122 0.444673 2.649729 -0.309223 -1.361119 3.204274
 12   4.640941 0.000000 -0.000001 0.503974 1.123359 0.628759
 13   10.828049 0.000000 0.000000 0.000000 0.000000 -0.113409
 14   9.393337 -0.000001 0.000000 -1.569611 0.167361 0.000037
 15   1.442245 0.107454 -1.746177 1.686435 0.539209 0.325885
 16   1.063452 0.000000 0.000001 0.000000 0.000000 0.199056
 17   1.376307 -0.000001 0.000001 0.000000 0.000000 0.199049
 18   4.172846 -0.251366 -1.312744 -0.016243 0.094689 -0.105517
 19   1.215374 0.000002 0.000000 0.000000 0.000000 0.392669
 20   1.215371 -0.000002 0.000001 0.000000 0.000000 0.392669
 21   4.220534 -0.244854 -0.431465 -0.005271 0.025739 -0.104777
 22   1.350417 0.000000 0.000001 0.000000 0.000000 0.610843
 23   1.350410 -0.000001 -0.000001 0.000000 0.000000 0.610843
 24   -2.133122 0.444686 -2.649726 0.433573 1.351037 3.325736
 25   4.640942 0.000000 0.000001 -0.617577 -1.036865 0.597086
 26   10.828047 0.000000 0.000001 0.000000 0.000000 -0.220617
 27   9.393339 0.000000 0.000000 1.569611 -0.201543 0.000001
 28   1.442245 0.107455 1.746178 -1.686405 -0.539236 0.325898
 29   1.063450 -0.000001 0.000000 0.000000 0.000000 0.199056
 30   1.376307 0.000000 0.000000 0.000000 0.000000 0.199059
 31   4.172847 -0.251365 1.312745 0.016243 -0.094689 -0.105517
 32   1.215373 -0.000001 0.000000 0.000000 0.000000 0.392679
 33   1.215372 0.000000 0.000000 0.000000 0.000000 0.392679
 34   4.220534 -0.244853 0.431466 0.005271 -0.025739 -0.104777
 35   1.350416 0.000000 -0.000001 0.000000 0.000000 0.610828
 36   1.350410 0.000000 0.000001 0.000000 0.000000 0.610833
 37   2.110540 -0.000001 0.000000 -0.000620 0.036481 0.020371
 38   0.891923 2.373051 -0.014527 -3.141592 -0.000001 1.413797
 39   7.228122 5.709445 3.726568 3.140796 -1.570796 0.000000
 40   2.450426 5.076128 0.001325 3.140791 -1.570796 0.000000
 41   6.312404 -4.528058 0.001311 3.222897 -1.570796 0.000000
 42   2.233309 1.152535 -7.309138 -0.760961 -1.500809 -0.891726
 43   4.262825 -0.232720 -1.392178 -0.002923 0.078442 -0.000042
time 12
  0   0.146846 -0.007176 37.358509 0.000000 0.000000 -1.570843
  1   0.863635 -0.929716 0.000000 -1.570795 -1.570451 0.000000
  2   -0.000007 0.000008 4.427393 0.109576 -3.161147 -0.280650
  3   18.465939 0.000000 0.000000 0.000000 0.000000 -0.349006
  4   14.875443 0.000000 -0.000001 -0.064117 -0.091090 -0.784376
  5   0.000006 -0.000004 -4.427393 0.076652 3.084771 -0.258449
  6   18.465939 0.000000 0.000000 0.000000 0.000000 -0.470144
  7   14.875442 0.000000 0.000000 -0.093069 -0.021045 -0.391078
  8   2.255207 -0.007574 0.000003 -0.000067 -0.087752 -0.007906
  9   9.514219 -0.009357 0.000000 0.000000 0.000000 -0.249865
 10   11.751820 -0.001633 0.000000 0.000000 -0.000001 0.239386
 11   -2.133122 0.444673 2.649729 -0.279022 -1.362980 3.174733
 12   4.640941 0.000000 -0.000001 0.389475 1.095808 0.512562
 13   10.828049 0.000000 0.000000 0.000000 0.000000 -0.113287
 14   9.393337 -0.000001 0.000000 -1.569611 0.160515 0.000037
 15   1.442245 0.107454 -1.746177 1.686435 0.539209 0.325885
 16   1.063452 0.000000 0.000001 0.000000 0.000000 0.199056
 17   1.376307 -0.000001 0.000001 0.000000 0.000000 0.199049
 18   4.172846 -0.251366 -1.312744 -0.016243 0.094689 -0.105517
 19   1.215374 0.000002 0.000000 0.000000 0.000000 0.392669
 20   1.215371 -0.000002 0.000001 0.000000 0.000000 0.392669
 21   4.220534 -0.244854 -0.431465 -0.005271 0.025739 -0.104777
 22   1.350417 0.000000 0.000001 0.000000 0.000000 0.610843
 23   1.350410 -0.000001 -0.000001 0.000000 0.000000 0.610843
 24   -2.133122 0.444686 -2.649726 0.395337 1.354588 3.288448
 25   4.640942 0.000000 0.000001 -0.601987 -1.072641 0.592956
 26   10.828047 0.000000 0.000001 0.000000 0.000000 -0.220617
 27   9.393339 0.000000 0.000000 1.569611 -0.218558 0.000001
 28   1.442245 0.107455 1.746178 -1.686405 -0.539236 0.325898
 29   1.063450 -0.000001 0.000000 0.000000 0.000000 0.199056
 30   1.376307 0.000000 0.000000 0.000000 0.000000 0.199059
 31   4.172847 -0.251365 1.312745 0.016243 -0.094689 -0.105517
 32   1.215373 -0.000001 0.000000 0.000000 0.000000 0.392679
 33   1.215372 0.000000 0.000000 0.000000 0.000000 0.392679
 34   4.220534 -0.244853 0.431466 0.005271 -0.025739 -0.104777
 35   1.350416 0.000000 -0.000001 0.000000 0.000000 0.610828
 36   1.350410 0.000000 0.000001 0.000000 0.000000 0.610833
 37   2.110540 -0.000001 0.000000 -0.001526 0.087738 -0.007840
 38   0.891923 2.373051 -0.014527 -3.141592 -0.000001 1.413797
 39   7.228122 5.709445 3.726568 3.140796 -1.570796 0.000000
 40   2.450426 5.076128 0.001325 3.140791 -1.570796 0.000000
 41   6.312404 -4.528058 0.001311 3.217029 -1.570796 0.000000
 42   2.233309 1.152535 -7.309138 -0.830852 -1.544467 -1.104365
 43   4.262825 -0.232720 -1.392178 -0.002923 0.078442 -0.000042
time 13
  0   0.126563 -0.007176 37.354603 0.000000 0.000000 -1.570843
  1   0.707380 -1.441450 0.000000 -1.570795 -1.570451 0.000000
  2   -0.000007 0.000008 4.427393 0.105471 -3.177148 -0.428473
  3   18.465939 0.000000 0.000000 0.000000 0.000000 -0.218802
  4   14.875443 0.000000 -0.000001 -0.076156 -0.081300 -0.923705
  5   0.000006 -0.000004 -4.427393 0.050820 3.072654 -0.479127
  6   18.465939 0.000000 0.000000 0.000000 0.000000 -0.439098
  7   14.875442 0.000000 0.000000 -0.085032 -0.010224 -0.617047
  8   2.255207 -0.007574 0.000003 -0.000109 -0.135427 -0.007906
  9   9.514219 -0.009357 0.000000 0.000000 0.000000 -0.211006
 10   11.751820 -0.001633 0.000000 0.000000 -0.000001 0.239386
 11   -2.133122 0.444673 2.649729 -0.237439 -1.365190 3.134061
 12   4.640941 0.000000 -0.000001 0.273601 1.062195 0.398179
 13   10.828049 0.000000 0.000000 0.000000 0.000000 -0.112554
 14   9.393337 -0.000001 0.000000 -1.569611 0.152613 0.000037
 15   1.442245 0.107454 -1.746177 1.686435 0.539209 0.325885
 16   1.063452 0.000000 0.000001 0.000000 0.000000 0.199056
 17   1.376307 -0.000001 0.000001 0.000000 0.000000 0.199049
 18   4.172846 -0.251366 -1.312744 -0.016243 0.094689 -0.105517
 19   1.215374 0.000002 0.000000 0.000000 0.000000 0.392669
 20   1.215371 -0.000002 0.000001 0.000000 0.000000 0.392669
 21   4.220534 -0.244854 -0.431465 -0.005271 0.025739 -0.104777
 22   1.350417 0.000000 0.000001 0.000000 0.000000 0.610843
 23   1.350410 -0.000001 -0.000001 0.000000 0.000000 0.610843
 24   -2.133122 0.444686 -2.649726 0.352007 1.358119 3.246069
 25   4.640942 0.000000 0.000001 -0.573123 -1.119088 0.576788
 26   10.828047 0.000000 0.000001 0.000000 0.000000 -0.220268
 27   9.393339 0.000000 0.000000 1.569611 -0.230725 0.000001
 28   1.442245 0.107455 1.746178 -1.686405 -0.539236 0.325898
 29   1.063450 -0.000001 0.000000 0.000000 0.000000 0.199056
 30   1.376307 0.000000 0.000000 0.000000 0.000000 0.199059
 31   4.172847 -0.251365 1.312745 0.016243 -0.094689 -0.105517
 32   1.215373 -0.000001 0.000000 0.000000 0.000000 0.392679
 33   1.215372 0.000000 0.000000 0.000000 0.000000 0.392679
 34   4.220534 -0.244853 0.431466 0.005271 -0.025739 -0.104777
 35   1.350416 0.000000 -0.000001 0.000000 0.000000 0.610828
 36   1.350410 0.000000 0.000001 0.000000 0.000000 0.610833
 37   2.110540 -0.000001 0.000000 -0.002337 0.135392 -0.046802
 38   0.891923 2.373051 -0.014527 -3.141592 -0.000001 1.413797
 39   7.228122 5.709445 3.726568 3.140796 -1.570796 0.000000
 40   2.450426 5.076128 0.001325 3.140791 -1.570796 0.000000
 41   6.312404 -4.528058 0.001311 3.211671 -1.570796 0.000000
 42   2.233309 1.152535 -7.309138 -0.675155 -1.564389 -1.456594
 43   4.262825 -0.232720 -1.392178 -0.002923 0.078442 -0.000042
time 14
  0   0.106280 -0.007176 37.354603 0.000000 0.000000 -1.570843
  1   0.570657 -1.714896 0.000000 -1.570795 -1.570451 0.000000
  2   -0.000007 0.000008 4.427393 0.106616 -3.173427 -0.393761
  3   18.465939 0.000000 0.000000 0.000000 0.000000 -0.182175
  4   14.875443 0.000000 -0.000001 -0.078405 -0.079129 -0.897435
  5   0.000006 -0.000004 -4.427393 0.052637 3.074052 -0.451893
  6   18.465939 0.000000 0.000000 0.000000 0.000000 -0.377400
  7   14.875442 0.000000 0.000000 -0.083874 -0.017337 -0.735415
  8   2.255207 -0.007574 0.000003 -0.000130 -0.161206 -0.007906
  9   9.514219 -0.009357 0.000000 0.000000 0.000000 -0.177798
 10   11.751820 -0.001633 0.000000 0.000000 -0.000001 0.239386
 11   -2.133122 0.444673 2.649729 -0.187433 -1.367337 3.085078
 12   4.640941 0.000000 -0.000001 0.197661 1.035126 0.328694
 13   10.828049 0.000000 0.000000 0.000000 0.000000 -0.111334
 14   9.393337 -0.000001 0.000000 -1.569611 0.144198 0.000037
 15   1.442245 0.107454 -1.746177 1.686435 0.539209 0.325885
 16   1.063452 0.000000 0.000001 0.000000 0.000000 0.199056
 17   1.376307 -0.000001 0.000001 0.000000 0.000000 0.199049
 18   4.172846 -0.251366 -1.312744 -0.016243 0.094689 -0.105517
 19   1.215374 0.000002 0.000000 0.000000 0.000000 0.392669
 20   1.215371 -0.000002 0.000001 0.000000 0.000000 0.392669
 21   4.220534 -0.244854 -0.431465 -0.005271 0.025739 -0.104777
 22   1.350417 0.000000 0.000001 0.000000 0.000000 0.610843
 23   1.350410 -0.000001 -0.000001 0.000000 0.000000 0.610843
 24   -2.133122 0.444686 -2.649726 0.304595 1.361421 3.199700
 25   4.640942 0.000000 0.000001 -0.538908 -1.155561 0.554880
 26   10.828047 0.000000 0.000001 0.000000 0.000000 -0.219687
 27   9.393339 0.000000 0.000000 1.569611 -0.236093 0.000001
 28   1.442245 0.107455 1.746178 -1.686405 -0.539236 0.325898
 29   1.063450 -0.000001 0.000000 0.000000 0.000000 0.199056
 30   1.376307 0.000000 0.000000 0.000000 0.000000 0.199059
 31   4.172847 -0.251365 1.312745 0.016243 -0.094689 -0.105517
 32   1.215373 -0.000001 0.000000 0.000000 0.000000 0.392679
 33   1.215372 0.000000 0.000000 0.000000 0.000000 0.392679
 34   4.220534 -0.244853 0.431466 0.005271 -0.025739 -0.104777
 35   1.350416 0.000000 -0.000001 0.000000 0.000000 0.610828
 36   1.350410 0.000000 0.000001 0.000000 0.000000 0.610833
 37   2.110540 -0.000001 0.000000 -0.002814 0.161174 -0.080088
 38   0.891923 2.373051 -0.014527 -3.141592 -0.000001 1.413797
 39   7.228122 5.709445 3.726568 3.140796 -1.570796 0.000000
 40   2.450426 5.076128 0.001325 3.140791 -1.570796 0.000000
 41   6.312404 -4.528058 0.001311 3.206772 -1.570796 0.000000
 42   2.233309 1.152535 -7.309138 -0.880130 -1.562816 -1.223849
 43   4.262825 -0.232720 -1.392178 -0.002923 0.078442 -0.000042
time 15
  0   0.085997 -0.007176 37.358509 0.000000 0.000000 -1.570843
  1   0.461279 -1.621143 0.000000 -1.570795 -1.570451 0.000000
  2   -0.000007 0.000008 4.427393 0.109480 -3.161426 -0.283393
  3   18.465939 0.000000 0.000000 0.000000 0.000000 -0.186196
  4   14.875443 0.000000 -0.000001 -0.078149 -0.079363 -0.785522
  5   0.000006 -0.000004 -4.427393 0.060770 3.081322 -0.324054
  6   18.465939 0.000000 0.000000 0.000000 0.000000 -0.292007
  7   14.875442 0.000000 0.000000 -0.081277 -0.026941 -0.809099
  8   2.255207 -0.007574 0.000003 -0.000109 -0.151870 -0.007906
  9   9.514219 -0.009357 0.000000 0.000000 0.000000 -0.150478
 10   11.751820 -0.001633 0.000000 0.000000 -0.000001 0.239386
 11   -2.133122 0.444673 2.649729 -0.132266 -1.369087 3.031009
 12   4.640941 0.000000 -0.000001 0.159347 1.033129 0.301006
 13   10.828049 0.000000 0.000000 0.000000 0.000000 -0.109870
 14   9.393337 -0.000001 0.000000 -1.569611 0.135783 0.000037
 15   1.442245 0.107454 -1.746177 1.686435 0.539209 0.325885
 16   1.063452 0.000000 0.000001 0.000000 0.000000 0.199056
 17   1.376307 -0.000001 0.000001 0.000000 0.000000 0.199049
 18   4.172846 -0.251366 -1.312744 -0.016243 0.094689 -0.105517
 19   1.215374 0.000002 0.000000 0.000000 0.000000 0.392669
 20   1.215371 -0.000002 0.000001 0.000000 0.000000 0.392669
 21   4.220534 -0.244854 -0.431465 -0.005271 0.025739 -0.104777
 22   1.350417 0.000000 0.000001 0.000000 0.000000 0.610843
 23   1.350410 -0.000001 -0.000001 0.000000 0.000000 0.610843
 24   -2.133122 0.444686 -2.649726 0.245769 1.364785 3.142185
 25   4.640942 0.000000 0.000001 -0.491727 -1.175995 0.522403
 26   10.828047 0.000000 0.000001 0.000000 0.000000 -0.218409
 27   9.393339 0.000000 0.000000 1.569611 -0.231506 0.000001
 28   1.442245 0.107455 1.746178 -1.686405 -0.539236 0.325898
 29   1.063450 -0.000001 0.000000 0.000000 0.000000 0.199056
 30   1.376307 0.000000 0.000000 0.000000 0.000000 0.199059
 31   4.172847 -0.251365 1.312745 0.016243 -0.094689 -0.105517
 32   1.215373 -0.000001 0.000000 0.000000 0.000000 0.392679
 33   1.215372 0.000000 0.000000 0.000000 0.000000 0.392679
 34   4.220534 -0.244853 0.431466 0.005271 -0.025739 -0.104777
 35   1.350416 0.000000 -0.000001 0.000000 0.000000 0.610828
 36   1.350410 0.000000 0.000001 0.000000 0.000000 0.610833
 37   2.110540 -0.000001 0.000000 -0.002623 0.151844 -0.107309
 38   0.891923 2.373051 -0.014527 -3.141592 -0.000001 1.413797
 39   7.228122 5.709445 3.726568 3.140796 -1.570796 0.000000
 40   2.450426 5.076128 0.001325 3.140791 -1.570796 0.000000
 41   6.312404 -4.528058 0.001311 3.202332 -1.570796 0.000000
 42   2.233309 1.152535 -7.309138 -1.030267 -1.554428 -0.988807
 43   4.262825 -0.232720 -1.392178 -0.002923 0.078442 -0.000042
time 16
  0   0.065714 -0.007176 37.374134 0.000000 0.000000 -1.570843
  1   0.351900 -1.226600 0.000000 -1.570795 -1.570451 0.000000
  2   -0.000007 0.000008 4.427393 0.111198 -3.147192 -0.154571
  3   18.465939 0.000000 0.000000 0.000000 0.000000 -0.206593
  4   14.875443 0.000000 -0.000001 -0.076925 -0.080576 -0.651091
  5   0.000006 -0.000004 -4.427393 0.069381 3.091389 -0.169636
  6   18.465939 0.000000 0.000000 0.000000 0.000000 -0.206679
  7   14.875442 0.000000 0.000000 -0.077627 -0.036202 -0.856071
  8   2.255207 -0.007574 0.000003 -0.000088 -0.114466 -0.007906
  9   9.514219 -0.009357 0.000000 0.000000 0.000000 -0.123504
 10   11.751820 -0.001633 0.000000 0.000000 -0.000001 0.239386
 11   -2.133122 0.444673 2.649729 -0.075583 -1.370232 2.975499
 12   4.640941 0.000000 -0.000001 0.137734 1.055721 0.291464
 13   10.828049 0.000000 0.000000 0.000000 0.000000 -0.108284
 14   9.393337 -0.000001 0.000000 -1.569611 0.127941 0.000037
 15   1.442245 0.107454 -1.746177 1.686435 0.539209 0.325885
 16   1.063452 0.000000 0.000001 0.000000 0.000000 0.199056
 17   1.376307 -0.000001 0.000001 0.000000 0.000000 0.199049
 18   4.172846 -0.251366 -1.312744 -0.016243 0.094689 -0.105517
 19   1.215374 0.000002 0.000000 0.000000 0.000000 0.392669
 20   1.215371 -0.000002 0.000001 0.000000 0.000000 0.392669
 21   4.220534 -0.244854 -0.431465 -0.005271 0.025739 -0.104777
 22   1.350417 0.000000 0.000001 0.000000 0.000000 0.610843
 23   1.350410 -0.000001 -0.000001 0.000000 0.000000 0.610843
 24   -2.133122 0.444686 -2.649726 0.172237 1.367879 3.070155
 25   4.640942 0.000000 0.000001 -0.428493 -1.186665 0.477677
 26   10.828047 0.000000 0.000001 0.000000 0.000000 -0.216493
 27   9.393339 0.000000 0.000000 1.569611 -0.217907 0.000001
 28   1.442245 0.107455 1.746178 -1.686405 -0.539236 0.325898
 29   1.063450 -0.000001 0.000000 0.000000 0.000000 0.199056
 30   1.376307 0.000000 0.000000 0.000000 0.000000 0.199059
 31   4.172847 -0.251365 1.312745 0.016243 -0.094689 -0.105517
 32   1.215373 -0.000001 0.000000 0.000000 0.000000 0.392679
 33   1.215372 0.000000 0.000000 0.000000 0.000000 0.392679
 34   4.220534 -0.244853 0.431466 0.005271 -0.025739 -0.104777
 35   1.350416 0.000000 -0.000001 0.000000 0.000000 0.610828
 36   1.350410 0.000000 0.000001 0.000000 0.000000 0.610833
 37   2.110540 -0.000001 0.000000 -0.002003 0.114442 -0.134230
 38   0.891923 2.373051 -0.014527 -3.141592 -0.000001 1.413797
 39   7.228122 5.709445 3.726568 3.140796 -1.570796 0.000000
 40   2.450426 5.076128 0.001325 3.140791 -1.570796 0.000000
 41   6.312404 -4.528058 0.001311 3.198250 -1.570796 0.000000
 42   2.233309 1.152535 -7.309138 -1.081463 -1.534798 -0.790911
 43   4.262825 -0.232720 -1.392178 -0.002923 0.078442 -0.000042
time 17
  0   0.045431 -0.007176 37.397575 0.000000 0.000000 -1.570843
  1   0.273773 -0.652364 0.000000 -1.570795 -1.570451 0.000000
  2   -0.000007 0.000008 4.427393 0.111198 -3.137051 -0.064301
  3   18.465939 0.000000 0.000000 0.000000 0.000000 -0.218802
  4   14.875443 0.000000 -0.000001 -0.076156 -0.081300 -0.557389
  5   0.000006 -0.000004 -4.427393 0.074356 3.099125 -0.062292
  6   18.465939 0.000000 0.000000 0.000000 0.000000 -0.144915
  7   14.875442 0.000000 0.000000 -0.074293 -0.042592 -0.894189
  8   2.255207 -0.007574 0.000003 -0.000046 -0.061051 -0.007906
  9   9.514219 -0.009357 0.000000 0.000000 0.000000 -0.104648
 10   11.751820 -0.001633 0.000000 0.000000 -0.000001 0.239386
 11   -2.133122 0.444673 2.649729 -0.021403 -1.370741 2.922324
 12   4.640941 0.000000 -0.000001 0.139945 1.092089 0.304577
 13   10.828049 0.000000 0.000000 0.000000 0.000000 -0.106697
 14   9.393337 -0.000001 0.000000 -1.569611 0.121185 0.000037
 15   1.442245 0.107454 -1.746177 1.686435 0.539209 0.325885
 16   1.063452 0.000000 0.000001 0.000000 0.000000 0.199056
 17   1.376307 -0.000001 0.000001 0.000000 0.000000 0.199049
 18   4.172846 -0.251366 -1.312744 -0.016243 0.094689 -0.105517
 19   1.215374 0.000002 0.000000 0.000000 0.000000 0.392669
 20   1.215371 -0.000002 0.000001 0.000000 0.000000 0.392669
 21   4.220534 -0.244854 -0.431465 -0.005271 0.025739 -0.104777
 22   1.350417 0.000000 0.000001 0.000000 0.000000 0.610843
 23   1.350410 -0.000001 -0.000001 0.000000 0.000000 0.610843
 24   -2.133122 0.444686 -2.649726 0.092427 1.369977 2.992001
 25   4.640942 0.000000 0.000001 -0.373543 -1.186247 0.443240
 26   10.828047 0.000000 0.000001 0.000000 0.000000 -0.214228
 27   9.393339 0.000000 0.000000 1.569611 -0.199461 0.000001
 28   1.442245 0.107455 1.746178 -1.686405 -0.539236 0.325898
 29   1.063450 -0.000001 0.000000 0.000000 0.000000 0.199056
 30   1.376307 0.000000 0.000000 0.000000 0.000000 0.199059
 31   4.172847 -0.251365 1.312745 0.016243 -0.094689 -0.105517
 32   1.215373 -0.000001 0.000000 0.000000 0.000000 0.392679
 33   1.215372 0.000000 0.000000 0.000000 0.000000 0.392679
 34   4.220534 -0.244853 0.431466 0.005271 -0.025739 -0.104777
 35   1.350416 0.000000 -0.000001 0.000000 0.000000 0.610828
 36   1.350410 0.000000 0.000001 0.000000 0.000000 0.610833
 37   2.110540 -0.000001 0.000000 -0.001049 0.061034 -0.152980
 38   0.891923 2.373051 -0.014527 -3.141592 -0.000001 1.413797
 39   7.228122 5.709445 3.726568 3.140796 -1.570796 0.000000
 40   2.450426 5.076128 0.001325 3.140791 -1.570796 0.000000
 41   6.312404 -4.528058 0.001311 3.194525 -1.570796 0.000000
 42   2.233309 1.152535 -7.309138 -1.078107 -1.524138 -0.721691
 43   4.262825 -0.232720 -1.392178 -0.002923 0.078442 -0.000042
time 18
  0   0.025147 -0.007176 37.432732 0.000000 0.000000 -1.570843
  1   0.254241 0.300790 0.000000 -1.570795 -1.570451 0.000000
  2   -0.000007 0.000008 4.427393 0.111580 -3.136121 -0.046497
  3   18.465939 0.000000 0.000000 0.000000 0.000000 -0.207105
  4   14.875443 0.000000 -0.000001 -0.077209 -0.080874 -0.551187
  5   0.000006 -0.000004 -4.427393 0.075408 3.099778 -0.037304
  6   18.465939 0.000000 0.000000 0.000000 0.000000 -0.115379
  7   14.875442 0.000000 0.000000 -0.074328 -0.043866 -0.924241
  8   2.255207 -0.007574 0.000003 0.000017 0.028091 -0.007906
  9   9.514219 -0.009357 0.000000 0.000000 0.000000 -0.099236
 10   11.751820 -0.001633 0.000000 0.000000 -0.000001 0.239386
 11   -2.133122 0.444673 2.649729 0.026479 -1.370725 2.875470
 12   4.640941 0.000000 -0.000001 0.198840 1.161036 0.372949
 13   10.828049 0.000000 0.000000 0.000000 0.000000 -0.105416
 14   9.393337 -0.000001 0.000000 -1.569611 0.116058 0.000037
 15   1.442245 0.107454 -1.746177 1.686435 0.539209 0.325885
 16   1.063452 0.000000 0.000001 0.000000 0.000000 0.199056
 17   1.376307 -0.000001 0.000001 0.000000 0.000000 0.199049
 18   4.172846 -0.251366 -1.312744 -0.016243 0.094689 -0.105517
 19   1.215374 0.000002 0.000000 0.000000 0.000000 0.392669
 20   1.215371 -0.000002 0.000001 0.000000 0.000000 0.392669
 21   4.220534 -0.244854 -0.431465 -0.005271 0.025739 -0.104777
 22   1.350417 0.000000 0.000001 0.000000 0.000000 0.610843
 23   1.350410 -0.000001 -0.000001 0.000000 0.000000 0.610843
 24   -2.133122 0.444686 -2.649726 0.015997 1.370766 2.917081
 25   4.640942 0.000000 0.000001 -0.314785 -1.146984 0.404253
 26   10.828047 0.000000 0.000001 0.000000 0.000000 -0.211904
 27   9.393339 0.000000 0.000000 1.569611 -0.180266 0.000001
 28   1.442245 0.107455 1.746178 -1.686405 -0.539236 0.325898
 29   1.063450 -0.000001 0.000000 0.000000 0.000000 0.199056
 30   1.376307 0.000000 0.000000 0.000000 0.000000 0.199059
 31   4.172847 -0.251365 1.312745 0.016243 -0.094689 -0.105517
 32   1.215373 -0.000001 0.000000 0.000000 0.000000 0.392679
 33   1.215372 0.000000 0.000000 0.000000 0.000000 0.392679
 34   4.220534 -0.244853 0.431466 0.005271 -0.025739 -0.104777
 35   1.350416 0.000000 -0.000001 0.000000 0.000000 0.610828
 36   1.350410 0.000000 0.000001 0.000000 0.000000 0.610833
 37   2.110540 -0.000001 0.000000 0.000477 -0.028073 -0.158356
 38   0.891923 2.373051 -0.014527 -3.141592 -0.000001 1.413797
 39   7.228122 5.709445 3.726568 3.140796 -1.570796 0.000000
 40   2.450426 5.076128 0.001325 3.140791 -1.570796 0.000000
 41   6.312404 -4.528058 0.001311 3.191055 -1.570796 0.000000
 42   2.233309 1.152535 -7.309138 -0.995369 -1.531536 -0.765349
 43   4.262825 -0.232720 -1.392178 -0.002923 0.078442 -0.000042
time 19
  0   0.004864 -0.007176 37.475700 0.000000 0.000000 -1.570843
  1   0.262054 1.425825 0.000000 -1.570795 -1.570451 0.000000
  2   -0.000007 0.000008 4.427393 0.112153 -3.139005 -0.063354
  3   18.465939 0.000000 0.000000 0.000000 0.000000 -0.195407
  4   14.875443 0.000000 -0.000001 -0.078263 -0.080470 -0.579867
  5   0.000006 -0.000004 -4.427393 0.074834 3.097354 -0.051997
  6   18.465939 0.000000 0.000000 0.000000 0.000000 -0.113804
  7   14.875442 0.000000 0.000000 -0.075977 -0.042326 -0.927880
  8   2.255207 -0.007574 0.000003 0.000101 0.133244 -0.007906
  9   9.514219 -0.009357 0.000000 0.000000 0.000000 -0.101942
 10   11.751820 -0.001633 0.000000 0.000000 -0.000001 0.239386
 11   -2.133122 0.444673 2.649729 0.064192 -1.370391 2.838508
 12   4.640941 0.000000 -0.000001 0.323015 1.244310 0.505069
 13   10.828049 0.000000 0.000000 0.000000 0.000000 -0.104501
 14   9.393337 -0.000001 0.000000 -1.569611 0.113042 0.000037
 15   1.442245 0.107454 -1.746177 1.686435 0.539209 0.325885
 16   1.063452 0.000000 0.000001 0.000000 0.000000 0.199056
 17   1.376307 -0.000001 0.000001 0.000000 0.000000 0.199049
 18   4.172846 -0.251366 -1.312744 -0.016243 0.094689 -0.105517
 19   1.215374 0.000002 0.000000 0.000000 0.000000 0.392669
 20   1.215371 -0.000002 0.000001 0.000000 0.000000 0.392669
 21   4.220534 -0.244854 -0.431465 -0.005271 0.025739 -0.104777
 22   1.350417 0.000000 0.000001 0.000000 0.000000 0.610843
 23   1.350410 -0.000001 -0.000001 0.000000 0.000000 0.610843
 24   -2.133122 0.444686 -2.649726 -0.047307 1.370558 2.855026
 25   4.640942 0.000000 0.000001 -0.263385 -1.080662 0.369117
 26   10.828047 0.000000 0.000001 0.000000 0.000000 -0.209988
 27   9.393339 0.000000 0.000000 1.569611 -0.164520 0.000001
 28   1.442245 0.107455 1.746178 -1.686405 -0.539236 0.325898
 29   1.063450 -0.000001 0.000000 0.000000 0.000000 0.199056
 30   1.376307 0.000000 0.000000 0.000000 0.000000 0.199059
 31   4.172847 -0.251365 1.312745 0.016243 -0.094689 -0.105517
 32   1.215373 -0.000001 0.000000 0.000000 0.000000 0.392679
 33   1.215372 0.000000 0.000000 0.000000 0.000000 0.392679
 34   4.220534 -0.244853 0.431466 0.005271 -0.025739 -0.104777
 35   1.350416 0.000000 -0.000001 0.000000 0.000000 0.610828
 36   1.350410 0.000000 0.000001 0.000000 0.000000 0.610833
 37   2.110540 -0.000001 0.000000 0.002337 -0.133213 -0.155818
 38   0.891923 2.373051 -0.014527 -3.141592 -0.000001 1.413797
 39   7.228122 5.709445 3.726568 3.140796 -1.570796 0.000000
 40   2.450426 5.076128 0.001325 3.140791 -1.570796 0.000000
 41   6.312404 -4.528058 0.001311 3.187891 -1.570796 0.000000
 42   2.233309 1.152535 -7.309138 -1.023364 -1.529206 -0.732701
 43   4.262825 -0.232720 -1.392178 -0.002923 0.078442 -0.000042
time 20
  0   -0.015419 -0.007176 37.530392 0.000000 0.000000 -1.570843
  1   0.273773 1.957091 0.000000 -1.570795 -1.570451 0.000000
  2   -0.000007 0.000008 4.427393 0.111198 -3.137051 -0.064301
  3   18.465939 0.000000 0.000000 0.000000 0.000000 -0.218802
  4   14.875443 0.000000 -0.000001 -0.076156 -0.081300 -0.557389
  5   0.000006 -0.000004 -4.427393 0.074356 3.099125 -0.062292
  6   18.465939 0.000000 0.000000 0.000000 0.000000 -0.144915
  7   14.875442 0.000000 0.000000 -0.074293 -0.042592 -0.894189
  8   2.255207 -0.007574 0.000003 0.000122 0.183160 -0.007906
  9   9.514219 -0.009357 0.000000 0.000000 0.000000 -0.104648
 10   11.751820 -0.001633 0.000000 0.000000 -0.000001 0.239386
 11   -2.133122 0.444673 2.649729 0.088019 -1.370041 2.815150
 12   4.640941 0.000000 -0.000001 0.409418 1.282055 0.596622
 13   10.828049 0.000000 0.000000 0.000000 0.000000 -0.104135
 14   9.393337 -0.000001 0.000000 -1.569611 0.112710 0.000037
 15   1.442245 0.107454 -1.746177 1.686435 0.539209 0.325885
 16   1.063452 0.000000 0.000001 0.000000 0.000000 0.199056
 17   1.376307 -0.000001 0.000001 0.000000 0.000000 0.199049
 18   4.172846 -0.251366 -1.312744 -0.016243 0.094689 -0.105517
 19   1.215374 0.000002 0.000000 0.000000 0.000000 0.392669
 20   1.215371 -0.000002 0.000001 0.000000 0.000000 0.392669
 21   4.220534 -0.244854 -0.431465 -0.005271 0.025739 -0.104777
 22   1.350417 0.000000 0.000001 0.000000 0.000000 0.610843
 23   1.350410 -0.000001 -0.000001 0.000000 0.000000 0.610843
 24   -2.133122 0.444686 -2.649726 -0.088046 1.370039 2.815124
 25   4.640942 0.000000 0.000001 -0.246561 -1.048860 0.362887
 26   10.828047 0.000000 0.000001 0.000000 0.000000 -0.208826
 27   9.393339 0.000000 0.000000 1.569611 -0.156354 0.000001
 28   1.442245 0.107455 1.746178 -1.686405 -0.539236 0.325898
 29   1.063450 -0.000001 0.000000 0.000000 0.000000 0.199056
 30   1.376307 0.000000 0.000000 0.000000 0.000000 0.199059
 31   4.172847 -0.251365 1.312745 0.016243 -0.094689 -0.105517
 32   1.215373 -0.000001 0.000000 0.000000 0.000000 0.392679
 33   1.215372 0.000000 0.000000 0.000000 0.000000 0.392679
 34   4.220534 -0.244853 0.431466 0.005271 -0.025739 -0.104777
 35   1.350416 0.000000 -0.000001 0.000000 0.000000 0.610828
 36   1.350410 0.000000 0.000001 0.000000 0.000000 0.610833
 37   2.110540 -0.000001 0.000000 0.003195 -0.183129 -0.153238
 38   0.891923 2.373051 -0.014527 -3.141592 -0.000001 1.413797
 39   7.228122 5.709445 3.726568 3.140796 -1.570796 0.000000
 40   2.450426 5.076128 0.001325 3.140791 -1.570796 0.000000
 41   6.312404 -4.528058 0.001311 3.184982 -1.570796 0.000000
 42   2.233309 1.152535 -7.309138 -1.060467 -1.525711 -0.695745
 43   4.262825 -0.232720 -1.392178 -0.002923 0.078442 -0.000042
time 21
  0   -0.015419 -0.007176 37.639771 0.000000 0.000000 -1.570843
  1   0.273773 1.855525 0.000000 -1.570795 -1.570451 0.000000
  2   -0.000007 0.000008 4.427393 0.108239 -3.127748 -0.026448
  3   18.465939 0.000000 0.000000 0.000000 0.000000 -0.279993
  4   14.875443 0.000000 -0.000001 -0.070692 -0.083279 -0.457880
  5   0.000006 -0.000004 -4.427393 0.074547 3.106582 -0.049471
  6   18.465939 0.000000 0.000000 0.000000 0.000000 -0.202347
  7   14.875442 0.000000 0.000000 -0.068572 -0.045673 -0.823731
  8   2.255207 -0.007574 0.000003 0.000122 0.173740 -0.007906
  9   9.514219 -0.009357 0.000000 0.000000 0.000000 -0.104648
 10   11.751820 -0.001633 0.000000 0.000000 -0.000001 0.239386
 11   -2.133122 0.444673 2.649729 0.100464 -1.369818 2.802921
 12   4.640941 0.000000 -0.000001 0.391784 1.274892 0.581285
 13   10.828049 0.000000 0.000000 0.000000 0.000000 -0.104135
 14   9.393337 -0.000001 0.000000 -1.569611 0.116722 0.000037
 15   1.442245 0.107454 -1.746177 1.686435 0.539209 0.325885
 16   1.063452 0.000000 0.000001 0.000000 0.000000 0.199056
 17   1.376307 -0.000001 0.000001 0.000000 0.000000 0.199049
 18   4.172846 -0.251366 -1.312744 -0.016243 0.094689 -0.105517
 19   1.215374 0.000002 0.000000 0.000000 0.000000 0.392669
 20   1.215371 -0.000002 0.000001 0.000000 0.000000 0.392669
 21   4.220534 -0.244854 -0.431465 -0.005271 0.025739 -0.104777
 22   1.350417 0.000000 0.000001 0.000000 0.000000 0.610843
 23   1.350410 -0.000001 -0.000001 0.000000 0.000000 0.610843
 24   -2.133122 0.444686 -2.649726 -0.109030 1.369644 2.794622
 25   4.640942 0.000000 0.000001 -0.254330 -1.057578 0.376046
 26   10.828047 0.000000 0.000001 0.000000 0.000000 -0.208245
 27   9.393339 0.000000 0.000000 1.569611 -0.155183 0.000001
 28   1.442245 0.107455 1.746178 -1.686405 -0.539236 0.325898
 29   1.063450 -0.000001 0.000000 0.000000 0.000000 0.199056
 30   1.376307 0.000000 0.000000 0.000000 0.000000 0.199059
 31   4.172847 -0.251365 1.312745 0.016243 -0.094689 -0.105517
 32   1.215373 -0.000001 0.000000 0.000000 0.000000 0.392679
 33   1.215372 0.000000 0.000000 0.000000 0.000000 0.392679
 34   4.220534 -0.244853 0.431466 0.005271 -0.025739 -0.104777
 35   1.350416 0.000000 -0.000001 0.000000 0.000000 0.610828
 36   1.350410 0.000000 0.000001 0.000000 0.000000 0.610833
 37   2.110540 -0.000001 0.000000 0.003052 -0.173716 -0.153195
 38   0.891923 2.373051 -0.014527 -3.141592 -0.000001 1.413797
 39   7.228122 5.709445 3.726568 3.140796 -1.570796 0.000000
 40   2.450426 5.076128 0.001325 3.140791 -1.570796 0.000000
 41   6.312404 -4.528058 0.001311 3.182176 -1.570796 0.000000
 42   2.233309 1.152535 -7.309138 -1.099774 -1.520934 -0.658502
 43   4.262825 -0.232720 -1.392178 -0.002923 0.078442 -0.000042
time 22
  0   -0.015419 -0.007176 37.827274 0.000000 0.000000 -1.570843
  1   0.273773 1.613330 0.000000 -1.570795 -1.570451 0.000000
  2   -0.000007 0.000008 4.427393 0.103848 -3.115561 0.030008
  3   18.465939 0.000000 0.000000 0.000000 0.000000 -0.355074
  4   14.875443 0.000000 -0.000001 -0.064117 -0.085812 -0.325938
  5   0.000006 -0.000004 -4.427393 0.074738 3.115996 -0.028975
  6   18.465939 0.000000 0.000000 0.000000 0.000000 -0.273038
  7   14.875442 0.000000 0.000000 -0.061658 -0.049420 -0.732113
  8   2.255207 -0.007574 0.000003 0.000101 0.150837 -0.007906
  9   9.514219 -0.009357 0.000000 0.000000 0.000000 -0.104648
 10   11.751820 -0.001633 0.000000 0.000000 -0.000001 0.239386
 11   -2.133122 0.444673 2.649729 0.107141 -1.369675 2.796395
 12   4.640941 0.000000 -0.000001 0.355042 1.256777 0.545460
 13   10.828049 0.000000 0.000000 0.000000 0.000000 -0.104135
 14   9.393337 -0.000001 0.000000 -1.569611 0.125378 0.000037
 15   1.442245 0.107454 -1.746177 1.686435 0.539209 0.325885
 16   1.063452 0.000000 0.000001 0.000000 0.000000 0.199056
 17   1.376307 -0.000001 0.000001 0.000000 0.000000 0.199049
 18   4.172846 -0.251366 -1.312744 -0.016243 0.094689 -0.105517
 19   1.215374 0.000002 0.000000 0.000000 0.000000 0.392669
 20   1.215371 -0.000002 0.000001 0.000000 0.000000 0.392669
 21   4.220534 -0.244854 -0.431465 -0.005271 0.025739 -0.104777
 22   1.350417 0.000000 0.000001 0.000000 0.000000 0.610843
 23   1.350410 -0.000001 -0.000001 0.000000 0.000000 0.610843
 24   -2.133122 0.444686 -2.649726 -0.120137 1.369395 2.783684
 25   4.640942 0.000000 0.000001 -0.267038 -1.070968 0.391235
 26   10.828047 0.000000 0.000001 0.000000 0.000000 -0.207955
 27   9.393339 0.000000 0.000000 1.569611 -0.157135 0.000001
 28   1.442245 0.107455 1.746178 -1.686405 -0.539236 0.325898
 29   1.063450 -0.000001 0.000000 0.000000 0.000000 0.199056
 30   1.376307 0.000000 0.000000 0.000000 0.000000 0.199059
 31   4.172847 -0.251365 1.312745 0.016243 -0.094689 -0.105517
 32   1.215373 -0.000001 0.000000 0.000000 0.000000 0.392679
 33   1.215372 0.000000 0.000000 0.000000 0.000000 0.392679
 34   4.220534 -0.244853 0.431466 0.005271 -0.025739 -0.104777
 35   1.350416 0.000000 -0.000001 0.000000 0.000000 0.610828
 36   1.350410 0.000000 0.000001 0.000000 0.000000 0.610833
 37   2.110540 -0.000001 0.000000 0.002623 -0.150811 -0.153152
 38   0.891923 2.373051 -0.014527 -3.141592 -0.000001 1.413797
 39   7.228122 5.709445 3.726568 3.140796 -1.570796 0.000000
 40   2.450426 5.076128 0.001325 3.140791 -1.570796 0.000000
 41   6.312404 -4.528058 0.001311 3.179573 -1.570796 0.000000
 42   2.233309 1.152535 -7.309138 -1.135822 -1.514760 -0.623749
 43   4.262825 -0.232720 -1.392178 -0.002923 0.078442 -0.000042
time 23
  0   -0.015419 -0.007176 38.069469 0.000000 0.000000 -1.570843
  1   0.273773 1.265664 0.000000 -1.570795 -1.570451 0.000000
  2   -0.000007 0.000008 4.427393 0.098120 -3.102443 0.090504
  3   18.465939 0.000000 0.000000 0.000000 0.000000 -0.438928
  4   14.875443 0.000000 -0.000001 -0.056944 -0.089111 -0.181237
  5   0.000006 -0.000004 -4.427393 0.074643 3.126529 -0.007263
  6   18.465939 0.000000 0.000000 0.000000 0.000000 -0.351999
  7   14.875442 0.000000 0.000000 -0.053972 -0.053813 -0.631228
  8   2.255207 -0.007574 0.000003 0.000080 0.118119 -0.007906
  9   9.514219 -0.009357 0.000000 0.000000 0.000000 -0.104648
 10   11.751820 -0.001633 0.000000 0.000000 -0.000001 0.239386
 11   -2.133122 0.444673 2.649729 0.109114 -1.369643 2.794540
 12   4.640941 0.000000 -0.000001 0.310195 1.230121 0.500444
 13   10.828049 0.000000 0.000000 0.000000 0.000000 -0.104135
 14   9.393337 -0.000001 0.000000 -1.569611 0.137321 0.000037
 15   1.442245 0.107454 -1.746177 1.686435 0.539209 0.325885
 16   1.063452 0.000000 0.000001 0.000000 0.000000 0.199056
 17   1.376307 -0.000001 0.000001 0.000000 0.000000 0.199049
 18   4.172846 -0.251366 -1.312744 -0.016243 0.094689 -0.105517
 19   1.215374 0.000002 0.000000 0.000000 0.000000 0.392669
 20   1.215371 -0.000002 0.000001 0.000000 0.000000 0.392669
 21   4.220534 -0.244854 -0.431465 -0.005271 0.025739 -0.104777
 22   1.350417 0.000000 0.000001 0.000000 0.000000 0.610843
 23   1.350410 -0.000001 -0.000001 0.000000 0.000000 0.610843
 24   -2.133122 0.444686 -2.649726 -0.123385 1.369312 2.780519
 25   4.640942 0.000000 0.000001 -0.283915 -1.087496 0.408313
 26   10.828047 0.000000 0.000001 0.000000 0.000000 -0.207839
 27   9.393339 0.000000 0.000000 1.569611 -0.161430 0.000001
 28   1.442245 0.107455 1.746178 -1.686405 -0.539236 0.325898
 29   1.063450 -0.000001 0.000000 0.000000 0.000000 0.199056
 30   1.376307 0.000000 0.000000 0.000000 0.000000 0.199059
 31   4.172847 -0.251365 1.312745 0.016243 -0.094689 -0.105517
 32   1.215373 -0.000001 0.000000 0.000000 0.000000 0.392679
 33   1.215372 0.000000 0.000000 0.000000 0.000000 0.392679
 34   4.220534 -0.244853 0.431466 0.005271 -0.025739 -0.104777
 35   1.350416 0.000000 -0.000001 0.000000 0.000000 0.610828
 36   1.350410 0.000000 0.000001 0.000000 0.000000 0.610833
 37   2.110540 -0.000001 0.000000 0.002051 -0.118101 -0.153066
 38   0.891923 2.373051 -0.014527 -3.141592 -0.000001 1.413797
 39   7.228122 5.709445 3.726568 3.140796 -1.570796 0.000000
 40   2.450426 5.076128 0.001325 3.140791 -1.570796 0.000000
 41   6.312404 -4.528058 0.001311 3.177073 -1.570796 0.000000
 42   2.233309 1.152535 -7.309138 -1.186731 -1.497431 -0.573485
 43   4.262825 -0.232720 -1.392178 -0.002923 0.078442 -0.000042
time 24
  0   -0.015419 -0.007176 38.346821 0.000000 0.000000 -1.570843
  1   0.273773 0.847682 0.000000 -1.570795 -1.570451 0.000000
  2   -0.000007 0.000008 4.427393 0.092106 -3.090163 0.140526
  3   18.465939 0.000000 0.000000 0.000000 0.000000 -0.526584
  4   14.875443 0.000000 -0.000001 -0.049630 -0.093176 -0.043370
  5   0.000006 -0.000004 -4.427393 0.074356 3.136968 0.008834
  6   18.465939 0.000000 0.000000 0.000000 0.000000 -0.433913
  7   14.875442 0.000000 0.000000 -0.046005 -0.058681 -0.532895
  8   2.255207 -0.007574 0.000003 0.000038 0.079265 -0.007906
  9   9.514219 -0.009357 0.000000 0.000000 0.000000 -0.104648
 10   11.751820 -0.001633 0.000000 0.000000 -0.000001 0.239386
 11   -2.133122 0.444673 2.649729 0.107521 -1.369675 2.796051
 12   4.640941 0.000000 -0.000001 0.265741 1.197679 0.454902
 13   10.828049 0.000000 0.000000 0.000000 0.000000 -0.104135
 14   9.393337 -0.000001 0.000000 -1.569611 0.151165 0.000037
 15   1.442245 0.107454 -1.746177 1.686435 0.539209 0.325885
 16   1.063452 0.000000 0.000001 0.000000 0.000000 0.199056
 17   1.376307 -0.000001 0.000001 0.000000 0.000000 0.199049
 18   4.172846 -0.251366 -1.312744 -0.016243 0.094689 -0.105517
 19   1.215374 0.000002 0.000000 0.000000 0.000000 0.392669
 20   1.215371 -0.000002 0.000001 0.000000 0.000000 0.392669
 21   4.220534 -0.244854 -0.431465 -0.005271 0.025739 -0.104777
 22   1.350417 0.000000 0.000001 0.000000 0.000000 0.610843
 23   1.350410 -0.000001 -0.000001 0.000000 0.000000 0.610843
 24   -2.133122 0.444686 -2.649726 -0.120795 1.369374 2.783065
 25   4.640942 0.000000 0.000001 -0.304083 -1.105977 0.427001
 26   10.828047 0.000000 0.000001 0.000000 0.000000 -0.207897
 27   9.393339 0.000000 0.000000 1.569611 -0.167220 0.000001
 28   1.442245 0.107455 1.746178 -1.686405 -0.539236 0.325898
 29   1.063450 -0.000001 0.000000 0.000000 0.000000 0.199056
 30   1.376307 0.000000 0.000000 0.000000 0.000000 0.199059
 31   4.172847 -0.251365 1.312745 0.016243 -0.094689 -0.105517
 32   1.215373 -0.000001 0.000000 0.000000 0.000000 0.392679
 33   1.215372 0.000000 0.000000 0.000000 0.000000 0.392679
 34   4.220534 -0.244853 0.431466 0.005271 -0.025739 -0.104777
 35   1.350416 0.000000 -0.000001 0.000000 0.000000 0.610828
 36   1.350410 0.000000 0.000001 0.000000 0.000000 0.610833
 37   2.110540 -0.000001 0.000000 0.001383 -0.079246 -0.152980
 38   0.891923 2.373051 -0.014527 -3.141592 -0.000001 1.413797
 39   7.228122 5.709445 3.726568 3.140796 -1.570796 0.000000
 40   2.450426 5.076128 0.001325 3.140791 -1.570796 0.000000
 41   6.312404 -4.528058 0.001311 3.174623 -1.570796 0.000000
 42   2.233309 1.152535 -7.309138 -1.216739 -1.481295 -0.544380
 43   4.262825 -0.232720 -1.392178 -0.002923 0.078442 -0.000042
time 25
  0   -0.015419 -0.007176 38.624172 0.000000 0.000000 -1.570843
  1   0.273773 0.406262 0.000000 -1.570795 -1.570451 0.000000
  2   -0.000007 0.000008 4.427393 0.087047 -3.080302 0.165512
  3   18.465939 0.000000 0.000000 0.000000 0.000000 -0.612850
  4   14.875443 0.000000 -0.000001 -0.042486 -0.097710 0.067990
  5   0.000006 -0.000004 -4.427393 0.074069 3.146662 0.012765
  6   18.465939 0.000000 0.000000 0.000000 0.000000 -0.513661
  7   14.875442 0.000000 0.000000 -0.038073 -0.063778 -0.448968
  8   2.255207 -0.007574 0.000003 0.000017 0.037954 -0.007906
  9   9.514219 -0.009357 0.000000 0.000000 0.000000 -0.104648
 10   11.751820 -0.001633 0.000000 0.000000 -0.000001 0.239386
 11   -2.133122 0.444673 2.649729 0.103651 -1.369755 2.799830
 12   4.640941 0.000000 -0.000001 0.226494 1.162413 0.414043
 13   10.828049 0.000000 0.000000 0.000000 0.000000 -0.104135
 14   9.393337 -0.000001 0.000000 -1.569611 0.165491 0.000037
 15   1.442245 0.107454 -1.746177 1.686435 0.539209 0.325885
 16   1.063452 0.000000 0.000001 0.000000 0.000000 0.199056
 17   1.376307 -0.000001 0.000001 0.000000 0.000000 0.199049
 18   4.172846 -0.251366 -1.312744 -0.016243 0.094689 -0.105517
 19   1.215374 0.000002 0.000000 0.000000 0.000000 0.392669
 20   1.215371 -0.000002 0.000001 0.000000 0.000000 0.392669
 21   4.220534 -0.244854 -0.431465 -0.005271 0.025739 -0.104777
 22   1.350417 0.000000 0.000001 0.000000 0.000000 0.610843
 23   1.350410 -0.000001 -0.000001 0.000000 0.000000 0.610843
 24   -2.133122 0.444686 -2.649726 -0.114254 1.369520 2.789463
 25   4.640942 0.000000 0.000001 -0.326516 -1.124946 0.446810
 26   10.828047 0.000000 0.000001 0.000000 0.000000 -0.208129
 27   9.393339 0.000000 0.000000 1.569611 -0.173760 0.000001
 28   1.442245 0.107455 1.746178 -1.686405 -0.539236 0.325898
 29   1.063450 -0.000001 0.000000 0.000000 0.000000 0.199056
 30   1.376307 0.000000 0.000000 0.000000 0.000000 0.199059
 31   4.172847 -0.251365 1.312745 0.016243 -0.094689 -0.105517
 32   1.215373 -0.000001 0.000000 0.000000 0.000000 0.392679
 33   1.215372 0.000000 0.000000 0.000000 0.000000 0.392679
 34   4.220534 -0.244853 0.431466 0.005271 -0.025739 -0.104777
 35   1.350416 0.000000 -0.000001 0.000000 0.000000 0.610828
 36   1.350410 0.000000 0.000001 0.000000 0.000000 0.610833
 37   2.110540 -0.000001 0.000000 0.000620 -0.037933 -0.152937
 38   0.891923 2.373051 -0.014527 -3.141592 -0.000001 1.413797
 39   7.228122 5.709445 3.726568 3.140796 -1.570796 0.000000
 40   2.450426 5.076128 0.001325 3.140791 -1.570796 0.000000
 41   6.312404 -4.528058 0.001311 3.172225 -1.570796 0.000000
 42   2.233309 1.152535 -7.309138 -1.182129 -1.482955 -0.545816
 43   4.262825 -0.232720 -1.392178 -0.002923 0.078442 -0.000042
time 26
  0   0.004864 -0.007176 38.885902 0.000000 0.000000 -1.570843
  1   0.277679 -0.019532 0.000000 -1.570795 -1.570451 0.000000
  2   -0.000007 0.000008 4.427393 0.084660 -3.074068 0.150850
  3   18.465939 0.000000 0.000000 0.000000 0.000000 -0.692757
  4   14.875443 0.000000 -0.000001 -0.035683 -0.102243 0.133171
  5   0.000006 -0.000004 -4.427393 0.073973 3.154677 -0.002209
  6   18.465939 0.000000 0.000000 0.000000 0.000000 -0.586058
  7   14.875442 0.000000 0.000000 -0.030422 -0.068703 -0.391378
  8   2.255207 -0.007574 0.000003 -0.000004 -0.002146 -0.007906
  9   9.514219 -0.009357 0.000000 0.000000 0.000000 -0.104648
 10   11.751820 -0.001633 0.000000 0.000000 -0.000001 0.239386
 11   -2.133122 0.444673 2.649729 0.098567 -1.369850 2.804845
 12   4.640941 0.000000 -0.000001 0.194468 1.127630 0.380149
 13   10.828049 0.000000 0.000000 0.000000 0.000000 -0.104135
 14   9.393337 -0.000001 0.000000 -1.569611 0.178943 0.000037
 15   1.442245 0.107454 -1.746177 1.686435 0.539209 0.325885
 16   1.063452 0.000000 0.000001 0.000000 0.000000 0.199056
 17   1.376307 -0.000001 0.000001 0.000000 0.000000 0.199049
 18   4.172846 -0.251366 -1.312744 -0.016243 0.094689 -0.105517
 19   1.215374 0.000002 0.000000 0.000000 0.000000 0.392669
 20   1.215371 -0.000002 0.000001 0.000000 0.000000 0.392669
 21   4.220534 -0.244854 -0.431465 -0.005271 0.025739 -0.104777
 22   1.350417 0.000000 0.000001 0.000000 0.000000 0.610843
 23   1.350410 -0.000001 -0.000001 0.000000 0.000000 0.610843
 24   -2.133122 0.444686 -2.649726 -0.105738 1.369707 2.797787
 25   4.640942 0.000000 0.000001 -0.349772 -1.143148 0.466898
 26   10.828047 0.000000 0.000001 0.000000 0.000000 -0.208361
 27   9.393339 0.000000 0.000000 1.569611 -0.180234 0.000001
 28   1.442245 0.107455 1.746178 -1.686405 -0.539236 0.325898
 29   1.063450 -0.000001 0.000000 0.000000 0.000000 0.199056
 30   1.376307 0.000000 0.000000 0.000000 0.000000 0.199059
 31   4.172847 -0.251365 1.312745 0.016243 -0.094689 -0.105517
 32   1.215373 -0.000001 0.000000 0.000000 0.000000 0.392679
 33   1.215372 0.000000 0.000000 0.000000 0.000000 0.392679
 34   4.220534 -0.244853 0.431466 0.005271 -0.025739 -0.104777
 35   1.350416 0.000000 -0.000001 0.000000 0.000000 0.610828
 36   1.350410 0.000000 0.000001 0.000000 0.000000 0.610833
 37   2.110540 -0.000001 0.000000 0.000000 0.002151 -0.152937
 38   0.891923 2.373051 -0.014527 -3.141592 -0.000001 1.413797
 39   7.228122 5.709445 3.726568 3.140796 -1.570796 0.000000
 40   2.450426 5.076128 0.001325 3.140791 -1.570796 0.000000
 41   6.312404 -4.528058 0.001311 3.169775 -1.570796 0.000000
 42   2.233309 1.152535 -7.309138 -1.201591 -1.487499 -0.542274
 43   4.262825 -0.232720 -1.392178 -0.002923 0.078442 -0.000042
time 27
  0   0.004864 -0.007176 39.104656 0.000000 0.000000 -1.570843
  1   0.273773 -0.398450 0.000000 -1.570795 -1.570451 0.000000
  2   -0.000007 0.000008 4.427393 0.090865 -3.079278 -0.006499
  3   18.465939 0.000000 0.000000 0.000000 0.000000 -0.796862
  4   14.875443 0.000000 -0.000001 -0.027316 -0.106819 0.079565
  5   0.000006 -0.000004 -4.427393 0.075121 3.158219 -0.095422
  6   18.465939 0.000000 0.000000 0.000000 0.000000 -0.681953
  7   14.875442 0.000000 0.000000 -0.021297 -0.073971 -0.388902
  8   2.255207 -0.007574 0.000003 -0.000025 -0.037369 -0.007906
  9   9.514219 -0.009357 0.000000 0.000000 0.000000 -0.104648
 10   11.751820 -0.001633 0.000000 0.000000 -0.000001 0.239386
 11   -2.133122 0.444673 2.649729 0.093483 -1.369946 2.809791
 12   4.640941 0.000000 -0.000001 0.170252 1.096635 0.354158
 13   10.828049 0.000000 0.000000 0.000000 0.000000 -0.104135
 14   9.393337 -0.000001 0.000000 -1.569611 0.190102 0.000037
 15   1.442245 0.107454 -1.746177 1.686435 0.539209 0.325885
 16   1.063452 0.000000 0.000001 0.000000 0.000000 0.199056
 17   1.376307 -0.000001 0.000001 0.000000 0.000000 0.199049
 18   4.172846 -0.251366 -1.312744 -0.016243 0.094689 -0.105517
 19   1.215374 0.000002 0.000000 0.000000 0.000000 0.392669
 20   1.215371 -0.000002 0.000001 0.000000 0.000000 0.392669
 21   4.220534 -0.244854 -0.431465 -0.005271 0.025739 -0.104777
 22   1.350417 0.000000 0.000001 0.000000 0.000000 0.610843
 23   1.350410 -0.000001 -0.000001 0.000000 0.000000 0.610843
 24   -2.133122 0.444686 -2.649726 -0.097221 1.369873 2.806180
 25   4.640942 0.000000 0.000001 -0.371897 -1.159397 0.486076
 26   10.828047 0.000000 0.000001 0.000000 0.000000 -0.208594
 27   9.393339 0.000000 0.000000 1.569611 -0.185829 0.000001
 28   1.442245 0.107455 1.746178 -1.686405 -0.539236 0.325898
 29   1.063450 -0.000001 0.000000 0.000000 0.000000 0.199056
 30   1.376307 0.000000 0.000000 0.000000 0.000000 0.199059
 31   4.172847 -0.251365 1.312745 0.016243 -0.094689 -0.105517
 32   1.215373 -0.000001 0.000000 0.000000 0.000000 0.392679
 33   1.215372 0.000000 0.000000 0.000000 0.000000 0.392679
 34   4.220534 -0.244853 0.431466 0.005271 -0.025739 -0.104777
 35   1.350416 0.000000 -0.000001 0.000000 0.000000 0.610828
 36   1.350410 0.000000 0.000001 0.000000 0.000000 0.610833
 37   2.110540 -0.000001 0.000000 -0.000620 0.037347 -0.152937
 38   0.891923 2.373051 -0.014527 -3.141592 -0.000001 1.413797
 39   7.228122 5.709445 3.726568 3.140796 -1.570796 0.000000
 40   2.450426 5.076128 0.001325 3.140791 -1.570796 0.000000
 41   6.312404 -4.528058 0.001311 3.167326 -1.570796 0.000000
 42   2.233309 1.152535 -7.309138 -1.252307 -1.493004 -0.533944
 43   4.262825 -0.232720 -1.392178 -0.002923 0.078442 -0.000042
time 28
  0   0.004864 -0.007176 39.257004 0.000000 0.000000 -1.570843
  1   0.273773 -0.687521 0.000000 -1.570795 -1.570451 0.000000
  2   -0.000007 0.000008 4.427393 0.100411 -3.095280 -0.264042
  3   18.465939 0.000000 0.000000 0.000000 0.000000 -0.895776
  4   14.875443 0.000000 -0.000001 -0.017695 -0.109139 -0.080187
  5   0.000006 -0.000004 -4.427393 0.076939 3.158313 -0.237486
  6   18.465939 0.000000 0.000000 0.000000 0.000000 -0.769118
  7   14.875442 0.000000 0.000000 -0.011190 -0.078003 -0.444128
  8   2.255207 -0.007574 0.000003 -0.000046 -0.064047 -0.007906
  9   9.514219 -0.009357 0.000000 0.000000 0.000000 -0.104648
 10   11.751820 -0.001633 0.000000 0.000000 -0.000001 0.239386
 11   -2.133122 0.444673 2.649729 0.089537 -1.370025 2.813639
 12   4.640941 0.000000 -0.000001 0.153944 1.072871 0.336421
 13   10.828049 0.000000 0.000000 0.000000 0.000000 -0.104135
 14   9.393337 -0.000001 0.000000 -1.569611 0.197582 0.000037
 15   1.442245 0.107454 -1.746177 1.686435 0.539209 0.325885
 16   1.063452 0.000000 0.000001 0.000000 0.000000 0.199056
 17   1.376307 -0.000001 0.000001 0.000000 0.000000 0.199049
 18   4.172846 -0.251366 -1.312744 -0.016243 0.094689 -0.105517
 19   1.215374 0.000002 0.000000 0.000000 0.000000 0.392669
 20   1.215371 -0.000002 0.000001 0.000000 0.000000 0.392669
 21   4.220534 -0.244854 -0.431465 -0.005271 0.025739 -0.104777
 22   1.350417 0.000000 0.000001 0.000000 0.000000 0.610843
 23   1.350410 -0.000001 -0.000001 0.000000 0.000000 0.610843
 24   -2.133122 0.444686 -2.649726 -0.090636 1.369998 2.812578
 25   4.640942 0.000000 0.000001 -0.390625 -1.172508 0.502664
 26   10.828047 0.000000 0.000001 0.000000 0.000000 -0.208768
 27   9.393339 0.000000 0.000000 1.569611 -0.189766 0.000001
 28   1.442245 0.107455 1.746178 -1.686405 -0.539236 0.325898
 29   1.063450 -0.000001 0.000000 0.000000 0.000000 0.199056
 30   1.376307 0.000000 0.000000 0.000000 0.000000 0.199059
 31   4.172847 -0.251365 1.312745 0.016243 -0.094689 -0.105517
 32   1.215373 -0.000001 0.000000 0.000000 0.000000 0.392679
 33   1.215372 0.000000 0.000000 0.000000 0.000000 0.392679
 34   4.220534 -0.244853 0.431466 0.005271 -0.025739 -0.104777
 35   1.350416 0.000000 -0.000001 0.000000 0.000000 0.610828
 36   1.350410 0.000000 0.000001 0.000000 0.000000 0.610833
 37   2.110540 -0.000001 0.000000 -0.001097 0.064023 -0.152980
 38   0.891923 2.373051 -0.014527 -3.141592 -0.000001 1.413797
 39   7.228122 5.709445 3.726568 3.140796 -1.570796 0.000000
 40   2.450426 5.076128 0.001325 3.140791 -1.570796 0.000000
 41   6.312404 -4.528058 0.001311 3.164724 -1.570796 0.000000
 42   2.233309 1.152535 -7.309138 -1.406279 -1.500489 -0.505796
 43   4.262825 -0.232720 -1.392178 -0.002923 0.078442 -0.000042
time 29
  0   0.004864 -0.007176 39.311695 0.000000 0.000000 -1.570843
  1   0.273773 -0.839869 0.000000 -1.570795 -1.570451 0.000000
  2   -0.000007 0.000008 4.427393 0.103752 -3.106164 -0.419146
  3   18.465939 0.000000 0.000000 0.000000 0.000000 -0.894241
  4   14.875443 0.000000 -0.000001 -0.011832 -0.109054 -0.237609
  5   0.000006 -0.000004 -4.427393 0.077704 3.159804 -0.301499
  6   18.465939 0.000000 0.000000 0.000000 0.000000 -0.748049
  7   14.875442 0.000000 0.000000 -0.005013 -0.079696 -0.529406
  8   2.255207 -0.007574 0.000003 -0.000046 -0.078500 -0.007906
  9   9.514219 -0.009357 0.000000 0.000000 0.000000 -0.104648
 10   11.751820 -0.001633 0.000000 0.000000 -0.000001 0.239386
 11   -2.133122 0.444673 2.649729 0.088019 -1.370041 2.815150
 12   4.640941 0.000000 -0.000001 0.145593 1.059716 0.327465
 13   10.828049 0.000000 0.000000 0.000000 0.000000 -0.104135
 14   9.393337 -0.000001 0.000000 -1.569611 0.199995 0.000037
 15   1.442245 0.107454 -1.746177 1.686435 0.539209 0.325885
 16   1.063452 0.000000 0.000001 0.000000 0.000000 0.199056
 17   1.376307 -0.000001 0.000001 0.000000 0.000000 0.199049
 18   4.172846 -0.251366 -1.312744 -0.016243 0.094689 -0.105517
 19   1.215374 0.000002 0.000000 0.000000 0.000000 0.392669
 20   1.215371 -0.000002 0.000001 0.000000 0.000000 0.392669
 21   4.220534 -0.244854 -0.431465 -0.005271 0.025739 -0.104777
 22   1.350417 0.000000 0.000001 0.000000 0.000000 0.610843
 23   1.350410 -0.000001 -0.000001 0.000000 0.000000 0.610843
 24   -2.133122 0.444686 -2.649726 -0.088046 1.370039 2.815124
 25   4.640942 0.000000 0.000001 -0.403179 -1.181365 0.514353
 26   10.828047 0.000000 0.000001 0.000000 0.000000 -0.208826
 27   9.393339 0.000000 0.000000 1.569611 -0.191262 0.000001
 28   1.442245 0.107455 1.746178 -1.686405 -0.539236 0.325898
 29   1.063450 -0.000001 0.000000 0.000000 0.000000 0.199056
 30   1.376307 0.000000 0.000000 0.000000 0.000000 0.199059
 31   4.172847 -0.251365 1.312745 0.016243 -0.094689 -0.105517
 32   1.215373 -0.000001 0.000000 0.000000 0.000000 0.392679
 33   1.215372 0.000000 0.000000 0.000000 0.000000 0.392679
 34   4.220534 -0.244853 0.431466 0.005271 -0.025739 -0.104777
 35   1.350416 0.000000 -0.000001 0.000000 0.000000 0.610828
 36   1.350410 0.000000 0.000001 0.000000 0.000000 0.610833
 37   2.110540 -0.000001 0.000000 -0.001335 0.078464 -0.152980
 38   0.891923 2.373051 -0.014527 -3.141592 -0.000001 1.413797
 39   7.228122 5.709445 3.726568 3.140796 -1.570796 0.000000
 40   2.450426 5.076128 0.001325 3.140791 -1.570796 0.000000
 41   6.312404 -4.528058 0.001311 3.162019 -1.570796 0.000000
 42   2.233309 1.152535 -7.309138 -1.406566 -1.489013 -0.551943
 43   4.262825 -0.232720 -1.392178 -0.002923 0.078442 -0.000042
time 30
  0   0.004864 -0.007176 39.225754 0.000000 0.000000 -1.570843
  1   0.273773 -0.687521 0.000000 -1.570795 -1.570451 0.000000
  2   -0.000007 0.000008 4.427393 0.098216 -3.091837 -0.250177
  3   18.465939 0.000000 0.000000 0.000000 0.000000 -0.572276
  4   14.875443 0.000000 -0.000001 -0.015191 -0.109118 -0.389776
  5   0.000006 -0.000004 -4.427393 0.074451 3.170896 -0.108804
  6   18.465939 0.000000 0.000000 0.000000 0.000000 -0.361581
  7   14.875442 0.000000 0.000000 -0.008803 -0.079525 -0.722659
  8   2.255207 -0.007574 0.000003 -0.000046 -0.064226 -0.007906
  9   9.514219 -0.009357 0.000000 0.000000 0.000000 -0.104648
 10   11.751820 -0.001633 0.000000 0.000000 -0.000001 0.239386
 11   -2.133122 0.444673 2.649729 0.088019 -1.370041 2.815150
 12   4.640941 0.000000 -0.000001 0.153846 1.072389 0.336012
 13   10.828049 0.000000 0.000000 0.000000 0.000000 -0.104135
 14   9.393337 -0.000001 0.000000 -1.569611 0.194687 0.000037
 15   1.442245 0.107454 -1.746177 1.686435 0.539209 0.325885
 16   1.063452 0.000000 0.000001 0.000000 0.000000 0.199056
 17   1.376307 -0.000001 0.000001 0.000000 0.000000 0.199049
 18   4.172846 -0.251366 -1.312744 -0.016243 0.094689 -0.105517
 19   1.215374 0.000002 0.000000 0.000000 0.000000 0.392669
 20   1.215371 -0.000002 0.000001 0.000000 0.000000 0.392669
 21   4.220534 -0.244854 -0.431465 -0.005271 0.025739 -0.104777
 22   1.350417 0.000000 0.000001 0.000000 0.000000 0.610843
 23   1.350410 -0.000001 -0.000001 0.000000 0.000000 0.610843
 24   -2.133122 0.444686 -2.649726 -0.088046 1.370039 2.815124
 25   4.640942 0.000000 0.000001 -0.391757 -1.174042 0.503294
 26   10.828047 0.000000 0.000001 0.000000 0.000000 -0.208826
 27   9.393339 0.000000 0.000000 1.569611 -0.189473 0.000001
 28   1.442245 0.107455 1.746178 -1.686405 -0.539236 0.325898
 29   1.063450 -0.000001 0.000000 0.000000 0.000000 0.199056
 30   1.376307 0.000000 0.000000 0.000000 0.000000 0.199059
 31   4.172847 -0.251365 1.312745 0.016243 -0.094689 -0.105517
 32   1.215373 -0.000001 0.000000 0.000000 0.000000 0.392679
 33   1.215372 0.000000 0.000000 0.000000 0.000000 0.392679
 34   4.220534 -0.244853 0.431466 0.005271 -0.025739 -0.104777
 35   1.350416 0.000000 -0.000001 0.000000 0.000000 0.610828
 36   1.350410 0.000000 0.000001 0.000000 0.000000 0.610833
 37   2.110540 -0.000001 0.000000 -0.001097 0.064218 -0.152980
 38   0.891923 2.373051 -0.014527 -3.141592 -0.000001 1.413797
 39   7.228122 5.709445 3.726568 3.140796 -1.570796 0.000000
 40   2.450426 5.076128 0.001325 3.140791 -1.570796 0.000000
 41   6.312404 -4.528058 0.001311 3.159162 -1.570796 0.000000
 42   2.233309 1.152535 -7.309138 -1.265154 -1.464374 -0.565538
 43   4.262825 -0.232720 -1.392178 -0.002923 0.078442 -0.000042
time 31
  0   0.004864 -0.007176 38.995277 0.000000 0.000000 -1.570843
  1   0.273773 -0.203131 0.000000 -1.570795 -1.570451 0.000000
  2   -0.000007 0.000008 4.427393 0.089815 -3.080673 -0.031934
  3   18.465939 0.000000 0.000000 0.000000 0.000000 -0.275533
  4   14.875443 0.000000 -0.000001 -0.024726 -0.105713 -0.467479
  5   0.000006 -0.000004 -4.427393 0.069285 3.173412 0.084078
  6   18.465939 0.000000 0.000000 0.000000 0.000000 -0.044426
  7   14.875442 0.000000 0.000000 -0.018735 -0.073990 -0.846542
  8   2.255207 -0.007574 0.000003 -0.000004 -0.019236 -0.007906
  9   9.514219 -0.009357 0.000000 0.000000 0.000000 -0.104648
 10   11.751820 -0.001633 0.000000 0.000000 -0.000001 0.239386
 11   -2.133122 0.444673 2.649729 0.088019 -1.370041 2.815150
 12   4.640941 0.000000 -0.000001 0.183072 1.112683 0.366276
 13   10.828049 0.000000 0.000000 0.000000 0.000000 -0.104135
 14   9.393337 -0.000001 0.000000 -1.569611 0.181688 0.000037
 15   1.442245 0.107454 -1.746177 1.686435 0.539209 0.325885
 16   1.063452 0.000000 0.000001 0.000000 0.000000 0.199056
 17   1.376307 -0.000001 0.000001 0.000000 0.000000 0.199049
 18   4.172846 -0.251366 -1.312744 -0.016243 0.094689 -0.105517
 19   1.215374 0.000002 0.000000 0.000000 0.000000 0.392669
 20   1.215371 -0.000002 0.000001 0.000000 0.000000 0.392669
 21   4.220534 -0.244854 -0.431465 -0.005271 0.025739 -0.104777
 22   1.350417 0.000000 0.000001 0.000000 0.000000 0.610843
 23   1.350410 -0.000001 -0.000001 0.000000 0.000000 0.610843
 24   -2.133122 0.444686 -2.649726 -0.088046 1.370039 2.815124
 25   4.640942 0.000000 0.000001 -0.355947 -1.147820 0.468158
 26   10.828047 0.000000 0.000001 0.000000 0.000000 -0.208826
 27   9.393339 0.000000 0.000000 1.569611 -0.184788 0.000001
 28   1.442245 0.107455 1.746178 -1.686405 -0.539236 0.325898
 29   1.063450 -0.000001 0.000000 0.000000 0.000000 0.199056
 30   1.376307 0.000000 0.000000 0.000000 0.000000 0.199059
 31   4.172847 -0.251365 1.312745 0.016243 -0.094689 -0.105517
 32   1.215373 -0.000001 0.000000 0.000000 0.000000 0.392679
 33   1.215372 0.000000 0.000000 0.000000 0.000000 0.392679
 34   4.220534 -0.244853 0.431466 0.005271 -0.025739 -0.104777
 35   1.350416 0.000000 -0.000001 0.000000 0.000000 0.610828
 36   1.350410 0.000000 0.000001 0.000000 0.000000 0.610833
 37   2.110540 -0.000001 0.000000 -0.000334 0.019218 -0.152937
 38   0.891923 2.373051 -0.014527 -3.141592 -0.000001 1.413797
 39   7.228122 5.709445 3.726568 3.140796 -1.570796 0.000000
 40   2.450426 5.076128 0.001325 3.140791 -1.570796 0.000000
 41   6.312404 -4.528058 0.001311 3.156049 -1.570796 0.000000
 42   2.233309 1.152535 -7.309138 -1.077340 -1.467141 -0.573772
 43   4.262825 -0.232720 -1.392178 -0.002923 0.078442 -0.000042
time 32
  0   0.004864 -0.007176 38.663239 0.000000 0.000000 -1.570843
  1   0.273773 0.410169 0.000000 -1.570795 -1.570451 0.000000
  2   -0.000007 0.000008 4.427393 0.096784 -3.100396 -0.084849
  3   18.465939 0.000000 0.000000 0.000000 0.000000 -0.513863
  4   14.875443 0.000000 -0.000001 -0.038131 -0.098093 -0.282327
  5   0.000006 -0.000004 -4.427393 0.071007 3.145916 -0.059952
  6   18.465939 0.000000 0.000000 0.000000 0.000000 -0.457608
  7   14.875442 0.000000 0.000000 -0.032458 -0.063321 -0.577953
  8   2.255207 -0.007574 0.000003 0.000017 0.038434 -0.007906
  9   9.514219 -0.009357 0.000000 0.000000 0.000000 -0.104648
 10   11.751820 -0.001633 0.000000 0.000000 -0.000001 0.239386
 11   -2.133122 0.444673 2.649729 0.088019 -1.370041 2.815150
 12   4.640941 0.000000 -0.000001 0.228754 1.163309 0.413165
 13   10.828049 0.000000 0.000000 0.000000 0.000000 -0.104135
 14   9.393337 -0.000001 0.000000 -1.569611 0.163561 0.000037
 15   1.442245 0.107454 -1.746177 1.686435 0.539209 0.325885
 16   1.063452 0.000000 0.000001 0.000000 0.000000 0.199056
 17   1.376307 -0.000001 0.000001 0.000000 0.000000 0.199049
 18   4.172846 -0.251366 -1.312744 -0.016243 0.094689 -0.105517
 19   1.215374 0.000002 0.000000 0.000000 0.000000 0.392669
 20   1.215371 -0.000002 0.000001 0.000000 0.000000 0.392669
 21   4.220534 -0.244854 -0.431465 -0.005271 0.025739 -0.104777
 22   1.350417 0.000000 0.000001 0.000000 0.000000 0.610843
 23   1.350410 -0.000001 -0.000001 0.000000 0.000000 0.610843
 24   -2.133122 0.444686 -2.649726 -0.088046 1.370039 2.815124
 25   4.640942 0.000000 0.000001 -0.317101 -1.115531 0.430361
 26   10.828047 0.000000 0.000001 0.000000 0.000000 -0.208826
 27   9.393339 0.000000 0.000000 1.569611 -0.178184 0.000001
 28   1.442245 0.107455 1.746178 -1.686405 -0.539236 0.325898
 29   1.063450 -0.000001 0.000000 0.000000 0.000000 0.199056
 30   1.376307 0.000000 0.000000 0.000000 0.000000 0.199059
 31   4.172847 -0.251365 1.312745 0.016243 -0.094689 -0.105517
 32   1.215373 -0.000001 0.000000 0.000000 0.000000 0.392679
 33   1.215372 0.000000 0.000000 0.000000 0.000000 0.392679
 34   4.220534 -0.244853 0.431466 0.005271 -0.025739 -0.104777
 35   1.350416 0.000000 -0.000001 0.000000 0.000000 0.610828
 36   1.350410 0.000000 0.000001 0.000000 0.000000 0.610833
 37   2.110540 -0.000001 0.000000 0.000668 -0.038408 -0.152937
 38   0.891923 2.373051 -0.014527 -3.141592 -0.000001 1.413797
 39   7.228122 5.709445 3.726568 3.140796 -1.570796 0.000000
 40   2.450426 5.076128 0.001325 3.140791 -1.570796 0.000000
 41   6.312404 -4.528058 0.001311 3.152732 -1.570796 0.000000
 42   2.233309 1.152535 -7.309138 -1.194209 -1.492974 -0.570517
 43   4.262825 -0.232720 -1.392178 -0.002923 0.078442 -0.000042
time 33
  0   -0.015419 -0.007176 38.284321 0.000000 0.000000 -1.570843
  1   0.273773 0.972686 0.000000 -1.570795 -1.570451 0.000000
  2   -0.000007 0.000008 4.427393 0.104612 -3.125329 -0.172426
  3   18.465939 0.000000 0.000000 0.000000 0.000000 -0.761624
  4   14.875443 0.000000 -0.000001 -0.053558 -0.091367 -0.122733
  5   0.000006 -0.000004 -4.427393 0.068902 3.114877 -0.230935
  6   18.465939 0.000000 0.000000 0.000000 0.000000 -0.868361
  7   14.875442 0.000000 0.000000 -0.049480 -0.054992 -0.339041
  8   2.255207 -0.007574 0.000003 0.000059 0.090746 -0.007906
  9   9.514219 -0.009357 0.000000 0.000000 0.000000 -0.104648
 10   11.751820 -0.001633 0.000000 0.000000 -0.000001 0.239386
 11   -2.133122 0.444673 2.649729 0.088019 -1.370041 2.815150
 12   4.640941 0.000000 -0.000001 0.280527 1.207598 0.465966
 13   10.828049 0.000000 0.000000 0.000000 0.000000 -0.104135
 14   9.393337 -0.000001 0.000000 -1.569611 0.142841 0.000037
 15   1.442245 0.107454 -1.746177 1.686435 0.539209 0.325885
 16   1.063452 0.000000 0.000001 0.000000 0.000000 0.199056
 17   1.376307 -0.000001 0.000001 0.000000 0.000000 0.199049
 18   4.172846 -0.251366 -1.312744 -0.016243 0.094689 -0.105517
 19   1.215374 0.000002 0.000000 0.000000 0.000000 0.392669
 20   1.215371 -0.000002 0.000001 0.000000 0.000000 0.392669
 21   4.220534 -0.244854 -0.431465 -0.005271 0.025739 -0.104777
 22   1.350417 0.000000 0.000001 0.000000 0.000000 0.610843
 23   1.350410 -0.000001 -0.000001 0.000000 0.000000 0.610843
 24   -2.133122 0.444686 -2.649726 -0.088046 1.370039 2.815124
 25   4.640942 0.000000 0.000001 -0.289008 -1.090704 0.403343
 26   10.828047 0.000000 0.000001 0.000000 0.000000 -0.208826
 27   9.393339 0.000000 0.000000 1.569611 -0.170571 0.000001
 28   1.442245 0.107455 1.746178 -1.686405 -0.539236 0.325898
 29   1.063450 -0.000001 0.000000 0.000000 0.000000 0.199056
 30   1.376307 0.000000 0.000000 0.000000 0.000000 0.199059
 31   4.172847 -0.251365 1.312745 0.016243 -0.094689 -0.105517
 32   1.215373 -0.000001 0.000000 0.000000 0.000000 0.392679
 33   1.215372 0.000000 0.000000 0.000000 0.000000 0.392679
 34   4.220534 -0.244853 0.431466 0.005271 -0.025739 -0.104777
 35   1.350416 0.000000 -0.000001 0.000000 0.000000 0.610828
 36   1.350410 0.000000 0.000001 0.000000 0.000000 0.610833
 37   2.110540 -0.000001 0.000000 0.001574 -0.090727 -0.153023
 38   0.891923 2.373051 -0.014527 -3.141592 -0.000001 1.413797
 39   7.228122 5.709445 3.726568 3.140796 -1.570796 0.000000
 40   2.450426 5.076128 0.001325 3.140791 -1.570796 0.000000
 41   6.312404 -4.528058 0.001311 3.149058 -1.570796 0.000000
 42   2.233309 1.152535 -7.309138 -1.463419 -1.525973 -0.449693
 43   4.262825 -0.232720 -1.392178 -0.002923 0.078442 -0.000042
time 34
  0   -0.015419 -0.007176 37.905403 0.000000 0.000000 -1.570843
  1   0.273773 1.457076 0.000000 -1.570795 -1.570451 0.000000
  2   -0.000007 0.000008 4.427393 0.108048 -3.133330 -0.133874
  3   18.465939 0.000000 0.000000 0.000000 0.000000 -0.554438
  4   14.875443 0.000000 -0.000001 -0.065455 -0.086493 -0.291333
  5   0.000006 -0.000004 -4.427393 0.070433 3.104252 -0.176842
  6   18.465939 0.000000 0.000000 0.000000 0.000000 -0.603321
  7   14.875442 0.000000 0.000000 -0.062746 -0.049267 -0.550153
  8   2.255207 -0.007574 0.000003 0.000101 0.136300 -0.007906
  9   9.514219 -0.009357 0.000000 0.000000 0.000000 -0.104648
 10   11.751820 -0.001633 0.000000 0.000000 -0.000001 0.239386
 11   -2.133122 0.444673 2.649729 0.088019 -1.370041 2.815150
 12   4.640941 0.000000 -0.000001 0.336425 1.244654 0.522747
 13   10.828049 0.000000 0.000000 0.000000 0.000000 -0.104135
 14   9.393337 -0.000001 0.000000 -1.569611 0.122150 0.000037
 15   1.442245 0.107454 -1.746177 1.686435 0.539209 0.325885
 16   1.063452 0.000000 0.000001 0.000000 0.000000 0.199056
 17   1.376307 -0.000001 0.000001 0.000000 0.000000 0.199049
 18   4.172846 -0.251366 -1.312744 -0.016243 0.094689 -0.105517
 19   1.215374 0.000002 0.000000 0.000000 0.000000 0.392669
 20   1.215371 -0.000002 0.000001 0.000000 0.000000 0.392669
 21   4.220534 -0.244854 -0.431465 -0.005271 0.025739 -0.104777
 22   1.350417 0.000000 0.000001 0.000000 0.000000 0.610843
 23   1.350410 -0.000001 -0.000001 0.000000 0.000000 0.610843
 24   -2.133122 0.444686 -2.649726 -0.088046 1.370039 2.815124
 25   4.640942 0.000000 0.000001 -0.268170 -1.071944 0.383675
 26   10.828047 0.000000 0.000001 0.000000 0.000000 -0.208826
 27   9.393339 0.000000 0.000000 1.569611 -0.162991 0.000001
 28   1.442245 0.107455 1.746178 -1.686405 -0.539236 0.325898
 29   1.063450 -0.000001 0.000000 0.000000 0.000000 0.199056
 30   1.376307 0.000000 0.000000 0.000000 0.000000 0.199059
 31   4.172847 -0.251365 1.312745 0.016243 -0.094689 -0.105517
 32   1.215373 -0.000001 0.000000 0.000000 0.000000 0.392679
 33   1.215372 0.000000 0.000000 0.000000 0.000000 0.392679
 34   4.220534 -0.244853 0.431466 0.005271 -0.025739 -0.104777
 35   1.350416 0.000000 -0.000001 0.000000 0.000000 0.610828
 36   1.350410 0.000000 0.000001 0.000000 0.000000 0.610833
 37   2.110540 -0.000001 0.000000 0.002385 -0.136286 -0.153109
 38   0.891923 2.373051 -0.014527 -3.141592 -0.000001 1.413797
 39   7.228122 5.709445 3.726568 3.140796 -1.570796 0.000000
 40   2.450426 5.076128 0.001325 3.140791 -1.570796 0.000000
 41   6.312404 -4.528058 0.001311 3.145128 -1.570796 0.000000
 42   2.233309 1.152535 -7.309138 -1.418742 -1.529235 -0.445863
 43   4.262825 -0.232720 -1.392178 -0.002923 0.078442 -0.000042
time 35
  0   -0.015419 -0.007176 37.577267 0.000000 0.000000 -1.570843
  1   0.273773 1.957091 0.000000 -1.570795 -1.570451 0.000000
  2   -0.000007 0.000008 4.427393 0.111198 -3.137051 -0.064301
  3   18.465939 0.000000 0.000000 0.000000 0.000000 -0.218802
  4   14.875443 0.000000 -0.000001 -0.076156 -0.081300 -0.557389
  5   0.000006 -0.000004 -4.427393 0.074356 3.099125 -0.062292
  6   18.465939 0.000000 0.000000 0.000000 0.000000 -0.144915
  7   14.875442 0.000000 0.000000 -0.074293 -0.042592 -0.894189
  8   2.255207 -0.007574 0.000003 0.000122 0.183160 -0.007906
  9   9.514219 -0.009357 0.000000 0.000000 0.000000 -0.104648
 10   11.751820 -0.001633 0.000000 0.000000 -0.000001 0.239386
 11   -2.133122 0.444673 2.649729 0.088019 -1.370041 2.815150
 12   4.640941 0.000000 -0.000001 0.409418 1.282055 0.596622
 13   10.828049 0.000000 0.000000 0.000000 0.000000 -0.104135
 14   9.393337 -0.000001 0.000000 -1.569611 0.103994 0.000037
 15   1.442245 0.107454 -1.746177 1.686435 0.539209 0.325885
 16   1.063452 0.000000 0.000001 0.000000 0.000000 0.199056
 17   1.376307 -0.000001 0.000001 0.000000 0.000000 0.199049
 18   4.172846 -0.251366 -1.312744 -0.016243 0.094689 -0.105517
 19   1.215374 0.000002 0.000000 0.000000 0.000000 0.392669
 20   1.215371 -0.000002 0.000001 0.000000 0.000000 0.392669
 21   4.220534 -0.244854 -0.431465 -0.005271 0.025739 -0.104777
 22   1.350417 0.000000 0.000001 0.000000 0.000000 0.610843
 23   1.350410 -0.000001 -0.000001 0.000000 0.000000 0.610843
 24   -2.133122 0.444686 -2.649726 -0.088046 1.370039 2.815124
 25   4.640942 0.000000 0.000001 -0.246561 -1.048860 0.362887
 26   10.828047 0.000000 0.000001 0.000000 0.000000 -0.208826
 27   9.393339 0.000000 0.000000 1.569611 -0.156354 0.000001
 28   1.442245 0.107455 1.746178 -1.686405 -0.539236 0.325898
 29   1.063450 -0.000001 0.000000 0.000000 0.000000 0.199056
 30   1.376307 0.000000 0.000000 0.000000 0.000000 0.199059
 31   4.172847 -0.251365 1.312745 0.016243 -0.094689 -0.105517
 32   1.215373 -0.000001 0.000000 0.000000 0.000000 0.392679
 33   1.215372 0.000000 0.000000 0.000000 0.000000 0.392679
 34   4.220534 -0.244853 0.431466 0.005271 -0.025739 -0.104777
 35   1.350416 0.000000 -0.000001 0.000000 0.000000 0.610828
 36   1.350410 0.000000 0.000001 0.000000 0.000000 0.610833
 37   2.110540 -0.000001 0.000000 0.003195 -0.183129 -0.153238
 38   0.891923 2.373051 -0.014527 -3.141592 -0.000001 1.413797
 39   7.228122 5.709445 3.726568 3.140796 -1.570796 0.000000
 40   2.450426 5.076128 0.001325 3.140791 -1.570796 0.000000
 41   6.312404 -4.528058 0.001311 3.140791 -1.570796 0.000000
 42   2.233309 1.152535 -7.309138 -1.291423 -1.527167 -0.488850
 43   4.262825 -0.232720 -1.392178 -0.002923 0.078442 -0.000042
end
