version 1
nodes
  0 "Bip01" -1
  1 "Bip01 Pelvis" 0
  2 "Bip01 L Thigh" 1
  3 "Bip01 L Calf" 2
  4 "Bip01 L Foot" 3
  5 "Bip01 R Thigh" 1
  6 "Bip01 R Calf" 5
  7 "Bip01 R Foot" 6
  8 "Bip01 Spine" 1
  9 "Bip01 Spine1" 8
 10 "Bip01 Neck" 9
 11 "Bip01 L Clavicle" 10
 12 "Bip01 L UpperArm" 11
 13 "Bip01 L Forearm" 12
 14 "Bip01 L Hand" 13
 15 "Bip01 L Finger0" 14
 16 "Bip01 L Finger01" 15
 17 "Bip01 L Finger02" 16
 18 "Bip01 L Finger1" 14
 19 "Bip01 L Finger11" 18
 20 "Bip01 L Finger12" 19
 21 "Bip01 L Finger2" 14
 22 "Bip01 L Finger21" 21
 23 "Bip01 L Finger22" 22
 24 "Bip01 R Clavicle" 10
 25 "Bip01 R UpperArm" 24
 26 "Bip01 R Forearm" 25
 27 "Bip01 R Hand" 26
 28 "Bip01 R Finger0" 27
 29 "Bip01 R Finger01" 28
 30 "Bip01 R Finger02" 29
 31 "Bip01 R Finger1" 27
 32 "Bip01 R Finger11" 31
 33 "Bip01 R Finger12" 32
 34 "Bip01 R Finger2" 27
 35 "Bip01 R Finger21" 34
 36 "Bip01 R Finger22" 35
 37 "Bip01 Head" 10
 38 "Bone05" 37
 39 "Bone08" 9
 40 "Bone16" 8
 41 "Bone01" 8
 42 "Bone03" 1
 43 "Bip01 R Finger4" 27
end
skeleton
time 0
  0   1.708652 6.792152 38.358540 0.000000 0.000000 -1.701715
  1   0.164395 -0.125004 0.000000 -1.570795 -1.570451 0.000000
  2   -0.000007 0.000008 4.427393 -0.170796 -3.152960 0.000882
  3   18.465939 0.000000 0.000000 0.000000 0.000000 -0.416557
  4   14.875443 0.000000 -0.000001 0.018451 0.017437 0.402071
  5   0.000006 -0.000004 -4.427393 0.106024 3.095677 -0.362237
  6   18.465939 0.000000 0.000000 0.000000 0.000000 -0.394334
  7   14.875442 0.000000 0.000000 -0.002065 0.005199 0.029344
  8   2.255207 -0.007574 0.000003 0.122100 -0.017403 -0.001322
  9   9.514219 -0.009357 0.000000 -0.008787 0.002361 -0.095902
 10   11.751820 -0.001633 0.000000 0.000024 0.043599 0.439975
 11   -2.117496 0.858748 2.563789 0.697276 -1.395375 2.006330
 12   4.640941 0.000000 -0.000001 0.738474 1.089884 0.724820
 13   10.828049 0.000000 0.000000 0.000000 0.000000 -0.470452
 14   9.393337 -0.000001 0.000000 -1.569611 0.034172 0.000037
 15   1.442245 0.107454 -1.746177 1.686435 0.539209 0.325885
 16   1.063452 0.000000 0.000001 0.000000 0.000000 0.199056
 17   1.376307 -0.000001 0.000001 0.000000 0.000000 0.199049
 18   4.172846 -0.251366 -1.312744 0.008050 0.095731 0.148659
 19   1.215374 0.000002 0.000000 0.000000 0.000000 0.645758
 20   1.215371 -0.000002 0.000001 0.000000 0.000000 0.645758
 21   4.220534 -0.244854 -0.431465 0.001333 0.026242 0.148339
 22   1.350417 0.000000 0.000001 0.000000 0.000000 0.863926
 23   1.350410 -0.000001 -0.000001 0.000000 0.000000 0.863926
 24   -1.887021 0.858761 -2.731760 -0.942471 1.461434 1.764317
 25   4.640942 0.000000 0.000001 -0.601473 -1.183875 0.506934
 26   10.828047 0.000000 0.000001 0.000000 0.000000 -0.234266
 27   9.393339 0.000000 0.000000 1.569611 -0.034192 0.000001
 28   1.442245 0.107455 1.746178 -1.686405 -0.539236 0.325898
 29   1.063450 -0.000001 0.000000 0.000000 0.000000 0.199056
 30   1.376307 0.000000 0.000000 0.000000 0.000000 0.199059
 31   4.172847 -0.251365 1.312745 -0.008050 -0.095731 0.148659
 32   1.215373 -0.000001 0.000000 0.000000 0.000000 0.645746
 33   1.215372 0.000000 0.000000 0.000000 0.000000 0.645746
 34   4.220534 -0.244853 0.431466 -0.001333 -0.026242 0.148339
 35   1.350416 0.000000 -0.000001 0.000000 0.000000 0.863937
 36   1.350410 0.000000 0.000001 0.000000 0.000000 0.863925
 37   2.110540 -0.000001 0.000000 0.002432 -0.010503 -0.153668
 38   0.891923 2.373051 -0.014527 -3.141592 -0.000001 1.413797
 39   7.228122 5.709445 3.726568 3.140796 -1.570796 0.000000
 40   2.450426 5.076128 0.001325 3.140791 -1.570796 0.000000
 41   6.312404 -4.528058 0.001311 3.140791 -1.570796 0.000000
 42   2.233309 1.152535 -7.309138 -1.153271 -1.553350 -0.827676
 43   4.262825 -0.232720 -1.392178 0.016840 0.076668 0.253759
time 1
  0   2.479414 6.709569 38.128063 -0.043623 -0.002237 -1.527219
  1   0.449560 -0.328135 0.000000 -0.000030 -1.635770 -1.570772
  2   -0.000007 0.000008 4.427393 -0.373366 -2.964104 -0.063005
  3   18.465939 0.000000 0.000000 0.000000 0.000000 -0.595890
  4   14.875443 0.000000 -0.000001 0.407043 -0.027685 0.496682
  5   0.000006 -0.000004 -4.427393 0.142763 3.151136 -0.299534
  6   18.465939 0.000000 0.000000 0.000000 0.000000 -0.359481
  7   14.875442 0.000000 0.000000 0.153868 0.056186 0.047315
  8   2.251301 -0.007574 -0.144533 0.165804 0.048213 -0.014325
  9   9.514219 -0.009357 0.000000 -0.009223 -0.057826 -0.122356
 10   11.751820 -0.001633 0.000000 0.113242 -0.010380 0.444055
 11   -1.972961 1.163445 2.555976 1.153023 -1.255949 1.552626
 12   4.640941 0.000000 -0.000001 0.746088 0.791985 0.823164
 13   10.828049 0.000000 0.000000 0.000000 0.000000 -0.830607
 14   9.393337 -0.000001 0.000000 -1.569611 0.034172 0.000037
 15   1.442245 0.107454 -1.746177 1.686435 0.539209 0.325885
 16   1.063452 0.000000 0.000001 0.000000 0.000000 0.199056
 17   1.376307 -0.000001 0.000001 0.000000 0.000000 0.199049
 18   4.172846 -0.251366 -1.312744 0.008050 0.095731 0.148659
 19   1.215374 0.000002 0.000000 0.000000 0.000000 0.645758
 20   1.215371 -0.000002 0.000001 0.000000 0.000000 0.645758
 21   4.220534 -0.244854 -0.431465 0.001333 0.026242 0.148339
 22   1.350417 0.000000 0.000001 0.000000 0.000000 0.863926
 23   1.350410 -0.000001 -0.000001 0.000000 0.000000 0.863926
 24   -2.027650 0.565783 -2.708322 -0.547415 1.510797 2.152883
 25   4.640942 0.000000 0.000001 -1.033922 -0.977238 1.088931
 26   10.828047 0.000000 0.000001 0.000000 0.000000 -0.733071
 27   9.393339 0.000000 0.000000 1.569611 -0.034192 0.000001
 28   1.442245 0.107455 1.746178 -1.686405 -0.539236 0.325898
 29   1.063450 -0.000001 0.000000 0.000000 0.000000 0.199056
 30   1.376307 0.000000 0.000000 0.000000 0.000000 0.199059
 31   4.172847 -0.251365 1.312745 -0.008050 -0.095731 0.148659
 32   1.215373 -0.000001 0.000000 0.000000 0.000000 0.645746
 33   1.215372 0.000000 0.000000 0.000000 0.000000 0.645746
 34   4.220534 -0.244853 0.431466 -0.001333 -0.026242 0.148339
 35   1.350416 0.000000 -0.000001 0.000000 0.000000 0.863937
 36   1.350410 0.000000 0.000001 0.000000 0.000000 0.863925
 37   2.110540 -0.000001 0.000000 0.027374 -0.023827 -0.335534
 38   0.891923 2.373051 -0.014527 -3.141592 -0.000001 1.413797
 39   7.228122 5.709445 3.726568 3.140796 -1.570796 0.000000
 40   2.450426 5.076128 0.001325 3.120955 -1.570796 0.000000
 41   6.312404 -4.528058 0.001311 3.170694 -1.570796 0.000000
 42   2.233309 1.152535 -7.309138 -1.181074 -1.518459 -0.738829
 43   4.262825 -0.232720 -1.392178 0.016840 0.076668 0.253759
time 2
  0   2.885077 6.792152 37.667114 -0.069700 0.000000 -1.422522
  1   0.355807 -0.503922 0.000000 -0.000030 -1.675450 -1.570772
  2   -0.000007 0.000008 4.427393 -0.117815 -2.940567 -0.158461
  3   18.465939 0.000000 0.000000 0.000000 0.000000 -0.744371
  4   14.875443 0.000000 -0.000001 0.275008 0.004794 0.571383
  5   0.000006 -0.000004 -4.427393 0.188018 3.181894 -0.304775
  6   18.465939 0.000000 0.000000 0.000000 0.000000 -0.414419
  7   14.875442 0.000000 0.000000 0.224727 0.077980 0.092261
  8   2.243488 -0.007574 -0.234379 0.182921 0.087367 -0.002380
  9   9.514219 -0.009357 0.000000 -0.008919 -0.102516 -0.122984
 10   11.751820 -0.001633 0.000000 0.197194 -0.049665 0.439384
 11   -1.871395 1.378295 2.524725 1.262293 -1.140601 1.449780
 12   4.640941 0.000000 -0.000001 0.716223 0.617172 0.879945
 13   10.828049 0.000000 0.000000 0.000000 0.000000 -1.084601
 14   9.393337 -0.000001 0.000000 -1.569611 0.034172 0.000037
 15   1.442245 0.107454 -1.746177 1.686435 0.539209 0.325885
 16   1.063452 0.000000 0.000001 0.000000 0.000000 0.199056
 17   1.376307 -0.000001 0.000001 0.000000 0.000000 0.199049
 18   4.172846 -0.251366 -1.312744 0.008050 0.095731 0.148659
 19   1.215374 0.000002 0.000000 0.000000 0.000000 0.645758
 20   1.215371 -0.000002 0.000001 0.000000 0.000000 0.645758
 21   4.220534 -0.244854 -0.431465 0.001333 0.026242 0.148339
 22   1.350417 0.000000 0.000001 0.000000 0.000000 0.863926
 23   1.350410 -0.000001 -0.000001 0.000000 0.000000 0.863926
 24   -2.133122 0.347027 -2.665351 0.155379 1.522987 2.855302
 25   4.640942 0.000000 0.000001 -1.159001 -0.802402 1.309761
 26   10.828047 0.000000 0.000001 0.000000 0.000000 -1.128607
 27   9.393339 0.000000 0.000000 1.569611 -0.034192 0.000001
 28   1.442245 0.107455 1.746178 -1.686405 -0.539236 0.325898
 29   1.063450 -0.000001 0.000000 0.000000 0.000000 0.199056
 30   1.376307 0.000000 0.000000 0.000000 0.000000 0.199059
 31   4.172847 -0.251365 1.312745 -0.008050 -0.095731 0.148659
 32   1.215373 -0.000001 0.000000 0.000000 0.000000 0.645746
 33   1.215372 0.000000 0.000000 0.000000 0.000000 0.645746
 34   4.220534 -0.244853 0.431466 -0.001333 -0.026242 0.148339
 35   1.350416 0.000000 -0.000001 0.000000 0.000000 0.863937
 36   1.350410 0.000000 0.000001 0.000000 0.000000 0.863925
 37   2.110540 -0.000001 0.000000 0.051315 -0.058911 -0.438658
 38   0.891923 2.373051 -0.014527 -3.141592 -0.000001 1.413797
 39   7.228122 5.709445 3.726568 3.140796 -1.570796 0.000000
 40   2.450426 5.076128 0.001325 3.101032 -1.570796 0.000000
 41   6.312404 -4.528058 0.001311 3.184421 -1.570796 0.000000
 42   2.233309 1.152535 -7.309138 -1.174938 -1.480655 -0.782773
 43   4.262825 -0.232720 -1.392178 0.016840 0.076668 0.253759
time 3
  0   2.418564 7.150012 36.604580 -0.067687 -0.000256 -1.430767
  1   -0.870793 -0.652364 0.000000 -0.000030 -1.656005 -1.570772
  2   -0.000007 0.000008 4.427393 -0.285923 -2.860186 -0.270875
  3   18.465939 0.000000 0.000000 0.000000 0.000000 -0.923776
  4   14.875443 0.000000 -0.000001 0.469773 -0.025365 0.619300
  5   0.000006 -0.000004 -4.427393 0.222748 3.148060 -0.455543
  6   18.465939 0.000000 0.000000 0.000000 0.000000 -0.631347
  7   14.875442 0.000000 0.000000 0.187174 0.046867 0.156491
  8   2.251301 -0.007574 -0.191409 0.130941 0.065255 0.083912
  9   9.514219 -0.009357 0.000000 -0.010832 -0.115543 -0.050073
 10   11.751820 -0.001633 0.000000 0.221763 -0.057347 0.423252
 11   -1.863582 1.413453 2.513006 1.199766 -1.132760 1.533596
 12   4.640941 0.000000 -0.000001 0.680168 0.814577 0.861740
 13   10.828049 0.000000 0.000000 0.000000 0.000000 -1.030423
 14   9.393337 -0.000001 0.000000 -1.569611 0.034172 0.000037
 15   1.442245 0.107454 -1.746177 1.686435 0.539209 0.325885
 16   1.063452 0.000000 0.000001 0.000000 0.000000 0.199056
 17   1.376307 -0.000001 0.000001 0.000000 0.000000 0.199049
 18   4.172846 -0.251366 -1.312744 0.008050 0.095731 0.148659
 19   1.215374 0.000002 0.000000 0.000000 0.000000 0.645758
 20   1.215371 -0.000002 0.000001 0.000000 0.000000 0.645758
 21   4.220534 -0.244854 -0.431465 0.001333 0.026242 0.148339
 22   1.350417 0.000000 0.000001 0.000000 0.000000 0.863926
 23   1.350410 -0.000001 -0.000001 0.000000 0.000000 0.863926
 24   -2.164373 0.253274 -2.649726 0.059107 1.501286 2.774465
 25   4.640942 0.000000 0.000001 -1.065256 -0.837969 1.242357
 26   10.828047 0.000000 0.000001 0.000000 0.000000 -1.340257
 27   9.393339 0.000000 0.000000 1.569611 -0.034192 0.000001
 28   1.442245 0.107455 1.746178 -1.686405 -0.539236 0.325898
 29   1.063450 -0.000001 0.000000 0.000000 0.000000 0.199056
 30   1.376307 0.000000 0.000000 0.000000 0.000000 0.199059
 31   4.172847 -0.251365 1.312745 -0.008050 -0.095731 0.148659
 32   1.215373 -0.000001 0.000000 0.000000 0.000000 0.645746
 33   1.215372 0.000000 0.000000 0.000000 0.000000 0.645746
 34   4.220534 -0.244853 0.431466 -0.001333 -0.026242 0.148339
 35   1.350416 0.000000 -0.000001 0.000000 0.000000 0.863937
 36   1.350410 0.000000 0.000001 0.000000 0.000000 0.863925
 37   2.110540 -0.000001 0.000000 0.087608 -0.127598 -0.340565
 38   0.891923 2.373051 -0.014527 -3.141592 -0.000001 1.413797
 39   7.228122 5.709445 3.726568 3.140796 -1.570796 0.000000
 40   2.450426 5.076128 0.001325 3.070050 -1.570796 0.000000
 41   6.312404 -4.528058 0.001311 3.155640 -1.570796 0.000000
 42   2.233309 1.152535 -7.309138 -1.138890 -1.527196 -0.891056
 43   4.262825 -0.232720 -1.392178 0.016840 0.076668 0.253759
time 4
  0   1.627520 7.617981 35.362354 -0.062126 -0.000895 -1.453107
  1   -2.448966 -0.628925 0.000000 -0.000030 -1.614083 -1.570772
  2   -0.000007 0.000008 4.427393 -0.137862 -2.935077 -0.416553
  3   18.465939 0.000000 0.000000 0.000000 0.000000 -1.078398
  4   14.875443 0.000000 -0.000001 0.306316 -0.016149 0.640000
  5   0.000006 -0.000004 -4.427393 0.237865 3.100990 -0.607902
  6   18.465939 0.000000 0.000000 0.000000 0.000000 -0.799508
  7   14.875442 0.000000 0.000000 0.144216 0.000388 0.174162
  8   2.255207 -0.007574 -0.097656 0.047691 0.028067 0.192009
  9   9.514219 -0.009357 0.000000 -0.013392 -0.114537 0.045830
 10   11.751820 -0.001633 0.000000 0.220241 -0.051870 0.404785
 11   -1.890927 1.370482 2.513006 1.032447 -1.163581 1.726166
 12   4.640941 0.000000 -0.000001 0.492185 1.100216 0.610671
 13   10.828049 0.000000 0.000000 0.000000 0.000000 -0.848789
 14   9.393337 -0.000001 0.000000 -1.569611 0.034172 0.000037
 15   1.442245 0.107454 -1.746177 1.686435 0.539209 0.325885
 16   1.063452 0.000000 0.000001 0.000000 0.000000 0.199056
 17   1.376307 -0.000001 0.000001 0.000000 0.000000 0.199049
 18   4.172846 -0.251366 -1.312744 0.008050 0.095731 0.148659
 19   1.215374 0.000002 0.000000 0.000000 0.000000 0.645758
 20   1.215371 -0.000002 0.000001 0.000000 0.000000 0.645758
 21   4.220534 -0.244854 -0.431465 0.001333 0.026242 0.148339
 22   1.350417 0.000000 0.000001 0.000000 0.000000 0.863926
 23   1.350410 -0.000001 -0.000001 0.000000 0.000000 0.863926
 24   -2.164373 0.218117 -2.649726 -0.155696 1.469595 2.580388
 25   4.640942 0.000000 0.000001 -0.847874 -0.930862 1.025307
 26   10.828047 0.000000 0.000001 0.000000 0.000000 -1.459963
 27   9.393339 0.000000 0.000000 1.569611 -0.034192 0.000001
 28   1.442245 0.107455 1.746178 -1.686405 -0.539236 0.325898
 29   1.063450 -0.000001 0.000000 0.000000 0.000000 0.199056
 30   1.376307 0.000000 0.000000 0.000000 0.000000 0.199059
 31   4.172847 -0.251365 1.312745 -0.008050 -0.095731 0.148659
 32   1.215373 -0.000001 0.000000 0.000000 0.000000 0.645746
 33   1.215372 0.000000 0.000000 0.000000 0.000000 0.645746
 34   4.220534 -0.244853 0.431466 -0.001333 -0.026242 0.148339
 35   1.350416 0.000000 -0.000001 0.000000 0.000000 0.863937
 36   1.350410 0.000000 0.000001 0.000000 0.000000 0.863925
 37   2.110540 -0.000001 0.000000 0.088323 -0.220979 -0.169064
 38   0.891923 2.373051 -0.014527 -3.141592 -0.000001 1.413797
 39   7.228122 5.709445 3.726568 3.140796 -1.570796 0.000000
 40   2.450426 5.076128 0.001325 2.992551 -1.570796 0.000000
 41   6.312404 -4.528058 0.001311 3.112470 -1.570796 0.000000
 42   2.233309 1.152535 -7.309138 -1.128248 -1.579504 -1.035720
 43   4.262825 -0.232720 -1.392178 0.016840 0.076668 0.253759
time 5
  0   0.937891 8.003368 34.471703 -0.053785 -0.001662 -1.486376
  1   -3.218521 -0.507828 0.000000 -0.000030 -1.579505 -1.570772
  2   -0.000007 0.000008 4.427393 -0.181870 -2.933403 -0.483033
  3   18.465939 0.000000 0.000000 0.000000 0.000000 -1.163422
  4   14.875443 0.000000 -0.000001 0.321401 -0.023939 0.648454
  5   0.000006 -0.000004 -4.427393 0.246380 3.067435 -0.703079
  6   18.465939 0.000000 0.000000 0.000000 0.000000 -0.898422
  7   14.875442 0.000000 0.000000 0.093888 -0.042554 0.182041
  8   2.255207 -0.007574 -0.019529 -0.005170 0.000622 0.244883
  9   9.514219 -0.009357 0.000000 -0.013682 -0.104314 0.095361
 10   11.751820 -0.001633 0.000000 0.201042 -0.041048 0.396625
 11   -1.929991 1.300168 2.524725 0.652429 -1.175827 2.120168
 12   4.640941 0.000000 -0.000001 -0.025099 1.027343 0.014932
 13   10.828049 0.000000 0.000000 0.000000 0.000000 -0.603581
 14   9.393337 -0.000001 0.000000 -1.569611 0.034172 0.000037
 15   1.442245 0.107454 -1.746177 1.686435 0.539209 0.325885
 16   1.063452 0.000000 0.000001 0.000000 0.000000 0.199056
 17   1.376307 -0.000001 0.000001 0.000000 0.000000 0.199049
 18   4.172846 -0.251366 -1.312744 0.008050 0.095731 0.148659
 19   1.215374 0.000002 0.000000 0.000000 0.000000 0.645758
 20   1.215371 -0.000002 0.000001 0.000000 0.000000 0.645758
 21   4.220534 -0.244854 -0.431465 0.001333 0.026242 0.148339
 22   1.350417 0.000000 0.000001 0.000000 0.000000 0.863926
 23   1.350410 -0.000001 -0.000001 0.000000 0.000000 0.863926
 24   -2.140935 0.249368 -2.665351 -0.287703 1.449701 2.459718
 25   4.640942 0.000000 0.000001 -0.659510 -0.985537 0.812246
 26   10.828047 0.000000 0.000001 0.000000 0.000000 -1.436730
 27   9.393339 0.000000 0.000000 1.569611 -0.034192 0.000001
 28   1.442245 0.107455 1.746178 -1.686405 -0.539236 0.325898
 29   1.063450 -0.000001 0.000000 0.000000 0.000000 0.199056
 30   1.376307 0.000000 0.000000 0.000000 0.000000 0.199059
 31   4.172847 -0.251365 1.312745 -0.008050 -0.095731 0.148659
 32   1.215373 -0.000001 0.000000 0.000000 0.000000 0.645746
 33   1.215372 0.000000 0.000000 0.000000 0.000000 0.645746
 34   4.220534 -0.244853 0.431466 -0.001333 -0.026242 0.148339
 35   1.350416 0.000000 -0.000001 0.000000 0.000000 0.863937
 36   1.350410 0.000000 0.000001 0.000000 0.000000 0.863925
 37   2.110540 -0.000001 0.000000 0.063142 -0.262348 -0.056521
 38   0.891923 2.373051 -0.014527 -3.141592 -0.000001 1.413797
 39   7.228122 5.709445 3.726568 3.140796 -1.570796 0.000000
 40   2.450426 5.076128 0.001325 2.940154 -1.570796 0.000000
 41   6.312404 -4.528058 0.001311 3.087210 -1.570796 0.000000
 42   2.233309 1.152535 -7.309138 -1.138027 -1.614425 -1.107812
 43   4.262825 -0.232720 -1.392178 0.016840 0.076668 0.253759
time 6
  0   0.329396 8.113479 34.393578 -0.043623 -0.002237 -1.527219
  1   -2.988045 -0.457045 0.000000 -1.570795 -1.570322 0.000000
  2   -0.000007 0.000008 4.427393 -0.128029 -2.969127 -0.476251
  3   18.465939 0.000000 0.000000 0.000000 0.000000 -1.161375
  4   14.875443 0.000000 -0.000001 0.216177 -0.040370 0.655328
  5   0.000006 -0.000004 -4.427393 0.267237 3.066036 -0.715152
  6   18.465939 0.000000 0.000000 0.000000 0.000000 -0.916801
  7   14.875442 0.000000 0.000000 0.037454 -0.077166 0.193446
  8   2.255207 -0.007574 0.000003 -0.003049 -0.009445 0.227247
  9   9.514219 -0.009357 0.000000 -0.011875 -0.088302 0.083606
 10   11.751820 -0.001633 0.000000 0.170349 -0.028105 0.400866
 11   -1.961242 1.225947 2.536444 0.647877 -1.220500 2.114259
 12   4.640941 0.000000 -0.000001 -0.190389 1.127285 -0.038221
 13   10.828049 0.000000 0.000000 0.000000 0.000000 -0.536895
 14   9.393337 -0.000001 0.000000 -1.569611 0.034172 0.000037
 15   1.442245 0.107454 -1.746177 1.686435 0.539209 0.325885
 16   1.063452 0.000000 0.000001 0.000000 0.000000 0.199056
 17   1.376307 -0.000001 0.000001 0.000000 0.000000 0.199049
 18   4.172846 -0.251366 -1.312744 0.008050 0.095731 0.148659
 19   1.215374 0.000002 0.000000 0.000000 0.000000 0.645758
 20   1.215371 -0.000002 0.000001 0.000000 0.000000 0.645758
 21   4.220534 -0.244854 -0.431465 0.001333 0.026242 0.148339
 22   1.350417 0.000000 0.000001 0.000000 0.000000 0.863926
 23   1.350410 -0.000001 -0.000001 0.000000 0.000000 0.863926
 24   -2.109684 0.331401 -2.684883 -0.387005 1.448642 2.358449
 25   4.640942 0.000000 0.000001 -0.605589 -1.018454 0.714675
 26   10.828047 0.000000 0.000001 0.000000 0.000000 -1.278574
 27   9.393339 0.000000 0.000000 1.569611 -0.034192 0.000001
 28   1.442245 0.107455 1.746178 -1.686405 -0.539236 0.325898
 29   1.063450 -0.000001 0.000000 0.000000 0.000000 0.199056
 30   1.376307 0.000000 0.000000 0.000000 0.000000 0.199059
 31   4.172847 -0.251365 1.312745 -0.008050 -0.095731 0.148659
 32   1.215373 -0.000001 0.000000 0.000000 0.000000 0.645746
 33   1.215372 0.000000 0.000000 0.000000 0.000000 0.645746
 34   4.220534 -0.244853 0.431466 -0.001333 -0.026242 0.148339
 35   1.350416 0.000000 -0.000001 0.000000 0.000000 0.863937
 36   1.350410 0.000000 0.000001 0.000000 0.000000 0.863925
 37   2.110540 -0.000001 0.000000 0.059566 -0.234917 -0.041642
 38   0.891923 2.373051 -0.014527 -3.141592 -0.000001 1.413797
 39   7.228122 5.709445 3.726568 3.140796 -1.570796 0.000000
 40   2.450426 5.076128 0.001325 2.961043 -1.570796 0.000000
 41   6.312404 -4.528058 0.001311 3.087568 -1.570796 0.000000
 42   2.233309 1.152535 -7.309138 -1.138027 -1.614134 -1.107812
 43   4.262825 -0.232720 -1.392178 0.016840 0.076668 0.253759
time 7
  0   0.065714 8.003368 34.967812 -0.032214 -0.002365 -1.572473
  1   -2.374745 -0.417982 0.000000 -1.570795 -1.570451 0.000000
  2   -0.000007 0.000008 4.427393 -0.165450 -2.969593 -0.407476
  3   18.465939 0.000000 0.000000 0.000000 0.000000 -1.085782
  4   14.875443 0.000000 -0.000001 0.198388 -0.048458 0.642765
  5   0.000006 -0.000004 -4.427393 0.267620 3.079272 -0.673787
  6   18.465939 0.000000 0.000000 0.000000 0.000000 -0.869411
  7   14.875442 0.000000 0.000000 -0.004802 -0.087607 0.191720
  8   2.255207 -0.007574 0.000003 0.020032 -0.012801 0.182050
  9   9.514219 -0.009357 0.000000 -0.009750 -0.067677 0.048601
 10   11.751820 -0.001633 0.000000 0.131040 -0.012069 0.409670
 11   -1.996399 1.140007 2.548163 0.753201 -1.248952 1.996780
 12   4.640941 0.000000 -0.000001 0.151488 1.187141 0.283328
 13   10.828049 0.000000 0.000000 0.000000 0.000000 -0.623105
 14   9.393337 -0.000001 0.000000 -1.569611 0.034172 0.000037
 15   1.442245 0.107454 -1.746177 1.686435 0.539209 0.325885
 16   1.063452 0.000000 0.000001 0.000000 0.000000 0.199056
 17   1.376307 -0.000001 0.000001 0.000000 0.000000 0.199049
 18   4.172846 -0.251366 -1.312744 0.008050 0.095731 0.148659
 19   1.215374 0.000002 0.000000 0.000000 0.000000 0.645758
 20   1.215371 -0.000002 0.000001 0.000000 0.000000 0.645758
 21   4.220534 -0.244854 -0.431465 0.001333 0.026242 0.148339
 22   1.350417 0.000000 0.000001 0.000000 0.000000 0.863926
 23   1.350410 -0.000001 -0.000001 0.000000 0.000000 0.863926
 24   -2.062807 0.448592 -2.704415 -0.505666 1.452795 2.232550
 25   4.640942 0.000000 0.000001 -0.593447 -1.055834 0.648671
 26   10.828047 0.000000 0.000001 0.000000 0.000000 -1.048396
 27   9.393339 0.000000 0.000000 1.569611 -0.034192 0.000001
 28   1.442245 0.107455 1.746178 -1.686405 -0.539236 0.325898
 29   1.063450 -0.000001 0.000000 0.000000 0.000000 0.199056
 30   1.376307 0.000000 0.000000 0.000000 0.000000 0.199059
 31   4.172847 -0.251365 1.312745 -0.008050 -0.095731 0.148659
 32   1.215373 -0.000001 0.000000 0.000000 0.000000 0.645746
 33   1.215372 0.000000 0.000000 0.000000 0.000000 0.645746
 34   4.220534 -0.244853 0.431466 -0.001333 -0.026242 0.148339
 35   1.350416 0.000000 -0.000001 0.000000 0.000000 0.863937
 36   1.350410 0.000000 0.000001 0.000000 0.000000 0.863925
 37   2.110540 -0.000001 0.000000 0.059422 -0.181146 -0.057080
 38   0.891923 2.373051 -0.014527 -3.141592 -0.000001 1.413797
 39   7.228122 5.709445 3.726568 3.140796 -1.570796 0.000000
 40   2.450426 5.076128 0.001325 2.998783 -1.570796 0.000000
 41   6.312404 -4.528058 0.001311 3.097008 -1.570796 0.000000
 42   2.233309 1.152535 -7.309138 -1.125947 -1.601028 -1.082824
 43   4.262825 -0.232720 -1.392178 0.016840 0.076668 0.253759
time 8
  0   0.451095 7.673037 35.940498 -0.020613 -0.001981 -1.618781
  1   -1.527063 -0.355480 0.000000 -1.570795 -1.569962 0.000000
  2   -0.000007 0.000008 4.427393 -0.141298 -3.034157 -0.304389
  3   18.465939 0.000000 0.000000 0.000000 0.000000 -0.945928
  4   14.875443 0.000000 -0.000001 0.098572 -0.031431 0.613533
  5   0.000006 -0.000004 -4.427393 0.206579 3.094651 -0.601819
  6   18.465939 0.000000 0.000000 0.000000 0.000000 -0.777323
  7   14.875442 0.000000 0.000000 -0.000450 -0.059214 0.172474
  8   2.255207 -0.007574 0.000003 0.053844 -0.017187 0.121003
  9   9.514219 -0.009357 0.000000 -0.008299 -0.044343 0.000368
 10   11.751820 -0.001633 0.000000 0.087068 0.006039 0.420568
 11   -2.035463 1.046254 2.559883 0.846080 -1.280266 1.888232
 12   4.640941 0.000000 -0.000001 0.591605 1.172470 0.667277
 13   10.828049 0.000000 0.000000 0.000000 0.000000 -0.687046
 14   9.393337 -0.000001 0.000000 -1.569611 0.034172 0.000037
 15   1.442245 0.107454 -1.746177 1.686435 0.539209 0.325885
 16   1.063452 0.000000 0.000001 0.000000 0.000000 0.199056
 17   1.376307 -0.000001 0.000001 0.000000 0.000000 0.199049
 18   4.172846 -0.251366 -1.312744 0.008050 0.095731 0.148659
 19   1.215374 0.000002 0.000000 0.000000 0.000000 0.645758
 20   1.215371 -0.000002 0.000001 0.000000 0.000000 0.645758
 21   4.220534 -0.244854 -0.431465 0.001333 0.026242 0.148339
 22   1.350417 0.000000 0.000001 0.000000 0.000000 0.863926
 23   1.350410 -0.000001 -0.000001 0.000000 0.000000 0.863926
 24   -2.004212 0.585315 -2.720041 -0.646366 1.458361 2.081541
 25   4.640942 0.000000 0.000001 -0.603531 -1.097887 0.603595
 26   10.828047 0.000000 0.000001 0.000000 0.000000 -0.776981
 27   9.393339 0.000000 0.000000 1.569611 -0.034192 0.000001
 28   1.442245 0.107455 1.746178 -1.686405 -0.539236 0.325898
 29   1.063450 -0.000001 0.000000 0.000000 0.000000 0.199056
 30   1.376307 0.000000 0.000000 0.000000 0.000000 0.199059
 31   4.172847 -0.251365 1.312745 -0.008050 -0.095731 0.148659
 32   1.215373 -0.000001 0.000000 0.000000 0.000000 0.645746
 33   1.215372 0.000000 0.000000 0.000000 0.000000 0.645746
 34   4.220534 -0.244853 0.431466 -0.001333 -0.026242 0.148339
 35   1.350416 0.000000 -0.000001 0.000000 0.000000 0.863937
 36   1.350410 0.000000 0.000001 0.000000 0.000000 0.863925
 37   2.110540 -0.000001 0.000000 0.051458 -0.116593 -0.088388
 38   0.891923 2.373051 -0.014527 -3.141592 -0.000001 1.413797
 39   7.228122 5.709445 3.726568 3.140796 -1.570796 0.000000
 40   2.450426 5.076128 0.001325 3.046177 -1.570796 0.000000
 41   6.312404 -4.528058 0.001311 3.111602 -1.570796 0.000000
 42   2.233309 1.152535 -7.309138 -1.148861 -1.579213 -1.012933
 43   4.262825 -0.232720 -1.392178 0.016840 0.076668 0.253759
time 9
  0   1.079874 7.232594 37.151474 -0.009587 -0.001151 -1.662981
  1   -0.620785 -0.253914 0.000000 -1.570795 -1.570322 0.000000
  2   -0.000007 0.000008 4.427393 -0.200866 -3.076952 -0.166391
  3   18.465939 0.000000 0.000000 0.000000 0.000000 -0.732454
  4   14.875443 0.000000 -0.000001 0.095754 -0.012403 0.540412
  5   0.000006 -0.000004 -4.427393 0.145825 3.099591 -0.497376
  6   18.465939 0.000000 0.000000 0.000000 0.000000 -0.624915
  7   14.875442 0.000000 0.000000 0.003972 -0.023860 0.124376
  8   2.255207 -0.007574 0.000003 0.090681 -0.018385 0.055887
  9   9.514219 -0.009357 0.000000 -0.008022 -0.020326 -0.051090
 10   11.751820 -0.001633 0.000000 0.042198 0.025083 0.431358
 11   -2.078433 0.948595 2.563789 0.810036 -1.335753 1.907537
 12   4.640941 0.000000 -0.000001 0.726685 1.125701 0.757367
 13   10.828049 0.000000 0.000000 0.000000 0.000000 -0.601690
 14   9.393337 -0.000001 0.000000 -1.569611 0.034172 0.000037
 15   1.442245 0.107454 -1.746177 1.686435 0.539209 0.325885
 16   1.063452 0.000000 0.000001 0.000000 0.000000 0.199056
 17   1.376307 -0.000001 0.000001 0.000000 0.000000 0.199049
 18   4.172846 -0.251366 -1.312744 0.008050 0.095731 0.148659
 19   1.215374 0.000002 0.000000 0.000000 0.000000 0.645758
 20   1.215371 -0.000002 0.000001 0.000000 0.000000 0.645758
 21   4.220534 -0.244854 -0.431465 0.001333 0.026242 0.148339
 22   1.350417 0.000000 0.000001 0.000000 0.000000 0.863926
 23   1.350410 -0.000001 -0.000001 0.000000 0.000000 0.863926
 24   -1.945616 0.725945 -2.731760 -0.799840 1.461974 1.916840
 25   4.640942 0.000000 0.000001 -0.614336 -1.141613 0.563839
 26   10.828047 0.000000 0.000001 0.000000 0.000000 -0.495285
 27   9.393339 0.000000 0.000000 1.569611 -0.034192 0.000001
 28   1.442245 0.107455 1.746178 -1.686405 -0.539236 0.325898
 29   1.063450 -0.000001 0.000000 0.000000 0.000000 0.199056
 30   1.376307 0.000000 0.000000 0.000000 0.000000 0.199059
 31   4.172847 -0.251365 1.312745 -0.008050 -0.095731 0.148659
 32   1.215373 -0.000001 0.000000 0.000000 0.000000 0.645746
 33   1.215372 0.000000 0.000000 0.000000 0.000000 0.645746
 34   4.220534 -0.244853 0.431466 -0.001333 -0.026242 0.148339
 35   1.350416 0.000000 -0.000001 0.000000 0.000000 0.863937
 36   1.350410 0.000000 0.000001 0.000000 0.000000 0.863925
 37   2.110540 -0.000001 0.000000 0.030999 -0.056146 -0.124253
 38   0.891923 2.373051 -0.014527 -3.141592 -0.000001 1.413797
 39   7.228122 5.709445 3.726568 3.140796 -1.570796 0.000000
 40   2.450426 5.076128 0.001325 3.095854 -1.570796 0.000000
 41   6.312404 -4.528058 0.001311 3.127523 -1.570796 0.000000
 42   2.233309 1.152535 -7.309138 -1.108978 -1.561796 -0.992445
 43   4.262825 -0.232720 -1.392178 0.016840 0.076668 0.253759
time 10
  0   1.708652 6.792152 38.358540 0.000000 0.000000 -1.701715
  1   0.164395 -0.125004 0.000000 -1.570795 -1.570451 0.000000
  2   -0.000007 0.000008 4.427393 -0.170796 -3.152960 0.000882
  3   18.465939 0.000000 0.000000 0.000000 0.000000 -0.416557
  4   14.875443 0.000000 -0.000001 0.018451 0.017437 0.402071
  5   0.000006 -0.000004 -4.427393 0.106024 3.095677 -0.362237
  6   18.465939 0.000000 0.000000 0.000000 0.000000 -0.394334
  7   14.875442 0.000000 0.000000 -0.002065 0.005199 0.029344
  8   2.255207 -0.007574 0.000003 0.122100 -0.017403 -0.001322
  9   9.514219 -0.009357 0.000000 -0.008787 0.002361 -0.095902
 10   11.751820 -0.001633 0.000000 0.000024 0.043599 0.439975
 11   -2.117496 0.858748 2.563789 0.697276 -1.395375 2.006330
 12   4.640941 0.000000 -0.000001 0.738474 1.089884 0.724820
 13   10.828049 0.000000 0.000000 0.000000 0.000000 -0.470452
 14   9.393337 -0.000001 0.000000 -1.569611 0.034172 0.000037
 15   1.442245 0.107454 -1.746177 1.686435 0.539209 0.325885
 16   1.063452 0.000000 0.000001 0.000000 0.000000 0.199056
 17   1.376307 -0.000001 0.000001 0.000000 0.000000 0.199049
 18   4.172846 -0.251366 -1.312744 0.008050 0.095731 0.148659
 19   1.215374 0.000002 0.000000 0.000000 0.000000 0.645758
 20   1.215371 -0.000002 0.000001 0.000000 0.000000 0.645758
 21   4.220534 -0.244854 -0.431465 0.001333 0.026242 0.148339
 22   1.350417 0.000000 0.000001 0.000000 0.000000 0.863926
 23   1.350410 -0.000001 -0.000001 0.000000 0.000000 0.863926
 24   -1.887021 0.858761 -2.731760 -0.942471 1.461434 1.764317
 25   4.640942 0.000000 0.000001 -0.601473 -1.183875 0.506934
 26   10.828047 0.000000 0.000001 0.000000 0.000000 -0.234266
 27   9.393339 0.000000 0.000000 1.569611 -0.034192 0.000001
 28   1.442245 0.107455 1.746178 -1.686405 -0.539236 0.325898
 29   1.063450 -0.000001 0.000000 0.000000 0.000000 0.199056
 30   1.376307 0.000000 0.000000 0.000000 0.000000 0.199059
 31   4.172847 -0.251365 1.312745 -0.008050 -0.095731 0.148659
 32   1.215373 -0.000001 0.000000 0.000000 0.000000 0.645746
 33   1.215372 0.000000 0.000000 0.000000 0.000000 0.645746
 34   4.220534 -0.244853 0.431466 -0.001333 -0.026242 0.148339
 35   1.350416 0.000000 -0.000001 0.000000 0.000000 0.863937
 36   1.350410 0.000000 0.000001 0.000000 0.000000 0.863925
 37   2.110540 -0.000001 0.000000 0.002432 -0.010503 -0.153668
 38   0.891923 2.373051 -0.014527 -3.141592 -0.000001 1.413797
 39   7.228122 5.709445 3.726568 3.140796 -1.570796 0.000000
 40   2.450426 5.076128 0.001325 3.140791 -1.570796 0.000000
 41   6.312404 -4.528058 0.001311 3.140791 -1.570796 0.000000
 42   2.233309 1.152535 -7.309138 -1.127769 -1.561185 -0.856972
 43   4.262825 -0.232720 -1.392178 0.016840 0.076668 0.253759
end
