version 1
nodes
  0 "Bip01" -1
  1 "Bip01 Pelvis" 0
  2 "Bip01 L Thigh" 1
  3 "Bip01 L Calf" 2
  4 "Bip01 L Foot" 3
  5 "Bip01 R Thigh" 1
  6 "Bip01 R Calf" 5
  7 "Bip01 R Foot" 6
  8 "Bip01 Spine" 1
  9 "Bip01 Spine1" 8
 10 "Bip01 Neck" 9
 11 "Bip01 L Clavicle" 10
 12 "Bip01 L UpperArm" 11
 13 "Bip01 L Forearm" 12
 14 "Bip01 L Hand" 13
 15 "Bip01 L Finger0" 14
 16 "Bip01 L Finger01" 15
 17 "Bip01 L Finger02" 16
 18 "Bip01 L Finger1" 14
 19 "Bip01 L Finger11" 18
 20 "Bip01 L Finger12" 19
 21 "Bip01 L Finger2" 14
 22 "Bip01 L Finger21" 21
 23 "Bip01 L Finger22" 22
 24 "Bip01 R Clavicle" 10
 25 "Bip01 R UpperArm" 24
 26 "Bip01 R Forearm" 25
 27 "Bip01 R Hand" 26
 28 "Bip01 R Finger0" 27
 29 "Bip01 R Finger01" 28
 30 "Bip01 R Finger02" 29
 31 "Bip01 R Finger1" 27
 32 "Bip01 R Finger11" 31
 33 "Bip01 R Finger12" 32
 34 "Bip01 R Finger2" 27
 35 "Bip01 R Finger21" 34
 36 "Bip01 R Finger22" 35
 37 "Bip01 Head" 10
 38 "Bone05" 37
 39 "Bone08" 9
 40 "Bone16" 8
 41 "Bone01" 8
 42 "Bone03" 1
 43 "Bip01 R Finger4" 27
end
skeleton
time 0
  0   0.065714 12.297681 38.061657 -0.003643 0.000000 -1.570843
  1   -0.577815 0.128910 0.000000 -0.000030 -1.556870 -1.570772
  2   -0.000007 0.000008 4.427393 0.001035 -3.180963 0.283611
  3   18.465939 0.000000 0.000000 0.000000 0.000000 -0.381100
  4   14.875443 0.000000 -0.000001 0.000065 0.001878 0.323143
  5   0.000006 -0.000004 -4.427393 0.026709 3.156448 -0.397706
  6   18.465939 0.000000 0.000000 0.000000 0.000000 -0.113147
  7   14.875442 0.000000 0.000000 -0.025965 0.002841 -0.064112
  8   2.255207 -0.007574 0.031254 -0.034825 0.005116 0.037027
  9   9.514219 -0.009357 0.000000 0.000647 -0.017486 -0.014656
 10   11.751820 -0.001633 0.000000 0.000000 -0.000001 0.229052
 11   -2.137028 0.425141 2.649729 -0.143649 -1.448032 3.054368
 12   4.640941 0.000000 -0.000001 -0.318690 1.142990 -0.628809
 13   10.828049 0.000000 0.000000 0.000000 0.000000 -0.469720
 14   9.393337 -0.000001 0.000000 -1.569611 0.034172 0.000037
 15   1.442245 0.107454 -1.746177 1.686435 0.539209 0.325885
 16   1.063452 0.000000 0.000001 0.000000 0.000000 0.199056
 17   1.376307 -0.000001 0.000001 0.000000 0.000000 0.199049
 18   4.172846 -0.251366 -1.312744 0.008050 0.095731 0.148659
 19   1.215374 0.000002 0.000000 0.000000 0.000000 0.645758
 20   1.215371 -0.000002 0.000001 0.000000 0.000000 0.645758
 21   4.220534 -0.244854 -0.431465 0.001333 0.026242 0.148339
 22   1.350417 0.000000 0.000001 0.000000 0.000000 0.863926
 23   1.350410 -0.000001 -0.000001 0.000000 0.000000 0.863926
 24   -2.137028 0.425154 -2.649726 -0.167242 1.465276 2.745433
 25   4.640942 0.000000 0.000001 -0.255719 -1.259612 0.245718
 26   10.828047 0.000000 0.000001 0.000000 0.000000 -0.100039
 27   9.393339 0.000000 0.000000 1.569611 -0.034192 0.000001
 28   1.442245 0.107455 1.746178 -1.686405 -0.539236 0.325898
 29   1.063450 -0.000001 0.000000 0.000000 0.000000 0.199056
 30   1.376307 0.000000 0.000000 0.000000 0.000000 0.199059
 31   4.172847 -0.251365 1.312745 -0.008050 -0.095731 0.148659
 32   1.215373 -0.000001 0.000000 0.000000 0.000000 0.645746
 33   1.215372 0.000000 0.000000 0.000000 0.000000 0.645746
 34   4.220534 -0.244853 0.431466 -0.001333 -0.026242 0.148339
 35   1.350416 0.000000 -0.000001 0.000000 0.000000 0.863937
 36   1.350410 0.000000 0.000001 0.000000 0.000000 0.863925
 37   2.110540 -0.000001 0.000000 0.036865 -0.006844 -0.073895
 38   0.891923 2.373051 -0.014527 -3.141592 -0.000001 1.413797
 39   7.228122 5.709445 3.726568 3.140796 -1.570796 0.000000
 40   2.450426 5.076128 0.001325 3.140791 -1.570796 0.000000
 41   6.312404 -4.528058 0.001311 3.140791 -1.570796 0.000000
 42   2.233309 1.152535 -7.309138 -1.147423 -1.544642 -0.851036
 43   4.262825 -0.232720 -1.392178 0.016840 0.076668 0.253759
time 1
  0   0.025148 10.540324 38.085094 -0.004027 0.000000 -1.570843
  1   -0.562190 0.089846 0.000000 -0.000030 -1.564056 -1.570772
  2   -0.000007 0.000008 4.427393 -0.001160 -3.171194 0.300768
  3   18.465939 0.000000 0.000000 0.000000 0.000000 -0.413706
  4   14.875443 0.000000 -0.000001 -0.002184 -0.001612 0.260925
  5   0.000006 -0.000004 -4.427393 0.028719 3.166235 -0.438791
  6   18.465939 0.000000 0.000000 0.000000 0.000000 -0.292532
  7   14.875442 0.000000 0.000000 -0.021403 -0.014199 -0.005397
  8   2.255207 -0.007574 0.011722 -0.033922 0.006531 0.036034
  9   9.514219 -0.009357 0.000000 0.000884 -0.011769 -0.014851
 10   11.751820 -0.001633 0.000000 0.000000 -0.000001 0.226717
 11   -2.137028 0.421235 2.649729 -0.088558 -1.455825 3.002086
 12   4.640941 0.000000 -0.000001 -0.341728 1.142025 -0.640517
 13   10.828049 0.000000 0.000000 0.000000 0.000000 -0.466669
 14   9.393337 -0.000001 0.000000 -1.569611 0.035197 0.000037
 15   1.442245 0.107454 -1.746177 1.689707 0.538569 0.332268
 16   1.063452 0.000000 0.000001 0.000000 0.000000 0.204137
 17   1.376307 -0.000001 0.000001 0.000000 0.000000 0.204140
 18   4.172846 -0.251366 -1.312744 0.008350 0.095707 0.151865
 19   1.215374 0.000002 0.000000 0.000000 0.000000 0.667236
 20   1.215371 -0.000002 0.000001 0.000000 0.000000 0.667236
 21   4.220534 -0.244854 -0.431465 0.001417 0.026230 0.151541
 22   1.350417 0.000000 0.000001 0.000000 0.000000 0.892677
 23   1.350410 -0.000001 -0.000001 0.000000 0.000000 0.892677
 24   -2.137028 0.421248 -2.649726 -0.250783 1.469845 2.664527
 25   4.640942 0.000000 0.000001 -0.237711 -1.263308 0.228499
 26   10.828047 0.000000 0.000001 0.000000 0.000000 -0.100097
 27   9.393339 0.000000 0.000000 1.569611 -0.035201 0.000001
 28   1.442245 0.107455 1.746178 -1.689678 -0.538562 0.332283
 29   1.063450 -0.000001 0.000000 0.000000 0.000000 0.204137
 30   1.376307 0.000000 0.000000 0.000000 0.000000 0.204128
 31   4.172847 -0.251365 1.312745 -0.008350 -0.095707 0.151865
 32   1.215373 -0.000001 0.000000 0.000000 0.000000 0.667233
 33   1.215372 0.000000 0.000000 0.000000 0.000000 0.667233
 34   4.220534 -0.244853 0.431466 -0.001417 -0.026230 0.151541
 35   1.350416 0.000000 -0.000001 0.000000 0.000000 0.892686
 36   1.350410 0.000000 0.000001 0.000000 0.000000 0.892693
 37   2.110540 -0.000001 0.000000 0.035816 -0.006983 -0.061080
 38   0.891923 2.373051 -0.014527 -3.141592 -0.000001 1.413797
 39   7.228122 5.709445 3.726568 3.140796 -1.570796 0.000000
 40   2.450426 5.076128 0.001325 3.140791 -1.570796 0.000000
 41   6.312404 -4.528058 0.001311 3.140791 -1.570796 0.000000
 42   2.233309 1.152535 -7.309138 -1.140137 -1.535904 -0.884450
 43   4.262825 -0.232720 -1.392178 0.017343 0.076548 0.260445
time 2
  0   -0.035702 8.810495 38.198380 -0.002205 0.000000 -1.570843
  1   -0.523126 0.050783 0.000000 -0.000078 -1.572621 -1.570772
  2   -0.000007 0.000008 4.427393 -0.003929 -3.161240 0.309395
  3   18.465939 0.000000 0.000000 0.000000 0.000000 -0.441925
  4   14.875443 0.000000 -0.000001 -0.004119 -0.006359 0.156596
  5   0.000006 -0.000004 -4.427393 0.028910 3.177886 -0.419793
  6   18.465939 0.000000 0.000000 0.000000 0.000000 -0.340512
  7   14.875442 0.000000 0.000000 -0.014769 -0.031315 -0.018153
  8   2.255207 -0.007574 0.000003 -0.031654 0.009203 0.032130
  9   9.514219 -0.009357 0.000000 0.001201 -0.006052 -0.014807
 10   11.751820 -0.001633 0.000000 0.000000 -0.000001 0.224328
 11   -2.137028 0.413422 2.649729 0.033915 -1.464715 2.882752
 12   4.640941 0.000000 -0.000001 -0.349636 1.154079 -0.616692
 13   10.828049 0.000000 0.000000 0.000000 0.000000 -0.448366
 14   9.393337 -0.000001 0.000000 -1.569611 0.035680 0.000037
 15   1.442245 0.107454 -1.746177 1.691253 0.538261 0.335285
 16   1.063452 0.000000 0.000001 0.000000 0.000000 0.206522
 17   1.376307 -0.000001 0.000001 0.000000 0.000000 0.206527
 18   4.172846 -0.251366 -1.312744 0.008494 0.095695 0.153388
 19   1.215374 0.000002 0.000000 0.000000 0.000000 0.677322
 20   1.215371 -0.000002 0.000001 0.000000 0.000000 0.677322
 21   4.220534 -0.244854 -0.431465 0.001453 0.026230 0.153023
 22   1.350417 0.000000 0.000001 0.000000 0.000000 0.906195
 23   1.350410 -0.000001 -0.000001 0.000000 0.000000 0.906195
 24   -2.137028 0.413435 -2.649726 -0.394468 1.472212 2.523768
 25   4.640942 0.000000 0.000001 -0.202673 -1.269864 0.197212
 26   10.828047 0.000000 0.000001 0.000000 0.000000 -0.110552
 27   9.393339 0.000000 0.000000 1.569611 -0.035689 0.000001
 28   1.442245 0.107455 1.746178 -1.691223 -0.538281 0.335270
 29   1.063450 -0.000001 0.000000 0.000000 0.000000 0.206522
 30   1.376307 0.000000 0.000000 0.000000 0.000000 0.206530
 31   4.172847 -0.251365 1.312745 -0.008494 -0.095695 0.153388
 32   1.215373 -0.000001 0.000000 0.000000 0.000000 0.677348
 33   1.215372 0.000000 0.000000 0.000000 0.000000 0.677348
 34   4.220534 -0.244853 0.431466 -0.001453 -0.026230 0.153023
 35   1.350416 0.000000 -0.000001 0.000000 0.000000 0.906157
 36   1.350410 0.000000 0.000001 0.000000 0.000000 0.906194
 37   2.110540 -0.000001 0.000000 0.033145 -0.006676 -0.050028
 38   0.891923 2.373051 -0.014527 -3.141592 -0.000001 1.413797
 39   7.228122 5.709445 3.726568 3.140796 -1.570796 0.000000
 40   2.450426 5.076128 0.001325 3.140791 -1.570796 0.000000
 41   6.312404 -4.528058 0.001311 3.140791 -1.570796 0.000000
 42   2.233309 1.152535 -7.309138 -1.142342 -1.527167 -0.873535
 43   4.262825 -0.232720 -1.392178 0.017583 0.076501 0.263589
time 3
  0   -0.116835 7.135720 38.311665 0.000000 0.000000 -1.570843
  1   -0.456718 0.011719 0.000000 -0.000030 -1.581920 -1.570772
  2   -0.000007 0.000008 4.427393 -0.006888 -3.150355 0.324258
  3   18.465939 0.000000 0.000000 0.000000 0.000000 -0.447262
  4   14.875443 0.000000 -0.000001 -0.004660 -0.011722 0.035518
  5   0.000006 -0.000004 -4.427393 0.029101 3.190190 -0.389377
  6   18.465939 0.000000 0.000000 0.000000 0.000000 -0.371886
  7   14.875442 0.000000 0.000000 -0.008452 -0.044855 -0.016690
  8   2.255207 -0.007574 -0.023435 -0.028314 0.012667 0.026141
  9   9.514219 -0.009357 0.000000 0.001570 -0.000419 -0.014569
 10   11.751820 -0.001633 0.000000 0.000000 -0.000001 0.221885
 11   -2.137028 0.409516 2.649729 0.219067 -1.471760 2.700900
 12   4.640941 0.000000 -0.000001 -0.342416 1.175914 -0.563656
 13   10.828049 0.000000 0.000000 0.000000 0.000000 -0.418592
 14   9.393337 -0.000001 0.000000 -1.569611 0.035740 0.000037
 15   1.442245 0.107454 -1.746177 1.691444 0.538212 0.335675
 16   1.063452 0.000000 0.000001 0.000000 0.000000 0.206834
 17   1.376307 -0.000001 0.000001 0.000000 0.000000 0.206831
 18   4.172846 -0.251366 -1.312744 0.008518 0.095695 0.153588
 19   1.215374 0.000002 0.000000 0.000000 0.000000 0.678670
 20   1.215371 -0.000002 0.000001 0.000000 0.000000 0.678670
 21   4.220534 -0.244854 -0.431465 0.001465 0.026230 0.153223
 22   1.350417 0.000000 0.000001 0.000000 0.000000 0.907951
 23   1.350410 -0.000001 -0.000001 0.000000 0.000000 0.907951
 24   -2.137028 0.409529 -2.649726 -0.570594 1.470800 2.350606
 25   4.640942 0.000000 0.000001 -0.153073 -1.277605 0.152906
 26   10.828047 0.000000 0.000001 0.000000 0.000000 -0.129080
 27   9.393339 0.000000 0.000000 1.569611 -0.035754 0.000001
 28   1.442245 0.107455 1.746178 -1.691405 -0.538225 0.335631
 29   1.063450 -0.000001 0.000000 0.000000 0.000000 0.206834
 30   1.376307 0.000000 0.000000 0.000000 0.000000 0.206838
 31   4.172847 -0.251365 1.312745 -0.008518 -0.095695 0.153588
 32   1.215373 -0.000001 0.000000 0.000000 0.000000 0.678649
 33   1.215372 0.000000 0.000000 0.000000 0.000000 0.678649
 34   4.220534 -0.244853 0.431466 -0.001465 -0.026230 0.153223
 35   1.350416 0.000000 -0.000001 0.000000 0.000000 0.907920
 36   1.350410 0.000000 0.000001 0.000000 0.000000 0.907912
 37   2.110540 -0.000001 0.000000 0.029187 -0.006006 -0.040610
 38   0.891923 2.373051 -0.014527 -3.141592 -0.000001 1.413797
 39   7.228122 5.709445 3.726568 3.140796 -1.570796 0.000000
 40   2.450426 5.076128 0.001325 3.140791 -1.570796 0.000000
 41   6.312404 -4.528058 0.001311 3.140791 -1.570796 0.000000
 42   2.233309 1.152535 -7.309138 -1.150299 -1.518459 -0.839452
 43   4.262825 -0.232720 -1.392178 0.017619 0.076489 0.263987
time 4
  0   -0.218251 5.460947 38.421043 0.002205 0.000000 -1.570843
  1   -0.378591 -0.023438 0.000000 -0.000030 -1.591362 -1.570772
  2   -0.000007 0.000008 4.427393 -0.010706 -3.141796 0.246456
  3   18.465939 0.000000 0.000000 0.000000 0.000000 -0.595378
  4   14.875443 0.000000 -0.000001 -0.002611 -0.012212 -0.142484
  5   0.000006 -0.000004 -4.427393 0.029580 3.201189 -0.362611
  6   18.465939 0.000000 0.000000 0.000000 0.000000 -0.435357
  7   14.875442 0.000000 0.000000 -0.006557 -0.047993 0.073765
  8   2.255207 -0.007574 -0.042967 -0.024198 0.016418 0.018829
  9   9.514219 -0.009357 0.000000 0.001966 0.004974 -0.014223
 10   11.751820 -0.001633 0.000000 0.000000 -0.000001 0.219335
 11   -2.140935 0.405609 2.649729 0.443906 -1.474241 2.479338
 12   4.640941 0.000000 -0.000001 -0.318003 1.203672 -0.485567
 13   10.828049 0.000000 0.000000 0.000000 0.000000 -0.381435
 14   9.393337 -0.000001 0.000000 -1.569611 0.035499 0.000037
 15   1.442245 0.107454 -1.746177 1.690713 0.538359 0.334238
 16   1.063452 0.000000 0.000001 0.000000 0.000000 0.205695
 17   1.376307 -0.000001 0.000001 0.000000 0.000000 0.205699
 18   4.172846 -0.251366 -1.312744 0.008446 0.095695 0.152867
 19   1.215374 0.000002 0.000000 0.000000 0.000000 0.673810
 20   1.215371 -0.000002 0.000001 0.000000 0.000000 0.673810
 21   4.220534 -0.244854 -0.431465 0.001441 0.026230 0.152502
 22   1.350417 0.000000 0.000001 0.000000 0.000000 0.901499
 23   1.350410 -0.000001 -0.000001 0.000000 0.000000 0.901499
 24   -2.140935 0.405622 -2.649726 -0.743077 1.465276 2.181228
 25   4.640942 0.000000 0.000001 -0.092052 -1.284858 0.096911
 26   10.828047 0.000000 0.000001 0.000000 0.000000 -0.153532
 27   9.393339 0.000000 0.000000 1.569611 -0.035526 0.000001
 28   1.442245 0.107455 1.746178 -1.690678 -0.538393 0.334240
 29   1.063450 -0.000001 0.000000 0.000000 0.000000 0.205695
 30   1.376307 0.000000 0.000000 0.000000 0.000000 0.205692
 31   4.172847 -0.251365 1.312745 -0.008446 -0.095695 0.152867
 32   1.215373 -0.000001 0.000000 0.000000 0.000000 0.673822
 33   1.215372 0.000000 0.000000 0.000000 0.000000 0.673822
 34   4.220534 -0.244853 0.431466 -0.001441 -0.026230 0.152502
 35   1.350416 0.000000 -0.000001 0.000000 0.000000 0.901499
 36   1.350410 0.000000 0.000001 0.000000 0.000000 0.901471
 37   2.110540 -0.000001 0.000000 0.024275 -0.005028 -0.032654
 38   0.891923 2.373051 -0.014527 -3.141592 -0.000001 1.413797
 39   7.228122 5.709445 3.726568 3.140796 -1.570796 0.000000
 40   2.450426 5.076128 0.001325 3.140791 -1.570796 0.000000
 41   6.312404 -4.528058 0.001311 3.140791 -1.570796 0.000000
 42   2.233309 1.152535 -7.309138 -1.130645 -1.502760 -0.825761
 43   4.262825 -0.232720 -1.392178 0.017499 0.076513 0.262515
time 5
  0   -0.319667 3.786173 38.549953 0.004602 0.000000 -1.570843
  1   -0.296557 -0.058596 0.000000 -0.000030 -1.600258 -1.570772
  2   -0.000007 0.000008 4.427393 -0.012902 -3.134167 0.129255
  3   18.465939 0.000000 0.000000 0.000000 0.000000 -0.789697
  4   14.875443 0.000000 -0.000001 0.001346 -0.009381 -0.372948
  5   0.000006 -0.000004 -4.427393 0.028144 3.212467 -0.317783
  6   18.465939 0.000000 0.000000 0.000000 0.000000 -0.460036
  7   14.875442 0.000000 0.000000 -0.004627 -0.051302 0.143248
  8   2.255207 -0.007574 -0.062499 -0.019599 0.019977 0.011053
  9   9.514219 -0.009357 0.000000 0.002349 0.010067 -0.013790
 10   11.751820 -0.001633 0.000000 0.000000 -0.000001 0.216678
 11   -2.140935 0.397797 2.649729 0.663584 -1.471378 2.262929
 12   4.640941 0.000000 -0.000001 -0.274286 1.233220 -0.386345
 13   10.828049 0.000000 0.000000 0.000000 0.000000 -0.340557
 14   9.393337 -0.000001 0.000000 -1.569611 0.035107 0.000037
 15   1.442245 0.107454 -1.746177 1.689443 0.538618 0.331755
 16   1.063452 0.000000 0.000001 0.000000 0.000000 0.203718
 17   1.376307 -0.000001 0.000001 0.000000 0.000000 0.203726
 18   4.172846 -0.251366 -1.312744 0.008326 0.095707 0.151624
 19   1.215374 0.000002 0.000000 0.000000 0.000000 0.665480
 20   1.215371 -0.000002 0.000001 0.000000 0.000000 0.665480
 21   4.220534 -0.244854 -0.431465 0.001405 0.026242 0.151261
 22   1.350417 0.000000 0.000001 0.000000 0.000000 0.890309
 23   1.350410 -0.000001 -0.000001 0.000000 0.000000 0.890309
 24   -2.140935 0.397810 -2.649726 -0.884128 1.457031 2.043221
 25   4.640942 0.000000 0.000001 -0.024085 -1.290018 0.032027
 26   10.828047 0.000000 0.000001 0.000000 0.000000 -0.181586
 27   9.393339 0.000000 0.000000 1.569611 -0.035103 0.000001
 28   1.442245 0.107455 1.746178 -1.689405 -0.538618 0.331717
 29   1.063450 -0.000001 0.000000 0.000000 0.000000 0.203718
 30   1.376307 0.000000 0.000000 0.000000 0.000000 0.203709
 31   4.172847 -0.251365 1.312745 -0.008326 -0.095707 0.151624
 32   1.215373 -0.000001 0.000000 0.000000 0.000000 0.665513
 33   1.215372 0.000000 0.000000 0.000000 0.000000 0.665513
 34   4.220534 -0.244853 0.431466 -0.001405 -0.026242 0.151261
 35   1.350416 0.000000 -0.000001 0.000000 0.000000 0.890335
 36   1.350410 0.000000 0.000001 0.000000 0.000000 0.890308
 37   2.110540 -0.000001 0.000000 0.018695 -0.003883 -0.026031
 38   0.891923 2.373051 -0.014527 -3.141592 -0.000001 1.413797
 39   7.228122 5.709445 3.726568 3.140796 -1.570796 0.000000
 40   2.450426 5.076128 0.001325 3.140791 -1.570796 0.000000
 41   6.312404 -4.528058 0.001311 3.140791 -1.570796 0.000000
 42   2.233309 1.152535 -7.309138 -1.134192 -1.489276 -0.786699
 43   4.262825 -0.232720 -1.392178 0.017307 0.076560 0.259888
time 6
  0   -0.421083 2.111399 38.682770 0.006711 0.000000 -1.570843
  1   -0.222336 -0.093753 0.000000 -0.000030 -1.608004 -1.570772
  2   -0.000007 0.000008 4.427393 -0.013284 -3.127004 0.010258
  3   18.465939 0.000000 0.000000 0.000000 0.000000 -0.929844
  4   14.875443 0.000000 -0.000001 0.003793 -0.006422 -0.457287
  5   0.000006 -0.000004 -4.427393 0.024605 3.222999 -0.260789
  6   18.465939 0.000000 0.000000 0.000000 0.000000 -0.457805
  7   14.875442 0.000000 0.000000 -0.002837 -0.054592 0.198023
  8   2.255207 -0.007574 -0.082031 -0.014705 0.022830 0.003608
  9   9.514219 -0.009357 0.000000 0.002678 0.014729 -0.013357
 10   11.751820 -0.001633 0.000000 0.000000 -0.000001 0.213886
 11   -2.140935 0.393890 2.649729 0.838265 -1.464985 2.091451
 12   4.640941 0.000000 -0.000001 -0.211903 1.260290 -0.272548
 13   10.828049 0.000000 0.000000 0.000000 0.000000 -0.299923
 14   9.393337 -0.000001 0.000000 -1.569611 0.034685 0.000037
 15   1.442245 0.107454 -1.746177 1.688041 0.538901 0.329025
 16   1.063452 0.000000 0.000001 0.000000 0.000000 0.201548
 17   1.376307 -0.000001 0.000001 0.000000 0.000000 0.201546
 18   4.172846 -0.251366 -1.312744 0.008194 0.095719 0.150222
 19   1.215374 0.000002 0.000000 0.000000 0.000000 0.656293
 20   1.215371 -0.000002 0.000001 0.000000 0.000000 0.656293
 21   4.220534 -0.244854 -0.431465 0.001369 0.026242 0.149900
 22   1.350417 0.000000 0.000001 0.000000 0.000000 0.878016
 23   1.350410 -0.000001 -0.000001 0.000000 0.000000 0.878016
 24   -2.140935 0.393903 -2.649726 -0.982464 1.448517 1.947937
 25   4.640942 0.000000 0.000001 0.044706 -1.292111 -0.037337
 26   10.828047 0.000000 0.000001 0.000000 0.000000 -0.211033
 27   9.393339 0.000000 0.000000 1.569611 -0.034680 0.000001
 28   1.442245 0.107455 1.746178 -1.688041 -0.538899 0.328988
 29   1.063450 -0.000001 0.000000 0.000000 0.000000 0.201548
 30   1.376307 0.000000 0.000000 0.000000 0.000000 0.201549
 31   4.172847 -0.251365 1.312745 -0.008194 -0.095719 0.150222
 32   1.215373 -0.000001 0.000000 0.000000 0.000000 0.656280
 33   1.215372 0.000000 0.000000 0.000000 0.000000 0.656280
 34   4.220534 -0.244853 0.431466 -0.001369 -0.026242 0.149900
 35   1.350416 0.000000 -0.000001 0.000000 0.000000 0.877997
 36   1.350410 0.000000 0.000001 0.000000 0.000000 0.877999
 37   2.110540 -0.000001 0.000000 0.012829 -0.002626 -0.020527
 38   0.891923 2.373051 -0.014527 -3.141592 -0.000001 1.413797
 39   7.228122 5.709445 3.726568 3.140796 -1.570796 0.000000
 40   2.450426 5.076128 0.001325 3.140791 -1.570796 0.000000
 41   6.312404 -4.528058 0.001311 3.140791 -1.570796 0.000000
 42   2.233309 1.152535 -7.309138 -1.205809 -1.483538 -0.673725
 43   4.262825 -0.232720 -1.392178 0.017092 0.076608 0.257022
time 7
  0   -0.502216 0.409098 38.792149 0.008437 0.000000 -1.570843
  1   -0.155928 -0.121097 0.000000 -0.000030 -1.613940 -1.570772
  2   -0.000007 0.000008 4.427393 -0.012234 -3.120212 -0.102454
  3   18.465939 0.000000 0.000000 0.000000 0.000000 -0.991912
  4   14.875443 0.000000 -0.000001 0.005643 -0.004847 -0.310769
  5   0.000006 -0.000004 -4.427393 0.019151 3.231854 -0.194155
  6   18.465939 0.000000 0.000000 0.000000 0.000000 -0.434504
  7   14.875442 0.000000 0.000000 -0.001398 -0.057635 0.241206
  8   2.255207 -0.007574 -0.093750 -0.009770 0.024472 -0.002678
  9   9.514219 -0.009357 0.000000 0.002929 0.018852 -0.012946
 10   11.751820 -0.001633 0.000000 0.000000 -0.000001 0.210961
 11   -2.144841 0.386077 2.649729 0.951708 -1.458337 1.981116
 12   4.640941 0.000000 -0.000001 -0.137879 1.281091 -0.156760
 13   10.828049 0.000000 0.000000 0.000000 0.000000 -0.263499
 14   9.393337 -0.000001 0.000000 -1.569611 0.034323 0.000037
 15   1.442245 0.107454 -1.746177 1.686902 0.539123 0.326808
 16   1.063452 0.000000 0.000001 0.000000 0.000000 0.199787
 17   1.376307 -0.000001 0.000001 0.000000 0.000000 0.199780
 18   4.172846 -0.251366 -1.312744 0.008086 0.095731 0.149140
 19   1.215374 0.000002 0.000000 0.000000 0.000000 0.648820
 20   1.215371 -0.000002 0.000001 0.000000 0.000000 0.648820
 21   4.220534 -0.244854 -0.431465 0.001345 0.026242 0.148779
 22   1.350417 0.000000 0.000001 0.000000 0.000000 0.868010
 23   1.350410 -0.000001 -0.000001 0.000000 0.000000 0.868010
 24   -2.144841 0.386090 -2.649726 -1.036724 1.442308 1.896752
 25   4.640942 0.000000 0.000001 0.106859 -1.290367 -0.105580
 26   10.828047 0.000000 0.000001 0.000000 0.000000 -0.239609
 27   9.393339 0.000000 0.000000 1.569611 -0.034322 0.000001
 28   1.442245 0.107455 1.746178 -1.686859 -0.539124 0.326773
 29   1.063450 -0.000001 0.000000 0.000000 0.000000 0.199787
 30   1.376307 0.000000 0.000000 0.000000 0.000000 0.199786
 31   4.172847 -0.251365 1.312745 -0.008086 -0.095731 0.149140
 32   1.215373 -0.000001 0.000000 0.000000 0.000000 0.648809
 33   1.215372 0.000000 0.000000 0.000000 0.000000 0.648809
 34   4.220534 -0.244853 0.431466 -0.001345 -0.026242 0.148779
 35   1.350416 0.000000 -0.000001 0.000000 0.000000 0.868008
 36   1.350410 0.000000 0.000001 0.000000 0.000000 0.868028
 37   2.110540 -0.000001 0.000000 0.006915 -0.001397 -0.015968
 38   0.891923 2.373051 -0.014527 -3.141592 -0.000001 1.413797
 39   7.228122 5.709445 3.726568 3.140796 -1.570796 0.000000
 40   2.450426 5.076128 0.001325 3.140791 -1.570796 0.000000
 41   6.312404 -4.528058 0.001311 3.140791 -1.570796 0.000000
 42   2.233309 1.152535 -7.309138 -1.272345 -1.483771 -0.547348
 43   4.262825 -0.232720 -1.392178 0.016912 0.076656 0.254714
time 8
  0   -0.563065 -1.320732 38.866367 0.009492 0.000000 -1.570843
  1   -0.112957 -0.148442 0.000000 -3.141560 -1.524146 1.570772
  2   -0.000007 0.000008 4.427393 -0.010229 -3.115561 -0.219506
  3   18.465939 0.000000 0.000000 0.000000 0.000000 -1.021959
  4   14.875443 0.000000 -0.000001 0.008262 -0.004188 -0.048308
  5   0.000006 -0.000004 -4.427393 0.012071 3.238099 -0.119380
  6   18.465939 0.000000 0.000000 0.000000 0.000000 -0.393218
  7   14.875442 0.000000 0.000000 -0.000520 -0.060203 0.274372
  8   2.255207 -0.007574 -0.101563 -0.004918 0.024364 -0.007013
  9   9.514219 -0.009357 0.000000 0.003074 0.022303 -0.012621
 10   11.751820 -0.001633 0.000000 0.000000 -0.000001 0.207820
 11   -2.144841 0.378265 2.649729 1.002094 -1.454680 1.933987
 12   4.640941 0.000000 -0.000001 -0.067293 1.293076 -0.059587
 13   10.828049 0.000000 0.000000 0.000000 0.000000 -0.235067
 14   9.393337 -0.000001 0.000000 -1.569611 0.034172 0.000037
 15   1.442245 0.107454 -1.746177 1.686435 0.539209 0.325885
 16   1.063452 0.000000 0.000001 0.000000 0.000000 0.199056
 17   1.376307 -0.000001 0.000001 0.000000 0.000000 0.199049
 18   4.172846 -0.251366 -1.312744 0.008050 0.095731 0.148659
 19   1.215374 0.000002 0.000000 0.000000 0.000000 0.645758
 20   1.215371 -0.000002 0.000001 0.000000 0.000000 0.645758
 21   4.220534 -0.244854 -0.431465 0.001333 0.026242 0.148339
 22   1.350417 0.000000 0.000001 0.000000 0.000000 0.863926
 23   1.350410 -0.000001 -0.000001 0.000000 0.000000 0.863926
 24   -2.144841 0.378278 -2.649726 -1.045636 1.440729 1.891042
 25   4.640942 0.000000 0.000001 0.154812 -1.284649 -0.166895
 26   10.828047 0.000000 0.000001 0.000000 0.000000 -0.264991
 27   9.393339 0.000000 0.000000 1.569611 -0.034192 0.000001
 28   1.442245 0.107455 1.746178 -1.686405 -0.539236 0.325898
 29   1.063450 -0.000001 0.000000 0.000000 0.000000 0.199056
 30   1.376307 0.000000 0.000000 0.000000 0.000000 0.199059
 31   4.172847 -0.251365 1.312745 -0.008050 -0.095731 0.148659
 32   1.215373 -0.000001 0.000000 0.000000 0.000000 0.645746
 33   1.215372 0.000000 0.000000 0.000000 0.000000 0.645746
 34   4.220534 -0.244853 0.431466 -0.001333 -0.026242 0.148339
 35   1.350416 0.000000 -0.000001 0.000000 0.000000 0.863937
 36   1.350410 0.000000 0.000001 0.000000 0.000000 0.863925
 37   2.110540 -0.000001 0.000000 0.001431 -0.000223 -0.012184
 38   0.891923 2.373051 -0.014527 -3.141592 -0.000001 1.413797
 39   7.228122 5.709445 3.726568 3.140796 -1.570796 0.000000
 40   2.450426 5.076128 0.001325 3.140791 -1.570796 0.000000
 41   6.312404 -4.528058 0.001311 3.140791 -1.570796 0.000000
 42   2.233309 1.152535 -7.309138 -1.341948 -1.484150 -0.413981
 43   4.262825 -0.232720 -1.392178 0.016840 0.076668 0.253759
time 9
  0   -0.603632 -3.105617 38.878086 0.009683 0.000000 -1.570843
  1   -0.097332 -0.164068 0.000000 -0.000030 -1.617863 -1.570772
  2   -0.000007 0.000008 4.427393 -0.008511 -3.114165 -0.331021
  3   18.465939 0.000000 0.000000 0.000000 0.000000 -1.024737
  4   14.875443 0.000000 -0.000001 0.011393 -0.004869 0.228809
  5   0.000006 -0.000004 -4.427393 0.003939 3.240802 -0.036930
  6   18.465939 0.000000 0.000000 0.000000 0.000000 -0.334933
  7   14.875442 0.000000 0.000000 -0.000345 -0.061990 0.298308
  8   2.255207 -0.007574 -0.105469 -0.000340 0.021979 -0.008568
  9   9.514219 -0.009357 0.000000 0.003087 0.025012 -0.012448
 10   11.751820 -0.001633 0.000000 0.000000 -0.000001 0.204519
 11   -2.144841 0.370452 2.649729 0.986234 -1.455825 1.953086
 12   4.640941 0.000000 -0.000001 0.000885 1.297346 0.021488
 13   10.828049 0.000000 0.000000 0.000000 0.000000 -0.211333
 14   9.393337 -0.000001 0.000000 -1.569611 0.034172 0.000037
 15   1.442245 0.107454 -1.746177 1.686435 0.539209 0.325885
 16   1.063452 0.000000 0.000001 0.000000 0.000000 0.199056
 17   1.376307 -0.000001 0.000001 0.000000 0.000000 0.199049
 18   4.172846 -0.251366 -1.312744 0.008050 0.095731 0.148659
 19   1.215374 0.000002 0.000000 0.000000 0.000000 0.645758
 20   1.215371 -0.000002 0.000001 0.000000 0.000000 0.645758
 21   4.220534 -0.244854 -0.431465 0.001333 0.026242 0.148339
 22   1.350417 0.000000 0.000001 0.000000 0.000000 0.863926
 23   1.350410 -0.000001 -0.000001 0.000000 0.000000 0.863926
 24   -2.144841 0.370465 -2.649726 -0.993395 1.445236 1.946561
 25   4.640942 0.000000 0.000001 0.193349 -1.273072 -0.232479
 26   10.828047 0.000000 0.000001 0.000000 0.000000 -0.291708
 27   9.393339 0.000000 0.000000 1.569611 -0.034192 0.000001
 28   1.442245 0.107455 1.746178 -1.686405 -0.539236 0.325898
 29   1.063450 -0.000001 0.000000 0.000000 0.000000 0.199056
 30   1.376307 0.000000 0.000000 0.000000 0.000000 0.199059
 31   4.172847 -0.251365 1.312745 -0.008050 -0.095731 0.148659
 32   1.215373 -0.000001 0.000000 0.000000 0.000000 0.645746
 33   1.215372 0.000000 0.000000 0.000000 0.000000 0.645746
 34   4.220534 -0.244853 0.431466 -0.001333 -0.026242 0.148339
 35   1.350416 0.000000 -0.000001 0.000000 0.000000 0.863937
 36   1.350410 0.000000 0.000001 0.000000 0.000000 0.863925
 37   2.110540 -0.000001 0.000000 -0.003338 0.000726 -0.009001
 38   0.891923 2.373051 -0.014527 -3.141592 -0.000001 1.413797
 39   7.228122 5.709445 3.726568 3.140796 -1.570796 0.000000
 40   2.450426 5.076128 0.001325 3.140791 -1.570796 0.000000
 41   6.312404 -4.528058 0.001311 3.140791 -1.570796 0.000000
 42   2.233309 1.152535 -7.309138 -1.409443 -1.484179 -0.284923
 43   4.262825 -0.232720 -1.392178 0.016840 0.076668 0.253759
time 10
  0   -0.603632 -5.000611 38.792149 0.009300 0.000000 -1.570843
  1   -0.124677 -0.179693 0.000000 -0.000030 -1.615808 -1.570772
  2   -0.000007 0.000008 4.427393 -0.008129 -3.115375 -0.427126
  3   18.465939 0.000000 0.000000 0.000000 0.000000 -1.004779
  4   14.875443 0.000000 -0.000001 0.014637 -0.006380 0.419492
  5   0.000006 -0.000004 -4.427393 -0.004385 3.239497 0.054972
  6   18.465939 0.000000 0.000000 0.000000 0.000000 -0.260304
  7   14.875442 0.000000 0.000000 -0.000977 -0.062333 0.315153
  8   2.255207 -0.007574 -0.097656 0.004847 0.018072 -0.005722
  9   9.514219 -0.009357 0.000000 0.002850 0.026726 -0.012491
 10   11.751820 -0.001633 0.000000 0.000000 -0.000001 0.200895
 11   -2.144841 0.362639 2.649729 0.910504 -1.460453 2.032367
 12   4.640941 0.000000 -0.000001 0.068966 1.296244 0.094426
 13   10.828049 0.000000 0.000000 0.000000 0.000000 -0.187172
 14   9.393337 -0.000001 0.000000 -1.569611 0.034172 0.000037
 15   1.442245 0.107454 -1.746177 1.686435 0.539209 0.325885
 16   1.063452 0.000000 0.000001 0.000000 0.000000 0.199056
 17   1.376307 -0.000001 0.000001 0.000000 0.000000 0.199049
 18   4.172846 -0.251366 -1.312744 0.008050 0.095731 0.148659
 19   1.215374 0.000002 0.000000 0.000000 0.000000 0.645758
 20   1.215371 -0.000002 0.000001 0.000000 0.000000 0.645758
 21   4.220534 -0.244854 -0.431465 0.001333 0.026242 0.148339
 22   1.350417 0.000000 0.000001 0.000000 0.000000 0.863926
 23   1.350410 -0.000001 -0.000001 0.000000 0.000000 0.863926
 24   -2.144841 0.362652 -2.649726 -0.870168 1.453730 2.073148
 25   4.640942 0.000000 0.000001 0.232761 -1.254452 -0.313182
 26   10.828047 0.000000 0.000001 0.000000 0.000000 -0.323828
 27   9.393339 0.000000 0.000000 1.569611 -0.034192 0.000001
 28   1.442245 0.107455 1.746178 -1.686405 -0.539236 0.325898
 29   1.063450 -0.000001 0.000000 0.000000 0.000000 0.199056
 30   1.376307 0.000000 0.000000 0.000000 0.000000 0.199059
 31   4.172847 -0.251365 1.312745 -0.008050 -0.095731 0.148659
 32   1.215373 -0.000001 0.000000 0.000000 0.000000 0.645746
 33   1.215372 0.000000 0.000000 0.000000 0.000000 0.645746
 34   4.220534 -0.244853 0.431466 -0.001333 -0.026242 0.148339
 35   1.350416 0.000000 -0.000001 0.000000 0.000000 0.863937
 36   1.350410 0.000000 0.000001 0.000000 0.000000 0.863925
 37   2.110540 -0.000001 0.000000 -0.008250 0.001732 -0.008485
 38   0.891923 2.373051 -0.014527 -3.141592 -0.000001 1.413797
 39   7.228122 5.709445 3.726568 3.140796 -1.570796 0.000000
 40   2.450426 5.076128 0.001325 3.140791 -1.570796 0.000000
 41   6.312404 -4.528058 0.001311 3.140791 -1.570796 0.000000
 42   2.233309 1.152535 -7.309138 -1.467445 -1.483538 -0.173194
 43   4.262825 -0.232720 -1.392178 0.016840 0.076668 0.253759
time 11
  0   -0.542782 -7.033245 38.620266 0.008533 0.000000 -1.570843
  1   -0.202804 -0.183599 0.000000 -0.000030 -1.612402 -1.570772
  2   -0.000007 0.000008 4.427393 -0.009274 -3.118352 -0.508768
  3   18.465939 0.000000 0.000000 0.000000 0.000000 -0.955358
  4   14.875443 0.000000 -0.000001 0.018622 -0.007742 0.469464
  5   0.000006 -0.000004 -4.427393 -0.003524 3.235489 0.065641
  6   18.465939 0.000000 0.000000 0.000000 0.000000 -0.358431
  7   14.875442 0.000000 0.000000 0.001129 -0.056817 0.372818
  8   2.255207 -0.007574 -0.093750 0.011274 0.013793 0.001358
  9   9.514219 -0.009357 0.000000 0.002388 0.027409 -0.012708
 10   11.751820 -0.001633 0.000000 0.000000 -0.000001 0.196949
 11   -2.148747 0.354827 2.649729 0.783174 -1.466098 2.163450
 12   4.640941 0.000000 -0.000001 0.127124 1.291147 0.150739
 13   10.828049 0.000000 0.000000 0.000000 0.000000 -0.163744
 14   9.393337 -0.000001 0.000000 -1.569611 0.034172 0.000037
 15   1.442245 0.107454 -1.746177 1.686435 0.539209 0.325885
 16   1.063452 0.000000 0.000001 0.000000 0.000000 0.199056
 17   1.376307 -0.000001 0.000001 0.000000 0.000000 0.199049
 18   4.172846 -0.251366 -1.312744 0.008050 0.095731 0.148659
 19   1.215374 0.000002 0.000000 0.000000 0.000000 0.645758
 20   1.215371 -0.000002 0.000001 0.000000 0.000000 0.645758
 21   4.220534 -0.244854 -0.431465 0.001333 0.026242 0.148339
 22   1.350417 0.000000 0.000001 0.000000 0.000000 0.863926
 23   1.350410 -0.000001 -0.000001 0.000000 0.000000 0.863926
 24   -2.148747 0.354840 -2.649726 -0.678501 1.461953 2.268325
 25   4.640942 0.000000 0.000001 0.268931 -1.230740 -0.398364
 26   10.828047 0.000000 0.000001 0.000000 0.000000 -0.358386
 27   9.393339 0.000000 0.000000 1.569611 -0.034192 0.000001
 28   1.442245 0.107455 1.746178 -1.686405 -0.539236 0.325898
 29   1.063450 -0.000001 0.000000 0.000000 0.000000 0.199056
 30   1.376307 0.000000 0.000000 0.000000 0.000000 0.199059
 31   4.172847 -0.251365 1.312745 -0.008050 -0.095731 0.148659
 32   1.215373 -0.000001 0.000000 0.000000 0.000000 0.645746
 33   1.215372 0.000000 0.000000 0.000000 0.000000 0.645746
 34   4.220534 -0.244853 0.431466 -0.001333 -0.026242 0.148339
 35   1.350416 0.000000 -0.000001 0.000000 0.000000 0.863937
 36   1.350410 0.000000 0.000001 0.000000 0.000000 0.863925
 37   2.110540 -0.000001 0.000000 -0.013926 0.002849 -0.011711
 38   0.891923 2.373051 -0.014527 -3.141592 -0.000001 1.413797
 39   7.228122 5.709445 3.726568 3.140796 -1.570796 0.000000
 40   2.450426 5.076128 0.001325 3.140791 -1.570796 0.000000
 41   6.312404 -4.528058 0.001311 3.140791 -1.570796 0.000000
 42   2.233309 1.152535 -7.309138 -1.467350 -1.484383 -0.173099
 43   4.262825 -0.232720 -1.392178 0.016840 0.076668 0.253759
time 12
  0   -0.461650 -9.093407 38.405418 0.007478 0.000000 -1.570843
  1   -0.300463 -0.183599 0.000000 -0.000030 -1.607817 -1.570772
  2   -0.000007 0.000008 4.427393 -0.011947 -3.122352 -0.568914
  3   18.465939 0.000000 0.000000 0.000000 0.000000 -0.862878
  4   14.875443 0.000000 -0.000001 0.023034 -0.009147 0.425694
  5   0.000006 -0.000004 -4.427393 -0.003333 3.229151 0.098958
  6   18.465939 0.000000 0.000000 0.000000 0.000000 -0.406346
  7   14.875442 0.000000 0.000000 0.001585 -0.049990 0.403958
  8   2.255207 -0.007574 -0.082031 0.018078 0.009191 0.010987
  9   9.514219 -0.009357 0.000000 0.001755 0.027157 -0.013011
 10   11.751820 -0.001633 0.000000 0.000000 -0.000001 0.192708
 11   -2.148747 0.347014 2.649729 0.618283 -1.470249 2.332249
 12   4.640941 0.000000 -0.000001 0.173592 1.283640 0.190779
 13   10.828049 0.000000 0.000000 0.000000 0.000000 -0.142328
 14   9.393337 -0.000001 0.000000 -1.569611 0.034172 0.000037
 15   1.442245 0.107454 -1.746177 1.686435 0.539209 0.325885
 16   1.063452 0.000000 0.000001 0.000000 0.000000 0.199056
 17   1.376307 -0.000001 0.000001 0.000000 0.000000 0.199049
 18   4.172846 -0.251366 -1.312744 0.008050 0.095731 0.148659
 19   1.215374 0.000002 0.000000 0.000000 0.000000 0.645758
 20   1.215371 -0.000002 0.000001 0.000000 0.000000 0.645758
 21   4.220534 -0.244854 -0.431465 0.001333 0.026242 0.148339
 22   1.350417 0.000000 0.000001 0.000000 0.000000 0.863926
 23   1.350410 -0.000001 -0.000001 0.000000 0.000000 0.863926
 24   -2.148747 0.347027 -2.649726 -0.438543 1.465795 2.511729
 25   4.640942 0.000000 0.000001 0.296458 -1.204797 -0.477877
 26   10.828047 0.000000 0.000001 0.000000 0.000000 -0.392654
 27   9.393339 0.000000 0.000000 1.569611 -0.034192 0.000001
 28   1.442245 0.107455 1.746178 -1.686405 -0.539236 0.325898
 29   1.063450 -0.000001 0.000000 0.000000 0.000000 0.199056
 30   1.376307 0.000000 0.000000 0.000000 0.000000 0.199059
 31   4.172847 -0.251365 1.312745 -0.008050 -0.095731 0.148659
 32   1.215373 -0.000001 0.000000 0.000000 0.000000 0.645746
 33   1.215372 0.000000 0.000000 0.000000 0.000000 0.645746
 34   4.220534 -0.244853 0.431466 -0.001333 -0.026242 0.148339
 35   1.350416 0.000000 -0.000001 0.000000 0.000000 0.863937
 36   1.350410 0.000000 0.000001 0.000000 0.000000 0.863925
 37   2.110540 -0.000001 0.000000 -0.019744 0.003939 -0.017129
 38   0.891923 2.373051 -0.014527 -3.141592 -0.000001 1.413797
 39   7.228122 5.709445 3.726568 3.140796 -1.570796 0.000000
 40   2.450426 5.076128 0.001325 3.140791 -1.570796 0.000000
 41   6.312404 -4.528058 0.001311 3.140791 -1.570796 0.000000
 42   2.233309 1.152535 -7.309138 -1.481443 -1.492858 -0.129058
 43   4.262825 -0.232720 -1.392178 0.016840 0.076668 0.253759
time 13
  0   -0.380517 -11.098513 38.202286 0.006328 0.000000 -1.570843
  1   -0.413748 -0.179693 0.000000 -0.000030 -1.602255 -1.570772
  2   -0.000007 0.000008 4.427393 -0.015957 -3.126911 -0.585472
  3   18.465939 0.000000 0.000000 0.000000 0.000000 -0.721854
  4   14.875443 0.000000 -0.000001 0.026335 -0.010764 0.338865
  5   0.000006 -0.000004 -4.427393 -0.002950 3.221042 0.144067
  6   18.465939 0.000000 0.000000 0.000000 0.000000 -0.422492
  7   14.875442 0.000000 0.000000 0.001024 -0.042136 0.413637
  8   2.255207 -0.007574 -0.070312 0.024547 0.004373 0.021376
  9   9.514219 -0.009357 0.000000 0.001056 0.026078 -0.013314
 10   11.751820 -0.001633 0.000000 0.000000 -0.000001 0.188279
 11   -2.152654 0.335295 2.649729 0.442843 -1.471362 2.511628
 12   4.640941 0.000000 -0.000001 0.208123 1.275443 0.216536
 13   10.828049 0.000000 0.000000 0.000000 0.000000 -0.124025
 14   9.393337 -0.000001 0.000000 -1.569611 0.034172 0.000037
 15   1.442245 0.107454 -1.746177 1.686435 0.539209 0.325885
 16   1.063452 0.000000 0.000001 0.000000 0.000000 0.199056
 17   1.376307 -0.000001 0.000001 0.000000 0.000000 0.199049
 18   4.172846 -0.251366 -1.312744 0.008050 0.095731 0.148659
 19   1.215374 0.000002 0.000000 0.000000 0.000000 0.645758
 20   1.215371 -0.000002 0.000001 0.000000 0.000000 0.645758
 21   4.220534 -0.244854 -0.431465 0.001333 0.026242 0.148339
 22   1.350417 0.000000 0.000001 0.000000 0.000000 0.863926
 23   1.350410 -0.000001 -0.000001 0.000000 0.000000 0.863926
 24   -2.152654 0.335308 -2.649726 -0.199025 1.463511 2.754651
 25   4.640942 0.000000 0.000001 0.314415 -1.179761 -0.545280
 26   10.828047 0.000000 0.000001 0.000000 0.000000 -0.423670
 27   9.393339 0.000000 0.000000 1.569611 -0.034192 0.000001
 28   1.442245 0.107455 1.746178 -1.686405 -0.539236 0.325898
 29   1.063450 -0.000001 0.000000 0.000000 0.000000 0.199056
 30   1.376307 0.000000 0.000000 0.000000 0.000000 0.199059
 31   4.172847 -0.251365 1.312745 -0.008050 -0.095731 0.148659
 32   1.215373 -0.000001 0.000000 0.000000 0.000000 0.645746
 33   1.215372 0.000000 0.000000 0.000000 0.000000 0.645746
 34   4.220534 -0.244853 0.431466 -0.001333 -0.026242 0.148339
 35   1.350416 0.000000 -0.000001 0.000000 0.000000 0.863937
 36   1.350410 0.000000 0.000001 0.000000 0.000000 0.863925
 37   2.110540 -0.000001 0.000000 -0.025276 0.004888 -0.023064
 38   0.891923 2.373051 -0.014527 -3.141592 -0.000001 1.413797
 39   7.228122 5.709445 3.726568 3.140796 -1.570796 0.000000
 40   2.450426 5.076128 0.001325 3.140791 -1.570796 0.000000
 41   6.312404 -4.528058 0.001311 3.140791 -1.570796 0.000000
 42   2.233309 1.152535 -7.309138 -1.505986 -1.502265 -0.070752
 43   4.262825 -0.232720 -1.392178 0.016840 0.076668 0.253759
time 14
  0   -0.299384 -12.993506 38.053844 0.004890 0.000000 -1.570843
  1   -0.515314 -0.171880 0.000000 -0.000030 -1.595874 -1.570772
  2   -0.000007 0.000008 4.427393 -0.020730 -3.131841 -0.528218
  3   18.465939 0.000000 0.000000 0.000000 0.000000 -0.477529
  4   14.875443 0.000000 -0.000001 0.028128 -0.012829 0.183261
  5   0.000006 -0.000004 -4.427393 -0.001706 3.212001 0.192732
  6   18.465939 0.000000 0.000000 0.000000 0.000000 -0.418357
  7   14.875442 0.000000 0.000000 -0.000204 -0.033692 0.402757
  8   2.255207 -0.007574 -0.054686 0.029902 -0.000540 0.030840
  9   9.514219 -0.009357 0.000000 0.000356 0.024281 -0.013552
 10   11.751820 -0.001633 0.000000 0.000000 -0.000001 0.183689
 11   -2.152654 0.327482 2.649729 0.291838 -1.469661 2.666618
 12   4.640941 0.000000 -0.000001 0.231063 1.267935 0.230585
 13   10.828049 0.000000 0.000000 0.000000 0.000000 -0.110114
 14   9.393337 -0.000001 0.000000 -1.569611 0.034172 0.000037
 15   1.442245 0.107454 -1.746177 1.686435 0.539209 0.325885
 16   1.063452 0.000000 0.000001 0.000000 0.000000 0.199056
 17   1.376307 -0.000001 0.000001 0.000000 0.000000 0.199049
 18   4.172846 -0.251366 -1.312744 0.008050 0.095731 0.148659
 19   1.215374 0.000002 0.000000 0.000000 0.000000 0.645758
 20   1.215371 -0.000002 0.000001 0.000000 0.000000 0.645758
 21   4.220534 -0.244854 -0.431465 0.001333 0.026242 0.148339
 22   1.350417 0.000000 0.000001 0.000000 0.000000 0.863926
 23   1.350410 -0.000001 -0.000001 0.000000 0.000000 0.863926
 24   -2.152654 0.327495 -2.649726 -0.009772 1.457011 2.947352
 25   4.640942 0.000000 0.000001 0.324087 -1.158839 -0.596586
 26   10.828047 0.000000 0.000001 0.000000 0.000000 -0.448819
 27   9.393339 0.000000 0.000000 1.569611 -0.034192 0.000001
 28   1.442245 0.107455 1.746178 -1.686405 -0.539236 0.325898
 29   1.063450 -0.000001 0.000000 0.000000 0.000000 0.199056
 30   1.376307 0.000000 0.000000 0.000000 0.000000 0.199059
 31   4.172847 -0.251365 1.312745 -0.008050 -0.095731 0.148659
 32   1.215373 -0.000001 0.000000 0.000000 0.000000 0.645746
 33   1.215372 0.000000 0.000000 0.000000 0.000000 0.645746
 34   4.220534 -0.244853 0.431466 -0.001333 -0.026242 0.148339
 35   1.350416 0.000000 -0.000001 0.000000 0.000000 0.863937
 36   1.350410 0.000000 0.000001 0.000000 0.000000 0.863925
 37   2.110540 -0.000001 0.000000 -0.029807 0.005642 -0.027880
 38   0.891923 2.373051 -0.014527 -3.141592 -0.000001 1.413797
 39   7.228122 5.709445 3.726568 3.140796 -1.570796 0.000000
 40   2.450426 5.076128 0.001325 3.140791 -1.570796 0.000000
 41   6.312404 -4.528058 0.001311 3.140791 -1.570796 0.000000
 42   2.233309 1.152535 -7.309138 -1.545390 -1.511847 0.003638
 43   4.262825 -0.232720 -1.392178 0.016840 0.076668 0.253759
time 15
  0   -0.218252 -14.640753 38.069469 0.003356 0.000000 -1.570843
  1   -0.585628 -0.160161 0.000000 -3.141560 -1.552716 1.570772
  2   -0.000007 0.000008 4.427393 -0.024930 -3.138168 -0.427475
  3   18.465939 0.000000 0.000000 0.000000 0.000000 -0.184734
  4   14.875443 0.000000 -0.000001 0.028783 -0.014659 -0.015362
  5   0.000006 -0.000004 -4.427393 0.000016 3.202307 0.242520
  6   18.465939 0.000000 0.000000 0.000000 0.000000 -0.390790
  7   14.875442 0.000000 0.000000 -0.001468 -0.024506 0.363288
  8   2.255207 -0.007574 -0.039061 0.033494 -0.005394 0.037589
  9   9.514219 -0.009357 0.000000 -0.000251 0.021872 -0.013638
 10   11.751820 -0.001633 0.000000 0.000000 -0.000001 0.179046
 11   -2.152654 0.315763 2.649729 0.193723 -1.466909 2.769052
 12   4.640941 0.000000 -0.000001 0.242655 1.262563 0.235385
 13   10.828049 0.000000 0.000000 0.000000 0.000000 -0.101694
 14   9.393337 -0.000001 0.000000 -1.569611 0.034172 0.000037
 15   1.442245 0.107454 -1.746177 1.686435 0.539209 0.325885
 16   1.063452 0.000000 0.000001 0.000000 0.000000 0.199056
 17   1.376307 -0.000001 0.000001 0.000000 0.000000 0.199049
 18   4.172846 -0.251366 -1.312744 0.008050 0.095731 0.148659
 19   1.215374 0.000002 0.000000 0.000000 0.000000 0.645758
 20   1.215371 -0.000002 0.000001 0.000000 0.000000 0.645758
 21   4.220534 -0.244854 -0.431465 0.001333 0.026242 0.148339
 22   1.350417 0.000000 0.000001 0.000000 0.000000 0.863926
 23   1.350410 -0.000001 -0.000001 0.000000 0.000000 0.863926
 24   -2.152654 0.315776 -2.649726 0.106519 1.450490 3.067472
 25   4.640942 0.000000 0.000001 0.327586 -1.144822 -0.628363
 26   10.828047 0.000000 0.000001 0.000000 0.000000 -0.465082
 27   9.393339 0.000000 0.000000 1.569611 -0.034192 0.000001
 28   1.442245 0.107455 1.746178 -1.686405 -0.539236 0.325898
 29   1.063450 -0.000001 0.000000 0.000000 0.000000 0.199056
 30   1.376307 0.000000 0.000000 0.000000 0.000000 0.199059
 31   4.172847 -0.251365 1.312745 -0.008050 -0.095731 0.148659
 32   1.215373 -0.000001 0.000000 0.000000 0.000000 0.645746
 33   1.215372 0.000000 0.000000 0.000000 0.000000 0.645746
 34   4.220534 -0.244853 0.431466 -0.001333 -0.026242 0.148339
 35   1.350416 0.000000 -0.000001 0.000000 0.000000 0.863937
 36   1.350410 0.000000 0.000001 0.000000 0.000000 0.863925
 37   2.110540 -0.000001 0.000000 -0.032859 0.006089 -0.029988
 38   0.891923 2.373051 -0.014527 -3.141592 -0.000001 1.413797
 39   7.228122 5.709445 3.726568 3.140796 -1.570796 0.000000
 40   2.450426 5.076128 0.001325 3.140791 -1.570796 0.000000
 41   6.312404 -4.528058 0.001311 3.140791 -1.570796 0.000000
 42   2.233309 1.152535 -7.309138 -1.603489 -1.520876 0.095645
 43   4.262825 -0.232720 -1.392178 0.016840 0.076668 0.253759
time 16
  0   -0.137119 -16.122833 38.171036 0.001726 0.000000 -1.570843
  1   -0.612973 -0.140629 0.000000 -0.000030 -1.581402 -1.570772
  2   -0.000007 0.000008 4.427393 -0.026839 -3.146634 -0.352067
  3   18.465939 0.000000 0.000000 0.000000 0.000000 -0.001965
  4   14.875443 0.000000 -0.000001 0.027958 -0.015085 -0.129172
  5   0.000006 -0.000004 -4.427393 0.002312 3.191868 0.283698
  6   18.465939 0.000000 0.000000 0.000000 0.000000 -0.367423
  7   14.875442 0.000000 0.000000 -0.002416 -0.014256 0.310614
  8   2.255207 -0.007574 -0.023435 0.034670 -0.010032 0.039872
  9   9.514219 -0.009357 0.000000 -0.000699 0.018960 -0.013465
 10   11.751820 -0.001633 0.000000 0.000000 -0.000001 0.174402
 11   -2.156560 0.307950 2.649729 0.167164 -1.465271 2.800173
 12   4.640941 0.000000 -0.000001 0.242753 1.260496 0.233044
 13   10.828049 0.000000 0.000000 0.000000 0.000000 -0.100047
 14   9.393337 -0.000001 0.000000 -1.569611 0.034172 0.000037
 15   1.442245 0.107454 -1.746177 1.686435 0.539209 0.325885
 16   1.063452 0.000000 0.000001 0.000000 0.000000 0.199056
 17   1.376307 -0.000001 0.000001 0.000000 0.000000 0.199049
 18   4.172846 -0.251366 -1.312744 0.008050 0.095731 0.148659
 19   1.215374 0.000002 0.000000 0.000000 0.000000 0.645758
 20   1.215371 -0.000002 0.000001 0.000000 0.000000 0.645758
 21   4.220534 -0.244854 -0.431465 0.001333 0.026242 0.148339
 22   1.350417 0.000000 0.000001 0.000000 0.000000 0.863926
 23   1.350410 -0.000001 -0.000001 0.000000 0.000000 0.863926
 24   -2.156560 0.307963 -2.649726 0.143614 1.448039 3.108956
 25   4.640942 0.000000 0.000001 0.326609 -1.140707 -0.636622
 26   10.828047 0.000000 0.000001 0.000000 0.000000 -0.469729
 27   9.393339 0.000000 0.000000 1.569611 -0.034192 0.000001
 28   1.442245 0.107455 1.746178 -1.686405 -0.539236 0.325898
 29   1.063450 -0.000001 0.000000 0.000000 0.000000 0.199056
 30   1.376307 0.000000 0.000000 0.000000 0.000000 0.199059
 31   4.172847 -0.251365 1.312745 -0.008050 -0.095731 0.148659
 32   1.215373 -0.000001 0.000000 0.000000 0.000000 0.645746
 33   1.215372 0.000000 0.000000 0.000000 0.000000 0.645746
 34   4.220534 -0.244853 0.431466 -0.001333 -0.026242 0.148339
 35   1.350416 0.000000 -0.000001 0.000000 0.000000 0.863937
 36   1.350410 0.000000 0.000001 0.000000 0.000000 0.863925
 37   2.110540 -0.000001 0.000000 -0.033860 0.006257 -0.027751
 38   0.891923 2.373051 -0.014527 -3.141592 -0.000001 1.413797
 39   7.228122 5.709445 3.726568 3.140796 -1.570796 0.000000
 40   2.450426 5.076128 0.001325 3.140791 -1.570796 0.000000
 41   6.312404 -4.528058 0.001311 3.140791 -1.570796 0.000000
 42   2.233309 1.152535 -7.309138 -1.681241 -1.528565 0.203257
 43   4.262825 -0.232720 -1.392178 0.016840 0.076668 0.253759
time 17
  0   -0.055986 -17.577387 38.256973 0.000000 0.000000 -1.570843
  1   -0.589535 -0.113285 0.000000 -3.141560 -1.567922 1.570772
  2   -0.000007 0.000008 4.427393 -0.027317 -3.156495 -0.371318
  3   18.465939 0.000000 0.000000 0.000000 0.000000 -0.114697
  4   14.875443 0.000000 -0.000001 0.024428 0.002836 -0.114476
  5   0.000006 -0.000004 -4.427393 0.006235 3.182360 0.279486
  6   18.465939 0.000000 0.000000 0.000000 0.000000 -0.427415
  7   14.875442 0.000000 0.000000 -0.000240 -0.010129 0.253137
  8   2.255207 -0.007574 -0.003903 0.033725 -0.013927 0.037490
  9   9.514219 -0.009357 0.000000 -0.001029 0.015220 -0.013011
 10   11.751820 -0.001633 0.000000 0.000000 -0.000001 0.169812
 11   -2.156560 0.296231 2.649729 0.238872 -1.465764 2.733396
 12   4.640941 0.000000 -0.000001 0.221533 1.263389 0.215014
 13   10.828049 0.000000 0.000000 0.000000 0.000000 -0.107796
 14   9.393337 -0.000001 0.000000 -1.569611 0.034172 0.000037
 15   1.442245 0.107454 -1.746177 1.686435 0.539209 0.325885
 16   1.063452 0.000000 0.000001 0.000000 0.000000 0.199056
 17   1.376307 -0.000001 0.000001 0.000000 0.000000 0.199049
 18   4.172846 -0.251366 -1.312744 0.008050 0.095731 0.148659
 19   1.215374 0.000002 0.000000 0.000000 0.000000 0.645758
 20   1.215371 -0.000002 0.000001 0.000000 0.000000 0.645758
 21   4.220534 -0.244854 -0.431465 0.001333 0.026242 0.148339
 22   1.350417 0.000000 0.000001 0.000000 0.000000 0.863926
 23   1.350410 -0.000001 -0.000001 0.000000 0.000000 0.863926
 24   -2.156560 0.296244 -2.649726 0.080179 1.452712 3.050617
 25   4.640942 0.000000 0.000001 0.323573 -1.149215 -0.615134
 26   10.828047 0.000000 0.000001 0.000000 0.000000 -0.458112
 27   9.393339 0.000000 0.000000 1.569611 -0.034192 0.000001
 28   1.442245 0.107455 1.746178 -1.686405 -0.539236 0.325898
 29   1.063450 -0.000001 0.000000 0.000000 0.000000 0.199056
 30   1.376307 0.000000 0.000000 0.000000 0.000000 0.199059
 31   4.172847 -0.251365 1.312745 -0.008050 -0.095731 0.148659
 32   1.215373 -0.000001 0.000000 0.000000 0.000000 0.645746
 33   1.215372 0.000000 0.000000 0.000000 0.000000 0.645746
 34   4.220534 -0.244853 0.431466 -0.001333 -0.026242 0.148339
 35   1.350416 0.000000 -0.000001 0.000000 0.000000 0.863937
 36   1.350410 0.000000 0.000001 0.000000 0.000000 0.863925
 37   2.110540 -0.000001 0.000000 -0.032859 0.006089 -0.021129
 38   0.891923 2.373051 -0.014527 -3.141592 -0.000001 1.413797
 39   7.228122 5.709445 3.726568 3.140796 -1.570796 0.000000
 40   2.450426 5.076128 0.001325 3.140791 -1.570796 0.000000
 41   6.312404 -4.528058 0.001311 3.140791 -1.570796 0.000000
 42   2.233309 1.152535 -7.309138 -1.680954 -1.528827 0.202970
 43   4.262825 -0.232720 -1.392178 0.016840 0.076668 0.253759
time 18
  0   0.025147 -19.142048 38.471825 -0.001630 0.000000 -1.570843
  1   -0.530939 -0.082034 0.000000 -0.000030 -1.565866 -1.570772
  2   -0.000007 0.000008 4.427393 -0.025598 -3.168124 -0.340946
  3   18.465939 0.000000 0.000000 0.000000 0.000000 -0.129538
  4   14.875443 0.000000 -0.000001 0.017911 0.020140 -0.148133
  5   0.000006 -0.000004 -4.427393 0.008818 3.172574 0.283323
  6   18.465939 0.000000 0.000000 0.000000 0.000000 -0.453866
  7   14.875442 0.000000 0.000000 0.003130 -0.005146 0.140621
  8   2.255207 -0.007574 0.007816 0.031541 -0.016791 0.032064
  9   9.514219 -0.009357 0.000000 -0.001346 0.010463 -0.012318
 10   11.751820 -0.001633 0.000000 0.000000 -0.000001 0.165356
 11   -2.156560 0.288418 2.649729 0.401563 -1.465987 2.575863
 12   4.640941 0.000000 -0.000001 0.173739 1.270346 0.174155
 13   10.828049 0.000000 0.000000 0.000000 0.000000 -0.125184
 14   9.393337 -0.000001 0.000000 -1.569611 0.034172 0.000037
 15   1.442245 0.107454 -1.746177 1.686435 0.539209 0.325885
 16   1.063452 0.000000 0.000001 0.000000 0.000000 0.199056
 17   1.376307 -0.000001 0.000001 0.000000 0.000000 0.199049
 18   4.172846 -0.251366 -1.312744 0.008050 0.095731 0.148659
 19   1.215374 0.000002 0.000000 0.000000 0.000000 0.645758
 20   1.215371 -0.000002 0.000001 0.000000 0.000000 0.645758
 21   4.220534 -0.244854 -0.431465 0.001333 0.026242 0.148339
 22   1.350417 0.000000 0.000001 0.000000 0.000000 0.863926
 23   1.350410 -0.000001 -0.000001 0.000000 0.000000 0.863926
 24   -2.156560 0.288431 -2.649726 -0.094631 1.461600 2.881307
 25   4.640942 0.000000 0.000001 0.317502 -1.169300 -0.564389
 26   10.828047 0.000000 0.000001 0.000000 0.000000 -0.430756
 27   9.393339 0.000000 0.000000 1.569611 -0.034192 0.000001
 28   1.442245 0.107455 1.746178 -1.686405 -0.539236 0.325898
 29   1.063450 -0.000001 0.000000 0.000000 0.000000 0.199056
 30   1.376307 0.000000 0.000000 0.000000 0.000000 0.199059
 31   4.172847 -0.251365 1.312745 -0.008050 -0.095731 0.148659
 32   1.215373 -0.000001 0.000000 0.000000 0.000000 0.645746
 33   1.215372 0.000000 0.000000 0.000000 0.000000 0.645746
 34   4.220534 -0.244853 0.431466 -0.001333 -0.026242 0.148339
 35   1.350416 0.000000 -0.000001 0.000000 0.000000 0.863937
 36   1.350410 0.000000 0.000001 0.000000 0.000000 0.863925
 37   2.110540 -0.000001 0.000000 -0.030570 0.005754 -0.011711
 38   0.891923 2.373051 -0.014527 -3.141592 -0.000001 1.413797
 39   7.228122 5.709445 3.726568 3.140796 -1.570796 0.000000
 40   2.450426 5.076128 0.001325 3.140791 -1.570796 0.000000
 41   6.312404 -4.528058 0.001311 3.140791 -1.570796 0.000000
 42   2.233309 1.152535 -7.309138 -1.676831 -1.537594 0.199331
 43   4.262825 -0.232720 -1.392178 0.016840 0.076668 0.253759
time 19
  0   0.146846 -21.312323 38.581203 -0.003260 0.000000 -1.570843
  1   -0.452812 -0.042970 0.000000 -0.000030 -1.558149 -1.570772
  2   -0.000007 0.000008 4.427393 -0.025217 -3.179288 -0.346432
  3   18.465939 0.000000 0.000000 0.000000 0.000000 -0.272828
  4   14.875443 0.000000 -0.000001 0.010966 0.034741 -0.072958
  5   0.000006 -0.000004 -4.427393 0.009679 3.161855 0.340411
  6   18.465939 0.000000 0.000000 0.000000 0.000000 -0.394334
  7   14.875442 0.000000 0.000000 0.005200 0.001491 -0.004834
  8   2.255207 -0.007574 0.027348 0.028390 -0.018793 0.024387
  9   9.514219 -0.009357 0.000000 -0.001649 0.004998 -0.011452
 10   11.751820 -0.001633 0.000000 0.000000 -0.000001 0.161088
 11   -2.160467 0.276699 2.649729 0.610694 -1.462456 2.371821
 12   4.640941 0.000000 -0.000001 0.105659 1.278405 0.114329
 13   10.828049 0.000000 0.000000 0.000000 0.000000 -0.149589
 14   9.393337 -0.000001 0.000000 -1.569611 0.034172 0.000037
 15   1.442245 0.107454 -1.746177 1.686435 0.539209 0.325885
 16   1.063452 0.000000 0.000001 0.000000 0.000000 0.199056
 17   1.376307 -0.000001 0.000001 0.000000 0.000000 0.199049
 18   4.172846 -0.251366 -1.312744 0.008050 0.095731 0.148659
 19   1.215374 0.000002 0.000000 0.000000 0.000000 0.645758
 20   1.215371 -0.000002 0.000001 0.000000 0.000000 0.645758
 21   4.220534 -0.244854 -0.431465 0.001333 0.026242 0.148339
 22   1.350417 0.000000 0.000001 0.000000 0.000000 0.863926
 23   1.350410 -0.000001 -0.000001 0.000000 0.000000 0.863926
 24   -2.160467 0.276712 -2.649726 -0.367469 1.467353 2.614030
 25   4.640942 0.000000 0.000001 0.302581 -1.197335 -0.488446
 26   10.828047 0.000000 0.000001 0.000000 0.000000 -0.392771
 27   9.393339 0.000000 0.000000 1.569611 -0.034192 0.000001
 28   1.442245 0.107455 1.746178 -1.686405 -0.539236 0.325898
 29   1.063450 -0.000001 0.000000 0.000000 0.000000 0.199056
 30   1.376307 0.000000 0.000000 0.000000 0.000000 0.199059
 31   4.172847 -0.251365 1.312745 -0.008050 -0.095731 0.148659
 32   1.215373 -0.000001 0.000000 0.000000 0.000000 0.645746
 33   1.215372 0.000000 0.000000 0.000000 0.000000 0.645746
 34   4.220534 -0.244853 0.431466 -0.001333 -0.026242 0.148339
 35   1.350416 0.000000 -0.000001 0.000000 0.000000 0.863937
 36   1.350410 0.000000 0.000001 0.000000 0.000000 0.863925
 37   2.110540 -0.000001 0.000000 -0.027184 0.005223 -0.000444
 38   0.891923 2.373051 -0.014527 -3.141592 -0.000001 1.413797
 39   7.228122 5.709445 3.726568 3.140796 -1.570796 0.000000
 40   2.450426 5.076128 0.001325 3.140791 -1.570796 0.000000
 41   6.312404 -4.528058 0.001311 3.140791 -1.570796 0.000000
 42   2.233309 1.152535 -7.309138 -1.747010 -1.546419 0.315082
 43   4.262825 -0.232720 -1.392178 0.016840 0.076668 0.253759
time 20
  0   0.288828 -23.455067 38.768711 -0.004890 0.000000 -1.570843
  1   -0.359059 0.000000 0.000000 -0.000030 -1.550690 -1.570772
  2   -0.000007 0.000008 4.427393 -0.024071 -3.190545 -0.313965
  3   18.465939 0.000000 0.000000 0.000000 0.000000 -0.356609
  4   14.875443 0.000000 -0.000001 0.007778 0.038870 0.043300
  5   0.000006 -0.000004 -4.427393 0.013985 3.155143 0.262547
  6   18.465939 0.000000 0.000000 0.000000 0.000000 -0.589471
  7   14.875442 0.000000 0.000000 0.006043 0.001985 -0.079832
  8   2.255207 -0.007574 0.042973 0.024505 -0.020123 0.015421
  9   9.514219 -0.009357 0.000000 -0.001926 -0.000839 -0.010521
 10   11.751820 -0.001633 0.000000 0.000000 -0.000001 0.157089
 11   -2.160467 0.268886 2.649729 0.810568 -1.454059 2.176572
 12   4.640941 0.000000 -0.000001 0.025495 1.284810 0.041157
 13   10.828049 0.000000 0.000000 0.000000 0.000000 -0.178509
 14   9.393337 -0.000001 0.000000 -1.569611 0.034172 0.000037
 15   1.442245 0.107454 -1.746177 1.686435 0.539209 0.325885
 16   1.063452 0.000000 0.000001 0.000000 0.000000 0.199056
 17   1.376307 -0.000001 0.000001 0.000000 0.000000 0.199049
 18   4.172846 -0.251366 -1.312744 0.008050 0.095731 0.148659
 19   1.215374 0.000002 0.000000 0.000000 0.000000 0.645758
 20   1.215371 -0.000002 0.000001 0.000000 0.000000 0.645758
 21   4.220534 -0.244854 -0.431465 0.001333 0.026242 0.148339
 22   1.350417 0.000000 0.000001 0.000000 0.000000 0.863926
 23   1.350410 -0.000001 -0.000001 0.000000 0.000000 0.863926
 24   -2.160467 0.268899 -2.649726 -0.674198 1.464258 2.312286
 25   4.640942 0.000000 0.000001 0.272019 -1.229206 -0.390525
 26   10.828047 0.000000 0.000001 0.000000 0.000000 -0.348977
 27   9.393339 0.000000 0.000000 1.569611 -0.034192 0.000001
 28   1.442245 0.107455 1.746178 -1.686405 -0.539236 0.325898
 29   1.063450 -0.000001 0.000000 0.000000 0.000000 0.199056
 30   1.376307 0.000000 0.000000 0.000000 0.000000 0.199059
 31   4.172847 -0.251365 1.312745 -0.008050 -0.095731 0.148659
 32   1.215373 -0.000001 0.000000 0.000000 0.000000 0.645746
 33   1.215372 0.000000 0.000000 0.000000 0.000000 0.645746
 34   4.220534 -0.244853 0.431466 -0.001333 -0.026242 0.148339
 35   1.350416 0.000000 -0.000001 0.000000 0.000000 0.863937
 36   1.350410 0.000000 0.000001 0.000000 0.000000 0.863925
 37   2.110540 -0.000001 0.000000 -0.022987 0.004525 0.011856
 38   0.891923 2.373051 -0.014527 -3.141592 -0.000001 1.413797
 39   7.228122 5.709445 3.726568 3.140796 -1.570796 0.000000
 40   2.450426 5.076128 0.001325 3.140791 -1.570796 0.000000
 41   6.312404 -4.528058 0.001311 3.140791 -1.570796 0.000000
 42   2.233309 1.152535 -7.309138 -1.691116 -1.552884 0.195693
 43   4.262825 -0.232720 -1.392178 0.016840 0.076668 0.253759
time 21
  0   0.430810 -25.377590 38.944496 -0.006424 0.000000 -1.570843
  1   -0.261399 0.039064 0.000000 -0.000030 -1.543677 -1.570772
  2   -0.000007 0.000008 4.427393 -0.020825 -3.202081 -0.257908
  3   18.465939 0.000000 0.000000 0.000000 0.000000 -0.372693
  4   14.875443 0.000000 -0.000001 0.004704 0.043233 0.115513
  5   0.000006 -0.000004 -4.427393 0.017525 3.149458 0.141727
  6   18.465939 0.000000 0.000000 0.000000 0.000000 -0.853527
  7   14.875442 0.000000 0.000000 0.006148 -0.000544 -0.137534
  8   2.255207 -0.007574 0.058599 0.020074 -0.020926 0.006024
  9   9.514219 -0.009357 0.000000 -0.002164 -0.006771 -0.009590
 10   11.751820 -0.001633 0.000000 0.000000 -0.000001 0.153439
 11   -2.160467 0.261074 2.649729 0.961649 -1.443261 2.029551
 12   4.640941 0.000000 -0.000001 -0.055898 1.287634 -0.037167
 13   10.828049 0.000000 0.000000 0.000000 0.000000 -0.209381
 14   9.393337 -0.000001 0.000000 -1.569611 0.034172 0.000037
 15   1.442245 0.107454 -1.746177 1.686435 0.539209 0.325885
 16   1.063452 0.000000 0.000001 0.000000 0.000000 0.199056
 17   1.376307 -0.000001 0.000001 0.000000 0.000000 0.199049
 18   4.172846 -0.251366 -1.312744 0.008050 0.095731 0.148659
 19   1.215374 0.000002 0.000000 0.000000 0.000000 0.645758
 20   1.215371 -0.000002 0.000001 0.000000 0.000000 0.645758
 21   4.220534 -0.244854 -0.431465 0.001333 0.026242 0.148339
 22   1.350417 0.000000 0.000001 0.000000 0.000000 0.863926
 23   1.350410 -0.000001 -0.000001 0.000000 0.000000 0.863926
 24   -2.160467 0.261087 -2.649726 -0.923857 1.453293 2.066818
 25   4.640942 0.000000 0.000001 0.220773 -1.260031 -0.274895
 26   10.828047 0.000000 0.000001 0.000000 0.000000 -0.304486
 27   9.393339 0.000000 0.000000 1.569611 -0.034192 0.000001
 28   1.442245 0.107455 1.746178 -1.686405 -0.539236 0.325898
 29   1.063450 -0.000001 0.000000 0.000000 0.000000 0.199056
 30   1.376307 0.000000 0.000000 0.000000 0.000000 0.199059
 31   4.172847 -0.251365 1.312745 -0.008050 -0.095731 0.148659
 32   1.215373 -0.000001 0.000000 0.000000 0.000000 0.645746
 33   1.215372 0.000000 0.000000 0.000000 0.000000 0.645746
 34   4.220534 -0.244853 0.431466 -0.001333 -0.026242 0.148339
 35   1.350416 0.000000 -0.000001 0.000000 0.000000 0.863937
 36   1.350410 0.000000 0.000001 0.000000 0.000000 0.863925
 37   2.110540 -0.000001 0.000000 -0.018122 0.003631 0.024198
 38   0.891923 2.373051 -0.014527 -3.141592 -0.000001 1.413797
 39   7.228122 5.709445 3.726568 3.140796 -1.570796 0.000000
 40   2.450426 5.076128 0.001325 3.140791 -1.570796 0.000000
 41   6.312404 -4.528058 0.001311 3.140791 -1.570796 0.000000
 42   2.233309 1.152535 -7.309138 -1.498987 -1.558476 -0.080996
 43   4.262825 -0.232720 -1.392178 0.016840 0.076668 0.253759
time 22
  0   0.491660 -26.859669 38.936684 -0.007862 0.000000 -1.570843
  1   -0.171553 0.078127 0.000000 -0.000030 -1.537296 -1.570772
  2   -0.000007 0.000008 4.427393 -0.017771 -3.211291 -0.220403
  3   18.465939 0.000000 0.000000 0.000000 0.000000 -0.401424
  4   14.875443 0.000000 -0.000001 0.002114 0.046298 0.181681
  5   0.000006 -0.000004 -4.427393 0.019247 3.143399 0.010425
  6   18.465939 0.000000 0.000000 0.000000 0.000000 -1.040722
  7   14.875442 0.000000 0.000000 0.005621 -0.003282 -0.126129
  8   2.255207 -0.007574 0.074224 0.015306 -0.021382 -0.002910
  9   9.514219 -0.009357 0.000000 -0.002349 -0.012476 -0.008724
 10   11.751820 -0.001633 0.000000 0.000000 -0.000001 0.150164
 11   -2.160467 0.253261 2.649729 1.050355 -1.434307 1.944292
 12   4.640941 0.000000 -0.000001 -0.125796 1.286257 -0.110808
 13   10.828049 0.000000 0.000000 0.000000 0.000000 -0.239643
 14   9.393337 -0.000001 0.000000 -1.569611 0.034172 0.000037
 15   1.442245 0.107454 -1.746177 1.686435 0.539209 0.325885
 16   1.063452 0.000000 0.000001 0.000000 0.000000 0.199056
 17   1.376307 -0.000001 0.000001 0.000000 0.000000 0.199049
 18   4.172846 -0.251366 -1.312744 0.008050 0.095731 0.148659
 19   1.215374 0.000002 0.000000 0.000000 0.000000 0.645758
 20   1.215371 -0.000002 0.000001 0.000000 0.000000 0.645758
 21   4.220534 -0.244854 -0.431465 0.001333 0.026242 0.148339
 22   1.350417 0.000000 0.000001 0.000000 0.000000 0.863926
 23   1.350410 -0.000001 -0.000001 0.000000 0.000000 0.863926
 24   -2.160467 0.253274 -2.649726 -1.078034 1.440958 1.916152
 25   4.640942 0.000000 0.000001 0.149307 -1.284858 -0.151216
 26   10.828047 0.000000 0.000001 0.000000 0.000000 -0.264294
 27   9.393339 0.000000 0.000000 1.569611 -0.034192 0.000001
 28   1.442245 0.107455 1.746178 -1.686405 -0.539236 0.325898
 29   1.063450 -0.000001 0.000000 0.000000 0.000000 0.199056
 30   1.376307 0.000000 0.000000 0.000000 0.000000 0.199059
 31   4.172847 -0.251365 1.312745 -0.008050 -0.095731 0.148659
 32   1.215373 -0.000001 0.000000 0.000000 0.000000 0.645746
 33   1.215372 0.000000 0.000000 0.000000 0.000000 0.645746
 34   4.220534 -0.244853 0.431466 -0.001333 -0.026242 0.148339
 35   1.350416 0.000000 -0.000001 0.000000 0.000000 0.863937
 36   1.350410 0.000000 0.000001 0.000000 0.000000 0.863925
 37   2.110540 -0.000001 0.000000 -0.012876 0.002626 0.035680
 38   0.891923 2.373051 -0.014527 -3.141592 -0.000001 1.413797
 39   7.228122 5.709445 3.726568 3.140796 -1.570796 0.000000
 40   2.450426 5.076128 0.001325 3.140791 -1.570796 0.000000
 41   6.312404 -4.528058 0.001311 3.140791 -1.570796 0.000000
 42   2.233309 1.152535 -7.309138 -1.227189 -1.563253 -0.449022
 43   4.262825 -0.232720 -1.392178 0.016840 0.076668 0.253759
time 23
  0   0.552509 -28.479385 38.874180 -0.009108 0.000000 -1.570843
  1   -0.093426 0.113285 0.000000 -0.000030 -1.531720 -1.570772
  2   -0.000007 0.000008 4.427393 -0.013857 -3.219199 -0.175468
  3   18.465939 0.000000 0.000000 0.000000 0.000000 -0.420505
  4   14.875443 0.000000 -0.000001 0.000150 0.048916 0.245598
  5   0.000006 -0.000004 -4.427393 0.018864 3.136502 -0.135009
  6   18.465939 0.000000 0.000000 0.000000 0.000000 -1.086602
  7   14.875442 0.000000 0.000000 0.002077 -0.006097 0.014975
  8   2.255207 -0.007574 0.085943 0.010371 -0.021621 -0.010487
  9   9.514219 -0.009357 0.000000 -0.002467 -0.017617 -0.008032
 10   11.751820 -0.001633 0.000000 0.000000 -0.000001 0.147372
 11   -2.164373 0.249355 2.649729 1.071981 -1.431524 1.925537
 12   4.640941 0.000000 -0.000001 -0.171428 1.280609 -0.169697
 13   10.828049 0.000000 0.000000 0.000000 0.000000 -0.266732
 14   9.393337 -0.000001 0.000000 -1.569611 0.034172 0.000037
 15   1.442245 0.107454 -1.746177 1.686435 0.539209 0.325885
 16   1.063452 0.000000 0.000001 0.000000 0.000000 0.199056
 17   1.376307 -0.000001 0.000001 0.000000 0.000000 0.199049
 18   4.172846 -0.251366 -1.312744 0.008050 0.095731 0.148659
 19   1.215374 0.000002 0.000000 0.000000 0.000000 0.645758
 20   1.215371 -0.000002 0.000001 0.000000 0.000000 0.645758
 21   4.220534 -0.244854 -0.431465 0.001333 0.026242 0.148339
 22   1.350417 0.000000 0.000001 0.000000 0.000000 0.863926
 23   1.350410 -0.000001 -0.000001 0.000000 0.000000 0.863926
 24   -2.164373 0.249368 -2.649726 -1.139099 1.434437 1.857950
 25   4.640942 0.000000 0.000001 0.068322 -1.299433 -0.038876
 26   10.828047 0.000000 0.000001 0.000000 0.000000 -0.233336
 27   9.393339 0.000000 0.000000 1.569611 -0.034192 0.000001
 28   1.442245 0.107455 1.746178 -1.686405 -0.539236 0.325898
 29   1.063450 -0.000001 0.000000 0.000000 0.000000 0.199056
 30   1.376307 0.000000 0.000000 0.000000 0.000000 0.199059
 31   4.172847 -0.251365 1.312745 -0.008050 -0.095731 0.148659
 32   1.215373 -0.000001 0.000000 0.000000 0.000000 0.645746
 33   1.215372 0.000000 0.000000 0.000000 0.000000 0.645746
 34   4.220534 -0.244853 0.431466 -0.001333 -0.026242 0.148339
 35   1.350416 0.000000 -0.000001 0.000000 0.000000 0.863937
 36   1.350410 0.000000 0.000001 0.000000 0.000000 0.863925
 37   2.110540 -0.000001 0.000000 -0.007440 0.001536 0.045485
 38   0.891923 2.373051 -0.014527 -3.141592 -0.000001 1.413797
 39   7.228122 5.709445 3.726568 3.140796 -1.570796 0.000000
 40   2.450426 5.076128 0.001325 3.140791 -1.570796 0.000000
 41   6.312404 -4.528058 0.001311 3.140791 -1.570796 0.000000
 42   2.233309 1.152535 -7.309138 -0.677456 -1.569340 -1.116429
 43   4.262825 -0.232720 -1.392178 0.016840 0.076668 0.253759
time 24
  0   0.552509 -31.035048 38.729645 -0.010067 0.000000 -1.570843
  1   -0.038736 0.144536 0.000000 -0.000030 -1.527135 -1.570772
  2   -0.000007 0.000008 4.427393 -0.006506 -3.224967 -0.091382
  3   18.465939 0.000000 0.000000 0.000000 0.000000 -0.416192
  4   14.875443 0.000000 -0.000001 -0.001074 0.050087 0.325079
  5   0.000006 -0.000004 -4.427393 0.016472 3.130443 -0.291111
  6   18.465939 0.000000 0.000000 0.000000 0.000000 -1.055753
  7   14.875442 0.000000 0.000000 -0.004486 -0.007809 0.225186
  8   2.255207 -0.007574 0.097662 0.005435 -0.021777 -0.015781
  9   9.514219 -0.009357 0.000000 -0.002520 -0.021920 -0.007599
 10   11.751820 -0.001633 0.000000 0.000000 -0.000001 0.145118
 11   -2.164373 0.245448 2.649729 1.028804 -1.436550 1.970880
 12   4.640941 0.000000 -0.000001 -0.204339 1.269313 -0.231220
 13   10.828049 0.000000 0.000000 0.000000 0.000000 -0.295164
 14   9.393337 -0.000001 0.000000 -1.569611 0.035016 0.000037
 15   1.442245 0.107454 -1.746177 1.686902 0.539123 0.326808
 16   1.063452 0.000000 0.000001 0.000000 0.000000 0.199092
 17   1.376307 -0.000001 0.000001 0.000000 0.000000 0.199090
 18   4.172846 -0.251366 -1.312744 0.008086 0.095731 0.149140
 19   1.215374 0.000002 0.000000 0.000000 0.000000 0.648820
 20   1.215371 -0.000002 0.000001 0.000000 0.000000 0.648820
 21   4.220534 -0.244854 -0.431465 0.001345 0.026242 0.148779
 22   1.350417 0.000000 0.000001 0.000000 0.000000 0.868010
 23   1.350410 -0.000001 -0.000001 0.000000 0.000000 0.868010
 24   -2.164373 0.245461 -2.649726 -1.129002 1.436306 1.870196
 25   4.640942 0.000000 0.000001 -0.016367 -1.304106 0.058275
 26   10.828047 0.000000 0.000001 0.000000 0.000000 -0.207897
 27   9.393339 0.000000 0.000000 1.569611 -0.035006 0.000001
 28   1.442245 0.107455 1.746178 -1.686859 -0.539124 0.326773
 29   1.063450 -0.000001 0.000000 0.000000 0.000000 0.199092
 30   1.376307 0.000000 0.000000 0.000000 0.000000 0.199081
 31   4.172847 -0.251365 1.312745 -0.008086 -0.095731 0.149140
 32   1.215373 -0.000001 0.000000 0.000000 0.000000 0.648809
 33   1.215372 0.000000 0.000000 0.000000 0.000000 0.648809
 34   4.220534 -0.244853 0.431466 -0.001345 -0.026242 0.148779
 35   1.350416 0.000000 -0.000001 0.000000 0.000000 0.868008
 36   1.350410 0.000000 0.000001 0.000000 0.000000 0.868028
 37   2.110540 -0.000001 0.000000 -0.002146 0.000419 0.052710
 38   0.891923 2.373051 -0.014527 -3.141592 -0.000001 1.413797
 39   7.228122 5.709445 3.726568 3.140796 -1.570796 0.000000
 40   2.450426 5.076128 0.001325 3.140791 -1.570796 0.000000
 41   6.312404 -4.528058 0.001311 3.140791 -1.570796 0.000000
 42   2.233309 1.152535 -7.309138 -1.355754 -1.576446 -0.567358
 43   4.262825 -0.232720 -1.392178 0.016912 0.076656 0.254714
time 25
  0   0.532226 -33.590706 38.671051 -0.010834 0.000000 -1.570843
  1   -0.015298 0.164068 0.000000 -0.000030 -1.523729 -1.570772
  2   -0.000007 0.000008 4.427393 0.004377 -3.228130 0.035195
  3   18.465939 0.000000 0.000000 0.000000 0.000000 -0.312964
  4   14.875443 0.000000 -0.000001 -0.001387 0.050449 0.347991
  5   0.000006 -0.000004 -4.427393 0.013602 3.126435 -0.414552
  6   18.465939 0.000000 0.000000 0.000000 0.000000 -0.996024
  7   14.875442 0.000000 0.000000 -0.011014 -0.007143 0.374281
  8   2.255207 -0.007574 0.105475 0.000710 -0.021969 -0.017932
  9   9.514219 -0.009357 0.000000 -0.002494 -0.025036 -0.007490
 10   11.751820 -0.001633 0.000000 0.000000 -0.000001 0.143453
 11   -2.164373 0.241542 2.649729 0.929171 -1.446537 2.071939
 12   4.640941 0.000000 -0.000001 -0.239460 1.251404 -0.310305
 13   10.828049 0.000000 0.000000 0.000000 0.000000 -0.328904
 14   9.393337 -0.000001 0.000000 -1.569611 0.037037 0.000037
 15   1.442245 0.107454 -1.746177 1.688041 0.538901 0.329025
 16   1.063452 0.000000 0.000001 0.000000 0.000000 0.199176
 17   1.376307 -0.000001 0.000001 0.000000 0.000000 0.199187
 18   4.172846 -0.251366 -1.312744 0.008194 0.095719 0.150222
 19   1.215374 0.000002 0.000000 0.000000 0.000000 0.656293
 20   1.215371 -0.000002 0.000001 0.000000 0.000000 0.656293
 21   4.220534 -0.244854 -0.431465 0.001369 0.026242 0.149900
 22   1.350417 0.000000 0.000001 0.000000 0.000000 0.878016
 23   1.350410 -0.000001 -0.000001 0.000000 0.000000 0.878016
 24   -2.164373 0.241555 -2.649726 -1.072239 1.443720 1.928536
 25   4.640942 0.000000 0.000001 -0.101365 -1.302223 0.146677
 26   10.828047 0.000000 0.000001 0.000000 0.000000 -0.182050
 27   9.393339 0.000000 0.000000 1.569611 -0.037055 0.000001
 28   1.442245 0.107455 1.746178 -1.688041 -0.538899 0.328988
 29   1.063450 -0.000001 0.000000 0.000000 0.000000 0.199176
 30   1.376307 0.000000 0.000000 0.000000 0.000000 0.199169
 31   4.172847 -0.251365 1.312745 -0.008194 -0.095719 0.150222
 32   1.215373 -0.000001 0.000000 0.000000 0.000000 0.656280
 33   1.215372 0.000000 0.000000 0.000000 0.000000 0.656280
 34   4.220534 -0.244853 0.431466 -0.001369 -0.026242 0.149900
 35   1.350416 0.000000 -0.000001 0.000000 0.000000 0.877997
 36   1.350410 0.000000 0.000001 0.000000 0.000000 0.877999
 37   2.110540 -0.000001 0.000000 0.002718 -0.000587 0.056451
 38   0.891923 2.373051 -0.014527 -3.141592 -0.000001 1.413797
 39   7.228122 5.709445 3.726568 3.140796 -1.570796 0.000000
 40   2.450426 5.076128 0.001325 3.140791 -1.570796 0.000000
 41   6.312404 -4.528058 0.001311 3.140791 -1.570796 0.000000
 42   2.233309 1.152535 -7.309138 -1.348947 -1.580524 -0.676310
 43   4.262825 -0.232720 -1.392178 0.017092 0.076608 0.257022
time 26
  0   0.552509 -35.623341 38.635895 -0.010834 0.000000 -1.570843
  1   -0.054362 0.179693 0.000000 -0.000030 -1.523384 -1.570772
  2   -0.000007 0.000008 4.427393 0.006286 -3.228968 0.071203
  3   18.465939 0.000000 0.000000 0.000000 0.000000 -0.353758
  4   14.875443 0.000000 -0.000001 -0.003464 0.046596 0.370350
  5   0.000006 -0.000004 -4.427393 0.012454 3.126156 -0.490919
  6   18.465939 0.000000 0.000000 0.000000 0.000000 -0.923561
  7   14.875442 0.000000 0.000000 -0.016279 -0.005736 0.409885
  8   2.255207 -0.007574 0.105475 -0.005191 -0.020291 -0.014127
  9   9.514219 -0.009357 0.000000 -0.002217 -0.026953 -0.008096
 10   11.751820 -0.001633 0.000000 0.000000 -0.000001 0.143990
 11   -2.164373 0.241542 2.649729 0.767846 -1.457717 2.232151
 12   4.640941 0.000000 -0.000001 -0.276447 1.228124 -0.399516
 13   10.828049 0.000000 0.000000 0.000000 0.000000 -0.364962
 14   9.393337 -0.000001 0.000000 -1.569611 0.039541 0.000037
 15   1.442245 0.107454 -1.746177 1.689443 0.538618 0.331755
 16   1.063452 0.000000 0.000001 0.000000 0.000000 0.199295
 17   1.376307 -0.000001 0.000001 0.000000 0.000000 0.199297
 18   4.172846 -0.251366 -1.312744 0.008326 0.095707 0.151624
 19   1.215374 0.000002 0.000000 0.000000 0.000000 0.665480
 20   1.215371 -0.000002 0.000001 0.000000 0.000000 0.665480
 21   4.220534 -0.244854 -0.431465 0.001405 0.026242 0.151261
 22   1.350417 0.000000 0.000001 0.000000 0.000000 0.890309
 23   1.350410 -0.000001 -0.000001 0.000000 0.000000 0.890309
 24   -2.164373 0.241555 -2.649726 -0.968152 1.454000 2.031869
 25   4.640942 0.000000 0.000001 -0.168097 -1.295598 0.209041
 26   10.828047 0.000000 0.000001 0.000000 0.000000 -0.157133
 27   9.393339 0.000000 0.000000 1.569611 -0.039560 0.000001
 28   1.442245 0.107455 1.746178 -1.689405 -0.538618 0.331717
 29   1.063450 -0.000001 0.000000 0.000000 0.000000 0.199295
 30   1.376307 0.000000 0.000000 0.000000 0.000000 0.199279
 31   4.172847 -0.251365 1.312745 -0.008326 -0.095707 0.151624
 32   1.215373 -0.000001 0.000000 0.000000 0.000000 0.665513
 33   1.215372 0.000000 0.000000 0.000000 0.000000 0.665513
 34   4.220534 -0.244853 0.431466 -0.001405 -0.026242 0.151261
 35   1.350416 0.000000 -0.000001 0.000000 0.000000 0.890335
 36   1.350410 0.000000 0.000001 0.000000 0.000000 0.890308
 37   2.110540 -0.000001 0.000000 0.008012 -0.001760 0.054602
 38   0.891923 2.373051 -0.014527 -3.141592 -0.000001 1.413797
 39   7.228122 5.709445 3.726568 3.140796 -1.570796 0.000000
 40   2.450426 5.076128 0.001325 3.140791 -1.570796 0.000000
 41   6.312404 -4.528058 0.001311 3.140791 -1.570796 0.000000
 42   2.233309 1.152535 -7.309138 -1.417112 -1.580262 -0.670278
 43   4.262825 -0.232720 -1.392178 0.017307 0.076560 0.259888
time 27
  0   0.491659 -37.628445 38.510891 -0.009971 0.000000 -1.570843
  1   -0.155928 0.187506 0.000000 -0.000030 -1.527063 -1.570772
  2   -0.000007 0.000008 4.427393 0.006954 -3.224037 0.112099
  3   18.465939 0.000000 0.000000 0.000000 0.000000 -0.379419
  4   14.875443 0.000000 -0.000001 -0.003920 0.040424 0.385756
  5   0.000006 -0.000004 -4.427393 0.013889 3.129698 -0.534624
  6   18.465939 0.000000 0.000000 0.000000 0.000000 -0.822284
  7   14.875442 0.000000 0.000000 -0.020981 -0.003910 0.384336
  8   2.255207 -0.007574 0.097662 -0.012878 -0.015605 -0.004233
  9   9.514219 -0.009357 0.000000 -0.001662 -0.027756 -0.009525
 10   11.751820 -0.001633 0.000000 0.000000 -0.000001 0.147614
 11   -2.164373 0.249355 2.649729 0.547864 -1.465923 2.447736
 12   4.640941 0.000000 -0.000001 -0.310537 1.201536 -0.487616
 13   10.828049 0.000000 0.000000 0.000000 0.000000 -0.400166
 14   9.393337 -0.000001 0.000000 -1.569611 0.041803 0.000037
 15   1.442245 0.107454 -1.746177 1.690713 0.538359 0.334238
 16   1.063452 0.000000 0.000001 0.000000 0.000000 0.199391
 17   1.376307 -0.000001 0.000001 0.000000 0.000000 0.199393
 18   4.172846 -0.251366 -1.312744 0.008446 0.095695 0.152867
 19   1.215374 0.000002 0.000000 0.000000 0.000000 0.673810
 20   1.215371 -0.000002 0.000001 0.000000 0.000000 0.673810
 21   4.220534 -0.244854 -0.431465 0.001441 0.026230 0.152502
 22   1.350417 0.000000 0.000001 0.000000 0.000000 0.901499
 23   1.350410 -0.000001 -0.000001 0.000000 0.000000 0.901499
 24   -2.164373 0.249368 -2.649726 -0.815161 1.464051 2.180884
 25   4.640942 0.000000 0.000001 -0.210751 -1.286741 0.241308
 26   10.828047 0.000000 0.000001 0.000000 0.000000 -0.134772
 27   9.393339 0.000000 0.000000 1.569611 -0.041805 0.000001
 28   1.442245 0.107455 1.746178 -1.690678 -0.538393 0.334240
 29   1.063450 -0.000001 0.000000 0.000000 0.000000 0.199391
 30   1.376307 0.000000 0.000000 0.000000 0.000000 0.199390
 31   4.172847 -0.251365 1.312745 -0.008446 -0.095695 0.152867
 32   1.215373 -0.000001 0.000000 0.000000 0.000000 0.673822
 33   1.215372 0.000000 0.000000 0.000000 0.000000 0.673822
 34   4.220534 -0.244853 0.431466 -0.001441 -0.026230 0.152502
 35   1.350416 0.000000 -0.000001 0.000000 0.000000 0.901499
 36   1.350410 0.000000 0.000001 0.000000 0.000000 0.901471
 37   2.110540 -0.000001 0.000000 0.014212 -0.003156 0.046560
 38   0.891923 2.373051 -0.014527 -3.141592 -0.000001 1.413797
 39   7.228122 5.709445 3.726568 3.140796 -1.570796 0.000000
 40   2.450426 5.076128 0.001325 3.140791 -1.570796 0.000000
 41   6.312404 -4.528058 0.001311 3.140791 -1.570796 0.000000
 42   2.233309 1.152535 -7.309138 -1.529187 -1.577174 -0.593016
 43   4.262825 -0.232720 -1.392178 0.017499 0.076513 0.262515
time 28
  0   0.430809 -39.385799 38.452293 -0.008533 0.000000 -1.570843
  1   -0.284838 0.187506 0.000000 -0.000030 -1.533502 -1.570772
  2   -0.000007 0.000008 4.427393 0.006286 -3.216129 0.154690
  3   18.465939 0.000000 0.000000 0.000000 0.000000 -0.379199
  4   14.875443 0.000000 -0.000001 -0.003151 0.033379 0.377105
  5   0.000006 -0.000004 -4.427393 0.017142 3.135104 -0.545386
  6   18.465939 0.000000 0.000000 0.000000 0.000000 -0.691930
  7   14.875442 0.000000 0.000000 -0.024386 -0.001837 0.324570
  8   2.255207 -0.007574 0.082037 -0.020922 -0.009265 0.008770
  9   9.514219 -0.009357 0.000000 -0.000950 -0.027337 -0.011322
 10   11.751820 -0.001633 0.000000 0.000000 -0.000001 0.153465
 11   -2.160467 0.261074 2.649729 0.300185 -1.467943 2.688602
 12   4.640941 0.000000 -0.000001 -0.334212 1.175363 -0.562193
 13   10.828049 0.000000 0.000000 0.000000 0.000000 -0.431343
 14   9.393337 -0.000001 0.000000 -1.569611 0.043130 0.000037
 15   1.442245 0.107454 -1.746177 1.691444 0.538212 0.335675
 16   1.063452 0.000000 0.000001 0.000000 0.000000 0.199451
 17   1.376307 -0.000001 0.000001 0.000000 0.000000 0.199449
 18   4.172846 -0.251366 -1.312744 0.008518 0.095695 0.153588
 19   1.215374 0.000002 0.000000 0.000000 0.000000 0.678670
 20   1.215371 -0.000002 0.000001 0.000000 0.000000 0.678670
 21   4.220534 -0.244854 -0.431465 0.001465 0.026230 0.153223
 22   1.350417 0.000000 0.000001 0.000000 0.000000 0.907951
 23   1.350410 -0.000001 -0.000001 0.000000 0.000000 0.907951
 24   -2.160467 0.261087 -2.649726 -0.623011 1.470924 2.366705
 25   4.640942 0.000000 0.000001 -0.235396 -1.277535 0.252717
 26   10.828047 0.000000 0.000001 0.000000 0.000000 -0.116360
 27   9.393339 0.000000 0.000000 1.569611 -0.043139 0.000001
 28   1.442245 0.107455 1.746178 -1.691405 -0.538225 0.335631
 29   1.063450 -0.000001 0.000000 0.000000 0.000000 0.199451
 30   1.376307 0.000000 0.000000 0.000000 0.000000 0.199456
 31   4.172847 -0.251365 1.312745 -0.008518 -0.095695 0.153588
 32   1.215373 -0.000001 0.000000 0.000000 0.000000 0.678649
 33   1.215372 0.000000 0.000000 0.000000 0.000000 0.678649
 34   4.220534 -0.244853 0.431466 -0.001465 -0.026230 0.153223
 35   1.350416 0.000000 -0.000001 0.000000 0.000000 0.907920
 36   1.350410 0.000000 0.000001 0.000000 0.000000 0.907912
 37   2.110540 -0.000001 0.000000 0.020793 -0.004581 0.033702
 38   0.891923 2.373051 -0.014527 -3.141592 -0.000001 1.413797
 39   7.228122 5.709445 3.726568 3.140796 -1.570796 0.000000
 40   2.450426 5.076128 0.001325 3.140791 -1.570796 0.000000
 41   6.312404 -4.528058 0.001311 3.140791 -1.570796 0.000000
 42   2.233309 1.152535 -7.309138 0.826880 -1.568728 -2.956942
 43   4.262825 -0.232720 -1.392178 0.017619 0.076489 0.263987
time 29
  0   0.349677 -41.170685 38.405418 -0.006711 0.000000 -1.570843
  1   -0.421561 0.179693 0.000000 -0.000030 -1.541463 -1.570772
  2   -0.000007 0.000008 4.427393 0.004854 -3.206082 0.203017
  3   18.465939 0.000000 0.000000 0.000000 0.000000 -0.363627
  4   14.875443 0.000000 -0.000001 -0.001757 0.025142 0.355615
  5   0.000006 -0.000004 -4.427393 0.021447 3.141628 -0.504863
  6   18.465939 0.000000 0.000000 0.000000 0.000000 -0.488063
  7   14.875442 0.000000 0.000000 -0.026211 0.000312 0.200725
  8   2.255207 -0.007574 0.062505 -0.028020 -0.002698 0.022005
  9   9.514219 -0.009357 0.000000 -0.000237 -0.025563 -0.013054
 10   11.751820 -0.001633 0.000000 0.000000 -0.000001 0.160579
 11   -2.160467 0.276699 2.649729 0.079900 -1.463538 2.900752
 12   4.640941 0.000000 -0.000001 -0.344528 1.154079 -0.615170
 13   10.828049 0.000000 0.000000 0.000000 0.000000 -0.455443
 14   9.393337 -0.000001 0.000000 -1.569611 0.042768 0.000037
 15   1.442245 0.107454 -1.746177 1.691253 0.538261 0.335285
 16   1.063452 0.000000 0.000001 0.000000 0.000000 0.199439
 17   1.376307 -0.000001 0.000001 0.000000 0.000000 0.199435
 18   4.172846 -0.251366 -1.312744 0.008494 0.095695 0.153388
 19   1.215374 0.000002 0.000000 0.000000 0.000000 0.677322
 20   1.215371 -0.000002 0.000001 0.000000 0.000000 0.677322
 21   4.220534 -0.244854 -0.431465 0.001453 0.026230 0.153023
 22   1.350417 0.000000 0.000001 0.000000 0.000000 0.906195
 23   1.350410 -0.000001 -0.000001 0.000000 0.000000 0.906195
 24   -2.160467 0.276712 -2.649726 -0.423573 1.472835 2.558442
 25   4.640942 0.000000 0.000001 -0.248053 -1.269236 0.252157
 26   10.828047 0.000000 0.000001 0.000000 0.000000 -0.103466
 27   9.393339 0.000000 0.000000 1.569611 -0.042781 0.000001
 28   1.442245 0.107455 1.746178 -1.691223 -0.538281 0.335270
 29   1.063450 -0.000001 0.000000 0.000000 0.000000 0.199439
 30   1.376307 0.000000 0.000000 0.000000 0.000000 0.199434
 31   4.172847 -0.251365 1.312745 -0.008494 -0.095695 0.153388
 32   1.215373 -0.000001 0.000000 0.000000 0.000000 0.677348
 33   1.215372 0.000000 0.000000 0.000000 0.000000 0.677348
 34   4.220534 -0.244853 0.431466 -0.001453 -0.026230 0.153023
 35   1.350416 0.000000 -0.000001 0.000000 0.000000 0.906157
 36   1.350410 0.000000 0.000001 0.000000 0.000000 0.906194
 37   2.110540 -0.000001 0.000000 0.027136 -0.005810 0.017403
 38   0.891923 2.373051 -0.014527 -3.141592 -0.000001 1.413797
 39   7.228122 5.709445 3.726568 3.140796 -1.570796 0.000000
 40   2.450426 5.076128 0.001325 3.140791 -1.570796 0.000000
 41   6.312404 -4.528058 0.001311 3.140791 -1.570796 0.000000
 42   2.233309 1.152535 -7.309138 -0.938037 -1.564039 -1.163533
 43   4.262825 -0.232720 -1.392178 0.017583 0.076501 0.263589
time 30
  0   0.227977 -43.203320 38.358540 -0.004794 0.000000 -1.570843
  1   -0.527033 0.160161 0.000000 -0.000030 -1.549670 -1.570772
  2   -0.000007 0.000008 4.427393 0.004472 -3.193429 0.278674
  3   18.465939 0.000000 0.000000 0.000000 0.000000 -0.302217
  4   14.875443 0.000000 -0.000001 -0.000533 0.014074 0.309277
  5   0.000006 -0.000004 -4.427393 0.024892 3.148805 -0.431491
  6   18.465939 0.000000 0.000000 0.000000 0.000000 -0.255185
  7   14.875442 0.000000 0.000000 -0.026737 0.002233 0.042701
  8   2.255207 -0.007574 0.046879 -0.032998 0.002600 0.032395
  9   9.514219 -0.009357 0.000000 0.000330 -0.022315 -0.014310
 10   11.751820 -0.001633 0.000000 0.000000 -0.000001 0.168094
 11   -2.156560 0.292325 2.649729 -0.072244 -1.455634 3.044544
 12   4.640941 0.000000 -0.000001 -0.340205 1.141957 -0.639990
 13   10.828049 0.000000 0.000000 0.000000 0.000000 -0.469293
 14   9.393337 -0.000001 0.000000 -1.569611 0.040023 0.000037
 15   1.442245 0.107454 -1.746177 1.689707 0.538569 0.332268
 16   1.063452 0.000000 0.000001 0.000000 0.000000 0.199307
 17   1.376307 -0.000001 0.000001 0.000000 0.000000 0.199311
 18   4.172846 -0.251366 -1.312744 0.008350 0.095707 0.151865
 19   1.215374 0.000002 0.000000 0.000000 0.000000 0.667236
 20   1.215371 -0.000002 0.000001 0.000000 0.000000 0.667236
 21   4.220534 -0.244854 -0.431465 0.001417 0.026230 0.151541
 22   1.350417 0.000000 0.000001 0.000000 0.000000 0.892677
 23   1.350410 -0.000001 -0.000001 0.000000 0.000000 0.892677
 24   -2.156560 0.292338 -2.649726 -0.260836 1.470239 2.713167
 25   4.640942 0.000000 0.000001 -0.253558 -1.262960 0.247538
 26   10.828047 0.000000 0.000001 0.000000 0.000000 -0.097483
 27   9.393339 0.000000 0.000000 1.569611 -0.040016 0.000001
 28   1.442245 0.107455 1.746178 -1.689678 -0.538562 0.332283
 29   1.063450 -0.000001 0.000000 0.000000 0.000000 0.199307
 30   1.376307 0.000000 0.000000 0.000000 0.000000 0.199302
 31   4.172847 -0.251365 1.312745 -0.008350 -0.095707 0.151865
 32   1.215373 -0.000001 0.000000 0.000000 0.000000 0.667233
 33   1.215372 0.000000 0.000000 0.000000 0.000000 0.667233
 34   4.220534 -0.244853 0.431466 -0.001417 -0.026230 0.151541
 35   1.350416 0.000000 -0.000001 0.000000 0.000000 0.892686
 36   1.350410 0.000000 0.000001 0.000000 0.000000 0.892693
 37   2.110540 -0.000001 0.000000 0.032668 -0.006648 -0.000917
 38   0.891923 2.373051 -0.014527 -3.141592 -0.000001 1.413797
 39   7.228122 5.709445 3.726568 3.140796 -1.570796 0.000000
 40   2.450426 5.076128 0.001325 3.140791 -1.570796 0.000000
 41   6.312404 -4.528058 0.001311 3.140791 -1.570796 0.000000
 42   2.233309 1.152535 -7.309138 -1.072642 -1.554777 -0.973297
 43   4.262825 -0.232720 -1.392178 0.017343 0.076548 0.260445
time 31
  0   0.065712 -45.593815 38.061657 -0.003643 0.000000 -1.570843
  1   -0.577815 0.128910 0.000000 -0.000030 -1.556870 -1.570772
  2   -0.000007 0.000008 4.427393 0.001035 -3.180963 0.283611
  3   18.465939 0.000000 0.000000 0.000000 0.000000 -0.381100
  4   14.875443 0.000000 -0.000001 0.000065 0.001878 0.323143
  5   0.000006 -0.000004 -4.427393 0.026709 3.156448 -0.397706
  6   18.465939 0.000000 0.000000 0.000000 0.000000 -0.113147
  7   14.875442 0.000000 0.000000 -0.025965 0.002841 -0.064112
  8   2.255207 -0.007574 0.031254 -0.034825 0.005116 0.037027
  9   9.514219 -0.009357 0.000000 0.000647 -0.017486 -0.014656
 10   11.751820 -0.001633 0.000000 0.000000 -0.000001 0.229052
 11   -2.156560 0.425141 2.649729 -0.143649 -1.448032 3.054368
 12   4.640941 0.000000 -0.000001 -0.318690 1.142990 -0.628809
 13   10.828049 0.000000 0.000000 0.000000 0.000000 -0.469720
 14   9.393337 -0.000001 0.000000 -1.569611 0.034172 0.000037
 15   1.442245 0.107454 -1.746177 1.686435 0.539209 0.325885
 16   1.063452 0.000000 0.000001 0.000000 0.000000 0.199056
 17   1.376307 -0.000001 0.000001 0.000000 0.000000 0.199049
 18   4.172846 -0.251366 -1.312744 0.008050 0.095731 0.148659
 19   1.215374 0.000002 0.000000 0.000000 0.000000 0.645758
 20   1.215371 -0.000002 0.000001 0.000000 0.000000 0.645758
 21   4.220534 -0.244854 -0.431465 0.001333 0.026242 0.148339
 22   1.350417 0.000000 0.000001 0.000000 0.000000 0.863926
 23   1.350410 -0.000001 -0.000001 0.000000 0.000000 0.863926
 24   -2.156560 0.425154 -2.649726 -0.167242 1.465276 2.745433
 25   4.640942 0.000000 0.000001 -0.255719 -1.259612 0.245718
 26   10.828047 0.000000 0.000001 0.000000 0.000000 -0.100039
 27   9.393339 0.000000 0.000000 1.569611 -0.034192 0.000001
 28   1.442245 0.107455 1.746178 -1.686405 -0.539236 0.325898
 29   1.063450 -0.000001 0.000000 0.000000 0.000000 0.199056
 30   1.376307 0.000000 0.000000 0.000000 0.000000 0.199059
 31   4.172847 -0.251365 1.312745 -0.008050 -0.095731 0.148659
 32   1.215373 -0.000001 0.000000 0.000000 0.000000 0.645746
 33   1.215372 0.000000 0.000000 0.000000 0.000000 0.645746
 34   4.220534 -0.244853 0.431466 -0.001333 -0.026242 0.148339
 35   1.350416 0.000000 -0.000001 0.000000 0.000000 0.863937
 36   1.350410 0.000000 0.000001 0.000000 0.000000 0.863925
 37   2.110540 -0.000001 0.000000 0.036865 -0.006844 -0.073895
 38   0.891923 2.373051 -0.014527 -3.141592 -0.000001 1.413797
 39   7.228122 5.709445 3.726568 3.140796 -1.570796 0.000000
 40   2.450426 5.076128 0.001325 3.140791 -1.570796 0.000000
 41   6.312404 -4.528058 0.001311 3.140791 -1.570796 0.000000
 42   2.233309 1.152535 -7.309138 -1.147423 -1.544642 -0.851036
 43   4.262825 -0.232720 -1.392178 0.016840 0.076668 0.253759
end
