version 1
nodes
  0 "Bip01"  -1
  1 "Bip01 Pelvis"   0
  2 "Bip01 Spine"   1
  3 "Bip01 Spine1"   2
  4 "Bip01 Spine2"   3
  5 "Bip01 Spine3"   4
  6 "Bip01 Neck"   5
  7 "Bip01 R Arm"   6
  8 "Bip01 R Arm1"   7
  9 "Bip01 R Arm2"   8
 10 "Bip01 R Hand"   9
end
skeleton
time 0
  0 0.235347 -0.235347 39.526119 -0.000000 -0.000000 -1.570795
  1 -0.000002 0.000000 0.000000 -1.570795 -1.570796 0.000000
  2 1.293671 0.684478 -0.000001 -0.000004 -0.000001 0.114185
  3 5.309685 -0.003834 0.000000 0.000000 -0.000000 -0.069778
  4 4.826790 -0.004591 0.000000 0.000000 -0.000000 -0.095944
  5 5.792767 -0.005304 0.000000 0.000000 -0.000000 0.017444
  6 6.662295 -0.001453 0.000000 0.000000 -0.000001 0.471000
  7 -2.869900 1.399666 -4.140396 -0.000013 1.370795 2.669783
  8 4.972044 0.000000 0.000002 -0.115193 -1.268795 0.116957
  9 11.585353 0.000000 -0.000001 0.000000 -0.000000 -0.200000
 10 10.127048 0.000004 -0.000001 1.569752 -0.000000 -0.069778
time 1
  0 0.235347 -0.235347 39.526119 -0.000000 -0.000000 -1.570795
  1 -0.000002 0.000000 0.000000 -1.570795 -1.570796 0.000000
  2 1.293671 0.684478 -0.000001 -0.000004 -0.000001 0.114185
  3 5.309685 -0.003834 0.000000 0.000000 -0.000000 -0.069778
  4 4.826790 -0.004591 0.000000 0.000000 -0.000000 -0.095944
  5 5.792767 -0.005304 0.000000 0.000000 -0.000000 0.017444
  6 6.662295 -0.001453 0.000000 0.000000 -0.000001 0.471000
  7 -2.869900 1.399666 -4.140396 -0.000013 1.370795 2.669783
  8 4.972044 0.000000 0.000002 -0.115193 -1.268795 0.116957
  9 11.585353 0.000000 -0.000001 0.000000 -0.000000 -0.200000
 10 10.127048 0.000004 -0.000001 1.569752 -0.000000 -0.069778
time 2
  0 0.235347 -0.235347 39.526119 -0.000000 -0.000000 -1.570795
  1 -0.000002 0.000000 0.000000 -1.570795 -1.570796 0.000000
  2 1.293671 0.684478 -0.000001 -0.000004 -0.000001 0.114185
  3 5.309685 -0.003834 0.000000 0.000000 -0.000000 -0.069778
  4 4.826790 -0.004591 0.000000 0.000000 -0.000000 -0.095944
  5 5.792767 -0.005304 0.000000 0.000000 -0.000000 0.017444
  6 6.662295 -0.001453 0.000000 0.000000 -0.000001 0.471000
  7 -2.869900 1.399666 -4.140396 -0.000013 1.370795 2.669783
  8 4.972044 0.000000 0.000002 -0.115193 -1.268795 0.116957
  9 11.585353 0.000000 -0.000001 0.000000 -0.000000 -0.200000
 10 10.127048 0.000004 -0.000001 1.569752 -0.000000 -0.069778
time 3
  0 0.235347 -0.235347 39.526119 -0.000000 -0.000000 -1.570795
  1 -0.000002 0.000000 0.000000 -1.570795 -1.570796 0.000000
  2 1.293671 0.684478 -0.000001 -0.000004 -0.000001 0.114185
  3 5.309685 -0.003834 0.000000 0.000000 -0.000000 -0.069778
  4 4.826790 -0.004591 0.000000 0.000000 -0.000000 -0.095944
  5 5.792767 -0.005304 0.000000 0.000000 -0.000000 0.017444
  6 6.662295 -0.001453 0.000000 0.000000 -0.000001 0.471000
  7 -2.869900 1.399666 -4.140396 -0.000013 1.370795 2.669783
  8 4.972044 0.000000 0.000002 -0.115193 -1.268795 0.116957
  9 11.585353 0.000000 -0.000001 0.000000 -0.000000 -0.200000
 10 10.127048 0.000004 -0.000001 1.569752 -0.000000 -0.069778
time 4
  0 0.235347 -0.235347 39.526119 -0.000000 -0.000000 -1.570795
  1 -0.000002 0.000000 0.000000 -1.570795 -1.570796 0.000000
  2 1.293671 0.684478 -0.000001 -0.000004 -0.000001 0.114185
  3 5.309685 -0.003834 0.000000 0.000000 -0.000000 -0.069778
  4 4.826790 -0.004591 0.000000 0.000000 -0.000000 -0.095944
  5 5.792767 -0.005304 0.000000 0.000000 -0.000000 0.017444
  6 6.662295 -0.001453 0.000000 0.000000 -0.000001 0.471000
  7 -2.869900 1.399666 -4.140396 -0.000013 1.370795 2.669783
  8 4.972044 0.000000 0.000002 -0.115193 -1.268795 0.116957
  9 11.585353 0.000000 -0.000001 0.000000 -0.000000 -0.200000
 10 10.127048 0.000004 -0.000001 1.569752 -0.000000 -0.069778
time 5
  0 0.235347 -0.235347 39.526119 -0.000000 -0.000000 -1.570795
  1 -0.000002 0.000000 0.000000 -1.570795 -1.570796 0.000000
  2 1.293671 0.684478 -0.000001 -0.000004 -0.000001 0.114185
  3 5.309685 -0.003834 0.000000 0.000000 -0.000000 -0.069778
  4 4.826790 -0.004591 0.000000 0.000000 -0.000000 -0.095944
  5 5.792767 -0.005304 0.000000 0.000000 -0.000000 0.017444
  6 6.662295 -0.001453 0.000000 0.000000 -0.000001 0.471000
  7 -2.869900 1.399666 -4.140396 -0.000013 1.370795 2.669783
  8 4.972044 0.000000 0.000002 -0.115193 -1.268795 0.116957
  9 11.585353 0.000000 -0.000001 0.000000 -0.000000 -0.200000
 10 10.127048 0.000004 -0.000001 1.569752 -0.000000 -0.069778
time 6
  0 0.235347 -0.235347 39.526119 -0.000000 -0.000000 -1.570795
  1 -0.000002 0.000000 0.000000 -1.570795 -1.570796 0.000000
  2 1.293671 0.684478 -0.000001 -0.000004 -0.000001 0.114185
  3 5.309685 -0.003834 0.000000 0.000000 -0.000000 -0.069778
  4 4.826790 -0.004591 0.000000 0.000000 -0.000000 -0.095944
  5 5.792767 -0.005304 0.000000 0.000000 -0.000000 0.017444
  6 6.662295 -0.001453 0.000000 0.000000 -0.000001 0.471000
  7 -2.869900 1.399666 -4.140396 -0.000013 1.370795 2.669783
  8 4.972044 0.000000 0.000002 -0.115193 -1.268795 0.116957
  9 11.585353 0.000000 -0.000001 0.000000 -0.000000 -0.200000
 10 10.127048 0.000004 -0.000001 1.569752 -0.000000 -0.069778
end
