version 1
nodes
  0 "Bip01" -1
  1 "Bip01 Pelvis" 0
  2 "Bip01 L Thigh" 1
  3 "Bip01 L Calf" 2
  4 "Bip01 L Foot" 3
  5 "Bip01 L Toe0" 4
  6 "Bip01 R Thigh" 1
  7 "Bip01 R Calf" 6
  8 "Bip01 R Foot" 7
  9 "Bip01 R Toe0" 8
 10 "Bip01 Spine" 1
 11 "Bip01 Spine1" 10
 12 "Bip01 Spine2" 11
 13 "Bip01 Spine3" 12
 14 "Bip01 Neck" 13
 15 "Bip01 L Clavicle" 14
 16 "Bip01 L UpperArm" 15
 17 "Bip01 L Forearm" 16
 18 "Bip01 L Hand" 17
 19 "Bip01 R Clavicle" 14
 20 "Bip01 R UpperArm" 19
 21 "Bip01 R Forearm" 20
 22 "Bip01 R Hand" 21
 23 "Bip01 Head" 14
 24 "Bone05" 23
 25 "m4" 22
 26 "SHOTGUN" 22
end
skeleton
time 0
  0   0.073880 -0.006819 28.041988 0.000000 0.000000 -2.033353
  1   -0.526041 0.000001 9.745319 -1.570795 -1.570451 0.000000
  2   -0.000008 0.000010 5.615750 -0.233053 3.472298 -0.563921
  3   15.693467 0.000000 0.000000 0.000000 0.000000 -0.487323
  4   22.146629 -0.000001 0.000000 0.114982 -0.144038 -0.143135
  5   3.310129 5.734393 0.000000 0.000000 0.000000 1.570796
  6   0.000008 -0.000006 -5.615750 0.212080 2.899510 0.054433
  7   15.693467 0.000000 0.000000 0.000000 0.000000 -0.482099
  8   22.146629 0.000000 0.000000 0.274883 0.248026 0.484986
  9   3.310129 5.734393 0.000000 0.000000 0.000000 1.570796
 10   1.384163 -0.004728 0.000002 -0.372579 -0.003463 0.086548
 11   5.939814 -0.004730 0.000000 0.000000 0.000000 0.000000
 12   5.939809 -0.003975 0.000000 0.000000 0.000000 0.000000
 13   4.991439 -0.003975 0.000000 0.000000 0.000000 0.000000
 14   4.991436 -0.001575 0.000000 0.000000 0.000000 0.000000
 15   0.000005 0.001564 3.638375 -0.000010 -1.284244 3.140806
 16   8.842831 0.000000 -0.000002 -0.414972 -0.110832 -0.914689
 17   9.341934 0.000000 -0.000001 0.000000 0.000000 -0.853073
 18   11.168404 -0.000001 0.000002 -4.515872 0.471532 -0.520821
 19   0.000005 0.001585 -3.638375 -0.000010 1.284244 3.140787
 20   8.842831 0.000000 0.000001 0.953960 -0.539089 -2.198116
 21   9.341937 0.000000 -0.000001 0.000000 0.000000 -0.994883
 22   11.168404 -0.000001 0.000001 1.806863 0.075089 0.649563
 23   1.977383 0.000000 0.000000 0.835700 0.294324 0.196082
 24   3.723980 2.768054 -0.049087 0.000001 -3.141591 -1.570794
 25   12.421014 0.304721 4.492689 -0.091859 -0.075839 1.616818
 26   19.916998 1.704573 4.956909 2.262592 1.451744 0.734330
time 1
  0   0.578789 0.662363 28.041988 0.000000 0.000000 -2.064321
  1   -0.526041 0.000001 9.745319 -1.570795 -1.570451 0.000000
  2   -0.000008 0.000010 5.615750 -0.220494 3.554424 -0.744367
  3   15.693467 0.000000 0.000000 0.000000 0.000000 -0.875733
  4   22.146629 -0.000001 0.000000 0.012713 -0.169473 0.210316
  5   3.310129 5.734393 0.000000 0.000000 0.000000 1.570796
  6   0.000008 -0.000006 -5.615750 0.216778 2.871611 -0.013105
  7   15.693467 0.000000 0.000000 0.000000 0.000000 -0.542314
  8   22.146629 0.000000 0.000000 0.315836 0.259017 0.475474
  9   3.310129 5.734393 0.000000 0.000000 0.000000 1.570796
 10   1.384163 -0.004728 0.000002 -0.409605 -0.002336 0.093284
 11   5.939814 -0.004730 0.000000 0.000000 0.000000 0.000000
 12   5.939809 -0.003975 0.000000 0.000000 0.000000 0.000000
 13   4.991439 -0.003975 0.000000 0.000000 0.000000 0.000000
 14   4.991436 -0.001575 0.000000 0.000000 0.000000 0.000000
 15   0.000005 0.001564 3.638375 -0.000010 -1.284244 3.140806
 16   8.842831 0.000000 -0.000002 -0.459231 -0.086924 -0.722913
 17   9.341934 0.000000 -0.000001 0.000000 0.000000 -1.074646
 18   11.168404 -0.000001 0.000002 -4.531631 0.483686 -0.438417
 19   0.000005 0.001585 -3.638375 -0.000010 1.284244 3.140787
 20   8.842831 0.000000 0.000001 0.968714 -0.517489 -2.265312
 21   9.341937 0.000000 -0.000001 0.000000 0.000000 -0.932795
 22   11.168404 -0.000001 0.000001 1.802668 0.051733 0.612147
 23   1.977383 0.000000 0.000000 0.921866 0.296795 0.224315
 24   3.723980 2.768054 -0.049087 0.000001 -3.141591 -1.570794
 25   12.421014 0.304721 4.492689 -0.091859 -0.075839 1.616818
 26   19.916998 1.704573 4.956909 2.262592 1.451744 0.734330
time 2
  0   1.189202 1.458336 28.041988 0.000000 0.000000 -2.057226
  1   -0.526041 0.000001 9.745319 -1.570795 -1.570451 0.000000
  2   -0.000008 0.000010 5.615750 -0.190200 3.562090 -0.804197
  3   15.693467 0.000000 0.000000 0.000000 0.000000 -1.114113
  4   22.146629 -0.000001 0.000000 -0.109635 -0.175343 0.509433
  5   3.310129 5.734393 0.000000 0.000000 0.000000 1.570796
  6   0.000008 -0.000006 -5.615750 0.209300 2.861640 -0.065284
  7   15.693467 0.000000 0.000000 0.000000 0.000000 -0.588463
  8   22.146629 0.000000 0.000000 0.345564 0.253798 0.481375
  9   3.310129 5.734393 0.000000 0.000000 0.000000 1.570796
 10   1.384163 -0.004728 0.000002 -0.419972 -0.001987 0.095162
 11   5.939814 -0.004730 0.000000 0.000000 0.000000 0.000000
 12   5.939809 -0.003975 0.000000 0.000000 0.000000 0.000000
 13   4.991439 -0.003975 0.000000 0.000000 0.000000 0.000000
 14   4.991436 -0.001575 0.000000 0.000000 0.000000 0.000000
 15   0.000005 0.001564 3.638375 -0.000010 -1.284244 3.140806
 16   8.842831 0.000000 -0.000002 -0.460329 -0.087389 -0.714925
 17   9.341934 0.000000 -0.000001 0.000000 0.000000 -1.084486
 18   11.168404 -0.000001 0.000002 -4.533350 0.481007 -0.434142
 19   0.000005 0.001585 -3.638375 -0.000010 1.284244 3.140787
 20   8.842831 0.000000 0.000001 0.969762 -0.516072 -2.267123
 21   9.341937 0.000000 -0.000001 0.000000 0.000000 -0.932196
 22   11.168404 -0.000001 0.000001 1.799499 0.048992 0.611583
 23   1.977383 0.000000 0.000000 0.942905 0.289082 0.221631
 24   3.723980 2.768054 -0.049087 0.000001 -3.141591 -1.570794
 25   12.421014 0.304721 4.492689 -0.091859 -0.075839 1.616818
 26   19.916998 1.704573 4.956909 2.262592 1.451744 0.734330
time 3
  0   1.829759 2.261354 28.041988 0.000000 0.000000 -2.026546
  1   -0.526041 0.000001 9.745319 -1.570795 -1.570451 0.000000
  2   -0.000008 0.000010 5.615750 -0.195952 3.573111 -0.751153
  3   15.693467 0.000000 0.000000 0.000000 0.000000 -1.037997
  4   22.146629 -0.000001 0.000000 -0.174063 -0.189335 0.444807
  5   3.310129 5.734393 0.000000 0.000000 0.000000 1.570796
  6   0.000008 -0.000006 -5.615750 0.195877 2.862503 -0.103016
  7   15.693467 0.000000 0.000000 0.000000 0.000000 -0.622180
  8   22.146629 0.000000 0.000000 0.364686 0.241794 0.493089
  9   3.310129 5.734393 0.000000 0.000000 0.000000 1.570796
 10   1.384163 -0.004728 0.000002 -0.412567 -0.002228 0.093802
 11   5.939814 -0.004730 0.000000 0.000000 0.000000 0.000000
 12   5.939809 -0.003975 0.000000 0.000000 0.000000 0.000000
 13   4.991439 -0.003975 0.000000 0.000000 0.000000 0.000000
 14   4.991436 -0.001575 0.000000 0.000000 0.000000 0.000000
 15   0.000005 0.001564 3.638375 -0.000010 -1.284244 3.140806
 16   8.842831 0.000000 -0.000002 -0.434084 -0.099390 -0.811597
 17   9.341934 0.000000 -0.000001 0.000000 0.000000 -0.985099
 18   11.168404 -0.000001 0.000002 -4.526091 0.468661 -0.467310
 19   0.000005 0.001585 -3.638375 -0.000010 1.284244 3.140787
 20   8.842831 0.000000 0.000001 0.959926 -0.533601 -2.225757
 21   9.341937 0.000000 -0.000001 0.000000 0.000000 -0.982825
 22   11.168404 -0.000001 0.000001 1.797634 0.062062 0.641196
 23   1.977383 0.000000 0.000000 0.921020 0.276404 0.199611
 24   3.723980 2.768054 -0.049087 0.000001 -3.141591 -1.570794
 25   12.421014 0.304721 4.492689 -0.091859 -0.075839 1.616818
 26   19.916998 1.704573 4.956909 2.262592 1.451744 0.734330
time 4
  0   2.402492 2.979844 28.041988 0.000000 0.000000 -1.986661
  1   -0.526041 0.000001 9.745319 -1.570795 -1.570451 0.000000
  2   -0.000008 0.000010 5.615750 -0.211003 3.576273 -0.648792
  3   15.693467 0.000000 0.000000 0.000000 0.000000 -0.856597
  4   22.146629 -0.000001 0.000000 -0.229777 -0.212392 0.274988
  5   3.310129 5.734393 0.000000 0.000000 0.000000 1.570796
  6   0.000008 -0.000006 -5.615750 0.181304 2.868255 -0.127983
  7   15.693467 0.000000 0.000000 0.000000 0.000000 -0.644733
  8   22.146629 0.000000 0.000000 0.374050 0.230281 0.500752
  9   3.310129 5.734393 0.000000 0.000000 0.000000 1.570796
 10   1.384163 -0.004728 0.000002 -0.396276 -0.002765 0.090855
 11   5.939814 -0.004730 0.000000 0.000000 0.000000 0.000000
 12   5.939809 -0.003975 0.000000 0.000000 0.000000 0.000000
 13   4.991439 -0.003975 0.000000 0.000000 0.000000 0.000000
 14   4.991436 -0.001575 0.000000 0.000000 0.000000 0.000000
 15   0.000005 0.001564 3.638375 -0.000010 -1.284244 3.140806
 16   8.842831 0.000000 -0.000002 -0.398695 -0.111297 -0.948207
 17   9.341934 0.000000 -0.000001 0.000000 0.000000 -0.843971
 18   11.168404 -0.000001 0.000002 -4.518642 0.453253 -0.519003
 19   0.000005 0.001585 -3.638375 -0.000010 1.284244 3.140787
 20   8.842831 0.000000 0.000001 0.941624 -0.566975 -2.163613
 21   9.341937 0.000000 -0.000001 0.000000 0.000000 -1.071827
 22   11.168404 -0.000001 0.000001 1.797448 0.086346 0.692995
 23   1.977383 0.000000 0.000000 0.878836 0.261185 0.170683
 24   3.723980 2.768054 -0.049087 0.000001 -3.141591 -1.570794
 25   12.421014 0.304721 4.492689 -0.091859 -0.075839 1.616818
 26   19.916998 1.704573 4.956909 2.262592 1.451744 0.734330
time 5
  0   2.816969 3.487013 28.041988 0.000000 0.000000 -1.952049
  1   -0.526041 0.000001 9.745319 -1.570795 -1.570790 0.000000
  2   -0.000008 0.000010 5.615750 -0.227684 3.569757 -0.542322
  3   15.693467 0.000000 0.000000 0.000000 0.000000 -0.654211
  4   22.146629 -0.000001 0.000000 -0.260028 -0.234483 0.079327
  5   3.310129 5.734393 0.000000 0.000000 0.000000 1.570796
  6   0.000008 -0.000006 -5.615750 0.170086 2.874295 -0.141799
  7   15.693467 0.000000 0.000000 0.000000 0.000000 -0.657536
  8   22.146629 0.000000 0.000000 0.374445 0.225707 0.495467
  9   3.310129 5.734393 0.000000 0.000000 0.000000 1.570796
 10   1.384163 -0.004728 0.000002 -0.379985 -0.003248 0.087908
 11   5.939814 -0.004730 0.000000 0.000000 0.000000 0.000000
 12   5.939809 -0.003975 0.000000 0.000000 0.000000 0.000000
 13   4.991439 -0.003975 0.000000 0.000000 0.000000 0.000000
 14   4.991436 -0.001575 0.000000 0.000000 0.000000 0.000000
 15   0.000005 0.001564 3.638375 -0.000010 -1.284244 3.140806
 16   8.842831 0.000000 -0.000002 -0.372542 -0.110553 -1.045402
 17   9.341934 0.000000 -0.000001 0.000000 0.000000 -0.761640
 18   11.168404 -0.000001 0.000002 -4.515872 0.440907 -0.549812
 19   0.000005 0.001585 -3.638375 -0.000010 1.284244 3.140787
 20   8.842831 0.000000 0.000001 0.917114 -0.611504 -2.105090
 21   9.341937 0.000000 -0.000001 0.000000 0.000000 -1.181280
 22   11.168404 -0.000001 0.000001 1.799406 0.118261 0.757015
 23   1.977383 0.000000 0.000000 0.838026 0.247352 0.146278
 24   3.723980 2.768054 -0.049087 0.000001 -3.141591 -1.570794
 25   12.421014 0.304721 4.492689 -0.091859 -0.075839 1.616818
 26   19.916998 1.704573 4.956909 2.262592 1.451744 0.734330
time 6
  0   2.975224 3.677201 28.041988 0.000000 0.000000 -1.937380
  1   -0.526041 0.000001 9.745319 -1.570795 -1.570790 0.000000
  2   -0.000008 0.000010 5.615750 -0.238134 3.554424 -0.477235
  3   15.693467 0.000000 0.000000 0.000000 0.000000 -0.515209
  4   22.146629 -0.000001 0.000000 -0.251540 -0.240229 -0.062502
  5   3.310129 5.734393 0.000000 0.000000 0.000000 1.570796
  6   0.000008 -0.000006 -5.615750 0.167210 2.876404 -0.146007
  7   15.693467 0.000000 0.000000 0.000000 0.000000 -0.661704
  8   22.146629 0.000000 0.000000 0.366491 0.233597 0.468604
  9   3.310129 5.734393 0.000000 0.000000 0.000000 1.570796
 10   1.384163 -0.004728 0.000002 -0.372579 -0.003463 0.086548
 11   5.939814 -0.004730 0.000000 0.000000 0.000000 0.000000
 12   5.939809 -0.003975 0.000000 0.000000 0.000000 0.000000
 13   4.991439 -0.003975 0.000000 0.000000 0.000000 0.000000
 14   4.991436 -0.001575 0.000000 0.000000 0.000000 0.000000
 15   0.000005 0.001564 3.638375 -0.000010 -1.284244 3.140806
 16   8.842831 0.000000 -0.000002 -0.370988 -0.084041 -1.010391
 17   9.341934 0.000000 -0.000001 0.000000 0.000000 -0.870458
 18   11.168404 -0.000001 0.000002 -4.519215 0.436983 -0.501166
 19   0.000005 0.001585 -3.638375 -0.000010 1.284244 3.140787
 20   8.842831 0.000000 0.000001 0.888895 -0.662761 -2.076592
 21   9.341937 0.000000 -0.000001 0.000000 0.000000 -1.292731
 22   11.168404 -0.000001 0.000001 1.804906 0.155278 0.823950
 23   1.977383 0.000000 0.000000 0.819841 0.241186 0.136138
 24   3.723980 2.768054 -0.049087 0.000001 -3.141591 -1.570794
 25   12.421014 0.304721 4.492689 -0.091859 -0.075839 1.616818
 26   19.916998 1.704573 4.956909 2.262592 1.451744 0.734330
time 7
  0   2.824505 3.494057 28.041988 0.000000 0.000000 -1.942270
  1   -0.526041 0.000001 9.745319 -1.570795 -1.570790 0.000000
  2   -0.000008 0.000010 5.615750 -0.238517 3.517913 -0.491571
  3   15.693467 0.000000 0.000000 0.000000 0.000000 -0.492374
  4   22.146629 -0.000001 0.000000 -0.160227 -0.203699 -0.110479
  5   3.310129 5.734393 0.000000 0.000000 0.000000 1.570796
  6   0.000008 -0.000006 -5.615750 0.180824 2.907755 -0.192716
  7   15.693467 0.000000 0.000000 0.000000 0.000000 -0.809601
  8   22.146629 0.000000 0.000000 0.317528 0.226874 0.461557
  9   3.310129 5.734393 0.000000 0.000000 0.000000 1.570796
 10   1.384163 -0.004728 0.000002 -0.372579 -0.003463 0.086548
 11   5.939814 -0.004730 0.000000 0.000000 0.000000 0.000000
 12   5.939809 -0.003975 0.000000 0.000000 0.000000 0.000000
 13   4.991439 -0.003975 0.000000 0.000000 0.000000 0.000000
 14   4.991436 -0.001575 0.000000 0.000000 0.000000 0.000000
 15   0.000005 0.001564 3.638375 -0.000010 -1.284244 3.140806
 16   8.842831 0.000000 -0.000002 -0.361935 -0.116320 -1.098105
 17   9.341934 0.000000 -0.000001 0.000000 0.000000 -0.695053
 18   11.168404 -0.000001 0.000002 -4.514249 0.437462 -0.578017
 19   0.000005 0.001585 -3.638375 -0.000010 1.284244 3.140787
 20   8.842831 0.000000 0.000001 0.912276 -0.618055 -2.087267
 21   9.341937 0.000000 -0.000001 0.000000 0.000000 -1.200332
 22   11.168404 -0.000001 0.000001 1.800151 0.125007 0.768672
 23   1.977383 0.000000 0.000000 0.820529 0.243911 0.139121
 24   3.723980 2.768054 -0.049087 0.000001 -3.141591 -1.570794
 25   12.421014 0.304721 4.492689 -0.091859 -0.075839 1.616818
 26   19.916998 1.704573 4.956909 2.262592 1.451744 0.734330
time 8
  0   2.432636 3.000976 28.041988 0.000000 0.000000 -1.955117
  1   -0.526041 0.000001 9.745319 -1.570795 -1.570451 0.000000
  2   -0.000008 0.000010 5.615750 -0.236216 3.467698 -0.550923
  3   15.693467 0.000000 0.000000 0.000000 0.000000 -0.532140
  4   22.146629 -0.000001 0.000000 -0.013686 -0.141760 -0.109885
  5   3.310129 5.734393 0.000000 0.000000 0.000000 1.570796
  6   0.000008 -0.000006 -5.615750 0.221668 2.974675 -0.205620
  7   15.693467 0.000000 0.000000 0.000000 0.000000 -0.978935
  8   22.146629 0.000000 0.000000 0.229304 0.182236 0.457946
  9   3.310129 5.734393 0.000000 0.000000 0.000000 1.570796
 10   1.384163 -0.004728 0.000002 -0.372579 -0.003463 0.086548
 11   5.939814 -0.004730 0.000000 0.000000 0.000000 0.000000
 12   5.939809 -0.003975 0.000000 0.000000 0.000000 0.000000
 13   4.991439 -0.003975 0.000000 0.000000 0.000000 0.000000
 14   4.991436 -0.001575 0.000000 0.000000 0.000000 0.000000
 15   0.000005 0.001564 3.638375 -0.000010 -1.284244 3.140806
 16   8.842831 0.000000 -0.000002 -0.363307 -0.130553 -1.115722
 17   9.341934 0.000000 -0.000001 0.000000 0.000000 -0.635601
 18   11.168404 -0.000001 0.000002 -4.512052 0.441768 -0.605338
 19   0.000005 0.001585 -3.638375 -0.000010 1.284244 3.140787
 20   8.842831 0.000000 0.000001 0.926305 -0.589727 -2.105757
 21   9.341937 0.000000 -0.000001 0.000000 0.000000 -1.136646
 22   11.168404 -0.000001 0.000001 1.799312 0.107426 0.731539
 23   1.977383 0.000000 0.000000 0.822484 0.251093 0.147074
 24   3.723980 2.768054 -0.049087 0.000001 -3.141591 -1.570794
 25   12.421014 0.304721 4.492689 -0.091859 -0.075839 1.616818
 26   19.916998 1.704573 4.956909 2.262592 1.451744 0.734330
time 9
  0   1.882510 2.296574 28.041988 0.000000 0.000000 -1.973334
  1   -0.526041 0.000001 9.745319 -1.570795 -1.570790 0.000000
  2   -0.000008 0.000010 5.615750 -0.235929 3.434925 -0.593359
  3   15.693467 0.000000 0.000000 0.000000 0.000000 -0.559101
  4   22.146629 -0.000001 0.000000 0.095276 -0.101020 -0.108558
  5   3.310129 5.734393 0.000000 0.000000 0.000000 1.570796
  6   0.000008 -0.000006 -5.615750 0.246787 3.012257 -0.194399
  7   15.693467 0.000000 0.000000 0.000000 0.000000 -1.057238
  8   22.146629 0.000000 0.000000 0.170243 0.147729 0.465873
  9   3.310129 5.734393 0.000000 0.000000 0.000000 1.570796
 10   1.384163 -0.004728 0.000002 -0.372579 -0.003463 0.086548
 11   5.939814 -0.004730 0.000000 0.000000 0.000000 0.000000
 12   5.939809 -0.003975 0.000000 0.000000 0.000000 0.000000
 13   4.991439 -0.003975 0.000000 0.000000 0.000000 0.000000
 14   4.991436 -0.001575 0.000000 0.000000 0.000000 0.000000
 15   0.000005 0.001564 3.638375 -0.000010 -1.284244 3.140806
 16   8.842831 0.000000 -0.000002 -0.374188 -0.129064 -1.076008
 17   9.341934 0.000000 -0.000001 0.000000 0.000000 -0.673322
 18   11.168404 -0.000001 0.000002 -4.511957 0.448659 -0.590548
 19   0.000005 0.001585 -3.638375 -0.000010 1.284244 3.140787
 20   8.842831 0.000000 0.000001 0.934690 -0.574057 -2.128061
 21   9.341937 0.000000 -0.000001 0.000000 0.000000 -1.095609
 22   11.168404 -0.000001 0.000001 1.800711 0.097519 0.707848
 23   1.977383 0.000000 0.000000 0.825339 0.261208 0.158406
 24   3.723980 2.768054 -0.049087 0.000001 -3.141591 -1.570794
 25   12.421014 0.304721 4.492689 -0.091859 -0.075839 1.616818
 26   19.916998 1.704573 4.956909 2.262592 1.451744 0.734330
time 10
  0   1.257026 1.500600 28.041988 0.000000 0.000000 -1.994235
  1   -0.526041 0.000001 9.745319 -1.570795 -1.570451 0.000000
  2   -0.000008 0.000010 5.615750 -0.235449 3.435691 -0.594219
  3   15.693467 0.000000 0.000000 0.000000 0.000000 -0.543735
  4   22.146629 -0.000001 0.000000 0.125826 -0.101689 -0.121044
  5   3.310129 5.734393 0.000000 0.000000 0.000000 1.570796
  6   0.000008 -0.000006 -5.615750 0.240843 2.994041 -0.133804
  7   15.693467 0.000000 0.000000 0.000000 0.000000 -0.937401
  8   22.146629 0.000000 0.000000 0.170131 0.169618 0.468427
  9   3.310129 5.734393 0.000000 0.000000 0.000000 1.570796
 10   1.384163 -0.004728 0.000002 -0.372579 -0.003463 0.086548
 11   5.939814 -0.004730 0.000000 0.000000 0.000000 0.000000
 12   5.939809 -0.003975 0.000000 0.000000 0.000000 0.000000
 13   4.991439 -0.003975 0.000000 0.000000 0.000000 0.000000
 14   4.991436 -0.001575 0.000000 0.000000 0.000000 0.000000
 15   0.000005 0.001564 3.638375 -0.000010 -1.284244 3.140806
 16   8.842831 0.000000 -0.000002 -0.389551 -0.120041 -1.011212
 17   9.341934 0.000000 -0.000001 0.000000 0.000000 -0.752948
 18   11.168404 -0.000001 0.000002 -4.513198 0.456794 -0.558264
 19   0.000005 0.001585 -3.638375 -0.000010 1.284244 3.140787
 20   8.842831 0.000000 0.000001 0.940253 -0.565205 -2.151699
 21   9.341937 0.000000 -0.000001 0.000000 0.000000 -1.067230
 22   11.168404 -0.000001 0.000001 1.803041 0.091195 0.691209
 23   1.977383 0.000000 0.000000 0.828828 0.272778 0.171429
 24   3.723980 2.768054 -0.049087 0.000001 -3.141591 -1.570794
 25   12.421014 0.304721 4.492689 -0.091859 -0.075839 1.616818
 26   19.916998 1.704573 4.956909 2.262592 1.451744 0.734330
time 11
  0   0.624005 0.697583 28.041988 0.000000 0.000000 -2.015136
  1   -0.526041 0.000001 9.745319 -1.570795 -1.570451 0.000000
  2   -0.000008 0.000010 5.615750 -0.234107 3.453995 -0.579118
  3   15.693467 0.000000 0.000000 0.000000 0.000000 -0.515565
  4   22.146629 -0.000001 0.000000 0.120666 -0.122814 -0.132021
  5   3.310129 5.734393 0.000000 0.000000 0.000000 1.570796
  6   0.000008 -0.000006 -5.615750 0.224256 2.947447 -0.039826
  7   15.693467 0.000000 0.000000 0.000000 0.000000 -0.709787
  8   22.146629 0.000000 0.000000 0.210802 0.214655 0.474769
  9   3.310129 5.734393 0.000000 0.000000 0.000000 1.570796
 10   1.384163 -0.004728 0.000002 -0.372579 -0.003463 0.086548
 11   5.939814 -0.004730 0.000000 0.000000 0.000000 0.000000
 12   5.939809 -0.003975 0.000000 0.000000 0.000000 0.000000
 13   4.991439 -0.003975 0.000000 0.000000 0.000000 0.000000
 14   4.991436 -0.001575 0.000000 0.000000 0.000000 0.000000
 15   0.000005 0.001564 3.638375 -0.000010 -1.284244 3.140806
 16   8.842831 0.000000 -0.000002 -0.404456 -0.111855 -0.950223
 17   9.341934 0.000000 -0.000001 0.000000 0.000000 -0.824536
 18   11.168404 -0.000001 0.000002 -4.514917 0.464833 -0.530157
 19   0.000005 0.001585 -3.638375 -0.000010 1.284244 3.140787
 20   8.842831 0.000000 0.000001 0.945736 -0.556263 -2.175241
 21   9.341937 0.000000 -0.000001 0.000000 0.000000 -1.038718
 22   11.168404 -0.000001 0.000001 1.805372 0.084828 0.674569
 23   1.977383 0.000000 0.000000 0.832423 0.284302 0.184551
 24   3.723980 2.768054 -0.049087 0.000001 -3.141591 -1.570794
 25   12.421014 0.304721 4.492689 -0.091859 -0.075839 1.616818
 26   19.916998 1.704573 4.956909 2.262592 1.451744 0.734330
time 12
  0   0.073880 -0.006819 28.041988 0.000000 0.000000 -2.033353
  1   -0.526041 0.000001 9.745319 -1.570795 -1.570451 0.000000
  2   -0.000008 0.000010 5.615750 -0.233053 3.472298 -0.563921
  3   15.693467 0.000000 0.000000 0.000000 0.000000 -0.487323
  4   22.146629 -0.000001 0.000000 0.114982 -0.144038 -0.143135
  5   3.310129 5.734393 0.000000 0.000000 0.000000 1.570796
  6   0.000008 -0.000006 -5.615750 0.212080 2.899510 0.054433
  7   15.693467 0.000000 0.000000 0.000000 0.000000 -0.482099
  8   22.146629 0.000000 0.000000 0.274883 0.248026 0.484986
  9   3.310129 5.734393 0.000000 0.000000 0.000000 1.570796
 10   1.384163 -0.004728 0.000002 -0.372579 -0.003463 0.086548
 11   5.939814 -0.004730 0.000000 0.000000 0.000000 0.000000
 12   5.939809 -0.003975 0.000000 0.000000 0.000000 0.000000
 13   4.991439 -0.003975 0.000000 0.000000 0.000000 0.000000
 14   4.991436 -0.001575 0.000000 0.000000 0.000000 0.000000
 15   0.000005 0.001564 3.638375 -0.000010 -1.284244 3.140806
 16   8.842831 0.000000 -0.000002 -0.414972 -0.110832 -0.914689
 17   9.341934 0.000000 -0.000001 0.000000 0.000000 -0.853073
 18   11.168404 -0.000001 0.000002 -4.515872 0.471532 -0.520821
 19   0.000005 0.001585 -3.638375 -0.000010 1.284244 3.140787
 20   8.842831 0.000000 0.000001 0.953960 -0.539089 -2.198116
 21   9.341937 0.000000 -0.000001 0.000000 0.000000 -0.994883
 22   11.168404 -0.000001 0.000001 1.806863 0.075089 0.649563
 23   1.977383 0.000000 0.000000 0.835700 0.294324 0.196082
 24   3.723980 2.768054 -0.049087 0.000001 -3.141591 -1.570794
 25   12.421014 0.304721 4.492689 -0.091859 -0.075839 1.616818
 26   19.916998 1.704573 4.956909 2.262592 1.451744 0.734330
end
