version 1
nodes
  0 "Bip01" -1
  1 "Bip01 Pelvis" 0
  2 "Bip01 L Thigh" 1
  3 "Bip01 L Calf" 2
  4 "Bip01 L Foot" 3
  5 "Bip01 L Toe0" 4
  6 "Bip01 R Thigh" 1
  7 "Bip01 R Calf" 6
  8 "Bip01 R Foot" 7
  9 "Bip01 R Toe0" 8
 10 "Bip01 Spine" 1
 11 "Bip01 Spine1" 10
 12 "Bip01 Spine2" 11
 13 "Bip01 Spine3" 12
 14 "Bip01 Neck" 13
 15 "Bip01 L Clavicle" 14
 16 "Bip01 L UpperArm" 15
 17 "Bip01 L Forearm" 16
 18 "Bip01 L Hand" 17
 19 "Bip01 R Clavicle" 14
 20 "Bip01 R UpperArm" 19
 21 "Bip01 R Forearm" 20
 22 "Bip01 R Hand" 21
 23 "Bip01 Head" 14
 24 "Bone05" 23
 25 "m4" 22
 26 "SHOTGUN" 22
end
skeleton
time 0
  0   0.073880 -0.006819 28.041988 0.000000 0.000000 -2.033353
  1   -0.526041 0.000001 9.745319 -1.570795 -1.570451 0.000000
  2   -0.000008 0.000010 5.615750 -0.233053 3.472298 -0.563921
  3   15.693467 0.000000 0.000000 0.000000 0.000000 -0.487323
  4   22.146629 -0.000001 0.000000 0.114982 -0.144038 -0.143135
  5   3.310129 5.734393 0.000000 0.000000 0.000000 1.570796
  6   0.000008 -0.000006 -5.615750 0.212080 2.899510 0.054433
  7   15.693467 0.000000 0.000000 0.000000 0.000000 -0.482099
  8   22.146629 0.000000 0.000000 0.274883 0.248026 0.484986
  9   3.310129 5.734393 0.000000 0.000000 0.000000 1.570796
 10   1.384163 -0.004728 0.000002 -0.372579 -0.003463 0.086548
 11   5.939814 -0.004730 0.000000 0.000000 0.000000 0.000000
 12   5.939809 -0.003975 0.000000 0.000000 0.000000 0.000000
 13   4.991439 -0.003975 0.000000 0.000000 0.000000 0.000000
 14   4.991436 -0.001575 0.000000 0.000000 0.000000 0.000000
 15   0.000005 0.001564 3.638375 -0.000010 -1.284244 3.140806
 16   8.842831 0.000000 -0.000002 -0.414972 -0.110832 -0.914689
 17   9.341934 0.000000 -0.000001 0.000000 0.000000 -0.853073
 18   11.168404 -0.000001 0.000002 -4.515872 0.471532 -0.520821
 19   0.000005 0.001585 -3.638375 -0.000010 1.284244 3.140787
 20   8.842831 0.000000 0.000001 0.953960 -0.539089 -2.198116
 21   9.341937 0.000000 -0.000001 0.000000 0.000000 -0.994883
 22   11.168404 -0.000001 0.000001 1.806863 0.075089 0.649563
 23   1.977383 0.000000 0.000000 0.835700 0.294324 0.196082
 24   3.723980 2.768054 -0.049087 0.000001 -3.141591 -1.570794
 25   12.421014 0.304721 4.492689 -0.091859 -0.075839 1.616818
 26   19.916998 1.704573 4.956909 2.262592 1.451744 0.734330
time 1
  0   0.043736 0.141105 27.414679 0.002517 -0.019209 -2.012931
  1   -0.526041 0.000001 9.745319 -1.570795 -1.570451 0.000000
  2   -0.000008 0.000010 5.615750 -0.215030 3.482456 -0.620406
  3   15.693467 0.000000 0.000000 0.000000 0.000000 -0.576814
  4   22.146629 -0.000001 0.000000 0.137380 -0.137426 -0.126899
  5   3.310129 5.734393 0.000000 0.000000 0.000000 1.570796
  6   0.000008 -0.000006 -5.615750 0.197123 2.886087 -0.003778
  7   15.693467 0.000000 0.000000 0.000000 0.000000 -0.620394
  8   22.146629 0.000000 0.000000 0.291241 0.243237 0.546552
  9   3.310129 5.734393 0.000000 0.000000 0.000000 1.570796
 10   1.384163 -0.004728 0.000002 -0.227272 -0.002765 0.093219
 11   5.939814 -0.004730 0.000000 0.091457 0.012955 0.002696
 12   5.939809 -0.003975 0.000000 -0.035701 0.015448 -0.001199
 13   4.991439 -0.003975 0.000000 0.043325 -0.000024 0.000000
 14   4.991436 -0.001575 0.000000 0.000000 0.004413 0.000000
 15   -0.015620 0.001564 3.638375 -0.071627 -1.279129 3.209549
 16   8.842831 0.000000 -0.000002 -0.159204 0.220893 -0.706340
 17   9.341934 0.000000 -0.000001 0.000000 0.000000 -0.842495
 18   11.168404 -0.000001 0.000002 -3.857469 0.396118 -0.286385
 19   0.015630 0.001585 -3.638375 -0.000010 1.288615 3.140787
 20   8.842831 0.000000 0.000001 0.704505 -0.785548 -1.721168
 21   9.341937 0.000000 -0.000001 0.000000 0.000000 -1.249296
 22   11.168404 -0.000001 0.000001 1.827838 0.041530 0.743196
 23   1.977383 0.000000 0.000000 0.545539 0.257721 0.079475
 24   3.723980 2.768054 -0.049087 0.000001 -3.141591 -1.570794
 25   12.421014 0.304721 4.492689 -0.091859 -0.075839 1.616818
 26   19.916998 1.704573 4.956909 2.262592 1.451744 0.734330
time 2
  0   -0.016551 0.274942 27.120628 0.003543 -0.043387 -1.914466
  1   -0.526041 0.000001 9.745319 -1.570795 -1.570790 0.000000
  2   -0.000008 0.000010 5.615750 -0.219919 3.454091 -0.638757
  3   15.693467 0.000000 0.000000 0.000000 0.000000 -0.569487
  4   22.146629 -0.000001 0.000000 0.225814 -0.098816 -0.166598
  5   3.310129 5.734393 0.000000 0.000000 0.000000 1.570796
  6   0.000008 -0.000006 -5.615750 0.212080 2.912932 0.020979
  7   15.693467 0.000000 0.000000 0.000000 0.000000 -0.663714
  8   22.146629 0.000000 0.000000 0.376589 0.215054 0.593145
  9   3.310129 5.734393 0.000000 0.000000 0.000000 1.570796
 10   1.384163 -0.004728 0.000002 0.005011 -0.003060 0.090531
 11   5.939814 -0.004730 0.000000 0.204296 0.028188 0.007496
 12   5.939809 -0.003975 0.000000 -0.080003 0.034012 -0.003373
 13   4.991439 -0.003975 0.000000 0.096211 -0.000072 0.000000
 14   4.991436 -0.001575 0.000000 0.000000 0.009731 0.000000
 15   -0.035152 0.001564 3.638375 -0.154941 -1.271111 3.289414
 16   8.842831 0.000000 -0.000002 -0.350870 -0.285438 -0.620045
 17   9.341934 0.000000 -0.000001 0.000000 0.000000 -0.914084
 18   11.168404 -0.000001 0.000002 -2.888964 0.086900 -0.075928
 19   0.035162 0.001585 -3.638375 -0.000010 1.293964 3.140787
 20   8.842831 0.000000 0.000001 0.073611 -0.986416 -0.632881
 21   9.341937 0.000000 -0.000001 0.000000 0.000000 -1.677782
 22   11.168404 -0.000001 0.000001 1.840422 0.066742 0.807404
 23   1.977383 0.000000 0.000000 0.081196 0.114266 -0.051348
 24   3.723980 2.768054 -0.049087 0.000001 -3.141591 -1.570794
 25   12.421014 0.304721 4.492689 -0.091859 -0.075839 1.616818
 26   19.916998 1.704573 4.956909 2.262592 1.451744 0.734330
time 3
  0   -0.024087 0.380602 27.022612 0.001678 -0.063169 -1.807755
  1   -0.526041 0.000001 9.745319 -1.570795 -1.570451 0.000000
  2   -0.000008 0.000010 5.615750 -0.233340 3.413267 -0.633882
  3   15.693467 0.000000 0.000000 0.000000 0.000000 -0.523105
  4   22.146629 -0.000001 0.000000 0.316678 -0.053346 -0.215856
  5   3.310129 5.734393 0.000000 0.000000 0.000000 1.570796
  6   0.000008 -0.000006 -5.615750 0.234995 2.951953 0.065373
  7   15.693467 0.000000 0.000000 0.000000 0.000000 -0.662597
  8   22.146629 0.000000 0.000000 0.466900 0.183249 0.620449
  9   3.310129 5.734393 0.000000 0.000000 0.000000 1.570796
 10   1.384163 -0.004728 0.000002 0.229620 -0.002845 0.085803
 11   5.939814 -0.004730 0.000000 0.300211 0.041419 0.013328
 12   5.939809 -0.003975 0.000000 -0.117082 0.050707 -0.006071
 13   4.991439 -0.003975 0.000000 0.142421 -0.000108 0.000000
 14   4.991436 -0.001575 0.000000 0.000012 0.014561 0.000000
 15   -0.050778 0.001564 3.638375 -0.266537 -1.259321 3.396219
 16   8.842831 0.000000 -0.000002 -1.345597 -0.353160 -0.261052
 17   9.341934 0.000000 -0.000001 0.000000 0.000000 -1.244721
 18   11.168404 -0.000001 0.000002 -1.792961 -0.126423 -0.036913
 19   0.050788 0.001585 -3.638375 -0.000010 1.298799 3.140787
 20   8.842831 0.000000 0.000001 -0.571715 -0.877439 0.606288
 21   9.341937 0.000000 -0.000001 0.000000 0.000000 -1.853453
 22   11.168404 -0.000001 0.000001 1.797914 -0.010833 0.540418
 23   1.977383 0.000000 0.000000 -0.343341 -0.069164 -0.077691
 24   3.723980 2.768054 -0.049087 0.000001 -3.141591 -1.570794
 25   12.421014 0.304721 4.492689 -0.091859 -0.075839 1.616818
 26   19.916998 1.704573 4.956909 2.262592 1.451744 0.734330
time 4
  0   0.073880 0.422866 27.003008 0.000000 -0.069763 -1.762789
  1   -0.526041 0.000001 9.745319 -1.570795 -1.570451 0.000000
  2   -0.000008 0.000010 5.615750 -0.239668 3.392568 -0.631206
  3   15.693467 0.000000 0.000000 0.000000 0.000000 -0.501764
  4   22.146629 -0.000001 0.000000 0.352687 -0.031279 -0.235020
  5   3.310129 5.734393 0.000000 0.000000 0.000000 1.570796
  6   0.000008 -0.000006 -5.615750 0.244007 2.967772 0.082977
  7   15.693467 0.000000 0.000000 0.000000 0.000000 -0.657461
  8   22.146629 0.000000 0.000000 0.505033 0.171859 0.628024
  9   3.310129 5.734393 0.000000 0.000000 0.000000 1.570796
 10   1.384163 -0.004728 0.000002 0.351703 -0.004026 0.086548
 11   5.939814 -0.004730 0.000000 0.340807 0.049077 0.017439
 12   5.939809 -0.003975 0.000000 -0.131093 0.060666 -0.007983
 13   4.991439 -0.003975 0.000000 0.165792 -0.000120 0.000000
 14   4.991436 -0.001575 0.000000 0.000012 0.017450 0.000000
 15   -0.062497 0.001564 3.638375 -0.311022 -1.252392 3.438788
 16   8.842831 0.000000 -0.000002 -1.947938 -0.074645 -0.153556
 17   9.341934 0.000000 -0.000001 0.000000 0.000000 -1.431524
 18   11.168404 -0.000001 0.000002 -1.108007 -0.227678 -0.081137
 19   0.062507 0.001585 -3.638375 -0.000010 1.301679 3.140787
 20   8.842831 0.000000 0.000001 -0.545028 -0.842382 0.895469
 21   9.341937 0.000000 -0.000001 0.000000 0.000000 -1.485923
 22   11.168404 -0.000001 0.000001 1.767711 -0.204559 0.198131
 23   1.977383 0.000000 0.000000 -0.552147 -0.171976 -0.050950
 24   3.723980 2.768054 -0.049087 0.000001 -3.141591 -1.570794
 25   12.421014 0.304721 4.492689 -0.091859 -0.075839 1.616818
 26   19.916998 1.704573 4.956909 2.262592 1.451744 0.734330
time 5
  0   0.292423 0.415822 27.003008 0.000000 -0.064125 -1.781772
  1   -0.526041 0.000001 9.745319 -1.570795 -1.570451 0.000000
  2   -0.000008 0.000010 5.615750 -0.236600 3.396401 -0.641720
  3   15.693467 0.000000 0.000000 0.000000 0.000000 -0.520331
  4   22.146629 -0.000001 0.000000 0.334178 -0.034400 -0.221985
  5   3.310129 5.734393 0.000000 0.000000 0.000000 1.570796
  6   0.000008 -0.000006 -5.615750 0.237200 2.955213 0.071475
  7   15.693467 0.000000 0.000000 0.000000 0.000000 -0.659248
  8   22.146629 0.000000 0.000000 0.491664 0.182942 0.622211
  9   3.310129 5.734393 0.000000 0.000000 0.000000 1.570796
 10   1.384163 -0.004728 0.000002 0.373177 -0.007676 0.093348
 11   5.939814 -0.004730 0.000000 0.329335 0.052133 0.018510
 12   5.939809 -0.003975 0.000000 -0.123309 0.064465 -0.009045
 13   4.991439 -0.003975 0.000000 0.167859 -0.000132 0.000000
 14   4.991436 -0.001575 0.000000 0.000012 0.018557 0.000210
 15   -0.066403 0.001564 3.638375 -0.253402 -1.256201 3.383468
 16   8.842831 0.000000 -0.000002 -1.994392 -0.152879 -0.230296
 17   9.341934 0.000000 -0.000001 0.000000 0.000000 -1.309339
 18   11.168404 -0.000001 0.000002 -1.113833 -0.254666 -0.073865
 19   0.066413 0.001585 -3.638375 -0.000010 1.302759 3.140595
 20   8.842831 0.000000 0.000001 -0.643632 -0.792719 1.064745
 21   9.341937 0.000000 -0.000001 0.000000 0.000000 -1.513303
 22   11.168404 -0.000001 0.000001 1.705067 -0.193513 0.166262
 23   1.977383 0.000000 0.000000 -0.542949 -0.201905 -0.048564
 24   3.723980 2.768054 -0.049087 0.000001 -3.141591 -1.570794
 25   12.421014 0.304721 4.492689 -0.091859 -0.075839 1.616818
 26   19.916998 1.704573 4.956909 2.262592 1.451744 0.734330
time 6
  0   0.593861 0.387646 27.061819 0.000000 -0.053613 -1.816863
  1   -0.526041 0.000001 9.745319 -1.570795 -1.570451 0.000000
  2   -0.000008 0.000010 5.615750 -0.232573 3.403876 -0.651564
  3   15.693467 0.000000 0.000000 0.000000 0.000000 -0.540676
  4   22.146629 -0.000001 0.000000 0.301010 -0.042771 -0.202775
  5   3.310129 5.734393 0.000000 0.000000 0.000000 1.570796
  6   0.000008 -0.000006 -5.615750 0.226941 2.936325 0.056186
  7   15.693467 0.000000 0.000000 0.000000 0.000000 -0.651953
  8   22.146629 0.000000 0.000000 0.465208 0.200472 0.607678
  9   3.310129 5.734393 0.000000 0.000000 0.000000 1.570796
 10   1.384163 -0.004728 0.000002 0.364157 -0.012103 0.101865
 11   5.939814 -0.004730 0.000000 0.298275 0.053775 0.017860
 12   5.939809 -0.003975 0.000000 -0.107219 0.066239 -0.010132
 13   4.991439 -0.003975 0.000000 0.162260 -0.000120 0.000000
 14   4.991436 -0.001575 0.000000 0.000024 0.019089 0.000812
 15   -0.066403 0.001564 3.638375 -0.177663 -1.260554 3.310314
 16   8.842831 0.000000 -0.000002 -1.975188 -0.300973 -0.302259
 17   9.341934 0.000000 -0.000001 0.000000 0.000000 -1.136641
 18   11.168404 -0.000001 0.000002 -1.219651 -0.275529 -0.051704
 19   0.066413 0.001585 -3.638375 -0.000010 1.303325 3.140020
 20   8.842831 0.000000 0.000001 -0.694507 -0.768374 1.102966
 21   9.341937 0.000000 -0.000001 0.000000 0.000000 -1.493117
 22   11.168404 -0.000001 0.000001 1.632635 -0.177872 0.156673
 23   1.977383 0.000000 0.000000 -0.463179 -0.213220 -0.058605
 24   3.723980 2.768054 -0.049087 0.000001 -3.141591 -1.570794
 25   12.421014 0.304721 4.492689 -0.091859 -0.075839 1.616818
 26   19.916998 1.704573 4.956909 2.262592 1.451744 0.734330
time 7
  0   0.932979 0.338338 27.159836 -0.000186 -0.039660 -1.864226
  1   -0.526041 0.000001 9.745319 -1.570795 -1.570451 0.000000
  2   -0.000008 0.000010 5.615750 -0.227780 3.414130 -0.660070
  3   15.693467 0.000000 0.000000 0.000000 0.000000 -0.561519
  4   22.146629 -0.000001 0.000000 0.256588 -0.055005 -0.179313
  5   3.310129 5.734393 0.000000 0.000000 0.000000 1.570796
  6   0.000008 -0.000006 -5.615750 0.214860 2.913891 0.037390
  7   15.693467 0.000000 0.000000 0.000000 0.000000 -0.637290
  8   22.146629 0.000000 0.000000 0.428091 0.222084 0.585482
  9   3.310129 5.734393 0.000000 0.000000 0.000000 1.570796
 10   1.384163 -0.004728 0.000002 0.332281 -0.016719 0.111645
 11   5.939814 -0.004730 0.000000 0.252990 0.054230 0.016196
 12   5.939809 -0.003975 0.000000 -0.085120 0.066467 -0.011069
 13   4.991439 -0.003975 0.000000 0.150977 -0.000120 0.000000
 14   4.991436 -0.001575 0.000000 0.000036 0.019146 0.001534
 15   -0.066403 0.001564 3.638375 -0.088213 -1.263964 3.223930
 16   8.842831 0.000000 -0.000002 -1.872588 -0.483952 -0.388330
 17   9.341934 0.000000 -0.000001 0.000000 0.000000 -0.930649
 18   11.168404 -0.000001 0.000002 -1.398912 -0.284621 -0.015489
 19   0.066413 0.001585 -3.638375 -0.000010 1.303376 3.139253
 20   8.842831 0.000000 0.000001 -0.712809 -0.765010 1.048256
 21   9.341937 0.000000 -0.000001 0.000000 0.000000 -1.442888
 22   11.168404 -0.000001 0.000001 1.556755 -0.159912 0.167766
 23   1.977383 0.000000 0.000000 -0.331605 -0.208371 -0.077890
 24   3.723980 2.768054 -0.049087 0.000001 -3.141591 -1.570794
 25   12.421014 0.304721 4.492689 -0.091859 -0.075839 1.616818
 26   19.916998 1.704573 4.956909 2.262592 1.451744 0.734330
time 8
  0   1.287169 0.281986 27.277456 -0.001212 -0.023700 -1.919931
  1   -0.526041 0.000001 9.745319 -1.570795 -1.570451 0.000000
  2   -0.000008 0.000010 5.615750 -0.222411 3.426588 -0.666951
  3   15.693467 0.000000 0.000000 0.000000 0.000000 -0.581722
  4   22.146629 -0.000001 0.000000 0.204463 -0.069666 -0.153243
  5   3.310129 5.734393 0.000000 0.000000 0.000000 1.570796
  6   0.000008 -0.000006 -5.615750 0.202205 2.890498 0.015719
  7   15.693467 0.000000 0.000000 0.000000 0.000000 -0.616970
  8   22.146629 0.000000 0.000000 0.382681 0.245478 0.557121
  9   3.310129 5.734393 0.000000 0.000000 0.000000 1.570796
 10   1.384163 -0.004728 0.000002 0.285158 -0.020986 0.122235
 11   5.939814 -0.004730 0.000000 0.198826 0.053703 0.014227
 12   5.939809 -0.003975 0.000000 -0.059320 0.065604 -0.011718
 13   4.991439 -0.003975 0.000000 0.135990 -0.000108 0.000000
 14   4.991436 -0.001575 0.000000 0.000048 0.018902 0.002165
 15   -0.066403 0.001564 3.638375 0.008810 -1.265343 3.130164
 16   8.842831 0.000000 -0.000002 -1.666108 -0.657070 -0.522552
 17   9.341934 0.000000 -0.000001 0.000000 0.000000 -0.708420
 18   11.168404 -0.000001 0.000002 -1.623060 -0.276965 0.029767
 19   0.066413 0.001585 -3.638375 -0.000010 1.303119 3.138678
 20   8.842831 0.000000 0.000001 -0.701683 -0.776607 0.925492
 21   9.341937 0.000000 -0.000001 0.000000 0.000000 -1.367077
 22   11.168404 -0.000001 0.000001 1.482831 -0.144312 0.189107
 23   1.977383 0.000000 0.000000 -0.167838 -0.189688 -0.100506
 24   3.723980 2.768054 -0.049087 0.000001 -3.141591 -1.570794
 25   12.421014 0.304721 4.492689 -0.091859 -0.075839 1.616818
 26   19.916998 1.704573 4.956909 2.262592 1.451744 0.734330
time 9
  0   1.618752 0.218590 27.395077 -0.003263 -0.007167 -1.979949
  1   -0.526041 0.000001 9.745319 -1.570795 -1.570790 0.000000
  2   -0.000008 0.000010 5.615750 -0.216659 3.440387 -0.672112
  3   15.693467 0.000000 0.000000 0.000000 0.000000 -0.600858
  4   22.146629 -0.000001 0.000000 0.148262 -0.085616 -0.126075
  5   3.310129 5.734393 0.000000 0.000000 0.000000 1.570796
  6   0.000008 -0.000006 -5.615750 0.190028 2.868351 -0.007986
  7   15.693467 0.000000 0.000000 0.000000 0.000000 -0.593524
  8   22.146629 0.000000 0.000000 0.331800 0.268442 0.524445
  9   3.310129 5.734393 0.000000 0.000000 0.000000 1.570796
 10   1.384163 -0.004728 0.000002 0.230428 -0.024555 0.133051
 11   5.939814 -0.004730 0.000000 0.141146 0.052516 0.012716
 12   5.939809 -0.003975 0.000000 -0.032129 0.064142 -0.011931
 13   4.991439 -0.003975 0.000000 0.119265 -0.000084 0.000000
 14   4.991436 -0.001575 0.000000 0.000060 0.018471 0.002556
 15   -0.066403 0.001564 3.638375 0.106697 -1.264146 3.035918
 16   8.842831 0.000000 -0.000002 -1.353096 -0.768513 -0.727019
 17   9.341934 0.000000 -0.000001 0.000000 0.000000 -0.487339
 18   11.168404 -0.000001 0.000002 -1.862583 -0.250838 0.076054
 19   0.066413 0.001585 -3.638375 -0.000010 1.302707 3.138294
 20   8.842831 0.000000 0.000001 -0.662257 -0.797676 0.756025
 21   9.341937 0.000000 -0.000001 0.000000 0.000000 -1.265951
 22   11.168404 -0.000001 0.000001 1.412730 -0.134489 0.207720
 23   1.977383 0.000000 0.000000 0.008722 -0.161353 -0.120735
 24   3.723980 2.768054 -0.049087 0.000001 -3.141591 -1.570794
 25   12.421014 0.304721 4.492689 -0.091859 -0.075839 1.616818
 26   19.916998 1.704573 4.956909 2.262592 1.451744 0.734330
time 10
  0   1.890046 0.155193 27.512697 -0.006154 0.008505 -2.040448
  1   -0.526041 0.000001 9.745319 -1.570795 -1.570451 0.000000
  2   -0.000008 0.000010 5.615750 -0.210620 3.455240 -0.675744
  3   15.693467 0.000000 0.000000 0.000000 0.000000 -0.619069
  4   22.146629 -0.000001 0.000000 0.091687 -0.102011 -0.098999
  5   3.310129 5.734393 0.000000 0.000000 0.000000 1.570796
  6   0.000008 -0.000006 -5.615750 0.179194 2.849272 -0.032813
  7   15.693467 0.000000 0.000000 0.000000 0.000000 -0.570227
  8   22.146629 0.000000 0.000000 0.278549 0.289072 0.490623
  9   3.310129 5.734393 0.000000 0.000000 0.000000 1.570796
 10   1.384163 -0.004728 0.000002 0.175765 -0.027318 0.143478
 11   5.939814 -0.004730 0.000000 0.085295 0.051066 0.012334
 12   5.939809 -0.003975 0.000000 -0.005857 0.062512 -0.011518
 13   4.991439 -0.003975 0.000000 0.102800 -0.000072 0.000000
 14   4.991436 -0.001575 0.000000 0.000048 0.017996 0.002436
 15   -0.062497 0.001564 3.638375 0.198159 -1.260518 2.948287
 16   8.842831 0.000000 -0.000002 -0.999756 -0.783955 -0.957314
 17   9.341934 0.000000 -0.000001 0.000000 0.000000 -0.284463
 18   11.168404 -0.000001 0.000002 -2.088641 -0.209494 0.116495
 19   0.062507 0.001585 -3.638375 -0.000010 1.302193 3.138390
 20   8.842831 0.000000 0.000001 -0.598482 -0.821844 0.562349
 21   9.341937 0.000000 -0.000001 0.000000 0.000000 -1.141309
 22   11.168404 -0.000001 0.000001 1.345425 -0.129388 0.212421
 23   1.977383 0.000000 0.000000 0.179785 -0.129831 -0.135349
 24   3.723980 2.768054 -0.049087 0.000001 -3.141591 -1.570794
 25   12.421014 0.304721 4.492689 -0.091859 -0.075839 1.616818
 26   19.916998 1.704573 4.956909 2.262592 1.451744 0.734330
time 11
  0   2.078445 0.112929 27.591110 -0.009603 0.022171 -2.097494
  1   -0.526041 0.000001 9.745319 -1.570795 -1.570451 0.000000
  2   -0.000008 0.000010 5.615750 -0.204388 3.470669 -0.678038
  3   15.693467 0.000000 0.000000 0.000000 0.000000 -0.636854
  4   22.146629 -0.000001 0.000000 0.038664 -0.118257 -0.073113
  5   3.310129 5.734393 0.000000 0.000000 0.000000 1.570796
  6   0.000008 -0.000006 -5.615750 0.169607 2.834220 -0.058131
  7   15.693467 0.000000 0.000000 0.000000 0.000000 -0.552065
  8   22.146629 0.000000 0.000000 0.226709 0.305804 0.459620
  9   3.310129 5.734393 0.000000 0.000000 0.000000 1.570796
 10   1.384163 -0.004728 0.000002 0.128844 -0.029304 0.152805
 11   5.939814 -0.004730 0.000000 0.036618 0.049844 0.013749
 12   5.939809 -0.003975 0.000000 0.017187 0.061157 -0.010282
 13   4.991439 -0.003975 0.000000 0.088559 -0.000060 0.000000
 14   4.991436 -0.001575 0.000000 0.000036 0.017608 0.001654
 15   -0.062497 0.001564 3.638375 0.276775 -1.255294 2.873792
 16   8.842831 0.000000 -0.000002 -0.712897 -0.723955 -1.130876
 17   9.341934 0.000000 -0.000001 0.000000 0.000000 -0.117177
 18   11.168404 -0.000001 0.000002 -2.274396 -0.160302 0.148631
 19   0.062507 0.001585 -3.638375 -0.000010 1.301833 3.139157
 20   8.842831 0.000000 0.000001 -0.519953 -0.842825 0.371150
 21   9.341937 0.000000 -0.000001 0.000000 0.000000 -1.000879
 22   11.168404 -0.000001 0.000001 1.280544 -0.123612 0.196721
 23   1.977383 0.000000 0.000000 0.327799 -0.102627 -0.144643
 24   3.723980 2.768054 -0.049087 0.000001 -3.141591 -1.570794
 25   12.421014 0.304721 4.492689 -0.091859 -0.075839 1.616818
 26   19.916998 1.704573 4.956909 2.262592 1.451744 0.734330
time 12
  0   2.153805 0.077709 27.630316 -0.013053 0.032301 -2.146967
  1   -0.526041 0.000001 9.745319 -1.570795 -1.570451 0.000000
  2   -0.000008 0.000010 5.615750 -0.197965 3.486385 -0.679567
  3   15.693467 0.000000 0.000000 0.000000 0.000000 -0.654780
  4   22.146629 -0.000001 0.000000 -0.006731 -0.134033 -0.049604
  5   3.310129 5.734393 0.000000 0.000000 0.000000 1.570796
  6   0.000008 -0.000006 -5.615750 0.161170 2.823578 -0.083659
  7   15.693467 0.000000 0.000000 0.000000 0.000000 -0.544920
  8   22.146629 0.000000 0.000000 0.180284 0.317593 0.436632
  9   3.310129 5.734393 0.000000 0.000000 0.000000 1.570796
 10   1.384163 -0.004728 0.000002 0.097339 -0.030861 0.160350
 11   5.939814 -0.004730 0.000000 0.000462 0.049353 0.017478
 12   5.939809 -0.003975 0.000000 0.034706 0.060534 -0.007970
 13   4.991439 -0.003975 0.000000 0.078539 -0.000060 0.000000
 14   4.991436 -0.001575 0.000000 0.000012 0.017450 0.000000
 15   -0.062497 0.001564 3.638375 0.337463 -1.249707 2.817513
 16   8.842831 0.000000 -0.000002 -0.536959 -0.646186 -1.229639
 17   9.341934 0.000000 -0.000001 0.000000 0.000000 -0.002372
 18   11.168404 -0.000001 0.000002 -2.395017 -0.112738 0.175657
 19   0.062507 0.001585 -3.638375 -0.000010 1.301679 3.140787
 20   8.842831 0.000000 0.000001 -0.444488 -0.854688 0.217791
 21   9.341937 0.000000 -0.000001 0.000000 0.000000 -0.862314
 22   11.168404 -0.000001 0.000001 1.219579 -0.109572 0.161186
 23   1.977383 0.000000 0.000000 0.435532 -0.086969 -0.151751
 24   3.723980 2.768054 -0.049087 0.000001 -3.141591 -1.570794
 25   12.421014 0.304721 4.492689 -0.091859 -0.075839 1.616818
 26   19.916998 1.704573 4.956909 2.262592 1.451744 0.734330
time 13
  0   2.123661 0.056577 27.532299 -0.015850 0.036984 -2.197014
  1   -0.526041 0.000001 9.745319 -1.570795 -1.570790 0.000000
  2   -0.000008 0.000010 5.615750 -0.188187 3.506030 -0.685780
  3   15.693467 0.000000 0.000000 0.000000 0.000000 -0.687859
  4   22.146629 -0.000001 0.000000 -0.051265 -0.151889 -0.021476
  5   3.310129 5.734393 0.000000 0.000000 0.000000 1.570796
  6   0.000008 -0.000006 -5.615750 0.147939 2.811498 -0.122793
  7   15.693467 0.000000 0.000000 0.000000 0.000000 -0.568664
  8   22.146629 0.000000 0.000000 0.131659 0.327447 0.425974
  9   3.310129 5.734393 0.000000 0.000000 0.000000 1.570796
 10   1.384163 -0.004728 0.000002 0.092694 -0.032337 0.164981
 11   5.939814 -0.004730 0.000000 -0.014846 0.050227 0.030175
 12   5.939809 -0.003975 0.000000 0.043447 0.061193 -0.000987
 13   4.991439 -0.003975 0.000000 0.075668 -0.000060 0.000000
 14   4.991436 -0.001575 0.000000 -0.000072 0.017723 -0.005292
 15   -0.062497 0.001564 3.638375 0.368526 -1.245970 2.793160
 16   8.842831 0.000000 -0.000002 -0.495992 -0.614744 -1.252332
 17   9.341934 0.000000 -0.000001 0.000000 0.000000 0.010174
 18   11.168404 -0.000001 0.000002 -2.378304 -0.064599 0.213001
 19   0.062507 0.001585 -3.638375 -0.000010 1.301936 3.146060
 20   8.842831 0.000000 0.000001 -0.489799 -0.818480 0.275646
 21   9.341937 0.000000 -0.000001 0.000000 0.000000 -0.992818
 22   11.168404 -0.000001 0.000001 1.166536 -0.111680 0.251153
 23   1.977383 0.000000 0.000000 0.476871 -0.094752 -0.163829
 24   3.723980 2.768054 -0.049087 0.000001 -3.141591 -1.570794
 25   12.421014 0.304721 4.492689 -0.091859 -0.075839 1.616818
 26   19.916998 1.704573 4.956909 2.262592 1.451744 0.734330
time 14
  0   2.048301 0.042489 27.316662 -0.017808 0.036411 -2.248212
  1   -0.526041 0.000001 9.745319 -1.570795 -1.570790 0.000000
  2   -0.000008 0.000010 5.615750 -0.175628 3.527975 -0.694859
  3   15.693467 0.000000 0.000000 0.000000 0.000000 -0.733245
  4   22.146629 -0.000001 0.000000 -0.096211 -0.171033 0.010860
  5   3.310129 5.734393 0.000000 0.000000 0.000000 1.570796
  6   0.000008 -0.000006 -5.615750 0.130010 2.797692 -0.173219
  7   15.693467 0.000000 0.000000 0.000000 0.000000 -0.616598
  8   22.146629 0.000000 0.000000 0.080270 0.336504 0.424037
  9   3.310129 5.734393 0.000000 0.000000 0.000000 1.570796
 10   1.384163 -0.004728 0.000002 0.106225 -0.033437 0.166309
 11   5.939814 -0.004730 0.000000 -0.012005 0.051618 0.051343
 12   5.939809 -0.003975 0.000000 0.044212 0.062308 0.010669
 13   4.991439 -0.003975 0.000000 0.078166 -0.000060 0.000000
 14   4.991436 -0.001575 0.000000 -0.000228 0.018169 -0.014163
 15   -0.062497 0.001564 3.638375 0.370635 -1.245245 2.800063
 16   8.842831 0.000000 -0.000002 -0.561008 -0.623209 -1.201869
 17   9.341934 0.000000 -0.000001 0.000000 0.000000 -0.087902
 18   11.168404 -0.000001 0.000002 -2.244217 -0.012440 0.269559
 19   0.062507 0.001585 -3.638375 -0.000010 1.302399 3.154976
 20   8.842831 0.000000 0.000001 -0.541238 -0.770410 0.392119
 21   9.341937 0.000000 -0.000001 0.000000 0.000000 -1.159962
 22   11.168404 -0.000001 0.000001 1.108181 -0.106284 0.339145
 23   1.977383 0.000000 0.000000 0.464290 -0.117660 -0.178890
 24   3.723980 2.768054 -0.049087 0.000001 -3.141591 -1.570794
 25   12.421014 0.304721 4.492689 -0.091859 -0.075839 1.616818
 26   19.916998 1.704573 4.956909 2.262592 1.451744 0.734330
time 15
  0   1.920190 0.035445 27.101025 -0.018461 0.033257 -2.285892
  1   -0.526041 0.000001 9.745319 -1.570795 -1.570451 0.000000
  2   -0.000008 0.000010 5.615750 -0.165562 3.544841 -0.699925
  3   15.693467 0.000000 0.000000 0.000000 0.000000 -0.769240
  4   22.146629 -0.000001 0.000000 -0.128855 -0.186537 0.035832
  5   3.310129 5.734393 0.000000 0.000000 0.000000 1.570796
  6   0.000008 -0.000006 -5.615750 0.115341 2.787817 -0.212844
  7   15.693467 0.000000 0.000000 0.000000 0.000000 -0.660364
  8   22.146629 0.000000 0.000000 0.041461 0.341846 0.426238
  9   3.310129 5.734393 0.000000 0.000000 0.000000 1.570796
 10   1.384163 -0.004728 0.000002 0.115313 -0.033249 0.164625
 11   5.939814 -0.004730 0.000000 -0.002149 0.051714 0.070867
 12   5.939809 -0.003975 0.000000 0.040754 0.062236 0.021725
 13   4.991439 -0.003975 0.000000 0.080850 -0.000060 0.000000
 14   4.991436 -0.001575 0.000000 -0.000384 0.018255 -0.022492
 15   -0.066403 0.001564 3.638375 0.356254 -1.246805 2.822114
 16   8.842831 0.000000 -0.000002 -0.661231 -0.609442 -1.102883
 17   9.341934 0.000000 -0.000001 0.000000 0.000000 -0.252400
 18   11.168404 -0.000001 0.000002 -2.106691 0.043642 0.335010
 19   0.066413 0.001585 -3.638375 -0.000010 1.302502 3.163317
 20   8.842831 0.000000 0.000001 -0.584050 -0.723579 0.499918
 21   9.341937 0.000000 -0.000001 0.000000 0.000000 -1.296795
 22   11.168404 -0.000001 0.000001 1.061757 -0.097304 0.406267
 23   1.977383 0.000000 0.000000 0.437911 -0.131747 -0.187389
 24   3.723980 2.768054 -0.049087 0.000001 -3.141591 -1.570794
 25   12.421014 0.304721 4.492689 -0.091859 -0.075839 1.616818
 26   19.916998 1.704573 4.956909 2.262592 1.451744 0.734330
time 16
  0   1.769471 0.028401 27.022612 -0.017715 0.030008 -2.295384
  1   -0.526041 0.000001 9.745319 -1.570795 -1.570451 0.000000
  2   -0.000008 0.000010 5.615750 -0.162878 3.551357 -0.697249
  3   15.693467 0.000000 0.000000 0.000000 0.000000 -0.778417
  4   22.146629 -0.000001 0.000000 -0.135922 -0.193595 0.042646
  5   3.310129 5.734393 0.000000 0.000000 0.000000 1.570796
  6   0.000008 -0.000006 -5.615750 0.111601 2.786187 -0.222382
  7   15.693467 0.000000 0.000000 0.000000 0.000000 -0.678228
  8   22.146629 0.000000 0.000000 0.031082 0.341170 0.431787
  9   3.310129 5.734393 0.000000 0.000000 0.000000 1.570796
 10   1.384163 -0.004728 0.000002 0.097339 -0.030861 0.160350
 11   5.939814 -0.004730 0.000000 0.003481 0.049233 0.078649
 12   5.939809 -0.003975 0.000000 0.036799 0.059276 0.026959
 13   4.991439 -0.003975 0.000000 0.078539 -0.000060 0.000000
 14   4.991436 -0.001575 0.000000 -0.000431 0.017436 -0.026160
 15   -0.062497 0.001564 3.638375 0.337463 -1.249707 2.843687
 16   8.842831 0.000000 -0.000002 -0.711525 -0.523859 -0.990459
 17   9.341934 0.000000 -0.000001 0.000000 0.000000 -0.439367
 18   11.168404 -0.000001 0.000002 -2.080141 0.119056 0.388128
 19   0.062507 0.001585 -3.638375 -0.000010 1.301679 3.166960
 20   8.842831 0.000000 0.000001 -0.617913 -0.684982 0.544620
 21   9.341937 0.000000 -0.000001 0.000000 0.000000 -1.360615
 22   11.168404 -0.000001 0.000001 1.044791 -0.088028 0.451580
 23   1.977383 0.000000 0.000000 0.438546 -0.114012 -0.181872
 24   3.723980 2.768054 -0.049087 0.000001 -3.141591 -1.570794
 25   12.421014 0.304721 4.492689 -0.091859 -0.075839 1.616818
 26   19.916998 1.704573 4.956909 2.262592 1.451744 0.734330
time 17
  0   1.581072 0.021357 27.081421 -0.015944 0.027236 -2.280427
  1   -0.526041 0.000001 9.745319 -1.570795 -1.570790 0.000000
  2   -0.000008 0.000010 5.615750 -0.166904 3.549249 -0.688265
  3   15.693467 0.000000 0.000000 0.000000 0.000000 -0.763691
  4   22.146629 -0.000001 0.000000 -0.120591 -0.193298 0.033270
  5   3.310129 5.734393 0.000000 0.000000 0.000000 1.570796
  6   0.000008 -0.000006 -5.615750 0.118025 2.791652 -0.205550
  7   15.693467 0.000000 0.000000 0.000000 0.000000 -0.672497
  8   22.146629 0.000000 0.000000 0.045522 0.335368 0.439978
  9   3.310129 5.734393 0.000000 0.000000 0.000000 1.570796
 10   1.384163 -0.004728 0.000002 0.053649 -0.026862 0.154132
 11   5.939814 -0.004730 0.000000 0.003179 0.044643 0.075207
 12   5.939809 -0.003975 0.000000 0.033430 0.053727 0.026585
 13   4.991439 -0.003975 0.000000 0.071218 -0.000048 0.000000
 14   4.991436 -0.001575 0.000000 -0.000407 0.015812 -0.025409
 15   -0.054684 0.001564 3.638375 0.313399 -1.253879 2.865930
 16   8.842831 0.000000 -0.000002 -0.695065 -0.340974 -0.848251
 17   9.341934 0.000000 -0.000001 0.000000 0.000000 -0.686935
 18   11.168404 -0.000001 0.000002 -2.206206 0.230646 0.406211
 19   0.054694 0.001585 -3.638375 -0.000010 1.300033 3.166097
 20   8.842831 0.000000 0.000001 -0.740544 -0.657361 0.584271
 21   9.341937 0.000000 -0.000001 0.000000 0.000000 -1.691905
 22   11.168404 -0.000001 0.000001 1.128223 -0.089546 0.572569
 23   1.977383 0.000000 0.000000 0.469999 -0.068356 -0.162239
 24   3.723980 2.768054 -0.049087 0.000001 -3.141591 -1.570794
 25   12.421014 0.304721 4.492689 -0.091859 -0.075839 1.616818
 26   19.916998 1.704573 4.956909 2.262592 1.451744 0.734330
time 18
  0   1.370065 0.014313 27.159836 -0.013799 0.024083 -2.256074
  1   -0.526041 0.000001 9.745319 -1.570795 -1.570451 0.000000
  2   -0.000008 0.000010 5.615750 -0.173136 3.543978 -0.676891
  3   15.693467 0.000000 0.000000 0.000000 0.000000 -0.740572
  4   22.146629 -0.000001 0.000000 -0.096473 -0.190375 0.017629
  5   3.310129 5.734393 0.000000 0.000000 0.000000 1.570796
  6   0.000008 -0.000006 -5.615750 0.127805 2.800185 -0.179531
  7   15.693467 0.000000 0.000000 0.000000 0.000000 -0.659620
  8   22.146629 0.000000 0.000000 0.069158 0.327079 0.449667
  9   3.310129 5.734393 0.000000 0.000000 0.000000 1.570796
 10   1.384163 -0.004728 0.000002 0.002016 -0.022515 0.146522
 11   5.939814 -0.004730 0.000000 0.002699 0.039238 0.068381
 12   5.939809 -0.003975 0.000000 0.029360 0.047207 0.024573
 13   4.991439 -0.003975 0.000000 0.062576 -0.000048 0.000000
 14   4.991436 -0.001575 0.000000 -0.000348 0.013900 -0.023304
 15   -0.046871 0.001564 3.638375 0.277734 -1.259067 2.897952
 16   8.842831 0.000000 -0.000002 -0.637364 -0.101250 -0.671852
 17   9.341934 0.000000 -0.000001 0.000000 0.000000 -1.001991
 18   11.168404 -0.000001 0.000002 -2.430736 0.365971 0.377858
 19   0.046881 0.001585 -3.638375 -0.000106 1.298130 3.163892
 20   8.842831 0.000000 0.000001 -0.805448 -0.687106 0.494676
 21   9.341937 0.000000 -0.000001 0.000000 0.000000 -1.911610
 22   11.168404 -0.000001 0.000001 1.235799 -0.067159 0.693277
 23   1.977383 0.000000 0.000000 0.508007 -0.014964 -0.134106
 24   3.723980 2.768054 -0.049087 0.000001 -3.141591 -1.570794
 25   12.421014 0.304721 4.492689 -0.091859 -0.075839 1.616818
 26   19.916998 1.704573 4.956909 2.262592 1.451744 0.734330
time 19
  0   1.151522 0.014313 27.297058 -0.011375 0.020547 -2.224339
  1   -0.526041 0.000001 9.745319 -1.570795 -1.570451 0.000000
  2   -0.000008 0.000010 5.615750 -0.181188 3.536120 -0.663224
  3   15.693467 0.000000 0.000000 0.000000 0.000000 -0.709983
  4   22.146629 -0.000001 0.000000 -0.065624 -0.185274 -0.003090
  5   3.310129 5.734393 0.000000 0.000000 0.000000 1.570796
  6   0.000008 -0.000006 -5.615750 0.140364 2.811785 -0.146358
  7   15.693467 0.000000 0.000000 0.000000 0.000000 -0.640491
  8   22.146629 0.000000 0.000000 0.099562 0.316610 0.459884
  9   3.310129 5.734393 0.000000 0.000000 0.000000 1.570796
 10   1.384163 -0.004728 0.000002 -0.055710 -0.018141 0.137811
 11   5.939814 -0.004730 0.000000 0.002167 0.033185 0.058935
 12   5.939809 -0.003975 0.000000 0.024779 0.039945 0.021325
 13   4.991439 -0.003975 0.000000 0.052914 -0.000036 0.000000
 14   4.991436 -0.001575 0.000000 -0.000276 0.011744 -0.020177
 15   -0.039059 0.001564 3.638375 0.234591 -1.264581 2.936111
 16   8.842831 0.000000 -0.000002 -0.538879 0.127869 -0.495678
 17   9.341934 0.000000 -0.000001 0.000000 0.000000 -1.293185
 18   11.168404 -0.000001 0.000002 -2.731191 0.499669 0.290295
 19   0.039069 0.001585 -3.638375 -0.000202 1.295970 3.160728
 20   8.842831 0.000000 0.000001 -0.774729 -0.784574 0.263351
 21   9.341937 0.000000 -0.000001 0.000000 0.000000 -2.025127
 22   11.168404 -0.000001 0.000001 1.368917 -0.034738 0.824890
 23   1.977383 0.000000 0.000000 0.552041 0.042977 -0.097126
 24   3.723980 2.768054 -0.049087 0.000001 -3.141591 -1.570794
 25   12.421014 0.304721 4.492689 -0.091859 -0.075839 1.616818
 26   19.916998 1.704573 4.956909 2.262592 1.451744 0.734330
time 20
  0   0.917907 0.007269 27.434282 -0.008858 0.016628 -2.187618
  1   -0.526041 0.000001 9.745319 -1.570795 -1.570451 0.000000
  2   -0.000008 0.000010 5.615750 -0.190679 3.525867 -0.647263
  3   15.693467 0.000000 0.000000 0.000000 0.000000 -0.673063
  4   22.146629 -0.000001 0.000000 -0.030251 -0.178389 -0.027879
  5   3.310129 5.734393 0.000000 0.000000 0.000000 1.570796
  6   0.000008 -0.000006 -5.615750 0.154650 2.826166 -0.108206
  7   15.693467 0.000000 0.000000 0.000000 0.000000 -0.615705
  8   22.146629 0.000000 0.000000 0.134480 0.304238 0.469220
  9   3.310129 5.734393 0.000000 0.000000 0.000000 1.570796
 10   1.384163 -0.004728 0.000002 -0.117812 -0.013982 0.128161
 11   5.939814 -0.004730 0.000000 0.001598 0.026690 0.047652
 12   5.939809 -0.003975 0.000000 0.019854 0.032155 0.017228
 13   4.991439 -0.003975 0.000000 0.042535 -0.000024 0.000000
 14   4.991436 -0.001575 0.000000 -0.000204 0.009444 -0.016358
 15   -0.031246 0.001564 3.638375 0.188380 -1.269769 2.976571
 16   8.842831 0.000000 -0.000002 -0.430426 0.290661 -0.367279
 17   9.341934 0.000000 -0.000001 0.000000 0.000000 -1.469082
 18   11.168404 -0.000001 0.000002 -3.078634 0.605996 0.147402
 19   0.031256 0.001585 -3.638375 -0.000202 1.293656 3.156893
 20   8.842831 0.000000 0.000001 -0.570666 -0.920817 -0.141445
 21   9.341937 0.000000 -0.000001 0.000000 0.000000 -2.025993
 22   11.168404 -0.000001 0.000001 1.510890 -0.013573 0.944751
 23   1.977383 0.000000 0.000000 0.601626 0.102257 -0.051348
 24   3.723980 2.768054 -0.049087 0.000001 -3.141591 -1.570794
 25   12.421014 0.304721 4.492689 -0.091859 -0.075839 1.616818
 26   19.916998 1.704573 4.956909 2.262592 1.451744 0.734330
time 21
  0   0.691829 0.007269 27.591110 -0.006340 0.012615 -2.147925
  1   -0.526041 0.000001 9.745319 -1.570795 -1.570451 0.000000
  2   -0.000008 0.000010 5.615750 -0.201033 3.513792 -0.629008
  3   15.693467 0.000000 0.000000 0.000000 0.000000 -0.630736
  4   22.146629 -0.000001 0.000000 0.007479 -0.170266 -0.055504
  5   3.310129 5.734393 0.000000 0.000000 0.000000 1.570796
  6   0.000008 -0.000006 -5.615750 0.169894 2.842944 -0.067108
  7   15.693467 0.000000 0.000000 0.000000 0.000000 -0.586006
  8   22.146629 0.000000 0.000000 0.171541 0.290484 0.476883
  9   3.310129 5.734393 0.000000 0.000000 0.000000 1.570796
 10   1.384163 -0.004728 0.000002 -0.182370 -0.010332 0.117863
 11   5.939814 -0.004730 0.000000 0.001066 0.019930 0.035338
 12   5.939809 -0.003975 0.000000 0.014763 0.024029 0.012668
 13   4.991439 -0.003975 0.000000 0.031740 -0.000024 0.000000
 14   4.991436 -0.001575 0.000000 -0.000132 0.007043 -0.012118
 15   -0.023433 0.001564 3.638375 0.127309 -1.274957 3.030836
 16   8.842831 0.000000 -0.000002 -0.352973 0.333638 -0.485003
 17   9.341934 0.000000 -0.000001 0.000000 0.000000 -1.278342
 18   11.168404 -0.000001 0.000002 -3.572581 0.661504 -0.096566
 19   0.023443 0.001585 -3.638375 -0.000202 1.291290 3.152675
 20   8.842831 0.000000 0.000001 -0.145932 -1.007662 -0.733531
 21   9.341937 0.000000 -0.000001 0.000000 0.000000 -1.917473
 22   11.168404 -0.000001 0.000001 1.630398 -0.005479 1.007079
 23   1.977383 0.000000 0.000000 0.656074 0.159644 0.002582
 24   3.723980 2.768054 -0.049087 0.000001 -3.141591 -1.570794
 25   12.421014 0.304721 4.492689 -0.091859 -0.075839 1.616818
 26   19.916998 1.704573 4.956909 2.262592 1.451744 0.734330
time 22
  0   0.465750 0.007269 27.747936 -0.004009 0.008314 -2.107561
  1   -0.526041 0.000001 9.745319 -1.570795 -1.570451 0.000000
  2   -0.000008 0.000010 5.615750 -0.211962 3.500376 -0.608651
  3   15.693467 0.000000 0.000000 0.000000 0.000000 -0.584426
  4   22.146629 -0.000001 0.000000 0.045619 -0.161399 -0.084821
  5   3.310129 5.734393 0.000000 0.000000 0.000000 1.570796
  6   0.000008 -0.000006 -5.615750 0.185043 2.861448 -0.024958
  7   15.693467 0.000000 0.000000 0.000000 0.000000 -0.552735
  8   22.146629 0.000000 0.000000 0.208545 0.275994 0.482168
  9   3.310129 5.734393 0.000000 0.000000 0.000000 1.570796
 10   1.384163 -0.004728 0.000002 -0.247602 -0.007300 0.107273
 11   5.939814 -0.004730 0.000000 0.000604 0.013099 0.022775
 12   5.939809 -0.003975 0.000000 0.009646 0.015808 0.008033
 13   4.991439 -0.003975 0.000000 0.020859 -0.000012 0.000000
 14   4.991436 -0.001575 0.000000 -0.000072 0.004628 -0.007758
 15   -0.015620 0.001564 3.638375 0.065088 -1.279056 3.086061
 16   8.842831 0.000000 -0.000002 -0.331850 0.279684 -0.716418
 17   9.341934 0.000000 -0.000001 0.000000 0.000000 -0.966648
 18   11.168404 -0.000001 0.000002 -4.065572 0.610398 -0.340289
 19   0.015630 0.001585 -3.638375 -0.000106 1.288873 3.148361
 20   8.842831 0.000000 0.000001 0.355235 -0.963222 -1.368223
 21   9.341937 0.000000 -0.000001 0.000000 0.000000 -1.712623
 22   11.168404 -0.000001 0.000001 1.714762 0.006663 0.981791
 23   1.977383 0.000000 0.000000 0.714381 0.212274 0.063470
 24   3.723980 2.768054 -0.049087 0.000001 -3.141591 -1.570794
 25   12.421014 0.304721 4.492689 -0.091859 -0.075839 1.616818
 26   19.916998 1.704573 4.956909 2.262592 1.451744 0.734330
time 23
  0   0.262279 0.000225 27.904764 -0.001865 0.004109 -2.068635
  1   -0.526041 0.000001 9.745319 -1.570795 -1.570451 0.000000
  2   -0.000008 0.000010 5.615750 -0.222795 3.486193 -0.586668
  3   15.693467 0.000000 0.000000 0.000000 0.000000 -0.535839
  4   22.146629 -0.000001 0.000000 0.082077 -0.152459 -0.114550
  5   3.310129 5.734393 0.000000 0.000000 0.000000 1.570796
  6   0.000008 -0.000006 -5.615750 0.199328 2.880719 0.016280
  7   15.693467 0.000000 0.000000 0.000000 0.000000 -0.517380
  8   22.146629 0.000000 0.000000 0.243632 0.261534 0.484810
  9   3.310129 5.734393 0.000000 0.000000 0.000000 1.570796
 10   1.384163 -0.004728 0.000002 -0.311589 -0.005019 0.096716
 11   5.939814 -0.004730 0.000000 0.000231 0.006388 0.010728
 12   5.939809 -0.003975 0.000000 0.004683 0.007718 0.003685
 13   4.991439 -0.003975 0.000000 0.010164 0.000000 0.000000
 14   4.991436 -0.001575 0.000000 -0.000024 0.002257 -0.003608
 15   -0.007808 0.001564 3.638375 0.028848 -1.281886 3.116741
 16   8.842831 0.000000 -0.000002 -0.376292 0.113729 -0.828468
 17   9.341934 0.000000 -0.000001 0.000000 0.000000 -0.885547
 18   11.168404 -0.000001 0.000002 -4.326106 0.541683 -0.452667
 19   0.007818 0.001585 -3.638375 -0.000106 1.286455 3.144238
 20   8.842831 0.000000 0.000001 0.725064 -0.797499 -1.852796
 21   9.341937 0.000000 -0.000001 0.000000 0.000000 -1.416174
 22   11.168404 -0.000001 0.000001 1.770601 0.033562 0.864938
 23   1.977383 0.000000 0.000000 0.775014 0.257698 0.128981
 24   3.723980 2.768054 -0.049087 0.000001 -3.141591 -1.570794
 25   12.421014 0.304721 4.492689 -0.091859 -0.075839 1.616818
 26   19.916998 1.704573 4.956909 2.262592 1.451744 0.734330
time 24
  0   0.073880 -0.006819 28.041988 0.000000 0.000000 -2.033353
  1   -0.526041 0.000001 9.745319 -1.570795 -1.570451 0.000000
  2   -0.000008 0.000010 5.615750 -0.233053 3.472298 -0.563921
  3   15.693467 0.000000 0.000000 0.000000 0.000000 -0.487323
  4   22.146629 -0.000001 0.000000 0.114982 -0.144038 -0.143135
  5   3.310129 5.734393 0.000000 0.000000 0.000000 1.570796
  6   0.000008 -0.000006 -5.615750 0.212080 2.899510 0.054433
  7   15.693467 0.000000 0.000000 0.000000 0.000000 -0.482099
  8   22.146629 0.000000 0.000000 0.274883 0.248026 0.484986
  9   3.310129 5.734393 0.000000 0.000000 0.000000 1.570796
 10   1.384163 -0.004728 0.000002 -0.372579 -0.003463 0.086548
 11   5.939814 -0.004730 0.000000 0.000000 0.000000 0.000000
 12   5.939809 -0.003975 0.000000 0.000000 0.000000 0.000000
 13   4.991439 -0.003975 0.000000 0.000000 0.000000 0.000000
 14   4.991436 -0.001575 0.000000 0.000000 0.000000 0.000000
 15   0.000005 0.001564 3.638375 -0.000010 -1.284244 3.140806
 16   8.842831 0.000000 -0.000002 -0.414972 -0.110832 -0.914689
 17   9.341934 0.000000 -0.000001 0.000000 0.000000 -0.853073
 18   11.168404 -0.000001 0.000002 -4.515872 0.471532 -0.520821
 19   0.000005 0.001585 -3.638375 -0.000010 1.284244 3.140787
 20   8.842831 0.000000 0.000001 0.953960 -0.539089 -2.198116
 21   9.341937 0.000000 -0.000001 0.000000 0.000000 -0.994883
 22   11.168404 -0.000001 0.000001 1.806863 0.075089 0.649563
 23   1.977383 0.000000 0.000000 0.835700 0.294324 0.196082
 24   3.723980 2.768054 -0.049087 0.000001 -3.141591 -1.570794
 25   12.421014 0.304721 4.492689 -0.091859 -0.075839 1.616818
 26   19.916998 1.704573 4.956909 2.262592 1.451744 0.734330
end
