version 1
nodes
  0 "Bip01" -1
  1 "Bip01 Pelvis" 0
  2 "Bip01 L Thigh" 1
  3 "Bip01 L Calf" 2
  4 "Bip01 L Foot" 3
  5 "Bip01 L Toe0" 4
  6 "Bip01 R Thigh" 1
  7 "Bip01 R Calf" 6
  8 "Bip01 R Foot" 7
  9 "Bip01 R Toe0" 8
 10 "Bip01 Spine" 1
 11 "Bip01 Spine1" 10
 12 "Bip01 Spine2" 11
 13 "Bip01 Spine3" 12
 14 "Bip01 Neck" 13
 15 "Bip01 L Clavicle" 14
 16 "Bip01 L UpperArm" 15
 17 "Bip01 L Forearm" 16
 18 "Bip01 L Hand" 17
 19 "Bip01 R Clavicle" 14
 20 "Bip01 R UpperArm" 19
 21 "Bip01 R Forearm" 20
 22 "Bip01 R Hand" 21
 23 "Bip01 Head" 14
 24 "Bone05" 23
 25 "m4" 22
 26 "SHOTGUN" 22
end
skeleton
time 0
  0   2.590890 1.141356 26.375700 -0.040092 -0.068521 -1.133071
  1   3.040474 -1.414105 9.745319 -1.570795 -1.570451 0.000000
  2   -0.000008 0.000010 5.615750 -0.030964 3.089747 -0.721716
  3   15.693467 0.000000 0.000000 0.000000 0.000000 -0.660969
  4   22.146629 -0.000001 0.000000 0.420031 0.101317 -0.128408
  5   3.310129 5.734393 0.000000 0.000000 0.000000 1.570796
  6   0.000008 -0.000006 -5.615750 0.021094 3.189911 -0.092776
  7   15.693467 0.000000 0.000000 0.000000 0.000000 -0.808708
  8   22.146629 0.000000 0.000000 0.421829 -0.008320 0.648898
  9   3.310129 5.734393 0.000000 0.000000 0.000000 1.570796
 10   1.384163 -0.004728 0.000002 0.730371 -0.050799 -0.471487
 11   5.939814 -0.004730 0.000000 -0.034328 -0.013087 0.188066
 12   5.939809 -0.003975 0.000000 -0.034808 -0.029494 0.092659
 13   4.991439 -0.003975 0.000000 -0.026227 0.085354 0.010831
 14   4.991436 -0.001575 0.000000 0.000000 0.000000 -0.104642
 15   0.000005 0.001564 3.638375 -1.147225 -1.010380 4.327174
 16   8.842831 0.000000 -0.000002 -0.671015 -0.013156 -1.932844
 17   9.341934 0.000000 -0.000001 0.000000 0.000000 -1.147793
 18   11.168404 -0.000001 0.000002 -2.900615 0.037517 -0.028609
 19   0.000005 0.001585 -3.638375 -0.626348 0.804503 2.764965
 20   8.842831 0.000000 0.000001 0.331612 0.010132 -1.034054
 21   9.341937 0.000000 -0.000001 0.000000 0.000000 -1.285936
 22   11.168404 -0.000001 0.000001 2.693757 -0.308990 -0.821397
 23   1.977383 0.000000 0.000000 -1.102390 0.519414 0.252696
 24   3.723980 2.768054 -0.049087 0.000001 -3.141591 -1.570794
 25   12.421014 0.304721 4.492689 -0.091859 -0.075839 1.616818
 26   19.916998 1.704573 4.956909 2.262592 1.451744 0.734330
time 1
  0   2.530603 1.099091 26.748163 -0.035057 0.065558 -1.090597
  1   3.419392 -1.035187 9.745319 -1.570795 -1.570451 0.000000
  2   -0.000008 0.000010 5.615750 -0.060300 3.088502 -0.832105
  3   15.693467 0.000000 0.000000 0.000000 0.000000 -0.729474
  4   22.146629 -0.000001 0.000000 0.474849 0.120090 -0.070460
  5   3.310129 5.734393 0.000000 0.000000 0.000000 1.570796
  6   0.000008 -0.000006 -5.615750 0.097412 3.166518 -0.120198
  7   15.693467 0.000000 0.000000 0.000000 0.000000 -0.756754
  8   22.146629 0.000000 0.000000 0.376137 0.006079 0.665809
  9   3.310129 5.734393 0.000000 0.000000 0.000000 1.570796
 10   1.384163 -0.004728 0.000002 0.624377 -0.005395 -0.539395
 11   5.939814 -0.004730 0.000000 -0.084407 -0.023154 0.224131
 12   5.939809 -0.003975 0.000000 -0.075805 -0.034324 0.113160
 13   4.991439 -0.003975 0.000000 -0.096656 0.106291 -0.006240
 14   4.991436 -0.001575 0.000000 -0.005525 0.126809 -0.012599
 15   -0.457040 -0.017968 3.611031 -0.960369 -0.938622 4.079910
 16   8.842831 0.000000 -0.000002 -0.593379 0.072984 -1.638349
 17   9.341934 0.000000 -0.000001 0.000000 0.000000 -1.804065
 18   11.168404 -0.000001 0.000002 -2.696905 -0.163556 0.556916
 19   0.457050 0.021117 -3.611031 -1.183658 0.820292 2.194712
 20   8.842831 0.000000 0.000001 0.323872 -0.090169 -0.972291
 21   9.341937 0.000000 -0.000001 0.000000 0.000000 -1.280607
 22   11.168404 -0.000001 0.000001 2.719858 -0.234451 -1.042130
 23   1.977383 0.000000 0.000000 -0.998252 0.014526 0.010038
 24   3.723980 2.768054 -0.049087 0.000001 -3.141591 -1.570794
 25   12.421014 0.304721 4.492689 -0.091859 -0.075839 1.616818
 26   19.916998 1.704573 4.956909 2.262592 1.451744 0.734330
time 2
  0   2.485387 1.035695 27.375473 -0.022657 0.212443 -1.039974
  1   3.282669 -0.542984 9.745319 -1.570795 -1.570790 0.000000
  2   -0.000008 0.000010 5.615750 -0.105261 3.078727 -0.980533
  3   15.693467 0.000000 0.000000 0.000000 0.000000 -0.796415
  4   22.146629 -0.000001 0.000000 0.554906 0.147605 0.000706
  5   3.310129 5.734393 0.000000 0.000000 0.000000 1.570796
  6   0.000008 -0.000006 -5.615750 0.181304 3.146768 -0.162979
  7   15.693467 0.000000 0.000000 0.000000 0.000000 -0.668775
  8   22.146629 0.000000 0.000000 0.344943 0.025635 0.680430
  9   3.310129 5.734393 0.000000 0.000000 0.000000 1.570796
 10   1.384163 -0.004728 0.000002 0.416531 0.031905 -0.575989
 11   5.939814 -0.004730 0.000000 -0.160183 -0.029997 0.278591
 12   5.939809 -0.003975 0.000000 -0.138582 -0.035019 0.145379
 13   4.991439 -0.003975 0.000000 -0.201121 0.135594 -0.029955
 14   4.991436 -0.001575 0.000000 0.000216 0.273196 0.108912
 15   -0.980494 0.001564 3.505558 -0.812245 -0.825507 3.845398
 16   8.842831 0.000000 -0.000002 -0.584418 -0.105808 -1.328401
 17   9.341934 0.000000 -0.000001 0.000000 0.000000 -2.241060
 18   11.168404 -0.000001 0.000002 -2.802437 -0.226433 1.117233
 19   0.980504 0.001585 -3.505558 -1.750460 0.571575 1.555814
 20   8.842831 0.000000 0.000001 0.335805 -0.313611 -0.916819
 21   9.341937 0.000000 -0.000001 0.000000 0.000000 -1.322043
 22   11.168404 -0.000001 0.000001 2.633350 -0.178420 -1.098253
 23   1.977383 0.000000 0.000000 -0.478932 -0.338155 -0.452017
 24   3.723980 2.768054 -0.049087 0.000001 -3.141591 -1.570794
 25   12.421014 0.304721 4.492689 -0.091859 -0.075839 1.616818
 26   19.916998 1.704573 4.956909 2.262592 1.451744 0.734330
time 3
  0   2.447707 0.944123 28.022385 -0.002984 0.352065 -0.988776
  1   2.931096 0.136724 9.745319 -1.570795 -1.570451 0.000000
  2   -0.000008 0.000010 5.615750 -0.155784 3.065886 -1.124278
  3   15.693467 0.000000 0.000000 0.000000 0.000000 -0.850977
  4   22.146629 -0.000001 0.000000 0.637880 0.171033 0.074708
  5   3.310129 5.734393 0.000000 0.000000 0.000000 1.570796
  6   0.000008 -0.000006 -5.615750 0.266250 3.134017 -0.195170
  7   15.693467 0.000000 0.000000 0.000000 0.000000 -0.549981
  8   22.146629 0.000000 0.000000 0.317585 0.051883 0.682808
  9   3.310129 5.734393 0.000000 0.000000 0.000000 1.570796
 10   1.384163 -0.004728 0.000002 0.172971 0.059706 -0.593087
 11   5.939814 -0.004730 0.000000 -0.241838 -0.031292 0.336569
 12   5.939809 -0.003975 0.000000 -0.206617 -0.031903 0.179959
 13   4.991439 -0.003975 0.000000 -0.313897 0.164273 -0.056882
 14   4.991436 -0.001575 0.000000 0.001294 0.366441 0.200504
 15   -1.300816 0.005470 3.400086 -0.764692 -0.734304 3.724978
 16   8.842831 0.000000 -0.000002 -0.830676 -0.612511 -1.156407
 17   9.341934 0.000000 -0.000001 0.000000 0.000000 -2.536353
 18   11.168404 -0.000001 0.000002 0.288164 3.106632 -1.288549
 19   1.300826 -0.002321 -3.400086 -1.937987 0.199168 1.277111
 20   8.842831 0.000000 0.000001 0.275578 -0.467471 -0.932641
 21   9.341937 0.000000 -0.000001 0.000000 0.000000 -1.338631
 22   11.168404 -0.000001 0.000001 2.538732 -0.112439 -1.148924
 23   1.977383 0.000000 0.000000 0.066818 -0.270584 -0.551874
 24   3.723980 2.768054 -0.049087 0.000001 -3.141591 -1.570794
 25   12.421014 0.304721 4.492689 -0.091859 -0.075839 1.616818
 26   19.916998 1.704573 4.956909 2.262592 1.451744 0.734330
time 4
  0   2.410027 0.831419 28.551676 0.018741 0.464833 -0.947166
  1   2.645931 0.863309 9.745319 -1.570795 -1.570790 0.000000
  2   -0.000008 0.000010 5.615750 -0.200937 3.060711 -1.232756
  3   15.693467 0.000000 0.000000 0.000000 0.000000 -0.890529
  4   22.146629 -0.000001 0.000000 0.705710 0.182995 0.137458
  5   3.310129 5.734393 0.000000 0.000000 0.000000 1.570796
  6   0.000008 -0.000006 -5.615750 0.349951 3.131524 -0.202394
  7   15.693467 0.000000 0.000000 0.000000 0.000000 -0.420469
  8   22.146629 0.000000 0.000000 0.279395 0.084671 0.668187
  9   3.310129 5.734393 0.000000 0.000000 0.000000 1.570796
 10   1.384163 -0.004728 0.000002 -0.041136 0.079161 -0.599143
 11   5.939814 -0.004730 0.000000 -0.309374 -0.028919 0.382864
 12   5.939809 -0.003975 0.000000 -0.263435 -0.027421 0.207717
 13   4.991439 -0.003975 0.000000 -0.408227 0.185545 -0.080512
 14   4.991436 -0.001575 0.000000 0.002768 0.441101 0.279977
 15   -1.550824 0.009377 3.290708 -0.747819 -0.654891 3.641182
 16   8.842831 0.000000 -0.000002 -1.031762 -1.028609 -1.059436
 17   9.341934 0.000000 -0.000001 0.000000 0.000000 -2.621882
 18   11.168404 -0.000001 0.000002 0.401527 2.885461 -0.901393
 19   1.550834 -0.006228 -3.290708 -1.990430 -0.069246 1.198495
 20   8.842831 0.000000 0.000001 0.158832 -0.426129 -0.886223
 21   9.341937 0.000000 -0.000001 0.000000 0.000000 -1.262553
 22   11.168404 -0.000001 0.000001 2.419690 0.009446 -1.255906
 23   1.977383 0.000000 0.000000 0.493628 -0.319727 -0.442226
 24   3.723980 2.768054 -0.049087 0.000001 -3.141591 -1.570794
 25   12.421014 0.304721 4.492689 -0.091859 -0.075839 1.616818
 26   19.916998 1.704573 4.956909 2.262592 1.451744 0.734330
time 5
  0   2.387419 0.697583 28.884933 0.032726 0.532207 -0.929620
  1   2.552178 1.281290 9.745319 -1.570795 -1.570451 0.000000
  2   -0.000008 0.000010 5.615750 -0.230560 3.070102 -1.292586
  3   15.693467 0.000000 0.000000 0.000000 0.000000 -0.920976
  4   22.146629 -0.000001 0.000000 0.744935 0.183565 0.180496
  5   3.310129 5.734393 0.000000 0.000000 0.000000 1.570796
  6   0.000008 -0.000006 -5.615750 0.430008 3.136702 -0.185702
  7   15.693467 0.000000 0.000000 0.000000 0.000000 -0.316114
  8   22.146629 0.000000 0.000000 0.220278 0.123353 0.643525
  9   3.310129 5.734393 0.000000 0.000000 0.000000 1.570796
 10   1.384163 -0.004728 0.000002 -0.161064 0.088418 -0.601151
 11   5.939814 -0.004730 0.000000 -0.343134 -0.028236 0.402847
 12   5.939809 -0.003975 0.000000 -0.292834 -0.025791 0.219948
 13   4.991439 -0.003975 0.000000 -0.456433 0.195013 -0.092151
 14   4.991436 -0.001575 0.000000 0.000395 0.470999 0.286112
 15   -1.648483 0.001564 3.243832 -0.735739 -0.626158 3.628431
 16   8.842831 0.000000 -0.000002 -1.303441 -1.097168 -0.666403
 17   9.341934 0.000000 -0.000001 0.000000 0.000000 -2.700032
 18   11.168404 -0.000001 0.000002 0.248912 2.754348 -0.952840
 19   1.648493 0.001585 -3.243832 -2.010755 -0.173804 1.218053
 20   8.842831 0.000000 0.000001 0.100782 -0.346720 -0.821887
 21   9.341937 0.000000 -0.000001 0.000000 0.000000 -1.187542
 22   11.168404 -0.000001 0.000001 2.353970 0.098530 -1.322277
 23   1.977383 0.000000 0.000000 0.700795 -0.430251 -0.347985
 24   3.723980 2.768054 -0.049087 0.000001 -3.141591 -1.570794
 25   12.421014 0.304721 4.492689 -0.091859 -0.075839 1.616818
 26   19.916998 1.704573 4.956909 2.262592 1.451744 0.734330
time 6
  0   2.364812 0.549658 29.022158 0.033938 0.556672 -0.940167
  1   2.591242 1.394575 9.745319 -1.570795 -1.570451 0.000000
  2   -0.000008 0.000010 5.615750 -0.245132 3.091568 -1.316002
  3   15.693467 0.000000 0.000000 0.000000 0.000000 -0.949217
  4   22.146629 -0.000001 0.000000 0.758322 0.177373 0.208944
  5   3.310129 5.734393 0.000000 0.000000 0.000000 1.570796
  6   0.000008 -0.000006 -5.615750 0.504600 3.142071 -0.158070
  7   15.693467 0.000000 0.000000 0.000000 0.000000 -0.251358
  8   22.146629 0.000000 0.000000 0.143900 0.165658 0.618511
  9   3.310129 5.734393 0.000000 0.000000 0.000000 1.570796
 10   1.384163 -0.004728 0.000002 -0.203105 0.091156 -0.603223
 11   5.939814 -0.004730 0.000000 -0.350077 -0.031112 0.401623
 12   5.939809 -0.003975 0.000000 -0.300566 -0.027601 0.219661
 13   4.991439 -0.003975 0.000000 -0.467645 0.196403 -0.093328
 14   4.991436 -0.001575 0.000000 -0.007742 0.465005 0.217854
 15   -1.628951 -0.021874 3.255551 -0.714647 -0.642266 3.676944
 16   8.842831 0.000000 -0.000002 -1.440516 -1.075493 -0.527553
 17   9.341934 0.000000 -0.000001 0.000000 0.000000 -2.694701
 18   11.168404 -0.000001 0.000002 0.249008 2.718076 -0.903948
 19   1.628961 0.025023 -3.255551 -2.010755 -0.149991 1.261579
 20   8.842831 0.000000 0.000001 0.091590 -0.342382 -0.844286
 21   9.341937 0.000000 -0.000001 0.000000 0.000000 -1.177283
 22   11.168404 -0.000001 0.000001 2.433021 0.111769 -1.310150
 23   1.977383 0.000000 0.000000 0.745834 -0.461335 -0.269800
 24   3.723980 2.768054 -0.049087 0.000001 -3.141591 -1.570794
 25   12.421014 0.304721 4.492689 -0.091859 -0.075839 1.616818
 26   19.916998 1.704573 4.956909 2.262592 1.451744 0.734330
time 7
  0   2.357276 0.373558 29.002554 0.026946 0.556767 -0.968259
  1   2.645931 1.441451 9.745319 -1.570795 -1.570451 0.000000
  2   -0.000008 0.000010 5.615750 -0.250117 3.119646 -1.319538
  3   15.693467 0.000000 0.000000 0.000000 0.000000 -0.976747
  4   22.146629 -0.000001 0.000000 0.754882 0.167814 0.229663
  5   3.310129 5.734393 0.000000 0.000000 0.000000 1.570796
  6   0.000008 -0.000006 -5.615750 0.572384 3.142262 -0.130929
  7   15.693467 0.000000 0.000000 0.000000 0.000000 -0.222404
  8   22.146629 0.000000 0.000000 0.058779 0.208055 0.597637
  9   3.310129 5.734393 0.000000 0.000000 0.000000 1.570796
 10   1.384163 -0.004728 0.000002 -0.228282 0.093946 -0.604292
 11   5.939814 -0.004730 0.000000 -0.350734 -0.035187 0.394490
 12   5.939809 -0.003975 0.000000 -0.303488 -0.030237 0.215938
 13   4.991439 -0.003975 0.000000 -0.470401 0.196116 -0.091747
 14   4.991436 -0.001575 0.000000 -0.017701 0.450286 0.122714
 15   -1.582075 -0.053125 3.278989 -0.689912 -0.671035 3.747413
 16   8.842831 0.000000 -0.000002 -1.522632 -1.050563 -0.464922
 17   9.341934 0.000000 -0.000001 0.000000 0.000000 -2.687649
 18   11.168404 -0.000001 0.000002 0.277850 2.704295 -0.787934
 19   1.582085 0.056274 -3.278989 -2.008550 -0.083029 1.321212
 20   8.842831 0.000000 0.000001 0.088688 -0.349376 -0.889369
 21   9.341937 0.000000 -0.000001 0.000000 0.000000 -1.178815
 22   11.168404 -0.000001 0.000001 2.558774 0.107005 -1.274332
 23   1.977383 0.000000 0.000000 0.748636 -0.473851 -0.173870
 24   3.723980 2.768054 -0.049087 0.000001 -3.141591 -1.570794
 25   12.421014 0.304721 4.492689 -0.091859 -0.075839 1.616818
 26   19.916998 1.704573 4.956909 2.262592 1.451744 0.734330
time 8
  0   2.349740 0.190413 28.845728 0.014825 0.538132 -1.008143
  1   2.716245 1.437545 9.745319 -1.570795 -1.570451 0.000000
  2   -0.000008 0.000010 5.615750 -0.247816 3.150695 -1.307782
  3   15.693467 0.000000 0.000000 0.000000 0.000000 -1.002926
  4   22.146629 -0.000001 0.000000 0.738578 0.156174 0.244299
  5   3.310129 5.734393 0.000000 0.000000 0.000000 1.570796
  6   0.000008 -0.000006 -5.615750 0.629623 3.131141 -0.109678
  7   15.693467 0.000000 0.000000 0.000000 0.000000 -0.233569
  8   22.146629 0.000000 0.000000 -0.028035 0.246399 0.585746
  9   3.310129 5.734393 0.000000 0.000000 0.000000 1.570796
 10   1.384163 -0.004728 0.000002 -0.239221 0.096549 -0.603871
 11   5.939814 -0.004730 0.000000 -0.345939 -0.040160 0.382443
 12   5.939809 -0.003975 0.000000 -0.302237 -0.033569 0.209379
 13   4.991439 -0.003975 0.000000 -0.465836 0.194354 -0.087828
 14   4.991436 -0.001575 0.000000 -0.026690 0.427876 0.011126
 15   -1.507854 -0.084376 3.310240 -0.665943 -0.710324 3.833605
 16   8.842831 0.000000 -0.000002 -1.543665 -1.052981 -0.480598
 17   9.341934 0.000000 -0.000001 0.000000 0.000000 -2.688961
 18   11.168404 -0.000001 0.000002 0.324360 2.727263 -0.612119
 19   1.507864 0.087525 -3.310240 -2.003277 0.006716 1.394651
 20   8.842831 0.000000 0.000001 0.090462 -0.366196 -0.940647
 21   9.341937 0.000000 -0.000001 0.000000 0.000000 -1.188341
 22   11.168404 -0.000001 0.000001 2.695061 0.084533 -1.231182
 23   1.977383 0.000000 0.000000 0.718240 -0.468471 -0.065265
 24   3.723980 2.768054 -0.049087 0.000001 -3.141591 -1.570794
 25   12.421014 0.304721 4.492689 -0.091859 -0.075839 1.616818
 26   19.916998 1.704573 4.956909 2.262592 1.451744 0.734330
time 9
  0   2.349740 -0.013863 28.610487 0.001212 0.506595 -1.053781
  1   2.782654 1.390668 9.745319 -1.570795 -1.570451 0.000000
  2   -0.000008 0.000010 5.615750 -0.238517 3.179827 -1.286182
  3   15.693467 0.000000 0.000000 0.000000 0.000000 -1.026686
  4   22.146629 -0.000001 0.000000 0.711207 0.143097 0.254132
  5   3.310129 5.734393 0.000000 0.000000 0.000000 1.570796
  6   0.000008 -0.000006 -5.615750 0.662988 3.111295 -0.093127
  7   15.693467 0.000000 0.000000 0.000000 0.000000 -0.270934
  8   22.146629 0.000000 0.000000 -0.099845 0.273016 0.583545
  9   3.310129 5.734393 0.000000 0.000000 0.000000 1.570796
 10   1.384163 -0.004728 0.000002 -0.238548 0.098723 -0.601442
 11   5.939814 -0.004730 0.000000 -0.336545 -0.045637 0.366457
 12   5.939809 -0.003975 0.000000 -0.297453 -0.037392 0.200547
 13   4.991439 -0.003975 0.000000 -0.455141 0.191298 -0.081975
 14   4.991436 -0.001575 0.000000 -0.032298 0.399430 -0.106747
 15   -1.414101 -0.103908 3.353210 -0.647248 -0.757086 3.929865
 16   8.842831 0.000000 -0.000002 -1.490444 -1.084331 -0.574359
 17   9.341934 0.000000 -0.000001 0.000000 0.000000 -2.697325
 18   11.168404 -0.000001 0.000002 0.357214 2.788418 -0.428442
 19   1.414111 0.107057 -3.353210 -1.992347 0.098674 1.479978
 20   8.842831 0.000000 0.000001 0.096347 -0.391426 -0.981823
 21   9.341937 0.000000 -0.000001 0.000000 0.000000 -1.202064
 22   11.168404 -0.000001 0.000001 2.806459 0.050974 -1.195835
 23   1.977383 0.000000 0.000000 0.664268 -0.448356 0.048509
 24   3.723980 2.768054 -0.049087 0.000001 -3.141591 -1.570794
 25   12.421014 0.304721 4.492689 -0.091859 -0.075839 1.616818
 26   19.916998 1.704573 4.956909 2.262592 1.451744 0.734330
time 10
  0   2.349740 -0.225183 28.336039 -0.011095 0.468273 -1.099706
  1   2.849062 1.312541 9.745319 -1.570795 -1.570451 0.000000
  2   -0.000008 0.000010 5.615750 -0.208990 3.193243 -1.262480
  3   15.693467 0.000000 0.000000 0.000000 0.000000 -1.047244
  4   22.146629 -0.000001 0.000000 0.657923 0.126257 0.258340
  5   3.310129 5.734393 0.000000 0.000000 0.000000 1.570796
  6   0.000008 -0.000006 -5.615750 0.603928 3.099503 -0.086324
  7   15.693467 0.000000 0.000000 0.000000 0.000000 -0.316412
  8   22.146629 0.000000 0.000000 -0.086701 0.256438 0.605123
  9   3.310129 5.734393 0.000000 0.000000 0.000000 1.570796
 10   1.384163 -0.004728 0.000002 -0.228888 0.100145 -0.596552
 11   5.939814 -0.004730 0.000000 -0.323457 -0.051258 0.347545
 12   5.939809 -0.003975 0.000000 -0.289746 -0.041491 0.190028
 13   4.991439 -0.003975 0.000000 -0.439479 0.187103 -0.074626
 14   4.991436 -0.001575 0.000000 -0.033101 0.367174 -0.221402
 15   -1.304722 -0.107814 3.396180 -0.637757 -0.807585 4.030534
 16   8.842831 0.000000 -0.000002 -1.348340 -1.115308 -0.733513
 17   9.341934 0.000000 -0.000001 0.000000 0.000000 -2.706428
 18   11.168404 -0.000001 0.000002 0.344225 2.857612 -0.313165
 19   1.304732 0.110963 -3.396180 1.169257 2.969459 4.716173
 20   8.842831 0.000000 0.000001 0.106264 -0.423119 -0.997168
 21   9.341937 0.000000 -0.000001 0.000000 0.000000 -1.216054
 22   11.168404 -0.000001 0.000001 2.859501 0.018173 -1.179007
 23   1.977383 0.000000 0.000000 0.595970 -0.417966 0.160096
 24   3.723980 2.768054 -0.049087 0.000001 -3.141591 -1.570794
 25   12.421014 0.304721 4.492689 -0.091859 -0.075839 1.616818
 26   19.916998 1.704573 4.956909 2.262592 1.451744 0.734330
time 11
  0   2.357276 -0.450592 28.041988 -0.020792 0.429473 -1.141412
  1   2.895938 1.203163 9.745319 -1.570795 -1.570451 0.000000
  2   -0.000008 0.000010 5.615750 -0.184735 3.205509 -1.237248
  3   15.693467 0.000000 0.000000 0.000000 0.000000 -1.064602
  4   22.146629 -0.000001 0.000000 0.611631 0.111075 0.262502
  5   3.310129 5.734393 0.000000 0.000000 0.000000 1.570796
  6   0.000008 -0.000006 -5.615750 0.561934 3.087710 -0.078539
  7   15.693467 0.000000 0.000000 0.000000 0.000000 -0.358318
  8   22.146629 0.000000 0.000000 -0.086193 0.246921 0.621418
  9   3.310129 5.734393 0.000000 0.000000 0.000000 1.570796
 10   1.384163 -0.004728 0.000002 -0.212832 0.100467 -0.588748
 11   5.939814 -0.004730 0.000000 -0.307563 -0.056627 0.326664
 12   5.939809 -0.003975 0.000000 -0.279768 -0.045685 0.178422
 13   4.991439 -0.003975 0.000000 -0.420042 0.181914 -0.066199
 14   4.991436 -0.001575 0.000000 -0.028883 0.333539 -0.323969
 15   -1.187531 -0.096095 3.439150 -0.639770 -0.857432 4.129382
 16   8.842831 0.000000 -0.000002 -1.117170 -1.120238 -0.981053
 17   9.341934 0.000000 -0.000001 0.000000 0.000000 -2.674119
 18   11.168404 -0.000001 0.000002 0.337158 2.953698 -0.327219
 19   1.187541 0.099244 -3.439150 1.198882 2.921989 4.810608
 20   8.842831 0.000000 0.000001 0.127469 -0.459946 -0.999265
 21   9.341937 0.000000 -0.000001 0.000000 0.000000 -1.232775
 22   11.168404 -0.000001 0.000001 2.834052 -0.014248 -1.193954
 23   1.977383 0.000000 0.000000 0.521487 -0.381917 0.263233
 24   3.723980 2.768054 -0.049087 0.000001 -3.141591 -1.570794
 25   12.421014 0.304721 4.492689 -0.091859 -0.075839 1.616818
 26   19.916998 1.704573 4.956909 2.262592 1.451744 0.734330
time 12
  0   2.372348 -0.690088 27.787144 -0.027318 0.396694 -1.175065
  1   2.927189 1.082065 9.745319 -1.570795 -1.570451 0.000000
  2   -0.000008 0.000010 5.615750 -0.163836 3.214038 -1.214692
  3   15.693467 0.000000 0.000000 0.000000 0.000000 -1.079256
  4   22.146629 -0.000001 0.000000 0.571658 0.097652 0.267030
  5   3.310129 5.734393 0.000000 0.000000 0.000000 1.570796
  6   0.000008 -0.000006 -5.615750 0.521762 3.080424 -0.071246
  7   15.693467 0.000000 0.000000 0.000000 0.000000 -0.390919
  8   22.146629 0.000000 0.000000 -0.080665 0.236606 0.635510
  9   3.310129 5.734393 0.000000 0.000000 0.000000 1.570796
 10   1.384163 -0.004728 0.000002 -0.193074 0.099286 -0.577640
 11   5.939814 -0.004730 0.000000 -0.289751 -0.061457 0.304865
 12   5.939809 -0.003975 0.000000 -0.268169 -0.049784 0.166329
 13   4.991439 -0.003975 0.000000 -0.397992 0.175910 -0.057134
 14   4.991436 -0.001575 0.000000 -0.020590 0.300866 -0.405969
 15   -1.078153 -0.068751 3.474308 -0.653959 -0.902235 4.219026
 16   8.842831 0.000000 -0.000002 -0.887737 -1.087586 -1.232027
 17   9.341934 0.000000 -0.000001 0.000000 0.000000 -2.591131
 18   11.168404 -0.000001 0.000002 0.369629 3.067202 -0.456991
 19   1.078163 0.071900 -3.474308 1.233205 2.892674 4.891428
 20   8.842831 0.000000 0.000001 0.161896 -0.498632 -1.009082
 21   9.341937 0.000000 -0.000001 0.000000 0.000000 -1.254692
 22   11.168404 -0.000001 0.000001 2.754070 -0.054174 -1.230054
 23   1.977383 0.000000 0.000000 0.447955 -0.344044 0.352801
 24   3.723980 2.768054 -0.049087 0.000001 -3.141591 -1.570794
 25   12.421014 0.304721 4.492689 -0.091859 -0.075839 1.616818
 26   19.916998 1.704573 4.956909 2.262592 1.451744 0.734330
time 13
  0   2.387419 -0.943673 27.551903 -0.031794 0.368789 -1.203061
  1   2.923283 0.945342 9.745319 -1.570795 -1.570451 0.000000
  2   -0.000008 0.000010 5.615750 -0.144567 3.220554 -1.191754
  3   15.693467 0.000000 0.000000 0.000000 0.000000 -1.091705
  4   22.146629 -0.000001 0.000000 0.533779 0.085046 0.270917
  5   3.310129 5.734393 0.000000 0.000000 0.000000 1.570796
  6   0.000008 -0.000006 -5.615750 0.481973 3.074096 -0.065074
  7   15.693467 0.000000 0.000000 0.000000 0.000000 -0.422851
  8   22.146629 0.000000 0.000000 -0.073445 0.225799 0.649250
  9   3.310129 5.734393 0.000000 0.000000 0.000000 1.570796
 10   1.384163 -0.004728 0.000002 -0.172273 0.096227 -0.562809
 11   5.939814 -0.004730 0.000000 -0.271015 -0.065484 0.283199
 12   5.939809 -0.003975 0.000000 -0.255601 -0.053631 0.154336
 13   4.991439 -0.003975 0.000000 -0.374492 0.169306 -0.047850
 14   4.991436 -0.001575 0.000000 -0.010091 0.271169 -0.459041
 15   -0.972681 -0.033593 3.505558 -0.678215 -0.937860 4.289687
 16   8.842831 0.000000 -0.000002 -0.579114 -1.107959 -1.573403
 17   9.341934 0.000000 -0.000001 0.000000 0.000000 -2.508062
 18   11.168404 -0.000001 0.000002 0.419864 3.146253 -0.517382
 19   0.972691 0.036742 -3.505558 1.268102 2.878685 4.949815
 20   8.842831 0.000000 0.000001 0.200354 -0.534486 -1.021950
 21   9.341937 0.000000 -0.000001 0.000000 0.000000 -1.278342
 22   11.168404 -0.000001 0.000001 2.650969 -0.098105 -1.260607
 23   1.977383 0.000000 0.000000 0.381772 -0.306887 0.424525
 24   3.723980 2.768054 -0.049087 0.000001 -3.141591 -1.570794
 25   12.421014 0.304721 4.492689 -0.091859 -0.075839 1.616818
 26   19.916998 1.704573 4.956909 2.262592 1.451744 0.734330
time 14
  0   2.402491 -1.204302 27.316662 -0.035244 0.339928 -1.230098
  1   2.880313 0.804713 9.745319 -1.570795 -1.570451 0.000000
  2   -0.000008 0.000010 5.615750 -0.125777 3.226687 -1.164229
  3   15.693467 0.000000 0.000000 0.000000 0.000000 -1.102234
  4   22.146629 -0.000001 0.000000 0.493956 0.072316 0.273021
  5   3.310129 5.734393 0.000000 0.000000 0.000000 1.570796
  6   0.000008 -0.000006 -5.615750 0.441896 3.065947 -0.060515
  7   15.693467 0.000000 0.000000 0.000000 0.000000 -0.461704
  8   22.146629 0.000000 0.000000 -0.068481 0.215361 0.663431
  9   3.310129 5.734393 0.000000 0.000000 0.000000 1.570796
 10   1.384163 -0.004728 0.000002 -0.153087 0.090941 -0.543929
 11   5.939814 -0.004730 0.000000 -0.252280 -0.068540 0.262700
 12   5.939809 -0.003975 0.000000 -0.242714 -0.057119 0.143067
 13   4.991439 -0.003975 0.000000 -0.350676 0.162331 -0.038700
 14   4.991436 -0.001575 0.000000 0.000192 0.246115 -0.474948
 15   -0.882834 0.001564 3.528997 -0.707936 -0.960897 4.329380
 16   8.842831 0.000000 -0.000002 -0.359283 -1.101540 -1.840277
 17   9.341934 0.000000 -0.000001 0.000000 0.000000 -2.470259
 18   11.168404 -0.000001 0.000002 0.472869 3.181185 -0.547503
 19   0.882844 0.001585 -3.528997 1.298878 2.876216 4.977043
 20   8.842831 0.000000 0.000001 0.231153 -0.564762 -1.031481
 21   9.341937 0.000000 -0.000001 0.000000 0.000000 -1.300126
 22   11.168404 -0.000001 0.000001 2.554486 -0.136681 -1.262299
 23   1.977383 0.000000 0.000000 0.329174 -0.271970 0.473981
 24   3.723980 2.768054 -0.049087 0.000001 -3.141591 -1.570794
 25   12.421014 0.304721 4.492689 -0.091859 -0.075839 1.616818
 26   19.916998 1.704573 4.956909 2.262592 1.451744 0.734330
time 15
  0   2.425099 -1.464930 27.061819 -0.037761 0.310398 -1.256368
  1   2.782654 0.660177 9.745319 -1.570795 -1.570451 0.000000
  2   -0.000008 0.000010 5.615750 -0.107946 3.231862 -1.134027
  3   15.693467 0.000000 0.000000 0.000000 0.000000 -1.110699
  4   22.146629 -0.000001 0.000000 0.453497 0.059636 0.273661
  5   3.310129 5.734393 0.000000 0.000000 0.000000 1.570796
  6   0.000008 -0.000006 -5.615750 0.401916 3.057222 -0.057570
  7   15.693467 0.000000 0.000000 0.000000 0.000000 -0.504056
  8   22.146629 0.000000 0.000000 -0.064589 0.205138 0.677259
  9   3.310129 5.734393 0.000000 0.000000 0.000000 1.570796
 10   1.384163 -0.004728 0.000002 -0.138277 0.083159 -0.520613
 11   5.939814 -0.004730 0.000000 -0.234557 -0.070553 0.244477
 12   5.939809 -0.003975 0.000000 -0.230197 -0.060139 0.133148
 13   4.991439 -0.003975 0.000000 -0.327707 0.155272 -0.030055
 14   4.991436 -0.001575 0.000000 0.009396 0.223806 -0.415531
 15   -0.804707 0.032815 3.548529 -0.746668 -0.965105 4.303301
 16   8.842831 0.000000 -0.000002 -0.426586 -1.067400 -1.834753
 17   9.341934 0.000000 -0.000001 0.000000 0.000000 -2.511588
 18   11.168404 -0.000001 0.000002 0.512790 3.179654 -0.569467
 19   0.804717 -0.029666 -3.548529 1.323613 2.887171 4.937064
 20   8.842831 0.000000 0.000001 0.241151 -0.589018 -1.029956
 21   9.341937 0.000000 -0.000001 0.000000 0.000000 -1.316447
 22   11.168404 -0.000001 0.000001 2.493334 -0.156539 -1.216047
 23   1.977383 0.000000 0.000000 0.309720 -0.239639 0.476019
 24   3.723980 2.768054 -0.049087 0.000001 -3.141591 -1.570794
 25   12.421014 0.304721 4.492689 -0.091859 -0.075839 1.616818
 26   19.916998 1.704573 4.956909 2.262592 1.451744 0.734330
time 16
  0   2.440171 -1.732603 26.787371 -0.039439 0.280199 -1.281967
  1   2.614680 0.519548 9.745319 -1.570795 -1.570451 0.000000
  2   -0.000008 0.000010 5.615750 -0.091456 3.235983 -1.102391
  3   15.693467 0.000000 0.000000 0.000000 0.000000 -1.117172
  4   22.146629 -0.000001 0.000000 0.413375 0.047179 0.272930
  5   3.310129 5.734393 0.000000 0.000000 0.000000 1.570796
  6   0.000008 -0.000006 -5.615750 0.362127 3.048977 -0.056307
  7   15.693467 0.000000 0.000000 0.000000 0.000000 -0.547897
  8   22.146629 0.000000 0.000000 -0.061091 0.195038 0.690294
  9   3.310129 5.734393 0.000000 0.000000 0.000000 1.570796
 10   1.384163 -0.004728 0.000002 -0.130670 0.072801 -0.492374
 11   5.939814 -0.004730 0.000000 -0.218787 -0.071476 0.229562
 12   5.939809 -0.003975 0.000000 -0.218726 -0.062619 0.125203
 13   4.991439 -0.003975 0.000000 -0.306677 0.148441 -0.022251
 14   4.991436 -0.001575 0.000000 0.015772 0.201081 -0.274595
 15   -0.726580 0.056253 3.568060 -0.797289 -0.953424 4.206658
 16   8.842831 0.000000 -0.000002 -1.080958 -1.339589 -1.537272
 17   9.341934 0.000000 -0.000001 0.000000 0.000000 -2.887081
 18   11.168404 -0.000001 0.000002 0.688135 2.917139 0.115954
 19   0.726590 -0.053104 -3.568060 1.353909 2.916023 4.852888
 20   8.842831 0.000000 0.000001 0.156574 -0.628767 -0.960758
 21   9.341937 0.000000 -0.000001 0.000000 0.000000 -1.318312
 22   11.168404 -0.000001 0.000001 2.535190 -0.089462 -0.971623
 23   1.977383 0.000000 0.000000 0.334777 -0.208140 0.421692
 24   3.723980 2.768054 -0.049087 0.000001 -3.141591 -1.570794
 25   12.421014 0.304721 4.492689 -0.091859 -0.075839 1.616818
 26   19.916998 1.704573 4.956909 2.262592 1.451744 0.734330
time 17
  0   2.462779 -2.007319 26.512922 -0.040185 0.249523 -1.306895
  1   2.364672 0.378919 9.745319 -1.570795 -1.570451 0.000000
  2   -0.000008 0.000010 5.615750 -0.076309 3.238954 -1.070565
  3   15.693467 0.000000 0.000000 0.000000 0.000000 -1.121654
  4   22.146629 -0.000001 0.000000 0.374150 0.035044 0.270826
  5   3.310129 5.734393 0.000000 0.000000 0.000000 1.570796
  6   0.000008 -0.000006 -5.615750 0.322913 3.041595 -0.057079
  7   15.693467 0.000000 0.000000 0.000000 0.000000 -0.592333
  8   22.146629 0.000000 0.000000 -0.057368 0.184968 0.702449
  9   3.310129 5.734393 0.000000 0.000000 0.000000 1.570796
 10   1.384163 -0.004728 0.000002 -0.133026 0.060028 -0.458728
 11   5.939814 -0.004730 0.000000 -0.205983 -0.071356 0.219083
 12   5.939809 -0.003975 0.000000 -0.208965 -0.064549 0.119868
 13   4.991439 -0.003975 0.000000 -0.288703 0.142173 -0.015574
 14   4.991436 -0.001575 0.000000 0.017162 0.178499 -0.091051
 15   -0.644546 0.060160 3.583686 -0.856059 -0.936046 4.073678
 16   8.842831 0.000000 -0.000002 -0.584418 0.914110 0.549276
 17   9.341934 0.000000 -0.000001 0.000000 0.000000 -2.879701
 18   11.168404 -0.000001 0.000002 -3.596838 0.274479 0.461933
 19   0.644556 -0.057011 -3.583686 1.386122 2.936184 4.747427
 20   8.842831 0.000000 0.000001 0.014190 -0.651164 -0.863539
 21   9.341937 0.000000 -0.000001 0.000000 0.000000 -1.303457
 22   11.168404 -0.000001 0.000001 2.655630 -0.063323 -0.676811
 23   1.977383 0.000000 0.000000 0.398106 -0.179296 0.331130
 24   3.723980 2.768054 -0.049087 0.000001 -3.141591 -1.570794
 25   12.421014 0.304721 4.492689 -0.091859 -0.075839 1.616818
 26   19.916998 1.704573 4.956909 2.262592 1.451744 0.734330
time 18
  0   2.492923 -2.282036 26.238476 -0.040092 0.218464 -1.331439
  1   2.013099 0.234383 9.745319 -1.570795 -1.570451 0.000000
  2   -0.000008 0.000010 5.615750 -0.062313 3.240870 -1.039312
  3   15.693467 0.000000 0.000000 0.000000 0.000000 -1.124002
  4   22.146629 -0.000001 0.000000 0.336234 0.023206 0.266847
  5   3.310129 5.734393 0.000000 0.000000 0.000000 1.570796
  6   0.000008 -0.000006 -5.615750 0.284275 3.035459 -0.060726
  7   15.693467 0.000000 0.000000 0.000000 0.000000 -0.637662
  8   22.146629 0.000000 0.000000 -0.053420 0.174776 0.713547
  9   3.310129 5.734393 0.000000 0.000000 0.000000 1.570796
 10   1.384163 -0.004728 0.000002 -0.143628 0.044249 -0.417438
 11   5.939814 -0.004730 0.000000 -0.195115 -0.070110 0.212600
 12   5.939809 -0.003975 0.000000 -0.200007 -0.065915 0.116920
 13   4.991439 -0.003975 0.000000 -0.272209 0.136097 -0.009604
 14   4.991436 -0.001575 0.000000 0.013495 0.157210 0.096704
 15   -0.566419 0.048440 3.595405 -0.917322 -0.921390 3.937247
 16   8.842831 0.000000 -0.000002 1.111866 0.774666 2.165081
 17   9.341934 0.000000 -0.000001 0.000000 0.000000 -2.485511
 18   11.168404 -0.000001 0.000002 -3.406213 0.307209 -0.639390
 19   0.566429 -0.045291 -3.595405 -1.721122 0.202614 1.495797
 20   8.842831 0.000000 0.000001 -0.124969 -0.639567 -0.785477
 21   9.341937 0.000000 -0.000001 0.000000 0.000000 -1.280940
 22   11.168404 -0.000001 0.000001 2.762366 -0.198066 -0.551779
 23   1.977383 0.000000 0.000000 0.481417 -0.151954 0.225408
 24   3.723980 2.768054 -0.049087 0.000001 -3.141591 -1.570794
 25   12.421014 0.304721 4.492689 -0.091859 -0.075839 1.616818
 26   19.916998 1.704573 4.956909 2.262592 1.451744 0.734330
time 19
  0   2.515531 -2.563797 25.964027 -0.039253 0.186927 -1.355505
  1   1.552147 0.078128 9.745319 -1.570795 -1.570451 0.000000
  2   -0.000008 0.000010 5.615750 -0.048987 3.240966 -1.009684
  3   15.693467 0.000000 0.000000 0.000000 0.000000 -1.123717
  4   22.146629 -0.000001 0.000000 0.298991 0.011962 0.260398
  5   3.310129 5.734393 0.000000 0.000000 0.000000 1.570796
  6   0.000008 -0.000006 -5.615750 0.243719 3.032391 -0.068300
  7   15.693467 0.000000 0.000000 0.000000 0.000000 -0.683364
  8   22.146629 0.000000 0.000000 -0.046086 0.162803 0.723588
  9   3.310129 5.734393 0.000000 0.000000 0.000000 1.570796
 10   1.384163 -0.004728 0.000002 -0.158708 0.025304 -0.367406
 11   5.939814 -0.004730 0.000000 -0.184495 -0.067725 0.208757
 12   5.939809 -0.003975 0.000000 -0.190540 -0.066838 0.115558
 13   4.991439 -0.003975 0.000000 -0.254968 0.129589 -0.003717
 14   4.991436 -0.001575 0.000000 0.006687 0.138035 0.250599
 15   -0.500010 0.025002 3.607124 -0.972545 -0.914497 3.828716
 16   8.842831 0.000000 -0.000002 1.333252 0.848063 2.350586
 17   9.341934 0.000000 -0.000001 0.000000 0.000000 -2.036954
 18   11.168404 -0.000001 0.000002 -3.438684 0.375733 -0.825475
 19   0.500020 -0.021853 -3.607124 -1.681335 0.219021 1.421783
 20   8.842831 0.000000 0.000001 -0.257114 -0.599376 -0.720950
 21   9.341937 0.000000 -0.000001 0.000000 0.000000 -1.251961
 22   11.168404 -0.000001 0.000001 2.859874 -0.378723 -0.488229
 23   1.977383 0.000000 0.000000 0.560393 -0.120293 0.127341
 24   3.723980 2.768054 -0.049087 0.000001 -3.141591 -1.570794
 25   12.421014 0.304721 4.492689 -0.091859 -0.075839 1.616818
 26   19.916998 1.704573 4.956909 2.262592 1.451744 0.734330
time 20
  0   2.538138 -2.838513 25.709185 -0.037575 0.155295 -1.379282
  1   0.997443 -0.082033 9.745319 -1.570795 -1.570451 0.000000
  2   -0.000008 0.000010 5.615750 -0.036237 3.240679 -0.980724
  3   15.693467 0.000000 0.000000 0.000000 0.000000 -1.122508
  4   22.146629 -0.000001 0.000000 0.262833 0.000297 0.253080
  5   3.310129 5.734393 0.000000 0.000000 0.000000 1.570796
  6   0.000008 -0.000006 -5.615750 0.203739 3.030186 -0.077067
  7   15.693467 0.000000 0.000000 0.000000 0.000000 -0.728842
  8   22.146629 0.000000 0.000000 -0.038471 0.151965 0.732483
  9   3.310129 5.734393 0.000000 0.000000 0.000000 1.570796
 10   1.384163 -0.004728 0.000002 -0.178163 0.004266 -0.309828
 11   5.939814 -0.004730 0.000000 -0.174106 -0.064429 0.207150
 12   5.939809 -0.003975 0.000000 -0.180613 -0.067413 0.115546
 13   4.991439 -0.003975 0.000000 -0.237110 0.122698 0.002018
 14   4.991436 -0.001575 0.000000 0.000096 0.120542 0.332509
 15   -0.437508 0.001564 3.614937 -1.012140 -0.917508 3.778764
 16   8.842831 0.000000 -0.000002 1.495474 1.045181 2.446064
 17   9.341934 0.000000 -0.000001 0.000000 0.000000 -1.694098
 18   11.168404 -0.000001 0.000002 -3.469150 0.444735 -0.891418
 19   0.437518 0.001585 -3.614937 -1.632919 0.295703 1.400883
 20   8.842831 0.000000 0.000001 -0.314197 -0.520853 -0.756883
 21   9.341937 0.000000 -0.000001 0.000000 0.000000 -1.211857
 22   11.168404 -0.000001 0.000001 2.895671 -0.462959 -0.411611
 23   1.977383 0.000000 0.000000 0.615740 -0.079395 0.060239
 24   3.723980 2.768054 -0.049087 0.000001 -3.141591 -1.570794
 25   12.421014 0.304721 4.492689 -0.091859 -0.075839 1.616818
 26   19.916998 1.704573 4.956909 2.262592 1.451744 0.734330
time 21
  0   2.560746 -3.113230 25.513149 -0.035057 0.123376 -1.402868
  1   0.364611 -0.242194 9.745319 -1.570795 -1.570451 0.000000
  2   -0.000008 0.000010 5.615750 -0.025979 3.239912 -0.953581
  3   15.693467 0.000000 0.000000 0.000000 0.000000 -1.119093
  4   22.146629 -0.000001 0.000000 0.229852 -0.009931 0.243750
  5   3.310129 5.734393 0.000000 0.000000 0.000000 1.570796
  6   0.000008 -0.000006 -5.615750 0.168936 3.027885 -0.087937
  7   15.693467 0.000000 0.000000 0.000000 0.000000 -0.773055
  8   22.146629 0.000000 0.000000 -0.034184 0.143155 0.738825
  9   3.310129 5.734393 0.000000 0.000000 0.000000 1.570796
 10   1.384163 -0.004728 0.000002 -0.201758 -0.017765 -0.245902
 11   5.939814 -0.004730 0.000000 -0.163895 -0.060426 0.207399
 12   5.939809 -0.003975 0.000000 -0.170354 -0.067713 0.116608
 13   4.991439 -0.003975 0.000000 -0.218763 0.115496 0.007653
 14   4.991436 -0.001575 0.000000 -0.004542 0.103997 0.348205
 15   -0.375006 -0.014061 3.618843 -1.036972 -0.926977 3.783078
 16   8.842831 0.000000 -0.000002 -1.257902 1.823236 -0.452455
 17   9.341934 0.000000 -0.000001 0.000000 0.000000 -1.470558
 18   11.168404 -0.000001 0.000002 -3.475358 0.527423 -0.872942
 19   0.375016 0.017210 -3.618843 -1.569835 0.427107 1.435397
 20   8.842831 0.000000 0.000001 -0.307989 -0.420640 -0.891180
 21   9.341937 0.000000 -0.000001 0.000000 0.000000 -1.157297
 22   11.168404 -0.000001 0.000001 2.874789 -0.436482 -0.292784
 23   1.977383 0.000000 0.000000 0.644180 -0.028636 0.022911
 24   3.723980 2.768054 -0.049087 0.000001 -3.141591 -1.570794
 25   12.421014 0.304721 4.492689 -0.091859 -0.075839 1.616818
 26   19.916998 1.704573 4.956909 2.262592 1.451744 0.734330
time 22
  0   2.583354 -3.380902 25.336720 -0.031887 0.091457 -1.426357
  1   -0.330723 -0.390636 9.745319 -1.570795 -1.570451 0.000000
  2   -0.000008 0.000010 5.615750 -0.016776 3.237995 -0.927776
  3   15.693467 0.000000 0.000000 0.000000 0.000000 -1.114185
  4   22.146629 -0.000001 0.000000 0.198106 -0.019392 0.233368
  5   3.310129 5.734393 0.000000 0.000000 0.000000 1.570796
  6   0.000008 -0.000006 -5.615750 0.134612 3.027118 -0.099860
  7   15.693467 0.000000 0.000000 0.000000 0.000000 -0.815184
  8   22.146629 0.000000 0.000000 -0.028656 0.134988 0.743405
  9   3.310129 5.734393 0.000000 0.000000 0.000000 1.570796
 10   1.384163 -0.004728 0.000002 -0.229056 -0.039796 -0.176796
 11   5.939814 -0.004730 0.000000 -0.153826 -0.055884 0.209063
 12   5.939809 -0.003975 0.000000 -0.159814 -0.067821 0.118519
 13   4.991439 -0.003975 0.000000 -0.200058 0.108005 0.013136
 14   4.991436 -0.001575 0.000000 -0.007898 0.088186 0.333501
 15   -0.320317 -0.025781 3.626656 -1.055667 -0.938259 3.812800
 16   8.842831 0.000000 -0.000002 0.530192 1.752258 1.164320
 17   9.341934 0.000000 -0.000001 0.000000 0.000000 -1.251199
 18   11.168404 -0.000001 0.000002 -3.483475 0.588769 -0.853238
 19   0.320327 0.028930 -3.626656 -1.485850 0.573684 1.514205
 20   8.842831 0.000000 0.000001 -0.290816 -0.319277 -1.060170
 21   9.341937 0.000000 -0.000001 0.000000 0.000000 -1.091945
 22   11.168404 -0.000001 0.000001 2.848222 -0.381548 -0.168880
 23   1.977383 0.000000 0.000000 0.656761 0.027296 -0.003532
 24   3.723980 2.768054 -0.049087 0.000001 -3.141591 -1.570794
 25   12.421014 0.304721 4.492689 -0.091859 -0.075839 1.616818
 26   19.916998 1.704573 4.956909 2.262592 1.451744 0.734330
time 23
  0   2.605962 -3.648575 25.219099 -0.027878 0.059633 -1.449943
  1   -1.065120 -0.519546 9.745319 -1.570795 -1.570451 0.000000
  2   -0.000008 0.000010 5.615750 -0.008627 3.235121 -0.903404
  3   15.693467 0.000000 0.000000 0.000000 0.000000 -1.108280
  4   22.146629 -0.000001 0.000000 0.167818 -0.027985 0.222299
  5   3.310129 5.734393 0.000000 0.000000 0.000000 1.570796
  6   0.000008 -0.000006 -5.615750 0.101247 3.027310 -0.111993
  7   15.693467 0.000000 0.000000 0.000000 0.000000 -0.854707
  8   22.146629 0.000000 0.000000 -0.022564 0.127958 0.746311
  9   3.310129 5.734393 0.000000 0.000000 0.000000 1.570796
 10   1.384163 -0.004728 0.000002 -0.259585 -0.060835 -0.103738
 11   5.939814 -0.004730 0.000000 -0.143810 -0.050994 0.211759
 12   5.939809 -0.003975 0.000000 -0.149084 -0.067797 0.121018
 13   4.991439 -0.003975 0.000000 -0.181123 0.100287 0.018467
 14   4.991436 -0.001575 0.000000 -0.009660 0.072877 0.295403
 15   -0.261722 -0.029687 3.630562 -1.070335 -0.950594 3.862751
 16   8.842831 0.000000 -0.000002 -1.877892 1.068716 -1.462547
 17   9.341934 0.000000 -0.000001 0.000000 0.000000 -1.018556
 18   11.168404 -0.000001 0.000002 -3.509930 0.599966 -0.845032
 19   0.261732 0.032836 -3.630562 -1.371186 0.725660 1.641333
 20   8.842831 0.000000 0.000001 -0.266709 -0.224110 -1.252417
 21   9.341937 0.000000 -0.000001 0.000000 0.000000 -1.021330
 22   11.168404 -0.000001 0.000001 2.824171 -0.303846 -0.046480
 23   1.977383 0.000000 0.000000 0.653960 0.086877 -0.021923
 24   3.723980 2.768054 -0.049087 0.000001 -3.141591 -1.570794
 25   12.421014 0.304721 4.492689 -0.091859 -0.075839 1.616818
 26   19.916998 1.704573 4.956909 2.262592 1.451744 0.734330
time 24
  0   2.621034 -3.909203 25.160290 -0.023123 0.027905 -1.473529
  1   -1.822956 -0.625018 9.745319 -1.570795 -1.570451 0.000000
  2   -0.000008 0.000010 5.615750 -0.001533 3.231383 -0.880275
  3   15.693467 0.000000 0.000000 0.000000 0.000000 -1.101736
  4   22.146629 -0.000001 0.000000 0.139026 -0.035712 0.211277
  5   3.310129 5.734393 0.000000 0.000000 0.000000 1.570796
  6   0.000008 -0.000006 -5.615750 0.069320 3.028364 -0.123705
  7   15.693467 0.000000 0.000000 0.000000 0.000000 -0.890881
  8   22.146629 0.000000 0.000000 -0.016133 0.122217 0.747633
  9   3.310129 5.734393 0.000000 0.000000 0.000000 1.570796
 10   1.384163 -0.004728 0.000002 -0.292672 -0.080075 -0.028058
 11   5.939814 -0.004730 0.000000 -0.133847 -0.045925 0.215048
 12   5.939809 -0.003975 0.000000 -0.138251 -0.067725 0.123866
 13   4.991439 -0.003975 0.000000 -0.162074 0.092413 0.023647
 14   4.991436 -0.001575 0.000000 -0.009767 0.057971 0.240977
 15   -0.207033 -0.033593 3.634469 -1.083086 -0.963436 3.927659
 16   8.842831 0.000000 -0.000002 -1.534612 0.640246 -1.424550
 17   9.341934 0.000000 -0.000001 0.000000 0.000000 -0.706452
 18   11.168404 -0.000001 0.000002 -3.596838 0.521681 -0.901540
 19   0.207043 0.036742 -3.634469 -1.210215 0.871516 1.826655
 20   8.842831 0.000000 0.000001 -0.236152 -0.139744 -1.456483
 21   9.341937 0.000000 -0.000001 0.000000 0.000000 -0.950982
 22   11.168404 -0.000001 0.000001 2.807858 -0.210630 0.071031
 23   1.977383 0.000000 0.000000 0.636991 0.147982 -0.035293
 24   3.723980 2.768054 -0.049087 0.000001 -3.141591 -1.570794
 25   12.421014 0.304721 4.492689 -0.091859 -0.075839 1.616818
 26   19.916998 1.704573 4.956909 2.262592 1.451744 0.734330
time 25
  0   2.636106 -4.162788 25.160290 -0.017715 -0.003536 -1.497402
  1   -2.576885 -0.703145 9.745319 -1.570795 -1.570451 0.000000
  2   -0.000008 0.000010 5.615750 0.004507 3.226975 -0.858579
  3   15.693467 0.000000 0.000000 0.000000 0.000000 -1.095049
  4   22.146629 -0.000001 0.000000 0.111953 -0.042622 0.200666
  5   3.310129 5.734393 0.000000 0.000000 0.000000 1.570796
  6   0.000008 -0.000006 -5.615750 0.039023 3.029994 -0.134365
  7   15.693467 0.000000 0.000000 0.000000 0.000000 -0.923334
  8   22.146629 0.000000 0.000000 -0.009477 0.117735 0.747897
  9   3.310129 5.734393 0.000000 0.000000 0.000000 1.570796
 10   1.384163 -0.004728 0.000002 -0.327442 -0.096846 0.048756
 11   5.939814 -0.004730 0.000000 -0.123867 -0.040832 0.218528
 12   5.939809 -0.003975 0.000000 -0.127379 -0.067677 0.126789
 13   4.991439 -0.003975 0.000000 -0.143038 0.084407 0.028659
 14   4.991436 -0.001575 0.000000 -0.008389 0.043381 0.177230
 15   -0.156250 -0.025781 3.638375 -1.095646 -0.976315 4.001867
 16   8.842831 0.000000 -0.000002 -1.163167 -0.003203 -1.603039
 17   9.341934 0.000000 -0.000001 0.000000 0.000000 -0.002372
 18   11.168404 -0.000001 0.000002 -3.782307 0.321278 -1.184819
 19   0.156260 0.028930 -3.638375 -0.981558 0.996029 2.085704
 20   8.842831 0.000000 0.000001 -0.198580 -0.068214 -1.659596
 21   9.341937 0.000000 -0.000001 0.000000 0.000000 -0.886429
 22   11.168404 -0.000001 0.000001 2.801612 -0.110036 0.182244
 23   1.977383 0.000000 0.000000 0.608128 0.208232 -0.046825
 24   3.723980 2.768054 -0.049087 0.000001 -3.141591 -1.570794
 25   12.421014 0.304721 4.492689 -0.091859 -0.075839 1.616818
 26   19.916998 1.704573 4.956909 2.262592 1.451744 0.734330
time 26
  0   2.651178 -4.402285 25.219099 -0.011561 -0.034786 -1.521563
  1   -3.311282 -0.750022 9.745319 -1.570795 -1.570451 0.000000
  2   -0.000008 0.000010 5.615750 0.009779 3.222279 -0.838509
  3   15.693467 0.000000 0.000000 0.000000 0.000000 -1.088575
  4   22.146629 -0.000001 0.000000 0.086826 -0.048764 0.190970
  5   3.310129 5.734393 0.000000 0.000000 0.000000 1.570796
  6   0.000008 -0.000006 -5.615750 0.010835 3.032103 -0.143482
  7   15.693467 0.000000 0.000000 0.000000 0.000000 -0.951767
  8   22.146629 0.000000 0.000000 -0.002877 0.114389 0.747280
  9   3.310129 5.734393 0.000000 0.000000 0.000000 1.570796
 10   1.384163 -0.004728 0.000002 -0.362886 -0.110720 0.125311
 11   5.939814 -0.004730 0.000000 -0.113869 -0.035882 0.221779
 12   5.939809 -0.003975 0.000000 -0.116572 -0.067689 0.129550
 13   4.991439 -0.003975 0.000000 -0.124132 0.076354 0.033537
 14   4.991436 -0.001575 0.000000 -0.005896 0.029007 0.111107
 15   -0.105467 -0.017968 3.638375 -1.109835 -0.988795 4.079814
 16   8.842831 0.000000 -0.000002 -0.668272 -0.223577 -1.776601
 17   9.341934 0.000000 -0.000001 0.000000 0.000000 -0.002372
 18   11.168404 -0.000001 0.000002 -4.031381 0.046226 -1.172387
 19   0.105477 0.021117 -3.638375 -0.671984 1.080169 2.426245
 20   8.842831 0.000000 0.000001 -0.154236 -0.009433 -1.848697
 21   9.341937 0.000000 -0.000001 0.000000 0.000000 -0.833268
 22   11.168404 -0.000001 0.000001 2.805993 -0.010791 0.287440
 23   1.977383 0.000000 0.000000 0.570543 0.265342 -0.059350
 24   3.723980 2.768054 -0.049087 0.000001 -3.141591 -1.570794
 25   12.421014 0.304721 4.492689 -0.091859 -0.075839 1.616818
 26   19.916998 1.704573 4.956909 2.262592 1.451744 0.734330
time 27
  0   2.658714 -4.634737 25.336720 -0.004569 -0.065558 -1.546107
  1   -4.006616 -0.769554 9.745319 -1.570795 -1.570451 0.000000
  2   -0.000008 0.000010 5.615750 0.014381 3.217584 -0.820445
  3   15.693467 0.000000 0.000000 0.000000 0.000000 -1.082813
  4   22.146629 -0.000001 0.000000 0.064240 -0.054188 0.182692
  5   3.310129 5.734393 0.000000 0.000000 0.000000 1.570796
  6   0.000008 -0.000006 -5.615750 -0.014572 3.034500 -0.150916
  7   15.693467 0.000000 0.000000 0.000000 0.000000 -0.975883
  8   22.146629 0.000000 0.000000 0.003497 0.111994 0.746223
  9   3.310129 5.734393 0.000000 0.000000 0.000000 1.570796
 10   1.384163 -0.004728 0.000002 -0.397959 -0.121534 0.199988
 11   5.939814 -0.004730 0.000000 -0.103782 -0.031220 0.224379
 12   5.939809 -0.003975 0.000000 -0.105905 -0.067821 0.131874
 13   4.991439 -0.003975 0.000000 -0.105499 0.068300 0.038246
 14   4.991436 -0.001575 0.000000 -0.002864 0.014647 0.049705
 15   -0.050778 -0.006249 3.638375 -1.126709 -1.000295 4.155460
 16   8.842831 0.000000 -0.000002 -0.219740 -0.386556 -1.954343
 17   9.341934 0.000000 -0.000001 0.000000 0.000000 -0.002372
 18   11.168404 -0.000001 0.000002 -4.257439 -0.179443 -1.165557
 19   0.050788 0.009398 -3.638375 -0.316199 1.107992 2.808299
 20   8.842831 0.000000 0.000001 -0.105942 0.036867 -2.011016
 21   9.341937 0.000000 -0.000001 0.000000 0.000000 -0.797028
 22   11.168404 -0.000001 0.000001 2.819603 0.078673 0.386620
 23   1.977383 0.000000 0.000000 0.528517 0.317348 -0.075405
 24   3.723980 2.768054 -0.049087 0.000001 -3.141591 -1.570794
 25   12.421014 0.304721 4.492689 -0.091859 -0.075839 1.616818
 26   19.916998 1.704573 4.956909 2.262592 1.451744 0.734330
time 28
  0   2.666250 -4.860146 25.493547 0.002890 -0.095853 -1.571131
  1   -4.639448 -0.773460 9.745319 -1.570795 -1.570451 0.000000
  2   -0.000008 0.000010 5.615750 0.018408 3.213271 -0.805344
  3   15.693467 0.000000 0.000000 0.000000 0.000000 -1.078189
  4   22.146629 -0.000001 0.000000 0.044834 -0.058918 0.176197
  5   3.310129 5.734393 0.000000 0.000000 0.000000 1.570796
  6   0.000008 -0.000006 -5.615750 -0.036528 3.037280 -0.156527
  7   15.693467 0.000000 0.000000 0.000000 0.000000 -0.995384
  8   22.146629 0.000000 0.000000 0.009477 0.110183 0.745255
  9   3.310129 5.734393 0.000000 0.000000 0.000000 1.570796
 10   1.384163 -0.004728 0.000002 -0.431517 -0.129370 0.271199
 11   5.939814 -0.004730 0.000000 -0.093624 -0.026965 0.225909
 12   5.939809 -0.003975 0.000000 -0.095442 -0.068108 0.133523
 13   4.991439 -0.003975 0.000000 -0.087224 0.060306 0.042838
 14   4.991436 -0.001575 0.000000 0.000000 0.000000 0.000000
 15   0.000005 0.001564 3.638375 -1.147225 -1.010380 4.222478
 16   8.842831 0.000000 -0.000002 0.112202 -0.488045 -2.119469
 17   9.341934 0.000000 -0.000001 0.000000 0.000000 -0.002372
 18   11.168404 -0.000001 0.000002 -4.418363 -0.322615 -1.171945
 19   0.000005 0.001585 -3.638375 -0.000010 1.082946 3.140787
 20   8.842831 0.000000 0.000001 -0.059663 0.069622 -2.136067
 21   9.341937 0.000000 -0.000001 0.000000 0.000000 -0.783239
 22   11.168404 -0.000001 0.000001 2.839832 0.149966 0.479124
 23   1.977383 0.000000 0.000000 0.487179 0.362934 -0.096778
 24   3.723980 2.768054 -0.049087 0.000001 -3.141591 -1.570794
 25   12.421014 0.304721 4.492689 -0.091859 -0.075839 1.616818
 26   19.916998 1.704573 4.956909 2.262592 1.451744 0.734330
time 29
  0   2.666250 -4.860146 25.493547 0.002890 -0.095853 -1.571131
  1   -4.639448 -0.773460 9.745319 -1.570795 -1.570451 0.000000
  2   -0.000008 0.000010 5.615750 0.022146 3.210301 -0.804006
  3   15.693467 0.000000 0.000000 0.000000 0.000000 -1.077762
  4   22.146629 -0.000001 0.000000 0.039038 -0.060429 0.175923
  5   3.310129 5.734393 0.000000 0.000000 0.000000 1.570796
  6   0.000008 -0.000006 -5.615750 -0.048513 3.044279 -0.156737
  7   15.693467 0.000000 0.000000 0.000000 0.000000 -0.996947
  8   22.146629 0.000000 0.000000 0.021548 0.105977 0.746400
  9   3.310129 5.734393 0.000000 0.000000 0.000000 1.570796
 10   1.384163 -0.004728 0.000002 -0.431517 -0.129370 0.271199
 11   5.939814 -0.004730 0.000000 -0.093624 -0.026965 0.225909
 12   5.939809 -0.003975 0.000000 -0.095442 -0.068108 0.133523
 13   4.991439 -0.003975 0.000000 -0.087224 0.060306 0.042838
 14   4.991436 -0.001575 0.000000 0.000000 0.000000 0.000000
 15   0.000005 0.001564 3.638375 -1.147225 -1.010380 4.222478
 16   8.842831 0.000000 -0.000002 0.039961 -0.439672 -2.084906
 17   9.341934 0.000000 -0.000001 0.000000 0.000000 -0.002372
 18   11.168404 -0.000001 0.000002 -4.359628 -0.297828 -1.165409
 19   0.000005 0.001585 -3.638375 0.065663 1.074614 3.198598
 20   8.842831 0.000000 0.000001 -0.083850 0.007210 -2.051143
 21   9.341937 0.000000 -0.000001 0.000000 0.000000 -0.941323
 22   11.168404 -0.000001 0.000001 2.845612 0.164764 0.501405
 23   1.977383 0.000000 0.000000 0.487179 0.362934 -0.096778
 24   3.723980 2.768054 -0.049087 0.000001 -3.141591 -1.570794
 25   12.421014 0.304721 4.492689 -0.091859 -0.075839 1.616818
 26   19.916998 1.704573 4.956909 2.262592 1.451744 0.734330
time 30
  0   2.666250 -4.860146 25.493547 0.002890 -0.095853 -1.571131
  1   -4.639448 -0.773460 9.745319 -1.570795 -1.570451 0.000000
  2   -0.000008 0.000010 5.615750 0.025885 3.207618 -0.805153
  3   15.693467 0.000000 0.000000 0.000000 0.000000 -1.078189
  4   22.146629 -0.000001 0.000000 0.035710 -0.061345 0.176746
  5   3.310129 5.734393 0.000000 0.000000 0.000000 1.570796
  6   0.000008 -0.000006 -5.615750 -0.058675 3.052045 -0.155826
  7   15.693467 0.000000 0.000000 0.000000 0.000000 -0.995384
  8   22.146629 0.000000 0.000000 0.034748 0.101249 0.747897
  9   3.310129 5.734393 0.000000 0.000000 0.000000 1.570796
 10   1.384163 -0.004728 0.000002 -0.431517 -0.129370 0.271199
 11   5.939814 -0.004730 0.000000 -0.093624 -0.026965 0.225909
 12   5.939809 -0.003975 0.000000 -0.095442 -0.068108 0.133523
 13   4.991439 -0.003975 0.000000 -0.087224 0.060306 0.042838
 14   4.991436 -0.001575 0.000000 0.000000 0.000000 0.000000
 15   0.000005 0.001564 3.638375 -1.147225 -1.010380 4.222478
 16   8.842831 0.000000 -0.000002 -0.266010 -0.342555 -1.982038
 17   9.341934 0.000000 -0.000001 0.000000 0.000000 -0.002372
 18   11.168404 -0.000001 0.000002 -4.159643 -0.127572 -1.133667
 19   0.000005 0.001585 -3.638375 -0.000010 1.082946 3.140787
 20   8.842831 0.000000 0.000001 -0.153430 -0.057503 -1.851366
 21   9.341937 0.000000 -0.000001 0.000000 0.000000 -1.205195
 22   11.168404 -0.000001 0.000001 2.839832 0.149966 0.479124
 23   1.977383 0.000000 0.000000 0.487179 0.362934 -0.096778
 24   3.723980 2.768054 -0.049087 0.000001 -3.141591 -1.570794
 25   12.421014 0.304721 4.492689 -0.091859 -0.075839 1.616818
 26   19.916998 1.704573 4.956909 2.262592 1.451744 0.734330
end
