version 1
nodes
  0 "Bip01" -1
  1 "Bip01 Pelvis" 0
  2 "Bip01 L Thigh" 1
  3 "Bip01 L Calf" 2
  4 "Bip01 L Foot" 3
  5 "Bip01 L Toe0" 4
  6 "Bip01 R Thigh" 1
  7 "Bip01 R Calf" 6
  8 "Bip01 R Foot" 7
  9 "Bip01 R Toe0" 8
 10 "Bip01 Spine" 1
 11 "Bip01 Spine1" 10
 12 "Bip01 Spine2" 11
 13 "Bip01 Spine3" 12
 14 "Bip01 Neck" 13
 15 "Bip01 L Clavicle" 14
 16 "Bip01 L UpperArm" 15
 17 "Bip01 L Forearm" 16
 18 "Bip01 L Hand" 17
 19 "Bip01 R Clavicle" 14
 20 "Bip01 R UpperArm" 19
 21 "Bip01 R Forearm" 20
 22 "Bip01 R Hand" 21
 23 "Bip01 Head" 14
 24 "Bone05" 23
 25 "m4" 22
 26 "SHOTGUN" 22
end
skeleton
time 0
  0   0.073880 2.698083 5.321654 -0.111512 0.096617 -2.018971
  1   -0.526041 0.000001 9.745319 -1.570795 -1.570451 0.000000
  2   -0.000008 0.000010 5.615750 -2.701926 5.842445 0.562909
  3   15.693467 0.000000 0.000000 0.000000 0.000000 -2.189210
  4   22.146629 -0.000001 0.000000 -0.143662 0.134677 -0.114092
  5   3.310129 5.734393 0.000000 0.000000 0.000000 1.570796
  6   0.000008 -0.000006 -5.615750 -0.233554 2.725978 -0.599346
  7   15.693467 0.000000 0.000000 0.000000 0.000000 -2.318271
  8   22.146629 0.000000 0.000000 -0.526525 0.579956 0.250436
  9   3.310129 5.734393 0.000000 0.000000 0.000000 2.146731
 10   1.384163 -0.004728 0.000002 -0.370392 0.123062 -0.093537
 11   5.939814 -0.004730 0.000000 0.000000 0.000000 0.000000
 12   5.939809 -0.003975 0.000000 0.000000 0.000000 0.191977
 13   4.991439 -0.003975 0.000000 0.000000 0.000000 0.000000
 14   4.991436 -0.001575 0.000000 0.000000 0.000000 0.000000
 15   0.000005 0.001564 3.638375 -0.000010 -1.284244 3.140806
 16   8.842831 0.000000 -0.000002 -0.739141 0.209544 -1.013825
 17   9.341934 0.000000 -0.000001 0.000000 0.000000 -1.099083
 18   11.168404 -0.000001 0.000002 -4.087824 0.617671 -0.225946
 19   0.000005 0.001585 -3.638375 -0.000010 1.284244 3.140787
 20   8.842831 0.000000 0.000001 0.715631 -0.700651 -1.904551
 21   9.341937 0.000000 -0.000001 0.000000 0.000000 -1.394923
 22   11.168404 -0.000001 0.000001 1.781787 0.089972 0.752409
 23   1.977383 0.000000 0.000000 0.813815 0.215807 0.138723
 24   3.723980 2.768054 -0.049087 0.000001 -3.141591 -1.570794
 25   12.421014 0.304721 4.492689 -0.091859 -0.075839 1.616818
 26   19.916998 1.704573 4.956909 2.262592 1.451744 0.734330
time 1
  0   0.073880 2.698083 5.262844 -0.111512 0.096617 -2.018971
  1   -0.526041 0.000001 9.745319 -1.570795 -1.570451 0.000000
  2   -0.000008 0.000010 5.615750 -2.700392 5.844362 0.558512
  3   15.693467 0.000000 0.000000 0.000000 0.000000 -2.191487
  4   22.146629 -0.000001 0.000000 -0.143999 0.134949 -0.116242
  5   3.310129 5.734393 0.000000 0.000000 0.000000 1.570796
  6   0.000008 -0.000006 -5.615750 -0.234993 2.725595 -0.598084
  7   15.693467 0.000000 0.000000 0.000000 0.000000 -2.319759
  8   22.146629 0.000000 0.000000 -0.527709 0.581644 0.252462
  9   3.310129 5.734393 0.000000 0.000000 0.000000 2.146731
 10   1.384163 -0.004728 0.000002 -0.370392 0.123062 -0.093537
 11   5.939814 -0.004730 0.000000 0.000000 0.000000 0.000000
 12   5.939809 -0.003975 0.000000 0.000000 0.000000 0.191977
 13   4.991439 -0.003975 0.000000 0.000000 0.000000 0.000000
 14   4.991436 -0.001575 0.000000 0.000000 0.000000 0.000000
 15   0.000005 0.001564 3.638375 -0.000010 -1.284244 3.140806
 16   8.842831 0.000000 -0.000002 -0.738958 0.209916 -1.013675
 17   9.341934 0.000000 -0.000001 0.000000 0.000000 -1.099001
 18   11.168404 -0.000001 0.000002 -4.087537 0.617480 -0.226290
 19   0.000005 0.001585 -3.638375 -0.000010 1.284244 3.140787
 20   8.842831 0.000000 0.000001 0.715228 -0.701093 -1.904075
 21   9.341937 0.000000 -0.000001 0.000000 0.000000 -1.394923
 22   11.168404 -0.000001 0.000001 1.781787 0.090141 0.751845
 23   1.977383 0.000000 0.000000 0.813815 0.215807 0.138723
 24   3.723980 2.768054 -0.049087 0.000001 -3.141591 -1.570794
 25   12.421014 0.304721 4.492689 -0.091859 -0.075839 1.616818
 26   19.916998 1.704573 4.956909 2.262592 1.451744 0.734330
time 2
  0   0.073880 2.698083 5.204034 -0.111512 0.096617 -2.018971
  1   -0.526041 0.000001 9.745319 -1.570795 -1.570451 0.000000
  2   -0.000008 0.000010 5.615750 -2.698954 5.846375 0.554020
  3   15.693467 0.000000 0.000000 0.000000 0.000000 -2.193834
  4   22.146629 -0.000001 0.000000 -0.144335 0.135222 -0.118483
  5   3.310129 5.734393 0.000000 0.000000 0.000000 1.570796
  6   0.000008 -0.000006 -5.615750 -0.236431 2.725307 -0.596751
  7   15.693467 0.000000 0.000000 0.000000 0.000000 -2.321174
  8   22.146629 0.000000 0.000000 -0.528894 0.583363 0.254488
  9   3.310129 5.734393 0.000000 0.000000 0.000000 2.146731
 10   1.384163 -0.004728 0.000002 -0.370392 0.123062 -0.093537
 11   5.939814 -0.004730 0.000000 0.000000 0.000000 0.000000
 12   5.939809 -0.003975 0.000000 0.000000 0.000000 0.191977
 13   4.991439 -0.003975 0.000000 0.000000 0.000000 0.000000
 14   4.991436 -0.001575 0.000000 0.000000 0.000000 0.000000
 15   0.000005 0.001564 3.638375 -0.000010 -1.284244 3.140806
 16   8.842831 0.000000 -0.000002 -0.738775 0.210381 -1.013526
 17   9.341934 0.000000 -0.000001 0.000000 0.000000 -1.099001
 18   11.168404 -0.000001 0.000002 -4.087347 0.617289 -0.226536
 19   0.000005 0.001585 -3.638375 -0.000010 1.284244 3.140787
 20   8.842831 0.000000 0.000001 0.714905 -0.701536 -1.903693
 21   9.341937 0.000000 -0.000001 0.000000 0.000000 -1.394856
 22   11.168404 -0.000001 0.000001 1.781880 0.090267 0.751375
 23   1.977383 0.000000 0.000000 0.813815 0.215807 0.138723
 24   3.723980 2.768054 -0.049087 0.000001 -3.141591 -1.570794
 25   12.421014 0.304721 4.492689 -0.091859 -0.075839 1.616818
 26   19.916998 1.704573 4.956909 2.262592 1.451744 0.734330
time 3
  0   0.073880 2.698083 5.164827 -0.111512 0.096617 -2.018971
  1   -0.526041 0.000001 9.745319 -1.570795 -1.570451 0.000000
  2   -0.000008 0.000010 5.615750 -2.697516 5.848387 0.549528
  3   15.693467 0.000000 0.000000 0.000000 0.000000 -2.196182
  4   22.146629 -0.000001 0.000000 -0.144709 0.135494 -0.120724
  5   3.310129 5.734393 0.000000 0.000000 0.000000 1.570796
  6   0.000008 -0.000006 -5.615750 -0.237869 2.724924 -0.595348
  7   15.693467 0.000000 0.000000 0.000000 0.000000 -2.322588
  8   22.146629 0.000000 0.000000 -0.530079 0.585082 0.256513
  9   3.310129 5.734393 0.000000 0.000000 0.000000 2.146731
 10   1.384163 -0.004728 0.000002 -0.370392 0.123062 -0.093537
 11   5.939814 -0.004730 0.000000 0.000000 0.000000 0.000000
 12   5.939809 -0.003975 0.000000 0.000000 0.000000 0.191977
 13   4.991439 -0.003975 0.000000 0.000000 0.000000 0.000000
 14   4.991436 -0.001575 0.000000 0.000000 0.000000 0.000000
 15   0.000005 0.001564 3.638375 -0.000010 -1.284244 3.140806
 16   8.842831 0.000000 -0.000002 -0.738684 0.210753 -1.013451
 17   9.341934 0.000000 -0.000001 0.000000 0.000000 -1.098919
 18   11.168404 -0.000001 0.000002 -4.087155 0.617097 -0.226830
 19   0.000005 0.001585 -3.638375 -0.000010 1.284244 3.140787
 20   8.842831 0.000000 0.000001 0.714583 -0.701890 -1.903312
 21   9.341937 0.000000 -0.000001 0.000000 0.000000 -1.394856
 22   11.168404 -0.000001 0.000001 1.781880 0.090436 0.750905
 23   1.977383 0.000000 0.000000 0.813815 0.215807 0.138723
 24   3.723980 2.768054 -0.049087 0.000001 -3.141591 -1.570794
 25   12.421014 0.304721 4.492689 -0.091859 -0.075839 1.616818
 26   19.916998 1.704573 4.956909 2.262592 1.451744 0.734330
end
