version 1
nodes
  0 "Bip01" -1
  1 "Bip01 Pelvis" 0
  2 "Bip01 L Thigh" 1
  3 "Bip01 L Calf" 2
  4 "Bip01 L Foot" 3
  5 "Bip01 L Toe0" 4
  6 "Bip01 R Thigh" 1
  7 "Bip01 R Calf" 6
  8 "Bip01 R Foot" 7
  9 "Bip01 R Toe0" 8
 10 "Bip01 Spine" 1
 11 "Bip01 Spine1" 10
 12 "Bip01 Spine2" 11
 13 "Bip01 Spine3" 12
 14 "Bip01 Neck" 13
 15 "Bip01 L Clavicle" 14
 16 "Bip01 L UpperArm" 15
 17 "Bip01 L Forearm" 16
 18 "Bip01 L Hand" 17
 19 "Bip01 R Clavicle" 14
 20 "Bip01 R UpperArm" 19
 21 "Bip01 R Forearm" 20
 22 "Bip01 R Hand" 21
 23 "Bip01 Head" 14
 24 "Bone05" 23
 25 "m4" 22
 26 "SHOTGUN" 22
end
skeleton
time 0
  0   0.073880 -1.246566 7.380011 0.008671 -0.087252 -2.033353
  1   -0.526041 0.000001 9.745319 -1.570795 -1.570451 0.000000
  2   -0.000008 0.000010 5.615750 -2.834223 5.668899 0.999114
  3   15.693467 0.000000 0.000000 0.000000 0.000000 -2.160258
  4   22.146629 -0.000001 0.000000 -0.113187 0.090495 0.057374
  5   3.310129 5.734393 0.000000 0.000000 0.000000 1.570796
  6   0.000008 -0.000006 -5.615750 -0.251387 2.628762 -0.340486
  7   15.693467 0.000000 0.000000 0.000000 0.000000 -2.182283
  8   22.146629 0.000000 0.000000 -0.493356 0.575473 0.231147
  9   3.310129 5.734393 0.000000 0.000000 0.000000 2.146731
 10   1.384163 -0.004728 0.000002 -0.371401 0.119895 -0.101731
 11   5.939814 -0.004730 0.000000 0.000000 0.000000 0.000000
 12   5.939809 -0.003975 0.000000 0.000000 0.000000 0.000000
 13   4.991439 -0.003975 0.000000 0.000000 0.000000 0.000000
 14   4.991436 -0.001575 0.000000 0.000000 0.000000 0.000000
 15   0.000005 0.001564 3.638375 -0.000010 -1.284244 3.140806
 16   8.842831 0.000000 -0.000002 -0.721218 -0.103297 -1.067946
 17   9.341934 0.000000 -0.000001 0.000000 0.000000 -0.949755
 18   11.168404 -0.000001 0.000002 -4.014859 0.766395 -0.209485
 19   0.000005 0.001585 -3.638375 -0.000010 1.284244 3.140787
 20   8.842831 0.000000 0.000001 0.976131 -0.737567 -2.108617
 21   9.341937 0.000000 -0.000001 0.000000 0.000000 -1.188341
 22   11.168404 -0.000001 0.000001 1.694813 0.156248 0.331154
 23   1.977383 0.000000 0.000000 0.774591 0.328294 0.199611
 24   3.723980 2.768054 -0.049087 0.000385 -3.156548 -1.353797
 25   12.421014 0.304721 4.492689 -0.091859 -0.075839 1.616818
 26   19.916998 1.704573 4.956909 2.262592 1.451744 0.734330
time 1
  0   0.073880 -0.077259 6.125393 0.010722 -0.092603 -2.064513
  1   -0.526041 0.000001 9.745319 -1.570795 -1.570451 0.000000
  2   -0.000008 0.000010 5.615750 -2.762897 5.654428 0.871808
  3   15.693467 0.000000 0.000000 0.000000 0.000000 -2.171426
  4   22.146629 -0.000001 0.000000 -0.126462 0.121279 -0.025409
  5   3.310129 5.734393 0.000000 0.000000 0.000000 1.570796
  6   0.000008 -0.000006 -5.615750 -0.335088 2.587537 -0.440776
  7   15.693467 0.000000 0.000000 0.000000 0.000000 -2.276589
  8   22.146629 0.000000 0.000000 -0.584401 0.533721 0.033854
  9   3.310129 5.734393 0.000000 0.000000 0.000000 2.268311
 10   1.384163 -0.004728 0.000002 -0.396074 0.126040 -0.110992
 11   5.939814 -0.004730 0.000000 0.000000 0.000000 0.000000
 12   5.939809 -0.003975 0.000000 0.000000 0.000000 0.000000
 13   4.991439 -0.003975 0.000000 0.000000 0.000000 0.000000
 14   4.991436 -0.001575 0.000000 0.000000 0.000000 0.000000
 15   0.000005 0.001564 3.638375 -0.000010 -1.284244 3.140806
 16   8.842831 0.000000 -0.000002 -0.742707 -0.120878 -1.036892
 17   9.341934 0.000000 -0.000001 0.000000 0.000000 -1.016670
 18   11.168404 -0.000001 0.000002 -3.984393 0.782951 -0.104281
 19   0.000005 0.001585 -3.638375 -0.000010 1.284244 3.140787
 20   8.842831 0.000000 0.000001 0.991773 -0.707999 -2.114622
 21   9.341937 0.000000 -0.000001 0.000000 0.000000 -1.185543
 22   11.168404 -0.000001 0.000001 1.717093 0.091701 0.339709
 23   1.977383 0.000000 0.000000 0.796899 0.314531 0.212883
 24   3.723980 2.768054 -0.049087 0.000385 -3.156548 -1.353797
 25   12.421014 0.304721 4.492689 -0.091859 -0.075839 1.616818
 26   19.916998 1.704573 4.956909 2.262592 1.451744 0.734330
time 2
  0   0.073880 0.134061 6.517461 0.012028 -0.096044 -2.084839
  1   -0.526041 0.000001 9.745319 -1.570795 -1.570790 0.000000
  2   -0.000008 0.000010 5.615750 -2.763377 5.613317 0.892356
  3   15.693467 0.000000 0.000000 0.000000 0.000000 -2.147453
  4   22.146629 -0.000001 0.000000 -0.127284 0.131160 -0.018320
  5   3.310129 5.734393 0.000000 0.000000 0.000000 1.570796
  6   0.000008 -0.000006 -5.615750 -0.348798 2.571718 -0.479770
  7   15.693467 0.000000 0.000000 0.000000 0.000000 -2.266094
  8   22.146629 0.000000 0.000000 -0.602339 0.486597 -0.083289
  9   3.310129 5.734393 0.000000 0.000000 0.000000 2.363509
 10   1.384163 -0.004728 0.000002 -0.412230 0.129931 -0.117113
 11   5.939814 -0.004730 0.000000 0.000000 0.000000 0.000000
 12   5.939809 -0.003975 0.000000 0.000000 0.000000 0.000000
 13   4.991439 -0.003975 0.000000 0.000000 0.000000 0.000000
 14   4.991436 -0.001575 0.000000 0.000000 0.000000 0.000000
 15   0.000005 0.001564 3.638375 -0.000010 -1.284244 3.140806
 16   8.842831 0.000000 -0.000002 -0.717560 -0.015668 -0.973364
 17   9.341934 0.000000 -0.000001 0.000000 0.000000 -1.303517
 18   11.168404 -0.000001 0.000002 -3.909136 0.731750 0.129811
 19   0.000005 0.001585 -3.638375 -0.000010 1.284244 3.140787
 20   8.842831 0.000000 0.000001 0.874140 -0.858671 -1.939150
 21   9.341937 0.000000 -0.000001 0.000000 0.000000 -1.448683
 22   11.168404 -0.000001 0.000001 1.736203 0.051606 0.390004
 23   1.977383 0.000000 0.000000 0.811331 0.305386 0.221332
 24   3.723980 2.768054 -0.049087 0.000385 -3.156548 -1.353797
 25   12.421014 0.304721 4.492689 -0.091859 -0.075839 1.616818
 26   19.916998 1.704573 4.956909 2.262592 1.451744 0.734330
time 3
  0   0.073880 0.021357 6.615479 0.012867 -0.097955 -2.095960
  1   -0.526041 0.000001 9.745319 -1.570795 -1.570451 0.000000
  2   -0.000008 0.000010 5.615750 -2.755803 5.594439 0.894172
  3   15.693467 0.000000 0.000000 0.000000 0.000000 -2.149231
  4   22.146629 -0.000001 0.000000 -0.126910 0.134107 -0.007572
  5   3.310129 5.734393 0.000000 0.000000 0.000000 1.570796
  6   0.000008 -0.000006 -5.615750 -0.346497 2.565102 -0.469039
  7   15.693467 0.000000 0.000000 0.000000 0.000000 -2.239372
  8   22.146629 0.000000 0.000000 -0.614016 0.477233 -0.108303
  9   3.310129 5.734393 0.000000 0.000000 0.000000 2.434235
 10   1.384163 -0.004728 0.000002 -0.421015 0.132024 -0.120481
 11   5.939814 -0.004730 0.000000 0.000000 0.000000 0.000000
 12   5.939809 -0.003975 0.000000 0.000000 0.000000 0.000000
 13   4.991439 -0.003975 0.000000 0.000000 0.000000 0.000000
 14   4.991436 -0.001575 0.000000 0.000000 0.000000 0.000000
 15   0.000005 0.001564 3.638375 -0.000010 -1.284244 3.140806
 16   8.842831 0.000000 -0.000002 -0.716280 0.018658 -0.934845
 17   9.341934 0.000000 -0.000001 0.000000 0.000000 -1.364035
 18   11.168404 -0.000001 0.000002 -3.875423 0.725338 0.161308
 19   0.000005 0.001585 -3.638375 -0.000010 1.284244 3.140787
 20   8.842831 0.000000 0.000001 0.847373 -0.884521 -1.917895
 21   9.341937 0.000000 -0.000001 0.000000 0.000000 -1.431762
 22   11.168404 -0.000001 0.000001 1.743847 0.050974 0.324480
 23   1.977383 0.000000 0.000000 0.819101 0.300374 0.225855
 24   3.723980 2.768054 -0.049087 0.000385 -3.156548 -1.353797
 25   12.421014 0.304721 4.492689 -0.091859 -0.075839 1.616818
 26   19.916998 1.704573 4.956909 2.262592 1.451744 0.734330
time 4
  0   0.073880 -0.098391 6.713495 0.013146 -0.098529 -2.099316
  1   -0.526041 0.000001 9.745319 -1.570795 -1.570451 0.000000
  2   -0.000008 0.000010 5.615750 -2.755708 5.587252 0.900671
  3   15.693467 0.000000 0.000000 0.000000 0.000000 -2.150725
  4   22.146629 -0.000001 0.000000 -0.126163 0.133364 0.001575
  5   3.310129 5.734393 0.000000 0.000000 0.000000 1.570796
  6   0.000008 -0.000006 -5.615750 -0.333362 2.569225 -0.445194
  7   15.693467 0.000000 0.000000 0.000000 0.000000 -2.211833
  8   22.146629 0.000000 0.000000 -0.616216 0.485461 -0.085315
  9   3.310129 5.734393 0.000000 0.000000 0.000000 2.482399
 10   1.384163 -0.004728 0.000002 -0.423674 0.132642 -0.121517
 11   5.939814 -0.004730 0.000000 0.000000 0.000000 0.000000
 12   5.939809 -0.003975 0.000000 0.000000 0.000000 0.000000
 13   4.991439 -0.003975 0.000000 0.000000 0.000000 0.000000
 14   4.991436 -0.001575 0.000000 0.000000 0.000000 0.000000
 15   0.000005 0.001564 3.638375 -0.000010 -1.284244 3.140806
 16   8.842831 0.000000 -0.000002 -0.707684 0.044798 -0.916630
 17   9.341934 0.000000 -0.000001 0.000000 0.000000 -1.413565
 18   11.168404 -0.000001 0.000002 -3.844671 0.714523 0.189071
 19   0.000005 0.001585 -3.638375 -0.000010 1.284244 3.140787
 20   8.842831 0.000000 0.000001 0.807866 -0.918250 -1.877768
 21   9.341937 0.000000 -0.000001 0.000000 0.000000 -1.443154
 22   11.168404 -0.000001 0.000001 1.745618 0.060038 0.272869
 23   1.977383 0.000000 0.000000 0.821480 0.298850 0.227198
 24   3.723980 2.768054 -0.049087 0.000385 -3.156548 -1.353797
 25   12.421014 0.304721 4.492689 -0.091859 -0.075839 1.616818
 26   19.916998 1.704573 4.956909 2.262592 1.451744 0.734330
time 5
  0   0.073880 -0.232227 6.811512 0.012867 -0.098051 -2.096440
  1   -0.526041 0.000001 9.745319 -1.570795 -1.570451 0.000000
  2   -0.000008 0.000010 5.615750 -2.761459 5.589073 0.910898
  3   15.693467 0.000000 0.000000 0.000000 0.000000 -2.152006
  4   22.146629 -0.000001 0.000000 -0.124854 0.130046 0.009442
  5   3.310129 5.734393 0.000000 0.000000 0.000000 1.570796
  6   0.000008 -0.000006 -5.615750 -0.315241 2.576319 -0.417211
  7   15.693467 0.000000 0.000000 0.000000 0.000000 -2.187121
  8   22.146629 0.000000 0.000000 -0.612323 0.499552 -0.046825
  9   3.310129 5.734393 0.000000 0.000000 0.000000 2.509879
 10   1.384163 -0.004728 0.000002 -0.421419 0.132105 -0.120643
 11   5.939814 -0.004730 0.000000 0.000000 0.000000 0.000000
 12   5.939809 -0.003975 0.000000 0.000000 0.000000 0.000000
 13   4.991439 -0.003975 0.000000 0.000000 0.000000 0.000000
 14   4.991436 -0.001575 0.000000 0.000000 0.000000 0.000000
 15   0.000005 0.001564 3.638375 -0.000010 -1.284244 3.140806
 16   8.842831 0.000000 -0.000002 -0.693419 0.064240 -0.914465
 17   9.341934 0.000000 -0.000001 0.000000 0.000000 -1.454731
 18   11.168404 -0.000001 0.000002 -3.816497 0.699976 0.214328
 19   0.000005 0.001585 -3.638375 -0.000010 1.284244 3.140787
 20   8.842831 0.000000 0.000001 0.753686 -0.957822 -1.818102
 21   9.341937 0.000000 -0.000001 0.000000 0.000000 -1.476197
 22   11.168404 -0.000001 0.000001 1.741796 0.076734 0.230659
 23   1.977383 0.000000 0.000000 0.819471 0.300144 0.226054
 24   3.723980 2.768054 -0.049087 0.000385 -3.156548 -1.353797
 25   12.421014 0.304721 4.492689 -0.091859 -0.075839 1.616818
 26   19.916998 1.704573 4.956909 2.262592 1.451744 0.734330
time 6
  0   0.073880 -0.366064 6.889926 0.012401 -0.096713 -2.088961
  1   -0.526041 0.000001 9.745319 -1.570795 -1.570451 0.000000
  2   -0.000008 0.000010 5.615750 -2.771430 5.597697 0.923609
  3   15.693467 0.000000 0.000000 0.000000 0.000000 -2.153144
  4   22.146629 -0.000001 0.000000 -0.123096 0.124919 0.016485
  5   3.310129 5.734393 0.000000 0.000000 0.000000 1.570796
  6   0.000008 -0.000006 -5.615750 -0.296545 2.578237 -0.393015
  7   15.693467 0.000000 0.000000 0.000000 0.000000 -2.168587
  8   22.146629 0.000000 0.000000 -0.607134 0.508394 -0.026127
  9   3.310129 5.734393 0.000000 0.000000 0.000000 2.518644
 10   1.384163 -0.004728 0.000002 -0.415495 0.130710 -0.118376
 11   5.939814 -0.004730 0.000000 0.000000 0.000000 0.000000
 12   5.939809 -0.003975 0.000000 0.000000 0.000000 0.000000
 13   4.991439 -0.003975 0.000000 0.000000 0.000000 0.000000
 14   4.991436 -0.001575 0.000000 0.000000 0.000000 0.000000
 15   0.000005 0.001564 3.638375 -0.000010 -1.284244 3.140806
 16   8.842831 0.000000 -0.000002 -0.674856 0.078287 -0.924394
 17   9.341934 0.000000 -0.000001 0.000000 0.000000 -1.489500
 18   11.168404 -0.000001 0.000002 -3.790234 0.682463 0.237717
 19   0.000005 0.001585 -3.638375 -0.000010 1.284244 3.140787
 20   8.842831 0.000000 0.000001 0.683219 -1.000403 -1.738801
 21   9.341937 0.000000 -0.000001 0.000000 0.000000 -1.523562
 22   11.168404 -0.000001 0.000001 1.732754 0.098994 0.193337
 23   1.977383 0.000000 0.000000 0.814238 0.303538 0.223022
 24   3.723980 2.768054 -0.049087 0.000385 -3.156548 -1.353797
 25   12.421014 0.304721 4.492689 -0.091859 -0.075839 1.616818
 26   19.916998 1.704573 4.956909 2.262592 1.451744 0.734330
time 7
  0   0.073880 -0.513988 6.987943 0.011655 -0.094993 -2.078415
  1   -0.526041 0.000001 9.745319 -1.570795 -1.570451 0.000000
  2   -0.000008 0.000010 5.615750 -2.783892 5.611018 0.937659
  3   15.693467 0.000000 0.000000 0.000000 0.000000 -2.154211
  4   22.146629 -0.000001 0.000000 -0.121189 0.118554 0.022888
  5   3.310129 5.734393 0.000000 0.000000 0.000000 1.570796
  6   0.000008 -0.000006 -5.615750 -0.279863 2.578429 -0.374921
  7   15.693467 0.000000 0.000000 0.000000 0.000000 -2.158837
  8   22.146629 0.000000 0.000000 -0.599180 0.515086 -0.012739
  9   3.310129 5.734393 0.000000 0.000000 0.000000 2.499697
 10   1.384163 -0.004728 0.000002 -0.407114 0.128724 -0.115170
 11   5.939814 -0.004730 0.000000 0.000000 0.000000 0.000000
 12   5.939809 -0.003975 0.000000 0.000000 0.000000 0.000000
 13   4.991439 -0.003975 0.000000 0.000000 0.000000 0.000000
 14   4.991436 -0.001575 0.000000 0.000000 0.000000 0.000000
 15   0.000005 0.001564 3.638375 -0.000010 -1.284244 3.140806
 16   8.842831 0.000000 -0.000002 -0.653092 0.088519 -0.942459
 17   9.341934 0.000000 -0.000001 0.000000 0.000000 -1.519513
 18   11.168404 -0.000001 0.000002 -3.765785 0.662556 0.259780
 19   0.000005 0.001585 -3.638375 -0.000010 1.284244 3.140787
 20   8.842831 0.000000 0.000001 0.594935 -1.042984 -1.639866
 21   9.341937 0.000000 -0.000001 0.000000 0.000000 -1.578322
 22   11.168404 -0.000001 0.000001 1.718957 0.124838 0.156767
 23   1.977383 0.000000 0.000000 0.806784 0.308295 0.218648
 24   3.723980 2.768054 -0.049087 0.000385 -3.156548 -1.353797
 25   12.421014 0.304721 4.492689 -0.091859 -0.075839 1.616818
 26   19.916998 1.704573 4.956909 2.262592 1.451744 0.734330
time 8
  0   0.073880 -0.661912 7.046753 0.010816 -0.092890 -2.066334
  1   -0.526041 0.000001 9.745319 -1.570795 -1.570451 0.000000
  2   -0.000008 0.000010 5.615750 -2.797218 5.627021 0.952091
  3   15.693467 0.000000 0.000000 0.000000 0.000000 -2.155207
  4   22.146629 -0.000001 0.000000 -0.119357 0.111496 0.029063
  5   3.310129 5.734393 0.000000 0.000000 0.000000 1.570796
  6   0.000008 -0.000006 -5.615750 -0.266248 2.584565 -0.360403
  7   15.693467 0.000000 0.000000 0.000000 0.000000 -2.156753
  8   22.146629 0.000000 0.000000 -0.583667 0.527243 0.021875
  9   3.310129 5.734393 0.000000 0.000000 0.000000 2.449769
 10   1.384163 -0.004728 0.000002 -0.397487 0.126389 -0.111543
 11   5.939814 -0.004730 0.000000 0.000000 0.000000 0.000000
 12   5.939809 -0.003975 0.000000 0.000000 0.000000 0.000000
 13   4.991439 -0.003975 0.000000 0.000000 0.000000 0.000000
 14   4.991436 -0.001575 0.000000 0.000000 0.000000 0.000000
 15   0.000005 0.001564 3.638375 -0.000010 -1.284244 3.140806
 16   8.842831 0.000000 -0.000002 -0.672844 0.057821 -0.961794
 17   9.341934 0.000000 -0.000001 0.000000 0.000000 -1.424554
 18   11.168404 -0.000001 0.000002 -3.815065 0.689162 0.171136
 19   0.000005 0.001585 -3.638375 -0.000010 1.284244 3.140787
 20   8.842831 0.000000 0.000001 0.696845 -0.998721 -1.757006
 21   9.341937 0.000000 -0.000001 0.000000 0.000000 -1.525360
 22   11.168404 -0.000001 0.000001 1.708516 0.135589 0.207344
 23   1.977383 0.000000 0.000000 0.798221 0.313722 0.213628
 24   3.723980 2.768054 -0.049087 0.000385 -3.156548 -1.353797
 25   12.421014 0.304721 4.492689 -0.091859 -0.075839 1.616818
 26   19.916998 1.704573 4.956909 2.262592 1.451744 0.734330
time 9
  0   0.073880 -0.809837 7.125166 0.009976 -0.090788 -2.054254
  1   -0.526041 0.000001 9.745319 -1.570795 -1.570790 0.000000
  2   -0.000008 0.000010 5.615750 -2.809968 5.643504 0.966045
  3   15.693467 0.000000 0.000000 0.000000 0.000000 -2.156274
  4   22.146629 -0.000001 0.000000 -0.117749 0.104363 0.035283
  5   3.310129 5.734393 0.000000 0.000000 0.000000 1.570796
  6   0.000008 -0.000006 -5.615750 -0.256085 2.594727 -0.349603
  7   15.693467 0.000000 0.000000 0.000000 0.000000 -2.160177
  8   22.146629 0.000000 0.000000 -0.562345 0.541887 0.071111
  9   3.310129 5.734393 0.000000 0.000000 0.000000 2.379158
 10   1.384163 -0.004728 0.000002 -0.387894 0.124028 -0.107916
 11   5.939814 -0.004730 0.000000 0.000000 0.000000 0.000000
 12   5.939809 -0.003975 0.000000 0.000000 0.000000 0.000000
 13   4.991439 -0.003975 0.000000 0.000000 0.000000 0.000000
 14   4.991436 -0.001575 0.000000 0.000000 0.000000 0.000000
 15   0.000005 0.001564 3.638375 -0.000010 -1.284244 3.140806
 16   8.842831 0.000000 -0.000002 -0.688481 0.022286 -0.987473
 17   9.341934 0.000000 -0.000001 0.000000 0.000000 -1.319590
 18   11.168404 -0.000001 0.000002 -3.865682 0.711652 0.079838
 19   0.000005 0.001585 -3.638375 -0.000010 1.284244 3.140787
 20   8.842831 0.000000 0.000001 0.782066 -0.947110 -1.856990
 21   9.341937 0.000000 -0.000001 0.000000 0.000000 -1.467003
 22   11.168404 -0.000001 0.000001 1.700313 0.146129 0.253503
 23   1.977383 0.000000 0.000000 0.789551 0.319103 0.208509
 24   3.723980 2.768054 -0.049087 0.000385 -3.156548 -1.353797
 25   12.421014 0.304721 4.492689 -0.091859 -0.075839 1.616818
 26   19.916998 1.704573 4.956909 2.262592 1.451744 0.734330
time 10
  0   0.073880 -0.957761 7.203580 0.009324 -0.088972 -2.043612
  1   -0.526041 0.000001 9.745319 -1.570795 -1.570451 0.000000
  2   -0.000008 0.000010 5.615750 -2.820993 5.657878 0.978852
  3   15.693467 0.000000 0.000000 0.000000 0.000000 -2.157412
  4   22.146629 -0.000001 0.000000 -0.116291 0.097875 0.041823
  5   3.310129 5.734393 0.000000 0.000000 0.000000 1.570796
  6   0.000008 -0.000006 -5.615750 -0.250045 2.607191 -0.342590
  7   15.693467 0.000000 0.000000 0.000000 0.000000 -2.166950
  8   22.146629 0.000000 0.000000 -0.537468 0.556255 0.127832
  9   3.310129 5.734393 0.000000 0.000000 0.000000 2.298250
 10   1.384163 -0.004728 0.000002 -0.379547 0.121962 -0.104775
 11   5.939814 -0.004730 0.000000 0.000000 0.000000 0.000000
 12   5.939809 -0.003975 0.000000 0.000000 0.000000 0.000000
 13   4.991439 -0.003975 0.000000 0.000000 0.000000 0.000000
 14   4.991436 -0.001575 0.000000 0.000000 0.000000 0.000000
 15   0.000005 0.001564 3.638375 -0.000010 -1.284244 3.140806
 16   8.842831 0.000000 -0.000002 -0.700918 -0.016877 -1.015915
 17   9.341934 0.000000 -0.000001 0.000000 0.000000 -1.205441
 18   11.168404 -0.000001 0.000002 -3.916299 0.731271 -0.013868
 19   0.000005 0.001585 -3.638375 -0.000010 1.284244 3.140787
 20   8.842831 0.000000 0.000001 0.854952 -0.887620 -1.945631
 21   9.341937 0.000000 -0.000001 0.000000 0.000000 -1.396855
 22   11.168404 -0.000001 0.000001 1.694999 0.154393 0.292328
 23   1.977383 0.000000 0.000000 0.781992 0.323768 0.204035
 24   3.723980 2.768054 -0.049087 0.000385 -3.156548 -1.353797
 25   12.421014 0.304721 4.492689 -0.091859 -0.075839 1.616818
 26   19.916998 1.704573 4.956909 2.262592 1.451744 0.734330
time 11
  0   0.073880 -1.105685 7.281994 0.008858 -0.087730 -2.036229
  1   -0.526041 0.000001 9.745319 -1.570795 -1.570451 0.000000
  2   -0.000008 0.000010 5.615750 -2.829429 5.667461 0.990129
  3   15.693467 0.000000 0.000000 0.000000 0.000000 -2.158764
  4   22.146629 -0.000001 0.000000 -0.115020 0.092823 0.049095
  5   3.310129 5.734393 0.000000 0.000000 0.000000 1.570796
  6   0.000008 -0.000006 -5.615750 -0.248319 2.619942 -0.339364
  7   15.693467 0.000000 0.000000 0.000000 0.000000 -2.175063
  8   22.146629 0.000000 0.000000 -0.512197 0.568351 0.184466
  9   3.310129 5.734393 0.000000 0.000000 0.000000 2.217341
 10   1.384163 -0.004728 0.000002 -0.373623 0.120459 -0.102573
 11   5.939814 -0.004730 0.000000 0.000000 0.000000 0.000000
 12   5.939809 -0.003975 0.000000 0.000000 0.000000 0.000000
 13   4.991439 -0.003975 0.000000 0.000000 0.000000 0.000000
 14   4.991436 -0.001575 0.000000 0.000000 0.000000 0.000000
 15   0.000005 0.001564 3.638375 -0.000010 -1.284244 3.140806
 16   8.842831 0.000000 -0.000002 -0.711525 -0.058831 -1.043834
 17   9.341934 0.000000 -0.000001 0.000000 0.000000 -1.082354
 18   11.168404 -0.000001 0.000002 -3.966152 0.749168 -0.110128
 19   0.000005 0.001585 -3.638375 -0.000010 1.284244 3.140787
 20   8.842831 0.000000 0.000001 0.918807 -0.818746 -2.027887
 21   9.341937 0.000000 -0.000001 0.000000 0.000000 -1.307387
 22   11.168404 -0.000001 0.000001 1.693135 0.158356 0.320061
 23   1.977383 0.000000 0.000000 0.776653 0.327047 0.200804
 24   3.723980 2.768054 -0.049087 0.000385 -3.156548 -1.353797
 25   12.421014 0.304721 4.492689 -0.091859 -0.075839 1.616818
 26   19.916998 1.704573 4.956909 2.262592 1.451744 0.734330
time 12
  0   0.073880 -1.246566 7.380011 0.008671 -0.087252 -2.033353
  1   -0.526041 0.000001 9.745319 -1.570795 -1.570451 0.000000
  2   -0.000008 0.000010 5.615750 -2.834223 5.669569 0.999400
  3   15.693467 0.000000 0.000000 0.000000 0.000000 -2.160258
  4   22.146629 -0.000001 0.000000 -0.113786 0.089999 0.057328
  5   3.310129 5.734393 0.000000 0.000000 0.000000 1.570796
  6   0.000008 -0.000006 -5.615750 -0.251483 2.631351 -0.339714
  7   15.693467 0.000000 0.000000 0.000000 0.000000 -2.182283
  8   22.146629 0.000000 0.000000 -0.490536 0.576886 0.232733
  9   3.310129 5.734393 0.000000 0.000000 0.000000 2.146731
 10   1.384163 -0.004728 0.000002 -0.371401 0.119895 -0.101731
 11   5.939814 -0.004730 0.000000 0.000000 0.000000 0.000000
 12   5.939809 -0.003975 0.000000 0.000000 0.000000 0.000000
 13   4.991439 -0.003975 0.000000 0.000000 0.000000 0.000000
 14   4.991436 -0.001575 0.000000 0.000000 0.000000 0.000000
 15   0.000005 0.001564 3.638375 -0.000010 -1.284244 3.140806
 16   8.842831 0.000000 -0.000002 -0.721218 -0.103297 -1.067946
 17   9.341934 0.000000 -0.000001 0.000000 0.000000 -0.949755
 18   11.168404 -0.000001 0.000002 -4.014859 0.766395 -0.209485
 19   0.000005 0.001585 -3.638375 -0.000010 1.284244 3.140787
 20   8.842831 0.000000 0.000001 0.976131 -0.737567 -2.108617
 21   9.341937 0.000000 -0.000001 0.000000 0.000000 -1.188341
 22   11.168404 -0.000001 0.000001 1.694813 0.156248 0.331154
 23   1.977383 0.000000 0.000000 0.774591 0.328294 0.199611
 24   3.723980 2.768054 -0.049087 0.000385 -3.156548 -1.353797
 25   12.421014 0.304721 4.492689 -0.091859 -0.075839 1.616818
 26   19.916998 1.704573 4.956909 2.262592 1.451744 0.734330
end
