version 1
nodes
  0 "Bip01" -1
  1 "Bip01 Pelvis" 0
  2 "Bip01 L Thigh" 1
  3 "Bip01 L Calf" 2
  4 "Bip01 L Foot" 3
  5 "Bip01 L Toe0" 4
  6 "Bip01 R Thigh" 1
  7 "Bip01 R Calf" 6
  8 "Bip01 R Foot" 7
  9 "Bip01 R Toe0" 8
 10 "Bip01 Spine" 1
 11 "Bip01 Spine1" 10
 12 "Bip01 Spine2" 11
 13 "Bip01 Spine3" 12
 14 "Bip01 Neck" 13
 15 "Bip01 L Clavicle" 14
 16 "Bip01 L UpperArm" 15
 17 "Bip01 L Forearm" 16
 18 "Bip01 L Hand" 17
 19 "Bip01 R Clavicle" 14
 20 "Bip01 R UpperArm" 19
 21 "Bip01 R Forearm" 20
 22 "Bip01 R Hand" 21
 23 "Bip01 Head" 14
 24 "Bone05" 23
 25 "m4" 22
 26 "SHOTGUN" 22
end
skeleton
time 0
  0   -99.920769 -97.291710 5.478481 -0.111512 0.096617 -2.018971
  1   -0.526041 0.000001 9.745319 -1.570795 -1.570451 0.000000
  2   -0.000008 0.000010 5.615750 -2.705665 5.836792 0.573996
  3   15.693467 0.000000 0.000000 0.000000 0.000000 -2.183164
  4   22.146629 -0.000001 0.000000 -0.142391 0.134528 -0.108513
  5   3.310129 5.734393 0.000000 0.000000 0.000000 1.570796
  6   0.000008 -0.000006 -5.615750 -0.229815 2.726841 -0.602642
  7   15.693467 0.000000 0.000000 0.000000 0.000000 -2.314549
  8   22.146629 0.000000 0.000000 -0.523479 0.575627 0.245240
  9   3.310129 5.734393 0.000000 0.000000 0.000000 2.146731
 10   1.384163 -0.004728 0.000002 -0.370392 0.123062 -0.093537
 11   5.939814 -0.004730 0.000000 0.000000 0.000000 0.000000
 12   5.939809 -0.003975 0.000000 0.000000 0.000000 0.191977
 13   4.991439 -0.003975 0.000000 0.000000 0.000000 0.000000
 14   4.991436 -0.001575 0.000000 0.000000 0.000000 0.000000
 15   0.000005 0.001564 3.638375 -0.000010 -1.284244 3.140806
 16   8.842831 0.000000 -0.000002 -0.741610 0.203776 -1.015616
 17   9.341934 0.000000 -0.000001 0.000000 0.000000 -1.099657
 18   11.168404 -0.000001 0.000002 -4.090785 0.620447 -0.221867
 19   0.000005 0.001585 -3.638375 -0.000010 1.284244 3.140787
 20   8.842831 0.000000 0.000001 0.720710 -0.694897 -1.910174
 21   9.341937 0.000000 -0.000001 0.000000 0.000000 -1.394989
 22   11.168404 -0.000001 0.000001 1.781507 0.087948 0.759553
 23   1.977383 0.000000 0.000000 0.813815 0.215807 0.138723
 24   3.723980 2.768054 -0.049087 0.000001 -3.141591 -1.570794
 25   12.421014 0.304721 4.492689 -0.091859 -0.075839 1.616818
 26   19.916998 1.704573 4.956909 2.262592 1.451744 0.734330
time 1
  0   -99.920769 -97.291710 5.478481 -0.111512 0.096617 -2.018971
  1   -0.526041 0.000001 9.745319 -1.570795 -1.570451 0.000000
  2   -0.000008 0.000010 5.615750 -2.705665 5.837367 0.574282
  3   15.693467 0.000000 0.000000 0.000000 0.000000 -2.183164
  4   22.146629 -0.000001 0.000000 -0.142840 0.134008 -0.108558
  5   3.310129 5.734393 0.000000 0.000000 0.000000 1.570796
  6   0.000008 -0.000006 -5.615750 -0.229815 2.726841 -0.602642
  7   15.693467 0.000000 0.000000 0.000000 0.000000 -2.314549
  8   22.146629 0.000000 0.000000 -0.523479 0.575627 0.245240
  9   3.310129 5.734393 0.000000 0.000000 0.000000 2.146731
 10   1.384163 -0.004728 0.000002 -0.370392 0.123062 -0.093537
 11   5.939814 -0.004730 0.000000 0.000000 0.000000 0.000000
 12   5.939809 -0.003975 0.000000 0.000000 0.000000 0.191977
 13   4.991439 -0.003975 0.000000 0.000000 0.000000 0.000000
 14   4.991436 -0.001575 0.000000 0.000000 0.000000 0.000000
 15   0.000005 0.001564 3.638375 -0.000010 -1.284244 3.140806
 16   8.842831 0.000000 -0.000002 -0.740238 0.207032 -1.014571
 17   9.341934 0.000000 -0.000001 0.000000 0.000000 -1.099329
 18   11.168404 -0.000001 0.000002 -4.089066 0.618915 -0.224177
 19   0.000005 0.001585 -3.638375 -0.000010 1.284244 3.140787
 20   8.842831 0.000000 0.000001 0.717808 -0.698172 -1.906934
 21   9.341937 0.000000 -0.000001 0.000000 0.000000 -1.394923
 22   11.168404 -0.000001 0.000001 1.781694 0.089129 0.755511
 23   1.977383 0.000000 0.000000 0.813815 0.215807 0.138723
 24   3.723980 2.768054 -0.049087 0.000001 -3.141591 -1.570794
 25   12.421014 0.304721 4.492689 -0.091859 -0.075839 1.616818
 26   19.916998 1.704573 4.956909 2.262592 1.451744 0.734330
time 2
  0   -99.920769 -97.291710 5.439275 -0.111512 0.096617 -2.018971
  1   -0.526041 0.000001 9.745319 -1.570795 -1.570451 0.000000
  2   -0.000008 0.000010 5.615750 -2.704514 5.838900 0.570842
  3   15.693467 0.000000 0.000000 0.000000 0.000000 -2.185013
  4   22.146629 -0.000001 0.000000 -0.143064 0.134206 -0.110205
  5   3.310129 5.734393 0.000000 0.000000 0.000000 1.570796
  6   0.000008 -0.000006 -5.615750 -0.230966 2.726554 -0.601731
  7   15.693467 0.000000 0.000000 0.000000 0.000000 -2.315666
  8   22.146629 0.000000 0.000000 -0.524381 0.576916 0.246737
  9   3.310129 5.734393 0.000000 0.000000 0.000000 2.146731
 10   1.384163 -0.004728 0.000002 -0.370392 0.123062 -0.093537
 11   5.939814 -0.004730 0.000000 0.000000 0.000000 0.000000
 12   5.939809 -0.003975 0.000000 0.000000 0.000000 0.191977
 13   4.991439 -0.003975 0.000000 0.000000 0.000000 0.000000
 14   4.991436 -0.001575 0.000000 0.000000 0.000000 0.000000
 15   0.000005 0.001564 3.638375 -0.000010 -1.284244 3.140806
 16   8.842831 0.000000 -0.000002 -0.739781 0.208149 -1.014273
 17   9.341934 0.000000 -0.000001 0.000000 0.000000 -1.099247
 18   11.168404 -0.000001 0.000002 -4.088492 0.618341 -0.224963
 19   0.000005 0.001585 -3.638375 -0.000010 1.284244 3.140787
 20   8.842831 0.000000 0.000001 0.716921 -0.699323 -1.905885
 21   9.341937 0.000000 -0.000001 0.000000 0.000000 -1.394923
 22   11.168404 -0.000001 0.000001 1.781787 0.089508 0.754101
 23   1.977383 0.000000 0.000000 0.813815 0.215807 0.138723
 24   3.723980 2.768054 -0.049087 0.000001 -3.141591 -1.570794
 25   12.421014 0.304721 4.492689 -0.091859 -0.075839 1.616818
 26   19.916998 1.704573 4.956909 2.262592 1.451744 0.734330
time 3
  0   -99.920769 -97.291710 5.380465 -0.111512 0.096617 -2.018971
  1   -0.526041 0.000001 9.745319 -1.570795 -1.570451 0.000000
  2   -0.000008 0.000010 5.615750 -2.703268 5.840529 0.567019
  3   15.693467 0.000000 0.000000 0.000000 0.000000 -2.187005
  4   22.146629 -0.000001 0.000000 -0.143363 0.134429 -0.112080
  5   3.310129 5.734393 0.000000 0.000000 0.000000 1.570796
  6   0.000008 -0.000006 -5.615750 -0.232212 2.726266 -0.600608
  7   15.693467 0.000000 0.000000 0.000000 0.000000 -2.316931
  8   22.146629 0.000000 0.000000 -0.525453 0.578359 0.248498
  9   3.310129 5.734393 0.000000 0.000000 0.000000 2.146731
 10   1.384163 -0.004728 0.000002 -0.370392 0.123062 -0.093537
 11   5.939814 -0.004730 0.000000 0.000000 0.000000 0.000000
 12   5.939809 -0.003975 0.000000 0.000000 0.000000 0.191977
 13   4.991439 -0.003975 0.000000 0.000000 0.000000 0.000000
 14   4.991436 -0.001575 0.000000 0.000000 0.000000 0.000000
 15   0.000005 0.001564 3.638375 -0.000010 -1.284244 3.140806
 16   8.842831 0.000000 -0.000002 -0.739415 0.208893 -1.013974
 17   9.341934 0.000000 -0.000001 0.000000 0.000000 -1.099165
 18   11.168404 -0.000001 0.000002 -4.088110 0.617958 -0.225553
 19   0.000005 0.001585 -3.638375 -0.000010 1.284244 3.140787
 20   8.842831 0.000000 0.000001 0.716195 -0.700120 -1.905123
 21   9.341937 0.000000 -0.000001 0.000000 0.000000 -1.394923
 22   11.168404 -0.000001 0.000001 1.781787 0.089761 0.753161
 23   1.977383 0.000000 0.000000 0.813815 0.215807 0.138723
 24   3.723980 2.768054 -0.049087 0.000001 -3.141591 -1.570794
 25   12.421014 0.304721 4.492689 -0.091859 -0.075839 1.616818
 26   19.916998 1.704573 4.956909 2.262592 1.451744 0.734330
time 4
  0   -99.920769 -97.291710 5.321654 -0.111512 0.096617 -2.018971
  1   -0.526041 0.000001 9.745319 -1.570795 -1.570451 0.000000
  2   -0.000008 0.000010 5.615750 -2.701926 5.842445 0.562909
  3   15.693467 0.000000 0.000000 0.000000 0.000000 -2.189210
  4   22.146629 -0.000001 0.000000 -0.143662 0.134677 -0.114092
  5   3.310129 5.734393 0.000000 0.000000 0.000000 1.570796
  6   0.000008 -0.000006 -5.615750 -0.233554 2.725978 -0.599346
  7   15.693467 0.000000 0.000000 0.000000 0.000000 -2.318271
  8   22.146629 0.000000 0.000000 -0.526525 0.579956 0.250436
  9   3.310129 5.734393 0.000000 0.000000 0.000000 2.146731
 10   1.384163 -0.004728 0.000002 -0.370392 0.123062 -0.093537
 11   5.939814 -0.004730 0.000000 0.000000 0.000000 0.000000
 12   5.939809 -0.003975 0.000000 0.000000 0.000000 0.191977
 13   4.991439 -0.003975 0.000000 0.000000 0.000000 0.000000
 14   4.991436 -0.001575 0.000000 0.000000 0.000000 0.000000
 15   0.000005 0.001564 3.638375 -0.000010 -1.284244 3.140806
 16   8.842831 0.000000 -0.000002 -0.739141 0.209544 -1.013825
 17   9.341934 0.000000 -0.000001 0.000000 0.000000 -1.099083
 18   11.168404 -0.000001 0.000002 -4.087824 0.617671 -0.225946
 19   0.000005 0.001585 -3.638375 -0.000010 1.284244 3.140787
 20   8.842831 0.000000 0.000001 0.715631 -0.700651 -1.904551
 21   9.341937 0.000000 -0.000001 0.000000 0.000000 -1.394923
 22   11.168404 -0.000001 0.000001 1.781787 0.089972 0.752409
 23   1.977383 0.000000 0.000000 0.813815 0.215807 0.138723
 24   3.723980 2.768054 -0.049087 0.000001 -3.141591 -1.570794
 25   12.421014 0.304721 4.492689 -0.091859 -0.075839 1.616818
 26   19.916998 1.704573 4.956909 2.262592 1.451744 0.734330
time 5
  0   -99.920769 -97.291710 5.262844 -0.111512 0.096617 -2.018971
  1   -0.526041 0.000001 9.745319 -1.570795 -1.570451 0.000000
  2   -0.000008 0.000010 5.615750 -2.700392 5.844362 0.558512
  3   15.693467 0.000000 0.000000 0.000000 0.000000 -2.191487
  4   22.146629 -0.000001 0.000000 -0.143999 0.134949 -0.116242
  5   3.310129 5.734393 0.000000 0.000000 0.000000 1.570796
  6   0.000008 -0.000006 -5.615750 -0.234993 2.725595 -0.598084
  7   15.693467 0.000000 0.000000 0.000000 0.000000 -2.319759
  8   22.146629 0.000000 0.000000 -0.527709 0.581644 0.252462
  9   3.310129 5.734393 0.000000 0.000000 0.000000 2.146731
 10   1.384163 -0.004728 0.000002 -0.370392 0.123062 -0.093537
 11   5.939814 -0.004730 0.000000 0.000000 0.000000 0.000000
 12   5.939809 -0.003975 0.000000 0.000000 0.000000 0.191977
 13   4.991439 -0.003975 0.000000 0.000000 0.000000 0.000000
 14   4.991436 -0.001575 0.000000 0.000000 0.000000 0.000000
 15   0.000005 0.001564 3.638375 -0.000010 -1.284244 3.140806
 16   8.842831 0.000000 -0.000002 -0.738958 0.209916 -1.013675
 17   9.341934 0.000000 -0.000001 0.000000 0.000000 -1.099001
 18   11.168404 -0.000001 0.000002 -4.087537 0.617480 -0.226290
 19   0.000005 0.001585 -3.638375 -0.000010 1.284244 3.140787
 20   8.842831 0.000000 0.000001 0.715228 -0.701093 -1.904075
 21   9.341937 0.000000 -0.000001 0.000000 0.000000 -1.394923
 22   11.168404 -0.000001 0.000001 1.781787 0.090141 0.751845
 23   1.977383 0.000000 0.000000 0.813815 0.215807 0.138723
 24   3.723980 2.768054 -0.049087 0.000001 -3.141591 -1.570794
 25   12.421014 0.304721 4.492689 -0.091859 -0.075839 1.616818
 26   19.916998 1.704573 4.956909 2.262592 1.451744 0.734330
time 6
  0   -99.920769 -97.291710 5.204034 -0.111512 0.096617 -2.018971
  1   -0.526041 0.000001 9.745319 -1.570795 -1.570451 0.000000
  2   -0.000008 0.000010 5.615750 -2.698954 5.846375 0.554020
  3   15.693467 0.000000 0.000000 0.000000 0.000000 -2.193834
  4   22.146629 -0.000001 0.000000 -0.144335 0.135222 -0.118483
  5   3.310129 5.734393 0.000000 0.000000 0.000000 1.570796
  6   0.000008 -0.000006 -5.615750 -0.236431 2.725307 -0.596751
  7   15.693467 0.000000 0.000000 0.000000 0.000000 -2.321174
  8   22.146629 0.000000 0.000000 -0.528894 0.583363 0.254488
  9   3.310129 5.734393 0.000000 0.000000 0.000000 2.146731
 10   1.384163 -0.004728 0.000002 -0.370392 0.123062 -0.093537
 11   5.939814 -0.004730 0.000000 0.000000 0.000000 0.000000
 12   5.939809 -0.003975 0.000000 0.000000 0.000000 0.191977
 13   4.991439 -0.003975 0.000000 0.000000 0.000000 0.000000
 14   4.991436 -0.001575 0.000000 0.000000 0.000000 0.000000
 15   0.000005 0.001564 3.638375 -0.000010 -1.284244 3.140806
 16   8.842831 0.000000 -0.000002 -0.738775 0.210381 -1.013526
 17   9.341934 0.000000 -0.000001 0.000000 0.000000 -1.099001
 18   11.168404 -0.000001 0.000002 -4.087347 0.617289 -0.226536
 19   0.000005 0.001585 -3.638375 -0.000010 1.284244 3.140787
 20   8.842831 0.000000 0.000001 0.714905 -0.701536 -1.903693
 21   9.341937 0.000000 -0.000001 0.000000 0.000000 -1.394856
 22   11.168404 -0.000001 0.000001 1.781880 0.090267 0.751375
 23   1.977383 0.000000 0.000000 0.813815 0.215807 0.138723
 24   3.723980 2.768054 -0.049087 0.000001 -3.141591 -1.570794
 25   12.421014 0.304721 4.492689 -0.091859 -0.075839 1.616818
 26   19.916998 1.704573 4.956909 2.262592 1.451744 0.734330
time 7
  0   -99.920769 -97.291710 5.164827 -0.111512 0.096617 -2.018971
  1   -0.526041 0.000001 9.745319 -1.570795 -1.570451 0.000000
  2   -0.000008 0.000010 5.615750 -2.697516 5.848387 0.549528
  3   15.693467 0.000000 0.000000 0.000000 0.000000 -2.196182
  4   22.146629 -0.000001 0.000000 -0.144709 0.135494 -0.120724
  5   3.310129 5.734393 0.000000 0.000000 0.000000 1.570796
  6   0.000008 -0.000006 -5.615750 -0.237869 2.724924 -0.595348
  7   15.693467 0.000000 0.000000 0.000000 0.000000 -2.322588
  8   22.146629 0.000000 0.000000 -0.530079 0.585082 0.256513
  9   3.310129 5.734393 0.000000 0.000000 0.000000 2.146731
 10   1.384163 -0.004728 0.000002 -0.370392 0.123062 -0.093537
 11   5.939814 -0.004730 0.000000 0.000000 0.000000 0.000000
 12   5.939809 -0.003975 0.000000 0.000000 0.000000 0.191977
 13   4.991439 -0.003975 0.000000 0.000000 0.000000 0.000000
 14   4.991436 -0.001575 0.000000 0.000000 0.000000 0.000000
 15   0.000005 0.001564 3.638375 -0.000010 -1.284244 3.140806
 16   8.842831 0.000000 -0.000002 -0.738684 0.210753 -1.013451
 17   9.341934 0.000000 -0.000001 0.000000 0.000000 -1.098919
 18   11.168404 -0.000001 0.000002 -4.087155 0.617097 -0.226830
 19   0.000005 0.001585 -3.638375 -0.000010 1.284244 3.140787
 20   8.842831 0.000000 0.000001 0.714583 -0.701890 -1.903312
 21   9.341937 0.000000 -0.000001 0.000000 0.000000 -1.394856
 22   11.168404 -0.000001 0.000001 1.781880 0.090436 0.750905
 23   1.977383 0.000000 0.000000 0.813815 0.215807 0.138723
 24   3.723980 2.768054 -0.049087 0.000001 -3.141591 -1.570794
 25   12.421014 0.304721 4.492689 -0.091859 -0.075839 1.616818
 26   19.916998 1.704573 4.956909 2.262592 1.451744 0.734330
time 8
  0   -99.920769 -97.291710 5.106017 -0.111512 0.096617 -2.018971
  1   -0.526041 0.000001 9.745319 -1.570795 -1.570451 0.000000
  2   -0.000008 0.000010 5.615750 -2.696078 5.850303 0.545227
  3   15.693467 0.000000 0.000000 0.000000 0.000000 -2.198458
  4   22.146629 -0.000001 0.000000 -0.145046 0.135742 -0.122920
  5   3.310129 5.734393 0.000000 0.000000 0.000000 1.570796
  6   0.000008 -0.000006 -5.615750 -0.239307 2.724540 -0.594016
  7   15.693467 0.000000 0.000000 0.000000 0.000000 -2.323928
  8   22.146629 0.000000 0.000000 -0.531263 0.586802 0.258539
  9   3.310129 5.734393 0.000000 0.000000 0.000000 2.146731
 10   1.384163 -0.004728 0.000002 -0.370392 0.123062 -0.093537
 11   5.939814 -0.004730 0.000000 0.000000 0.000000 0.000000
 12   5.939809 -0.003975 0.000000 0.000000 0.000000 0.191977
 13   4.991439 -0.003975 0.000000 0.000000 0.000000 0.000000
 14   4.991436 -0.001575 0.000000 0.000000 0.000000 0.000000
 15   0.000005 0.001564 3.638375 -0.000010 -1.284244 3.140806
 16   8.842831 0.000000 -0.000002 -0.738501 0.211218 -1.013302
 17   9.341934 0.000000 -0.000001 0.000000 0.000000 -1.098919
 18   11.168404 -0.000001 0.000002 -4.086965 0.616906 -0.227174
 19   0.000005 0.001585 -3.638375 -0.000010 1.284244 3.140787
 20   8.842831 0.000000 0.000001 0.714180 -0.702333 -1.902835
 21   9.341937 0.000000 -0.000001 0.000000 0.000000 -1.394856
 22   11.168404 -0.000001 0.000001 1.781880 0.090562 0.750341
 23   1.977383 0.000000 0.000000 0.813815 0.215807 0.138723
 24   3.723980 2.768054 -0.049087 0.000001 -3.141591 -1.570794
 25   12.421014 0.304721 4.492689 -0.091859 -0.075839 1.616818
 26   19.916998 1.704573 4.956909 2.262592 1.451744 0.734330
time 9
  0   -99.920769 -97.291710 5.047207 -0.111512 0.096617 -2.018971
  1   -0.526041 0.000001 9.745319 -1.570795 -1.570451 0.000000
  2   -0.000008 0.000010 5.615750 -2.694736 5.852124 0.541118
  3   15.693467 0.000000 0.000000 0.000000 0.000000 -2.200593
  4   22.146629 -0.000001 0.000000 -0.145345 0.135990 -0.124978
  5   3.310129 5.734393 0.000000 0.000000 0.000000 1.570796
  6   0.000008 -0.000006 -5.615750 -0.240553 2.724253 -0.592683
  7   15.693467 0.000000 0.000000 0.000000 0.000000 -2.325268
  8   22.146629 0.000000 0.000000 -0.532335 0.588429 0.260477
  9   3.310129 5.734393 0.000000 0.000000 0.000000 2.146731
 10   1.384163 -0.004728 0.000002 -0.370392 0.123062 -0.093537
 11   5.939814 -0.004730 0.000000 0.000000 0.000000 0.000000
 12   5.939809 -0.003975 0.000000 0.000000 0.000000 0.191977
 13   4.991439 -0.003975 0.000000 0.000000 0.000000 0.000000
 14   4.991436 -0.001575 0.000000 0.000000 0.000000 0.000000
 15   0.000005 0.001564 3.638375 -0.000010 -1.284244 3.140806
 16   8.842831 0.000000 -0.000002 -0.738227 0.211777 -1.013078
 17   9.341934 0.000000 -0.000001 0.000000 0.000000 -1.098837
 18   11.168404 -0.000001 0.000002 -4.086582 0.616619 -0.227617
 19   0.000005 0.001585 -3.638375 -0.000010 1.284244 3.140787
 20   8.842831 0.000000 0.000001 0.713615 -0.702953 -1.902264
 21   9.341937 0.000000 -0.000001 0.000000 0.000000 -1.394856
 22   11.168404 -0.000001 0.000001 1.781880 0.090773 0.749588
 23   1.977383 0.000000 0.000000 0.813815 0.215807 0.138723
 24   3.723980 2.768054 -0.049087 0.000001 -3.141591 -1.570794
 25   12.421014 0.304721 4.492689 -0.091859 -0.075839 1.616818
 26   19.916998 1.704573 4.956909 2.262592 1.451744 0.734330
time 10
  0   -99.920769 -97.291710 4.988397 -0.111512 0.096617 -2.018971
  1   -0.526041 0.000001 9.745319 -1.570795 -1.570451 0.000000
  2   -0.000008 0.000010 5.615750 -2.693585 5.853849 0.537295
  3   15.693467 0.000000 0.000000 0.000000 0.000000 -2.202584
  4   22.146629 -0.000001 0.000000 -0.145644 0.136212 -0.126899
  5   3.310129 5.734393 0.000000 0.000000 0.000000 1.570796
  6   0.000008 -0.000006 -5.615750 -0.241800 2.723965 -0.591491
  7   15.693467 0.000000 0.000000 0.000000 0.000000 -2.326458
  8   22.146629 0.000000 0.000000 -0.533350 0.589902 0.262238
  9   3.310129 5.734393 0.000000 0.000000 0.000000 2.146731
 10   1.384163 -0.004728 0.000002 -0.370392 0.123062 -0.093537
 11   5.939814 -0.004730 0.000000 0.000000 0.000000 0.000000
 12   5.939809 -0.003975 0.000000 0.000000 0.000000 0.191977
 13   4.991439 -0.003975 0.000000 0.000000 0.000000 0.000000
 14   4.991436 -0.001575 0.000000 0.000000 0.000000 0.000000
 15   0.000005 0.001564 3.638375 -0.000010 -1.284244 3.140806
 16   8.842831 0.000000 -0.000002 -0.737861 0.212614 -1.012854
 17   9.341934 0.000000 -0.000001 0.000000 0.000000 -1.098673
 18   11.168404 -0.000001 0.000002 -4.086200 0.616236 -0.228206
 19   0.000005 0.001585 -3.638375 -0.000010 1.284244 3.140787
 20   8.842831 0.000000 0.000001 0.712890 -0.703749 -1.901406
 21   9.341937 0.000000 -0.000001 0.000000 0.000000 -1.394790
 22   11.168404 -0.000001 0.000001 1.781974 0.091068 0.748554
 23   1.977383 0.000000 0.000000 0.813815 0.215807 0.138723
 24   3.723980 2.768054 -0.049087 0.000001 -3.141591 -1.570794
 25   12.421014 0.304721 4.492689 -0.091859 -0.075839 1.616818
 26   19.916998 1.704573 4.956909 2.262592 1.451744 0.734330
time 11
  0   -99.920769 -97.291710 4.949190 -0.111512 0.096617 -2.018971
  1   -0.526041 0.000001 9.745319 -1.570795 -1.570451 0.000000
  2   -0.000008 0.000010 5.615750 -2.692531 5.855382 0.533950
  3   15.693467 0.000000 0.000000 0.000000 0.000000 -2.204292
  4   22.146629 -0.000001 0.000000 -0.145943 0.136411 -0.128637
  5   3.310129 5.734393 0.000000 0.000000 0.000000 1.570796
  6   0.000008 -0.000006 -5.615750 -0.242854 2.723677 -0.590439
  7   15.693467 0.000000 0.000000 0.000000 0.000000 -2.327500
  8   22.146629 0.000000 0.000000 -0.534196 0.591253 0.263824
  9   3.310129 5.734393 0.000000 0.000000 0.000000 2.146731
 10   1.384163 -0.004728 0.000002 -0.370392 0.123062 -0.093537
 11   5.939814 -0.004730 0.000000 0.000000 0.000000 0.000000
 12   5.939809 -0.003975 0.000000 0.000000 0.000000 0.191977
 13   4.991439 -0.003975 0.000000 0.000000 0.000000 0.000000
 14   4.991436 -0.001575 0.000000 0.000000 0.000000 0.000000
 15   0.000005 0.001564 3.638375 -0.000010 -1.284244 3.140806
 16   8.842831 0.000000 -0.000002 -0.737404 0.213730 -1.012481
 17   9.341934 0.000000 -0.000001 0.000000 0.000000 -1.098591
 18   11.168404 -0.000001 0.000002 -4.085628 0.615662 -0.228992
 19   0.000005 0.001585 -3.638375 -0.000010 1.284244 3.140787
 20   8.842831 0.000000 0.000001 0.711922 -0.704900 -1.900357
 21   9.341937 0.000000 -0.000001 0.000000 0.000000 -1.394790
 22   11.168404 -0.000001 0.000001 1.781974 0.091490 0.747144
 23   1.977383 0.000000 0.000000 0.813815 0.215807 0.138723
 24   3.723980 2.768054 -0.049087 0.000001 -3.141591 -1.570794
 25   12.421014 0.304721 4.492689 -0.091859 -0.075839 1.616818
 26   19.916998 1.704573 4.956909 2.262592 1.451744 0.734330
time 12
  0   -99.920769 -97.291710 4.909983 -0.111512 0.096617 -2.018971
  1   -0.526041 0.000001 9.745319 -1.570795 -1.570451 0.000000
  2   -0.000008 0.000010 5.615750 -2.691572 5.856724 0.531178
  3   15.693467 0.000000 0.000000 0.000000 0.000000 -2.205714
  4   22.146629 -0.000001 0.000000 -0.146168 0.136584 -0.130054
  5   3.310129 5.734393 0.000000 0.000000 0.000000 1.570796
  6   0.000008 -0.000006 -5.615750 -0.243813 2.723486 -0.589527
  7   15.693467 0.000000 0.000000 0.000000 0.000000 -2.328319
  8   22.146629 0.000000 0.000000 -0.534930 0.592358 0.265145
  9   3.310129 5.734393 0.000000 0.000000 0.000000 2.146731
 10   1.384163 -0.004728 0.000002 -0.370392 0.123062 -0.093537
 11   5.939814 -0.004730 0.000000 0.000000 0.000000 0.000000
 12   5.939809 -0.003975 0.000000 0.000000 0.000000 0.191977
 13   4.991439 -0.003975 0.000000 0.000000 0.000000 0.000000
 14   4.991436 -0.001575 0.000000 0.000000 0.000000 0.000000
 15   0.000005 0.001564 3.638375 -0.000010 -1.284244 3.140806
 16   8.842831 0.000000 -0.000002 -0.736764 0.215125 -1.012033
 17   9.341934 0.000000 -0.000001 0.000000 0.000000 -1.098345
 18   11.168404 -0.000001 0.000002 -4.084863 0.614992 -0.230073
 19   0.000005 0.001585 -3.638375 -0.000010 1.284244 3.140787
 20   8.842831 0.000000 0.000001 0.710632 -0.706317 -1.898928
 21   9.341937 0.000000 -0.000001 0.000000 0.000000 -1.394723
 22   11.168404 -0.000001 0.000001 1.782067 0.091996 0.745358
 23   1.977383 0.000000 0.000000 0.813815 0.215807 0.138723
 24   3.723980 2.768054 -0.049087 0.000001 -3.141591 -1.570794
 25   12.421014 0.304721 4.492689 -0.091859 -0.075839 1.616818
 26   19.916998 1.704573 4.956909 2.262592 1.451744 0.734330
time 13
  0   -99.920769 -97.291710 4.890379 -0.111512 0.096617 -2.018971
  1   -0.526041 0.000001 9.745319 -1.570795 -1.570451 0.000000
  2   -0.000008 0.000010 5.615750 -2.690901 5.857682 0.528980
  3   15.693467 0.000000 0.000000 0.000000 0.000000 -2.206852
  4   22.146629 -0.000001 0.000000 -0.146317 0.136708 -0.131152
  5   3.310129 5.734393 0.000000 0.000000 0.000000 1.570796
  6   0.000008 -0.000006 -5.615750 -0.244484 2.723294 -0.588826
  7   15.693467 0.000000 0.000000 0.000000 0.000000 -2.328989
  8   22.146629 0.000000 0.000000 -0.535494 0.593218 0.266114
  9   3.310129 5.734393 0.000000 0.000000 0.000000 2.146731
 10   1.384163 -0.004728 0.000002 -0.370392 0.123062 -0.093537
 11   5.939814 -0.004730 0.000000 0.000000 0.000000 0.000000
 12   5.939809 -0.003975 0.000000 0.000000 0.000000 0.191977
 13   4.991439 -0.003975 0.000000 0.000000 0.000000 0.000000
 14   4.991436 -0.001575 0.000000 0.000000 0.000000 0.000000
 15   0.000005 0.001564 3.638375 -0.000010 -1.284244 3.140806
 16   8.842831 0.000000 -0.000002 -0.735941 0.216986 -1.011436
 17   9.341934 0.000000 -0.000001 0.000000 0.000000 -1.098099
 18   11.168404 -0.000001 0.000002 -4.083813 0.614130 -0.231449
 19   0.000005 0.001585 -3.638375 -0.000010 1.284244 3.140787
 20   8.842831 0.000000 0.000001 0.708939 -0.708176 -1.897021
 21   9.341937 0.000000 -0.000001 0.000000 0.000000 -1.394656
 22   11.168404 -0.000001 0.000001 1.782160 0.092670 0.742914
 23   1.977383 0.000000 0.000000 0.813815 0.215807 0.138723
 24   3.723980 2.768054 -0.049087 0.000001 -3.141591 -1.570794
 25   12.421014 0.304721 4.492689 -0.091859 -0.075839 1.616818
 26   19.916998 1.704573 4.956909 2.262592 1.451744 0.734330
time 14
  0   -99.920769 -97.291710 4.870776 -0.111512 0.096617 -2.018971
  1   -0.526041 0.000001 9.745319 -1.570795 -1.570451 0.000000
  2   -0.000008 0.000010 5.615750 -2.690518 5.858257 0.527642
  3   15.693467 0.000000 0.000000 0.000000 0.000000 -2.207564
  4   22.146629 -0.000001 0.000000 -0.146429 0.136782 -0.131884
  5   3.310129 5.734393 0.000000 0.000000 0.000000 1.570796
  6   0.000008 -0.000006 -5.615750 -0.244868 2.723198 -0.588335
  7   15.693467 0.000000 0.000000 0.000000 0.000000 -2.329436
  8   22.146629 0.000000 0.000000 -0.535832 0.593740 0.266818
  9   3.310129 5.734393 0.000000 0.000000 0.000000 2.146731
 10   1.384163 -0.004728 0.000002 -0.370392 0.123062 -0.093537
 11   5.939814 -0.004730 0.000000 0.000000 0.000000 0.000000
 12   5.939809 -0.003975 0.000000 0.000000 0.000000 0.191977
 13   4.991439 -0.003975 0.000000 0.000000 0.000000 0.000000
 14   4.991436 -0.001575 0.000000 0.000000 0.000000 0.000000
 15   0.000005 0.001564 3.638375 -0.000010 -1.284244 3.140806
 16   8.842831 0.000000 -0.000002 -0.734935 0.219405 -1.010764
 17   9.341934 0.000000 -0.000001 0.000000 0.000000 -1.097689
 18   11.168404 -0.000001 0.000002 -4.082571 0.612982 -0.233169
 19   0.000005 0.001585 -3.638375 -0.000010 1.284244 3.140787
 20   8.842831 0.000000 0.000001 0.706843 -0.710566 -1.894638
 21   9.341937 0.000000 -0.000001 0.000000 0.000000 -1.394523
 22   11.168404 -0.000001 0.000001 1.782160 0.093513 0.739905
 23   1.977383 0.000000 0.000000 0.813815 0.215807 0.138723
 24   3.723980 2.768054 -0.049087 0.000001 -3.141591 -1.570794
 25   12.421014 0.304721 4.492689 -0.091859 -0.075839 1.616818
 26   19.916998 1.704573 4.956909 2.262592 1.451744 0.734330
time 15
  0   -99.920769 -97.291710 4.870776 -0.111512 0.096617 -2.018971
  1   -0.526041 0.000001 9.745319 -1.570795 -1.570451 0.000000
  2   -0.000008 0.000010 5.615750 -2.690326 5.858545 0.527164
  3   15.693467 0.000000 0.000000 0.000000 0.000000 -2.207777
  4   22.146629 -0.000001 0.000000 -0.146467 0.136807 -0.132113
  5   3.310129 5.734393 0.000000 0.000000 0.000000 1.570796
  6   0.000008 -0.000006 -5.615750 -0.245060 2.723198 -0.588195
  7   15.693467 0.000000 0.000000 0.000000 0.000000 -2.329585
  8   22.146629 0.000000 0.000000 -0.535945 0.593955 0.266995
  9   3.310129 5.734393 0.000000 0.000000 0.000000 2.146731
 10   1.384163 -0.004728 0.000002 -0.370392 0.123062 -0.093537
 11   5.939814 -0.004730 0.000000 0.000000 0.000000 0.000000
 12   5.939809 -0.003975 0.000000 0.000000 0.000000 0.191977
 13   4.991439 -0.003975 0.000000 0.000000 0.000000 0.000000
 14   4.991436 -0.001575 0.000000 0.000000 0.000000 0.000000
 15   0.000005 0.001564 3.638375 -0.000010 -1.284244 3.140806
 16   8.842831 0.000000 -0.000002 -0.733746 0.222288 -1.009868
 17   9.341934 0.000000 -0.000001 0.000000 0.000000 -1.097197
 18   11.168404 -0.000001 0.000002 -4.081043 0.611642 -0.235331
 19   0.000005 0.001585 -3.638375 -0.000010 1.284244 3.140787
 20   8.842831 0.000000 0.000001 0.704263 -0.713399 -1.891779
 21   9.341937 0.000000 -0.000001 0.000000 0.000000 -1.394323
 22   11.168404 -0.000001 0.000001 1.782346 0.094525 0.736239
 23   1.977383 0.000000 0.000000 0.813815 0.215807 0.138723
 24   3.723980 2.768054 -0.049087 0.000001 -3.141591 -1.570794
 25   12.421014 0.304721 4.492689 -0.091859 -0.075839 1.616818
 26   19.916998 1.704573 4.956909 2.262592 1.451744 0.734330
time 16
  0   -99.920769 -97.291710 4.870776 -0.111512 0.096617 -2.018971
  1   -0.526041 0.000001 9.745319 -1.570795 -1.570451 0.000000
  2   -0.000008 0.000010 5.615750 -2.690518 5.858353 0.527546
  3   15.693467 0.000000 0.000000 0.000000 0.000000 -2.207564
  4   22.146629 -0.000001 0.000000 -0.146429 0.136782 -0.131930
  5   3.310129 5.734393 0.000000 0.000000 0.000000 1.570796
  6   0.000008 -0.000006 -5.615750 -0.244964 2.723198 -0.588335
  7   15.693467 0.000000 0.000000 0.000000 0.000000 -2.329436
  8   22.146629 0.000000 0.000000 -0.535889 0.593771 0.266818
  9   3.310129 5.734393 0.000000 0.000000 0.000000 2.146731
 10   1.384163 -0.004728 0.000002 -0.370392 0.123062 -0.093537
 11   5.939814 -0.004730 0.000000 0.000000 0.000000 0.000000
 12   5.939809 -0.003975 0.000000 0.000000 0.000000 0.191977
 13   4.991439 -0.003975 0.000000 0.000000 0.000000 0.000000
 14   4.991436 -0.001575 0.000000 0.000000 0.000000 0.000000
 15   0.000005 0.001564 3.638375 -0.000010 -1.284244 3.140806
 16   8.842831 0.000000 -0.000002 -0.735026 0.219312 -1.010764
 17   9.341934 0.000000 -0.000001 0.000000 0.000000 -1.097689
 18   11.168404 -0.000001 0.000002 -4.082571 0.612982 -0.233120
 19   0.000005 0.001585 -3.638375 -0.000010 1.284244 3.140787
 20   8.842831 0.000000 0.000001 0.706923 -0.710477 -1.894734
 21   9.341937 0.000000 -0.000001 0.000000 0.000000 -1.394523
 22   11.168404 -0.000001 0.000001 1.782160 0.093471 0.740000
 23   1.977383 0.000000 0.000000 0.813815 0.215807 0.138723
 24   3.723980 2.768054 -0.049087 0.000001 -3.141591 -1.570794
 25   12.421014 0.304721 4.492689 -0.091859 -0.075839 1.616818
 26   19.916998 1.704573 4.956909 2.262592 1.451744 0.734330
time 17
  0   -99.920769 -97.291710 4.890379 -0.111512 0.096617 -2.018971
  1   -0.526041 0.000001 9.745319 -1.570795 -1.570451 0.000000
  2   -0.000008 0.000010 5.615750 -2.690805 5.857778 0.528789
  3   15.693467 0.000000 0.000000 0.000000 0.000000 -2.206995
  4   22.146629 -0.000001 0.000000 -0.146355 0.136733 -0.131289
  5   3.310129 5.734393 0.000000 0.000000 0.000000 1.570796
  6   0.000008 -0.000006 -5.615750 -0.244580 2.723294 -0.588756
  7   15.693467 0.000000 0.000000 0.000000 0.000000 -2.329063
  8   22.146629 0.000000 0.000000 -0.535550 0.593310 0.266290
  9   3.310129 5.734393 0.000000 0.000000 0.000000 2.146731
 10   1.384163 -0.004728 0.000002 -0.370392 0.123062 -0.093537
 11   5.939814 -0.004730 0.000000 0.000000 0.000000 0.000000
 12   5.939809 -0.003975 0.000000 0.000000 0.000000 0.191977
 13   4.991439 -0.003975 0.000000 0.000000 0.000000 0.000000
 14   4.991436 -0.001575 0.000000 0.000000 0.000000 0.000000
 15   0.000005 0.001564 3.638375 -0.000010 -1.284244 3.140806
 16   8.842831 0.000000 -0.000002 -0.736032 0.216800 -1.011511
 17   9.341934 0.000000 -0.000001 0.000000 0.000000 -1.098099
 18   11.168404 -0.000001 0.000002 -4.083908 0.614226 -0.231302
 19   0.000005 0.001585 -3.638375 -0.000010 1.284244 3.140787
 20   8.842831 0.000000 0.000001 0.709100 -0.707999 -1.897212
 21   9.341937 0.000000 -0.000001 0.000000 0.000000 -1.394656
 22   11.168404 -0.000001 0.000001 1.782067 0.092586 0.743196
 23   1.977383 0.000000 0.000000 0.813815 0.215807 0.138723
 24   3.723980 2.768054 -0.049087 0.000001 -3.141591 -1.570794
 25   12.421014 0.304721 4.492689 -0.091859 -0.075839 1.616818
 26   19.916998 1.704573 4.956909 2.262592 1.451744 0.734330
time 18
  0   -99.920769 -97.291710 4.909983 -0.111512 0.096617 -2.018971
  1   -0.526041 0.000001 9.745319 -1.570795 -1.570451 0.000000
  2   -0.000008 0.000010 5.615750 -2.691380 5.857011 0.530604
  3   15.693467 0.000000 0.000000 0.000000 0.000000 -2.206070
  4   22.146629 -0.000001 0.000000 -0.146205 0.136609 -0.130375
  5   3.310129 5.734393 0.000000 0.000000 0.000000 1.570796
  6   0.000008 -0.000006 -5.615750 -0.244005 2.723486 -0.589317
  7   15.693467 0.000000 0.000000 0.000000 0.000000 -2.328542
  8   22.146629 0.000000 0.000000 -0.535099 0.592604 0.265409
  9   3.310129 5.734393 0.000000 0.000000 0.000000 2.146731
 10   1.384163 -0.004728 0.000002 -0.370392 0.123062 -0.093537
 11   5.939814 -0.004730 0.000000 0.000000 0.000000 0.000000
 12   5.939809 -0.003975 0.000000 0.000000 0.000000 0.191977
 13   4.991439 -0.003975 0.000000 0.000000 0.000000 0.000000
 14   4.991436 -0.001575 0.000000 0.000000 0.000000 0.000000
 15   0.000005 0.001564 3.638375 -0.000010 -1.284244 3.140806
 16   8.842831 0.000000 -0.000002 -0.736946 0.214753 -1.012182
 17   9.341934 0.000000 -0.000001 0.000000 0.000000 -1.098427
 18   11.168404 -0.000001 0.000002 -4.085054 0.615183 -0.229779
 19   0.000005 0.001585 -3.638375 -0.000010 1.284244 3.140787
 20   8.842831 0.000000 0.000001 0.710955 -0.705962 -1.899309
 21   9.341937 0.000000 -0.000001 0.000000 0.000000 -1.394723
 22   11.168404 -0.000001 0.000001 1.782067 0.091869 0.745828
 23   1.977383 0.000000 0.000000 0.813815 0.215807 0.138723
 24   3.723980 2.768054 -0.049087 0.000001 -3.141591 -1.570794
 25   12.421014 0.304721 4.492689 -0.091859 -0.075839 1.616818
 26   19.916998 1.704573 4.956909 2.262592 1.451744 0.734330
time 19
  0   -99.920769 -97.291710 4.929586 -0.111512 0.096617 -2.018971
  1   -0.526041 0.000001 9.745319 -1.570795 -1.570451 0.000000
  2   -0.000008 0.000010 5.615750 -2.692147 5.855862 0.532994
  3   15.693467 0.000000 0.000000 0.000000 0.000000 -2.204790
  4   22.146629 -0.000001 0.000000 -0.146018 0.136460 -0.129140
  5   3.310129 5.734393 0.000000 0.000000 0.000000 1.570796
  6   0.000008 -0.000006 -5.615750 -0.243238 2.723677 -0.590089
  7   15.693467 0.000000 0.000000 0.000000 0.000000 -2.327798
  8   22.146629 0.000000 0.000000 -0.534479 0.591622 0.264264
  9   3.310129 5.734393 0.000000 0.000000 0.000000 2.146731
 10   1.384163 -0.004728 0.000002 -0.370392 0.123062 -0.093537
 11   5.939814 -0.004730 0.000000 0.000000 0.000000 0.000000
 12   5.939809 -0.003975 0.000000 0.000000 0.000000 0.191977
 13   4.991439 -0.003975 0.000000 0.000000 0.000000 0.000000
 14   4.991436 -0.001575 0.000000 0.000000 0.000000 0.000000
 15   0.000005 0.001564 3.638375 -0.000010 -1.284244 3.140806
 16   8.842831 0.000000 -0.000002 -0.737678 0.213079 -1.012705
 17   9.341934 0.000000 -0.000001 0.000000 0.000000 -1.098673
 18   11.168404 -0.000001 0.000002 -4.085914 0.616044 -0.228550
 19   0.000005 0.001585 -3.638375 -0.000010 1.284244 3.140787
 20   8.842831 0.000000 0.000001 0.712487 -0.704280 -1.900929
 21   9.341937 0.000000 -0.000001 0.000000 0.000000 -1.394790
 22   11.168404 -0.000001 0.000001 1.781974 0.091237 0.747990
 23   1.977383 0.000000 0.000000 0.813815 0.215807 0.138723
 24   3.723980 2.768054 -0.049087 0.000001 -3.141591 -1.570794
 25   12.421014 0.304721 4.492689 -0.091859 -0.075839 1.616818
 26   19.916998 1.704573 4.956909 2.262592 1.451744 0.734330
time 20
  0   -99.920769 -97.291710 4.968793 -0.111512 0.096617 -2.018971
  1   -0.526041 0.000001 9.745319 -1.570795 -1.570451 0.000000
  2   -0.000008 0.000010 5.615750 -2.693106 5.854520 0.535861
  3   15.693467 0.000000 0.000000 0.000000 0.000000 -2.203296
  4   22.146629 -0.000001 0.000000 -0.145756 0.136287 -0.127630
  5   3.310129 5.734393 0.000000 0.000000 0.000000 1.570796
  6   0.000008 -0.000006 -5.615750 -0.242279 2.723869 -0.591070
  7   15.693467 0.000000 0.000000 0.000000 0.000000 -2.326905
  8   22.146629 0.000000 0.000000 -0.533689 0.590486 0.262943
  9   3.310129 5.734393 0.000000 0.000000 0.000000 2.146731
 10   1.384163 -0.004728 0.000002 -0.370392 0.123062 -0.093537
 11   5.939814 -0.004730 0.000000 0.000000 0.000000 0.000000
 12   5.939809 -0.003975 0.000000 0.000000 0.000000 0.191977
 13   4.991439 -0.003975 0.000000 0.000000 0.000000 0.000000
 14   4.991436 -0.001575 0.000000 0.000000 0.000000 0.000000
 15   0.000005 0.001564 3.638375 -0.000010 -1.284244 3.140806
 16   8.842831 0.000000 -0.000002 -0.738227 0.211684 -1.013078
 17   9.341934 0.000000 -0.000001 0.000000 0.000000 -1.098837
 18   11.168404 -0.000001 0.000002 -4.086678 0.616619 -0.227518
 19   0.000005 0.001585 -3.638375 -0.000010 1.284244 3.140787
 20   8.842831 0.000000 0.000001 0.713696 -0.702864 -1.902359
 21   9.341937 0.000000 -0.000001 0.000000 0.000000 -1.394856
 22   11.168404 -0.000001 0.000001 1.781880 0.090773 0.749682
 23   1.977383 0.000000 0.000000 0.813815 0.215807 0.138723
 24   3.723980 2.768054 -0.049087 0.000001 -3.141591 -1.570794
 25   12.421014 0.304721 4.492689 -0.091859 -0.075839 1.616818
 26   19.916998 1.704573 4.956909 2.262592 1.451744 0.734330
time 21
  0   -99.920769 -97.291710 5.027604 -0.111512 0.096617 -2.018971
  1   -0.526041 0.000001 9.745319 -1.570795 -1.570451 0.000000
  2   -0.000008 0.000010 5.615750 -2.694160 5.852987 0.539206
  3   15.693467 0.000000 0.000000 0.000000 0.000000 -2.201588
  4   22.146629 -0.000001 0.000000 -0.145495 0.136089 -0.125938
  5   3.310129 5.734393 0.000000 0.000000 0.000000 1.570796
  6   0.000008 -0.000006 -5.615750 -0.241225 2.724157 -0.592122
  7   15.693467 0.000000 0.000000 0.000000 0.000000 -2.325863
  8   22.146629 0.000000 0.000000 -0.532843 0.589166 0.261358
  9   3.310129 5.734393 0.000000 0.000000 0.000000 2.146731
 10   1.384163 -0.004728 0.000002 -0.370392 0.123062 -0.093537
 11   5.939814 -0.004730 0.000000 0.000000 0.000000 0.000000
 12   5.939809 -0.003975 0.000000 0.000000 0.000000 0.191977
 13   4.991439 -0.003975 0.000000 0.000000 0.000000 0.000000
 14   4.991436 -0.001575 0.000000 0.000000 0.000000 0.000000
 15   0.000005 0.001564 3.638375 -0.000010 -1.284244 3.140806
 16   8.842831 0.000000 -0.000002 -0.738684 0.210567 -1.013451
 17   9.341934 0.000000 -0.000001 0.000000 0.000000 -1.099001
 18   11.168404 -0.000001 0.000002 -4.087251 0.617193 -0.226732
 19   0.000005 0.001585 -3.638375 -0.000010 1.284244 3.140787
 20   8.842831 0.000000 0.000001 0.714663 -0.701802 -1.903407
 21   9.341937 0.000000 -0.000001 0.000000 0.000000 -1.394856
 22   11.168404 -0.000001 0.000001 1.781880 0.090351 0.751093
 23   1.977383 0.000000 0.000000 0.813815 0.215807 0.138723
 24   3.723980 2.768054 -0.049087 0.000001 -3.141591 -1.570794
 25   12.421014 0.304721 4.492689 -0.091859 -0.075839 1.616818
 26   19.916998 1.704573 4.956909 2.262592 1.451744 0.734330
time 22
  0   -99.920769 -97.291710 5.066810 -0.111512 0.096617 -2.018971
  1   -0.526041 0.000001 9.745319 -1.570795 -1.570451 0.000000
  2   -0.000008 0.000010 5.615750 -2.695311 5.851357 0.542934
  3   15.693467 0.000000 0.000000 0.000000 0.000000 -2.199668
  4   22.146629 -0.000001 0.000000 -0.145233 0.135890 -0.124063
  5   3.310129 5.734393 0.000000 0.000000 0.000000 1.570796
  6   0.000008 -0.000006 -5.615750 -0.239978 2.724444 -0.593315
  7   15.693467 0.000000 0.000000 0.000000 0.000000 -2.324672
  8   22.146629 0.000000 0.000000 -0.531884 0.587723 0.259684
  9   3.310129 5.734393 0.000000 0.000000 0.000000 2.146731
 10   1.384163 -0.004728 0.000002 -0.370392 0.123062 -0.093537
 11   5.939814 -0.004730 0.000000 0.000000 0.000000 0.000000
 12   5.939809 -0.003975 0.000000 0.000000 0.000000 0.191977
 13   4.991439 -0.003975 0.000000 0.000000 0.000000 0.000000
 14   4.991436 -0.001575 0.000000 0.000000 0.000000 0.000000
 15   0.000005 0.001564 3.638375 -0.000010 -1.284244 3.140806
 16   8.842831 0.000000 -0.000002 -0.739141 0.209730 -1.013750
 17   9.341934 0.000000 -0.000001 0.000000 0.000000 -1.099083
 18   11.168404 -0.000001 0.000002 -4.087729 0.617576 -0.226093
 19   0.000005 0.001585 -3.638375 -0.000010 1.284244 3.140787
 20   8.842831 0.000000 0.000001 0.715470 -0.700828 -1.904360
 21   9.341937 0.000000 -0.000001 0.000000 0.000000 -1.394923
 22   11.168404 -0.000001 0.000001 1.781787 0.090056 0.752221
 23   1.977383 0.000000 0.000000 0.813815 0.215807 0.138723
 24   3.723980 2.768054 -0.049087 0.000001 -3.141591 -1.570794
 25   12.421014 0.304721 4.492689 -0.091859 -0.075839 1.616818
 26   19.916998 1.704573 4.956909 2.262592 1.451744 0.734330
time 23
  0   -99.920769 -97.291710 5.125620 -0.111512 0.096617 -2.018971
  1   -0.526041 0.000001 9.745319 -1.570795 -1.570451 0.000000
  2   -0.000008 0.000010 5.615750 -2.696653 5.849633 0.546852
  3   15.693467 0.000000 0.000000 0.000000 0.000000 -2.197605
  4   22.146629 -0.000001 0.000000 -0.144896 0.135643 -0.122096
  5   3.310129 5.734393 0.000000 0.000000 0.000000 1.570796
  6   0.000008 -0.000006 -5.615750 -0.238732 2.724732 -0.594507
  7   15.693467 0.000000 0.000000 0.000000 0.000000 -2.323481
  8   22.146629 0.000000 0.000000 -0.530812 0.586188 0.257835
  9   3.310129 5.734393 0.000000 0.000000 0.000000 2.146731
 10   1.384163 -0.004728 0.000002 -0.370392 0.123062 -0.093537
 11   5.939814 -0.004730 0.000000 0.000000 0.000000 0.000000
 12   5.939809 -0.003975 0.000000 0.000000 0.000000 0.191977
 13   4.991439 -0.003975 0.000000 0.000000 0.000000 0.000000
 14   4.991436 -0.001575 0.000000 0.000000 0.000000 0.000000
 15   0.000005 0.001564 3.638375 -0.000010 -1.284244 3.140806
 16   8.842831 0.000000 -0.000002 -0.739415 0.208986 -1.013974
 17   9.341934 0.000000 -0.000001 0.000000 0.000000 -1.099165
 18   11.168404 -0.000001 0.000002 -4.088110 0.617958 -0.225553
 19   0.000005 0.001585 -3.638375 -0.000010 1.284244 3.140787
 20   8.842831 0.000000 0.000001 0.716115 -0.700120 -1.905028
 21   9.341937 0.000000 -0.000001 0.000000 0.000000 -1.394923
 22   11.168404 -0.000001 0.000001 1.781787 0.089803 0.753067
 23   1.977383 0.000000 0.000000 0.813815 0.215807 0.138723
 24   3.723980 2.768054 -0.049087 0.000001 -3.141591 -1.570794
 25   12.421014 0.304721 4.492689 -0.091859 -0.075839 1.616818
 26   19.916998 1.704573 4.956909 2.262592 1.451744 0.734330
time 24
  0   -99.920769 -97.291710 5.164827 -0.111512 0.096617 -2.018971
  1   -0.526041 0.000001 9.745319 -1.570795 -1.570451 0.000000
  2   -0.000008 0.000010 5.615750 -2.697899 5.847716 0.550866
  3   15.693467 0.000000 0.000000 0.000000 0.000000 -2.195471
  4   22.146629 -0.000001 0.000000 -0.144597 0.135395 -0.120038
  5   3.310129 5.734393 0.000000 0.000000 0.000000 1.570796
  6   0.000008 -0.000006 -5.615750 -0.237390 2.725020 -0.595769
  7   15.693467 0.000000 0.000000 0.000000 0.000000 -2.322141
  8   22.146629 0.000000 0.000000 -0.529740 0.584591 0.255897
  9   3.310129 5.734393 0.000000 0.000000 0.000000 2.146731
 10   1.384163 -0.004728 0.000002 -0.370392 0.123062 -0.093537
 11   5.939814 -0.004730 0.000000 0.000000 0.000000 0.000000
 12   5.939809 -0.003975 0.000000 0.000000 0.000000 0.191977
 13   4.991439 -0.003975 0.000000 0.000000 0.000000 0.000000
 14   4.991436 -0.001575 0.000000 0.000000 0.000000 0.000000
 15   0.000005 0.001564 3.638375 -0.000010 -1.284244 3.140806
 16   8.842831 0.000000 -0.000002 -0.739690 0.208335 -1.014198
 17   9.341934 0.000000 -0.000001 0.000000 0.000000 -1.099247
 18   11.168404 -0.000001 0.000002 -4.088397 0.618246 -0.225111
 19   0.000005 0.001585 -3.638375 -0.000010 1.284244 3.140787
 20   8.842831 0.000000 0.000001 0.716679 -0.699500 -1.905695
 21   9.341937 0.000000 -0.000001 0.000000 0.000000 -1.394923
 22   11.168404 -0.000001 0.000001 1.781787 0.089550 0.753913
 23   1.977383 0.000000 0.000000 0.813815 0.215807 0.138723
 24   3.723980 2.768054 -0.049087 0.000001 -3.141591 -1.570794
 25   12.421014 0.304721 4.492689 -0.091859 -0.075839 1.616818
 26   19.916998 1.704573 4.956909 2.262592 1.451744 0.734330
time 25
  0   -99.920769 -97.291710 5.223638 -0.111512 0.096617 -2.018971
  1   -0.526041 0.000001 9.745319 -1.570795 -1.570451 0.000000
  2   -0.000008 0.000010 5.615750 -2.699337 5.845895 0.555072
  3   15.693467 0.000000 0.000000 0.000000 0.000000 -2.193336
  4   22.146629 -0.000001 0.000000 -0.144261 0.135147 -0.117980
  5   3.310129 5.734393 0.000000 0.000000 0.000000 1.570796
  6   0.000008 -0.000006 -5.615750 -0.236047 2.725307 -0.597032
  7   15.693467 0.000000 0.000000 0.000000 0.000000 -2.320801
  8   22.146629 0.000000 0.000000 -0.528612 0.582964 0.254047
  9   3.310129 5.734393 0.000000 0.000000 0.000000 2.146731
 10   1.384163 -0.004728 0.000002 -0.370392 0.123062 -0.093537
 11   5.939814 -0.004730 0.000000 0.000000 0.000000 0.000000
 12   5.939809 -0.003975 0.000000 0.000000 0.000000 0.191977
 13   4.991439 -0.003975 0.000000 0.000000 0.000000 0.000000
 14   4.991436 -0.001575 0.000000 0.000000 0.000000 0.000000
 15   0.000005 0.001564 3.638375 -0.000010 -1.284244 3.140806
 16   8.842831 0.000000 -0.000002 -0.739964 0.207777 -1.014347
 17   9.341934 0.000000 -0.000001 0.000000 0.000000 -1.099329
 18   11.168404 -0.000001 0.000002 -4.088684 0.618533 -0.224717
 19   0.000005 0.001585 -3.638375 -0.000010 1.284244 3.140787
 20   8.842831 0.000000 0.000001 0.717243 -0.698880 -1.906267
 21   9.341937 0.000000 -0.000001 0.000000 0.000000 -1.394923
 22   11.168404 -0.000001 0.000001 1.781694 0.089382 0.754571
 23   1.977383 0.000000 0.000000 0.813815 0.215807 0.138723
 24   3.723980 2.768054 -0.049087 0.000001 -3.141591 -1.570794
 25   12.421014 0.304721 4.492689 -0.091859 -0.075839 1.616818
 26   19.916998 1.704573 4.956909 2.262592 1.451744 0.734330
time 26
  0   -99.920769 -97.291710 5.282447 -0.111512 0.096617 -2.018971
  1   -0.526041 0.000001 9.745319 -1.570795 -1.570451 0.000000
  2   -0.000008 0.000010 5.615750 -2.700680 5.843978 0.559277
  3   15.693467 0.000000 0.000000 0.000000 0.000000 -2.191131
  4   22.146629 -0.000001 0.000000 -0.143961 0.134900 -0.115922
  5   3.310129 5.734393 0.000000 0.000000 0.000000 1.570796
  6   0.000008 -0.000006 -5.615750 -0.234705 2.725691 -0.598294
  7   15.693467 0.000000 0.000000 0.000000 0.000000 -2.319462
  8   22.146629 0.000000 0.000000 -0.527540 0.581337 0.252110
  9   3.310129 5.734393 0.000000 0.000000 0.000000 2.146731
 10   1.384163 -0.004728 0.000002 -0.370392 0.123062 -0.093537
 11   5.939814 -0.004730 0.000000 0.000000 0.000000 0.000000
 12   5.939809 -0.003975 0.000000 0.000000 0.000000 0.191977
 13   4.991439 -0.003975 0.000000 0.000000 0.000000 0.000000
 14   4.991436 -0.001575 0.000000 0.000000 0.000000 0.000000
 15   0.000005 0.001564 3.638375 -0.000010 -1.284244 3.140806
 16   8.842831 0.000000 -0.000002 -0.740147 0.207125 -1.014571
 17   9.341934 0.000000 -0.000001 0.000000 0.000000 -1.099329
 18   11.168404 -0.000001 0.000002 -4.089066 0.618820 -0.224275
 19   0.000005 0.001585 -3.638375 -0.000010 1.284244 3.140787
 20   8.842831 0.000000 0.000001 0.717727 -0.698349 -1.906839
 21   9.341937 0.000000 -0.000001 0.000000 0.000000 -1.394923
 22   11.168404 -0.000001 0.000001 1.781694 0.089171 0.755323
 23   1.977383 0.000000 0.000000 0.813815 0.215807 0.138723
 24   3.723980 2.768054 -0.049087 0.000001 -3.141591 -1.570794
 25   12.421014 0.304721 4.492689 -0.091859 -0.075839 1.616818
 26   19.916998 1.704573 4.956909 2.262592 1.451744 0.734330
time 27
  0   -99.920769 -97.291710 5.341258 -0.111512 0.096617 -2.018971
  1   -0.526041 0.000001 9.745319 -1.570795 -1.570451 0.000000
  2   -0.000008 0.000010 5.615750 -2.702022 5.842254 0.563387
  3   15.693467 0.000000 0.000000 0.000000 0.000000 -2.188997
  4   22.146629 -0.000001 0.000000 -0.143625 0.134652 -0.113910
  5   3.310129 5.734393 0.000000 0.000000 0.000000 1.570796
  6   0.000008 -0.000006 -5.615750 -0.233363 2.725978 -0.599486
  7   15.693467 0.000000 0.000000 0.000000 0.000000 -2.318196
  8   22.146629 0.000000 0.000000 -0.526412 0.579771 0.250172
  9   3.310129 5.734393 0.000000 0.000000 0.000000 2.146731
 10   1.384163 -0.004728 0.000002 -0.370392 0.123062 -0.093537
 11   5.939814 -0.004730 0.000000 0.000000 0.000000 0.000000
 12   5.939809 -0.003975 0.000000 0.000000 0.000000 0.191977
 13   4.991439 -0.003975 0.000000 0.000000 0.000000 0.000000
 14   4.991436 -0.001575 0.000000 0.000000 0.000000 0.000000
 15   0.000005 0.001564 3.638375 -0.000010 -1.284244 3.140806
 16   8.842831 0.000000 -0.000002 -0.740421 0.206567 -1.014721
 17   9.341934 0.000000 -0.000001 0.000000 0.000000 -1.099411
 18   11.168404 -0.000001 0.000002 -4.089352 0.619107 -0.223833
 19   0.000005 0.001585 -3.638375 -0.000010 1.284244 3.140787
 20   8.842831 0.000000 0.000001 0.718292 -0.697729 -1.907506
 21   9.341937 0.000000 -0.000001 0.000000 0.000000 -1.394923
 22   11.168404 -0.000001 0.000001 1.781694 0.088918 0.756075
 23   1.977383 0.000000 0.000000 0.813815 0.215807 0.138723
 24   3.723980 2.768054 -0.049087 0.000001 -3.141591 -1.570794
 25   12.421014 0.304721 4.492689 -0.091859 -0.075839 1.616818
 26   19.916998 1.704573 4.956909 2.262592 1.451744 0.734330
time 28
  0   -99.920769 -97.291710 5.380465 -0.111512 0.096617 -2.018971
  1   -0.526041 0.000001 9.745319 -1.570795 -1.570451 0.000000
  2   -0.000008 0.000010 5.615750 -2.703364 5.840433 0.567305
  3   15.693467 0.000000 0.000000 0.000000 0.000000 -2.186934
  4   22.146629 -0.000001 0.000000 -0.143363 0.134429 -0.111989
  5   3.310129 5.734393 0.000000 0.000000 0.000000 1.570796
  6   0.000008 -0.000006 -5.615750 -0.232116 2.726266 -0.600679
  7   15.693467 0.000000 0.000000 0.000000 0.000000 -2.316857
  8   22.146629 0.000000 0.000000 -0.525397 0.578267 0.248410
  9   3.310129 5.734393 0.000000 0.000000 0.000000 2.146731
 10   1.384163 -0.004728 0.000002 -0.370392 0.123062 -0.093537
 11   5.939814 -0.004730 0.000000 0.000000 0.000000 0.000000
 12   5.939809 -0.003975 0.000000 0.000000 0.000000 0.191977
 13   4.991439 -0.003975 0.000000 0.000000 0.000000 0.000000
 14   4.991436 -0.001575 0.000000 0.000000 0.000000 0.000000
 15   0.000005 0.001564 3.638375 -0.000010 -1.284244 3.140806
 16   8.842831 0.000000 -0.000002 -0.740787 0.205823 -1.015019
 17   9.341934 0.000000 -0.000001 0.000000 0.000000 -1.099493
 18   11.168404 -0.000001 0.000002 -4.089734 0.619490 -0.223292
 19   0.000005 0.001585 -3.638375 -0.000010 1.284244 3.140787
 20   8.842831 0.000000 0.000001 0.718937 -0.696933 -1.908173
 21   9.341937 0.000000 -0.000001 0.000000 0.000000 -1.394989
 22   11.168404 -0.000001 0.000001 1.781601 0.088665 0.757015
 23   1.977383 0.000000 0.000000 0.813815 0.215807 0.138723
 24   3.723980 2.768054 -0.049087 0.000001 -3.141591 -1.570794
 25   12.421014 0.304721 4.492689 -0.091859 -0.075839 1.616818
 26   19.916998 1.704573 4.956909 2.262592 1.451744 0.734330
time 29
  0   -99.920769 -97.291710 5.439275 -0.111512 0.096617 -2.018971
  1   -0.526041 0.000001 9.745319 -1.570795 -1.570451 0.000000
  2   -0.000008 0.000010 5.615750 -2.704610 5.838900 0.570937
  3   15.693467 0.000000 0.000000 0.000000 0.000000 -2.184942
  4   22.146629 -0.000001 0.000000 -0.143064 0.134206 -0.110205
  5   3.310129 5.734393 0.000000 0.000000 0.000000 1.570796
  6   0.000008 -0.000006 -5.615750 -0.230966 2.726554 -0.601731
  7   15.693467 0.000000 0.000000 0.000000 0.000000 -2.315666
  8   22.146629 0.000000 0.000000 -0.524381 0.576886 0.246737
  9   3.310129 5.734393 0.000000 0.000000 0.000000 2.146731
 10   1.384163 -0.004728 0.000002 -0.370392 0.123062 -0.093537
 11   5.939814 -0.004730 0.000000 0.000000 0.000000 0.000000
 12   5.939809 -0.003975 0.000000 0.000000 0.000000 0.191977
 13   4.991439 -0.003975 0.000000 0.000000 0.000000 0.000000
 14   4.991436 -0.001575 0.000000 0.000000 0.000000 0.000000
 15   0.000005 0.001564 3.638375 -0.000010 -1.284244 3.140806
 16   8.842831 0.000000 -0.000002 -0.741153 0.204893 -1.015318
 17   9.341934 0.000000 -0.000001 0.000000 0.000000 -1.099575
 18   11.168404 -0.000001 0.000002 -4.090211 0.619968 -0.222654
 19   0.000005 0.001585 -3.638375 -0.000010 1.284244 3.140787
 20   8.842831 0.000000 0.000001 0.719743 -0.696047 -1.909126
 21   9.341937 0.000000 -0.000001 0.000000 0.000000 -1.394989
 22   11.168404 -0.000001 0.000001 1.781601 0.088370 0.758143
 23   1.977383 0.000000 0.000000 0.813815 0.215807 0.138723
 24   3.723980 2.768054 -0.049087 0.000001 -3.141591 -1.570794
 25   12.421014 0.304721 4.492689 -0.091859 -0.075839 1.616818
 26   19.916998 1.704573 4.956909 2.262592 1.451744 0.734330
time 30
  0   -99.920769 -97.291710 5.478481 -0.111512 0.096617 -2.018971
  1   -0.526041 0.000001 9.745319 -1.570795 -1.570451 0.000000
  2   -0.000008 0.000010 5.615750 -2.705665 5.836792 0.573996
  3   15.693467 0.000000 0.000000 0.000000 0.000000 -2.183164
  4   22.146629 -0.000001 0.000000 -0.142391 0.134528 -0.108513
  5   3.310129 5.734393 0.000000 0.000000 0.000000 1.570796
  6   0.000008 -0.000006 -5.615750 -0.229815 2.726841 -0.602642
  7   15.693467 0.000000 0.000000 0.000000 0.000000 -2.314549
  8   22.146629 0.000000 0.000000 -0.523479 0.575627 0.245240
  9   3.310129 5.734393 0.000000 0.000000 0.000000 2.146731
 10   1.384163 -0.004728 0.000002 -0.370392 0.123062 -0.093537
 11   5.939814 -0.004730 0.000000 0.000000 0.000000 0.000000
 12   5.939809 -0.003975 0.000000 0.000000 0.000000 0.191977
 13   4.991439 -0.003975 0.000000 0.000000 0.000000 0.000000
 14   4.991436 -0.001575 0.000000 0.000000 0.000000 0.000000
 15   0.000005 0.001564 3.638375 -0.000010 -1.284244 3.140806
 16   8.842831 0.000000 -0.000002 -0.741610 0.203776 -1.015616
 17   9.341934 0.000000 -0.000001 0.000000 0.000000 -1.099657
 18   11.168404 -0.000001 0.000002 -4.090785 0.620447 -0.221867
 19   0.000005 0.001585 -3.638375 -0.000010 1.284244 3.140787
 20   8.842831 0.000000 0.000001 0.720710 -0.694897 -1.910174
 21   9.341937 0.000000 -0.000001 0.000000 0.000000 -1.394989
 22   11.168404 -0.000001 0.000001 1.781507 0.087948 0.759553
 23   1.977383 0.000000 0.000000 0.813815 0.215807 0.138723
 24   3.723980 2.768054 -0.049087 0.000001 -3.141591 -1.570794
 25   12.421014 0.304721 4.492689 -0.091859 -0.075839 1.616818
 26   19.916998 1.704573 4.956909 2.262592 1.451744 0.734330
end
