version 1
nodes
  0 "Bip01" -1
  1 "Bip01 Pelvis" 0
  2 "Bip01 L Thigh" 1
  3 "Bip01 L Calf" 2
  4 "Bip01 L Foot" 3
  5 "Bip01 L Toe0" 4
  6 "Bip01 R Thigh" 1
  7 "Bip01 R Calf" 6
  8 "Bip01 R Foot" 7
  9 "Bip01 R Toe0" 8
 10 "Bip01 Spine" 1
 11 "Bip01 Spine1" 10
 12 "Bip01 Spine2" 11
 13 "Bip01 Spine3" 12
 14 "Bip01 Neck" 13
 15 "Bip01 L Clavicle" 14
 16 "Bip01 L UpperArm" 15
 17 "Bip01 L Forearm" 16
 18 "Bip01 L Hand" 17
 19 "Bip01 R Clavicle" 14
 20 "Bip01 R UpperArm" 19
 21 "Bip01 R Forearm" 20
 22 "Bip01 R Hand" 21
 23 "Bip01 Head" 14
 24 "Bone05" 23
 25 "m4" 22
 26 "SHOTGUN" 22
end
skeleton
time 0
  0   -0.061767 11.164989 26.101252 0.037015 0.364584 -1.492417
  1   -3.436286 -0.285164 9.745319 -0.000032 -1.611578 -1.570770
  2   -0.000008 0.000010 5.615750 0.006137 3.156924 -0.823886
  3   15.693467 0.000000 0.000000 0.000000 0.000000 -1.398307
  4   22.146629 -0.000001 0.000000 -0.027596 0.055030 0.654006
  5   3.310129 5.734393 0.000000 0.000000 0.000000 1.570796
  6   0.000008 -0.000006 -5.615750 0.049569 3.199595 -1.127236
  7   15.693467 0.000000 0.000000 0.000000 0.000000 -0.926758
  8   22.146629 0.000000 0.000000 0.080158 -0.076934 0.215381
  9   3.310129 5.734393 0.000000 0.000000 0.000000 1.570796
 10   1.384163 -0.004728 -0.054687 0.006156 0.011216 0.152351
 11   5.939814 -0.004730 0.000000 0.000000 -0.017450 0.162194
 12   5.939809 -0.003975 0.000000 0.000013 0.029099 0.162194
 13   4.991439 -0.003975 0.000000 0.000000 0.017450 0.162185
 14   4.991436 -0.001575 0.000000 0.000000 0.000000 0.000000
 15   0.000005 0.001564 3.638375 -0.000010 -1.283555 3.140806
 16   8.842831 0.000000 -0.000002 -0.870820 0.773085 -1.139834
 17   9.341934 0.000000 -0.000001 0.000000 0.000000 -0.310622
 18   11.168404 -0.000001 0.000002 -1.568718 -0.135132 -0.000011
 19   0.000005 0.001585 -3.638375 -0.578987 1.231477 2.588367
 20   8.842831 0.000000 0.000001 0.319518 -0.011380 -1.742042
 21   9.341937 0.000000 -0.000001 0.000000 0.000000 -0.609033
 22   11.168404 -0.000001 0.000001 1.568687 -0.016356 -0.000040
 23   1.977383 0.000000 0.000000 0.053655 -0.034894 0.023011
 24   3.723980 2.768054 -0.049087 0.000001 -3.141591 -1.570794
 25   12.421014 0.304721 4.492689 -0.091859 -0.075839 1.616818
 26   19.916998 1.704573 4.956909 2.262592 1.451744 0.734330
time 1
  0   0.375319 4.667360 25.552357 0.044194 0.364489 -1.497306
  1   -3.655043 -0.414074 9.745319 -0.000032 -1.621032 -1.570770
  2   -0.000008 0.000010 5.615750 0.007862 3.158745 -0.913440
  3   15.693467 0.000000 0.000000 0.000000 0.000000 -1.435511
  4   22.146629 -0.000001 0.000000 -0.028867 0.061271 0.625055
  5   3.310129 5.734393 0.000000 0.000000 0.000000 1.570796
  6   0.000008 -0.000006 -5.615750 0.060212 3.208415 -1.011868
  7   15.693467 0.000000 0.000000 0.000000 0.000000 -1.060438
  8   22.146629 0.000000 0.000000 0.065378 -0.085899 0.443942
  9   3.310129 5.734393 0.000000 0.000000 0.000000 1.570796
 10   1.384163 -0.004728 -0.066406 0.021572 0.013041 0.164592
 11   5.939814 -0.004730 0.000000 0.013266 -0.023010 0.175025
 12   5.939809 -0.003975 0.000000 0.013028 0.031519 0.175761
 13   4.991439 -0.003975 0.000000 0.013078 0.017881 0.175573
 14   4.991436 -0.001575 0.000000 0.000000 0.000000 0.000000
 15   0.000005 0.001564 3.638375 -0.000010 -1.283555 3.140806
 16   8.842831 0.000000 -0.000002 -0.864328 0.731503 -1.192985
 17   9.341934 0.000000 -0.000001 0.000000 0.000000 -0.291926
 18   11.168404 -0.000001 0.000002 -1.568718 -0.134750 -0.000011
 19   0.000005 0.001585 -3.638375 -0.500084 1.246083 2.662956
 20   8.842831 0.000000 0.000001 0.249294 0.081839 -1.788936
 21   9.341937 0.000000 -0.000001 0.000000 0.000000 -0.646006
 22   11.168404 -0.000001 0.000001 1.568687 -0.026306 -0.000040
 23   1.977383 0.000000 0.000000 0.012105 -0.015426 -0.050702
 24   3.723980 2.768054 -0.049087 0.000001 -3.141591 -1.570794
 25   12.421014 0.304721 4.492689 -0.091859 -0.075839 1.616818
 26   19.916998 1.704573 4.956909 2.262592 1.451744 0.734330
time 2
  0   0.827476 -0.618698 26.434509 0.047644 0.364871 -1.513893
  1   -3.940208 -0.535172 9.745319 -0.000032 -1.620790 -1.570770
  2   -0.000008 0.000010 5.615750 0.001535 3.154624 -1.028703
  3   15.693467 0.000000 0.000000 0.000000 0.000000 -1.432097
  4   22.146629 -0.000001 0.000000 -0.029578 0.068181 0.533582
  5   3.310129 5.734393 0.000000 0.000000 0.000000 1.570796
  6   0.000008 -0.000006 -5.615750 0.050240 3.209278 -0.760371
  7   15.693467 0.000000 0.000000 0.000000 0.000000 -0.905842
  8   22.146629 0.000000 0.000000 0.037343 -0.079667 0.512818
  9   3.310129 5.734393 0.000000 0.000000 0.000000 1.570796
 10   1.384163 -0.004728 -0.066406 0.040084 0.007888 0.181140
 11   5.939814 -0.004730 0.000000 0.031024 -0.027409 0.192006
 12   5.939809 -0.003975 0.000000 0.031082 0.029446 0.193776
 13   4.991439 -0.003975 0.000000 0.031051 0.015232 0.193334
 14   4.991436 -0.001575 0.000000 0.000000 0.000000 0.000000
 15   0.000005 0.001564 3.638375 -0.000010 -1.283555 3.140806
 16   8.842831 0.000000 -0.000002 -0.857012 0.666758 -1.274205
 17   9.341934 0.000000 -0.000001 0.000000 0.000000 -0.269949
 18   11.168404 -0.000001 0.000002 -1.568718 -0.134654 -0.000011
 19   0.000005 0.001585 -3.638375 -0.336620 1.267478 2.818462
 20   8.842831 0.000000 0.000001 0.231879 0.160628 -1.798849
 21   9.341937 0.000000 -0.000001 0.000000 0.000000 -0.666991
 22   11.168404 -0.000001 0.000001 1.568687 -0.029088 -0.000040
 23   1.977383 0.000000 0.000000 -0.051964 0.004826 -0.160002
 24   3.723980 2.768054 -0.049087 0.000001 -3.141591 -1.570794
 25   12.421014 0.304721 4.492689 -0.091859 -0.075839 1.616818
 26   19.916998 1.704573 4.956909 2.262592 1.451744 0.734330
time 3
  0   1.174130 -5.686392 27.728334 0.046805 0.365444 -1.535657
  1   -3.397222 -0.585954 9.745319 -0.000032 -1.610829 -1.570770
  2   -0.000008 0.000010 5.615750 -0.006901 3.149545 -1.133453
  3   15.693467 0.000000 0.000000 0.000000 0.000000 -1.384079
  4   22.146629 -0.000001 0.000000 -0.029091 0.069889 0.462187
  5   3.310129 5.734393 0.000000 0.000000 0.000000 1.570796
  6   0.000008 -0.000006 -5.615750 0.036626 3.198540 -0.596962
  7   15.693467 0.000000 0.000000 0.000000 0.000000 -0.896613
  8   22.146629 0.000000 0.000000 0.024538 -0.066496 0.454247
  9   3.310129 5.734393 0.000000 0.000000 0.000000 1.570796
 10   1.384163 -0.004728 -0.054687 0.053312 -0.002362 0.149437
 11   5.939814 -0.004730 0.000000 0.047238 -0.028559 0.160435
 12   5.939809 -0.003975 0.000000 0.047262 0.027193 0.163043
 13   4.991439 -0.003975 0.000000 0.047244 0.013243 0.162387
 14   4.991436 -0.001575 0.000000 0.000000 0.000000 0.000000
 15   0.000005 0.001564 3.638375 -0.000010 -1.283555 3.140806
 16   8.842831 0.000000 -0.000002 -0.768952 0.774573 -1.247032
 17   9.341934 0.000000 -0.000001 0.000000 0.000000 -0.248464
 18   11.168404 -0.000001 0.000002 -1.568718 -0.134750 -0.000011
 19   0.000005 0.001585 -3.638375 -0.106333 1.282032 3.038874
 20   8.842831 0.000000 0.000001 0.311536 0.034300 -1.728889
 21   9.341937 0.000000 -0.000001 0.000000 0.000000 -0.677450
 22   11.168404 -0.000001 0.000001 1.568687 -0.027107 -0.000040
 23   1.977383 0.000000 0.000000 -0.116244 0.028359 -0.074808
 24   3.723980 2.768054 -0.049087 0.000001 -3.141591 -1.570794
 25   12.421014 0.304721 4.492689 -0.091859 -0.075839 1.616818
 26   19.916998 1.704573 4.956909 2.262592 1.451744 0.734330
time 4
  0   1.279633 -11.521885 28.375246 0.040931 0.366018 -1.556175
  1   -2.940177 -0.554703 9.745319 -0.000032 -1.598184 -1.570770
  2   -0.000008 0.000010 5.615750 0.003260 3.150887 -1.217464
  3   15.693467 0.000000 0.000000 0.000000 0.000000 -1.234051
  4   22.146629 -0.000001 0.000000 -0.029017 0.055847 0.465572
  5   3.310129 5.734393 0.000000 0.000000 0.000000 1.570796
  6   0.000008 -0.000006 -5.615750 0.024641 3.186076 -0.428432
  7   15.693467 0.000000 0.000000 0.000000 0.000000 -0.871454
  8   22.146629 0.000000 0.000000 0.015456 -0.057992 0.346440
  9   3.310129 5.734393 0.000000 0.000000 0.000000 1.570796
 10   1.384163 -0.004728 -0.035155 0.055298 -0.012667 0.123821
 11   5.939814 -0.004730 0.000000 0.051838 -0.027109 0.134697
 12   5.939809 -0.003975 0.000000 0.051881 0.026162 0.137458
 13   4.991439 -0.003975 0.000000 0.051852 0.012847 0.136772
 14   4.991436 -0.001575 0.000000 0.000000 0.000000 0.000000
 15   0.000005 0.001564 3.638375 -0.000010 -1.283555 3.140806
 16   8.842831 0.000000 -0.000002 -0.707502 0.861365 -1.197688
 17   9.341934 0.000000 -0.000001 0.000000 0.000000 -0.231489
 18   11.168404 -0.000001 0.000002 -1.568718 -0.134941 -0.000011
 19   0.000005 0.001585 -3.638375 0.143033 1.280747 3.277981
 20   8.842831 0.000000 0.000001 0.367410 -0.110353 -1.696101
 21   9.341937 0.000000 -0.000001 0.000000 0.000000 -0.682846
 22   11.168404 -0.000001 0.000001 1.568687 -0.022722 -0.000040
 23   1.977383 0.000000 0.000000 -0.136438 0.040690 0.010634
 24   3.723980 2.768054 -0.049087 0.000001 -3.141591 -1.570794
 25   12.421014 0.304721 4.492689 -0.091859 -0.075839 1.616818
 26   19.916998 1.704573 4.956909 2.262592 1.451744 0.734330
time 5
  0   1.113842 -18.308317 28.865330 0.029743 0.366304 -1.576309
  1   -3.256593 -0.476576 9.745319 -0.000032 -1.583846 -1.570770
  2   -0.000008 0.000010 5.615750 0.012368 3.153378 -1.260855
  3   15.693467 0.000000 0.000000 0.000000 0.000000 -1.039135
  4   22.146629 -0.000001 0.000000 -0.034476 0.043786 0.484049
  5   3.310129 5.734393 0.000000 0.000000 0.000000 1.570796
  6   0.000008 -0.000006 -5.615750 0.028380 3.166614 -0.724463
  7   15.693467 0.000000 0.000000 0.000000 0.000000 -1.494453
  8   22.146629 0.000000 0.000000 0.061317 -0.004973 -0.494610
  9   3.310129 5.734393 0.000000 0.000000 0.000000 1.570796
 10   1.384163 -0.004728 -0.015623 0.035439 -0.024179 0.141665
 11   5.939814 -0.004730 0.000000 0.033564 -0.024377 0.152212
 12   5.939809 -0.003975 0.000000 0.033634 0.028068 0.153999
 13   4.991439 -0.003975 0.000000 0.033606 0.014945 0.153557
 14   4.991436 -0.001575 0.000000 0.000000 0.000000 0.000000
 15   0.000005 0.001564 3.638375 -0.000010 -1.283555 3.140806
 16   8.842831 0.000000 -0.000002 -0.794922 0.800434 -1.217993
 17   9.341934 0.000000 -0.000001 0.000000 0.000000 -0.222715
 18   11.168404 -0.000001 0.000002 -1.568718 -0.135037 -0.000011
 19   0.000005 0.001585 -3.638375 0.349447 1.266140 3.475384
 20   8.842831 0.000000 0.000001 0.358138 -0.126111 -1.775783
 21   9.341937 0.000000 -0.000001 0.000000 0.000000 -0.688775
 22   11.168404 -0.000001 0.000001 1.568687 -0.018338 -0.000040
 23   1.977383 0.000000 0.000000 -0.068721 0.013764 -0.029875
 24   3.723980 2.768054 -0.049087 0.000001 -3.141591 -1.570794
 25   12.421014 0.304721 4.492689 -0.091859 -0.075839 1.616818
 26   19.916998 1.704573 4.956909 2.262592 1.451744 0.734330
time 6
  0   0.774723 -25.468086 28.904537 0.014265 0.366304 -1.599607
  1   -3.815204 -0.343759 9.745319 0.000016 -1.568928 -1.570770
  2   -0.000008 0.000010 5.615750 -0.006614 3.153186 -1.236866
  3   15.693467 0.000000 0.000000 0.000000 0.000000 -0.912866
  4   22.146629 -0.000001 0.000000 -0.026773 0.046362 0.522742
  5   3.310129 5.734393 0.000000 0.000000 0.000000 1.570796
  6   0.000008 -0.000006 -5.615750 0.013040 3.155397 -0.739963
  7   15.693467 0.000000 0.000000 0.000000 0.000000 -1.465722
  8   22.146629 0.000000 0.000000 0.060245 0.003745 -0.533188
  9   3.310129 5.734393 0.000000 0.000000 0.000000 1.570796
 10   1.384163 -0.004728 0.000002 0.005886 -0.034913 0.174340
 11   5.939814 -0.004730 0.000000 0.006233 -0.020134 0.184472
 12   5.939809 -0.003975 0.000000 0.006291 0.031771 0.184806
 13   4.991439 -0.003975 0.000000 0.006273 0.018792 0.184722
 14   4.991436 -0.001575 0.000000 0.000000 0.000000 0.000000
 15   0.000005 0.001564 3.638375 -0.000010 -1.283555 3.140806
 16   8.842831 0.000000 -0.000002 -0.914622 0.698573 -1.232550
 17   9.341934 0.000000 -0.000001 0.000000 0.000000 -0.226077
 18   11.168404 -0.000001 0.000002 -1.568718 -0.135132 -0.000011
 19   0.000005 0.001585 -3.638375 0.474945 1.250094 3.594842
 20   8.842831 0.000000 0.000001 0.312746 -0.082025 -1.891112
 21   9.341937 0.000000 -0.000001 0.000000 0.000000 -0.700699
 22   11.168404 -0.000001 0.000001 1.568687 -0.016356 -0.000040
 23   1.977383 0.000000 0.000000 0.032775 -0.025241 -0.044190
 24   3.723980 2.768054 -0.049087 0.000001 -3.141591 -1.570794
 25   12.421014 0.304721 4.492689 -0.091859 -0.075839 1.616818
 26   19.916998 1.704573 4.956909 2.262592 1.451744 0.734330
time 7
  0   0.345173 -32.860302 28.473263 -0.003170 0.366018 -1.623288
  1   -4.323032 -0.175786 9.745319 -0.000032 -1.554348 -1.570770
  2   -0.000008 0.000010 5.615750 -0.029814 3.146957 -1.157443
  3   15.693467 0.000000 0.000000 0.000000 0.000000 -0.737726
  4   22.146629 -0.000001 0.000000 -0.022286 0.050473 0.449335
  5   3.310129 5.734393 0.000000 0.000000 0.000000 1.570796
  6   0.000008 -0.000006 -5.615750 -0.001150 3.146097 -0.739682
  7   15.693467 0.000000 0.000000 0.000000 0.000000 -1.363899
  8   22.146629 0.000000 0.000000 0.061148 -0.001259 -0.407766
  9   3.310129 5.734393 0.000000 0.000000 0.000000 1.570796
 10   1.384163 -0.004728 0.019534 -0.023296 -0.044063 0.205525
 11   5.939814 -0.004730 0.000000 -0.019872 -0.014909 0.215163
 12   5.939809 -0.003975 0.000000 -0.019841 0.036445 0.214139
 13   4.991439 -0.003975 0.000000 -0.019839 0.023598 0.214391
 14   4.991436 -0.001575 0.000000 0.000000 0.000000 0.000000
 15   0.000005 0.001564 3.638375 -0.000010 -1.283555 3.140806
 16   8.842831 0.000000 -0.000002 -1.013564 0.627130 -1.223443
 17   9.341934 0.000000 -0.000001 0.000000 0.000000 -0.243626
 18   11.168404 -0.000001 0.000002 -1.568718 -0.135132 -0.000011
 19   0.000005 0.001585 -3.638375 0.413299 1.258735 3.536263
 20   8.842831 0.000000 0.000001 0.247197 -0.027404 -1.901310
 21   9.341937 0.000000 -0.000001 0.000000 0.000000 -0.721550
 22   11.168404 -0.000001 0.000001 1.568687 -0.016356 -0.000040
 23   1.977383 0.000000 0.000000 0.118887 -0.079002 0.009342
 24   3.723980 2.768054 -0.049087 0.000001 -3.141591 -1.570794
 25   12.421014 0.304721 4.492689 -0.091859 -0.075839 1.616818
 26   19.916998 1.704573 4.956909 2.262592 1.451744 0.734330
time 8
  0   -0.106985 -40.351143 27.571507 -0.020699 0.365253 -1.644477
  1   -4.795702 0.023439 9.745319 -0.000032 -1.541219 -1.570770
  2   -0.000008 0.000010 5.615750 -0.036620 3.127121 -1.000891
  3   15.693467 0.000000 0.000000 0.000000 0.000000 -0.298667
  4   22.146629 -0.000001 0.000000 -0.046404 0.053222 -0.041326
  5   3.310129 5.734393 0.000000 0.000000 0.000000 1.570796
  6   0.000008 -0.000006 -5.615750 -0.010162 3.140441 -0.822649
  7   15.693467 0.000000 0.000000 0.000000 0.000000 -1.401785
  8   22.146629 0.000000 0.000000 0.065886 -0.005066 -0.322859
  9   3.310129 5.734393 0.000000 0.000000 0.000000 1.570796
 10   1.384163 -0.004728 0.039066 -0.050022 -0.050128 0.236225
 11   5.939814 -0.004730 0.000000 -0.042958 -0.008221 0.245414
 12   5.939809 -0.003975 0.000000 -0.042962 0.042533 0.243234
 13   4.991439 -0.003975 0.000000 -0.042952 0.029842 0.243790
 14   4.991436 -0.001575 0.000000 0.000000 0.000000 0.000000
 15   0.000005 0.001564 3.638375 -0.000010 -1.283555 3.140806
 16   8.842831 0.000000 -0.000002 -1.104642 0.582478 -1.215007
 17   9.341934 0.000000 -0.000001 0.000000 0.000000 -0.272245
 18   11.168404 -0.000001 0.000002 -1.568718 -0.135132 -0.000011
 19   0.000005 0.001585 -3.638375 0.138622 1.280901 3.273667
 20   8.842831 0.000000 0.000001 0.179714 0.054041 -1.843455
 21   9.341937 0.000000 -0.000001 0.000000 0.000000 -0.743201
 22   11.168404 -0.000001 0.000001 1.568687 -0.016356 -0.000040
 23   1.977383 0.000000 0.000000 0.181053 -0.145603 0.044135
 24   3.723980 2.768054 -0.049087 0.000001 -3.141591 -1.570794
 25   12.421014 0.304721 4.492689 -0.091859 -0.075839 1.616818
 26   19.916998 1.704573 4.956909 2.262592 1.451744 0.734330
time 9
  0   -0.476247 -47.792664 26.218872 -0.036176 0.364393 -1.660488
  1   -4.967583 0.171881 9.745319 -0.000032 -1.530581 -1.570770
  2   -0.000008 0.000010 5.615750 -0.035949 3.106805 -0.841758
  3   15.693467 0.000000 0.000000 0.000000 0.000000 -0.001883
  4   22.146629 -0.000001 0.000000 -0.072878 0.047352 -0.426290
  5   3.310129 5.734393 0.000000 0.000000 0.000000 1.570796
  6   0.000008 -0.000006 -5.615750 -0.017353 3.138619 -0.921326
  7   15.693467 0.000000 0.000000 0.000000 0.000000 -1.466244
  8   22.146629 0.000000 0.000000 0.070850 -0.010592 -0.227472
  9   3.310129 5.734393 0.000000 0.000000 0.000000 1.570796
 10   1.384163 -0.004728 0.054691 -0.069107 -0.055414 0.248660
 11   5.939814 -0.004730 0.000000 -0.059048 -0.003248 0.257499
 12   5.939809 -0.003975 0.000000 -0.059077 0.046872 0.254540
 13   4.991439 -0.003975 0.000000 -0.059044 0.034336 0.255278
 14   4.991436 -0.001575 0.000000 0.000000 0.000000 0.000000
 15   0.000005 0.001564 3.638375 -0.000010 -1.283555 3.140806
 16   8.842831 0.000000 -0.000002 -1.153382 0.619316 -1.190970
 17   9.341934 0.000000 -0.000001 0.000000 0.000000 -0.308326
 18   11.168404 -0.000001 0.000002 -1.568718 -0.135132 -0.000011
 19   0.000005 0.001585 -3.638375 -0.428658 1.256729 2.730834
 20   8.842831 0.000000 0.000001 0.127549 0.119020 -1.743186
 21   9.341937 0.000000 -0.000001 0.000000 0.000000 -0.767050
 22   11.168404 -0.000001 0.000001 1.568687 -0.016356 -0.000040
 23   1.977383 0.000000 0.000000 0.221123 -0.191605 0.055170
 24   3.723980 2.768054 -0.049087 0.000001 -3.141591 -1.570794
 25   12.421014 0.304721 4.492689 -0.091859 -0.075839 1.616818
 26   19.916998 1.704573 4.956909 2.262592 1.451744 0.734330
time 10
  0   -0.830437 -55.058090 25.807201 -0.047458 0.363628 -1.668542
  1   -4.619916 0.183600 9.745319 -0.000032 -1.523424 -1.570770
  2   -0.000008 0.000010 5.615750 -0.052630 3.119934 -1.213545
  3   15.693467 0.000000 0.000000 0.000000 0.000000 -0.938262
  4   22.146629 -0.000001 0.000000 -0.083572 0.046857 0.000615
  5   3.310129 5.734393 0.000000 0.000000 0.000000 1.570796
  6   0.000008 -0.000006 -5.615750 -0.021763 3.140441 -1.027647
  7   15.693467 0.000000 0.000000 0.000000 0.000000 -1.537401
  8   22.146629 0.000000 0.000000 0.075250 -0.017622 -0.129353
  9   3.310129 5.734393 0.000000 0.000000 0.000000 1.570796
 10   1.384163 -0.004728 0.062504 -0.076815 -0.062069 0.226510
 11   5.939814 -0.004730 0.000000 -0.066009 -0.002840 0.235184
 12   5.939809 -0.003975 0.000000 -0.066082 0.046488 0.231928
 13   4.991439 -0.003975 0.000000 -0.066050 0.034156 0.232740
 14   4.991436 -0.001575 0.000000 0.000000 0.000000 0.000000
 15   0.000005 0.001564 3.638375 -0.000010 -1.283555 3.140806
 16   8.842831 0.000000 -0.000002 -1.118542 0.785271 -1.117066
 17   9.341934 0.000000 -0.000001 0.000000 0.000000 -0.347852
 18   11.168404 -0.000001 0.000002 -1.568718 -0.135132 -0.000011
 19   0.000005 0.001585 -3.638375 -0.730466 1.193212 2.446474
 20   8.842831 0.000000 0.000001 0.126259 0.065550 -1.649874
 21   9.341937 0.000000 -0.000001 0.000000 0.000000 -0.774245
 22   11.168404 -0.000001 0.000001 1.568687 -0.016356 -0.000040
 23   1.977383 0.000000 0.000000 0.247924 -0.191074 0.058500
 24   3.723980 2.768054 -0.049087 0.000001 -3.141591 -1.570794
 25   12.421014 0.304721 4.492689 -0.091859 -0.075839 1.616818
 26   19.916998 1.704573 4.956909 2.262592 1.451744 0.734330
time 11
  0   -1.192164 -62.302383 26.846180 -0.050814 0.364011 -1.652818
  1   -4.053493 0.140630 9.745319 -0.000032 -1.520813 -1.570770
  2   -0.000008 0.000010 5.615750 -0.055123 3.109872 -1.091400
  3   15.693467 0.000000 0.000000 0.000000 0.000000 -1.109703
  4   22.146629 -0.000001 0.000000 -0.071943 0.048541 0.193577
  5   3.310129 5.734393 0.000000 0.000000 0.000000 1.570796
  6   0.000008 -0.000006 -5.615750 -0.022434 3.144851 -1.133338
  7   15.693467 0.000000 0.000000 0.000000 0.000000 -1.595458
  8   22.146629 0.000000 0.000000 0.078296 -0.025819 -0.036079
  9   3.310129 5.734393 0.000000 0.000000 0.000000 1.570796
 10   1.384163 -0.004728 0.066410 -0.079945 -0.066014 0.191762
 11   5.939814 -0.004730 0.000000 -0.070253 -0.004063 0.200381
 12   5.939809 -0.003975 0.000000 -0.070344 0.044451 0.196974
 13   4.991439 -0.003975 0.000000 -0.070299 0.032310 0.197824
 14   4.991436 -0.001575 0.000000 0.000000 0.000000 0.000000
 15   0.000005 0.001564 3.638375 -0.000010 -1.283555 3.140806
 16   8.842831 0.000000 -0.000002 -1.015759 0.982018 -0.983890
 17   9.341934 0.000000 -0.000001 0.000000 0.000000 -0.387131
 18   11.168404 -0.000001 0.000002 -1.568718 -0.135132 -0.000011
 19   0.000005 0.001585 -3.638375 -0.702184 1.201596 2.472839
 20   8.842831 0.000000 0.000001 0.151576 -0.062460 -1.671415
 21   9.341937 0.000000 -0.000001 0.000000 0.000000 -0.756658
 22   11.168404 -0.000001 0.000001 1.568687 -0.016356 -0.000040
 23   1.977383 0.000000 0.000000 0.277527 -0.160776 0.019780
 24   3.723980 2.768054 -0.049087 0.000001 -3.141591 -1.570794
 25   12.421014 0.304721 4.492689 -0.091859 -0.075839 1.616818
 26   19.916998 1.704573 4.956909 2.262592 1.451744 0.734330
time 12
  0   -1.463459 -69.821404 28.238022 -0.045873 0.365158 -1.616289
  1   -3.471443 0.074222 9.745319 -0.000032 -1.524996 -1.570770
  2   -0.000008 0.000010 5.615750 -0.043523 3.100289 -0.817100
  3   15.693467 0.000000 0.000000 0.000000 0.000000 -1.047102
  4   22.146629 -0.000001 0.000000 -0.039748 0.046733 0.296392
  5   3.310129 5.734393 0.000000 0.000000 0.000000 1.570796
  6   0.000008 -0.000006 -5.615750 -0.017257 3.151083 -1.230402
  7   15.693467 0.000000 0.000000 0.000000 0.000000 -1.620691
  8   22.146629 0.000000 0.000000 0.079199 -0.034753 0.044423
  9   3.310129 5.734393 0.000000 0.000000 0.000000 1.570796
 10   1.384163 -0.004728 0.062504 -0.078666 -0.063921 0.157274
 11   5.939814 -0.004730 0.000000 -0.071372 -0.005968 0.165961
 12   5.939809 -0.003975 0.000000 -0.071428 0.041730 0.162544
 13   4.991439 -0.003975 0.000000 -0.071404 0.029806 0.163396
 14   4.991436 -0.001575 0.000000 0.000000 0.000000 0.000000
 15   0.000005 0.001564 3.638375 -0.000010 -1.283555 3.140806
 16   8.842831 0.000000 -0.000002 -0.823269 1.143229 -0.772854
 17   9.341934 0.000000 -0.000001 0.000000 0.000000 -0.422311
 18   11.168404 -0.000001 0.000002 -1.568718 -0.135132 -0.000011
 19   0.000005 0.001585 -3.638375 -0.617432 1.223196 2.552126
 20   8.842831 0.000000 0.000001 0.189873 -0.188611 -1.715545
 21   9.341937 0.000000 -0.000001 0.000000 0.000000 -0.734741
 22   11.168404 -0.000001 0.000001 1.568687 -0.016356 -0.000040
 23   1.977383 0.000000 0.000000 0.294337 -0.119023 -0.027042
 24   3.723980 2.768054 -0.049087 0.000001 -3.141591 -1.570794
 25   12.421014 0.304721 4.492689 -0.091859 -0.075839 1.616818
 26   19.916998 1.704573 4.956909 2.262592 1.451744 0.734330
time 13
  0   -1.546355 -77.918022 28.943745 -0.036269 0.366018 -1.583883
  1   -3.100338 0.015626 9.745319 -0.000032 -1.536094 -1.570770
  2   -0.000008 0.000010 5.615750 -0.023391 3.101918 -0.496350
  3   15.693467 0.000000 0.000000 0.000000 0.000000 -0.888893
  4   22.146629 -0.000001 0.000000 -0.014508 0.041904 0.295935
  5   3.310129 5.734393 0.000000 0.000000 0.000000 1.570796
  6   0.000008 -0.000006 -5.615750 -0.007669 3.155301 -1.316455
  7   15.693467 0.000000 0.000000 0.000000 0.000000 -1.547598
  8   22.146629 0.000000 0.000000 0.074122 -0.046265 0.101585
  9   3.310129 5.734393 0.000000 0.000000 0.000000 1.570796
 10   1.384163 -0.004728 0.046878 -0.073886 -0.054448 0.135900
 11   5.939814 -0.004730 0.000000 -0.069064 -0.007574 0.144736
 12   5.939809 -0.003975 0.000000 -0.069068 0.039429 0.141481
 13   4.991439 -0.003975 0.000000 -0.069050 0.027672 0.142288
 14   4.991436 -0.001575 0.000000 0.000000 0.000000 0.000000
 15   0.000005 0.001564 3.638375 -0.000010 -1.283555 3.140806
 16   8.842831 0.000000 -0.000002 -0.625476 1.216346 -0.574657
 17   9.341934 0.000000 -0.000001 0.000000 0.000000 -0.449618
 18   11.168404 -0.000001 0.000002 -1.568718 -0.135132 -0.000011
 19   0.000005 0.001585 -3.638375 -0.482251 1.248963 2.679925
 20   8.842831 0.000000 0.000001 0.229137 -0.262620 -1.786363
 21   9.341937 0.000000 -0.000001 0.000000 0.000000 -0.709892
 22   11.168404 -0.000001 0.000001 1.568687 -0.016356 -0.000040
 23   1.977383 0.000000 0.000000 0.291536 -0.090664 -0.051845
 24   3.723980 2.768054 -0.049087 0.000001 -3.141591 -1.570794
 25   12.421014 0.304721 4.492689 -0.091859 -0.075839 1.616818
 26   19.916998 1.704573 4.956909 2.262592 1.451744 0.734330
time 14
  0   -1.425780 -86.965584 29.159382 -0.022843 0.366400 -1.560585
  1   -3.119870 -0.011718 9.745319 -0.000032 -1.552003 -1.570770
  2   -0.000008 0.000010 5.615750 -0.009969 3.120317 -0.357957
  3   15.693467 0.000000 0.000000 0.000000 0.000000 -1.029104
  4   22.146629 -0.000001 0.000000 -0.037692 0.012680 -0.305408
  5   3.310129 5.734393 0.000000 0.000000 0.000000 1.570796
  6   0.000008 -0.000006 -5.615750 0.005562 3.158177 -1.370036
  7   15.693467 0.000000 0.000000 0.000000 0.000000 -1.379381
  8   22.146629 0.000000 0.000000 0.067353 -0.055997 0.094539
  9   3.310129 5.734393 0.000000 0.000000 0.000000 1.570796
 10   1.384163 -0.004728 0.023440 -0.063014 -0.039474 0.136548
 11   5.939814 -0.004730 0.000000 -0.060326 -0.008605 0.145539
 12   5.939809 -0.003975 0.000000 -0.060315 0.037799 0.142743
 13   4.991439 -0.003975 0.000000 -0.060307 0.026198 0.143449
 14   4.991436 -0.001575 0.000000 0.000000 0.000000 0.000000
 15   0.000005 0.001564 3.638375 -0.000010 -1.283555 3.140806
 16   8.842831 0.000000 -0.000002 -0.689121 1.159322 -0.674763
 17   9.341934 0.000000 -0.000001 0.000000 0.000000 -0.465608
 18   11.168404 -0.000001 0.000002 -1.568718 -0.136568 -0.000011
 19   0.000005 0.001585 -3.638375 -0.308913 1.270101 2.844923
 20   8.842831 0.000000 0.000001 0.256711 -0.245799 -1.868427
 21   9.341937 0.000000 -0.000001 0.000000 0.000000 -0.683445
 22   11.168404 -0.000001 0.000001 1.568687 -0.016356 -0.000040
 23   1.977383 0.000000 0.000000 0.262778 -0.077224 -0.072075
 24   3.723980 2.768054 -0.049087 0.000001 -3.141591 -1.570794
 25   12.421014 0.304721 4.492689 -0.091859 -0.075839 1.616818
 26   19.916998 1.704573 4.956909 2.262592 1.451744 0.734330
time 15
  0   -1.169557 -96.710503 28.904537 -0.005967 0.366304 -1.536903
  1   -3.420660 -0.050782 9.745319 -1.570795 -1.570451 0.000000
  2   -0.000008 0.000010 5.615750 -0.008915 3.136991 -0.561723
  3   15.693467 0.000000 0.000000 0.000000 0.000000 -1.210647
  4   22.146629 -0.000001 0.000000 -0.040982 0.003789 -0.659363
  5   3.310129 5.734393 0.000000 0.000000 0.000000 1.570796
  6   0.000008 -0.000006 -5.615750 0.023203 3.163354 -1.369826
  7   15.693467 0.000000 0.000000 0.000000 0.000000 -1.107777
  8   22.146629 0.000000 0.000000 0.066901 -0.061554 -0.061974
  9   3.310129 5.734393 0.000000 0.000000 0.000000 1.570796
 10   1.384163 -0.004728 0.000002 -0.045915 -0.021952 0.152967
 11   5.939814 -0.004730 0.000000 -0.045800 -0.009755 0.162213
 12   5.939809 -0.003975 0.000000 -0.045769 0.036181 0.160107
 13   4.991439 -0.003975 0.000000 -0.045765 0.024688 0.160621
 14   4.991436 -0.001575 0.000000 0.000000 0.000000 0.000000
 15   0.000005 0.001564 3.638375 -0.000010 -1.283555 3.140806
 16   8.842831 0.000000 -0.000002 -0.863048 0.983320 -0.919467
 17   9.341934 0.000000 -0.000001 0.000000 0.000000 -0.471759
 18   11.168404 -0.000001 0.000002 -1.568718 -0.139056 -0.000011
 19   0.000005 0.001585 -3.638375 -0.126946 1.281364 3.019124
 20   8.842831 0.000000 0.000001 0.268321 -0.160637 -1.943630
 21   9.341937 0.000000 -0.000001 0.000000 0.000000 -0.656931
 22   11.168404 -0.000001 0.000001 1.568687 -0.016356 -0.000040
 23   1.977383 0.000000 0.000000 0.213722 -0.065724 -0.112783
 24   3.723980 2.768054 -0.049087 0.000001 -3.141591 -1.570794
 25   12.421014 0.304721 4.492689 -0.091859 -0.075839 1.616818
 26   19.916998 1.704573 4.956909 2.262592 1.451744 0.734330
time 16
  0   -0.830440 -106.568130 28.198814 0.011655 0.365731 -1.515715
  1   -3.823017 -0.101565 9.745319 -3.141558 -1.551979 1.570770
  2   -0.000008 0.000010 5.615750 -0.002683 3.148778 -0.770459
  3   15.693467 0.000000 0.000000 0.000000 0.000000 -1.359110
  4   22.146629 -0.000001 0.000000 -0.045133 0.006390 -0.718088
  5   3.310129 5.734393 0.000000 0.000000 0.000000 1.570796
  6   0.000008 -0.000006 -5.615750 0.040557 3.171695 -1.330622
  7   15.693467 0.000000 0.000000 0.000000 0.000000 -0.868179
  8   22.146629 0.000000 0.000000 0.069666 -0.066189 -0.184226
  9   3.310129 5.734393 0.000000 0.000000 0.000000 1.570796
 10   1.384163 -0.004728 -0.023436 -0.027369 -0.004590 0.175603
 11   5.939814 -0.004730 0.000000 -0.030580 -0.011397 0.185045
 12   5.939809 -0.003975 0.000000 -0.030572 0.034288 0.183644
 13   4.991439 -0.003975 0.000000 -0.030563 0.022867 0.183999
 14   4.991436 -0.001575 0.000000 0.000000 0.000000 0.000000
 15   0.000005 0.001564 3.638375 -0.000010 -1.283555 3.140806
 16   8.842831 0.000000 -0.000002 -0.964002 0.768062 -1.100494
 17   9.341934 0.000000 -0.000001 0.000000 0.000000 -0.471759
 18   11.168404 -0.000001 0.000002 -1.568718 -0.139535 -0.000011
 19   0.000005 0.001585 -3.638375 0.021082 1.283473 3.161016
 20   8.842831 0.000000 0.000001 0.265096 -0.049447 -2.009682
 21   9.341937 0.000000 -0.000001 0.000000 0.000000 -0.631683
 22   11.168404 -0.000001 0.000001 1.568687 -0.016356 -0.000040
 23   1.977383 0.000000 0.000000 0.162816 -0.057110 -0.155330
 24   3.723980 2.768054 -0.049087 0.000001 -3.141591 -1.570794
 25   12.421014 0.304721 4.492689 -0.091859 -0.075839 1.616818
 26   19.916998 1.704573 4.956909 2.262592 1.451744 0.734330
time 17
  0   -0.061772 -115.939713 26.101252 0.037015 0.364584 -1.492417
  1   -4.381628 -0.285164 9.745319 -0.000032 -1.611578 -1.570770
  2   -0.000008 0.000010 5.615750 0.006137 3.156924 -0.823886
  3   15.693467 0.000000 0.000000 0.000000 0.000000 -1.398307
  4   22.146629 -0.000001 0.000000 -0.027596 0.055030 0.654006
  5   3.310129 5.734393 0.000000 0.000000 0.000000 1.570796
  6   0.000008 -0.000006 -5.615750 0.049569 3.199595 -1.127236
  7   15.693467 0.000000 0.000000 0.000000 0.000000 -0.926758
  8   22.146629 0.000000 0.000000 0.080158 -0.076934 0.215381
  9   3.310129 5.734393 0.000000 0.000000 0.000000 1.570796
 10   1.384163 -0.004728 -0.054687 0.006156 0.011216 0.152351
 11   5.939814 -0.004730 0.000000 0.000000 -0.017450 0.162194
 12   5.939809 -0.003975 0.000000 0.000013 0.029099 0.162194
 13   4.991439 -0.003975 0.000000 0.000000 0.017450 0.162185
 14   4.991436 -0.001575 0.000000 0.000000 0.000000 0.000000
 15   0.000005 0.001564 3.638375 -0.000010 -1.283555 3.140806
 16   8.842831 0.000000 -0.000002 -0.870820 0.773085 -1.139834
 17   9.341934 0.000000 -0.000001 0.000000 0.000000 -0.310622
 18   11.168404 -0.000001 0.000002 -1.568718 -0.135132 -0.000011
 19   0.000005 0.001585 -3.638375 -0.578987 1.231477 2.588367
 20   8.842831 0.000000 0.000001 0.319518 -0.011380 -1.742042
 21   9.341937 0.000000 -0.000001 0.000000 0.000000 -0.609033
 22   11.168404 -0.000001 0.000001 1.568687 -0.016356 -0.000040
 23   1.977383 0.000000 0.000000 0.053655 -0.034894 0.023011
 24   3.723980 2.768054 -0.049087 0.000001 -3.141591 -1.570794
 25   12.421014 0.304721 4.492689 -0.091859 -0.075839 1.616818
 26   19.916998 1.704573 4.956909 2.262592 1.451744 0.734330
end
