version 1
nodes
  0 "Bip01" -1
  1 "Bip01 Pelvis" 0
  2 "Bip01 L Thigh" 1
  3 "Bip01 L Calf" 2
  4 "Bip01 L Foot" 3
  5 "Bip01 L Toe0" 4
  6 "Bip01 R Thigh" 1
  7 "Bip01 R Calf" 6
  8 "Bip01 R Foot" 7
  9 "Bip01 R Toe0" 8
 10 "Bip01 Spine" 1
 11 "Bip01 Spine1" 10
 12 "Bip01 Spine2" 11
 13 "Bip01 Spine3" 12
 14 "Bip01 Neck" 13
 15 "Bip01 L Clavicle" 14
 16 "Bip01 L UpperArm" 15
 17 "Bip01 L Forearm" 16
 18 "Bip01 L Hand" 17
 19 "Bip01 R Clavicle" 14
 20 "Bip01 R UpperArm" 19
 21 "Bip01 R Forearm" 20
 22 "Bip01 R Hand" 21
 23 "Bip01 Head" 14
 24 "Bone05" 23
 25 "m4" 22
 26 "SHOTGUN" 22
end
skeleton
time 0
  0   0.073880 -0.006819 28.041988 0.000000 0.000000 -2.033353
  1   -0.526041 0.000001 9.745319 -1.570795 -1.570451 0.000000
  2   -0.000008 0.000010 5.615750 -0.233053 3.472298 -0.563921
  3   15.693467 0.000000 0.000000 0.000000 0.000000 -0.487323
  4   22.146629 -0.000001 0.000000 0.114982 -0.144038 -0.143135
  5   3.310129 5.734393 0.000000 0.000000 0.000000 1.570796
  6   0.000008 -0.000006 -5.615750 0.212080 2.899510 0.054433
  7   15.693467 0.000000 0.000000 0.000000 0.000000 -0.482099
  8   22.146629 0.000000 0.000000 0.274883 0.248026 0.484986
  9   3.310129 5.734393 0.000000 0.000000 0.000000 1.570796
 10   1.384163 -0.004728 0.000002 -0.372579 -0.003463 0.086548
 11   5.939814 -0.004730 0.000000 0.000000 0.000000 0.000000
 12   5.939809 -0.003975 0.000000 0.000000 0.000000 0.000000
 13   4.991439 -0.003975 0.000000 0.000000 0.000000 0.000000
 14   4.991436 -0.001575 0.000000 0.000000 0.000000 0.000000
 15   0.000005 0.001564 3.638375 -0.000010 -1.284244 3.140806
 16   8.842831 0.000000 -0.000002 -0.414972 -0.110832 -0.914689
 17   9.341934 0.000000 -0.000001 0.000000 0.000000 -0.853073
 18   11.168404 -0.000001 0.000002 -4.515872 0.471532 -0.520821
 19   0.000005 0.001585 -3.638375 -0.000010 1.284244 3.140787
 20   8.842831 0.000000 0.000001 0.955975 -0.539709 -2.199069
 21   9.341937 0.000000 -0.000001 0.000000 0.000000 -0.994883
 22   11.168404 -0.000001 0.000001 1.804999 0.075469 0.649469
 23   1.977383 0.000000 0.000000 0.835700 0.294324 0.196082
 24   3.723980 2.768054 -0.049087 0.000001 -3.141591 -1.570794
 25   12.421014 0.304721 4.492689 -0.091859 -0.075839 1.616818
 26   19.916998 1.704573 4.956909 2.262592 1.451744 0.734330
time 1
  0   0.043736 0.127017 27.434282 0.000186 -0.016724 -2.023190
  1   -0.526041 0.000001 9.745319 -1.570795 -1.570451 0.000000
  2   -0.000008 0.000010 5.615750 -0.213400 3.487152 -0.620597
  3   15.693467 0.000000 0.000000 0.000000 0.000000 -0.580513
  4   22.146629 -0.000001 0.000000 0.128331 -0.140646 -0.121456
  5   3.310129 5.734393 0.000000 0.000000 0.000000 1.570796
  6   0.000008 -0.000006 -5.615750 0.196452 2.885129 -0.005250
  7   15.693467 0.000000 0.000000 0.000000 0.000000 -0.613472
  8   22.146629 0.000000 0.000000 0.281595 0.246675 0.540122
  9   3.310129 5.734393 0.000000 0.000000 0.000000 1.570796
 10   1.384163 -0.004728 0.000002 -0.231580 -0.001450 0.089980
 11   5.939814 -0.004730 0.000000 0.085650 0.013303 0.000727
 12   5.939809 -0.003975 0.000000 -0.032933 0.016982 -0.001387
 13   4.991439 -0.003975 0.000000 0.041631 0.036709 0.001110
 14   4.991436 -0.001575 0.000000 0.000000 0.004384 0.000000
 15   -0.015620 0.001564 3.638375 -0.071627 -1.279165 3.209549
 16   8.842831 0.000000 -0.000002 -0.182613 0.254010 -0.701414
 17   9.341934 0.000000 -0.000001 0.000000 0.000000 -0.842495
 18   11.168404 -0.000001 0.000002 -3.857469 0.396118 -0.286385
 19   0.015630 0.001585 -3.638375 -0.000010 1.288615 3.140787
 20   8.842831 0.000000 0.000001 0.688380 -0.765984 -1.744997
 21   9.341937 0.000000 -0.000001 0.000000 0.000000 -1.212390
 22   11.168404 -0.000001 0.000001 1.754940 0.023823 0.733795
 23   1.977383 0.000000 0.000000 0.550614 0.221973 0.082209
 24   3.723980 2.768054 -0.049087 0.000001 -3.141591 -1.570794
 25   12.421014 0.304721 4.492689 -0.091859 -0.075839 1.616818
 26   19.916998 1.704573 4.956909 2.262592 1.451744 0.734330
time 2
  0   0.006056 0.246766 27.199041 -0.001865 -0.036506 -1.941791
  1   -0.526041 0.000001 9.745319 -1.570795 -1.570451 0.000000
  2   -0.000008 0.000010 5.615750 -0.214934 3.467123 -0.640955
  3   15.693467 0.000000 0.000000 0.000000 0.000000 -0.580727
  4   22.146629 -0.000001 0.000000 0.202481 -0.108153 -0.152328
  5   3.310129 5.734393 0.000000 0.000000 0.000000 1.570796
  6   0.000008 -0.000006 -5.615750 0.209587 2.909097 0.016350
  7   15.693467 0.000000 0.000000 0.000000 0.000000 -0.647711
  8   22.146629 0.000000 0.000000 0.351543 0.224847 0.577820
  9   3.310129 5.734393 0.000000 0.000000 0.000000 1.570796
 10   1.384163 -0.004728 0.000002 -0.006467 0.001314 0.082403
 11   5.939814 -0.004730 0.000000 0.188757 0.029422 0.002199
 12   5.939809 -0.003975 0.000000 -0.072602 0.038111 -0.003885
 13   4.991439 -0.003975 0.000000 0.091832 0.081615 0.003347
 14   4.991436 -0.001575 0.000000 0.000000 0.009674 0.000000
 15   -0.035152 0.001564 3.638375 -0.155037 -1.271184 3.289414
 16   8.842831 0.000000 -0.000002 -0.386533 -0.203484 -0.582496
 17   9.341934 0.000000 -0.000001 0.000000 0.000000 -0.914084
 18   11.168404 -0.000001 0.000002 -2.888964 0.086900 -0.075928
 19   0.035162 0.001585 -3.638375 -0.000010 1.293913 3.140787
 20   8.842831 0.000000 0.000001 0.093929 -0.912850 -0.743825
 21   9.341937 0.000000 -0.000001 0.000000 0.000000 -1.636412
 22   11.168404 -0.000001 0.000001 1.699940 0.039675 0.845384
 23   1.977383 0.000000 0.000000 0.106888 0.034594 -0.044339
 24   3.723980 2.768054 -0.049087 0.000001 -3.141591 -1.570794
 25   12.421014 0.304721 4.492689 -0.091859 -0.075839 1.616818
 26   19.916998 1.704573 4.956909 2.262592 1.451744 0.734330
time 3
  0   -0.009015 0.345382 27.101025 -0.003636 -0.055237 -1.838435
  1   -0.526041 0.000001 9.745319 -1.570795 -1.570451 0.000000
  2   -0.000008 0.000010 5.615750 -0.227492 3.428887 -0.638661
  3   15.693467 0.000000 0.000000 0.000000 0.000000 -0.538044
  4   22.146629 -0.000001 0.000000 0.291288 -0.064565 -0.200031
  5   3.310129 5.734393 0.000000 0.000000 0.000000 1.570796
  6   0.000008 -0.000006 -5.615750 0.231447 2.946200 0.060464
  7   15.693467 0.000000 0.000000 0.000000 0.000000 -0.646073
  8   22.146629 0.000000 0.000000 0.439654 0.194915 0.604947
  9   3.310129 5.734393 0.000000 0.000000 0.000000 1.570796
 10   1.384163 -0.004728 0.000002 0.216628 0.002924 0.077448
 11   5.939814 -0.004730 0.000000 0.282683 0.043121 0.007343
 12   5.939809 -0.003975 0.000000 -0.108776 0.055309 -0.006646
 13   4.991439 -0.003975 0.000000 0.138057 0.120122 0.010260
 14   4.991436 -0.001575 0.000000 0.000012 0.014475 0.000000
 15   -0.050778 0.001564 3.638375 -0.422138 -1.389523 3.557866
 16   8.842831 0.000000 -0.000002 -1.143689 -0.471022 -0.424685
 17   9.341934 0.000000 -0.000001 0.000000 0.000000 -0.991249
 18   11.168404 -0.000001 0.000002 -1.891712 -0.112163 -0.025955
 19   0.050788 0.001585 -3.638375 -0.000010 1.298696 3.140787
 20   8.842831 0.000000 0.000001 -0.450454 -0.790506 0.405082
 21   9.341937 0.000000 -0.000001 0.000000 0.000000 -1.921536
 22   11.168404 -0.000001 0.000001 1.587797 0.002827 0.679364
 23   1.977383 0.000000 0.000000 -0.307923 -0.191051 -0.074759
 24   3.723980 2.768054 -0.049087 0.000001 -3.141591 -1.570794
 25   12.421014 0.304721 4.492689 -0.091859 -0.075839 1.616818
 26   19.916998 1.704573 4.956909 2.262592 1.451744 0.734330
time 4
  0   0.073880 0.422866 27.003008 0.000000 -0.069763 -1.762789
  1   -0.526041 0.000001 9.745319 -1.570795 -1.570451 0.000000
  2   -0.000008 0.000010 5.615750 -0.239668 3.392568 -0.631206
  3   15.693467 0.000000 0.000000 0.000000 0.000000 -0.501764
  4   22.146629 -0.000001 0.000000 0.352687 -0.031279 -0.235020
  5   3.310129 5.734393 0.000000 0.000000 0.000000 1.570796
  6   0.000008 -0.000006 -5.615750 0.244007 2.967772 0.082977
  7   15.693467 0.000000 0.000000 0.000000 0.000000 -0.657461
  8   22.146629 0.000000 0.000000 0.505033 0.171859 0.628024
  9   3.310129 5.734393 0.000000 0.000000 0.000000 1.570796
 10   1.384163 -0.004728 0.000002 0.351703 -0.004026 0.086548
 11   5.939814 -0.004730 0.000000 0.340807 0.049077 0.017439
 12   5.939809 -0.003975 0.000000 -0.131093 0.060666 -0.007983
 13   4.991439 -0.003975 0.000000 0.167500 0.137559 0.023176
 14   4.991436 -0.001575 0.000000 0.000012 0.017450 0.000000
 15   -0.062497 0.001564 3.638375 -1.235428 -1.469117 4.376263
 16   8.842831 0.000000 -0.000002 -1.898833 -0.386649 -0.067111
 17   9.341934 0.000000 -0.000001 0.000000 0.000000 -0.997809
 18   11.168404 -0.000001 0.000002 -1.108007 -0.227678 -0.081137
 19   0.062507 0.001585 -3.638375 -0.000010 1.301679 3.140787
 20   8.842831 0.000000 0.000001 -0.477222 -0.717559 0.887748
 21   9.341937 0.000000 -0.000001 0.000000 0.000000 -1.711890
 22   11.168404 -0.000001 0.000001 1.484416 -0.160966 0.334539
 23   1.977383 0.000000 0.000000 -0.544852 -0.311436 -0.052690
 24   3.723980 2.768054 -0.049087 0.000001 -3.141591 -1.570794
 25   12.421014 0.304721 4.492689 -0.091859 -0.075839 1.616818
 26   19.916998 1.704573 4.956909 2.262592 1.451744 0.734330
time 5
  0   0.548645 0.443998 27.003008 0.032447 -0.072917 -1.735943
  1   -0.526041 0.000001 9.745319 -1.570795 -1.570451 0.000000
  2   -0.000008 0.000010 5.615750 -0.260471 3.339766 -0.597564
  3   15.693467 0.000000 0.000000 0.000000 0.000000 -0.441226
  4   22.146629 -0.000001 0.000000 0.363830 -0.019664 -0.263971
  5   3.310129 5.734393 0.000000 0.000000 0.000000 1.570796
  6   0.000008 -0.000006 -5.615750 0.233556 2.943228 0.075893
  7   15.693467 0.000000 0.000000 0.000000 0.000000 -0.681950
  8   22.146629 0.000000 0.000000 0.543560 0.162158 0.646079
  9   3.310129 5.734393 0.000000 0.000000 0.000000 1.570796
 10   1.384163 -0.004728 0.000002 0.395594 -0.021469 0.109670
 11   5.939814 -0.004730 0.000000 0.363858 0.047531 0.031705
 12   5.939809 -0.003975 0.000000 -0.139795 0.054194 -0.007483
 13   4.991439 -0.003975 0.000000 0.180233 0.134167 0.041055
 14   4.991436 -0.001575 0.000000 0.000012 0.018715 0.000000
 15   -0.066403 0.001564 3.638375 -1.931178 -1.464800 5.075773
 16   8.842831 0.000000 -0.000002 -2.157893 -0.434742 0.112573
 17   9.341934 0.000000 -0.000001 0.000000 0.000000 -0.791817
 18   11.168404 -0.000001 0.000002 -0.999228 -0.240598 -0.100153
 19   0.066413 0.001585 -3.638375 -0.000010 1.302965 3.140787
 20   8.842831 0.000000 0.000001 -0.528338 -0.683742 1.137279
 21   9.341937 0.000000 -0.000001 0.000000 0.000000 -1.696302
 22   11.168404 -0.000001 0.000001 1.480594 -0.131791 0.198695
 23   1.977383 0.000000 0.000000 -0.580957 -0.326493 -0.052988
 24   3.723980 2.768054 -0.049087 0.000001 -3.141591 -1.570794
 25   12.421014 0.304721 4.492689 -0.091859 -0.075839 1.616818
 26   19.916998 1.704573 4.956909 2.262592 1.451744 0.734330
time 6
  0   0.925443 0.422866 26.963800 0.061070 -0.069763 -1.762789
  1   -0.526041 0.000001 9.745319 -1.570795 -1.570451 0.000000
  2   -0.000008 0.000010 5.615750 -0.268428 3.320504 -0.586860
  3   15.693467 0.000000 0.000000 0.000000 0.000000 -0.434753
  4   22.146629 -0.000001 0.000000 0.333467 -0.031775 -0.261227
  5   3.310129 5.734393 0.000000 0.000000 0.000000 1.570796
  6   0.000008 -0.000006 -5.615750 0.211025 2.901236 0.042440
  7   15.693467 0.000000 0.000000 0.000000 0.000000 -0.723260
  8   22.146629 0.000000 0.000000 0.533971 0.169465 0.658146
  9   3.310129 5.734393 0.000000 0.000000 0.000000 1.570796
 10   1.384163 -0.004728 0.000002 0.408149 -0.043902 0.138621
 11   5.939814 -0.004730 0.000000 0.372968 0.042761 0.048207
 12   5.939809 -0.003975 0.000000 -0.143138 0.042378 -0.006196
 13   4.991439 -0.003975 0.000000 0.186148 0.121727 0.061675
 14   4.991436 -0.001575 0.000000 0.000012 0.019420 0.000000
 15   -0.070310 0.001564 3.638375 -2.063579 -1.461789 5.208657
 16   8.842831 0.000000 -0.000002 -2.114275 -0.559395 0.056809
 17   9.341934 0.000000 -0.000001 0.000000 0.000000 -0.556468
 18   11.168404 -0.000001 0.000002 -1.108007 -0.227678 -0.081137
 19   0.070320 0.001585 -3.638375 -0.000010 1.303633 3.140787
 20   8.842831 0.000000 0.000001 -0.540835 -0.719419 1.201329
 21   9.341937 0.000000 -0.000001 0.000000 0.000000 -1.604036
 22   11.168404 -0.000001 0.000001 1.446382 -0.103754 0.109481
 23   1.977383 0.000000 0.000000 -0.540781 -0.309843 -0.062879
 24   3.723980 2.768054 -0.049087 0.000001 -3.141591 -1.570794
 25   12.421014 0.304721 4.492689 -0.091859 -0.075839 1.616818
 26   19.916998 1.704573 4.956909 2.262592 1.451744 0.734330
time 7
  0   0.744580 0.429910 26.630543 0.056315 -0.069190 -1.845914
  1   -0.526041 0.000001 9.745319 -1.570795 -1.570451 0.000000
  2   -0.000008 0.000010 5.615750 -0.247720 3.376469 -0.631589
  3   15.693467 0.000000 0.000000 0.000000 0.000000 -0.545442
  4   22.146629 -0.000001 0.000000 0.269788 -0.067239 -0.206114
  5   3.310129 5.734393 0.000000 0.000000 0.000000 1.570796
  6   0.000008 -0.000006 -5.615750 0.186481 2.869501 -0.018295
  7   15.693467 0.000000 0.000000 0.000000 0.000000 -0.790398
  8   22.146629 0.000000 0.000000 0.457818 0.194547 0.662286
  9   3.310129 5.734393 0.000000 0.000000 0.000000 1.570796
 10   1.384163 -0.004728 0.000002 0.397547 -0.068670 0.171879
 11   5.939814 -0.004730 0.000000 0.371832 0.035966 0.066048
 12   5.939809 -0.003975 0.000000 -0.142589 0.027001 -0.004347
 13   4.991439 -0.003975 0.000000 0.186736 0.103187 0.083792
 14   4.991436 -0.001575 0.000000 0.000012 0.019635 0.000000
 15   -0.070310 0.001564 3.638375 -1.686990 -1.474160 4.830235
 16   8.842831 0.000000 -0.000002 -1.819277 -0.513534 -0.266651
 17   9.341934 0.000000 -0.000001 0.000000 0.000000 -0.423787
 18   11.168404 -0.000001 0.000002 -1.061974 -0.227678 -0.081137
 19   0.070320 0.001585 -3.638375 -0.000010 1.303890 3.140787
 20   8.842831 0.000000 0.000001 -0.501571 -0.822729 1.103347
 21   9.341937 0.000000 -0.000001 0.000000 0.000000 -1.464072
 22   11.168404 -0.000001 0.000001 1.378239 -0.096123 0.070467
 23   1.977383 0.000000 0.000000 -0.447426 -0.276912 -0.082860
 24   3.723980 2.768054 -0.049087 0.000001 -3.141591 -1.570794
 25   12.421014 0.304721 4.492689 -0.091859 -0.075839 1.616818
 26   19.916998 1.704573 4.956909 2.262592 1.451744 0.734330
time 8
  0   0.420534 0.436954 26.258080 0.043542 -0.070050 -1.954638
  1   -0.526041 0.000001 9.745319 -1.570795 -1.570451 0.000000
  2   -0.000008 0.000010 5.615750 -0.217043 3.447478 -0.667620
  3   15.693467 0.000000 0.000000 0.000000 0.000000 -0.657982
  4   22.146629 -0.000001 0.000000 0.187711 -0.113477 -0.142586
  5   3.310129 5.734393 0.000000 0.000000 0.000000 1.570796
  6   0.000008 -0.000006 -5.615750 0.158485 2.840260 -0.088007
  7   15.693467 0.000000 0.000000 0.000000 0.000000 -0.855749
  8   22.146629 0.000000 0.000000 0.352840 0.225247 0.654271
  9   3.310129 5.734393 0.000000 0.000000 0.000000 1.570796
 10   1.384163 -0.004728 0.000002 0.372168 -0.093412 0.207792
 11   5.939814 -0.004730 0.000000 0.364231 0.028236 0.084348
 12   5.939809 -0.003975 0.000000 -0.139629 0.009839 -0.002186
 13   4.991439 -0.003975 0.000000 0.183707 0.081459 0.106228
 14   4.991436 -0.001575 0.000000 0.000012 0.019463 0.000000
 15   -0.070310 0.001564 3.638375 -1.089893 -1.462478 4.230148
 16   8.842831 0.000000 -0.000002 -1.481940 -0.321997 -0.606085
 17   9.341934 0.000000 -0.000001 0.000000 0.000000 -0.313574
 18   11.168404 -0.000001 0.000002 -0.996936 -0.227678 -0.081137
 19   0.070320 0.001585 -3.638375 -0.000010 1.303685 3.140787
 20   8.842831 0.000000 0.000001 -0.396999 -0.946667 0.899186
 21   9.341937 0.000000 -0.000001 0.000000 0.000000 -1.303590
 22   11.168404 -0.000001 0.000001 1.287443 -0.086131 0.051477
 23   1.977383 0.000000 0.000000 -0.326002 -0.239154 -0.111689
 24   3.723980 2.768054 -0.049087 0.000001 -3.141591 -1.570794
 25   12.421014 0.304721 4.492689 -0.091859 -0.075839 1.616818
 26   19.916998 1.704573 4.956909 2.262592 1.451744 0.734330
time 9
  0   0.051272 0.443998 25.846407 0.027878 -0.072439 -2.065567
  1   -0.526041 0.000001 9.745319 -1.570795 -1.570451 0.000000
  2   -0.000008 0.000010 5.615750 -0.180326 3.516667 -0.695050
  3   15.693467 0.000000 0.000000 0.000000 0.000000 -0.762909
  4   22.146629 -0.000001 0.000000 0.102493 -0.160854 -0.076726
  5   3.310129 5.734393 0.000000 0.000000 0.000000 1.570796
  6   0.000008 -0.000006 -5.615750 0.130777 2.817154 -0.158701
  7   15.693467 0.000000 0.000000 0.000000 0.000000 -0.917230
  8   22.146629 0.000000 0.000000 0.242222 0.254289 0.640707
  9   3.310129 5.734393 0.000000 0.000000 0.000000 1.570796
 10   1.384163 -0.004728 0.000002 0.340662 -0.116221 0.244159
 11   5.939814 -0.004730 0.000000 0.353931 0.020554 0.102189
 12   5.939809 -0.003975 0.000000 -0.135750 -0.007323 0.000087
 13   4.991439 -0.003975 0.000000 0.178884 0.059372 0.127874
 14   4.991436 -0.001575 0.000000 0.000012 0.018988 0.000000
 15   -0.066403 0.001564 3.638375 -0.675818 -1.416986 3.812608
 16   8.842831 0.000000 -0.000002 -1.208340 -0.003482 -0.847877
 17   9.341934 0.000000 -0.000001 0.000000 0.000000 -0.212710
 18   11.168404 -0.000001 0.000002 -0.952527 -0.227678 -0.081137
 19   0.066413 0.001585 -3.638375 -0.000010 1.303222 3.140787
 20   8.842831 0.000000 0.000001 -0.206320 -1.053165 0.608862
 21   9.341937 0.000000 -0.000001 0.000000 0.000000 -1.131716
 22   11.168404 -0.000001 0.000001 1.195714 -0.069225 0.024685
 23   1.977383 0.000000 0.000000 -0.202093 -0.202644 -0.149316
 24   3.723980 2.768054 -0.049087 0.000001 -3.141591 -1.570794
 25   12.421014 0.304721 4.492689 -0.091859 -0.075839 1.616818
 26   19.916998 1.704573 4.956909 2.262592 1.451744 0.734330
time 10
  0   -0.265238 0.436954 25.375927 0.013799 -0.074828 -2.155212
  1   -0.526041 0.000001 9.745319 -1.570795 -1.570451 0.000000
  2   -0.000008 0.000010 5.615750 -0.142841 3.570907 -0.722003
  3   15.693467 0.000000 0.000000 0.000000 0.000000 -0.856454
  4   22.146629 -0.000001 0.000000 0.031372 -0.199910 -0.016674
  5   3.310129 5.734393 0.000000 0.000000 0.000000 1.570796
  6   0.000008 -0.000006 -5.615750 0.106041 2.801048 -0.222943
  7   15.693467 0.000000 0.000000 0.000000 0.000000 -0.976032
  8   22.146629 0.000000 0.000000 0.151064 0.276976 0.632251
  9   3.310129 5.734393 0.000000 0.000000 0.000000 1.570796
 10   1.384163 -0.004728 0.000002 0.311985 -0.136078 0.278388
 11   5.939814 -0.004730 0.000000 0.344821 0.013710 0.118596
 12   5.939809 -0.003975 0.000000 -0.132381 -0.022699 0.002361
 13   4.991439 -0.003975 0.000000 0.174261 0.039681 0.147435
 14   4.991436 -0.001575 0.000000 0.000012 0.018284 0.000000
 15   -0.066403 0.001564 3.638375 -0.478416 -1.361117 3.612036
 16   8.842831 0.000000 -0.000002 -0.996647 0.357267 -0.983591
 17   9.341934 0.000000 -0.000001 0.000000 0.000000 -0.108238
 18   11.168404 -0.000001 0.000002 -0.968380 -0.227678 -0.081137
 19   0.066413 0.001585 -3.638375 -0.000010 1.302502 3.140787
 20   8.842831 0.000000 0.000001 0.048295 -1.110530 0.283367
 21   9.341937 0.000000 -0.000001 0.000000 0.000000 -0.958643
 22   11.168404 -0.000001 0.000001 1.125799 -0.045995 -0.025704
 23   1.977383 0.000000 0.000000 -0.101020 -0.168835 -0.196585
 24   3.723980 2.768054 -0.049087 0.000001 -3.141591 -1.570794
 25   12.421014 0.304721 4.492689 -0.091859 -0.075839 1.616818
 26   19.916998 1.704573 4.956909 2.262592 1.451744 0.734330
time 11
  0   -0.415957 0.422866 24.807428 0.005781 -0.074255 -2.200274
  1   -0.526041 0.000001 9.745319 -1.570795 -1.570451 0.000000
  2   -0.000008 0.000010 5.615750 -0.109480 3.601476 -0.762240
  3   15.693467 0.000000 0.000000 0.000000 0.000000 -0.937622
  4   22.146629 -0.000001 0.000000 -0.004936 -0.221407 0.026410
  5   3.310129 5.734393 0.000000 0.000000 0.000000 1.570796
  6   0.000008 -0.000006 -5.615750 0.086002 2.791077 -0.274000
  7   15.693467 0.000000 0.000000 0.000000 0.000000 -1.035057
  8   22.146629 0.000000 0.000000 0.105655 0.290914 0.641411
  9   3.310129 5.734393 0.000000 0.000000 0.000000 1.570796
 10   1.384163 -0.004728 0.000002 0.295189 -0.152635 0.307339
 11   5.939814 -0.004730 0.000000 0.340772 0.008401 0.132517
 12   5.939809 -0.003975 0.000000 -0.131003 -0.034504 0.004547
 13   4.991439 -0.003975 0.000000 0.172008 0.025024 0.163581
 14   4.991436 -0.001575 0.000000 0.000012 0.017450 0.000000
 15   -0.062497 0.001564 3.638375 -0.368833 -1.301730 3.499094
 16   8.842831 0.000000 -0.000002 -0.774987 0.750108 -1.031368
 17   9.341934 0.000000 -0.000001 0.000000 0.000000 -0.002372
 18   11.168404 -0.000001 0.000002 -1.404738 -0.227678 -0.081137
 19   0.062507 0.001585 -3.638375 -0.000010 1.301679 3.140787
 20   8.842831 0.000000 0.000001 0.267838 -1.113363 0.043749
 21   9.341937 0.000000 -0.000001 0.000000 0.000000 -0.791233
 22   11.168404 -0.000001 0.000001 1.101749 -0.019729 -0.108432
 23   1.977383 0.000000 0.000000 -0.047576 -0.137174 -0.254342
 24   3.723980 2.768054 -0.049087 0.000001 -3.141591 -1.570794
 25   12.421014 0.304721 4.492689 -0.091859 -0.075839 1.616818
 26   19.916998 1.704573 4.956909 2.262592 1.451744 0.734330
time 12
  0   -0.453637 0.401734 23.788052 0.002517 -0.070719 -2.211204
  1   -0.526041 0.000001 9.745319 -1.570795 -1.570451 0.000000
  2   -0.000008 0.000010 5.615750 -0.063847 3.619875 -0.848544
  3   15.693467 0.000000 0.000000 0.000000 0.000000 -1.051797
  4   22.146629 -0.000001 0.000000 -0.011330 -0.232106 0.065652
  5   3.310129 5.734393 0.000000 0.000000 0.000000 1.570796
  6   0.000008 -0.000006 -5.615750 0.058869 2.779955 -0.337260
  7   15.693467 0.000000 0.000000 0.000000 0.000000 -1.133680
  8   22.146629 0.000000 0.000000 0.097419 0.303041 0.683600
  9   3.310129 5.734393 0.000000 0.000000 0.000000 1.570796
 10   1.384163 -0.004728 0.000002 0.301853 -0.165033 0.327903
 11   5.939814 -0.004730 0.000000 0.346490 0.005429 0.142384
 12   5.939809 -0.003975 0.000000 -0.133364 -0.038962 0.007858
 13   4.991439 -0.003975 0.000000 0.174793 0.020194 0.172613
 14   4.991436 -0.001575 0.000000 0.000012 0.016502 0.000000
 15   -0.058591 0.001564 3.638375 -0.367012 -1.296034 3.496793
 16   8.842831 0.000000 -0.000002 -0.777639 0.885272 -1.073694
 17   9.341934 0.000000 -0.000001 0.000000 0.000000 -0.101596
 18   11.168404 -0.000001 0.000002 -1.411518 -0.236865 -0.100399
 19   0.058601 0.001585 -3.638375 -0.000010 1.300753 3.140787
 20   8.842831 0.000000 0.000001 -0.106748 -1.132839 0.505447
 21   9.341937 0.000000 -0.000001 0.000000 0.000000 -1.058703
 22   11.168404 -0.000001 0.000001 1.096156 -0.029594 -0.050523
 23   1.977383 0.000000 0.000000 -0.049479 -0.115836 -0.308073
 24   3.723980 2.768054 -0.049087 0.000001 -3.141591 -1.570794
 25   12.421014 0.304721 4.492689 -0.091859 -0.075839 1.616818
 26   19.916998 1.704573 4.956909 2.262592 1.451744 0.734330
time 13
  0   -0.461173 0.373558 22.553038 0.000000 -0.066514 -2.214464
  1   -0.526041 0.000001 9.745319 -1.570795 -1.570451 0.000000
  2   -0.000008 0.000010 5.615750 -0.011791 3.633291 -0.948229
  3   15.693467 0.000000 0.000000 0.000000 0.000000 -1.171948
  4   22.146629 -0.000001 0.000000 -0.010059 -0.241418 0.100732
  5   3.310129 5.734393 0.000000 0.000000 0.000000 1.570796
  6   0.000008 -0.000006 -5.615750 0.028093 2.769697 -0.403395
  7   15.693467 0.000000 0.000000 0.000000 0.000000 -1.241458
  8   22.146629 0.000000 0.000000 0.097983 0.316334 0.733981
  9   3.310129 5.734393 0.000000 0.000000 0.000000 1.570796
 10   1.384163 -0.004728 0.000002 0.312826 -0.169273 0.337197
 11   5.939814 -0.004730 0.000000 0.352386 0.004710 0.145864
 12   5.939809 -0.003975 0.000000 -0.135737 -0.036889 0.011668
 13   4.991439 -0.003975 0.000000 0.177850 0.022867 0.172344
 14   4.991436 -0.001575 0.000000 0.000012 0.015438 0.000000
 15   -0.054684 0.001564 3.638375 -0.379667 -1.300678 3.509449
 16   8.842831 0.000000 -0.000002 -0.828848 0.989739 -1.129010
 17   9.341934 0.000000 -0.000001 0.000000 0.000000 -0.238049
 18   11.168404 -0.000001 0.000002 -1.346289 -0.244809 -0.120152
 19   0.054694 0.001585 -3.638375 -0.000010 1.299673 3.140787
 20   8.842831 0.000000 0.000001 -0.446503 -1.059628 0.939599
 21   9.341937 0.000000 -0.000001 0.000000 0.000000 -1.288801
 22   11.168404 -0.000001 0.000001 1.104732 -0.039502 -0.012543
 23   1.977383 0.000000 0.000000 -0.060316 -0.102927 -0.339486
 24   3.723980 2.768054 -0.049087 0.000001 -3.141591 -1.570794
 25   12.421014 0.304721 4.492689 -0.091859 -0.075839 1.616818
 26   19.916998 1.704573 4.956909 2.262592 1.451744 0.734330
time 14
  0   -0.453637 0.338338 22.082556 -0.001772 -0.061736 -2.211204
  1   -0.526041 0.000001 9.745319 -1.570795 -1.570451 0.000000
  2   -0.000008 0.000010 5.615750 0.008054 3.635687 -0.989613
  3   15.693467 0.000000 0.000000 0.000000 0.000000 -1.215413
  4   22.146629 -0.000001 0.000000 -0.006170 -0.243226 0.112669
  5   3.310129 5.734393 0.000000 0.000000 0.000000 1.570796
  6   0.000008 -0.000006 -5.615750 0.018601 2.767588 -0.424505
  7   15.693467 0.000000 0.000000 0.000000 0.000000 -1.276441
  8   22.146629 0.000000 0.000000 0.103398 0.321461 0.754150
  9   3.310129 5.734393 0.000000 0.000000 0.000000 1.570796
 10   1.384163 -0.004728 0.000002 0.291250 -0.160203 0.332728
 11   5.939814 -0.004730 0.000000 0.340825 0.005477 0.140739
 12   5.939809 -0.003975 0.000000 -0.131297 -0.033353 0.013205
 13   4.991439 -0.003975 0.000000 0.172008 0.025024 0.163581
 14   4.991436 -0.001575 0.000000 0.000012 0.014259 0.000000
 15   -0.050778 0.001564 3.638375 -0.373052 -1.304741 3.503217
 16   8.842831 0.000000 -0.000002 -0.862682 1.013832 -1.158124
 17   9.341934 0.000000 -0.000001 0.000000 0.000000 -0.356872
 18   11.168404 -0.000001 0.000002 -1.422215 -0.227678 -0.081137
 19   0.050788 0.001585 -3.638375 -0.000010 1.298490 3.140787
 20   8.842831 0.000000 0.000001 -0.551719 -0.994206 1.037962
 21   9.341937 0.000000 -0.000001 0.000000 0.000000 -1.354952
 22   11.168404 -0.000001 0.000001 1.106130 -0.014164 0.019890
 23   1.977383 0.000000 0.000000 -0.026273 -0.080896 -0.341424
 24   3.723980 2.768054 -0.049087 0.000001 -3.141591 -1.570794
 25   12.421014 0.304721 4.492689 -0.091859 -0.075839 1.616818
 26   19.916998 1.704573 4.956909 2.262592 1.451744 0.734330
time 15
  0   -0.431029 0.310162 22.396210 -0.003077 -0.056384 -2.202287
  1   -0.526041 0.000001 9.745319 -1.570795 -1.570451 0.000000
  2   -0.000008 0.000010 5.615750 -0.003738 3.630704 -0.974894
  3   15.693467 0.000000 0.000000 0.000000 0.000000 -1.189875
  4   22.146629 -0.000001 0.000000 -0.000972 -0.237604 0.106083
  5   3.310129 5.734393 0.000000 0.000000 0.000000 1.570796
  6   0.000008 -0.000006 -5.615750 0.030010 2.772285 -0.404517
  7   15.693467 0.000000 0.000000 0.000000 0.000000 -1.244435
  8   22.146629 0.000000 0.000000 0.112255 0.317961 0.745607
  9   3.310129 5.734393 0.000000 0.000000 0.000000 1.570796
 10   1.384163 -0.004728 0.000002 0.238136 -0.142197 0.318609
 11   5.939814 -0.004730 0.000000 0.313121 0.006651 0.129840
 12   5.939809 -0.003975 0.000000 -0.120617 -0.030645 0.012505
 13   4.991439 -0.003975 0.000000 0.157882 0.024041 0.150143
 14   4.991436 -0.001575 0.000000 0.000000 0.012980 0.000000
 15   -0.046871 0.001564 3.638375 -0.342564 -1.304632 3.473304
 16   8.842831 0.000000 -0.000002 -0.844942 0.973924 -1.143641
 17   9.341934 0.000000 -0.000001 0.000000 0.000000 -0.449536
 18   11.168404 -0.000001 0.000002 -1.652188 -0.173414 0.007163
 19   0.046881 0.001585 -3.638375 -0.000010 1.297204 3.140787
 20   8.842831 0.000000 0.000001 -0.536320 -0.977297 0.916819
 21   9.341937 0.000000 -0.000001 0.000000 0.000000 -1.294597
 22   11.168404 -0.000001 0.000001 1.102961 0.040560 0.064451
 23   1.977383 0.000000 0.000000 0.049268 -0.045378 -0.322437
 24   3.723980 2.768054 -0.049087 0.000001 -3.141591 -1.570794
 25   12.421014 0.304721 4.492689 -0.091859 -0.075839 1.616818
 26   19.916998 1.704573 4.956909 2.262592 1.451744 0.734330
time 16
  0   -0.385813 0.274942 22.827486 -0.003729 -0.050554 -2.188769
  1   -0.526041 0.000001 9.745319 -1.570795 -1.570451 0.000000
  2   -0.000008 0.000010 5.615750 -0.021186 3.622654 -0.952721
  3   15.693467 0.000000 0.000000 0.000000 0.000000 -1.152101
  4   22.146629 -0.000001 0.000000 0.007591 -0.229357 0.094649
  5   3.310129 5.734393 0.000000 0.000000 0.000000 1.570796
  6   0.000008 -0.000006 -5.615750 0.045255 2.778901 -0.376253
  7   15.693467 0.000000 0.000000 0.000000 0.000000 -1.200743
  8   22.146629 0.000000 0.000000 0.125511 0.312496 0.733716
  9   3.310129 5.734393 0.000000 0.000000 0.000000 1.570796
 10   1.384163 -0.004728 0.000002 0.179872 -0.123117 0.301284
 11   5.939814 -0.004730 0.000000 0.282736 0.007682 0.117563
 12   5.939809 -0.003975 0.000000 -0.108903 -0.027696 0.011493
 13   4.991439 -0.003975 0.000000 0.142421 0.022759 0.135426
 14   4.991436 -0.001575 0.000000 0.000000 0.011629 0.000000
 15   -0.039059 0.001564 3.638375 -0.307858 -1.304161 3.439268
 16   8.842831 0.000000 -0.000002 -0.808730 0.919505 -1.117813
 17   9.341934 0.000000 -0.000001 0.000000 0.000000 -0.543183
 18   11.168404 -0.000001 0.000002 -1.903363 -0.091013 0.091189
 19   0.039069 0.001585 -3.638375 -0.000010 1.295867 3.140787
 20   8.842831 0.000000 0.000001 -0.695636 -0.891603 0.971624
 21   9.341937 0.000000 -0.000001 0.000000 0.000000 -1.585450
 22   11.168404 -0.000001 0.000001 1.156562 0.002616 0.049033
 23   1.977383 0.000000 0.000000 0.127610 -0.005219 -0.297535
 24   3.723980 2.768054 -0.049087 0.000001 -3.141591 -1.570794
 25   12.421014 0.304721 4.492689 -0.091859 -0.075839 1.616818
 26   19.916998 1.704573 4.956909 2.262592 1.451744 0.734330
time 17
  0   -0.333062 0.239722 23.356777 -0.004009 -0.044438 -2.171607
  1   -0.526041 0.000001 9.745319 -1.570795 -1.570451 0.000000
  2   -0.000008 0.000010 5.615750 -0.043043 3.611730 -0.923762
  3   15.693467 0.000000 0.000000 0.000000 0.000000 -1.103158
  4   22.146629 -0.000001 0.000000 0.018958 -0.219203 0.078641
  5   3.310129 5.734393 0.000000 0.000000 0.000000 1.570796
  6   0.000008 -0.000006 -5.615750 0.063280 2.787433 -0.340906
  7   15.693467 0.000000 0.000000 0.000000 0.000000 -1.146184
  8   22.146629 0.000000 0.000000 0.142208 0.305466 0.718303
  9   3.310129 5.734393 0.000000 0.000000 0.000000 1.570796
 10   1.384163 -0.004728 0.000002 0.117232 -0.103662 0.280914
 11   5.939814 -0.004730 0.000000 0.250113 0.008437 0.104178
 12   5.939809 -0.003975 0.000000 -0.096335 -0.024544 0.010244
 13   4.991439 -0.003975 0.000000 0.125869 0.021129 0.119667
 14   4.991436 -0.001575 0.000000 0.000000 0.010206 0.000000
 15   -0.035152 0.001564 3.638375 -0.269892 -1.303217 3.402260
 16   8.842831 0.000000 -0.000002 -0.759807 0.852435 -1.084966
 17   9.341934 0.000000 -0.000001 0.000000 0.000000 -0.635683
 18   11.168404 -0.000001 0.000002 -2.167623 0.019333 0.156886
 19   0.035162 0.001585 -3.638375 -0.000010 1.294427 3.140787
 20   8.842831 0.000000 0.000001 -0.758120 -0.842294 0.885747
 21   9.341937 0.000000 -0.000001 0.000000 0.000000 -1.788767
 22   11.168404 -0.000001 0.000001 1.224426 -0.010664 0.032581
 23   1.977383 0.000000 0.000000 0.208383 0.038543 -0.265525
 24   3.723980 2.768054 -0.049087 0.000001 -3.141591 -1.570794
 25   12.421014 0.304721 4.492689 -0.091859 -0.075839 1.616818
 26   19.916998 1.704573 4.956909 2.262592 1.451744 0.734330
time 18
  0   -0.280310 0.204502 23.964481 -0.003823 -0.038035 -2.151856
  1   -0.526041 0.000001 9.745319 -1.570795 -1.570790 0.000000
  2   -0.000008 0.000010 5.615750 -0.068065 3.598122 -0.888494
  3   15.693467 0.000000 0.000000 0.000000 0.000000 -1.043759
  4   22.146629 -0.000001 0.000000 0.032345 -0.207811 0.058471
  5   3.310129 5.734393 0.000000 0.000000 0.000000 1.570796
  6   0.000008 -0.000006 -5.615750 0.083414 2.797788 -0.299318
  7   15.693467 0.000000 0.000000 0.000000 0.000000 -1.081428
  8   22.146629 0.000000 0.000000 0.161387 0.297330 0.699014
  9   3.310129 5.734393 0.000000 0.000000 0.000000 1.570796
 10   1.384163 -0.004728 0.000002 0.051024 -0.084529 0.257760
 11   5.939814 -0.004730 0.000000 0.215768 0.008797 0.089932
 12   5.939809 -0.003975 0.000000 -0.083104 -0.021225 0.008807
 13   4.991439 -0.003975 0.000000 0.108456 0.019127 0.103100
 14   4.991436 -0.001575 0.000000 0.000000 0.008754 0.000000
 15   -0.031246 0.001564 3.638375 -0.230009 -1.301766 3.363334
 16   8.842831 0.000000 -0.000002 -0.703112 0.774759 -1.049060
 17   9.341934 0.000000 -0.000001 0.000000 0.000000 -0.724984
 18   11.168404 -0.000001 0.000002 -2.442483 0.150543 0.192019
 19   0.031256 0.001585 -3.638375 -0.000010 1.292987 3.140787
 20   8.842831 0.000000 0.000001 -0.741350 -0.838576 0.684636
 21   9.341937 0.000000 -0.000001 0.000000 0.000000 -1.912476
 22   11.168404 -0.000001 0.000001 1.309442 -0.000799 0.022240
 23   1.977383 0.000000 0.000000 0.291430 0.084591 -0.225264
 24   3.723980 2.768054 -0.049087 0.000001 -3.141591 -1.570794
 25   12.421014 0.304721 4.492689 -0.091859 -0.075839 1.616818
 26   19.916998 1.704573 4.956909 2.262592 1.451744 0.734330
time 19
  0   -0.220022 0.169282 24.630997 -0.003263 -0.031537 -2.130476
  1   -0.526041 0.000001 9.745319 -1.570795 -1.570790 0.000000
  2   -0.000008 0.000010 5.615750 -0.095099 3.582023 -0.847588
  3   15.693467 0.000000 0.000000 0.000000 0.000000 -0.974542
  4   22.146629 -0.000001 0.000000 0.047077 -0.195774 0.034322
  5   3.310129 5.734393 0.000000 0.000000 0.000000 1.570796
  6   0.000008 -0.000006 -5.615750 0.104698 2.810060 -0.252469
  7   15.693467 0.000000 0.000000 0.000000 0.000000 -1.006921
  8   22.146629 0.000000 0.000000 0.182033 0.288520 0.675762
  9   3.310129 5.734393 0.000000 0.000000 0.000000 1.570796
 10   1.384163 -0.004728 0.000002 -0.017877 -0.066309 0.232177
 11   5.939814 -0.004730 0.000000 0.180162 0.008677 0.075035
 12   5.939809 -0.003975 0.000000 -0.069387 -0.017773 0.007271
 13   4.991439 -0.003975 0.000000 0.090440 0.016742 0.085962
 14   4.991436 -0.001575 0.000000 0.000000 0.007259 0.000000
 15   -0.023433 0.001564 3.638375 -0.189167 -1.299807 3.323545
 16   8.842831 0.000000 -0.000002 -0.642302 0.688619 -1.013004
 17   9.341934 0.000000 -0.000001 0.000000 0.000000 -0.809120
 18   11.168404 -0.000001 0.000002 -2.731382 0.290940 0.186565
 19   0.023443 0.001585 -3.638375 -0.000010 1.291496 3.140787
 20   8.842831 0.000000 0.000001 -0.634038 -0.873544 0.377346
 21   9.341937 0.000000 -0.000001 0.000000 0.000000 -1.953979
 22   11.168404 -0.000001 0.000001 1.411705 0.023738 0.007293
 23   1.977383 0.000000 0.000000 0.376750 0.131054 -0.175957
 24   3.723980 2.768054 -0.049087 0.000001 -3.141591 -1.570794
 25   12.421014 0.304721 4.492689 -0.091859 -0.075839 1.616818
 26   19.916998 1.704573 4.956909 2.262592 1.451744 0.734330
time 20
  0   -0.152199 0.134061 25.317116 -0.002517 -0.024943 -2.108424
  1   -0.526041 0.000001 9.745319 -1.570795 -1.570790 0.000000
  2   -0.000008 0.000010 5.615750 -0.123284 3.563528 -0.801234
  3   15.693467 0.000000 0.000000 0.000000 0.000000 -0.895864
  4   22.146629 -0.000001 0.000000 0.062408 -0.183664 0.006469
  5   3.310129 5.734393 0.000000 0.000000 0.000000 1.570796
  6   0.000008 -0.000006 -5.615750 0.126654 2.824249 -0.200781
  7   15.693467 0.000000 0.000000 0.000000 0.000000 -0.923036
  8   22.146629 0.000000 0.000000 0.203243 0.279463 0.648193
  9   3.310129 5.734393 0.000000 0.000000 0.000000 1.570796
 10   1.384163 -0.004728 0.000002 -0.088730 -0.049537 0.204619
 11   5.939814 -0.004730 0.000000 0.143774 0.008018 0.059757
 12   5.939809 -0.003975 0.000000 -0.055377 -0.014226 0.005672
 13   4.991439 -0.003975 0.000000 0.072093 0.013986 0.068504
 14   4.991436 -0.001575 0.000000 0.000000 0.005764 0.000000
 15   -0.019527 0.001564 3.638375 -0.148613 -1.297413 3.284236
 16   8.842831 0.000000 -0.000002 -0.580486 0.595781 -0.978814
 17   9.341934 0.000000 -0.000001 0.000000 0.000000 -0.885875
 18   11.168404 -0.000001 0.000002 -3.041483 0.424350 0.132858
 19   0.019537 0.001585 -3.638375 -0.000010 1.290004 3.140787
 20   8.842831 0.000000 0.000001 -0.464402 -0.939231 -0.041747
 21   9.341937 0.000000 -0.000001 0.000000 0.000000 -2.006874
 22   11.168404 -0.000001 0.000001 1.503153 0.104855 0.302575
 23   1.977383 0.000000 0.000000 0.464501 0.175879 -0.117356
 24   3.723980 2.768054 -0.049087 0.000001 -3.141591 -1.570794
 25   12.421014 0.304721 4.492689 -0.091859 -0.075839 1.616818
 26   19.916998 1.704573 4.956909 2.262592 1.451744 0.734330
time 21
  0   -0.084375 0.098841 26.022839 -0.001678 -0.018444 -2.086660
  1   -0.526041 0.000001 9.745319 -1.570795 -1.570451 0.000000
  2   -0.000008 0.000010 5.615750 -0.151661 3.543020 -0.749911
  3   15.693467 0.000000 0.000000 0.000000 0.000000 -0.808152
  4   22.146629 -0.000001 0.000000 0.077590 -0.171999 -0.025089
  5   3.310129 5.734393 0.000000 0.000000 0.000000 1.570796
  6   0.000008 -0.000006 -5.615750 0.148610 2.840260 -0.144675
  7   15.693467 0.000000 0.000000 0.000000 0.000000 -0.829623
  8   22.146629 0.000000 0.000000 0.224058 0.270499 0.615957
  9   3.310129 5.734393 0.000000 0.000000 0.000000 1.570796
 10   1.384163 -0.004728 0.000002 -0.160559 -0.034617 0.175668
 11   5.939814 -0.004730 0.000000 0.107067 0.006807 0.044363
 12   5.939809 -0.003975 0.000000 -0.041252 -0.010630 0.004098
 13   4.991439 -0.003975 0.000000 0.053618 0.010894 0.050945
 14   4.991436 -0.001575 0.000000 0.000000 0.004269 0.000000
 15   -0.011714 0.001564 3.638375 -0.109305 -1.294619 3.246174
 16   8.842831 0.000000 -0.000002 -0.519767 0.498291 -0.947685
 17   9.341934 0.000000 -0.000001 0.000000 0.000000 -0.953281
 18   11.168404 -0.000001 0.000002 -3.378134 0.532017 0.027949
 19   0.011724 0.001585 -3.638375 -0.000010 1.288513 3.140787
 20   8.842831 0.000000 0.000001 -0.090220 -0.984911 -0.645176
 21   9.341937 0.000000 -0.000001 0.000000 0.000000 -1.927598
 22   11.168404 -0.000001 0.000001 1.617068 0.134493 0.551229
 23   1.977383 0.000000 0.000000 0.554631 0.216777 -0.049608
 24   3.723980 2.768054 -0.049087 0.000001 -3.141591 -1.570794
 25   12.421014 0.304721 4.492689 -0.091859 -0.075839 1.616818
 26   19.916998 1.704573 4.956909 2.262592 1.451744 0.734330
time 22
  0   -0.024087 0.063621 26.728561 -0.000839 -0.012041 -2.066238
  1   -0.526041 0.000001 9.745319 -1.570795 -1.570451 0.000000
  2   -0.000008 0.000010 5.615750 -0.179655 3.520788 -0.693521
  3   15.693467 0.000000 0.000000 0.000000 0.000000 -0.711263
  4   22.146629 -0.000001 0.000000 0.091948 -0.161226 -0.060306
  5   3.310129 5.734393 0.000000 0.000000 0.000000 1.570796
  6   0.000008 -0.000006 -5.615750 0.170278 2.857996 -0.084150
  7   15.693467 0.000000 0.000000 0.000000 0.000000 -0.726237
  8   22.146629 0.000000 0.000000 0.243576 0.262056 0.578700
  9   3.310129 5.734393 0.000000 0.000000 0.000000 1.570796
 10   1.384163 -0.004728 0.000002 -0.232456 -0.021898 0.145875
 11   5.939814 -0.004730 0.000000 0.070555 0.005034 0.029104
 12   5.939809 -0.003975 0.000000 -0.027191 -0.007035 0.002586
 13   4.991439 -0.003975 0.000000 0.035286 0.007490 0.033520
 14   4.991436 -0.001575 0.000000 0.000000 0.002803 0.000000
 15   -0.007808 0.001564 3.638375 -0.072298 -1.291572 3.210316
 16   8.842831 0.000000 -0.000002 -0.462249 0.397918 -0.920213
 17   9.341934 0.000000 -0.000001 0.000000 0.000000 -1.009290
 18   11.168404 -0.000001 0.000002 -3.735606 0.596521 -0.119071
 19   0.007818 0.001585 -3.638375 -0.000010 1.287021 3.140787
 20   8.842831 0.000000 0.000001 0.355558 -0.934716 -1.282822
 21   9.341937 0.000000 -0.000001 0.000000 0.000000 -1.731542
 22   11.168404 -0.000001 0.000001 1.708050 0.120749 0.697883
 23   1.977383 0.000000 0.000000 0.646982 0.251463 0.026341
 24   3.723980 2.768054 -0.049087 0.000001 -3.141591 -1.570794
 25   12.421014 0.304721 4.492689 -0.091859 -0.075839 1.616818
 26   19.916998 1.704573 4.956909 2.262592 1.451744 0.734330
time 23
  0   0.028664 0.028401 27.414679 -0.000186 -0.005830 -2.048118
  1   -0.526041 0.000001 9.745319 -1.570795 -1.570451 0.000000
  2   -0.000008 0.000010 5.615750 -0.206785 3.497118 -0.631875
  3   15.693467 0.000000 0.000000 0.000000 0.000000 -0.604842
  4   22.146629 -0.000001 0.000000 0.104662 -0.151790 -0.099457
  5   3.310129 5.734393 0.000000 0.000000 0.000000 1.570796
  6   0.000008 -0.000006 -5.615750 0.191371 2.877651 -0.018365
  7   15.693467 0.000000 0.000000 0.000000 0.000000 -0.611611
  8   22.146629 0.000000 0.000000 0.260780 0.254473 0.535630
  9   3.310129 5.734393 0.000000 0.000000 0.000000 1.570796
 10   1.384163 -0.004728 0.000002 -0.303477 -0.011486 0.115920
 11   5.939814 -0.004730 0.000000 0.034700 0.002744 0.014227
 12   5.939809 -0.003975 0.000000 -0.013372 -0.003476 0.001199
 13   4.991439 -0.003975 0.000000 0.017327 0.003835 0.016466
 14   4.991436 -0.001575 0.000000 0.000000 0.001366 0.000000
 15   -0.003901 0.001564 3.638375 -0.035962 -1.288162 3.175321
 16   8.842831 0.000000 -0.000002 -0.441583 0.182474 -0.910957
 17   9.341934 0.000000 -0.000001 0.000000 0.000000 -0.963122
 18   11.168404 -0.000001 0.000002 -4.131565 0.578720 -0.325450
 19   0.003911 0.001585 -3.638375 -0.000010 1.285581 3.140787
 20   8.842831 0.000000 0.000001 0.711358 -0.783955 -1.801899
 21   9.341937 0.000000 -0.000001 0.000000 0.000000 -1.430630
 22   11.168404 -0.000001 0.000001 1.766779 0.095537 0.730881
 23   1.977383 0.000000 0.000000 0.741024 0.277882 0.109049
 24   3.723980 2.768054 -0.049087 0.000001 -3.141591 -1.570794
 25   12.421014 0.304721 4.492689 -0.091859 -0.075839 1.616818
 26   19.916998 1.704573 4.956909 2.262592 1.451744 0.734330
time 24
  0   0.073880 -0.006819 28.041988 0.000000 0.000000 -2.033353
  1   -0.526041 0.000001 9.745319 -1.570795 -1.570451 0.000000
  2   -0.000008 0.000010 5.615750 -0.233053 3.472298 -0.563921
  3   15.693467 0.000000 0.000000 0.000000 0.000000 -0.487323
  4   22.146629 -0.000001 0.000000 0.114982 -0.144038 -0.143135
  5   3.310129 5.734393 0.000000 0.000000 0.000000 1.570796
  6   0.000008 -0.000006 -5.615750 0.212080 2.899510 0.054433
  7   15.693467 0.000000 0.000000 0.000000 0.000000 -0.482099
  8   22.146629 0.000000 0.000000 0.274883 0.248026 0.484986
  9   3.310129 5.734393 0.000000 0.000000 0.000000 1.570796
 10   1.384163 -0.004728 0.000002 -0.372579 -0.003463 0.086548
 11   5.939814 -0.004730 0.000000 0.000000 0.000000 0.000000
 12   5.939809 -0.003975 0.000000 0.000000 0.000000 0.000000
 13   4.991439 -0.003975 0.000000 0.000000 0.000000 0.000000
 14   4.991436 -0.001575 0.000000 0.000000 0.000000 0.000000
 15   0.000005 0.001564 3.638375 -0.000010 -1.284244 3.140806
 16   8.842831 0.000000 -0.000002 -0.414972 -0.110832 -0.914689
 17   9.341934 0.000000 -0.000001 0.000000 0.000000 -0.853073
 18   11.168404 -0.000001 0.000002 -4.515872 0.471532 -0.520821
 19   0.000005 0.001585 -3.638375 -0.000010 1.284244 3.140787
 20   8.842831 0.000000 0.000001 0.955975 -0.539709 -2.199069
 21   9.341937 0.000000 -0.000001 0.000000 0.000000 -0.994883
 22   11.168404 -0.000001 0.000001 1.804999 0.075469 0.649469
 23   1.977383 0.000000 0.000000 0.835700 0.294324 0.196082
 24   3.723980 2.768054 -0.049087 0.000001 -3.141591 -1.570794
 25   12.421014 0.304721 4.492689 -0.091859 -0.075839 1.616818
 26   19.916998 1.704573 4.956909 2.262592 1.451744 0.734330
end
