version 1
nodes
  0 "Bip01" -1
  1 "Bip01 Pelvis" 0
  2 "Bip01 L Thigh" 1
  3 "Bip01 L Calf" 2
  4 "Bip01 L Foot" 3
  5 "Bip01 L Toe0" 4
  6 "Bip01 R Thigh" 1
  7 "Bip01 R Calf" 6
  8 "Bip01 R Foot" 7
  9 "Bip01 R Toe0" 8
 10 "Bip01 Spine" 1
 11 "Bip01 Spine1" 10
 12 "Bip01 Spine2" 11
 13 "Bip01 Spine3" 12
 14 "Bip01 Neck" 13
 15 "Bip01 L Clavicle" 14
 16 "Bip01 L UpperArm" 15
 17 "Bip01 L Forearm" 16
 18 "Bip01 L Hand" 17
 19 "Bip01 R Clavicle" 14
 20 "Bip01 R UpperArm" 19
 21 "Bip01 R Forearm" 20
 22 "Bip01 R Hand" 21
 23 "Bip01 Head" 14
 24 "Bone05" 23
 25 "m4" 22
 26 "SHOTGUN" 22
end
skeleton
time 0
  0   0.073880 -0.006819 28.375246 -0.017435 0.026090 -1.745819
  1   -0.526041 0.000001 9.745319 -1.570795 -1.570451 0.000000
  2   -0.000008 0.000010 5.615750 -0.332755 3.338041 -0.722958
  3   15.693467 0.000000 0.000000 0.000000 0.000000 -0.438452
  4   22.146629 -0.000001 0.000000 -0.071569 -0.094309 0.127076
  5   3.310129 5.734393 0.000000 0.000000 0.000000 1.570796
  6   0.000008 -0.000006 -5.615750 0.112944 2.950131 0.254101
  7   15.693467 0.000000 0.000000 0.000000 0.000000 -1.485298
  8   22.146629 0.000000 0.000000 -0.215371 -0.054186 0.198559
  9   3.310129 5.734393 0.000000 0.000000 0.000000 1.570796
 10   1.384163 -0.004728 0.000002 -0.171768 0.006815 0.146781
 11   5.939814 -0.004730 0.000000 0.000000 0.000000 0.000000
 12   5.939809 -0.003975 0.000000 0.000000 0.000000 0.000000
 13   4.991439 -0.003975 0.000000 0.000000 0.000000 0.000000
 14   4.991436 -0.001575 0.000000 0.000000 0.000000 0.000000
 15   0.000005 0.001564 3.638375 -0.000010 -1.284244 3.140806
 16   8.842831 0.000000 -0.000002 0.157375 0.402848 -0.632437
 17   9.341934 0.000000 -0.000001 0.000000 0.000000 -2.116661
 18   11.168404 -0.000001 0.000002 -3.926422 -0.570487 0.882257
 19   0.000005 0.001585 -3.638375 -0.000010 1.284244 3.140787
 20   8.842831 0.000000 0.000001 0.404659 -0.967560 -0.929210
 21   9.341937 0.000000 -0.000001 0.000000 0.000000 -1.582319
 22   11.168404 -0.000001 0.000001 1.987616 -0.909351 -0.239669
 23   1.977383 0.000000 0.000000 0.353649 0.020553 -0.019189
 24   3.723980 2.768054 -0.049087 0.000001 -3.141591 -1.570794
 25   12.421014 0.304721 4.492689 -0.091859 -0.075839 1.616818
 26   19.916998 1.704573 4.956909 2.262592 1.451744 0.734330
time 1
  0   0.073880 -6.146190 27.238249 -0.012494 0.026567 -1.726547
  1   -0.526041 0.000001 9.745319 -1.570795 -1.570451 0.000000
  2   -0.000008 0.000010 5.615750 -0.438784 3.345420 -0.717511
  3   15.693467 0.000000 0.000000 0.000000 0.000000 -0.595594
  4   22.146629 -0.000001 0.000000 -0.066334 0.102011 -0.122965
  5   3.310129 5.734393 0.000000 0.000000 0.000000 1.570796
  6   0.000008 -0.000006 -5.615750 0.044967 3.022228 0.045736
  7   15.693467 0.000000 0.000000 0.000000 0.000000 -1.807814
  8   22.146629 0.000000 0.000000 -0.108926 -0.071470 0.042574
  9   3.310129 5.734393 0.000000 0.000000 0.000000 1.570796
 10   1.384163 -0.004728 0.000002 -0.092365 0.012450 0.281789
 11   5.939814 -0.004730 0.000000 0.000000 0.000000 0.000000
 12   5.939809 -0.003975 0.000000 0.000000 -0.014501 0.000000
 13   4.991439 -0.003975 0.000000 0.000000 0.000000 0.000000
 14   4.991436 -0.001575 0.000000 0.000000 0.000000 0.000000
 15   0.000005 0.001564 3.638375 -0.000010 -1.284244 3.140806
 16   8.842831 0.000000 -0.000002 0.130033 0.296987 -0.623255
 17   9.341934 0.000000 -0.000001 0.000000 0.000000 -2.102966
 18   11.168404 -0.000001 0.000002 -3.933967 -0.576900 0.732829
 19   0.000005 0.001585 -3.638375 -0.000010 1.284244 3.140787
 20   8.842831 0.000000 0.000001 0.409416 -0.983671 -0.947415
 21   9.341937 0.000000 -0.000001 0.000000 0.000000 -1.644540
 22   11.168404 -0.000001 0.000001 1.810406 -0.839618 -0.148010
 23   1.977383 0.000000 0.000000 0.254479 0.036649 -0.147874
 24   3.723980 2.768054 -0.049087 0.000001 -3.141591 -1.570794
 25   12.421014 0.304721 4.492689 -0.091859 -0.075839 1.616818
 26   19.916998 1.704573 4.956909 2.262592 1.451744 0.734330
time 2
  0   0.073880 -12.334870 26.297285 -0.006154 0.026185 -1.698264
  1   -0.526041 0.000001 9.745319 -1.570795 -1.570451 0.000000
  2   -0.000008 0.000010 5.615750 -0.350203 3.365065 -0.786229
  3   15.693467 0.000000 0.000000 0.000000 0.000000 -0.983790
  4   22.146629 -0.000001 0.000000 -0.086863 0.074446 0.157674
  5   3.310129 5.734393 0.000000 0.000000 0.000000 1.570796
  6   0.000008 -0.000006 -5.615750 -0.074591 2.958281 -0.151548
  7   15.693467 0.000000 0.000000 0.000000 0.000000 -2.035577
  8   22.146629 0.000000 0.000000 -0.195853 -0.036349 -0.065938
  9   3.310129 5.734393 0.000000 0.000000 0.000000 1.570796
 10   1.384163 -0.004728 0.000002 0.030693 -0.000055 0.414432
 11   5.939814 -0.004730 0.000000 0.000000 0.000000 0.000000
 12   5.939809 -0.003975 0.000000 -0.000013 -0.031220 0.000000
 13   4.991439 -0.003975 0.000000 0.000000 0.000000 0.000000
 14   4.991436 -0.001575 0.000000 0.000000 0.000000 0.000000
 15   0.000005 0.001564 3.638375 -0.000010 -1.284244 3.140806
 16   8.842831 0.000000 -0.000002 0.073704 0.205916 -0.774869
 17   9.341934 0.000000 -0.000001 0.000000 0.000000 -1.951916
 18   11.168404 -0.000001 0.000002 -3.944950 -0.567425 0.564876
 19   0.000005 0.001585 -3.638375 -0.000010 1.284244 3.140787
 20   8.842831 0.000000 0.000001 0.389662 -1.008282 -0.853054
 21   9.341937 0.000000 -0.000001 0.000000 0.000000 -1.759255
 22   11.168404 -0.000001 0.000001 1.664423 -0.783756 -0.078819
 23   1.977383 0.000000 0.000000 0.098430 0.039166 -0.277007
 24   3.723980 2.768054 -0.049087 0.000001 -3.141591 -1.570794
 25   12.421014 0.304721 4.492689 -0.091859 -0.075839 1.616818
 26   19.916998 1.704573 4.956909 2.262592 1.451744 0.734330
time 3
  0   0.073879 -18.565815 25.415133 0.001026 0.024943 -1.663173
  1   -0.526041 0.000001 9.745319 -1.570795 -1.570451 0.000000
  2   -0.000008 0.000010 5.615750 -0.271400 3.306609 -0.720378
  3   15.693467 0.000000 0.000000 0.000000 0.000000 -1.159712
  4   22.146629 -0.000001 0.000000 -0.111505 0.039229 0.433053
  5   3.310129 5.734393 0.000000 0.000000 0.000000 1.570796
  6   0.000008 -0.000006 -5.615750 -0.081206 2.932490 -0.384249
  7   15.693467 0.000000 0.000000 0.000000 0.000000 -2.174914
  8   22.146629 0.000000 0.000000 -0.220504 -0.074663 -0.029209
  9   3.310129 5.734393 0.000000 0.000000 0.000000 1.570796
 10   1.384163 -0.004728 0.000002 0.107841 -0.016826 0.495553
 11   5.939814 -0.004730 0.000000 0.000000 0.000000 0.000000
 12   5.939809 -0.003975 0.000000 -0.000026 -0.039669 0.000000
 13   4.991439 -0.003975 0.000000 0.000000 0.000000 0.000000
 14   4.991436 -0.001575 0.000000 0.000000 0.000000 0.000000
 15   0.000005 0.001564 3.638375 -0.000010 -1.284244 3.140806
 16   8.842831 0.000000 -0.000002 -0.047459 0.118380 -0.904462
 17   9.341934 0.000000 -0.000001 0.000000 0.000000 -2.074101
 18   11.168404 -0.000001 0.000002 -3.968635 -0.466362 0.713911
 19   0.000005 0.001585 -3.638375 -0.000010 1.284244 3.140787
 20   8.842831 0.000000 0.000001 0.186487 -1.025722 -0.579410
 21   9.341937 0.000000 -0.000001 0.000000 0.000000 -2.166623
 22   11.168404 -0.000001 0.000001 1.607653 -0.723509 0.170117
 23   1.977383 0.000000 0.000000 -0.017709 0.028959 -0.355690
 24   3.723980 2.768054 -0.049087 0.000001 -3.141591 -1.570794
 25   12.421014 0.304721 4.492689 -0.091859 -0.075839 1.616818
 26   19.916998 1.704573 4.956909 2.262592 1.451744 0.734330
time 4
  0   0.073879 -24.831978 25.081875 0.008858 0.022840 -1.623096
  1   -0.526041 0.000001 9.745319 -1.570795 -1.570451 0.000000
  2   -0.000008 0.000010 5.615750 -0.199691 3.212792 -0.533051
  3   15.693467 0.000000 0.000000 0.000000 0.000000 -1.152385
  4   22.146629 -0.000001 0.000000 -0.140933 0.021101 0.661644
  5   3.310129 5.734393 0.000000 0.000000 0.000000 1.570796
  6   0.000008 -0.000006 -5.615750 -0.079481 2.906413 -0.636797
  7   15.693467 0.000000 0.000000 0.000000 0.000000 -2.325193
  8   22.146629 0.000000 0.000000 -0.240699 -0.125318 0.031828
  9   3.310129 5.734393 0.000000 0.000000 0.000000 1.570796
 10   1.384163 -0.004728 0.000002 0.091448 -0.014009 0.494452
 11   5.939814 -0.004730 0.000000 0.000000 0.000000 0.000000
 12   5.939809 -0.003975 0.000000 -0.000026 -0.033353 0.000000
 13   4.991439 -0.003975 0.000000 0.000000 0.000000 0.000000
 14   4.991436 -0.001575 0.000000 0.000000 0.000000 0.000000
 15   0.000005 0.001564 3.638375 -0.000010 -1.284244 3.140806
 16   8.842831 0.000000 -0.000002 -0.115311 0.104241 -0.883411
 17   9.341934 0.000000 -0.000001 0.000000 0.000000 -2.130355
 18   11.168404 -0.000001 0.000002 -3.980287 -0.401667 0.756562
 19   0.000005 0.001585 -3.638375 -0.000010 1.284244 3.140787
 20   8.842831 0.000000 0.000001 0.242844 -0.981458 -0.687972
 21   9.341937 0.000000 -0.000001 0.000000 0.000000 -2.210058
 22   11.168404 -0.000001 0.000001 1.617907 -0.687757 0.277475
 23   1.977383 0.000000 0.000000 -0.037215 0.022031 -0.352558
 24   3.723980 2.768054 -0.049087 0.000001 -3.141591 -1.570794
 25   12.421014 0.304721 4.492689 -0.091859 -0.075839 1.616818
 26   19.916998 1.704573 4.956909 2.262592 1.451744 0.734330
time 5
  0   0.073879 -31.133362 25.317116 0.016969 0.020069 -1.580240
  1   -0.526041 0.000001 9.745319 -1.570795 -1.570451 0.000000
  2   -0.000008 0.000010 5.615750 -0.122518 3.127217 -0.238202
  3   15.693467 0.000000 0.000000 0.000000 0.000000 -0.958109
  4   22.146629 -0.000001 0.000000 -0.164303 0.022487 0.770177
  5   3.310129 5.734393 0.000000 0.000000 0.000000 1.570796
  6   0.000008 -0.000006 -5.615750 -0.067113 2.884074 -0.852876
  7   15.693467 0.000000 0.000000 0.000000 0.000000 -2.408557
  8   22.146629 0.000000 0.000000 -0.249386 -0.155189 0.089871
  9   3.310129 5.734393 0.000000 0.000000 0.000000 1.570796
 10   1.384163 -0.004728 0.000002 0.031131 -0.002443 0.443642
 11   5.939814 -0.004730 0.000000 0.000000 0.000000 0.000000
 12   5.939809 -0.003975 0.000000 -0.000013 -0.018780 0.000000
 13   4.991439 -0.003975 0.000000 0.000000 0.000000 0.000000
 14   4.991436 -0.001575 0.000000 0.000000 0.000000 0.000000
 15   0.000005 0.001564 3.638375 -0.000010 -1.284244 3.140806
 16   8.842831 0.000000 -0.000002 -0.115585 0.136148 -0.770689
 17   9.341934 0.000000 -0.000001 0.000000 0.000000 -2.132569
 18   11.168404 -0.000001 0.000002 -3.996618 -0.386067 0.711945
 19   0.000005 0.001585 -3.638375 -0.000010 1.284244 3.140787
 20   8.842831 0.000000 0.000001 0.364024 -0.940647 -0.891656
 21   9.341937 0.000000 -0.000001 0.000000 0.000000 -2.052707
 22   11.168404 -0.000001 0.000001 1.645313 -0.693955 0.265724
 23   1.977383 0.000000 0.000000 -0.011894 0.015588 -0.301213
 24   3.723980 2.768054 -0.049087 0.000001 -3.141591 -1.570794
 25   12.421014 0.304721 4.492689 -0.091859 -0.075839 1.616818
 26   19.916998 1.704573 4.956909 2.262592 1.451744 0.734330
time 6
  0   0.073878 -37.462921 25.767994 0.024894 0.016628 -1.536520
  1   -0.526041 0.000001 9.745319 -1.570795 -1.570451 0.000000
  2   -0.000008 0.000010 5.615750 -0.044865 3.085531 0.193033
  3   15.693467 0.000000 0.000000 0.000000 0.000000 -0.503045
  4   22.146629 -0.000001 0.000000 -0.176381 0.023973 0.662284
  5   3.310129 5.734393 0.000000 0.000000 0.000000 1.570796
  6   0.000008 -0.000006 -5.615750 -0.039117 2.870173 -0.975328
  7   15.693467 0.000000 0.000000 0.000000 0.000000 -2.347225
  8   22.146629 0.000000 0.000000 -0.237540 -0.138181 0.119465
  9   3.310129 5.734393 0.000000 0.000000 0.000000 1.570796
 10   1.384163 -0.004728 0.000002 -0.012155 0.001582 0.395067
 11   5.939814 -0.004730 0.000000 0.000000 0.000000 0.000000
 12   5.939809 -0.003975 0.000000 0.000000 -0.005069 0.000000
 13   4.991439 -0.003975 0.000000 0.000000 0.000000 0.000000
 14   4.991436 -0.001575 0.000000 0.000000 0.000000 0.000000
 15   0.000005 0.001564 3.638375 -0.000010 -1.284244 3.140806
 16   8.842831 0.000000 -0.000002 -0.092541 0.167218 -0.693949
 17   9.341934 0.000000 -0.000001 0.000000 0.000000 -2.097636
 18   11.168404 -0.000001 0.000002 -4.011421 -0.385493 0.648361
 19   0.000005 0.001585 -3.638375 -0.000010 1.284244 3.140787
 20   8.842831 0.000000 0.000001 0.435296 -0.919312 -1.012418
 21   9.341937 0.000000 -0.000001 0.000000 0.000000 -1.912676
 22   11.168404 -0.000001 0.000001 1.659669 -0.703820 0.233009
 23   1.977383 0.000000 0.000000 -0.006555 0.006258 -0.253596
 24   3.723980 2.768054 -0.049087 0.000001 -3.141591 -1.570794
 25   12.421014 0.304721 4.492689 -0.091859 -0.075839 1.616818
 26   19.916998 1.704573 4.956909 2.262592 1.451744 0.734330
time 7
  0   0.073878 -43.827702 26.356096 0.032260 0.012997 -1.494046
  1   -0.526041 0.000001 9.745319 -1.570795 -1.570451 0.000000
  2   -0.000008 0.000010 5.615750 -0.016296 3.100097 0.258024
  3   15.693467 0.000000 0.000000 0.000000 0.000000 -0.579090
  4   22.146629 -0.000001 0.000000 -0.182214 0.016841 0.626976
  5   3.310129 5.734393 0.000000 0.000000 0.000000 1.570796
  6   0.000008 -0.000006 -5.615750 0.005945 2.866817 -1.000366
  7   15.693467 0.000000 0.000000 0.000000 0.000000 -2.129659
  8   22.146629 0.000000 0.000000 -0.203581 -0.079452 0.127480
  9   3.310129 5.734393 0.000000 0.000000 0.000000 1.570796
 10   1.384163 -0.004728 0.000002 -0.022152 -0.003328 0.360708
 11   5.939814 -0.004730 0.000000 0.000000 0.000000 0.000000
 12   5.939809 -0.003975 0.000000 0.000000 0.005753 0.000000
 13   4.991439 -0.003975 0.000000 0.000000 0.000000 0.000000
 14   4.991436 -0.001575 0.000000 0.000000 0.000000 0.000000
 15   0.000005 0.001564 3.638375 -0.000010 -1.284244 3.140806
 16   8.842831 0.000000 -0.000002 -0.065108 0.188614 -0.684169
 17   9.341934 0.000000 -0.000001 0.000000 0.000000 -2.032936
 18   11.168404 -0.000001 0.000002 -4.022022 -0.389799 0.585711
 19   0.000005 0.001585 -3.638375 -0.000010 1.284244 3.140787
 20   8.842831 0.000000 0.000001 0.455533 -0.921171 -1.038629
 21   9.341937 0.000000 -0.000001 0.000000 0.000000 -1.844793
 22   11.168404 -0.000001 0.000001 1.657618 -0.705127 0.216369
 23   1.977383 0.000000 0.000000 -0.035788 -0.002332 -0.220940
 24   3.723980 2.768054 -0.049087 0.000001 -3.141591 -1.570794
 25   12.421014 0.304721 4.492689 -0.091859 -0.075839 1.616818
 26   19.916998 1.704573 4.956909 2.262592 1.451744 0.734330
time 8
  0   0.073878 -50.213612 27.003008 0.038880 0.009174 -1.454833
  1   -0.526041 0.000001 9.745319 -1.570795 -1.570451 0.000000
  2   -0.000008 0.000010 5.615750 -0.009682 3.132967 0.255157
  3   15.693467 0.000000 0.000000 0.000000 0.000000 -0.772868
  4   22.146629 -0.000001 0.000000 -0.188907 0.001709 0.589243
  5   3.310129 5.734393 0.000000 0.000000 0.000000 1.570796
  6   0.000008 -0.000006 -5.615750 0.063184 2.870939 -0.974276
  7   15.693467 0.000000 0.000000 0.000000 0.000000 -1.821584
  8   22.146629 0.000000 0.000000 -0.153039 -0.012188 0.136024
  9   3.310129 5.734393 0.000000 0.000000 0.000000 1.570796
 10   1.384163 -0.004728 0.000002 -0.025215 -0.011486 0.320940
 11   5.939814 -0.004730 0.000000 0.000000 0.000000 0.000000
 12   5.939809 -0.003975 0.000000 0.000013 0.017222 0.000000
 13   4.991439 -0.003975 0.000000 0.000000 0.000000 0.000000
 14   4.991436 -0.001575 0.000000 0.000000 0.000000 0.000000
 15   0.000005 0.001564 3.638375 -0.000010 -1.284244 3.140806
 16   8.842831 0.000000 -0.000002 -0.034657 0.212800 -0.692978
 17   9.341934 0.000000 -0.000001 0.000000 0.000000 -1.944126
 18   11.168404 -0.000001 0.000002 -4.032050 -0.394680 0.516377
 19   0.000005 0.001585 -3.638375 -0.000010 1.284244 3.140787
 20   8.842831 0.000000 0.000001 0.478108 -0.926306 -1.058455
 21   9.341937 0.000000 -0.000001 0.000000 0.000000 -1.767916
 22   11.168404 -0.000001 0.000001 1.656313 -0.710060 0.190799
 23   1.977383 0.000000 0.000000 -0.069514 -0.010277 -0.183115
 24   3.723980 2.768054 -0.049087 0.000001 -3.141591 -1.570794
 25   12.421014 0.304721 4.492689 -0.091859 -0.075839 1.616818
 26   19.916998 1.704573 4.956909 2.262592 1.451744 0.734330
time 9
  0   0.073878 -56.627701 27.591110 0.044474 0.005638 -1.420797
  1   -0.526041 0.000001 9.745319 -1.570795 -1.570451 0.000000
  2   -0.000008 0.000010 5.615750 -0.011503 3.181456 0.277713
  3   15.693467 0.000000 0.000000 0.000000 0.000000 -0.940610
  4   22.146629 -0.000001 0.000000 -0.189169 -0.022066 0.515333
  5   3.310129 5.734393 0.000000 0.000000 0.000000 1.570796
  6   0.000008 -0.000006 -5.615750 0.128284 2.883211 -0.915295
  7   15.693467 0.000000 0.000000 0.000000 0.000000 -1.460735
  8   22.146629 0.000000 0.000000 -0.088393 0.044177 0.144919
  9   3.310129 5.734393 0.000000 0.000000 0.000000 1.570796
 10   1.384163 -0.004728 0.000002 -0.023532 -0.020610 0.281853
 11   5.939814 -0.004730 0.000000 0.000000 0.000000 0.000000
 12   5.939809 -0.003975 0.000000 0.000013 0.028487 0.000000
 13   4.991439 -0.003975 0.000000 0.000000 0.000000 0.000000
 14   4.991436 -0.001575 0.000000 0.000000 0.000000 0.000000
 15   0.000005 0.001564 3.638375 -0.000010 -1.284244 3.140806
 16   8.842831 0.000000 -0.000002 -0.010973 0.235219 -0.707908
 17   9.341934 0.000000 -0.000001 0.000000 0.000000 -1.854825
 18   11.168404 -0.000001 0.000002 -4.043606 -0.395350 0.453628
 19   0.000005 0.001585 -3.638375 -0.000010 1.284244 3.140787
 20   8.842831 0.000000 0.000001 0.504554 -0.929227 -1.082855
 21   9.341937 0.000000 -0.000001 0.000000 0.000000 -1.692638
 22   11.168404 -0.000001 0.000001 1.654729 -0.715119 0.169271
 23   1.977383 0.000000 0.000000 -0.103346 -0.017482 -0.146035
 24   3.723980 2.768054 -0.049087 0.000001 -3.141591 -1.570794
 25   12.421014 0.304721 4.492689 -0.091859 -0.075839 1.616818
 26   19.916998 1.704573 4.956909 2.262592 1.451744 0.734330
time 10
  0   0.073877 -63.055878 28.081194 0.048670 0.002676 -1.393951
  1   -0.526041 0.000001 9.745319 -1.570795 -1.570451 0.000000
  2   -0.000008 0.000010 5.615750 -0.019172 3.235983 0.328176
  3   15.693467 0.000000 0.000000 0.000000 0.000000 -1.065242
  4   22.146629 -0.000001 0.000000 -0.170809 -0.046634 0.406663
  5   3.310129 5.734393 0.000000 0.000000 0.000000 1.570796
  6   0.000008 -0.000006 -5.615750 0.196836 2.902482 -0.842076
  7   15.693467 0.000000 0.000000 0.000000 0.000000 -1.084778
  8   22.146629 0.000000 0.000000 -0.020759 0.079513 0.150733
  9   3.310129 5.734393 0.000000 0.000000 0.000000 1.570796
 10   1.384163 -0.004728 0.000002 -0.019526 -0.028633 0.249567
 11   5.939814 -0.004730 0.000000 0.000000 0.000000 0.000000
 12   5.939809 -0.003975 0.000000 0.000026 0.038662 0.000000
 13   4.991439 -0.003975 0.000000 0.000000 0.000000 0.000000
 14   4.991436 -0.001575 0.000000 0.000000 0.000000 0.000000
 15   0.000005 0.001564 3.638375 -0.000010 -1.284244 3.140806
 16   8.842831 0.000000 -0.000002 0.001646 0.249358 -0.713059
 17   9.341934 0.000000 -0.000001 0.000000 0.000000 -1.791846
 18   11.168404 -0.000001 0.000002 -4.058600 -0.389799 0.410387
 19   0.000005 0.001585 -3.638375 -0.000010 1.284244 3.140787
 20   8.842831 0.000000 0.000001 0.534466 -0.926129 -1.119074
 21   9.341937 0.000000 -0.000001 0.000000 0.000000 -1.630483
 22   11.168404 -0.000001 0.000001 1.652305 -0.718070 0.163066
 23   1.977383 0.000000 0.000000 -0.132790 -0.023994 -0.115516
 24   3.723980 2.768054 -0.049087 0.000001 -3.141591 -1.570794
 25   12.421014 0.304721 4.492689 -0.091859 -0.075839 1.616818
 26   19.916998 1.704573 4.956909 2.262592 1.451744 0.734330
time 11
  0   0.073877 -69.505188 28.316435 0.051374 0.000669 -1.376406
  1   -0.526041 0.000001 9.745319 -1.570795 -1.570451 0.000000
  2   -0.000008 0.000010 5.615750 -0.028759 3.284569 0.365833
  3   15.693467 0.000000 0.000000 0.000000 0.000000 -1.191866
  4   22.146629 -0.000001 0.000000 -0.127397 -0.055649 0.284409
  5   3.310129 5.734393 0.000000 0.000000 0.000000 1.570796
  6   0.000008 -0.000006 -5.615750 0.265675 2.925204 -0.772364
  7   15.693467 0.000000 0.000000 0.000000 0.000000 -0.731447
  8   22.146629 0.000000 0.000000 0.036102 0.094311 0.146945
  9   3.310129 5.734393 0.000000 0.000000 0.000000 1.570796
 10   1.384163 -0.004728 0.000002 -0.015858 -0.033705 0.230202
 11   5.939814 -0.004730 0.000000 0.000000 0.000000 0.000000
 12   5.939809 -0.003975 0.000000 0.000026 0.046908 0.000000
 13   4.991439 -0.003975 0.000000 0.000000 0.000000 0.000000
 14   4.991436 -0.001575 0.000000 0.000000 0.000000 0.000000
 15   0.000005 0.001564 3.638375 -0.000010 -1.284244 3.140806
 16   8.842831 0.000000 -0.000002 -0.001920 0.246568 -0.690739
 17   9.341934 0.000000 -0.000001 0.000000 0.000000 -1.785860
 18   11.168404 -0.000001 0.000002 -4.079897 -0.373434 0.402280
 19   0.000005 0.001585 -3.638375 -0.000010 1.284244 3.140787
 20   8.842831 0.000000 0.000001 0.567361 -0.911788 -1.175023
 21   9.341937 0.000000 -0.000001 0.000000 0.000000 -1.595442
 22   11.168404 -0.000001 0.000001 1.650254 -0.717016 0.185816
 23   1.977383 0.000000 0.000000 -0.152983 -0.029998 -0.097474
 24   3.723980 2.768054 -0.049087 0.000001 -3.141591 -1.570794
 25   12.421014 0.304721 4.492689 -0.091859 -0.075839 1.616818
 26   19.916998 1.704573 4.956909 2.262592 1.451744 0.734330
time 12
  0   0.073877 -75.968582 28.238022 0.052306 0.000000 -1.370174
  1   -0.526041 0.000001 9.745319 -1.570795 -1.570451 0.000000
  2   -0.000008 0.000010 5.615750 -0.029334 3.322804 0.366120
  3   15.693467 0.000000 0.000000 0.000000 0.000000 -1.354131
  4   22.146629 -0.000001 0.000000 -0.065100 -0.040888 0.178347
  5   3.310129 5.734393 0.000000 0.000000 0.000000 1.570796
  6   0.000008 -0.000006 -5.615750 0.332789 2.945146 -0.722920
  7   15.693467 0.000000 0.000000 0.000000 0.000000 -0.438481
  8   22.146629 0.000000 0.000000 0.071527 0.094311 0.127040
  9   3.310129 5.734393 0.000000 0.000000 0.000000 1.570796
 10   1.384163 -0.004728 0.000002 -0.015184 -0.034081 0.229943
 11   5.939814 -0.004730 0.000000 0.000000 0.000000 0.000000
 12   5.939809 -0.003975 0.000000 0.000038 0.052349 0.000000
 13   4.991439 -0.003975 0.000000 0.000000 0.000000 0.000000
 14   4.991436 -0.001575 0.000000 0.000000 0.000000 0.000000
 15   0.000005 0.001564 3.638375 -0.000010 -1.284244 3.140806
 16   8.842831 0.000000 -0.000002 -0.026244 0.222939 -0.622434
 17   9.341934 0.000000 -0.000001 0.000000 0.000000 -1.859663
 18   11.168404 -0.000001 0.000002 -4.109121 -0.344914 0.435791
 19   0.000005 0.001585 -3.638375 -0.000010 1.284244 3.140787
 20   8.842831 0.000000 0.000001 0.598724 -0.881511 -1.255753
 21   9.341937 0.000000 -0.000001 0.000000 0.000000 -1.592178
 22   11.168404 -0.000001 0.000001 1.649974 -0.709006 0.241564
 23   1.977383 0.000000 0.000000 -0.159168 -0.035841 -0.097772
 24   3.723980 2.768054 -0.049087 0.000001 -3.141591 -1.570794
 25   12.421014 0.304721 4.492689 -0.091859 -0.075839 1.616818
 26   19.916998 1.704573 4.956909 2.262592 1.451744 0.734330
time 13
  0   0.073876 -82.446060 27.551903 0.051467 0.000478 -1.375159
  1   -0.526041 0.000001 9.745319 -1.570795 -1.570451 0.000000
  2   -0.000008 0.000010 5.615750 0.034034 3.304405 0.041547
  3   15.693467 0.000000 0.000000 0.000000 0.000000 -1.807844
  4   22.146629 -0.000001 0.000000 0.166846 0.002848 0.040314
  5   3.310129 5.734393 0.000000 0.000000 0.000000 1.570796
  6   0.000008 -0.000006 -5.615750 0.438732 2.937763 -0.717590
  7   15.693467 0.000000 0.000000 0.000000 0.000000 -0.595608
  8   22.146629 0.000000 0.000000 0.066337 -0.102016 -0.122924
  9   3.310129 5.734393 0.000000 0.000000 0.000000 1.570796
 10   1.384163 -0.004728 0.000002 -0.021378 -0.019241 0.298661
 11   5.939814 -0.004730 0.000000 0.000000 0.000000 0.000000
 12   5.939809 -0.003975 0.000000 0.000038 0.050383 0.000000
 13   4.991439 -0.003975 0.000000 0.000000 0.000000 0.000000
 14   4.991436 -0.001575 0.000000 0.000000 0.000000 0.000000
 15   0.000005 0.001564 3.638375 -0.000010 -1.284244 3.140806
 16   8.842831 0.000000 -0.000002 0.023775 0.250475 -0.654533
 17   9.341934 0.000000 -0.000001 0.000000 0.000000 -1.769131
 18   11.168404 -0.000001 0.000002 -4.055926 -0.451815 0.312358
 19   0.000005 0.001585 -3.638375 -0.000010 1.284244 3.140787
 20   8.842831 0.000000 0.000001 0.563249 -0.884167 -1.212004
 21   9.341937 0.000000 -0.000001 0.000000 0.000000 -1.533554
 22   11.168404 -0.000001 0.000001 1.612127 -0.693111 0.129317
 23   1.977383 0.000000 0.000000 -0.145054 -0.045771 -0.166961
 24   3.723980 2.768054 -0.049087 0.000001 -3.141591 -1.570794
 25   12.421014 0.304721 4.492689 -0.091859 -0.075839 1.616818
 26   19.916998 1.704573 4.956909 2.262592 1.451744 0.734330
time 14
  0   0.073876 -88.930595 26.689354 0.049043 0.001911 -1.389253
  1   -0.526041 0.000001 9.745319 -1.570795 -1.570451 0.000000
  2   -0.000008 0.000010 5.615750 -0.012462 3.333537 -0.152184
  3   15.693467 0.000000 0.000000 0.000000 0.000000 -2.035625
  4   22.146629 -0.000001 0.000000 0.158956 0.115979 -0.069179
  5   3.310129 5.734393 0.000000 0.000000 0.000000 1.570796
  6   0.000008 -0.000006 -5.615750 0.344294 2.910919 -0.784427
  7   15.693467 0.000000 0.000000 0.000000 0.000000 -0.986527
  8   22.146629 0.000000 0.000000 0.089747 -0.068185 0.159012
  9   3.310129 5.734393 0.000000 0.000000 0.000000 1.570796
 10   1.384163 -0.004728 0.000002 -0.026898 0.007727 0.418998
 11   5.939814 -0.004730 0.000000 0.000000 0.000000 0.000000
 12   5.939809 -0.003975 0.000000 0.000026 0.040664 0.000000
 13   4.991439 -0.003975 0.000000 0.000000 0.000000 0.000000
 14   4.991436 -0.001575 0.000000 0.000000 0.000000 0.000000
 15   0.000005 0.001564 3.638375 -0.000010 -1.284244 3.140806
 16   8.842831 0.000000 -0.000002 0.030634 0.243870 -0.622434
 17   9.341934 0.000000 -0.000001 0.000000 0.000000 -1.810789
 18   11.168404 -0.000001 0.000002 -3.992033 -0.538235 0.236735
 19   0.000005 0.001585 -3.638375 -0.000010 1.284244 3.140787
 20   8.842831 0.000000 0.000001 0.512294 -0.864691 -1.190559
 21   9.341937 0.000000 -0.000001 0.000000 0.000000 -1.563866
 22   11.168404 -0.000001 0.000001 1.560670 -0.654451 0.090585
 23   1.977383 0.000000 0.000000 -0.118253 -0.055816 -0.288737
 24   3.723980 2.768054 -0.049087 0.000001 -3.141591 -1.570794
 25   12.421014 0.304721 4.492689 -0.091859 -0.075839 1.616818
 26   19.916998 1.704573 4.956909 2.262592 1.451744 0.734330
time 15
  0   0.073876 -95.415123 25.826805 0.045220 0.004109 -1.411113
  1   -0.526041 0.000001 9.745319 -1.570795 -1.570451 0.000000
  2   -0.000008 0.000010 5.615750 -0.038346 3.330854 -0.315044
  3   15.693467 0.000000 0.000000 0.000000 0.000000 -2.137352
  4   22.146629 -0.000001 0.000000 0.137119 0.153251 -0.040731
  5   3.310129 5.734393 0.000000 0.000000 0.000000 1.570796
  6   0.000008 -0.000006 -5.615750 0.260402 2.968922 -0.718221
  7   15.693467 0.000000 0.000000 0.000000 0.000000 -1.164048
  8   22.146629 0.000000 0.000000 0.122972 -0.035213 0.435927
  9   3.310129 5.734393 0.000000 0.000000 0.000000 1.570796
 10   1.384163 -0.004728 0.000002 -0.022488 0.025680 0.497075
 11   5.939814 -0.004730 0.000000 0.000000 0.000000 0.000000
 12   5.939809 -0.003975 0.000000 0.000013 0.028775 0.000000
 13   4.991439 -0.003975 0.000000 0.000000 0.000000 0.000000
 14   4.991436 -0.001575 0.000000 0.000000 0.000000 0.000000
 15   0.000005 0.001564 3.638375 -0.000010 -1.284244 3.140806
 16   8.842831 0.000000 -0.000002 0.027250 0.243312 -0.662894
 17   9.341934 0.000000 -0.000001 0.000000 0.000000 -1.731902
 18   11.168404 -0.000001 0.000002 -3.934636 -0.593074 0.129516
 19   0.000005 0.001585 -3.638375 -0.000010 1.284244 3.140787
 20   8.842831 0.000000 0.000001 0.536884 -0.833441 -1.221440
 21   9.341937 0.000000 -0.000001 0.000000 0.000000 -1.483524
 22   11.168404 -0.000001 0.000001 1.529255 -0.647368 -0.003706
 23   1.977383 0.000000 0.000000 -0.096262 -0.057410 -0.368116
 24   3.723980 2.768054 -0.049087 0.000001 -3.141591 -1.570794
 25   12.421014 0.304721 4.492689 -0.091859 -0.075839 1.616818
 26   19.916998 1.704573 4.956909 2.262592 1.451744 0.734330
time 16
  0   0.073876 -101.906693 25.473944 0.040185 0.006785 -1.439588
  1   -0.526041 0.000001 9.745319 -1.570795 -1.570451 0.000000
  2   -0.000008 0.000010 5.615750 -0.062121 3.327979 -0.487079
  3   15.693467 0.000000 0.000000 0.000000 0.000000 -2.255937
  4   22.146629 -0.000001 0.000000 0.117263 0.191985 0.005143
  5   3.310129 5.734393 0.000000 0.000000 0.000000 1.570796
  6   0.000008 -0.000006 -5.615750 0.188207 3.065563 -0.530055
  7   15.693467 0.000000 0.000000 0.000000 0.000000 -1.155563
  8   22.146629 0.000000 0.000000 0.158736 -0.025635 0.664752
  9   3.310129 5.734393 0.000000 0.000000 0.000000 1.570796
 10   1.384163 -0.004728 0.000002 0.002049 0.022245 0.487943
 11   5.939814 -0.004730 0.000000 0.000000 0.000000 0.000000
 12   5.939809 -0.003975 0.000000 0.000000 0.013375 0.000000
 13   4.991439 -0.003975 0.000000 0.000000 0.000000 0.000000
 14   4.991436 -0.001575 0.000000 0.000000 0.000000 0.000000
 15   0.000005 0.001564 3.638375 -0.000010 -1.284244 3.140806
 16   8.842831 0.000000 -0.000002 0.016734 0.211591 -0.665880
 17   9.341934 0.000000 -0.000001 0.000000 0.000000 -1.859827
 18   11.168404 -0.000001 0.000002 -3.960422 -0.553835 0.262483
 19   0.000005 0.001585 -3.638375 -0.000010 1.284244 3.140787
 20   8.842831 0.000000 0.000001 0.438763 -0.895144 -1.072847
 21   9.341937 0.000000 -0.000001 0.000000 0.000000 -1.700432
 22   11.168404 -0.000001 0.000001 1.533263 -0.630925 0.100832
 23   1.977383 0.000000 0.000000 -0.099170 -0.045563 -0.358821
 24   3.723980 2.768054 -0.049087 0.000001 -3.141591 -1.570794
 25   12.421014 0.304721 4.492689 -0.091859 -0.075839 1.616818
 26   19.916998 1.704573 4.956909 2.262592 1.451744 0.734330
time 17
  0   0.073875 -108.398270 25.689581 0.034218 0.009748 -1.473241
  1   -0.526041 0.000001 9.745319 -1.570795 -1.570451 0.000000
  2   -0.000008 0.000010 5.615750 -0.086280 3.326542 -0.649366
  3   15.693467 0.000000 0.000000 0.000000 0.000000 -2.348273
  4   22.146629 -0.000001 0.000000 0.100960 0.221184 0.056413
  5   3.310129 5.734393 0.000000 0.000000 0.000000 1.570796
  6   0.000008 -0.000006 -5.615750 0.115053 3.154246 -0.234375
  7   15.693467 0.000000 0.000000 0.000000 0.000000 -0.957201
  8   22.146629 0.000000 0.000000 0.179156 -0.032419 0.770709
  9   3.310129 5.734393 0.000000 0.000000 0.000000 1.570796
 10   1.384163 -0.004728 0.000002 0.033857 0.010974 0.436291
 11   5.939814 -0.004730 0.000000 0.000000 0.000000 0.000000
 12   5.939809 -0.003975 0.000000 0.000000 -0.004195 0.000000
 13   4.991439 -0.003975 0.000000 0.000000 0.000000 0.000000
 14   4.991436 -0.001575 0.000000 0.000000 0.000000 0.000000
 15   0.000005 0.001564 3.638375 -0.000010 -1.284244 3.140806
 16   8.842831 0.000000 -0.000002 0.036760 0.212800 -0.748592
 17   9.341934 0.000000 -0.000001 0.000000 0.000000 -1.830142
 18   11.168404 -0.000001 0.000002 -3.972455 -0.525698 0.324740
 19   0.000005 0.001585 -3.638375 -0.000010 1.284244 3.140787
 20   8.842831 0.000000 0.000001 0.371602 -0.970835 -0.918535
 21   9.341937 0.000000 -0.000001 0.000000 0.000000 -1.779441
 22   11.168404 -0.000001 0.000001 1.547526 -0.653017 0.094533
 23   1.977383 0.000000 0.000000 -0.107892 -0.024387 -0.307178
 24   3.723980 2.768054 -0.049087 0.000001 -3.141591 -1.570794
 25   12.421014 0.304721 4.492689 -0.091859 -0.075839 1.616818
 26   19.916998 1.704573 4.956909 2.262592 1.451744 0.734330
time 18
  0   0.073875 -114.889832 26.101252 0.027318 0.012806 -1.510825
  1   -0.526041 0.000001 9.745319 -1.570795 -1.570451 0.000000
  2   -0.000008 0.000010 5.615750 -0.112356 3.327787 -0.783457
  3   15.693467 0.000000 0.000000 0.000000 0.000000 -2.371322
  4   22.146629 -0.000001 0.000000 0.089667 0.233295 0.102516
  5   3.310129 5.734393 0.000000 0.000000 0.000000 1.570796
  6   0.000008 -0.000006 -5.615750 0.044871 3.198732 0.197854
  7   15.693467 0.000000 0.000000 0.000000 0.000000 -0.493561
  8   22.146629 0.000000 0.000000 0.175941 -0.024806 0.657706
  9   3.310129 5.734393 0.000000 0.000000 0.000000 1.570796
 10   1.384163 -0.004728 0.000002 0.040993 0.005715 0.383732
 11   5.939814 -0.004730 0.000000 0.000000 0.000000 0.000000
 12   5.939809 -0.003975 0.000000 0.000000 -0.014334 0.000000
 13   4.991439 -0.003975 0.000000 0.000000 0.000000 0.000000
 14   4.991436 -0.001575 0.000000 0.000000 0.000000 0.000000
 15   0.000005 0.001564 3.638375 -0.000010 -1.284244 3.140806
 16   8.842831 0.000000 -0.000002 0.064377 0.232056 -0.775317
 17   9.341934 0.000000 -0.000001 0.000000 0.000000 -1.824401
 18   11.168404 -0.000001 0.000002 -3.972551 -0.514692 0.375352
 19   0.000005 0.001585 -3.638375 -0.000010 1.284244 3.140787
 20   8.842831 0.000000 0.000001 0.320244 -1.019613 -0.819409
 21   9.341937 0.000000 -0.000001 0.000000 0.000000 -1.792431
 22   11.168404 -0.000001 0.000001 1.573534 -0.683204 0.060126
 23   1.977383 0.000000 0.000000 -0.083628 -0.005450 -0.255833
 24   3.723980 2.768054 -0.049087 0.000001 -3.141591 -1.570794
 25   12.421014 0.304721 4.492689 -0.091859 -0.075839 1.616818
 26   19.916998 1.704573 4.956909 2.262592 1.451744 0.734330
time 19
  0   0.073875 -121.374367 26.630543 0.019860 0.015864 -1.550997
  1   -0.526041 0.000001 9.745319 -1.570795 -1.570451 0.000000
  2   -0.000008 0.000010 5.615750 -0.141691 3.332483 -0.870335
  3   15.693467 0.000000 0.000000 0.000000 0.000000 -2.282045
  4   22.146629 -0.000001 0.000000 0.083236 0.222497 0.133205
  5   3.310129 5.734393 0.000000 0.000000 0.000000 1.570796
  6   0.000008 -0.000006 -5.615750 0.029052 3.194130 0.263218
  7   15.693467 0.000000 0.000000 0.000000 0.000000 -0.552363
  8   22.146629 0.000000 0.000000 0.145198 0.001719 0.607942
  9   3.310129 5.734393 0.000000 0.000000 0.000000 1.570796
 10   1.384163 -0.004728 0.000002 0.018812 0.007378 0.344678
 11   5.939814 -0.004730 0.000000 0.000000 0.000000 0.000000
 12   5.939809 -0.003975 0.000000 -0.000013 -0.015820 0.000000
 13   4.991439 -0.003975 0.000000 0.000000 0.000000 0.000000
 14   4.991436 -0.001575 0.000000 0.000000 0.000000 0.000000
 15   0.000005 0.001564 3.638375 -0.000010 -1.284244 3.140806
 16   8.842831 0.000000 -0.000002 0.097388 0.257358 -0.729781
 17   9.341934 0.000000 -0.000001 0.000000 0.000000 -1.884920
 18   11.168404 -0.000001 0.000002 -3.961759 -0.526942 0.438003
 19   0.000005 0.001585 -3.638375 -0.000010 1.284244 3.140787
 20   8.842831 0.000000 0.000001 0.288155 -1.038293 -0.787860
 21   9.341937 0.000000 -0.000001 0.000000 0.000000 -1.777442
 22   11.168404 -0.000001 0.000001 1.605788 -0.710566 0.026001
 23   1.977383 0.000000 0.000000 -0.023735 0.005335 -0.218157
 24   3.723980 2.768054 -0.049087 0.000001 -3.141591 -1.570794
 25   12.421014 0.304721 4.492689 -0.091859 -0.075839 1.616818
 26   19.916998 1.704573 4.956909 2.262592 1.451744 0.734330
time 20
  0   0.073874 -127.851852 27.218645 0.012121 0.018635 -1.592512
  1   -0.526041 0.000001 9.745319 -1.570795 -1.570451 0.000000
  2   -0.000008 0.000010 5.615750 -0.175532 3.338424 -0.896332
  3   15.693467 0.000000 0.000000 0.000000 0.000000 -2.047078
  4   22.146629 -0.000001 0.000000 0.079160 0.183590 0.145508
  5   3.310129 5.734393 0.000000 0.000000 0.000000 1.570796
  6   0.000008 -0.000006 -5.615750 0.039119 3.165560 0.240425
  7   15.693467 0.000000 0.000000 0.000000 0.000000 -0.760625
  8   22.146629 0.000000 0.000000 0.094486 0.036871 0.562846
  9   3.310129 5.734393 0.000000 0.000000 0.000000 1.570796
 10   1.384163 -0.004728 0.000002 -0.012862 0.009445 0.305332
 11   5.939814 -0.004730 0.000000 0.000000 0.000000 0.000000
 12   5.939809 -0.003975 0.000000 0.000000 -0.014513 0.000000
 13   4.991439 -0.003975 0.000000 0.000000 0.000000 0.000000
 14   4.991436 -0.001575 0.000000 0.000000 0.000000 0.000000
 15   0.000005 0.001564 3.638375 -0.000010 -1.284244 3.140806
 16   8.842831 0.000000 -0.000002 0.134697 0.286382 -0.676406
 17   9.341934 0.000000 -0.000001 0.000000 0.000000 -1.946422
 18   11.168404 -0.000001 0.000002 -3.948675 -0.548284 0.503061
 19   0.000005 0.001585 -3.638375 -0.000010 1.284244 3.140787
 20   8.842831 0.000000 0.000001 0.277351 -1.044489 -0.785668
 21   9.341937 0.000000 -0.000001 0.000000 0.000000 -1.741802
 22   11.168404 -0.000001 0.000001 1.650254 -0.743704 -0.019782
 23   1.977383 0.000000 0.000000 0.047735 0.013256 -0.179785
 24   3.723980 2.768054 -0.049087 0.000001 -3.141591 -1.570794
 25   12.421014 0.304721 4.492689 -0.091859 -0.075839 1.616818
 26   19.916998 1.704573 4.956909 2.262592 1.451744 0.734330
time 21
  0   0.073874 -134.315247 27.767540 0.004196 0.021120 -1.634122
  1   -0.526041 0.000001 9.745319 -1.570795 -1.570451 0.000000
  2   -0.000008 0.000010 5.615750 -0.213208 3.342162 -0.873776
  3   15.693467 0.000000 0.000000 0.000000 0.000000 -1.695091
  4   22.146629 -0.000001 0.000000 0.068765 0.120858 0.145645
  5   3.310129 5.734393 0.000000 0.000000 0.000000 1.570796
  6   0.000008 -0.000006 -5.615750 0.056760 3.114171 0.227030
  7   15.693467 0.000000 0.000000 0.000000 0.000000 -0.968738
  8   22.146629 0.000000 0.000000 0.024707 0.063058 0.487188
  9   3.310129 5.734393 0.000000 0.000000 0.000000 1.570796
 10   1.384163 -0.004728 0.000002 -0.050998 0.010974 0.265726
 11   5.939814 -0.004730 0.000000 0.000000 0.000000 0.000000
 12   5.939809 -0.003975 0.000000 0.000000 -0.011349 0.000000
 13   4.991439 -0.003975 0.000000 0.000000 0.000000 0.000000
 14   4.991436 -0.001575 0.000000 0.000000 0.000000 0.000000
 15   0.000005 0.001564 3.638375 -0.000010 -1.284244 3.140806
 16   8.842831 0.000000 -0.000002 0.170543 0.316801 -0.626614
 17   9.341934 0.000000 -0.000001 0.000000 0.000000 -2.004480
 18   11.168404 -0.000001 0.000002 -3.936641 -0.572593 0.574802
 19   0.000005 0.001585 -3.638375 -0.000010 1.284244 3.140787
 20   8.842831 0.000000 0.000001 0.286059 -1.039709 -0.806160
 21   9.341937 0.000000 -0.000001 0.000000 0.000000 -1.695635
 22   11.168404 -0.000001 0.000001 1.709169 -0.781142 -0.073461
 23   1.977383 0.000000 0.000000 0.125971 0.018290 -0.140568
 24   3.723980 2.768054 -0.049087 0.000001 -3.141591 -1.570794
 25   12.421014 0.304721 4.492689 -0.091859 -0.075839 1.616818
 26   19.916998 1.704573 4.956909 2.262592 1.451744 0.734330
time 22
  0   0.073874 -140.757507 28.218418 -0.003450 0.023223 -1.674390
  1   -0.526041 0.000001 9.745319 -1.570795 -1.570451 0.000000
  2   -0.000008 0.000010 5.615750 -0.253185 3.342833 -0.823408
  3   15.693467 0.000000 0.000000 0.000000 0.000000 -1.276235
  4   22.146629 -0.000001 0.000000 0.041319 0.043910 0.137824
  5   3.310129 5.734393 0.000000 0.000000 0.000000 1.570796
  6   0.000008 -0.000006 -5.615750 0.075648 3.052524 0.236638
  7   15.693467 0.000000 0.000000 0.000000 0.000000 -1.146333
  8   22.146629 0.000000 0.000000 -0.059625 0.061861 0.384842
  9   3.310129 5.734393 0.000000 0.000000 0.000000 1.570796
 10   1.384163 -0.004728 0.000002 -0.092365 0.011269 0.225992
 11   5.939814 -0.004730 0.000000 0.000000 0.000000 0.000000
 12   5.939809 -0.003975 0.000000 0.000000 -0.007251 0.000000
 13   4.991439 -0.003975 0.000000 0.000000 0.000000 0.000000
 14   4.991436 -0.001575 0.000000 0.000000 0.000000 0.000000
 15   0.000005 0.001564 3.638375 -0.000010 -1.284244 3.140806
 16   8.842831 0.000000 -0.000002 0.196056 0.347220 -0.592872
 17   9.341934 0.000000 -0.000001 0.000000 0.000000 -2.055076
 18   11.168404 -0.000001 0.000002 -3.928905 -0.592117 0.658582
 19   0.000005 0.001585 -3.638375 -0.000010 1.284244 3.140787
 20   8.842831 0.000000 0.000001 0.310811 -1.025190 -0.841045
 21   9.341937 0.000000 -0.000001 0.000000 0.000000 -1.647871
 22   11.168404 -0.000001 0.000001 1.784024 -0.821574 -0.131276
 23   1.977383 0.000000 0.000000 0.206110 0.020761 -0.100555
 24   3.723980 2.768054 -0.049087 0.000001 -3.141591 -1.570794
 25   12.421014 0.304721 4.492689 -0.091859 -0.075839 1.616818
 26   19.916998 1.704573 4.956909 2.262592 1.451744 0.734330
time 23
  0   0.073874 -147.192734 28.375246 -0.010816 0.024847 -1.712070
  1   -0.526041 0.000001 9.745319 -1.570795 -1.570451 0.000000
  2   -0.000008 0.000010 5.615750 -0.293545 3.340629 -0.766254
  3   15.693467 0.000000 0.000000 0.000000 0.000000 -0.840662
  4   22.146629 -0.000001 0.000000 -0.007965 -0.032914 0.129134
  5   3.310129 5.734393 0.000000 0.000000 0.000000 1.570796
  6   0.000008 -0.000006 -5.615750 0.095686 2.995959 0.248210
  7   15.693467 0.000000 0.000000 0.000000 0.000000 -1.314774
  8   22.146629 0.000000 0.000000 -0.145367 0.020692 0.280118
  9   3.310129 5.734393 0.000000 0.000000 0.000000 1.570796
 10   1.384163 -0.004728 0.000002 -0.133699 0.009928 0.186289
 11   5.939814 -0.004730 0.000000 0.000000 0.000000 0.000000
 12   5.939809 -0.003975 0.000000 0.000000 -0.003164 0.000000
 13   4.991439 -0.003975 0.000000 0.000000 0.000000 0.000000
 14   4.991436 -0.001575 0.000000 0.000000 0.000000 0.000000
 15   0.000005 0.001564 3.638375 -0.000010 -1.284244 3.140806
 16   8.842831 0.000000 -0.000002 0.190935 0.374569 -0.592200
 17   9.341934 0.000000 -0.000001 0.000000 0.000000 -2.098292
 18   11.168404 -0.000001 0.000002 -3.928046 -0.589820 0.767176
 19   0.000005 0.001585 -3.638375 -0.000010 1.284244 3.140787
 20   8.842831 0.000000 0.000001 0.352252 -0.999695 -0.885461
 21   9.341937 0.000000 -0.000001 0.000000 0.000000 -1.613562
 22   11.168404 -0.000001 0.000001 1.878270 -0.864661 -0.182511
 23   1.977383 0.000000 0.000000 0.283553 0.021223 -0.059996
 24   3.723980 2.768054 -0.049087 0.000001 -3.141591 -1.570794
 25   12.421014 0.304721 4.492689 -0.091859 -0.075839 1.616818
 26   19.916998 1.704573 4.956909 2.262592 1.451744 0.734330
time 24
  0   0.073873 -153.606827 28.375246 -0.017435 0.026090 -1.745819
  1   -0.526041 0.000001 9.745319 -1.570795 -1.570451 0.000000
  2   -0.000008 0.000010 5.615750 -0.332755 3.338041 -0.722958
  3   15.693467 0.000000 0.000000 0.000000 0.000000 -0.438452
  4   22.146629 -0.000001 0.000000 -0.071569 -0.094309 0.127076
  5   3.310129 5.734393 0.000000 0.000000 0.000000 1.570796
  6   0.000008 -0.000006 -5.615750 0.112944 2.950131 0.254101
  7   15.693467 0.000000 0.000000 0.000000 0.000000 -1.485298
  8   22.146629 0.000000 0.000000 -0.215371 -0.054186 0.198559
  9   3.310129 5.734393 0.000000 0.000000 0.000000 1.570796
 10   1.384163 -0.004728 0.000002 -0.171768 0.006815 0.146781
 11   5.939814 -0.004730 0.000000 0.000000 0.000000 0.000000
 12   5.939809 -0.003975 0.000000 0.000000 0.000000 0.000000
 13   4.991439 -0.003975 0.000000 0.000000 0.000000 0.000000
 14   4.991436 -0.001575 0.000000 0.000000 0.000000 0.000000
 15   0.000005 0.001564 3.638375 -0.000010 -1.284244 3.140806
 16   8.842831 0.000000 -0.000002 0.157375 0.402848 -0.632437
 17   9.341934 0.000000 -0.000001 0.000000 0.000000 -2.116661
 18   11.168404 -0.000001 0.000002 -3.926422 -0.570487 0.882257
 19   0.000005 0.001585 -3.638375 -0.000010 1.284244 3.140787
 20   8.842831 0.000000 0.000001 0.404659 -0.967560 -0.929210
 21   9.341937 0.000000 -0.000001 0.000000 0.000000 -1.582319
 22   11.168404 -0.000001 0.000001 1.987616 -0.909351 -0.239669
 23   1.977383 0.000000 0.000000 0.353649 0.020553 -0.019189
 24   3.723980 2.768054 -0.049087 0.000001 -3.141591 -1.570794
 25   12.421014 0.304721 4.492689 -0.091859 -0.075839 1.616818
 26   19.916998 1.704573 4.956909 2.262592 1.451744 0.734330
end
