version 1
nodes
  0 "Bip01" -1
  1 "Bip01 Pelvis" 0
  2 "Bip01 L Thigh" 1
  3 "Bip01 L Calf" 2
  4 "Bip01 L Foot" 3
  5 "Bip01 L Toe0" 4
  6 "Bip01 R Thigh" 1
  7 "Bip01 R Calf" 6
  8 "Bip01 R Foot" 7
  9 "Bip01 R Toe0" 8
 10 "Bip01 Spine" 1
 11 "Bip01 Spine1" 10
 12 "Bip01 Spine2" 11
 13 "Bip01 Spine3" 12
 14 "Bip01 Neck" 13
 15 "Bip01 L Clavicle" 14
 16 "Bip01 L UpperArm" 15
 17 "Bip01 L Forearm" 16
 18 "Bip01 L Hand" 17
 19 "Bip01 R Clavicle" 14
 20 "Bip01 R UpperArm" 19
 21 "Bip01 R Forearm" 20
 22 "Bip01 R Hand" 21
 23 "Bip01 Head" 14
 24 "Bone05" 23
 25 "m4" 22
 26 "SHOTGUN" 22
end
skeleton
time 0
  0   0.073880 5.015564 26.748163 -0.120276 0.157493 -2.022039
  1   -0.526041 0.000001 9.745319 -1.570795 -1.570790 0.000000
  2   -0.000008 0.000010 5.615750 -0.072954 3.583460 -0.950905
  3   15.693467 0.000000 0.000000 0.000000 0.000000 -0.610177
  4   22.146629 -0.000001 0.000000 0.134950 -0.139432 -0.202227
  5   3.310129 5.734393 0.000000 0.000000 0.000000 1.570796
  6   0.000008 -0.000006 -5.615750 0.159252 3.029611 -0.344133
  7   15.693467 0.000000 0.000000 0.000000 0.000000 -0.777893
  8   22.146629 0.000000 0.000000 0.329543 0.196266 0.555007
  9   3.310129 5.734393 0.000000 0.000000 0.000000 1.570796
 10   1.384163 -0.004728 0.000002 -0.226969 -0.113994 0.459186
 11   5.939814 -0.004730 0.000000 0.000000 0.000000 0.000000
 12   5.939809 -0.003975 0.000000 0.000000 0.000000 0.000000
 13   4.991439 -0.003975 0.000000 0.000000 0.000000 0.165801
 14   4.991436 -0.001575 0.000000 0.000000 0.000000 0.000000
 15   0.000005 0.001564 3.638375 -0.000010 -1.284244 3.140806
 16   8.842831 0.000000 -0.000002 -0.788429 0.131404 -1.355275
 17   9.341934 0.000000 -0.000001 0.000000 0.000000 -0.540805
 18   11.168404 -0.000001 0.000002 -4.147418 0.638630 -0.522197
 19   0.000005 0.001585 -3.638375 -0.000010 1.284244 3.140787
 20   8.842831 0.000000 0.000001 0.573085 -0.609203 -1.790366
 21   9.341937 0.000000 -0.000001 0.000000 0.000000 -1.464005
 22   11.168404 -0.000001 0.000001 1.937464 0.125808 1.022027
 23   1.977383 0.000000 0.000000 0.641114 0.201489 0.006161
 24   3.723980 2.768054 -0.049087 0.000001 -3.141591 -1.570794
 25   12.421014 0.304721 4.492689 -0.091859 -0.075839 1.616818
 26   19.916998 1.704573 4.956909 2.262592 1.451744 0.734330
time 1
  0   0.073880 5.424117 26.552130 -0.118318 0.131308 -2.057130
  1   -0.526041 0.000001 9.745319 -1.570795 -1.570451 0.000000
  2   -0.000008 0.000010 5.615750 -0.076214 3.604064 -0.923762
  3   15.693467 0.000000 0.000000 0.000000 0.000000 -0.601570
  4   22.146629 -0.000001 0.000000 0.113711 -0.152806 -0.214850
  5   3.310129 5.734393 0.000000 0.000000 0.000000 1.570796
  6   0.000008 -0.000006 -5.615750 0.152637 3.019160 -0.378077
  7   15.693467 0.000000 0.000000 0.000000 0.000000 -0.834536
  8   22.146629 0.000000 0.000000 0.290339 0.195590 0.550956
  9   3.310129 5.734393 0.000000 0.000000 0.000000 1.570796
 10   1.384163 -0.004728 0.000002 -0.226969 -0.113994 0.459186
 11   5.939814 -0.004730 0.000000 0.000000 0.000000 0.000000
 12   5.939809 -0.003975 0.000000 0.000000 0.000000 0.000000
 13   4.991439 -0.003975 0.000000 0.000000 0.000000 0.165801
 14   4.991436 -0.001575 0.000000 0.000000 0.000000 0.000000
 15   0.000005 0.001564 3.638375 -0.000010 -1.284244 3.140806
 16   8.842831 0.000000 -0.000002 -0.764380 0.260335 -1.199405
 17   9.341934 0.000000 -0.000001 0.000000 0.000000 -0.893993
 18   11.168404 -0.000001 0.000002 -4.141879 0.617193 -0.358863
 19   0.000005 0.001585 -3.638375 -0.000010 1.284244 3.140787
 20   8.842831 0.000000 0.000001 0.548656 -0.634167 -1.787506
 21   9.341937 0.000000 -0.000001 0.000000 0.000000 -1.542015
 22   11.168404 -0.000001 0.000001 1.925905 0.129054 1.066587
 23   1.977383 0.000000 0.000000 0.641114 0.201489 0.006161
 24   3.723980 2.768054 -0.049087 0.000001 -3.141591 -1.570794
 25   12.421014 0.304721 4.492689 -0.091859 -0.075839 1.616818
 26   19.916998 1.704573 4.956909 2.262592 1.451744 0.734330
time 2
  0   0.073880 4.959212 26.983404 -0.093051 0.088207 -2.013602
  1   -0.526041 0.000001 9.745319 -1.570795 -1.570451 0.000000
  2   -0.000008 0.000010 5.615750 -0.142650 3.559886 -0.790721
  3   15.693467 0.000000 0.000000 0.000000 0.000000 -0.467191
  4   22.146629 -0.000001 0.000000 0.146729 -0.130863 -0.272569
  5   3.310129 5.734393 0.000000 0.000000 0.000000 1.570796
  6   0.000008 -0.000006 -5.615750 0.152061 3.011970 -0.296372
  7   15.693467 0.000000 0.000000 0.000000 0.000000 -0.782136
  8   22.146629 0.000000 0.000000 0.329374 0.185275 0.539682
  9   3.310129 5.734393 0.000000 0.000000 0.000000 1.570796
 10   1.384163 -0.004728 0.000002 -0.226969 -0.113994 0.459186
 11   5.939814 -0.004730 0.000000 0.000000 0.000000 0.000000
 12   5.939809 -0.003975 0.000000 0.000000 0.000000 0.000000
 13   4.991439 -0.003975 0.000000 0.000000 0.000000 0.165801
 14   4.991436 -0.001575 0.000000 0.000000 0.000000 0.000000
 15   0.000005 0.001564 3.638375 -0.000010 -1.284244 3.140806
 16   8.842831 0.000000 -0.000002 -0.746091 0.299778 -1.280998
 17   9.341934 0.000000 -0.000001 0.000000 0.000000 -0.806578
 18   11.168404 -0.000001 0.000002 -4.091931 0.588960 -0.381319
 19   0.000005 0.001585 -3.638375 -0.000010 1.284244 3.140787
 20   8.842831 0.000000 0.000001 0.447390 -0.705962 -1.618039
 21   9.341937 0.000000 -0.000001 0.000000 0.000000 -1.668389
 22   11.168404 -0.000001 0.000001 1.954057 0.144063 1.073074
 23   1.977383 0.000000 0.000000 0.641114 0.201489 0.006161
 24   3.723980 2.768054 -0.049087 0.000001 -3.141591 -1.570794
 25   12.421014 0.304721 4.492689 -0.091859 -0.075839 1.616818
 26   19.916998 1.704573 4.956909 2.262592 1.451744 0.734330
time 3
  0   0.073880 5.001476 26.846180 -0.087829 0.076071 -2.012356
  1   -0.526041 0.000001 9.745319 -1.570795 -1.570451 0.000000
  2   -0.000008 0.000010 5.615750 -0.145430 3.558257 -0.784604
  3   15.693467 0.000000 0.000000 0.000000 0.000000 -0.470677
  4   22.146629 -0.000001 0.000000 0.148860 -0.130219 -0.276640
  5   3.310129 5.734393 0.000000 0.000000 0.000000 1.570796
  6   0.000008 -0.000006 -5.615750 0.148226 3.005930 -0.304297
  7   15.693467 0.000000 0.000000 0.000000 0.000000 -0.810197
  8   22.146629 0.000000 0.000000 0.329487 0.183372 0.548049
  9   3.310129 5.734393 0.000000 0.000000 0.000000 1.570796
 10   1.384163 -0.004728 0.000002 -0.226969 -0.113994 0.459186
 11   5.939814 -0.004730 0.000000 0.000000 0.000000 0.000000
 12   5.939809 -0.003975 0.000000 0.000000 0.000000 0.000000
 13   4.991439 -0.003975 0.000000 0.000000 0.000000 0.165801
 14   4.991436 -0.001575 0.000000 0.000000 0.000000 0.000000
 15   0.000005 0.001564 3.638375 -0.000010 -1.284244 3.140806
 16   8.842831 0.000000 -0.000002 -0.751395 0.282103 -1.290329
 17   9.341934 0.000000 -0.000001 0.000000 0.000000 -0.785011
 18   11.168404 -0.000001 0.000002 -4.086010 0.595277 -0.388788
 19   0.000005 0.001585 -3.638375 -0.000010 1.284244 3.140787
 20   8.842831 0.000000 0.000001 0.450615 -0.703926 -1.620803
 21   9.341937 0.000000 -0.000001 0.000000 0.000000 -1.656797
 22   11.168404 -0.000001 0.000001 1.953032 0.148153 1.052486
 23   1.977383 0.000000 0.000000 0.641114 0.201489 0.006161
 24   3.723980 2.768054 -0.049087 0.000001 -3.141591 -1.570794
 25   12.421014 0.304721 4.492689 -0.091859 -0.075839 1.616818
 26   19.916998 1.704573 4.956909 2.262592 1.451744 0.734330
time 4
  0   0.073880 5.057828 26.630543 -0.084380 0.068807 -2.011781
  1   -0.526041 0.000001 9.745319 -1.570795 -1.570451 0.000000
  2   -0.000008 0.000010 5.615750 -0.139965 3.559790 -0.798176
  3   15.693467 0.000000 0.000000 0.000000 0.000000 -0.495717
  4   22.146629 -0.000001 0.000000 0.150206 -0.130516 -0.272203
  5   3.310129 5.734393 0.000000 0.000000 0.000000 1.570796
  6   0.000008 -0.000006 -5.615750 0.144199 3.000369 -0.320428
  7   15.693467 0.000000 0.000000 0.000000 0.000000 -0.845924
  8   22.146629 0.000000 0.000000 0.329656 0.182236 0.560644
  9   3.310129 5.734393 0.000000 0.000000 0.000000 1.570796
 10   1.384163 -0.004728 0.000002 -0.226969 -0.113994 0.459186
 11   5.939814 -0.004730 0.000000 0.000000 0.000000 0.000000
 12   5.939809 -0.003975 0.000000 0.000000 0.000000 0.000000
 13   4.991439 -0.003975 0.000000 0.000000 0.000000 0.165801
 14   4.991436 -0.001575 0.000000 0.000000 0.000000 0.000000
 15   0.000005 0.001564 3.638375 -0.000010 -1.284244 3.140806
 16   8.842831 0.000000 -0.000002 -0.753041 0.274010 -1.288761
 17   9.341934 0.000000 -0.000001 0.000000 0.000000 -0.805512
 18   11.168404 -0.000001 0.000002 -4.075982 0.601019 -0.369821
 19   0.000005 0.001585 -3.638375 -0.000010 1.284244 3.140787
 20   8.842831 0.000000 0.000001 0.448761 -0.704723 -1.617372
 21   9.341937 0.000000 -0.000001 0.000000 0.000000 -1.667390
 22   11.168404 -0.000001 0.000001 1.951447 0.155658 1.043931
 23   1.977383 0.000000 0.000000 0.641114 0.201489 0.006161
 24   3.723980 2.768054 -0.049087 0.000001 -3.141591 -1.570794
 25   12.421014 0.304721 4.492689 -0.091859 -0.075839 1.616818
 26   19.916998 1.704573 4.956909 2.262592 1.451744 0.734330
time 5
  0   0.073880 5.114181 26.434509 -0.082981 0.066896 -2.011685
  1   -0.526041 0.000001 9.745319 -1.570795 -1.570451 0.000000
  2   -0.000008 0.000010 5.615750 -0.131050 3.562857 -0.819872
  3   15.693467 0.000000 0.000000 0.000000 0.000000 -0.526022
  4   22.146629 -0.000001 0.000000 0.150655 -0.131334 -0.264154
  5   3.310129 5.734393 0.000000 0.000000 0.000000 1.570796
  6   0.000008 -0.000006 -5.615750 0.141036 2.996822 -0.337049
  7   15.693467 0.000000 0.000000 0.000000 0.000000 -0.875846
  8   22.146629 0.000000 0.000000 0.329656 0.181990 0.572183
  9   3.310129 5.734393 0.000000 0.000000 0.000000 1.570796
 10   1.384163 -0.004728 0.000002 -0.226969 -0.113994 0.459186
 11   5.939814 -0.004730 0.000000 0.000000 0.000000 0.000000
 12   5.939809 -0.003975 0.000000 0.000000 0.000000 0.000000
 13   4.991439 -0.003975 0.000000 0.000000 0.000000 0.165801
 14   4.991436 -0.001575 0.000000 0.000000 0.000000 0.000000
 15   0.000005 0.001564 3.638375 -0.000010 -1.284244 3.140806
 16   8.842831 0.000000 -0.000002 -0.751669 0.275591 -1.278982
 17   9.341934 0.000000 -0.000001 0.000000 0.000000 -0.858978
 18   11.168404 -0.000001 0.000002 -4.059459 0.605134 -0.330609
 19   0.000005 0.001585 -3.638375 -0.000010 1.284244 3.140787
 20   8.842831 0.000000 0.000001 0.436909 -0.711717 -1.602503
 21   9.341937 0.000000 -0.000001 0.000000 0.000000 -1.698300
 22   11.168404 -0.000001 0.000001 1.949583 0.168685 1.040076
 23   1.977383 0.000000 0.000000 0.641114 0.201489 0.006161
 24   3.723980 2.768054 -0.049087 0.000001 -3.141591 -1.570794
 25   12.421014 0.304721 4.492689 -0.091859 -0.075839 1.616818
 26   19.916998 1.704573 4.956909 2.262592 1.451744 0.734330
time 6
  0   0.073880 5.142356 26.316889 -0.084193 0.070814 -2.012068
  1   -0.526041 0.000001 9.745319 -1.570795 -1.570451 0.000000
  2   -0.000008 0.000010 5.615750 -0.122613 3.565732 -0.839656
  3   15.693467 0.000000 0.000000 0.000000 0.000000 -0.548288
  4   22.146629 -0.000001 0.000000 0.150019 -0.132299 -0.256150
  5   3.310129 5.734393 0.000000 0.000000 0.000000 1.570796
  6   0.000008 -0.000006 -5.615750 0.140268 2.996438 -0.347289
  7   15.693467 0.000000 0.000000 0.000000 0.000000 -0.888202
  8   22.146629 0.000000 0.000000 0.329656 0.182635 0.578084
  9   3.310129 5.734393 0.000000 0.000000 0.000000 1.570796
 10   1.384163 -0.004728 0.000002 -0.226969 -0.113994 0.459186
 11   5.939814 -0.004730 0.000000 0.000000 0.000000 0.000000
 12   5.939809 -0.003975 0.000000 0.000000 0.000000 0.000000
 13   4.991439 -0.003975 0.000000 0.000000 0.000000 0.165801
 14   4.991436 -0.001575 0.000000 0.000000 0.000000 0.000000
 15   0.000005 0.001564 3.638375 -0.000010 -1.284244 3.140806
 16   8.842831 0.000000 -0.000002 -0.746822 0.286754 -1.263828
 17   9.341934 0.000000 -0.000001 0.000000 0.000000 -0.935487
 18   11.168404 -0.000001 0.000002 -4.033864 0.606283 -0.277639
 19   0.000005 0.001585 -3.638375 -0.000010 1.284244 3.140787
 20   8.842831 0.000000 0.000001 0.408368 -0.728006 -1.569715
 21   9.341937 0.000000 -0.000001 0.000000 0.000000 -1.747397
 22   11.168404 -0.000001 0.000001 1.947718 0.189849 1.032744
 23   1.977383 0.000000 0.000000 0.641114 0.201489 0.006161
 24   3.723980 2.768054 -0.049087 0.000001 -3.141591 -1.570794
 25   12.421014 0.304721 4.492689 -0.091859 -0.075839 1.616818
 26   19.916998 1.704573 4.956909 2.262592 1.451744 0.734330
time 7
  0   0.073880 5.135313 26.316889 -0.087923 0.080084 -2.013027
  1   -0.526041 0.000001 9.745319 -1.570795 -1.570451 0.000000
  2   -0.000008 0.000010 5.615750 -0.115327 3.568511 -0.856572
  3   15.693467 0.000000 0.000000 0.000000 0.000000 -0.561591
  4   22.146629 -0.000001 0.000000 0.148449 -0.133290 -0.248466
  5   3.310129 5.734393 0.000000 0.000000 0.000000 1.570796
  6   0.000008 -0.000006 -5.615750 0.141898 2.999123 -0.350655
  7   15.693467 0.000000 0.000000 0.000000 0.000000 -0.882768
  8   22.146629 0.000000 0.000000 0.329543 0.184139 0.578172
  9   3.310129 5.734393 0.000000 0.000000 0.000000 1.570796
 10   1.384163 -0.004728 0.000002 -0.226969 -0.113994 0.459186
 11   5.939814 -0.004730 0.000000 0.000000 0.000000 0.000000
 12   5.939809 -0.003975 0.000000 0.000000 0.000000 0.000000
 13   4.991439 -0.003975 0.000000 0.000000 0.000000 0.165801
 14   4.991436 -0.001575 0.000000 0.000000 0.000000 0.000000
 15   0.000005 0.001564 3.638375 -0.000010 -1.284244 3.140806
 16   8.842831 0.000000 -0.000002 -0.757704 0.256800 -1.281595
 17   9.341934 0.000000 -0.000001 0.000000 0.000000 -0.852827
 18   11.168404 -0.000001 0.000002 -4.059555 0.614130 -0.331002
 19   0.000005 0.001585 -3.638375 -0.000010 1.284244 3.140787
 20   8.842831 0.000000 0.000001 0.450212 -0.703749 -1.621089
 21   9.341937 0.000000 -0.000001 0.000000 0.000000 -1.684510
 22   11.168404 -0.000001 0.000001 1.946413 0.172564 1.030957
 23   1.977383 0.000000 0.000000 0.641114 0.201489 0.006161
 24   3.723980 2.768054 -0.049087 0.000001 -3.141591 -1.570794
 25   12.421014 0.304721 4.492689 -0.091859 -0.075839 1.616818
 26   19.916998 1.704573 4.956909 2.262592 1.451744 0.734330
time 8
  0   0.073880 5.121224 26.375700 -0.093237 0.093081 -2.014369
  1   -0.526041 0.000001 9.745319 -1.570795 -1.570451 0.000000
  2   -0.000008 0.000010 5.615750 -0.107275 3.571481 -0.874827
  3   15.693467 0.000000 0.000000 0.000000 0.000000 -0.573115
  4   22.146629 -0.000001 0.000000 0.146205 -0.134479 -0.239685
  5   3.310129 5.734393 0.000000 0.000000 0.000000 1.570796
  6   0.000008 -0.000006 -5.615750 0.144775 3.003725 -0.351567
  7   15.693467 0.000000 0.000000 0.000000 0.000000 -0.868700
  8   22.146629 0.000000 0.000000 0.329431 0.186227 0.575706
  9   3.310129 5.734393 0.000000 0.000000 0.000000 1.570796
 10   1.384163 -0.004728 0.000002 -0.226969 -0.113994 0.459186
 11   5.939814 -0.004730 0.000000 0.000000 0.000000 0.000000
 12   5.939809 -0.003975 0.000000 0.000000 0.000000 0.000000
 13   4.991439 -0.003975 0.000000 0.000000 0.000000 0.165801
 14   4.991436 -0.001575 0.000000 0.000000 0.000000 0.000000
 15   0.000005 0.001564 3.638375 -0.000010 -1.284244 3.140806
 16   8.842831 0.000000 -0.000002 -0.765751 0.231312 -1.296600
 17   9.341934 0.000000 -0.000001 0.000000 0.000000 -0.784273
 18   11.168404 -0.000001 0.000002 -4.079993 0.620064 -0.374882
 19   0.000005 0.001585 -3.638375 -0.000010 1.284244 3.140787
 20   8.842831 0.000000 0.000001 0.481253 -0.683565 -1.661311
 21   9.341937 0.000000 -0.000001 0.000000 0.000000 -1.633281
 22   11.168404 -0.000001 0.000001 1.945015 0.160337 1.028607
 23   1.977383 0.000000 0.000000 0.641114 0.201489 0.006161
 24   3.723980 2.768054 -0.049087 0.000001 -3.141591 -1.570794
 25   12.421014 0.304721 4.492689 -0.091859 -0.075839 1.616818
 26   19.916998 1.704573 4.956909 2.262592 1.451744 0.734330
time 9
  0   0.073880 5.100092 26.454113 -0.099670 0.108563 -2.015999
  1   -0.526041 0.000001 9.745319 -1.570795 -1.570451 0.000000
  2   -0.000008 0.000010 5.615750 -0.098742 3.574644 -0.893942
  3   15.693467 0.000000 0.000000 0.000000 0.000000 -0.583287
  4   22.146629 -0.000001 0.000000 0.143513 -0.135742 -0.230263
  5   3.310129 5.734393 0.000000 0.000000 0.000000 1.570796
  6   0.000008 -0.000006 -5.615750 0.148322 3.009669 -0.350585
  7   15.693467 0.000000 0.000000 0.000000 0.000000 -0.848455
  8   22.146629 0.000000 0.000000 0.329318 0.188713 0.571478
  9   3.310129 5.734393 0.000000 0.000000 0.000000 1.570796
 10   1.384163 -0.004728 0.000002 -0.226969 -0.113994 0.459186
 11   5.939814 -0.004730 0.000000 0.000000 0.000000 0.000000
 12   5.939809 -0.003975 0.000000 0.000000 0.000000 0.000000
 13   4.991439 -0.003975 0.000000 0.000000 0.000000 0.165801
 14   4.991436 -0.001575 0.000000 0.000000 0.000000 0.000000
 15   0.000005 0.001564 3.638375 -0.000010 -1.284244 3.140806
 16   8.842831 0.000000 -0.000002 -0.772152 0.208614 -1.309589
 17   9.341934 0.000000 -0.000001 0.000000 0.000000 -0.725805
 18   11.168404 -0.000001 0.000002 -4.097279 0.624849 -0.411981
 19   0.000005 0.001585 -3.638375 -0.000010 1.284244 3.140787
 20   8.842831 0.000000 0.000001 0.505924 -0.665948 -1.694862
 21   9.341937 0.000000 -0.000001 0.000000 0.000000 -1.589980
 22   11.168404 -0.000001 0.000001 1.943430 0.151146 1.026445
 23   1.977383 0.000000 0.000000 0.641114 0.201489 0.006161
 24   3.723980 2.768054 -0.049087 0.000001 -3.141591 -1.570794
 25   12.421014 0.304721 4.492689 -0.091859 -0.075839 1.616818
 26   19.916998 1.704573 4.956909 2.262592 1.451744 0.734330
time 10
  0   0.073880 5.071916 26.552130 -0.106663 0.125287 -2.017917
  1   -0.526041 0.000001 9.745319 -1.570795 -1.570451 0.000000
  2   -0.000008 0.000010 5.615750 -0.090018 3.577710 -0.913248
  3   15.693467 0.000000 0.000000 0.000000 0.000000 -0.592464
  4   22.146629 -0.000001 0.000000 0.140596 -0.137005 -0.220613
  5   3.310129 5.734393 0.000000 0.000000 0.000000 1.570796
  6   0.000008 -0.000006 -5.615750 0.152253 3.016284 -0.348481
  7   15.693467 0.000000 0.000000 0.000000 0.000000 -0.824711
  8   22.146629 0.000000 0.000000 0.329318 0.191323 0.566017
  9   3.310129 5.734393 0.000000 0.000000 0.000000 1.570796
 10   1.384163 -0.004728 0.000002 -0.226969 -0.113994 0.459186
 11   5.939814 -0.004730 0.000000 0.000000 0.000000 0.000000
 12   5.939809 -0.003975 0.000000 0.000000 0.000000 0.000000
 13   4.991439 -0.003975 0.000000 0.000000 0.000000 0.165801
 14   4.991436 -0.001575 0.000000 0.000000 0.000000 0.000000
 15   0.000005 0.001564 3.638375 -0.000010 -1.284244 3.140806
 16   8.842831 0.000000 -0.000002 -0.777639 0.186567 -1.321981
 17   9.341934 0.000000 -0.000001 0.000000 0.000000 -0.671518
 18   11.168404 -0.000001 0.000002 -4.113132 0.629251 -0.445788
 19   0.000005 0.001585 -3.638375 -0.000010 1.284244 3.140787
 20   8.842831 0.000000 0.000001 0.527774 -0.649040 -1.725553
 21   9.341937 0.000000 -0.000001 0.000000 0.000000 -1.550409
 22   11.168404 -0.000001 0.000001 1.941659 0.143262 1.024753
 23   1.977383 0.000000 0.000000 0.641114 0.201489 0.006161
 24   3.723980 2.768054 -0.049087 0.000001 -3.141591 -1.570794
 25   12.421014 0.304721 4.492689 -0.091859 -0.075839 1.616818
 26   19.916998 1.704573 4.956909 2.262592 1.451744 0.734330
time 11
  0   0.073880 5.043740 26.650146 -0.113749 0.142107 -2.020026
  1   -0.526041 0.000001 9.745319 -1.570795 -1.570451 0.000000
  2   -0.000008 0.000010 5.615750 -0.081295 3.580681 -0.932459
  3   15.693467 0.000000 0.000000 0.000000 0.000000 -0.601285
  4   22.146629 -0.000001 0.000000 0.137642 -0.138268 -0.211145
  5   3.310129 5.734393 0.000000 0.000000 0.000000 1.570796
  6   0.000008 -0.000006 -5.615750 0.155992 3.023187 -0.346026
  7   15.693467 0.000000 0.000000 0.000000 0.000000 -0.800074
  8   22.146629 0.000000 0.000000 0.329431 0.193902 0.560204
  9   3.310129 5.734393 0.000000 0.000000 0.000000 1.570796
 10   1.384163 -0.004728 0.000002 -0.226969 -0.113994 0.459186
 11   5.939814 -0.004730 0.000000 0.000000 0.000000 0.000000
 12   5.939809 -0.003975 0.000000 0.000000 0.000000 0.000000
 13   4.991439 -0.003975 0.000000 0.000000 0.000000 0.165801
 14   4.991436 -0.001575 0.000000 0.000000 0.000000 0.000000
 15   0.000005 0.001564 3.638375 -0.000010 -1.284244 3.140806
 16   8.842831 0.000000 -0.000002 -0.782851 0.162195 -1.336090
 17   9.341934 0.000000 -0.000001 0.000000 0.000000 -0.613542
 18   11.168404 -0.000001 0.000002 -4.129272 0.633654 -0.480627
 19   0.000005 0.001585 -3.638375 -0.000010 1.284244 3.140787
 20   8.842831 0.000000 0.000001 0.549462 -0.630803 -1.756434
 21   9.341937 0.000000 -0.000001 0.000000 0.000000 -1.509972
 22   11.168404 -0.000001 0.000001 1.939701 0.135294 1.023437
 23   1.977383 0.000000 0.000000 0.641114 0.201489 0.006161
 24   3.723980 2.768054 -0.049087 0.000001 -3.141591 -1.570794
 25   12.421014 0.304721 4.492689 -0.091859 -0.075839 1.616818
 26   19.916998 1.704573 4.956909 2.262592 1.451744 0.734330
time 12
  0   0.073880 5.015564 26.748163 -0.120276 0.157493 -2.022039
  1   -0.526041 0.000001 9.745319 -1.570795 -1.570790 0.000000
  2   -0.000008 0.000010 5.615750 -0.072954 3.583460 -0.950905
  3   15.693467 0.000000 0.000000 0.000000 0.000000 -0.610177
  4   22.146629 -0.000001 0.000000 0.134950 -0.139432 -0.202227
  5   3.310129 5.734393 0.000000 0.000000 0.000000 1.570796
  6   0.000008 -0.000006 -5.615750 0.159252 3.029611 -0.344133
  7   15.693467 0.000000 0.000000 0.000000 0.000000 -0.777893
  8   22.146629 0.000000 0.000000 0.329543 0.196266 0.555007
  9   3.310129 5.734393 0.000000 0.000000 0.000000 1.570796
 10   1.384163 -0.004728 0.000002 -0.226969 -0.113994 0.459186
 11   5.939814 -0.004730 0.000000 0.000000 0.000000 0.000000
 12   5.939809 -0.003975 0.000000 0.000000 0.000000 0.000000
 13   4.991439 -0.003975 0.000000 0.000000 0.000000 0.165801
 14   4.991436 -0.001575 0.000000 0.000000 0.000000 0.000000
 15   0.000005 0.001564 3.638375 -0.000010 -1.284244 3.140806
 16   8.842831 0.000000 -0.000002 -0.788429 0.131404 -1.355275
 17   9.341934 0.000000 -0.000001 0.000000 0.000000 -0.540805
 18   11.168404 -0.000001 0.000002 -4.147418 0.638630 -0.522197
 19   0.000005 0.001585 -3.638375 -0.000010 1.284244 3.140787
 20   8.842831 0.000000 0.000001 0.573085 -0.609203 -1.790366
 21   9.341937 0.000000 -0.000001 0.000000 0.000000 -1.464005
 22   11.168404 -0.000001 0.000001 1.937464 0.125808 1.022027
 23   1.977383 0.000000 0.000000 0.641114 0.201489 0.006161
 24   3.723980 2.768054 -0.049087 0.000001 -3.141591 -1.570794
 25   12.421014 0.304721 4.492689 -0.091859 -0.075839 1.616818
 26   19.916998 1.704573 4.956909 2.262592 1.451744 0.734330
end
