version 1
nodes
  0 "Bip01" -1
  1 "Bip01 Pelvis" 0
  2 "Bip01 L Thigh" 1
  3 "Bip01 L Calf" 2
  4 "Bip01 L Foot" 3
  5 "Bip01 L Toe0" 4
  6 "Bip01 R Thigh" 1
  7 "Bip01 R Calf" 6
  8 "Bip01 R Foot" 7
  9 "Bip01 R Toe0" 8
 10 "Bip01 Spine" 1
 11 "Bip01 Spine1" 10
 12 "Bip01 Spine2" 11
 13 "Bip01 Spine3" 12
 14 "Bip01 Neck" 13
 15 "Bip01 L Clavicle" 14
 16 "Bip01 L UpperArm" 15
 17 "Bip01 L Forearm" 16
 18 "Bip01 L Hand" 17
 19 "Bip01 R Clavicle" 14
 20 "Bip01 R UpperArm" 19
 21 "Bip01 R Forearm" 20
 22 "Bip01 R Hand" 21
 23 "Bip01 Head" 14
 24 "Bone05" 23
 25 "m4" 22
 26 "SHOTGUN" 22
end
skeleton
time 0
  0   2.666250 -4.860146 25.493547 0.002890 -0.095853 -1.571131
  1   -4.639448 -0.773460 9.745319 -1.570795 -1.570451 0.000000
  2   -0.000008 0.000010 5.615750 0.025885 3.207618 -0.805153
  3   15.693467 0.000000 0.000000 0.000000 0.000000 -0.990904
  4   22.146629 -0.000001 0.000000 0.035710 -0.061345 0.089526
  5   3.310129 5.734393 0.000000 0.000000 0.000000 1.570796
  6   0.000008 -0.000006 -5.615750 -0.058675 3.052045 -0.155826
  7   15.693467 0.000000 0.000000 0.000000 0.000000 -0.995384
  8   22.146629 0.000000 0.000000 0.034748 0.101249 0.747897
  9   3.310129 5.734393 0.000000 0.000000 0.000000 1.570796
 10   1.384163 -0.004728 0.000002 -0.431517 -0.129370 0.271199
 11   5.939814 -0.004730 0.000000 -0.093624 -0.026965 0.225909
 12   5.939809 -0.003975 0.000000 -0.095442 -0.068108 0.133523
 13   4.991439 -0.003975 0.000000 -0.087224 0.060306 0.042838
 14   4.991436 -0.001575 0.000000 0.000000 0.000000 0.000000
 15   0.000005 0.001564 3.638375 -0.000010 -1.283555 3.140806
 16   8.842831 0.000000 -0.000002 0.481269 -0.765443 -1.588333
 17   9.341934 0.000000 -0.000001 0.000000 0.000000 -0.446994
 18   11.168404 -0.000001 0.000002 -3.819936 -0.067279 -0.376995
 19   0.000005 0.001585 -3.638375 -0.000010 1.082946 3.140787
 20   8.842831 0.000000 0.000001 -0.059663 0.069622 -2.136067
 21   9.341937 0.000000 -0.000001 0.000000 0.000000 -0.783239
 22   11.168404 -0.000001 0.000001 2.839832 0.149966 0.479124
 23   1.977383 0.000000 0.000000 0.487179 0.362934 -0.096778
 24   3.723980 2.768054 -0.049087 0.000001 -3.141591 -1.570794
 25   12.421014 0.304721 4.492689 -0.091859 -0.075839 1.616818
 26   19.916998 1.704573 4.956909 2.262592 1.451744 0.734330
time 1
  0   -2.267699 -4.941442 26.532526 0.002890 -0.095853 -1.571131
  1   -5.272280 1.066440 9.745319 -1.570795 -1.570451 0.000000
  2   -0.000008 0.000010 5.615750 -0.019939 3.162961 -0.989708
  3   15.693467 0.000000 0.000000 0.000000 0.000000 -1.229711
  4   22.146629 -0.000001 0.000000 0.028231 0.007876 0.136864
  5   3.310129 5.734393 0.000000 0.000000 0.000000 1.570796
  6   0.000008 -0.000006 -5.615750 0.056760 3.244464 -0.088358
  7   15.693467 0.000000 0.000000 0.000000 0.000000 -0.871082
  8   22.146629 0.000000 0.000000 -0.037230 -0.111441 0.691792
  9   3.310129 5.734393 0.000000 0.000000 0.000000 1.570796
 10   1.384163 -0.004728 0.000002 -0.410446 0.065663 0.344419
 11   5.939814 -0.004730 0.000000 -0.093624 -0.026965 0.225909
 12   5.939809 -0.003975 0.000000 -0.095442 -0.068108 0.133523
 13   4.991439 -0.003975 0.000000 -0.087224 0.060306 0.042838
 14   4.991436 -0.001575 0.000000 0.000000 0.000000 0.000000
 15   0.000005 0.001564 3.638375 -0.000010 -1.283555 3.140806
 16   8.842831 0.000000 -0.000002 0.294632 -0.849723 -1.507412
 17   9.341934 0.000000 -0.000001 0.000000 0.000000 -0.562536
 18   11.168404 -0.000001 0.000002 -3.746780 -0.203656 -0.307465
 19   0.000005 0.001585 -3.638375 -0.000010 1.066848 3.140787
 20   8.842831 0.000000 0.000001 -0.307021 0.221357 -2.211746
 21   9.341937 0.000000 -0.000001 0.000000 0.000000 -0.713356
 22   11.168404 -0.000001 0.000001 2.903501 0.166577 0.446879
 23   1.977383 0.000000 0.000000 0.408837 0.300929 -0.309762
 24   3.723980 2.768054 -0.049087 0.000001 -3.141591 -1.570794
 25   12.421014 0.304721 4.492689 -0.091859 -0.075839 1.616818
 26   19.916998 1.704573 4.956909 2.262592 1.451744 0.734330
time 2
  0   -7.955243 -4.994562 24.964254 0.002890 -0.095853 -1.571131
  1   -5.030085 1.246133 9.745319 -1.570795 -1.570451 0.000000
  2   -0.000008 0.000010 5.615750 -0.105837 3.103068 -1.216986
  3   15.693467 0.000000 0.000000 0.000000 0.000000 -1.518955
  4   22.146629 -0.000001 0.000000 -0.010619 0.112214 0.203868
  5   3.310129 5.734393 0.000000 0.000000 0.000000 1.570796
  6   0.000008 -0.000006 -5.615750 0.133653 3.367565 -0.101543
  7   15.693467 0.000000 0.000000 0.000000 0.000000 -0.895273
  8   22.146629 0.000000 0.000000 -0.089916 -0.246430 0.724116
  9   3.310129 5.734393 0.000000 0.000000 0.000000 1.570796
 10   1.384163 -0.004728 0.000002 -0.414317 0.073123 0.297721
 11   5.939814 -0.004730 0.000000 -0.092683 -0.023202 0.266142
 12   5.939809 -0.003975 0.000000 -0.095442 -0.068108 0.133523
 13   4.991439 -0.003975 0.000000 -0.087224 0.060306 0.042838
 14   4.991436 -0.001575 0.000000 0.000000 0.000000 0.000000
 15   0.000005 0.001564 3.638375 -0.000010 -1.283555 3.140806
 16   8.842831 0.000000 -0.000002 0.220471 -0.838374 -1.435001
 17   9.341934 0.000000 -0.000001 0.000000 0.000000 -0.639209
 18   11.168404 -0.000001 0.000002 -3.728347 -0.224137 -0.271890
 19   0.000005 0.001585 -3.638375 -0.000010 1.068597 3.140787
 20   8.842831 0.000000 0.000001 -0.328790 0.223039 -2.210507
 21   9.341937 0.000000 -0.000001 0.000000 0.000000 -0.721084
 22   11.168404 -0.000001 0.000001 2.896510 0.164638 0.450358
 23   1.977383 0.000000 0.000000 0.399375 0.286957 -0.356883
 24   3.723980 2.768054 -0.049087 0.000001 -3.141591 -1.570794
 25   12.421014 0.304721 4.492689 -0.091859 -0.075839 1.616818
 26   19.916998 1.704573 4.956909 2.262592 1.451744 0.734330
time 3
  0   -14.207985 -5.019506 23.003916 0.002890 -0.095853 -1.571131
  1   -4.733201 1.277384 9.745319 -1.570795 -1.570451 0.000000
  2   -0.000008 0.000010 5.615750 -0.222987 3.018067 -1.345726
  3   15.693467 0.000000 0.000000 0.000000 0.000000 -1.654685
  4   22.146629 -0.000001 0.000000 -0.093481 0.236985 0.215668
  5   3.310129 5.734393 0.000000 0.000000 0.000000 1.570796
  6   0.000008 -0.000006 -5.615750 0.215723 3.467754 -0.155054
  7   15.693467 0.000000 0.000000 0.000000 0.000000 -0.987941
  8   22.146629 0.000000 0.000000 -0.139105 -0.364349 0.798189
  9   3.310129 5.734393 0.000000 0.000000 0.000000 1.570796
 10   1.384163 -0.004728 0.000002 -0.420578 0.062496 0.241763
 11   5.939814 -0.004730 0.000000 -0.091368 -0.018852 0.313317
 12   5.939809 -0.003975 0.000000 -0.095442 -0.068108 0.133523
 13   4.991439 -0.003975 0.000000 -0.087224 0.060306 0.042838
 14   4.991436 -0.001575 0.000000 0.000000 0.000000 0.000000
 15   0.000005 0.001564 3.638375 -0.000010 -1.283555 3.140806
 16   8.842831 0.000000 -0.000002 0.215716 -0.800327 -1.436196
 17   9.341934 0.000000 -0.000001 0.000000 0.000000 -0.629615
 18   11.168404 -0.000001 0.000002 -3.714499 -0.223849 -0.279211
 19   0.000005 0.001585 -3.638375 -0.000010 1.077597 3.140787
 20   8.842831 0.000000 0.000001 -0.304603 0.205068 -2.186107
 21   9.341937 0.000000 -0.000001 0.000000 0.000000 -0.759989
 22   11.168404 -0.000001 0.000001 2.861179 0.155278 0.468313
 23   1.977383 0.000000 0.000000 0.398212 0.254257 -0.380641
 24   3.723980 2.768054 -0.049087 0.000001 -3.141591 -1.570794
 25   12.421014 0.304721 4.492689 -0.091859 -0.075839 1.616818
 26   19.916998 1.704573 4.956909 2.262592 1.451744 0.734330
time 4
  0   -20.845060 -5.030362 21.161196 0.002890 -0.095853 -1.571131
  1   -4.358189 1.191444 9.745319 -1.570795 -1.570451 0.000000
  2   -0.000008 0.000010 5.615750 -0.353750 2.666948 -0.922997
  3   15.693467 0.000000 0.000000 0.000000 0.000000 -0.954837
  4   22.146629 -0.000001 0.000000 -0.216466 0.546633 -0.038627
  5   3.310129 5.734393 0.000000 0.000000 0.000000 1.570796
  6   0.000008 -0.000006 -5.615750 0.341418 3.524798 -0.312222
  7   15.693467 0.000000 0.000000 0.000000 0.000000 -1.274431
  8   22.146629 0.000000 0.000000 -0.189366 -0.473856 0.978924
  9   3.310129 5.734393 0.000000 0.000000 0.000000 1.570796
 10   1.384163 -0.004728 0.000002 -0.427310 0.039097 0.176639
 11   5.939814 -0.004730 0.000000 -0.089841 -0.014501 0.361199
 12   5.939809 -0.003975 0.000000 -0.095442 -0.068108 0.133523
 13   4.991439 -0.003975 0.000000 -0.087224 0.060306 0.042838
 14   4.991436 -0.001575 0.000000 0.000000 0.000000 0.000000
 15   0.000005 0.001564 3.638375 -0.000010 -1.283555 3.140806
 16   8.842831 0.000000 -0.000002 0.209864 -0.750373 -1.423729
 17   9.341934 0.000000 -0.000001 0.000000 0.000000 -0.627975
 18   11.168404 -0.000001 0.000002 -3.703134 -0.225859 -0.282159
 19   0.000005 0.001585 -3.638375 -0.000010 1.082946 3.140787
 20   8.842831 0.000000 0.000001 -0.285898 0.174880 -2.163327
 21   9.341937 0.000000 -0.000001 0.000000 0.000000 -0.783239
 22   11.168404 -0.000001 0.000001 2.839832 0.149966 0.479124
 23   1.977383 0.000000 0.000000 0.405190 0.170105 -0.363891
 24   3.723980 2.768054 -0.049087 0.000001 -3.141591 -1.570794
 25   12.421014 0.304721 4.492689 -0.091859 -0.075839 1.616818
 26   19.916998 1.704573 4.956909 2.262592 1.451744 0.734330
time 5
  0   -27.670534 -5.034174 19.357685 0.002890 -0.095853 -1.571131
  1   -3.873799 1.027376 9.745319 -1.570795 -1.570451 0.000000
  2   -0.000008 0.000010 5.615750 -0.346656 2.784435 -1.068749
  3   15.693467 0.000000 0.000000 0.000000 0.000000 -1.200118
  4   22.146629 -0.000001 0.000000 -0.188309 0.457872 0.054629
  5   3.310129 5.734393 0.000000 0.000000 0.000000 1.570796
  6   0.000008 -0.000006 -5.615750 0.217641 3.359704 -0.463849
  7   15.693467 0.000000 0.000000 0.000000 0.000000 -1.642127
  8   22.146629 0.000000 0.000000 -0.074065 -0.298098 1.117381
  9   3.310129 5.734393 0.000000 0.000000 0.000000 1.570796
 10   1.384163 -0.004728 0.000002 -0.432897 0.008371 0.102481
 11   5.939814 -0.004730 0.000000 -0.088314 -0.010726 0.403554
 12   5.939809 -0.003975 0.000000 -0.095442 -0.068108 0.133523
 13   4.991439 -0.003975 0.000000 -0.087224 0.060306 0.042838
 14   4.991436 -0.001575 0.000000 0.000000 0.000000 0.000000
 15   0.000005 0.001564 3.638375 -0.000010 -1.283555 3.140806
 16   8.842831 0.000000 -0.000002 0.144664 -0.668698 -1.293763
 17   9.341934 0.000000 -0.000001 0.000000 0.000000 -0.755900
 18   11.168404 -0.000001 0.000002 -3.690050 -0.261461 -0.222506
 19   0.000005 0.001585 -3.638375 -0.000010 1.082946 3.140787
 20   8.842831 0.000000 0.000001 -0.283237 0.109813 -2.137878
 21   9.341937 0.000000 -0.000001 0.000000 0.000000 -0.783239
 22   11.168404 -0.000001 0.000001 2.839832 0.149966 0.479124
 23   1.977383 0.000000 0.000000 0.416343 0.056463 -0.320797
 24   3.723980 2.768054 -0.049087 0.000001 -3.141591 -1.570794
 25   12.421014 0.304721 4.492689 -0.091859 -0.075839 1.616818
 26   19.916998 1.704573 4.956909 2.262592 1.451744 0.734330
time 6
  0   -34.503548 -5.030942 18.436325 0.002890 -0.095853 -1.571131
  1   -3.244874 0.816432 9.745319 -1.570795 -1.570451 0.000000
  2   -0.000008 0.000010 5.615750 -0.237463 2.989031 -1.235623
  3   15.693467 0.000000 0.000000 0.000000 0.000000 -1.518102
  4   22.146629 -0.000001 0.000000 -0.091126 0.266729 0.192525
  5   3.310129 5.734393 0.000000 0.000000 0.000000 1.570796
  6   0.000008 -0.000006 -5.615750 0.034996 3.198348 -0.559511
  7   15.693467 0.000000 0.000000 0.000000 0.000000 -1.869816
  8   22.146629 0.000000 0.000000 0.006882 -0.066374 1.215059
  9   3.310129 5.734393 0.000000 0.000000 0.000000 1.570796
 10   1.384163 -0.004728 0.000002 -0.436229 -0.023937 0.018996
 11   5.939814 -0.004730 0.000000 -0.087124 -0.008030 0.434169
 12   5.939809 -0.003975 0.000000 -0.095442 -0.068108 0.133523
 13   4.991439 -0.003975 0.000000 -0.087224 0.060306 0.042838
 14   4.991436 -0.001575 0.000000 0.000000 0.000000 0.000000
 15   0.000005 0.001564 3.638375 -0.000010 -1.283555 3.140806
 16   8.842831 0.000000 -0.000002 0.117688 -0.547301 -1.187909
 17   9.341934 0.000000 -0.000001 0.000000 0.000000 -0.857502
 18   11.168404 -0.000001 0.000002 -3.668944 -0.309121 -0.179756
 19   0.000005 0.001585 -3.638375 -0.000010 1.082946 3.140787
 20   8.842831 0.000000 0.000001 -0.279448 0.027306 -2.102326
 21   9.341937 0.000000 -0.000001 0.000000 0.000000 -0.783239
 22   11.168404 -0.000001 0.000001 2.839832 0.149966 0.479124
 23   1.977383 0.000000 0.000000 0.424484 -0.017089 -0.261102
 24   3.723980 2.768054 -0.049087 0.000001 -3.141591 -1.570794
 25   12.421014 0.304721 4.492689 -0.091859 -0.075839 1.616818
 26   19.916998 1.704573 4.956909 2.262592 1.451744 0.734330
time 7
  0   -41.163231 -5.034754 21.964935 0.002890 -0.095853 -1.571131
  1   -0.975273 -0.273445 9.745319 -1.570795 -1.570451 0.000000
  2   -0.000008 0.000010 5.615750 -0.012845 3.132487 -1.030806
  3   15.693467 0.000000 0.000000 0.000000 0.000000 -1.332291
  4   22.146629 -0.000001 0.000000 -0.002692 0.015528 0.205560
  5   3.310129 5.734393 0.000000 0.000000 0.000000 1.570796
  6   0.000008 -0.000006 -5.615750 -0.115051 3.088477 -0.513153
  7   15.693467 0.000000 0.000000 0.000000 0.000000 -1.779976
  8   22.146629 0.000000 0.000000 0.064419 0.109200 1.177450
  9   3.310129 5.734393 0.000000 0.000000 0.000000 1.570796
 10   1.384163 -0.004728 0.000002 -0.428218 -0.117965 -0.186738
 11   5.939814 -0.004730 0.000000 -0.089823 -0.014453 0.361811
 12   5.939809 -0.003975 0.000000 -0.095442 -0.068108 0.133523
 13   4.991439 -0.003975 0.000000 -0.087224 0.060306 0.042838
 14   4.991436 -0.001575 0.000000 0.000000 0.000000 0.000000
 15   0.000005 0.001564 3.638375 -0.000010 -1.283555 3.140806
 16   8.842831 0.000000 -0.000002 0.191301 -0.187205 -1.074814
 17   9.341934 0.000000 -0.000001 0.000000 0.000000 -0.898011
 18   11.168404 -0.000001 0.000002 -3.602760 -0.390852 -0.189093
 19   0.000005 0.001585 -3.638375 -0.000010 1.082946 3.140787
 20   8.842831 0.000000 0.000001 -0.232765 -0.230573 -1.981564
 21   9.341937 0.000000 -0.000001 0.000000 0.000000 -0.783239
 22   11.168404 -0.000001 0.000001 2.839832 0.149966 0.479124
 23   1.977383 0.000000 0.000000 0.440396 -0.044778 0.021967
 24   3.723980 2.768054 -0.049087 0.000001 -3.141591 -1.570794
 25   12.421014 0.304721 4.492689 -0.091859 -0.075839 1.616818
 26   19.916998 1.704573 4.956909 2.262592 1.451744 0.734330
time 8
  0   -48.184639 -5.038566 21.259214 0.002890 -0.095853 -1.571131
  1   -2.350315 0.285166 9.745319 -1.570795 -1.570451 0.000000
  2   -0.000008 0.000010 5.615750 0.167481 3.290797 -1.069992
  3   15.693467 0.000000 0.000000 0.000000 0.000000 -1.337129
  4   22.146629 -0.000001 0.000000 0.070709 -0.212640 0.176197
  5   3.310129 5.734393 0.000000 0.000000 0.000000 1.570796
  6   0.000008 -0.000006 -5.615750 -0.246498 2.977168 -0.415247
  7   15.693467 0.000000 0.000000 0.000000 0.000000 -1.563973
  8   22.146629 0.000000 0.000000 0.140346 0.260859 1.091575
  9   3.310129 5.734393 0.000000 0.000000 0.000000 1.570796
 10   1.384163 -0.004728 0.000002 -0.435758 -0.037891 -0.006264
 11   5.939814 -0.004730 0.000000 -0.092097 -0.021201 0.287827
 12   5.939809 -0.003975 0.000000 -0.095442 -0.068108 0.133523
 13   4.991439 -0.003975 0.000000 -0.087224 0.060306 0.042838
 14   4.991436 -0.001575 0.000000 0.000000 0.000000 0.000000
 15   0.000005 0.001564 3.638375 -0.000010 -1.283555 3.140806
 16   8.842831 0.000000 -0.000002 0.153626 -0.383114 -1.149091
 17   9.341934 0.000000 -0.000001 0.000000 0.000000 -0.868326
 18   11.168404 -0.000001 0.000002 -3.643062 -0.324912 -0.183491
 19   0.000005 0.001585 -3.638375 -0.000010 1.082946 3.140787
 20   8.842831 0.000000 0.000001 -0.234700 -0.099553 -2.038085
 21   9.341937 0.000000 -0.000001 0.000000 0.000000 -0.783239
 22   11.168404 -0.000001 0.000001 2.839832 0.149966 0.479124
 23   1.977383 0.000000 0.000000 0.432414 0.097384 -0.097424
 24   3.723980 2.768054 -0.049087 0.000001 -3.141591 -1.570794
 25   12.421014 0.304721 4.492689 -0.091859 -0.075839 1.616818
 26   19.916998 1.704573 4.956909 2.262592 1.451744 0.734330
time 9
  0   -55.688347 -5.028290 20.043802 0.002890 -0.095853 -1.571131
  1   -3.928488 0.878934 9.745319 -1.570795 -1.570451 0.000000
  2   -0.000008 0.000010 5.615750 0.324991 3.483223 -1.040268
  3   15.693467 0.000000 0.000000 0.000000 0.000000 -1.176572
  4   22.146629 -0.000001 0.000000 0.170286 -0.437143 0.058974
  5   3.310129 5.734393 0.000000 0.000000 0.000000 1.570796
  6   0.000008 -0.000006 -5.615750 -0.347456 2.867009 -0.324425
  7   15.693467 0.000000 0.000000 0.000000 0.000000 -1.343728
  8   22.146629 0.000000 0.000000 0.224622 0.380865 1.015300
  9   3.310129 5.734393 0.000000 0.000000 0.000000 1.570796
 10   1.384163 -0.004728 0.000002 -0.427949 0.043095 0.192183
 11   5.939814 -0.004730 0.000000 -0.093624 -0.026965 0.225909
 12   5.939809 -0.003975 0.000000 -0.095442 -0.068108 0.133523
 13   4.991439 -0.003975 0.000000 -0.087224 0.060306 0.042838
 14   4.991436 -0.001575 0.000000 0.000000 0.000000 0.000000
 15   0.000005 0.001564 3.638375 -0.000010 -1.283555 3.140806
 16   8.842831 0.000000 -0.000002 0.168440 -0.599302 -1.282043
 17   9.341934 0.000000 -0.000001 0.000000 0.000000 -0.753194
 18   11.168404 -0.000001 0.000002 -3.687663 -0.257441 -0.224423
 19   0.000005 0.001585 -3.638375 -0.000010 1.082946 3.140787
 20   8.842831 0.000000 0.000001 -0.243489 0.049615 -2.105090
 21   9.341937 0.000000 -0.000001 0.000000 0.000000 -0.783239
 22   11.168404 -0.000001 0.000001 2.839832 0.149966 0.479124
 23   1.977383 0.000000 0.000000 0.418828 0.220241 -0.234559
 24   3.723980 2.768054 -0.049087 0.000001 -3.141591 -1.570794
 25   12.421014 0.304721 4.492689 -0.091859 -0.075839 1.616818
 26   19.916998 1.704573 4.956909 2.262592 1.451744 0.734330
time 10
  0   -62.875549 -5.010970 20.063406 0.002890 -0.095853 -1.571131
  1   -3.061275 0.042971 9.745319 -1.570795 -1.570451 0.000000
  2   -0.000008 0.000010 5.615750 -0.003450 3.104218 -1.549109
  3   15.693467 0.000000 0.000000 0.000000 0.000000 -1.892782
  4   22.146629 -0.000001 0.000000 -0.037505 0.000669 0.247729
  5   3.310129 5.734393 0.000000 0.000000 0.000000 1.570796
  6   0.000008 -0.000006 -5.615750 -0.330869 2.820414 -0.227922
  7   15.693467 0.000000 0.000000 0.000000 0.000000 -1.142984
  8   22.146629 0.000000 0.000000 0.233027 0.396799 0.920176
  9   3.310129 5.734393 0.000000 0.000000 0.000000 1.570796
 10   1.384163 -0.004728 0.000002 -0.435489 -0.044815 0.098497
 11   5.939814 -0.004730 0.000000 -0.093624 -0.026965 0.225909
 12   5.939809 -0.003975 0.000000 -0.095442 -0.068108 0.133523
 13   4.991439 -0.003975 0.000000 -0.087224 0.060306 0.042838
 14   4.991436 -0.001575 0.000000 0.000000 0.000000 0.000000
 15   0.000005 0.001564 3.638375 -0.000010 -1.283555 3.140806
 16   8.842831 0.000000 -0.000002 0.177767 -0.499208 -1.177234
 17   9.341934 0.000000 -0.000001 0.000000 0.000000 -0.860864
 18   11.168404 -0.000001 0.000002 -3.692247 -0.255145 -0.171894
 19   0.000005 0.001585 -3.638375 -0.000010 1.082946 3.140787
 20   8.842831 0.000000 0.000001 -0.183503 -0.064850 -2.066393
 21   9.341937 0.000000 -0.000001 0.000000 0.000000 -0.783239
 22   11.168404 -0.000001 0.000001 2.839832 0.149966 0.479124
 23   1.977383 0.000000 0.000000 0.449065 0.227908 -0.075156
 24   3.723980 2.768054 -0.049087 0.000001 -3.141591 -1.570794
 25   12.421014 0.304721 4.492689 -0.091859 -0.075839 1.616818
 26   19.916998 1.704573 4.956909 2.262592 1.451744 0.734330
time 11
  0   -68.947433 -5.000694 20.102613 0.002890 -0.095853 -1.571131
  1   -3.197998 -0.234381 9.745319 -1.570795 -1.570451 0.000000
  2   -0.000008 0.000010 5.615750 2.948115 0.133795 1.555456
  3   15.693467 0.000000 0.000000 0.000000 0.000000 -1.916044
  4   22.146629 -0.000001 0.000000 -0.154357 0.177423 0.233230
  5   3.310129 5.734393 0.000000 0.000000 0.000000 1.570796
  6   0.000008 -0.000006 -5.615750 -0.228185 3.005163 -0.327581
  7   15.693467 0.000000 0.000000 0.000000 0.000000 -1.353404
  8   22.146629 0.000000 0.000000 0.156028 0.215453 0.962453
  9   3.310129 5.734393 0.000000 0.000000 0.000000 1.570796
 10   1.384163 -0.004728 0.000002 -0.435119 -0.073823 0.113167
 11   5.939814 -0.004730 0.000000 -0.093624 -0.026965 0.225909
 12   5.939809 -0.003975 0.000000 -0.095442 -0.068108 0.133523
 13   4.991439 -0.003975 0.000000 -0.087224 0.060306 0.042838
 14   4.991436 -0.001575 0.000000 0.000000 0.000000 0.000000
 15   0.000005 0.001564 3.638375 -0.000010 -1.283555 3.140806
 16   8.842831 0.000000 -0.000002 0.190478 -0.537720 -1.165663
 17   9.341934 0.000000 -0.000001 0.000000 0.000000 -0.883579
 18   11.168404 -0.000001 0.000002 -3.720994 -0.221935 -0.156072
 19   0.000005 0.001585 -3.638375 -0.000010 1.082946 3.140787
 20   8.842831 0.000000 0.000001 -0.151979 -0.075739 -2.072684
 21   9.341937 0.000000 -0.000001 0.000000 0.000000 -0.783239
 22   11.168404 -0.000001 0.000001 2.839832 0.149966 0.479124
 23   1.977383 0.000000 0.000000 0.467831 0.237538 -0.026843
 24   3.723980 2.768054 -0.049087 0.000001 -3.141591 -1.570794
 25   12.421014 0.304721 4.492689 -0.091859 -0.075839 1.616818
 26   19.916998 1.704573 4.956909 2.262592 1.451744 0.734330
time 12
  0   -73.888916 -4.990417 18.475533 0.002890 -0.095853 -1.571131
  1   -3.494882 -0.433606 9.745319 -1.570795 -1.570451 0.000000
  2   -0.000008 0.000010 5.615750 -0.332467 2.935462 -1.527796
  3   15.693467 0.000000 0.000000 0.000000 0.000000 -1.805425
  4   22.146629 -0.000001 0.000000 -0.223757 0.321164 0.179993
  5   3.310129 5.734393 0.000000 0.000000 0.000000 1.570796
  6   0.000008 -0.000006 -5.615750 -0.103833 3.138044 -0.439654
  7   15.693467 0.000000 0.000000 0.000000 0.000000 -1.581614
  8   22.146629 0.000000 0.000000 0.087604 0.055997 1.048681
  9   3.310129 5.734393 0.000000 0.000000 0.000000 1.570796
 10   1.384163 -0.004728 0.000002 -0.434748 -0.094458 0.144903
 11   5.939814 -0.004730 0.000000 -0.093624 -0.026965 0.225909
 12   5.939809 -0.003975 0.000000 -0.095442 -0.068108 0.133523
 13   4.991439 -0.003975 0.000000 -0.087224 0.060306 0.042838
 14   4.991436 -0.001575 0.000000 0.000000 0.000000 0.000000
 15   0.000005 0.001564 3.638375 -0.000010 -1.283555 3.140806
 16   8.842831 0.000000 -0.000002 0.207395 -0.589814 -1.170516
 17   9.341934 0.000000 -0.000001 0.000000 0.000000 -0.889073
 18   11.168404 -0.000001 0.000002 -3.747066 -0.191406 -0.151207
 19   0.000005 0.001585 -3.638375 -0.000010 1.082946 3.140787
 20   8.842831 0.000000 0.000001 -0.123841 -0.068303 -2.085932
 21   9.341937 0.000000 -0.000001 0.000000 0.000000 -0.783239
 22   11.168404 -0.000001 0.000001 2.839832 0.149966 0.479124
 23   1.977383 0.000000 0.000000 0.484959 0.245805 -0.000897
 24   3.723980 2.768054 -0.049087 0.000001 -3.141591 -1.570794
 25   12.421014 0.304721 4.492689 -0.091859 -0.075839 1.616818
 26   19.916998 1.704573 4.956909 2.262592 1.451744 0.734330
time 13
  0   -78.317947 -4.980142 17.475760 0.002890 -0.095853 -1.571131
  1   -3.799578 -0.597673 9.745319 -1.570795 -1.570451 0.000000
  2   -0.000008 0.000010 5.615750 -0.415680 2.849982 -1.428876
  3   15.693467 0.000000 0.000000 0.000000 0.000000 -1.632633
  4   22.146629 -0.000001 0.000000 -0.271807 0.428475 0.110245
  5   3.310129 5.734393 0.000000 0.000000 0.000000 1.570796
  6   0.000008 -0.000006 -5.615750 0.034612 3.256736 -0.471985
  7   15.693467 0.000000 0.000000 0.000000 0.000000 -1.628953
  8   22.146629 0.000000 0.000000 0.032830 -0.115709 1.061012
  9   3.310129 5.734393 0.000000 0.000000 0.000000 1.570796
 10   1.384163 -0.004728 0.000002 -0.435152 -0.111847 0.177902
 11   5.939814 -0.004730 0.000000 -0.093624 -0.026965 0.225909
 12   5.939809 -0.003975 0.000000 -0.095442 -0.068108 0.133523
 13   4.991439 -0.003975 0.000000 -0.087224 0.060306 0.042838
 14   4.991436 -0.001575 0.000000 0.000000 0.000000 0.000000
 15   0.000005 0.001564 3.638375 -0.000010 -1.283555 3.140806
 16   8.842831 0.000000 -0.000002 0.231262 -0.644605 -1.195971
 17   9.341934 0.000000 -0.000001 0.000000 0.000000 -0.870704
 18   11.168404 -0.000001 0.000002 -3.769987 -0.160972 -0.160101
 19   0.000005 0.001585 -3.638375 -0.000010 1.082946 3.140787
 20   8.842831 0.000000 0.000001 -0.098847 -0.049889 -2.100610
 21   9.341937 0.000000 -0.000001 0.000000 0.000000 -0.783239
 22   11.168404 -0.000001 0.000001 2.839832 0.149966 0.479124
 23   1.977383 0.000000 0.000000 0.497646 0.265134 0.003825
 24   3.723980 2.768054 -0.049087 0.000001 -3.141591 -1.570794
 25   12.421014 0.304721 4.492689 -0.091859 -0.075839 1.616818
 26   19.916998 1.704573 4.956909 2.262592 1.451744 0.734330
time 14
  0   -82.415413 -4.976910 18.259893 0.002890 -0.095853 -1.571131
  1   -3.963646 -0.781273 9.745319 -1.570795 -1.570451 0.000000
  2   -0.000008 0.000010 5.615750 -0.422774 2.731537 -1.272324
  3   15.693467 0.000000 0.000000 0.000000 0.000000 -1.371488
  4   22.146629 -0.000001 0.000000 -0.316192 0.494996 0.011912
  5   3.310129 5.734393 0.000000 0.000000 0.000000 1.570796
  6   0.000008 -0.000006 -5.615750 0.143145 3.360854 -0.423172
  7   15.693467 0.000000 0.000000 0.000000 0.000000 -1.495123
  8   22.146629 0.000000 0.000000 -0.017656 -0.260675 0.994073
  9   3.310129 5.734393 0.000000 0.000000 0.000000 1.570796
 10   1.384163 -0.004728 0.000002 -0.436768 -0.131114 0.196231
 11   5.939814 -0.004730 0.000000 -0.093624 -0.026965 0.225909
 12   5.939809 -0.003975 0.000000 -0.095442 -0.068108 0.133523
 13   4.991439 -0.003975 0.000000 -0.087224 0.060306 0.042838
 14   4.991436 -0.001575 0.000000 0.000000 0.000000 0.000000
 15   0.000005 0.001564 3.638375 -0.000010 -1.283555 3.140806
 16   8.842831 0.000000 -0.000002 0.275155 -0.695024 -1.266590
 17   9.341934 0.000000 -0.000001 0.000000 0.000000 -0.797311
 18   11.168404 -0.000001 0.000002 -3.790902 -0.123648 -0.198232
 19   0.000005 0.001585 -3.638375 -0.000010 1.082946 3.140787
 20   8.842831 0.000000 0.000001 -0.075949 -0.026076 -2.111381
 21   9.341937 0.000000 -0.000001 0.000000 0.000000 -0.783239
 22   11.168404 -0.000001 0.000001 2.839832 0.149966 0.479124
 23   1.977383 0.000000 0.000000 0.503566 0.296495 -0.007508
 24   3.723980 2.768054 -0.049087 0.000001 -3.141591 -1.570794
 25   12.421014 0.304721 4.492689 -0.091859 -0.075839 1.616818
 26   19.916998 1.704573 4.956909 2.262592 1.451744 0.734330
time 15
  0   -86.347076 -4.966634 19.298874 0.002890 -0.095853 -1.571131
  1   -3.647230 -1.046906 9.745319 -1.570795 -1.570451 0.000000
  2   -0.000008 0.000010 5.615750 -0.344642 2.619800 -1.046002
  3   15.693467 0.000000 0.000000 0.000000 0.000000 -1.048169
  4   22.146629 -0.000001 0.000000 -0.337319 0.526399 -0.092551
  5   3.310129 5.734393 0.000000 0.000000 0.000000 1.570796
  6   0.000008 -0.000006 -5.615750 0.221859 3.452030 -0.324636
  7   15.693467 0.000000 0.000000 0.000000 0.000000 -1.286638
  8   22.146629 0.000000 0.000000 -0.085122 -0.370305 0.916829
  9   3.310129 5.734393 0.000000 0.000000 0.000000 1.570796
 10   1.384163 -0.004728 0.000002 -0.441009 -0.159344 0.162423
 11   5.939814 -0.004730 0.000000 -0.093624 -0.026965 0.225909
 12   5.939809 -0.003975 0.000000 -0.095442 -0.068108 0.133523
 13   4.991439 -0.003975 0.000000 -0.087224 0.060306 0.042838
 14   4.991436 -0.001575 0.000000 0.000000 0.000000 0.000000
 15   0.000005 0.001564 3.638375 -0.000010 -1.283555 3.140806
 16   8.842831 0.000000 -0.000002 0.285671 -0.686931 -1.273458
 17   9.341934 0.000000 -0.000001 0.000000 0.000000 -0.788619
 18   11.168404 -0.000001 0.000002 -3.792908 -0.108910 -0.204325
 19   0.000005 0.001585 -3.638375 -0.000010 1.082946 3.140787
 20   8.842831 0.000000 0.000001 -0.057808 -0.041922 -2.105567
 21   9.341937 0.000000 -0.000001 0.000000 0.000000 -0.783239
 22   11.168404 -0.000001 0.000001 2.839832 0.149966 0.479124
 23   1.977383 0.000000 0.000000 0.508324 0.307972 0.007751
 24   3.723980 2.768054 -0.049087 0.000001 -3.141591 -1.570794
 25   12.421014 0.304721 4.492689 -0.091859 -0.075839 1.616818
 26   19.916998 1.704573 4.956909 2.262592 1.451744 0.734330
time 16
  0   -90.278740 -4.963402 20.533888 0.002890 -0.095853 -1.571131
  1   -3.362065 -1.207067 9.745319 -1.570795 -1.570451 0.000000
  2   -0.000008 0.000010 5.615750 -0.241777 2.571119 -0.847302
  3   15.693467 0.000000 0.000000 0.000000 0.000000 -0.812349
  4   22.146629 -0.000001 0.000000 -0.334327 0.525607 -0.150361
  5   3.310129 5.734393 0.000000 0.000000 0.000000 1.570796
  6   0.000008 -0.000006 -5.615750 0.254649 3.557587 -0.185773
  7   15.693467 0.000000 0.000000 0.000000 0.000000 -1.016002
  8   22.146629 0.000000 0.000000 -0.149372 -0.462006 0.823467
  9   3.310129 5.734393 0.000000 0.000000 0.000000 1.570796
 10   1.384163 -0.004728 0.000002 -0.443163 -0.176545 0.131982
 11   5.939814 -0.004730 0.000000 -0.093624 -0.026965 0.225909
 12   5.939809 -0.003975 0.000000 -0.095442 -0.068108 0.133523
 13   4.991439 -0.003975 0.000000 -0.087224 0.060306 0.042838
 14   4.991436 -0.001575 0.000000 0.000000 0.000000 0.000000
 15   0.000005 0.001564 3.638375 -0.000010 -1.283555 3.140806
 16   8.842831 0.000000 -0.000002 0.282836 -0.665442 -1.259125
 17   9.341934 0.000000 -0.000001 0.000000 0.000000 -0.801083
 18   11.168404 -0.000001 0.000002 -3.787751 -0.109579 -0.198380
 19   0.000005 0.001585 -3.638375 -0.000010 1.082946 3.140787
 20   8.842831 0.000000 0.000001 -0.049585 -0.059362 -2.098704
 21   9.341937 0.000000 -0.000001 0.000000 0.000000 -0.783239
 22   11.168404 -0.000001 0.000001 2.839832 0.149966 0.479124
 23   1.977383 0.000000 0.000000 0.506632 0.315778 0.009789
 24   3.723980 2.768054 -0.049087 0.000001 -3.141591 -1.570794
 25   12.421014 0.304721 4.492689 -0.091859 -0.075839 1.616818
 26   19.916998 1.704573 4.956909 2.262592 1.451744 0.734330
time 17
  0   -94.391273 -4.953125 21.906126 0.002890 -0.095853 -1.571131
  1   -3.580822 -1.152378 9.745319 -1.570795 -1.570451 0.000000
  2   -0.000008 0.000010 5.615750 -0.186940 2.755590 -0.940774
  3   15.693467 0.000000 0.000000 0.000000 0.000000 -1.064246
  4   22.146629 -0.000001 0.000000 -0.241070 0.355787 0.020601
  5   3.310129 5.734393 0.000000 0.000000 0.000000 1.570796
  6   0.000008 -0.000006 -5.615750 0.248417 3.433623 -0.324916
  7   15.693467 0.000000 0.000000 0.000000 0.000000 -1.345291
  8   22.146629 0.000000 0.000000 -0.118403 -0.363090 0.982887
  9   3.310129 5.734393 0.000000 0.000000 0.000000 1.570796
 10   1.384163 -0.004728 0.000002 -0.441817 -0.170668 0.155590
 11   5.939814 -0.004730 0.000000 -0.093624 -0.026965 0.225909
 12   5.939809 -0.003975 0.000000 -0.095442 -0.068108 0.133523
 13   4.991439 -0.003975 0.000000 -0.087224 0.060306 0.042838
 14   4.991436 -0.001575 0.000000 0.000000 0.000000 0.000000
 15   0.000005 0.001564 3.638375 -0.000010 -1.283555 3.140806
 16   8.842831 0.000000 -0.000002 0.312921 -0.691396 -1.316979
 17   9.341934 0.000000 -0.000001 0.000000 0.000000 -0.738187
 18   11.168404 -0.000001 0.000002 -3.795678 -0.097712 -0.230123
 19   0.000005 0.001585 -3.638375 -0.000010 1.082946 3.140787
 20   8.842831 0.000000 0.000001 -0.048859 -0.034309 -2.105376
 21   9.341937 0.000000 -0.000001 0.000000 0.000000 -0.783239
 22   11.168404 -0.000001 0.000001 2.839832 0.149966 0.479124
 23   1.977383 0.000000 0.000000 0.496536 0.338340 -0.031317
 24   3.723980 2.768054 -0.049087 0.000001 -3.141591 -1.570794
 25   12.421014 0.304721 4.492689 -0.091859 -0.075839 1.616818
 26   19.916998 1.704573 4.956909 2.262592 1.451744 0.734330
time 18
  0   -98.835381 -4.949894 23.297966 0.002890 -0.095853 -1.571131
  1   -3.936301 -1.031281 9.745319 -1.570795 -1.570451 0.000000
  2   -0.000008 0.000010 5.615750 -0.121367 2.841549 -0.947847
  3   15.693467 0.000000 0.000000 0.000000 0.000000 -1.129693
  4   22.146629 -0.000001 0.000000 -0.200499 0.255039 0.078550
  5   3.310129 5.734393 0.000000 0.000000 0.000000 1.570796
  6   0.000008 -0.000006 -5.615750 0.189933 3.329695 -0.398275
  7   15.693467 0.000000 0.000000 0.000000 0.000000 -1.527129
  8   22.146629 0.000000 0.000000 -0.081794 -0.253982 1.061276
  9   3.310129 5.734393 0.000000 0.000000 0.000000 1.570796
 10   1.384163 -0.004728 0.000002 -0.438956 -0.157331 0.193964
 11   5.939814 -0.004730 0.000000 -0.093624 -0.026965 0.225909
 12   5.939809 -0.003975 0.000000 -0.095442 -0.068108 0.133523
 13   4.991439 -0.003975 0.000000 -0.087224 0.060306 0.042838
 14   4.991436 -0.001575 0.000000 0.000000 0.000000 0.000000
 15   0.000005 0.001564 3.638375 -0.000010 -1.283555 3.140806
 16   8.842831 0.000000 -0.000002 0.353614 -0.724792 -1.389763
 17   9.341934 0.000000 -0.000001 0.000000 0.000000 -0.665368
 18   11.168404 -0.000001 0.000002 -3.803700 -0.087376 -0.266828
 19   0.000005 0.001585 -3.638375 -0.000010 1.082946 3.140787
 20   8.842831 0.000000 0.000001 -0.051520 0.000925 -2.115575
 21   9.341937 0.000000 -0.000001 0.000000 0.000000 -0.783239
 22   11.168404 -0.000001 0.000001 2.839832 0.149966 0.479124
 23   1.977383 0.000000 0.000000 0.490562 0.351873 -0.062283
 24   3.723980 2.768054 -0.049087 0.000001 -3.141591 -1.570794
 25   12.421014 0.304721 4.492689 -0.091859 -0.075839 1.616818
 26   19.916998 1.704573 4.956909 2.262592 1.451744 0.734330
time 19
  0   -103.791939 -4.939618 24.611395 0.002890 -0.095853 -1.571131
  1   -4.323032 -0.886745 9.745319 -1.570795 -1.570451 0.000000
  2   -0.000008 0.000010 5.615750 -0.051384 2.941020 -0.920417
  3   15.693467 0.000000 0.000000 0.000000 0.000000 -1.130048
  4   22.146629 -0.000001 0.000000 -0.144261 0.148992 0.108050
  5   3.310129 5.734393 0.000000 0.000000 0.000000 1.570796
  6   0.000008 -0.000006 -5.615750 0.100000 3.224714 -0.408024
  7   15.693467 0.000000 0.000000 0.000000 0.000000 -1.559954
  8   22.146629 0.000000 0.000000 -0.047892 -0.120866 1.063038
  9   3.310129 5.734393 0.000000 0.000000 0.000000 1.570796
 10   1.384163 -0.004728 0.000002 -0.435152 -0.141821 0.236160
 11   5.939814 -0.004730 0.000000 -0.093624 -0.026965 0.225909
 12   5.939809 -0.003975 0.000000 -0.095442 -0.068108 0.133523
 13   4.991439 -0.003975 0.000000 -0.087224 0.060306 0.042838
 14   4.991436 -0.001575 0.000000 0.000000 0.000000 0.000000
 15   0.000005 0.001564 3.638375 -0.000010 -1.283555 3.140806
 16   8.842831 0.000000 -0.000002 0.409120 -0.754280 -1.479866
 17   9.341934 0.000000 -0.000001 0.000000 0.000000 -0.572951
 18   11.168404 -0.000001 0.000002 -3.812104 -0.077327 -0.313509
 19   0.000005 0.001585 -3.638375 -0.000010 1.082946 3.140787
 20   8.842831 0.000000 0.000001 -0.055954 0.038195 -2.126631
 21   9.341937 0.000000 -0.000001 0.000000 0.000000 -0.783239
 22   11.168404 -0.000001 0.000001 2.839832 0.149966 0.479124
 23   1.977383 0.000000 0.000000 0.488553 0.358177 -0.081817
 24   3.723980 2.768054 -0.049087 0.000001 -3.141591 -1.570794
 25   12.421014 0.304721 4.492689 -0.091859 -0.075839 1.616818
 26   19.916998 1.704573 4.956909 2.262592 1.451744 0.734330
time 20
  0   -109.426727 -4.936386 25.493547 0.002890 -0.095853 -1.571131
  1   -4.639448 -0.773460 9.745319 -1.570795 -1.570451 0.000000
  2   -0.000008 0.000010 5.615750 0.025885 3.207618 -0.805153
  3   15.693467 0.000000 0.000000 0.000000 0.000000 -0.990904
  4   22.146629 -0.000001 0.000000 0.035710 -0.061345 0.089526
  5   3.310129 5.734393 0.000000 0.000000 0.000000 1.570796
  6   0.000008 -0.000006 -5.615750 -0.058675 3.052045 -0.155826
  7   15.693467 0.000000 0.000000 0.000000 0.000000 -0.995384
  8   22.146629 0.000000 0.000000 0.034748 0.101249 0.747897
  9   3.310129 5.734393 0.000000 0.000000 0.000000 1.570796
 10   1.384163 -0.004728 0.000002 -0.431517 -0.129370 0.271199
 11   5.939814 -0.004730 0.000000 -0.093624 -0.026965 0.225909
 12   5.939809 -0.003975 0.000000 -0.095442 -0.068108 0.133523
 13   4.991439 -0.003975 0.000000 -0.087224 0.060306 0.042838
 14   4.991436 -0.001575 0.000000 0.000000 0.000000 0.000000
 15   0.000005 0.001564 3.638375 -0.000010 -1.283555 3.140806
 16   8.842831 0.000000 -0.000002 0.481269 -0.765443 -1.588333
 17   9.341934 0.000000 -0.000001 0.000000 0.000000 -0.446994
 18   11.168404 -0.000001 0.000002 -3.819936 -0.067279 -0.376995
 19   0.000005 0.001585 -3.638375 -0.000010 1.082946 3.140787
 20   8.842831 0.000000 0.000001 -0.059663 0.069622 -2.136067
 21   9.341937 0.000000 -0.000001 0.000000 0.000000 -0.783239
 22   11.168404 -0.000001 0.000001 2.839832 0.149966 0.479124
 23   1.977383 0.000000 0.000000 0.487179 0.362934 -0.096778
 24   3.723980 2.768054 -0.049087 0.000001 -3.141591 -1.570794
 25   12.421014 0.304721 4.492689 -0.091859 -0.075839 1.616818
 26   19.916998 1.704573 4.956909 2.262592 1.451744 0.734330
end
