version 1
nodes
  0 "Bip01" -1
  1 "Bip01 Pelvis" 0
  2 "Bip01 L Thigh" 1
  3 "Bip01 L Calf" 2
  4 "Bip01 L Foot" 3
  5 "Bip01 L Toe0" 4
  6 "Bip01 R Thigh" 1
  7 "Bip01 R Calf" 6
  8 "Bip01 R Foot" 7
  9 "Bip01 R Toe0" 8
 10 "Bip01 Spine" 1
 11 "Bip01 Spine1" 10
 12 "Bip01 Spine2" 11
 13 "Bip01 Spine3" 12
 14 "Bip01 Neck" 13
 15 "Bip01 L Clavicle" 14
 16 "Bip01 L UpperArm" 15
 17 "Bip01 L Forearm" 16
 18 "Bip01 L Hand" 17
 19 "Bip01 R Clavicle" 14
 20 "Bip01 R UpperArm" 19
 21 "Bip01 R Forearm" 20
 22 "Bip01 R Hand" 21
 23 "Bip01 Head" 14
 24 "Bone05" 23
 25 "m4" 22
 26 "SHOTGUN" 22
end
skeleton
time 0
  0   2.666250 -4.860146 25.493547 0.002890 -0.095853 -1.571131
  1   -4.639448 -0.773460 9.745319 -1.570795 -1.570451 0.000000
  2   -0.000008 0.000010 5.615750 0.025885 3.207618 -0.805153
  3   15.693467 0.000000 0.000000 0.000000 0.000000 -0.990904
  4   22.146629 -0.000001 0.000000 0.035710 -0.061345 0.089526
  5   3.310129 5.734393 0.000000 0.000000 0.000000 1.570796
  6   0.000008 -0.000006 -5.615750 -0.058675 3.052045 -0.155826
  7   15.693467 0.000000 0.000000 0.000000 0.000000 -0.995384
  8   22.146629 0.000000 0.000000 0.034748 0.101249 0.747897
  9   3.310129 5.734393 0.000000 0.000000 0.000000 1.570796
 10   1.384163 -0.004728 0.000002 -0.431517 -0.129370 0.271199
 11   5.939814 -0.004730 0.000000 -0.093624 -0.026965 0.225909
 12   5.939809 -0.003975 0.000000 -0.095442 -0.068108 0.133523
 13   4.991439 -0.003975 0.000000 -0.087224 0.060306 0.042838
 14   4.991436 -0.001575 0.000000 0.000000 0.000000 0.000000
 15   0.000005 0.001564 3.638375 -0.000010 -1.283555 3.140806
 16   8.842831 0.000000 -0.000002 0.481269 -0.765443 -1.588333
 17   9.341934 0.000000 -0.000001 0.000000 0.000000 -0.446994
 18   11.168404 -0.000001 0.000002 -3.819936 -0.067279 -0.376995
 19   0.000005 0.001585 -3.638375 -0.000010 1.082946 3.140787
 20   8.842831 0.000000 0.000001 -0.059663 0.069622 -2.136067
 21   9.341937 0.000000 -0.000001 0.000000 0.000000 -0.783239
 22   11.168404 -0.000001 0.000001 2.839832 0.149966 0.479124
 23   1.977383 0.000000 0.000000 0.487179 0.362934 -0.096778
 24   3.723980 2.768054 -0.049087 0.000001 -3.141591 -1.570794
 25   12.421014 0.304721 4.492689 -0.091859 -0.075839 1.616818
 26   19.916998 1.704573 4.956909 2.262592 1.451744 0.734330
time 1
  0   6.967405 -4.951718 26.258080 0.002890 -0.095853 -1.571131
  1   -6.049647 -0.562516 9.745319 -1.570795 -1.570451 0.000000
  2   -0.000008 0.000010 5.615750 -0.038634 3.075948 -0.767114
  3   15.693467 0.000000 0.000000 0.000000 0.000000 -0.942104
  4   22.146629 -0.000001 0.000000 -0.024754 0.072019 0.079419
  5   3.310129 5.734393 0.000000 0.000000 0.000000 1.570796
  6   0.000008 -0.000006 -5.615750 0.019560 3.138331 -0.239424
  7   15.693467 0.000000 0.000000 0.000000 0.000000 -1.176999
  8   22.146629 0.000000 0.000000 -0.019574 -0.003531 0.830954
  9   3.310129 5.734393 0.000000 0.000000 0.000000 1.570796
 10   1.384163 -0.004728 0.000002 -0.409235 -0.103582 0.436550
 11   5.939814 -0.004730 0.000000 -0.093624 -0.026965 0.225909
 12   5.939809 -0.003975 0.000000 -0.095442 -0.068108 0.133523
 13   4.991439 -0.003975 0.000000 -0.087224 0.060306 0.042838
 14   4.991436 -0.001575 0.000000 0.000000 0.000000 0.000000
 15   0.000005 0.001564 3.638375 -0.000010 -1.283555 3.140806
 16   8.842831 0.000000 -0.000002 0.889383 -0.787862 -2.066244
 17   9.341934 0.000000 -0.000001 0.000000 0.000000 -0.002536
 18   11.168404 -0.000001 0.000002 -3.885547 -0.029476 -0.612414
 19   0.000005 0.001585 -3.638375 -0.000010 1.075077 3.140787
 20   8.842831 0.000000 0.000001 -0.085866 0.252342 -2.194494
 21   9.341937 0.000000 -0.000001 0.000000 0.000000 -0.749130
 22   11.168404 -0.000001 0.000001 2.870967 0.157808 0.463237
 23   1.977383 0.000000 0.000000 0.422951 0.486784 -0.281331
 24   3.723980 2.768054 -0.049087 0.000001 -3.141591 -1.570794
 25   12.421014 0.304721 4.492689 -0.091859 -0.075839 1.616818
 26   19.916998 1.704573 4.956909 2.262592 1.451744 0.734330
time 2
  0   13.484133 -4.965806 26.885387 0.002890 -0.095853 -1.571131
  1   -5.076961 -1.585985 9.745319 -1.570795 -1.570451 0.000000
  2   -0.000008 0.000010 5.615750 -0.095675 2.898951 -0.611805
  3   15.693467 0.000000 0.000000 0.000000 0.000000 -0.676193
  4   22.146629 -0.000001 0.000000 -0.085592 0.246371 -0.030440
  5   3.310129 5.734393 0.000000 0.000000 0.000000 1.570796
  6   0.000008 -0.000006 -5.615750 0.120518 3.231329 -0.339434
  7   15.693467 0.000000 0.000000 0.000000 0.000000 -1.373054
  8   22.146629 0.000000 0.000000 -0.071414 -0.132164 0.942460
  9   3.310129 5.734393 0.000000 0.000000 0.000000 1.570796
 10   1.384163 -0.004728 0.000002 -0.437407 -0.215482 0.325247
 11   5.939814 -0.004730 0.000000 -0.093624 -0.026965 0.225909
 12   5.939809 -0.003975 0.000000 -0.095442 -0.068108 0.133523
 13   4.991439 -0.003975 0.000000 -0.087224 0.060306 0.042838
 14   4.991436 -0.001575 0.000000 0.000000 0.000000 0.000000
 15   0.000005 0.001564 3.638375 -0.000010 -1.283555 3.140806
 16   8.842831 0.000000 -0.000002 0.562929 -0.928701 -1.576389
 17   9.341934 0.000000 -0.000001 0.000000 0.000000 -0.640685
 18   11.168404 -0.000001 0.000002 -3.911906 0.007849 -0.310463
 19   0.000005 0.001585 -3.638375 -0.000010 1.068803 3.140787
 20   8.842831 0.000000 0.000001 -0.023059 0.129201 -2.176289
 21   9.341937 0.000000 -0.000001 0.000000 0.000000 -0.721950
 22   11.168404 -0.000001 0.000001 2.895671 0.164385 0.450828
 23   1.977383 0.000000 0.000000 0.475919 0.508191 -0.151602
 24   3.723980 2.768054 -0.049087 0.000001 -3.141591 -1.570794
 25   12.421014 0.304721 4.492689 -0.091859 -0.075839 1.616818
 26   19.916998 1.704573 4.956909 2.262592 1.451744 0.734330
time 3
  0   19.819996 -4.951718 25.375927 0.002890 -0.095853 -1.571131
  1   -3.323001 -1.386760 9.745319 -1.570795 -1.570451 0.000000
  2   -0.000008 0.000010 5.615750 -0.147539 2.725404 -0.525500
  3   15.693467 0.000000 0.000000 0.000000 0.000000 -0.483766
  4   22.146629 -0.000001 0.000000 -0.124630 0.423299 -0.133210
  5   3.310129 5.734393 0.000000 0.000000 0.000000 1.570796
  6   0.000008 -0.000006 -5.615750 0.206615 3.326148 -0.364892
  7   15.693467 0.000000 0.000000 0.000000 0.000000 -1.408782
  8   22.146629 0.000000 0.000000 -0.107573 -0.254903 0.980861
  9   3.310129 5.734393 0.000000 0.000000 0.000000 1.570796
 10   1.384163 -0.004728 0.000002 -0.445115 -0.195731 0.127966
 11   5.939814 -0.004730 0.000000 -0.093624 -0.026965 0.225909
 12   5.939809 -0.003975 0.000000 -0.095442 -0.068108 0.133523
 13   4.991439 -0.003975 0.000000 -0.087224 0.060306 0.042838
 14   4.991436 -0.001575 0.000000 0.000000 0.000000 0.000000
 15   0.000005 0.001564 3.638375 -0.000010 -1.283555 3.140806
 16   8.842831 0.000000 -0.000002 0.191026 -0.705722 -1.031293
 17   9.341934 0.000000 -0.000001 0.000000 0.000000 -1.144431
 18   11.168404 -0.000001 0.000002 -3.818408 -0.128624 -0.027430
 19   0.000005 0.001585 -3.638375 -0.000010 1.064020 3.140787
 20   8.842831 0.000000 0.000001 -0.105539 -0.041745 -2.132445
 21   9.341937 0.000000 -0.000001 0.000000 0.000000 -0.701232
 22   11.168404 -0.000001 0.000001 2.914501 0.169655 0.441333
 23   1.977383 0.000000 0.000000 0.492095 0.361987 -0.043097
 24   3.723980 2.768054 -0.049087 0.000001 -3.141591 -1.570794
 25   12.421014 0.304721 4.492689 -0.091859 -0.075839 1.616818
 26   19.916998 1.704573 4.956909 2.262592 1.451744 0.734330
time 4
  0   25.266617 -4.951718 25.826805 0.002890 -0.095853 -1.571131
  1   -1.377630 -1.113314 9.745319 -1.570795 -1.570451 0.000000
  2   -0.000008 0.000010 5.615750 -0.250788 2.932204 -1.120168
  3   15.693467 0.000000 0.000000 0.000000 0.000000 -1.343744
  4   22.146629 -0.000001 0.000000 -0.107952 0.307493 0.137367
  5   3.310129 5.734393 0.000000 0.000000 0.000000 1.570796
  6   0.000008 -0.000006 -5.615750 0.222051 3.473506 -0.154563
  7   15.693467 0.000000 0.000000 0.000000 0.000000 -0.990025
  8   22.146629 0.000000 0.000000 -0.144916 -0.371011 0.804090
  9   3.310129 5.734393 0.000000 0.000000 0.000000 1.570796
 10   1.384163 -0.004728 0.000002 -0.438047 -0.165838 -0.077054
 11   5.939814 -0.004730 0.000000 -0.093624 -0.026965 0.225909
 12   5.939809 -0.003975 0.000000 -0.095442 -0.068108 0.133523
 13   4.991439 -0.003975 0.000000 -0.087224 0.060306 0.042838
 14   4.991436 -0.001575 0.000000 0.000000 0.000000 0.000000
 15   0.000005 0.001564 3.638375 -0.000010 -1.283555 3.140806
 16   8.842831 0.000000 -0.000002 0.223672 -0.324973 -0.900282
 17   9.341934 0.000000 -0.000001 0.000000 0.000000 -1.239391
 18   11.168404 -0.000001 0.000002 -3.684033 -0.324242 0.011733
 19   0.000005 0.001585 -3.638375 -0.000010 1.060625 3.140787
 20   8.842831 0.000000 0.000001 -0.202692 -0.207025 -2.052763
 21   9.341937 0.000000 -0.000001 0.000000 0.000000 -0.686376
 22   11.168404 -0.000001 0.000001 2.927925 0.173491 0.434658
 23   1.977383 0.000000 0.000000 0.482950 0.181652 0.126595
 24   3.723980 2.768054 -0.049087 0.000001 -3.141591 -1.570794
 25   12.421014 0.304721 4.492689 -0.091859 -0.075839 1.616818
 26   19.916998 1.704573 4.956909 2.262592 1.451744 0.734330
time 5
  0   30.705702 -4.951718 26.630543 0.002890 -0.095853 -1.571131
  1   -1.111996 -2.418041 9.745319 -1.570795 -1.570451 0.000000
  2   -0.000008 0.000010 5.615750 -0.161631 3.037041 -1.188122
  3   15.693467 0.000000 0.000000 0.000000 0.000000 -1.475491
  4   22.146629 -0.000001 0.000000 -0.054294 0.184580 0.194857
  5   3.310129 5.734393 0.000000 0.000000 0.000000 1.570796
  6   0.000008 -0.000006 -5.615750 0.151870 3.568133 0.126669
  7   15.693467 0.000000 0.000000 0.000000 0.000000 -0.481503
  8   22.146629 0.000000 0.000000 -0.180059 -0.416048 0.583280
  9   3.310129 5.734393 0.000000 0.000000 0.000000 1.570796
 10   1.384163 -0.004728 0.000002 -0.446327 -0.304948 -0.106880
 11   5.939814 -0.004730 0.000000 -0.093624 -0.026965 0.225909
 12   5.939809 -0.003975 0.000000 -0.095442 -0.068108 0.133523
 13   4.991439 -0.003975 0.000000 -0.087224 0.060306 0.042838
 14   4.991436 -0.001575 0.000000 0.000000 0.000000 0.000000
 15   0.000005 0.001564 3.638375 -0.000010 -1.283555 3.140806
 16   8.842831 0.000000 -0.000002 0.241503 -0.423486 -0.779348
 17   9.341934 0.000000 -0.000001 0.000000 0.000000 -1.395935
 18   11.168404 -0.000001 0.000002 -3.756712 -0.224711 0.091091
 19   0.000005 0.001585 -3.638375 -0.000010 1.058414 3.140787
 20   8.842831 0.000000 0.000001 -0.085060 -0.277138 -2.084884
 21   9.341937 0.000000 -0.000001 0.000000 0.000000 -0.676850
 22   11.168404 -0.000001 0.000001 2.936594 0.176021 0.430428
 23   1.977383 0.000000 0.000000 0.565151 0.215230 0.292211
 24   3.723980 2.768054 -0.049087 0.000001 -3.141591 -1.570794
 25   12.421014 0.304721 4.492689 -0.091859 -0.075839 1.616818
 26   19.916998 1.704573 4.956909 2.262592 1.451744 0.734330
time 6
  0   36.137253 -4.951718 27.414679 0.002890 -0.095853 -1.571131
  1   -1.514352 -0.218756 9.745319 -1.570795 -1.570451 0.000000
  2   -0.000008 0.000010 5.615750 -0.054643 3.124629 -1.202076
  3   15.693467 0.000000 0.000000 0.000000 0.000000 -1.515683
  4   22.146629 -0.000001 0.000000 -0.001608 0.057209 0.218000
  5   3.310129 5.734393 0.000000 0.000000 0.000000 1.570796
  6   0.000008 -0.000006 -5.615750 0.067402 3.352513 0.093777
  7   15.693467 0.000000 0.000000 0.000000 0.000000 -0.561518
  8   22.146629 0.000000 0.000000 -0.068425 -0.210664 0.573680
  9   3.310129 5.734393 0.000000 0.000000 0.000000 1.570796
 10   1.384163 -0.004728 0.000002 -0.435590 -0.072534 -0.062644
 11   5.939814 -0.004730 0.000000 -0.093624 -0.026965 0.225909
 12   5.939809 -0.003975 0.000000 -0.095442 -0.068108 0.133523
 13   4.991439 -0.003975 0.000000 -0.087224 0.060306 0.042838
 14   4.991436 -0.001575 0.000000 0.000000 0.000000 0.000000
 15   0.000005 0.001564 3.638375 -0.000010 -1.283555 3.140806
 16   8.842831 0.000000 -0.000002 0.209498 -0.261810 -0.991654
 17   9.341934 0.000000 -0.000001 0.000000 0.000000 -1.097689
 18   11.168404 -0.000001 0.000002 -3.639624 -0.392192 -0.071359
 19   0.000005 0.001585 -3.638375 -0.000010 1.057282 3.140787
 20   8.842831 0.000000 0.000001 -0.299362 -0.156299 -2.048093
 21   9.341937 0.000000 -0.000001 0.000000 0.000000 -0.671987
 22   11.168404 -0.000001 0.000001 2.940975 0.177328 0.428266
 23   1.977383 0.000000 0.000000 0.444519 0.125766 0.062774
 24   3.723980 2.768054 -0.049087 0.000001 -3.141591 -1.570794
 25   12.421014 0.304721 4.492689 -0.091859 -0.075839 1.616818
 26   19.916998 1.704573 4.956909 2.262592 1.451744 0.734330
time 7
  0   41.561264 -4.944674 27.787144 0.002890 -0.095853 -1.571131
  1   -3.549571 -1.281288 9.745319 -1.570795 -1.570451 0.000000
  2   -0.000008 0.000010 5.615750 0.049277 3.206084 -1.177036
  3   15.693467 0.000000 0.000000 0.000000 0.000000 -1.485734
  4   22.146629 -0.000001 0.000000 0.047227 -0.066125 0.212740
  5   3.310129 5.734393 0.000000 0.000000 0.000000 1.570796
  6   0.000008 -0.000006 -5.615750 -0.000095 3.162492 0.023223
  7   15.693467 0.000000 0.000000 0.000000 0.000000 -0.690435
  8   22.146629 0.000000 0.000000 0.001636 -0.020845 0.617719
  9   3.310129 5.734393 0.000000 0.000000 0.000000 1.570796
 10   1.384163 -0.004728 0.000002 -0.443500 -0.184327 0.152319
 11   5.939814 -0.004730 0.000000 -0.093624 -0.026965 0.225909
 12   5.939809 -0.003975 0.000000 -0.095442 -0.068108 0.133523
 13   4.991439 -0.003975 0.000000 -0.087224 0.060306 0.042838
 14   4.991436 -0.001575 0.000000 0.000000 0.000000 0.000000
 15   0.000005 0.001564 3.638375 -0.000010 -1.283555 3.140806
 16   8.842831 0.000000 -0.000002 0.244521 -0.733257 -1.121246
 17   9.341934 0.000000 -0.000001 0.000000 0.000000 -1.029298
 18   11.168404 -0.000001 0.000002 -3.835025 -0.125562 -0.083299
 19   0.000005 0.001585 -3.638375 -0.000010 1.057128 3.140787
 20   8.842831 0.000000 0.000001 -0.137708 -0.001111 -2.152080
 21   9.341937 0.000000 -0.000001 0.000000 0.000000 -0.671387
 22   11.168404 -0.000001 0.000001 2.941535 0.177497 0.427984
 23   1.977383 0.000000 0.000000 0.486175 0.369585 -0.066856
 24   3.723980 2.768054 -0.049087 0.000001 -3.141591 -1.570794
 25   12.421014 0.304721 4.492689 -0.091859 -0.075839 1.616818
 26   19.916998 1.704573 4.956909 2.262592 1.451744 0.734330
time 8
  0   46.977741 -4.937630 25.885614 0.002890 -0.095853 -1.571131
  1   -4.955863 -1.543015 9.745319 -1.570795 -1.570451 0.000000
  2   -0.000008 0.000010 5.615750 0.132873 3.289551 -1.126572
  3   15.693467 0.000000 0.000000 0.000000 0.000000 -1.406985
  4   22.146629 -0.000001 0.000000 0.093706 -0.175343 0.186076
  5   3.310129 5.734393 0.000000 0.000000 0.000000 1.570796
  6   0.000008 -0.000006 -5.615750 -0.077659 2.956363 -0.076295
  7   15.693467 0.000000 0.000000 0.000000 0.000000 -0.873538
  8   22.146629 0.000000 0.000000 0.045861 0.195498 0.713106
  9   3.310129 5.734393 0.000000 0.000000 0.000000 1.570796
 10   1.384163 -0.004728 0.000002 -0.438283 -0.211000 0.311128
 11   5.939814 -0.004730 0.000000 -0.093624 -0.026965 0.225909
 12   5.939809 -0.003975 0.000000 -0.095442 -0.068108 0.133523
 13   4.991439 -0.003975 0.000000 -0.087224 0.060306 0.042838
 14   4.991436 -0.001575 0.000000 0.000000 0.000000 0.000000
 15   0.000005 0.001564 3.638375 -0.000010 -1.283555 3.140806
 16   8.842831 0.000000 -0.000002 0.655561 -0.860886 -1.687394
 17   9.341934 0.000000 -0.000001 0.000000 0.000000 -0.445436
 18   11.168404 -0.000001 0.000002 -3.916776 -0.004784 -0.403775
 19   0.000005 0.001585 -3.638375 -0.000010 1.057848 3.140787
 20   8.842831 0.000000 0.000001 -0.076110 0.140975 -2.193827
 21   9.341937 0.000000 -0.000001 0.000000 0.000000 -0.674318
 22   11.168404 -0.000001 0.000001 2.938925 0.176695 0.429206
 23   1.977383 0.000000 0.000000 0.455039 0.510477 -0.199617
 24   3.723980 2.768054 -0.049087 0.000001 -3.141591 -1.570794
 25   12.421014 0.304721 4.492689 -0.091859 -0.075839 1.616818
 26   19.916998 1.704573 4.956909 2.262592 1.451744 0.734330
time 9
  0   52.379143 -4.937630 25.591564 0.002890 -0.095853 -1.571131
  1   -5.565257 -1.574266 9.745319 -1.570795 -1.570451 0.000000
  2   -0.000008 0.000010 5.615750 0.159141 3.394964 -0.932459
  3   15.693467 0.000000 0.000000 0.000000 0.000000 -1.109703
  4   22.146629 -0.000001 0.000000 0.135324 -0.266679 0.083443
  5   3.310129 5.734393 0.000000 0.000000 0.000000 1.570796
  6   0.000008 -0.000006 -5.615750 -0.083795 2.992316 -0.314116
  7   15.693467 0.000000 0.000000 0.000000 0.000000 -1.391886
  8   22.146629 0.000000 0.000000 0.017882 0.170109 0.989581
  9   3.310129 5.734393 0.000000 0.000000 0.000000 1.570796
 10   1.384163 -0.004728 0.000002 -0.431012 -0.212959 0.383376
 11   5.939814 -0.004730 0.000000 -0.093624 -0.026965 0.225909
 12   5.939809 -0.003975 0.000000 -0.095442 -0.068108 0.133523
 13   4.991439 -0.003975 0.000000 -0.087224 0.060306 0.042838
 14   4.991436 -0.001575 0.000000 0.000000 0.000000 0.000000
 15   0.000005 0.001564 3.638375 -0.000010 -1.283555 3.140806
 16   8.842831 0.000000 -0.000002 0.922212 -0.759304 -2.027874
 17   9.341934 0.000000 -0.000001 0.000000 0.000000 -0.002536
 18   11.168404 -0.000001 0.000002 -3.931102 0.023927 -0.634968
 19   0.000005 0.001585 -3.638375 -0.000010 1.059185 3.140787
 20   8.842831 0.000000 0.000001 -0.054906 0.208786 -2.204788
 21   9.341937 0.000000 -0.000001 0.000000 0.000000 -0.680247
 22   11.168404 -0.000001 0.000001 2.933518 0.175136 0.431932
 23   1.977383 0.000000 0.000000 0.437383 0.555209 -0.248576
 24   3.723980 2.768054 -0.049087 0.000001 -3.141591 -1.570794
 25   12.421014 0.304721 4.492689 -0.091859 -0.075839 1.616818
 26   19.916998 1.704573 4.956909 2.262592 1.451744 0.734330
time 10
  0   57.788086 -4.930586 25.513149 0.002890 -0.095853 -1.571131
  1   -4.741014 -1.437543 9.745319 -1.570795 -1.570451 0.000000
  2   -0.000008 0.000010 5.615750 0.113220 3.450257 -0.690176
  3   15.693467 0.000000 0.000000 0.000000 0.000000 -0.767533
  4   22.146629 -0.000001 0.000000 0.140372 -0.297612 -0.022025
  5   3.310129 5.734393 0.000000 0.000000 0.000000 1.570796
  6   0.000008 -0.000006 -5.615750 0.058486 3.134976 -0.358019
  7   15.693467 0.000000 0.000000 0.000000 0.000000 -1.511796
  8   22.146629 0.000000 0.000000 -0.055507 -0.019679 1.058105
  9   3.310129 5.734393 0.000000 0.000000 0.000000 1.570796
 10   1.384163 -0.004728 0.000002 -0.431618 -0.198844 0.285124
 11   5.939814 -0.004730 0.000000 -0.093624 -0.026965 0.225909
 12   5.939809 -0.003975 0.000000 -0.095442 -0.068108 0.133523
 13   4.991439 -0.003975 0.000000 -0.087224 0.060306 0.042838
 14   4.991436 -0.001575 0.000000 0.000000 0.000000 0.000000
 15   0.000005 0.001564 3.638375 -0.000010 -1.283555 3.140806
 16   8.842831 0.000000 -0.000002 0.419362 -0.888794 -1.393123
 17   9.341934 0.000000 -0.000001 0.000000 0.000000 -0.815188
 18   11.168404 -0.000001 0.000002 -3.880294 -0.043544 -0.205996
 19   0.000005 0.001585 -3.638375 -0.000010 1.061139 3.140787
 20   8.842831 0.000000 0.000001 -0.078529 0.115213 -2.175622
 21   9.341937 0.000000 -0.000001 0.000000 0.000000 -0.688641
 22   11.168404 -0.000001 0.000001 2.925874 0.172901 0.435692
 23   1.977383 0.000000 0.000000 0.467408 0.468494 -0.151851
 24   3.723980 2.768054 -0.049087 0.000001 -3.141591 -1.570794
 25   12.421014 0.304721 4.492689 -0.091859 -0.075839 1.616818
 26   19.916998 1.704573 4.956909 2.262592 1.451744 0.734330
time 11
  0   63.181953 -4.923542 26.473717 0.002890 -0.095853 -1.571131
  1   -3.307376 -1.214880 9.745319 -1.570795 -1.570451 0.000000
  2   -0.000008 0.000010 5.615750 0.006808 3.266840 -0.709769
  3   15.693467 0.000000 0.000000 0.000000 0.000000 -0.849696
  4   22.146629 -0.000001 0.000000 0.085853 -0.091560 0.040497
  5   3.310129 5.734393 0.000000 0.000000 0.000000 1.570796
  6   0.000008 -0.000006 -5.615750 0.228763 3.293551 -0.388176
  7   15.693467 0.000000 0.000000 0.000000 0.000000 -1.551468
  8   22.146629 0.000000 0.000000 -0.136341 -0.238356 1.101175
  9   3.310129 5.734393 0.000000 0.000000 0.000000 1.570796
 10   1.384163 -0.004728 0.000002 -0.437003 -0.176545 0.125570
 11   5.939814 -0.004730 0.000000 -0.093624 -0.026965 0.225909
 12   5.939809 -0.003975 0.000000 -0.095442 -0.068108 0.133523
 13   4.991439 -0.003975 0.000000 -0.087224 0.060306 0.042838
 14   4.991436 -0.001575 0.000000 0.000000 0.000000 0.000000
 15   0.000005 0.001564 3.638375 -0.000010 -1.283555 3.140806
 16   8.842831 0.000000 -0.000002 0.212973 -0.657256 -1.055629
 17   9.341934 0.000000 -0.000001 0.000000 0.000000 -1.115566
 18   11.168404 -0.000001 0.000002 -3.789183 -0.170447 -0.037306
 19   0.000005 0.001585 -3.638375 -0.000010 1.063505 3.140787
 20   8.842831 0.000000 0.000001 -0.125695 -0.033866 -2.124916
 21   9.341937 0.000000 -0.000001 0.000000 0.000000 -0.698967
 22   11.168404 -0.000001 0.000001 2.916552 0.170245 0.440299
 23   1.977383 0.000000 0.000000 0.491937 0.327971 -0.014318
 24   3.723980 2.768054 -0.049087 0.000001 -3.141591 -1.570794
 25   12.421014 0.304721 4.492689 -0.091859 -0.075839 1.616818
 26   19.916998 1.704573 4.956909 2.262592 1.451744 0.734330
time 12
  0   68.583359 -4.916498 26.375700 0.002890 -0.095853 -1.571131
  1   -2.467506 -1.062531 9.745319 -1.570795 -1.570451 0.000000
  2   -0.000008 0.000010 5.615750 -0.080815 3.080931 -0.721142
  3   15.693467 0.000000 0.000000 0.000000 0.000000 -0.871678
  4   22.146629 -0.000001 0.000000 0.011218 0.100450 0.057557
  5   3.310129 5.734393 0.000000 0.000000 0.000000 1.570796
  6   0.000008 -0.000006 -5.615750 0.372961 3.438704 -0.399678
  7   15.693467 0.000000 0.000000 0.000000 0.000000 -1.503683
  8   22.146629 0.000000 0.000000 -0.211084 -0.425933 1.110247
  9   3.310129 5.734393 0.000000 0.000000 0.000000 1.570796
 10   1.384163 -0.004728 0.000002 -0.442052 -0.161195 0.036580
 11   5.939814 -0.004730 0.000000 -0.093624 -0.026965 0.225909
 12   5.939809 -0.003975 0.000000 -0.095442 -0.068108 0.133523
 13   4.991439 -0.003975 0.000000 -0.087224 0.060306 0.042838
 14   4.991436 -0.001575 0.000000 0.000000 0.000000 0.000000
 15   0.000005 0.001564 3.638375 -0.000010 -1.283555 3.140806
 16   8.842831 0.000000 -0.000002 0.195781 -0.516324 -0.997626
 17   9.341934 0.000000 -0.000001 0.000000 0.000000 -1.138035
 18   11.168404 -0.000001 0.000002 -3.747544 -0.227295 -0.026791
 19   0.000005 0.001585 -3.638375 -0.000010 1.066180 3.140787
 20   8.842831 0.000000 0.000001 -0.153914 -0.118055 -2.090221
 21   9.341937 0.000000 -0.000001 0.000000 0.000000 -0.710625
 22   11.168404 -0.000001 0.000001 2.906018 0.167252 0.445563
 23   1.977383 0.000000 0.000000 0.498386 0.238577 0.071224
 24   3.723980 2.768054 -0.049087 0.000001 -3.141591 -1.570794
 25   12.421014 0.304721 4.492689 -0.091859 -0.075839 1.616818
 26   19.916998 1.704573 4.956909 2.262592 1.451744 0.734330
time 13
  0   73.977226 -4.909453 26.297285 0.002890 -0.095853 -1.571131
  1   -2.459694 -0.996123 9.745319 -1.570795 -1.570451 0.000000
  2   -0.000008 0.000010 5.615750 -0.147539 2.898568 -0.644300
  3   15.693467 0.000000 0.000000 0.000000 0.000000 -0.718946
  4   22.146629 -0.000001 0.000000 -0.054070 0.278567 -0.010774
  5   3.310129 5.734393 0.000000 0.000000 0.000000 1.570796
  6   0.000008 -0.000006 -5.615750 0.305080 3.531126 -0.175533
  7   15.693467 0.000000 0.000000 0.000000 0.000000 -1.016002
  8   22.146629 0.000000 0.000000 -0.214525 -0.444015 0.853678
  9   3.310129 5.734393 0.000000 0.000000 0.000000 1.570796
 10   1.384163 -0.004728 0.000002 -0.442793 -0.154487 0.035770
 11   5.939814 -0.004730 0.000000 -0.093624 -0.026965 0.225909
 12   5.939809 -0.003975 0.000000 -0.095442 -0.068108 0.133523
 13   4.991439 -0.003975 0.000000 -0.087224 0.060306 0.042838
 14   4.991436 -0.001575 0.000000 0.000000 0.000000 0.000000
 15   0.000005 0.001564 3.638375 -0.000010 -1.283555 3.140806
 16   8.842831 0.000000 -0.000002 0.197062 -0.514557 -1.018154
 17   9.341934 0.000000 -0.000001 0.000000 0.000000 -1.101379
 18   11.168404 -0.000001 0.000002 -3.748690 -0.224519 -0.044677
 19   0.000005 0.001585 -3.638375 -0.000010 1.069060 3.140787
 20   8.842831 0.000000 0.000001 -0.149963 -0.123190 -2.084312
 21   9.341937 0.000000 -0.000001 0.000000 0.000000 -0.723016
 22   11.168404 -0.000001 0.000001 2.894738 0.164132 0.451298
 23   1.977383 0.000000 0.000000 0.502720 0.217908 0.095878
 24   3.723980 2.768054 -0.049087 0.000001 -3.141591 -1.570794
 25   12.421014 0.304721 4.492689 -0.091859 -0.075839 1.616818
 26   19.916998 1.704573 4.956909 2.262592 1.451744 0.734330
time 14
  0   79.363564 -4.902410 26.199268 0.002890 -0.095853 -1.571131
  1   -2.604229 -0.945340 9.745319 -1.570795 -1.570451 0.000000
  2   -0.000008 0.000010 5.615750 -0.113410 2.711701 -0.379462
  3   15.693467 0.000000 0.000000 0.000000 0.000000 -0.264166
  4   22.146629 -0.000001 0.000000 -0.098081 0.433453 -0.208035
  5   3.310129 5.734393 0.000000 0.000000 0.000000 1.570796
  6   0.000008 -0.000006 -5.615750 0.156759 3.569571 0.158580
  7   15.693467 0.000000 0.000000 0.000000 0.000000 -0.431112
  8   22.146629 0.000000 0.000000 -0.199351 -0.410829 0.569540
  9   3.310129 5.734393 0.000000 0.000000 0.000000 1.570796
 10   1.384163 -0.004728 0.000002 -0.442591 -0.149147 0.050958
 11   5.939814 -0.004730 0.000000 -0.093624 -0.026965 0.225909
 12   5.939809 -0.003975 0.000000 -0.095442 -0.068108 0.133523
 13   4.991439 -0.003975 0.000000 -0.087224 0.060306 0.042838
 14   4.991436 -0.001575 0.000000 0.000000 0.000000 0.000000
 15   0.000005 0.001564 3.638375 -0.000010 -1.283555 3.140806
 16   8.842831 0.000000 -0.000002 0.199622 -0.544511 -1.057868
 17   9.341934 0.000000 -0.000001 0.000000 0.000000 -1.045945
 18   11.168404 -0.000001 0.000002 -3.761774 -0.203465 -0.071211
 19   0.000005 0.001585 -3.638375 -0.000010 1.071940 3.140787
 20   8.842831 0.000000 0.000001 -0.139885 -0.114160 -2.084026
 21   9.341937 0.000000 -0.000001 0.000000 0.000000 -0.735607
 22   11.168404 -0.000001 0.000001 2.883272 0.161054 0.457032
 23   1.977383 0.000000 0.000000 0.506262 0.212643 0.103681
 24   3.723980 2.768054 -0.049087 0.000001 -3.141591 -1.570794
 25   12.421014 0.304721 4.492689 -0.091859 -0.075839 1.616818
 26   19.916998 1.704573 4.956909 2.262592 1.451744 0.734330
time 15
  0   84.757439 -4.895366 26.101252 0.002890 -0.095853 -1.571131
  1   -2.865956 -0.906277 9.745319 -1.570795 -1.570451 0.000000
  2   -0.000008 0.000010 5.615750 -0.045344 2.565561 -0.217079
  3   15.693467 0.000000 0.000000 0.000000 0.000000 -0.001883
  4   22.146629 -0.000001 0.000000 -0.147476 0.560551 -0.340351
  5   3.310129 5.734393 0.000000 0.000000 0.000000 1.570796
  6   0.000008 -0.000006 -5.615750 0.181591 3.397958 -0.065845
  7   15.693467 0.000000 0.000000 0.000000 0.000000 -0.824562
  8   22.146629 0.000000 0.000000 -0.144126 -0.278849 0.706589
  9   3.310129 5.734393 0.000000 0.000000 0.000000 1.570796
 10   1.384163 -0.004728 0.000002 -0.441581 -0.144880 0.078452
 11   5.939814 -0.004730 0.000000 -0.093624 -0.026965 0.225909
 12   5.939809 -0.003975 0.000000 -0.095442 -0.068108 0.133523
 13   4.991439 -0.003975 0.000000 -0.087224 0.060306 0.042838
 14   4.991436 -0.001575 0.000000 0.000000 0.000000 0.000000
 15   0.000005 0.001564 3.638375 -0.000010 -1.283555 3.140806
 16   8.842831 0.000000 -0.000002 0.211693 -0.589534 -1.114080
 17   9.341934 0.000000 -0.000001 0.000000 0.000000 -0.974274
 18   11.168404 -0.000001 0.000002 -3.777436 -0.176189 -0.106541
 19   0.000005 0.001585 -3.638375 -0.000010 1.074769 3.140787
 20   8.842831 0.000000 0.000001 -0.125614 -0.093976 -2.088315
 21   9.341937 0.000000 -0.000001 0.000000 0.000000 -0.747798
 22   11.168404 -0.000001 0.000001 2.872179 0.158145 0.462673
 23   1.977383 0.000000 0.000000 0.508430 0.222296 0.092895
 24   3.723980 2.768054 -0.049087 0.000001 -3.141591 -1.570794
 25   12.421014 0.304721 4.492689 -0.091859 -0.075839 1.616818
 26   19.916998 1.704573 4.956909 2.262592 1.451744 0.734330
time 16
  0   90.151306 -4.888321 25.964027 0.002890 -0.095853 -1.571131
  1   -3.205810 -0.875026 9.745319 -1.570795 -1.570451 0.000000
  2   -0.000008 0.000010 5.615750 -0.183585 2.717067 -0.694859
  3   15.693467 0.000000 0.000000 0.000000 0.000000 -0.665095
  4   22.146629 -0.000001 0.000000 -0.176119 0.427558 -0.124292
  5   3.310129 5.734393 0.000000 0.000000 0.000000 1.570796
  6   0.000008 -0.000006 -5.615750 0.134132 3.262967 -0.149093
  7   15.693467 0.000000 0.000000 0.000000 0.000000 -0.986601
  8   22.146629 0.000000 0.000000 -0.101875 -0.149479 0.757321
  9   3.310129 5.734393 0.000000 0.000000 0.000000 1.570796
 10   1.384163 -0.004728 0.000002 -0.439966 -0.141419 0.114560
 11   5.939814 -0.004730 0.000000 -0.093624 -0.026965 0.225909
 12   5.939809 -0.003975 0.000000 -0.095442 -0.068108 0.133523
 13   4.991439 -0.003975 0.000000 -0.087224 0.060306 0.042838
 14   4.991436 -0.001575 0.000000 0.000000 0.000000 0.000000
 15   0.000005 0.001564 3.638375 -0.000010 -1.283555 3.140806
 16   8.842831 0.000000 -0.000002 0.238028 -0.639489 -1.186192
 17   9.341934 0.000000 -0.000001 0.000000 0.000000 -0.887761
 18   11.168404 -0.000001 0.000002 -3.791667 -0.148435 -0.150470
 19   0.000005 0.001585 -3.638375 -0.000010 1.077340 3.140787
 20   8.842831 0.000000 0.000001 -0.109006 -0.065736 -2.095750
 21   9.341937 0.000000 -0.000001 0.000000 0.000000 -0.759056
 22   11.168404 -0.000001 0.000001 2.861925 0.155489 0.467843
 23   1.977383 0.000000 0.000000 0.505469 0.250839 0.053430
 24   3.723980 2.768054 -0.049087 0.000001 -3.141591 -1.570794
 25   12.421014 0.304721 4.492689 -0.091859 -0.075839 1.616818
 26   19.916998 1.704573 4.956909 2.262592 1.451744 0.734330
time 17
  0   95.545174 -4.881278 25.846407 0.002890 -0.095853 -1.571131
  1   -3.588634 -0.851587 9.745319 -1.570795 -1.570451 0.000000
  2   -0.000008 0.000010 5.615750 -0.198540 2.931246 -1.058809
  3   15.693467 0.000000 0.000000 0.000000 0.000000 -1.261154
  4   22.146629 -0.000001 0.000000 -0.111692 0.266332 0.112440
  5   3.310129 5.734393 0.000000 0.000000 0.000000 1.570796
  6   0.000008 -0.000006 -5.615750 0.067402 3.164121 -0.183107
  7   15.693467 0.000000 0.000000 0.000000 0.000000 -1.051953
  8   22.146629 0.000000 0.000000 -0.058609 -0.040186 0.774849
  9   3.310129 5.734393 0.000000 0.000000 0.000000 1.570796
 10   1.384163 -0.004728 0.000002 -0.437946 -0.138440 0.155590
 11   5.939814 -0.004730 0.000000 -0.093624 -0.026965 0.225909
 12   5.939809 -0.003975 0.000000 -0.095442 -0.068108 0.133523
 13   4.991439 -0.003975 0.000000 -0.087224 0.060306 0.042838
 14   4.991436 -0.001575 0.000000 0.000000 0.000000 0.000000
 15   0.000005 0.001564 3.638375 -0.000010 -1.283555 3.140806
 16   8.842831 0.000000 -0.000002 0.280916 -0.687024 -1.274055
 17   9.341934 0.000000 -0.000001 0.000000 0.000000 -0.787881
 18   11.168404 -0.000001 0.000002 -3.802936 -0.122595 -0.201819
 19   0.000005 0.001585 -3.638375 -0.000010 1.079603 3.140787
 20   8.842831 0.000000 0.000001 -0.092235 -0.032184 -2.105281
 21   9.341937 0.000000 -0.000001 0.000000 0.000000 -0.768782
 22   11.168404 -0.000001 0.000001 2.853069 0.153212 0.472356
 23   1.977383 0.000000 0.000000 0.495320 0.294047 -0.010739
 24   3.723980 2.768054 -0.049087 0.000001 -3.141591 -1.570794
 25   12.421014 0.304721 4.492689 -0.091859 -0.075839 1.616818
 26   19.916998 1.704573 4.956909 2.262592 1.451744 0.734330
time 18
  0   100.939041 -4.874234 25.728788 0.002890 -0.095853 -1.571131
  1   -3.979271 -0.828149 9.745319 -1.570795 -1.570451 0.000000
  2   -0.000008 0.000010 5.615750 -0.125202 3.034933 -1.051737
  3   15.693467 0.000000 0.000000 0.000000 0.000000 -1.299070
  4   22.146629 -0.000001 0.000000 -0.045619 0.157932 0.154426
  5   3.310129 5.734393 0.000000 0.000000 0.000000 1.570796
  6   0.000008 -0.000006 -5.615750 -0.054936 3.141783 -0.191594
  7   15.693467 0.000000 0.000000 0.000000 0.000000 -1.068105
  8   22.146629 0.000000 0.000000 0.052743 0.015350 0.780926
  9   3.310129 5.734393 0.000000 0.000000 0.000000 1.570796
 10   1.384163 -0.004728 0.000002 -0.435691 -0.135676 0.197818
 11   5.939814 -0.004730 0.000000 -0.093624 -0.026965 0.225909
 12   5.939809 -0.003975 0.000000 -0.095442 -0.068108 0.133523
 13   4.991439 -0.003975 0.000000 -0.087224 0.060306 0.042838
 14   4.991436 -0.001575 0.000000 0.000000 0.000000 0.000000
 15   0.000005 0.001564 3.638375 -0.000010 -1.283555 3.140806
 16   8.842831 0.000000 -0.000002 0.340263 -0.726373 -1.376252
 17   9.341934 0.000000 -0.000001 0.000000 0.000000 -0.676029
 18   11.168404 -0.000001 0.000002 -3.811340 -0.099531 -0.259507
 19   0.000005 0.001585 -3.638375 -0.000010 1.081352 3.140787
 20   8.842831 0.000000 0.000001 -0.077239 0.003492 -2.115861
 21   9.341937 0.000000 -0.000001 0.000000 0.000000 -0.776444
 22   11.168404 -0.000001 0.000001 2.846078 0.151484 0.475928
 23   1.977383 0.000000 0.000000 0.480677 0.339264 -0.080326
 24   3.723980 2.768054 -0.049087 0.000001 -3.141591 -1.570794
 25   12.421014 0.304721 4.492689 -0.091859 -0.075839 1.616818
 26   19.916998 1.704573 4.956909 2.262592 1.451744 0.734330
time 19
  0   106.340446 -4.867189 25.591564 0.002890 -0.095853 -1.571131
  1   -4.338657 -0.804711 9.745319 -1.570795 -1.570451 0.000000
  2   -0.000008 0.000010 5.615750 -0.044194 3.116771 -0.925100
  3   15.693467 0.000000 0.000000 0.000000 0.000000 -1.144987
  4   22.146629 -0.000001 0.000000 0.001870 0.050696 0.124515
  5   3.310129 5.734393 0.000000 0.000000 0.000000 1.570796
  6   0.000008 -0.000006 -5.615750 -0.076413 3.087039 -0.191032
  7   15.693467 0.000000 0.000000 0.000000 0.000000 -1.066393
  8   22.146629 0.000000 0.000000 0.058045 0.073864 0.783656
  9   3.310129 5.734393 0.000000 0.000000 0.000000 1.570796
 10   1.384163 -0.004728 0.000002 -0.433503 -0.132778 0.237585
 11   5.939814 -0.004730 0.000000 -0.093624 -0.026965 0.225909
 12   5.939809 -0.003975 0.000000 -0.095442 -0.068108 0.133523
 13   4.991439 -0.003975 0.000000 -0.087224 0.060306 0.042838
 14   4.991436 -0.001575 0.000000 0.000000 0.000000 0.000000
 15   0.000005 0.001564 3.638375 -0.000010 -1.283555 3.140806
 16   8.842831 0.000000 -0.000002 0.411772 -0.752699 -1.487182
 17   9.341934 0.000000 -0.000001 0.000000 0.000000 -0.556058
 18   11.168404 -0.000001 0.000002 -3.816975 -0.080390 -0.321273
 19   0.000005 0.001585 -3.638375 -0.000010 1.082535 3.140787
 20   8.842831 0.000000 0.000001 -0.065790 0.038460 -2.126345
 21   9.341937 0.000000 -0.000001 0.000000 0.000000 -0.781440
 22   11.168404 -0.000001 0.000001 2.841510 0.150345 0.478278
 23   1.977383 0.000000 0.000000 0.468149 0.374504 -0.134355
 24   3.723980 2.768054 -0.049087 0.000001 -3.141591 -1.570794
 25   12.421014 0.304721 4.492689 -0.091859 -0.075839 1.616818
 26   19.916998 1.704573 4.956909 2.262592 1.451744 0.734330
time 20
  0   111.749390 -4.860146 25.493547 0.002890 -0.095853 -1.571131
  1   -4.639448 -0.773460 9.745319 -1.570795 -1.570451 0.000000
  2   -0.000008 0.000010 5.615750 0.025885 3.207618 -0.805153
  3   15.693467 0.000000 0.000000 0.000000 0.000000 -0.990904
  4   22.146629 -0.000001 0.000000 0.035710 -0.061345 0.089526
  5   3.310129 5.734393 0.000000 0.000000 0.000000 1.570796
  6   0.000008 -0.000006 -5.615750 -0.058675 3.052045 -0.155826
  7   15.693467 0.000000 0.000000 0.000000 0.000000 -0.995384
  8   22.146629 0.000000 0.000000 0.034748 0.101249 0.747897
  9   3.310129 5.734393 0.000000 0.000000 0.000000 1.570796
 10   1.384163 -0.004728 0.000002 -0.431517 -0.129370 0.271199
 11   5.939814 -0.004730 0.000000 -0.093624 -0.026965 0.225909
 12   5.939809 -0.003975 0.000000 -0.095442 -0.068108 0.133523
 13   4.991439 -0.003975 0.000000 -0.087224 0.060306 0.042838
 14   4.991436 -0.001575 0.000000 0.000000 0.000000 0.000000
 15   0.000005 0.001564 3.638375 -0.000010 -1.283555 3.140806
 16   8.842831 0.000000 -0.000002 0.481269 -0.765443 -1.588333
 17   9.341934 0.000000 -0.000001 0.000000 0.000000 -0.446994
 18   11.168404 -0.000001 0.000002 -3.819936 -0.067279 -0.376995
 19   0.000005 0.001585 -3.638375 -0.000010 1.082946 3.140787
 20   8.842831 0.000000 0.000001 -0.059663 0.069622 -2.136067
 21   9.341937 0.000000 -0.000001 0.000000 0.000000 -0.783239
 22   11.168404 -0.000001 0.000001 2.839832 0.149966 0.479124
 23   1.977383 0.000000 0.000000 0.487179 0.362934 -0.096778
 24   3.723980 2.768054 -0.049087 0.000001 -3.141591 -1.570794
 25   12.421014 0.304721 4.492689 -0.091859 -0.075839 1.616818
 26   19.916998 1.704573 4.956909 2.262592 1.451744 0.734330
end
