version 1
nodes
  0 "Bip01" -1
  1 "Bip01 Pelvis" 0
  2 "Bip01 L Thigh" 1
  3 "Bip01 L Calf" 2
  4 "Bip01 L Foot" 3
  5 "Bip01 L Toe0" 4
  6 "Bip01 L Toe01" 5
  7 "Bip01 L Toe02" 6
  8 "Bone10" 4
  9 "Bone11" 8
 10 "Bone13" 4
 11 "Bone14" 10
 12 "Bip01 R Thigh" 1
 13 "Bip01 R Calf" 12
 14 "Bip01 R Foot" 13
 15 "Bip01 R Toe0" 14
 16 "Bip01 R Toe01" 15
 17 "Bip01 R Toe02" 16
 18 "Bone16" 14
 19 "Bone17" 18
 20 "Bone19" 14
 21 "Bone20" 20
 22 "Bip01 Spine" 1
 23 "Bip01 Spine1" 22
 24 "Bip01 Spine2" 23
 25 "Bip01 Spine3" 24
 26 "Bip01 Neck" 25
 27 "Bip01 L Clavicle" 26
 28 "Bip01 L UpperArm" 27
 29 "Bip01 L Forearm" 28
 30 "Bip01 L Hand" 29
 31 "Bip01 L Finger0" 30
 32 "Bip01 L Finger01" 31
 33 "Bip01 L Finger02" 32
 34 "Bip01 L Finger1" 30
 35 "Bip01 L Finger11" 34
 36 "Bip01 L Finger12" 35
 37 "Bip01 R Clavicle" 26
 38 "Bip01 R UpperArm" 37
 39 "Bip01 R Forearm" 38
 40 "Bip01 R Hand" 39
 41 "Bip01 R Finger0" 40
 42 "Bip01 R Finger01" 41
 43 "Bip01 R Finger02" 42
 44 "Bip01 R Finger1" 40
 45 "Bip01 R Finger11" 44
 46 "Bip01 R Finger12" 45
 47 "Bip01 Neck1" 26
 48 "Bip01 Head" 47
 49 "Bone05" 24
 50 "Bone06" 49
 51 "Bone07" 50
 52 "Bone08" 51
 53 "Bone09" 52
 54 "Bone22" 53
 55 "Bone23" 54
 56 "Bone26" 53
 57 "Bone27" 56
 58 "Bone30" 52
 59 "Bone31" 58
end
skeleton
time 0
  0   -0.018562 -0.040179 35.359627 0.000000 -0.244215 -1.570836
  1   -0.851108 -2.078188 0.000000 -0.000017 -1.562086 -1.570801
  2   -0.000009 0.000010 6.353377 -0.040784 -0.034202 -2.090038
  3   18.507666 -0.000001 0.000000 0.000000 0.000000 -0.798000
  4   13.411350 -0.000001 0.000000 2.895801 0.048804 0.011006
  5   8.701365 6.675649 0.000000 0.000000 0.000000 1.614392
  6   2.657023 0.000000 0.000000 0.000000 0.000000 -0.043611
  7   2.657024 0.000000 -0.000001 0.000000 0.000000 -0.043611
  8   6.248515 -0.893520 -3.345191 3.141592 0.078501 -1.570796
  9   5.692028 -3.146075 2.191403 0.000000 0.000000 0.000000
 10   6.262098 -1.288316 1.407515 -1.570796 1.492295 1.570796
 11   -0.950702 5.642267 -3.162059 0.000000 0.000000 0.000000
 12   0.000009 -0.000007 -6.353377 -0.001591 -0.018715 -3.083973
 13   18.507666 0.000000 0.000001 0.000000 0.000000 -0.773423
 14   13.411351 0.000000 0.000000 -2.934621 0.031909 0.934848
 15   8.701365 6.675650 0.000000 0.000000 0.000000 1.527185
 16   2.639102 0.000000 0.000001 0.000000 0.000000 -0.043611
 17   2.639103 0.000000 -0.000001 0.000000 0.000000 -0.043611
 18   6.262098 -1.271893 -1.655766 1.570795 1.492298 -1.570797
 19   0.660782 5.698953 -3.162059 0.000000 0.000000 0.000000
 20   6.280027 -0.875930 3.588309 1.570795 1.492298 -1.570797
 21   -1.268985 5.650652 -3.144119 0.000000 0.000000 0.000000
 22   3.416504 -0.970598 0.027351 0.148127 -0.148703 0.740751
 23   6.150888 -0.004769 0.000000 0.000000 -0.000001 0.305267
 24   6.181765 -0.006274 0.000000 0.016479 -0.005682 0.331385
 25   8.035381 -0.006658 0.000000 -0.045760 0.025380 0.505288
 26   9.041865 -0.002307 0.000000 0.000000 -0.000002 0.527171
 27   -5.186878 6.436396 3.525343 -0.000012 -1.370798 2.613622
 28   8.356072 -0.000002 0.000001 -1.093455 0.501594 -0.963115
 29   22.314192 -0.000001 -0.000002 0.000000 0.000000 -2.190916
 30   13.466396 0.000001 0.000001 -0.601406 -0.123836 -0.277171
 31   6.645414 -0.843860 -1.119305 -0.045897 0.131846 -0.334600
 32   3.530614 0.000002 -0.000001 0.000000 0.000000 -0.357609
 33   3.530616 0.000000 0.000001 0.000000 0.000000 0.828573
 34   6.690088 -0.762450 1.047433 0.062281 -0.172366 -0.354159
 35   3.608304 0.000000 0.000000 0.000000 0.000000 -0.357609
 36   3.608303 -0.000001 0.000000 0.000000 0.000000 0.828573
 37   -4.972171 6.347238 -3.100415 -0.000012 1.309458 2.613529
 38   8.356072 -0.000002 0.000000 1.098859 0.396456 -1.163079
 39   22.314194 -0.000001 0.000002 0.000000 0.000000 -1.313179
 40   13.466397 0.000001 0.000000 1.012313 -0.226560 0.603991
 41   6.635591 -0.843576 1.110600 0.070167 -0.169348 -0.389802
 42   3.530613 0.000000 0.000001 0.000000 0.000000 0.113358
 43   3.530613 0.000000 -0.000001 0.000000 0.000000 0.366368
 44   6.681006 -0.762752 -1.054662 0.013910 0.182656 0.071133
 45   3.608304 0.000000 0.000001 0.000000 0.000000 0.113374
 46   3.608303 -0.000002 0.000001 0.000000 0.000000 0.776257
 47   3.408091 -0.002195 0.000000 -0.000028 -0.034890 0.213179
 48   2.848662 -0.000001 0.000000 0.053233 0.219141 -0.848146
 49   4.138183 10.107881 0.022334 -0.000003 0.000000 -2.666067
 50   0.764266 -7.386538 0.000000 0.000000 0.000000 0.000000
 51   -2.209861 -5.858539 0.000000 0.000000 0.000000 0.000000
 52   -2.501887 -2.293673 0.000000 0.000000 0.000000 0.000000
 53   -1.605642 -0.865421 0.000000 0.000000 0.000000 0.000000
 54   -0.368520 -0.410555 -1.764821 0.000000 -1.570451 0.000000
 55   -0.928988 -2.565560 1.783661 0.000000 0.000000 0.000000
 56   -0.361656 -0.396879 1.486638 0.000000 -1.570451 0.000000
 57   1.132204 -2.564809 1.806066 0.000000 0.000000 0.000000
 58   0.498682 -1.366848 -0.110061 0.000000 -1.570451 0.000000
 59   -0.087093 -3.285075 -0.490831 0.000000 0.000000 0.000000
time 1
  0   3.411230 0.901256 30.043058 -0.186466 -0.235745 -1.301504
  1   -0.589381 -2.937590 0.000000 -0.000017 -1.823733 -1.570753
  2   -0.000009 0.000010 6.353377 -0.700421 -0.034180 -1.711999
  3   18.507666 -0.000001 0.000000 0.000000 0.000000 -1.596343
  4   13.411350 -0.000001 0.000000 3.288003 0.216430 0.428227
  5   8.701365 6.675649 0.000000 0.000000 0.000000 1.806291
  6   2.657023 0.000000 0.000000 0.000000 0.000000 -0.043611
  7   2.657024 0.000000 -0.000001 0.000000 0.000000 -0.043611
  8   6.248515 -0.893520 -3.345191 3.141592 0.078501 -1.570796
  9   5.692028 -3.146075 2.191403 0.000000 0.000000 0.000000
 10   6.262098 -1.288316 1.407515 -1.570796 1.492295 1.570796
 11   -0.950702 5.642267 -3.162059 0.000000 0.000000 0.000000
 12   0.000009 -0.000007 -6.353377 0.091122 -0.276416 -2.932692
 13   18.507666 0.000000 0.000001 0.000000 0.000000 -1.079471
 14   13.411351 0.000000 0.000000 -2.855665 -0.138158 1.114459
 15   8.701365 6.675650 0.000000 0.000000 0.000000 1.527185
 16   2.639102 0.000000 0.000001 0.000000 0.000000 -0.043611
 17   2.639103 0.000000 -0.000001 0.000000 0.000000 -0.043611
 18   6.262098 -1.271893 -1.655766 1.570795 1.492298 -1.570797
 19   0.660782 5.698953 -3.162059 0.000000 0.000000 0.000000
 20   6.280027 -0.875930 3.588309 1.570795 1.492298 -1.570797
 21   -1.268985 5.650652 -3.144119 0.000000 0.000000 0.000000
 22   3.311032 -0.970598 -0.855489 0.323779 0.045687 0.731658
 23   6.150888 -0.004769 0.000000 -0.000024 -0.034888 0.305267
 24   6.181765 -0.006274 0.000000 0.099244 -0.086158 0.324563
 25   8.035381 -0.006658 0.000000 0.061494 -0.138301 0.498410
 26   9.041865 -0.002307 0.000000 -0.000083 -0.122113 0.553333
 27   -4.554046 6.569212 4.107392 0.589897 -1.455428 2.003978
 28   8.356072 -0.000002 0.000001 -1.176849 -0.342867 -0.417743
 29   22.314192 -0.000001 -0.000002 0.000000 0.000000 -2.005944
 30   13.466396 0.000001 0.000001 -0.983953 -0.431267 -0.226597
 31   6.645414 -0.843860 -1.119305 -0.063841 0.124184 -0.475089
 32   3.530614 0.000002 -0.000001 0.000000 0.000000 -0.497159
 33   3.530616 0.000000 0.000001 0.000000 0.000000 0.689025
 34   6.690088 -0.762450 1.047433 0.085802 -0.162025 -0.495293
 35   3.608304 0.000000 0.000000 0.000000 0.000000 -0.497159
 36   3.608303 -0.000001 0.000000 0.000000 0.000000 0.689025
 37   -5.147957 6.472242 -2.494928 0.177545 1.200120 2.756572
 38   8.356072 -0.000002 0.000000 1.187721 0.116134 -1.132745
 39   22.314194 -0.000001 0.000002 0.000000 0.000000 -2.105454
 40   13.466397 0.000001 0.000000 1.026349 -0.077790 0.511786
 41   6.635591 -0.843576 1.110600 0.098635 -0.154605 -0.565922
 42   3.530613 0.000000 0.000001 0.000000 0.000000 -0.061056
 43   3.530613 0.000000 -0.000001 0.000000 0.000000 0.191906
 44   6.681006 -0.762752 -1.054662 -0.018340 0.182265 -0.106225
 45   3.608304 0.000000 0.000001 0.000000 0.000000 -0.061040
 46   3.608303 -0.000002 0.000001 0.000000 0.000000 0.601853
 47   3.408091 -0.002195 0.000000 -0.000028 -0.034890 0.256778
 48   2.848662 -0.000001 0.000000 -0.200807 -0.426650 -0.841247
 49   4.138183 10.107881 0.022334 -0.000003 0.000000 -2.767220
 50   0.764266 -7.386538 0.000000 0.000000 0.000000 -0.248867
 51   -1.787973 -5.405400 0.000000 0.000000 0.000000 0.000000
 52   -2.396415 -1.946006 0.000000 0.000000 0.000000 0.000000
 53   -1.586110 -0.662290 0.000000 0.000000 0.000000 0.000000
 54   -0.345082 -0.363678 -1.764821 -0.086341 -1.570791 0.000000
 55   -0.928988 -2.186643 1.619594 -0.058241 0.000000 0.000000
 56   -0.342124 -0.350002 1.486638 -0.111667 -1.570795 0.000000
 57   1.132204 -2.150734 1.641999 -0.092690 0.000000 0.000000
 58   0.635405 -1.366848 -0.110061 0.000000 -1.570451 0.000000
 59   -0.087093 -3.210854 -0.787715 0.093697 0.000000 0.000000
time 2
  0   3.508889 3.034133 28.000027 -0.182174 -0.236477 -1.307768
  1   -0.065927 -3.898556 0.000000 -0.000017 -1.830577 -1.570753
  2   -0.000009 0.000010 6.353377 -0.292521 -0.352320 -1.481591
  3   18.507666 -0.000001 0.000000 0.000000 0.000000 -1.793110
  4   13.411350 -0.000001 0.000000 2.759671 -0.074071 0.537265
  5   8.701365 6.675649 0.000000 0.000000 0.000000 1.614392
  6   2.657023 0.000000 0.000000 0.000000 0.000000 -0.043611
  7   2.657024 0.000000 -0.000001 0.000000 0.000000 -0.043611
  8   6.248515 -0.893520 -3.345191 3.141592 0.078501 -1.570796
  9   5.692028 -3.146075 2.191403 0.000000 0.000000 0.000000
 10   6.262098 -1.288316 1.407515 -1.570796 1.492295 1.570796
 11   -0.950702 5.642267 -3.162059 0.000000 0.000000 0.000000
 12   0.000009 -0.000007 -6.353377 -0.079678 -0.195593 -2.983023
 13   18.507666 0.000000 0.000001 0.000000 0.000000 -1.169738
 14   13.411351 0.000000 0.000000 -2.680801 -0.229467 1.221990
 15   8.701365 6.675650 0.000000 0.000000 0.000000 1.527185
 16   2.639102 0.000000 0.000001 0.000000 0.000000 -0.043611
 17   2.639103 0.000000 -0.000001 0.000000 0.000000 -0.043611
 18   6.262098 -1.271893 -1.655766 1.570795 1.492298 -1.570797
 19   0.660782 5.698953 -3.162059 0.000000 0.000000 0.000000
 20   6.280027 -0.875930 3.588309 1.570795 1.492298 -1.570797
 21   -1.268985 5.650652 -3.144119 0.000000 0.000000 0.000000
 22   3.303219 -0.970598 -0.875021 0.364774 0.025703 0.701174
 23   6.150888 -0.004769 0.000000 0.038854 -0.071321 0.302515
 24   6.181765 -0.006274 0.000000 0.136564 -0.107635 0.340814
 25   8.035381 -0.006658 0.000000 0.101804 -0.221524 0.486932
 26   9.041865 -0.002307 0.000000 -0.000083 -0.122113 0.594014
 27   -4.284507 6.764530 4.076141 0.606483 -1.450905 1.947121
 28   8.356072 -0.000002 0.000001 -0.992170 -0.399589 -0.504940
 29   22.314192 -0.000001 -0.000002 0.000000 0.000000 -1.876560
 30   13.466396 0.000001 0.000001 -1.125933 -0.160988 -0.182480
 31   6.645414 -0.843860 -1.119305 -0.062820 0.124696 -0.466825
 32   3.530614 0.000002 -0.000001 0.000000 0.000000 -0.488923
 33   3.530616 0.000000 0.000001 0.000000 0.000000 0.697245
 34   6.690088 -0.762450 1.047433 0.084472 -0.162732 -0.487010
 35   3.608304 0.000000 0.000000 0.000000 0.000000 -0.488923
 36   3.608303 -0.000001 0.000000 0.000000 0.000000 0.697245
 37   -4.882324 6.659748 -2.526179 0.190201 1.202044 2.727906
 38   8.356072 -0.000002 0.000000 1.254572 -0.041573 -1.168007
 39   22.314194 -0.000001 0.000002 0.000000 0.000000 -2.081525
 40   13.466397 0.000001 0.000000 1.026783 -0.259003 0.385181
 41   6.635591 -0.843576 1.110600 0.097047 -0.155598 -0.555562
 42   3.530613 0.000000 0.000001 0.000000 0.000000 -0.050751
 43   3.530613 0.000000 -0.000001 0.000000 0.000000 0.202183
 44   6.681006 -0.762752 -1.054662 -0.016445 0.182452 -0.095773
 45   3.608304 0.000000 0.000001 0.000000 0.000000 -0.050765
 46   3.608303 -0.000002 0.000001 0.000000 0.000000 0.612135
 47   3.408091 -0.002195 0.000000 -0.000028 -0.034890 0.307630
 48   2.848662 -0.000001 0.000000 -0.103511 -0.647740 -0.557308
 49   4.138183 10.107881 0.022334 -0.000003 0.000000 -2.882368
 50   0.764266 -7.386538 0.000000 0.000000 0.000000 -0.524092
 51   -1.760628 -4.889759 0.000000 0.000000 0.000000 0.000000
 52   -2.501887 -1.621778 0.000000 0.000000 0.000000 0.000000
 53   -1.672050 -0.494316 0.000000 0.000000 0.000000 0.000000
 54   -0.360707 -0.308989 -1.764821 -0.180140 -1.570791 0.000000
 55   -0.928988 -1.874133 1.814912 -0.124087 0.000000 0.000000
 56   -0.353843 -0.295313 1.486638 -0.233915 -1.570795 0.000000
 57   1.132204 -1.846037 1.895913 -0.201435 0.000000 0.000000
 58   0.709626 -1.323878 -0.110061 0.000000 -1.570451 0.000000
 59   -0.087093 -3.050693 -0.920531 0.194072 0.000000 0.000000
time 3
  0   3.075282 4.749030 27.167971 -0.170299 -0.238400 -1.325011
  1   0.285646 -4.410291 0.000000 -0.000017 -1.811449 -1.570753
  2   -0.000009 0.000010 6.353377 -0.481736 -0.203986 -1.567397
  3   18.507666 -0.000001 0.000000 0.000000 0.000000 -1.885045
  4   13.411350 -0.000001 0.000000 2.977518 0.103978 0.647041
  5   8.701365 6.675649 0.000000 0.000000 0.000000 1.614392
  6   2.657023 0.000000 0.000000 0.000000 0.000000 -0.043611
  7   2.657024 0.000000 -0.000001 0.000000 0.000000 -0.043611
  8   6.248515 -0.893520 -3.345191 3.141592 0.078501 -1.570796
  9   5.692028 -3.146075 2.191403 0.000000 0.000000 0.000000
 10   6.262098 -1.288316 1.407515 -1.570796 1.492295 1.570796
 11   -0.950702 5.642267 -3.162059 0.000000 0.000000 0.000000
 12   0.000009 -0.000007 -6.353377 0.006252 -0.231210 -3.055806
 13   18.507666 0.000000 0.000001 0.000000 0.000000 -1.163821
 14   13.411351 0.000000 0.000000 -2.759947 -0.160003 1.302547
 15   8.701365 6.675650 0.000000 0.000000 0.000000 1.527185
 16   2.639102 0.000000 0.000001 0.000000 0.000000 -0.043611
 17   2.639103 0.000000 -0.000001 0.000000 0.000000 -0.043611
 18   6.262098 -1.271893 -1.655766 1.570795 1.492298 -1.570797
 19   0.660782 5.698953 -3.162059 0.000000 0.000000 0.000000
 20   6.280027 -0.875930 3.588309 1.570795 1.492298 -1.570797
 21   -1.268985 5.650652 -3.144119 0.000000 0.000000 0.000000
 22   3.318845 -0.970598 -0.812519 0.379601 -0.006459 0.678644
 23   6.150888 -0.004769 0.000000 0.066742 -0.090628 0.299922
 24   6.181765 -0.006274 0.000000 0.147279 -0.107910 0.354503
 25   8.035381 -0.006658 0.000000 0.109978 -0.249907 0.481718
 26   9.041865 -0.002307 0.000000 -0.000083 -0.122113 0.623109
 27   -4.089189 6.901253 4.052703 0.616741 -1.447557 1.908044
 28   8.356072 -0.000002 0.000001 -0.758249 -0.191106 -0.591183
 29   22.314192 -0.000001 -0.000002 0.000000 0.000000 -1.758398
 30   13.466396 0.000001 0.000001 -1.204957 0.213833 -0.185127
 31   6.645414 -0.843860 -1.119305 -0.058291 0.126891 -0.430619
 32   3.530614 0.000002 -0.000001 0.000000 0.000000 -0.452951
 33   3.530616 0.000000 0.000001 0.000000 0.000000 0.733228
 34   6.690088 -0.762450 1.047433 0.078522 -0.165649 -0.450651
 35   3.608304 0.000000 0.000000 0.000000 0.000000 -0.452951
 36   3.608303 -0.000001 0.000000 0.000000 0.000000 0.733228
 37   -4.690912 6.788658 -2.549617 0.199213 1.203475 2.707485
 38   8.356072 -0.000002 0.000000 1.224408 -0.137591 -1.238446
 39   22.314194 -0.000001 0.000002 0.000000 0.000000 -1.904491
 40   13.466397 0.000001 0.000000 1.059848 -0.498815 0.239683
 41   6.635591 -0.843576 1.110600 0.089916 -0.159805 -0.510247
 42   3.530613 0.000000 0.000001 0.000000 0.000000 -0.005815
 43   3.530613 0.000000 -0.000001 0.000000 0.000000 0.247173
 44   6.681006 -0.762752 -1.054662 -0.008148 0.182997 -0.050061
 45   3.608304 0.000000 0.000001 0.000000 0.000000 -0.005812
 46   3.608303 -0.000002 0.000001 0.000000 0.000000 0.657077
 47   3.408091 -0.002195 0.000000 -0.000028 -0.034890 0.343976
 48   2.848662 -0.000001 0.000000 0.119474 0.066806 -0.416146
 49   4.138183 10.107881 0.022334 -0.000003 0.000000 -2.990518
 50   0.764266 -7.386538 0.000000 0.000000 0.000000 -0.782886
 51   -2.120014 -4.553811 0.000000 0.000000 0.000000 0.000000
 52   -2.759708 -1.488961 0.000000 0.000000 0.000000 0.000000
 53   -1.816586 -0.439627 0.000000 0.000000 0.000000 0.000000
 54   -0.399771 -0.285551 -1.764821 -0.279986 -1.570791 0.000000
 55   -0.928988 -1.897571 2.217268 -0.197874 0.000000 0.000000
 56   -0.396813 -0.275781 1.486638 -0.365907 -1.570795 0.000000
 57   1.132204 -1.951509 2.341239 -0.320506 0.000000 0.000000
 58   0.697907 -1.245750 -0.110061 0.000000 -1.570451 0.000000
 59   -0.087093 -2.871000 -0.842404 0.289789 0.000000 0.000000
time 4
  0   3.212005 5.245139 27.175783 -0.152273 -0.240964 -1.351148
  1   0.187987 -4.269661 0.000000 -0.000017 -1.776706 -1.570753
  2   -0.000009 0.000010 6.353377 -0.373967 -0.211733 -1.601029
  3   18.507666 -0.000001 0.000000 0.000000 0.000000 -1.899003
  4   13.411350 -0.000001 0.000000 2.936324 0.058271 0.686162
  5   8.701365 6.675649 0.000000 0.000000 0.000000 1.614392
  6   2.657023 0.000000 0.000000 0.000000 0.000000 -0.043611
  7   2.657024 0.000000 -0.000001 0.000000 0.000000 -0.043611
  8   6.248515 -0.893520 -3.345191 3.141592 0.078501 -1.570796
  9   5.692028 -3.146075 2.191403 0.000000 0.000000 0.000000
 10   6.262098 -1.288316 1.407515 -1.570796 1.492295 1.570796
 11   -0.950702 5.642267 -3.162059 0.000000 0.000000 0.000000
 12   0.000009 -0.000007 -6.353377 -0.082747 -0.133268 -3.098345
 13   18.507666 0.000000 0.000001 0.000000 0.000000 -1.145363
 14   13.411351 0.000000 0.000000 -2.692992 -0.221898 1.308222
 15   8.701365 6.675650 0.000000 0.000000 0.000000 1.527185
 16   2.639102 0.000000 0.000001 0.000000 0.000000 -0.043611
 17   2.639103 0.000000 -0.000001 0.000000 0.000000 -0.043611
 18   6.262098 -1.271893 -1.655766 1.570795 1.492298 -1.570797
 19   0.660782 5.698953 -3.162059 0.000000 0.000000 0.000000
 20   6.280027 -0.875930 3.588309 1.570795 1.492298 -1.570797
 21   -1.268985 5.650652 -3.144119 0.000000 0.000000 0.000000
 22   3.346189 -0.970598 -0.699234 0.355213 -0.031894 0.681087
 23   6.150888 -0.004769 0.000000 0.064189 -0.084349 0.300313
 24   6.181765 -0.006274 0.000000 0.135654 -0.097388 0.354854
 25   8.035381 -0.006658 0.000000 0.094625 -0.226351 0.485245
 26   9.041865 -0.002307 0.000000 -0.000083 -0.122113 0.625524
 27   -4.069656 6.912972 4.048797 0.617508 -1.447296 1.904906
 28   8.356072 -0.000002 0.000001 -0.622450 0.146218 -0.583642
 29   22.314192 -0.000001 -0.000002 0.000000 0.000000 -1.652654
 30   13.466396 0.000001 0.000001 -1.282817 0.565397 -0.218696
 31   6.645414 -0.843860 -1.119305 -0.053592 0.128939 -0.393749
 32   3.530614 0.000002 -0.000001 0.000000 0.000000 -0.416326
 33   3.530616 0.000000 0.000001 0.000000 0.000000 0.769869
 34   6.690088 -0.762450 1.047433 0.072361 -0.168406 -0.413610
 35   3.608304 0.000000 0.000000 0.000000 0.000000 -0.416326
 36   3.608303 -0.000001 0.000000 0.000000 0.000000 0.769869
 37   -4.675286 6.800377 -2.549617 0.199980 1.203605 2.705760
 38   8.356072 -0.000002 0.000000 1.062444 -0.203529 -1.292826
 39   22.314194 -0.000001 0.000002 0.000000 0.000000 -1.726366
 40   13.466397 0.000001 0.000000 1.140809 -0.707537 0.067004
 41   6.635591 -0.843576 1.110600 0.082481 -0.163739 -0.464023
 42   3.530613 0.000000 0.000001 0.000000 0.000000 0.039961
 43   3.530613 0.000000 -0.000001 0.000000 0.000000 0.292954
 44   6.681006 -0.762752 -1.054662 0.000337 0.183167 -0.003489
 45   3.608304 0.000000 0.000001 0.000000 0.000000 0.039959
 46   3.608303 -0.000002 0.000001 0.000000 0.000000 0.702852
 47   3.408091 -0.002195 0.000000 -0.000028 -0.034890 0.347020
 48   2.848662 -0.000001 0.000000 0.117672 0.416278 -0.194542
 49   4.138183 10.107881 0.022334 -0.000003 0.000000 -3.070756
 50   0.764266 -7.386538 0.000000 0.000000 0.000000 -0.979769
 51   -2.541902 -4.475684 0.000000 0.000000 0.000000 0.000000
 52   -2.997996 -1.539744 0.000000 0.000000 0.000000 0.000000
 53   -1.933777 -0.494316 0.000000 0.000000 0.000000 0.000000
 54   -0.438835 -0.289457 -1.764821 -0.362161 -1.570791 0.000000
 55   -0.928988 -2.143672 2.525871 -0.249308 0.000000 0.000000
 56   -0.431971 -0.279688 1.486638 -0.472075 -1.570795 0.000000
 57   1.132204 -2.279644 2.661561 -0.391865 0.000000 0.000000
 58   0.647124 -1.179342 -0.110061 0.000000 -1.570451 0.000000
 59   -0.087093 -2.738183 -0.686149 0.367004 0.000000 0.000000
time 5
  0   3.407324 5.225607 27.644547 -0.129573 -0.243528 -1.383935
  1   0.023919 -4.027467 0.000000 -0.000017 -1.736653 -1.570753
  2   -0.000009 0.000010 6.353377 -0.328255 -0.138590 -1.669333
  3   18.507666 -0.000001 0.000000 0.000000 0.000000 -1.859406
  4   13.411350 -0.000001 0.000000 2.992463 0.054159 0.683731
  5   8.701365 6.675649 0.000000 0.000000 0.000000 1.614392
  6   2.657023 0.000000 0.000000 0.000000 0.000000 -0.043611
  7   2.657024 0.000000 -0.000001 0.000000 0.000000 -0.043611
  8   6.248515 -0.893520 -3.345191 3.141592 0.078501 -1.570796
  9   5.692028 -3.146075 2.191403 0.000000 0.000000 0.000000
 10   6.262098 -1.288316 1.407515 -1.570796 1.492295 1.570796
 11   -0.950702 5.642267 -3.162059 0.000000 0.000000 0.000000
 12   0.000009 -0.000007 -6.353377 0.018640 -0.129878 -3.119586
 13   18.507666 0.000000 0.000001 0.000000 0.000000 -1.121241
 14   13.411351 0.000000 0.000000 -2.811854 -0.147356 1.324805
 15   8.701365 6.675650 0.000000 0.000000 0.000000 1.527185
 16   2.639102 0.000000 0.000001 0.000000 0.000000 -0.043611
 17   2.639103 0.000000 -0.000001 0.000000 0.000000 -0.043611
 18   6.262098 -1.271893 -1.655766 1.570795 1.492298 -1.570797
 19   0.660782 5.698953 -3.162059 0.000000 0.000000 0.000000
 20   6.280027 -0.875930 3.588309 1.570795 1.492298 -1.570797
 21   -1.268985 5.650652 -3.144119 0.000000 0.000000 0.000000
 22   3.373534 -0.970598 -0.562511 0.322948 -0.058472 0.687602
 23   6.150888 -0.004769 0.000000 0.057334 -0.074018 0.301124
 24   6.181765 -0.006274 0.000000 0.119810 -0.084277 0.353303
 25   8.035381 -0.006658 0.000000 0.074738 -0.193243 0.489757
 26   9.041865 -0.002307 0.000000 -0.000083 -0.122113 0.623109
 27   -4.089189 6.901253 4.052703 0.616741 -1.447557 1.908044
 28   8.356072 -0.000002 0.000001 -0.498939 0.488055 -0.536923
 29   22.314192 -0.000001 -0.000002 0.000000 0.000000 -1.536289
 30   13.466396 0.000001 0.000001 -1.427980 0.916109 -0.316354
 31   6.645414 -0.843860 -1.119305 -0.049336 0.130621 -0.360866
 32   3.530614 0.000002 -0.000001 0.000000 0.000000 -0.383649
 33   3.530616 0.000000 0.000001 0.000000 0.000000 0.802517
 34   6.690088 -0.762450 1.047433 0.066796 -0.170687 -0.380550
 35   3.608304 0.000000 0.000000 0.000000 0.000000 -0.383649
 36   3.608303 -0.000001 0.000000 0.000000 0.000000 0.802517
 37   -4.690912 6.788658 -2.549617 0.199213 1.203475 2.707485
 38   8.356072 -0.000002 0.000000 0.866058 -0.278559 -1.341683
 39   22.314194 -0.000001 0.000002 0.000000 0.000000 -1.566631
 40   13.466397 0.000001 0.000000 1.300634 -0.910809 -0.179722
 41   6.635591 -0.843576 1.110600 0.075682 -0.166972 -0.422741
 42   3.530613 0.000000 0.000001 0.000000 0.000000 0.080795
 43   3.530613 0.000000 -0.000001 0.000000 0.000000 0.333775
 44   6.681006 -0.762752 -1.054662 0.007883 0.183014 0.037990
 45   3.608304 0.000000 0.000001 0.000000 0.000000 0.080789
 46   3.608303 -0.000002 0.000001 0.000000 0.000000 0.743675
 47   3.408091 -0.002195 0.000000 -0.000028 -0.034890 0.343976
 48   2.848662 -0.000001 0.000000 0.079075 0.552357 -0.021440
 49   4.138183 10.107881 0.022334 -0.000003 0.000000 -3.102167
 50   0.764266 -7.386538 0.000000 0.000000 0.000000 -1.058259
 51   -2.725502 -4.495216 0.000000 0.000000 0.000000 0.000000
 52   -3.091749 -1.602246 0.000000 0.000000 0.000000 0.000000
 53   -1.980654 -0.537286 0.000000 0.000000 0.000000 0.000000
 54   -0.454460 -0.297270 -1.764821 -0.393741 -1.570451 0.000000
 55   -0.928988 -2.280396 2.635250 -0.265783 0.000000 0.000000
 56   -0.447596 -0.287500 1.486638 -0.511708 -1.570795 0.000000
 57   1.132204 -2.431993 2.763127 -0.414466 0.000000 0.000000
 58   0.619779 -1.151997 -0.110061 0.000000 -1.570451 0.000000
 59   -0.087093 -2.695213 -0.608022 0.399058 0.000000 0.000000
time 6
  0   3.262788 4.749030 28.601608 -0.103677 -0.245542 -1.421284
  1   -0.175306 -3.695425 0.000000 -0.000017 -1.701622 -1.570753
  2   -0.000009 0.000010 6.353377 -0.230231 -0.128965 -1.717581
  3   18.507666 -0.000001 0.000000 0.000000 0.000000 -1.765650
  4   13.411350 -0.000001 0.000000 2.954431 0.020787 0.630096
  5   8.701365 6.675649 0.000000 0.000000 0.000000 1.614392
  6   2.657023 0.000000 0.000000 0.000000 0.000000 -0.043611
  7   2.657024 0.000000 -0.000001 0.000000 0.000000 -0.043611
  8   6.248515 -0.893520 -3.345191 3.141592 0.078501 -1.570796
  9   5.692028 -3.146075 2.191403 0.000000 0.000000 0.000000
 10   6.262098 -1.288316 1.407515 -1.570796 1.492295 1.570796
 11   -0.950702 5.642267 -3.162059 0.000000 0.000000 0.000000
 12   0.000009 -0.000007 -6.353377 -0.063853 -0.056245 -3.130379
 13   18.507666 0.000000 0.000001 0.000000 0.000000 -1.081999
 14   13.411351 0.000000 0.000000 -2.768328 -0.178016 1.284416
 15   8.701365 6.675650 0.000000 0.000000 0.000000 1.527185
 16   2.639102 0.000000 0.000001 0.000000 0.000000 -0.043611
 17   2.639103 0.000000 -0.000001 0.000000 0.000000 -0.043611
 18   6.262098 -1.271893 -1.655766 1.570795 1.492298 -1.570797
 19   0.660782 5.698953 -3.162059 0.000000 0.000000 0.000000
 20   6.280027 -0.875930 3.588309 1.570795 1.492298 -1.570797
 21   -1.268985 5.650652 -3.144119 0.000000 0.000000 0.000000
 22   3.389159 -0.970598 -0.445320 0.290304 -0.078691 0.696722
 23   6.150888 -0.004769 0.000000 0.047387 -0.060715 0.302153
 24   6.181765 -0.006274 0.000000 0.100838 -0.069332 0.350213
 25   8.035381 -0.006658 0.000000 0.051760 -0.153141 0.494423
 26   9.041865 -0.002307 0.000000 -0.000083 -0.122113 0.623109
 27   -4.089189 6.901253 4.052703 0.616741 -1.447557 1.908044
 28   8.356072 -0.000002 0.000001 -0.460901 0.727775 -0.528256
 29   22.314192 -0.000001 -0.000002 0.000000 0.000000 -1.510212
 30   13.466396 0.000001 0.000001 -1.496991 1.054466 -0.393519
 31   6.645414 -0.843860 -1.119305 -0.045897 0.131846 -0.334600
 32   3.530614 0.000002 -0.000001 0.000000 0.000000 -0.357609
 33   3.530616 0.000000 0.000001 0.000000 0.000000 0.828573
 34   6.690088 -0.762450 1.047433 0.062281 -0.172366 -0.354159
 35   3.608304 0.000000 0.000000 0.000000 0.000000 -0.357609
 36   3.608303 -0.000001 0.000000 0.000000 0.000000 0.828573
 37   -4.690912 6.788658 -2.549617 0.199213 1.203475 2.707485
 38   8.356072 -0.000002 0.000000 0.728190 -0.321300 -1.278126
 39   22.314194 -0.000001 0.000002 0.000000 0.000000 -1.465604
 40   13.466397 0.000001 0.000000 1.403807 -0.899682 -0.327757
 41   6.635591 -0.843576 1.110600 0.070167 -0.169348 -0.389802
 42   3.530613 0.000000 0.000001 0.000000 0.000000 0.113358
 43   3.530613 0.000000 -0.000001 0.000000 0.000000 0.366368
 44   6.681006 -0.762752 -1.054662 0.013910 0.182656 0.071133
 45   3.608304 0.000000 0.000001 0.000000 0.000000 0.113374
 46   3.608303 -0.000002 0.000001 0.000000 0.000000 0.776257
 47   3.408091 -0.002195 0.000000 -0.000028 -0.034890 0.343976
 48   2.848662 -0.000001 0.000000 -0.000670 -0.155657 0.014452
 49   4.138183 10.107881 0.022334 -0.000003 0.000000 -3.070756
 50   0.764266 -7.386538 0.000000 0.000000 0.000000 -0.979769
 51   -2.541902 -4.475684 0.000000 0.000000 0.000000 0.000000
 52   -2.997996 -1.539744 0.000000 0.000000 0.000000 0.000000
 53   -1.933777 -0.494316 0.000000 0.000000 0.000000 0.000000
 54   -0.438835 -0.289457 -1.764821 -0.362161 -1.570791 0.000000
 55   -0.928988 -2.143672 2.525871 -0.249308 0.000000 0.000000
 56   -0.431971 -0.279688 1.486638 -0.472075 -1.570795 0.000000
 57   1.132204 -2.279644 2.661561 -0.391865 0.000000 0.000000
 58   0.647124 -1.179342 -0.110061 0.000000 -1.570451 0.000000
 59   -0.087093 -2.738183 -0.686149 0.367004 0.000000 0.000000
time 7
  0   2.657301 3.838846 30.039150 -0.076208 -0.246641 -1.460876
  1   -0.382343 -3.308695 0.000000 -0.000017 -1.670007 -1.570753
  2   -0.000009 0.000010 6.353377 -0.176346 -0.107387 -1.780446
  3   18.507666 -0.000001 0.000000 0.000000 0.000000 -1.611767
  4   13.411350 -0.000001 0.000000 2.939677 0.021838 0.530487
  5   8.701365 6.675649 0.000000 0.000000 0.000000 1.614392
  6   2.657023 0.000000 0.000000 0.000000 0.000000 -0.043611
  7   2.657024 0.000000 -0.000001 0.000000 0.000000 -0.043611
  8   6.248515 -0.893520 -3.345191 3.141592 0.078501 -1.570796
  9   5.692028 -3.146075 2.191403 0.000000 0.000000 0.000000
 10   6.262098 -1.288316 1.407515 -1.570796 1.492295 1.570796
 11   -0.950702 5.642267 -3.162059 0.000000 0.000000 0.000000
 12   0.000009 -0.000007 -6.353377 0.032735 -0.088401 -3.125877
 13   18.507666 0.000000 0.000001 0.000000 0.000000 -1.025917
 14   13.411351 0.000000 0.000000 -2.883857 -0.069844 1.235404
 15   8.701365 6.675650 0.000000 0.000000 0.000000 1.527185
 16   2.639102 0.000000 0.000001 0.000000 0.000000 -0.043611
 17   2.639103 0.000000 -0.000001 0.000000 0.000000 -0.043611
 18   6.262098 -1.271893 -1.655766 1.570795 1.492298 -1.570797
 19   0.660782 5.698953 -3.162059 0.000000 0.000000 0.000000
 20   6.280027 -0.875930 3.588309 1.570795 1.492298 -1.570797
 21   -1.268985 5.650652 -3.144119 0.000000 0.000000 0.000000
 22   3.400878 -0.970598 -0.335942 0.257494 -0.094504 0.707309
 23   6.150888 -0.004769 0.000000 0.035510 -0.045542 0.303196
 24   6.181765 -0.006274 0.000000 0.079877 -0.053296 0.345997
 25   8.035381 -0.006658 0.000000 0.027039 -0.108587 0.498651
 26   9.041865 -0.002307 0.000000 -0.000347 -0.129578 0.607871
 27   -4.159503 6.830939 4.095673 0.669855 -1.451993 1.870488
 28   8.356072 -0.000002 0.000001 -0.719849 0.609552 -0.641196
 29   22.314192 -0.000001 -0.000002 0.000000 0.000000 -1.722138
 30   13.466396 0.000001 0.000001 -1.228944 0.604217 -0.256315
 31   6.645414 -0.843860 -1.119305 -0.045387 0.132029 -0.330902
 32   3.530614 0.000002 -0.000001 0.000000 0.000000 -0.353927
 33   3.530616 0.000000 0.000001 0.000000 0.000000 0.832257
 34   6.690088 -0.762450 1.047433 0.061651 -0.172596 -0.350430
 35   3.608304 0.000000 0.000000 0.000000 0.000000 -0.353927
 36   3.608303 -0.000001 0.000000 0.000000 0.000000 0.832257
 37   -4.808103 6.722250 -2.498834 0.202185 1.195802 2.725414
 38   8.356072 -0.000002 0.000000 0.794859 -0.293089 -0.929415
 39   22.314194 -0.000001 0.000002 0.000000 0.000000 -1.581842
 40   13.466397 0.000001 0.000000 1.252665 -0.289609 -0.140133
 41   6.635591 -0.843576 1.110600 0.069388 -0.169659 -0.385176
 42   3.530613 0.000000 0.000001 0.000000 0.000000 0.117945
 43   3.530613 0.000000 -0.000001 0.000000 0.000000 0.370932
 44   6.681006 -0.762752 -1.054662 0.014746 0.182588 0.075796
 45   3.608304 0.000000 0.000001 0.000000 0.000000 0.117951
 46   3.608303 -0.000002 0.000001 0.000000 0.000000 0.780831
 47   3.408091 -0.002195 0.000000 -0.000028 -0.034890 0.325578
 48   2.848662 -0.000001 0.000000 0.036735 0.181079 -0.184661
 49   4.138183 10.107881 0.022334 -0.000003 0.000000 -2.990518
 50   0.764266 -7.386538 0.000000 0.000000 0.000000 -0.782886
 51   -2.120014 -4.553811 0.000000 0.000000 0.000000 0.000000
 52   -2.759708 -1.488961 0.000000 0.000000 0.000000 0.000000
 53   -1.816586 -0.439627 0.000000 0.000000 0.000000 0.000000
 54   -0.399771 -0.285551 -1.764821 -0.279986 -1.570791 0.000000
 55   -0.928988 -1.897571 2.217268 -0.197874 0.000000 0.000000
 56   -0.396813 -0.275781 1.486638 -0.365907 -1.570795 0.000000
 57   1.132204 -1.951509 2.341239 -0.320506 0.000000 0.000000
 58   0.697907 -1.245750 -0.110061 0.000000 -1.570451 0.000000
 59   -0.087093 -2.871000 -0.842404 0.289789 0.000000 0.000000
time 8
  0   1.809619 2.608339 31.781391 -0.048739 -0.246687 -1.500545
  1   -0.573755 -2.886807 0.000000 -0.000017 -1.634748 -1.570753
  2   -0.000009 0.000010 6.353377 -0.125607 -0.086898 -1.859866
  3   18.507666 -0.000001 0.000000 0.000000 0.000000 -1.398211
  4   13.411350 -0.000001 0.000000 2.922625 0.029775 0.389621
  5   8.701365 6.675649 0.000000 0.000000 0.000000 1.614392
  6   2.657023 0.000000 0.000000 0.000000 0.000000 -0.043611
  7   2.657024 0.000000 -0.000001 0.000000 0.000000 -0.043611
  8   6.248515 -0.893520 -3.345191 3.141592 0.078501 -1.570796
  9   5.692028 -3.146075 2.191403 0.000000 0.000000 0.000000
 10   6.262098 -1.288316 1.407515 -1.570796 1.492295 1.570796
 11   -0.950702 5.642267 -3.162059 0.000000 0.000000 0.000000
 12   0.000009 -0.000007 -6.353377 -0.062977 -0.034599 -3.111390
 13   18.507666 0.000000 0.000001 0.000000 0.000000 -0.957345
 14   13.411351 0.000000 0.000000 -2.826997 -0.080862 1.144898
 15   8.701365 6.675650 0.000000 0.000000 0.000000 1.527185
 16   2.639102 0.000000 0.000001 0.000000 0.000000 -0.043611
 17   2.639103 0.000000 -0.000001 0.000000 0.000000 -0.043611
 18   6.262098 -1.271893 -1.655766 1.570795 1.492298 -1.570797
 19   0.660782 5.698953 -3.162059 0.000000 0.000000 0.000000
 20   6.280027 -0.875930 3.588309 1.570795 1.492298 -1.570797
 21   -1.268985 5.650652 -3.144119 0.000000 0.000000 0.000000
 22   3.412598 -0.970598 -0.218751 0.221125 -0.111998 0.718791
 23   6.150888 -0.004769 0.000000 0.022879 -0.029627 0.304108
 24   6.181765 -0.006274 0.000000 0.058053 -0.036878 0.341092
 25   8.035381 -0.006658 0.000000 0.001782 -0.062243 0.501980
 26   9.041865 -0.002307 0.000000 -0.000083 -0.122113 0.586654
 27   -4.335289 6.729373 4.083954 0.603703 -1.451732 1.957200
 28   8.356072 -0.000002 0.000001 -0.953590 0.418768 -0.695109
 29   22.314192 -0.000001 -0.000002 0.000000 0.000000 -1.978390
 30   13.466396 0.000001 0.000001 -1.003204 0.059982 -0.258040
 31   6.645414 -0.843860 -1.119305 -0.045897 0.131846 -0.334600
 32   3.530614 0.000002 -0.000001 0.000000 0.000000 -0.357609
 33   3.530616 0.000000 0.000001 0.000000 0.000000 0.828573
 34   6.690088 -0.762450 1.047433 0.062281 -0.172366 -0.354159
 35   3.608304 0.000000 0.000000 0.000000 0.000000 -0.357609
 36   3.608303 -0.000001 0.000000 0.000000 0.000000 0.828573
 37   -4.933107 6.628497 -2.518366 0.187900 1.201680 2.733083
 38   8.356072 -0.000002 0.000000 0.975574 -0.192993 -0.664143
 39   22.314194 -0.000001 0.000002 0.000000 0.000000 -1.684276
 40   13.466397 0.000001 0.000000 1.205057 0.285700 0.062548
 41   6.635591 -0.843576 1.110600 0.070167 -0.169348 -0.389802
 42   3.530613 0.000000 0.000001 0.000000 0.000000 0.113358
 43   3.530613 0.000000 -0.000001 0.000000 0.000000 0.366368
 44   6.681006 -0.762752 -1.054662 0.013910 0.182656 0.071133
 45   3.608304 0.000000 0.000001 0.000000 0.000000 0.113374
 46   3.608303 -0.000002 0.000001 0.000000 0.000000 0.776257
 47   3.408091 -0.002195 0.000000 -0.000028 -0.034890 0.298418
 48   2.848662 -0.000001 0.000000 -0.028369 0.551372 -0.470541
 49   4.138183 10.107881 0.022334 -0.000003 0.000000 -2.882368
 50   0.764266 -7.386538 0.000000 0.000000 0.000000 -0.524092
 51   -1.760628 -4.889759 0.000000 0.000000 0.000000 0.000000
 52   -2.501887 -1.621778 0.000000 0.000000 0.000000 0.000000
 53   -1.672050 -0.494316 0.000000 0.000000 0.000000 0.000000
 54   -0.360707 -0.308989 -1.764821 -0.180140 -1.570791 0.000000
 55   -0.928988 -1.874133 1.814912 -0.124087 0.000000 0.000000
 56   -0.353843 -0.295313 1.486638 -0.233915 -1.570795 0.000000
 57   1.132204 -1.846037 1.895913 -0.201435 0.000000 0.000000
 58   0.709626 -1.323878 -0.110061 0.000000 -1.570451 0.000000
 59   -0.087093 -3.050693 -0.920531 0.194072 0.000000 0.000000
time 9
  0   0.872090 1.248923 33.621292 -0.022796 -0.245771 -1.537894
  1   -0.730010 -2.464919 0.000000 -0.000017 -1.598040 -1.570753
  2   -0.000009 0.000010 6.353377 -0.075357 -0.065021 -1.960714
  3   18.507666 -0.000001 0.000000 0.000000 0.000000 -1.129130
  4   13.411350 -0.000001 0.000000 2.903274 0.037807 0.216191
  5   8.701365 6.675649 0.000000 0.000000 0.000000 1.614392
  6   2.657023 0.000000 0.000000 0.000000 0.000000 -0.043611
  7   2.657024 0.000000 -0.000001 0.000000 0.000000 -0.043611
  8   6.248515 -0.893520 -3.345191 3.141592 0.078501 -1.570796
  9   5.692028 -3.146075 2.191403 0.000000 0.000000 0.000000
 10   6.262098 -1.288316 1.407515 -1.570796 1.492295 1.570796
 11   -0.950702 5.642267 -3.162059 0.000000 0.000000 0.000000
 12   0.000009 -0.000007 -6.353377 -0.022468 -0.034696 -3.093959
 13   18.507666 0.000000 0.000001 0.000000 0.000000 -0.872742
 14   13.411351 0.000000 0.000000 -2.891000 -0.012548 1.045548
 15   8.701365 6.675650 0.000000 0.000000 0.000000 1.527185
 16   2.639102 0.000000 0.000001 0.000000 0.000000 -0.043611
 17   2.639103 0.000000 -0.000001 0.000000 0.000000 -0.043611
 18   6.262098 -1.271893 -1.655766 1.570795 1.492298 -1.570797
 19   0.660782 5.698953 -3.162059 0.000000 0.000000 0.000000
 20   6.280027 -0.875930 3.588309 1.570795 1.492298 -1.570797
 21   -1.268985 5.650652 -3.144119 0.000000 0.000000 0.000000
 22   3.416504 -0.970598 -0.093747 0.183760 -0.130300 0.730246
 23   6.150888 -0.004769 0.000000 0.010654 -0.014071 0.304804
 24   6.181765 -0.006274 0.000000 0.036517 -0.020782 0.336027
 25   8.035381 -0.006658 0.000000 -0.022834 -0.016683 0.504215
 26   9.041865 -0.002307 0.000000 0.000645 -0.069109 0.558307
 27   -4.733739 6.596557 3.853478 0.257600 -1.424290 2.328576
 28   8.356072 -0.000002 0.000001 -1.033913 0.444253 -0.806229
 29   22.314192 -0.000001 -0.000002 0.000000 0.000000 -2.100666
 30   13.466396 0.000001 0.000001 -0.804013 -0.082802 -0.272398
 31   6.645414 -0.843860 -1.119305 -0.045897 0.131846 -0.334600
 32   3.530614 0.000002 -0.000001 0.000000 0.000000 -0.357609
 33   3.530616 0.000000 0.000001 0.000000 0.000000 0.828573
 34   6.690088 -0.762450 1.047433 0.062281 -0.172366 -0.354159
 35   3.608304 0.000000 0.000000 0.000000 0.000000 -0.357609
 36   3.608303 -0.000001 0.000000 0.000000 0.000000 0.828573
 37   -4.976077 6.491774 -2.768373 0.117816 1.249093 2.695405
 38   8.356072 -0.000002 0.000000 1.092246 0.076792 -0.838074
 39   22.314194 -0.000001 0.000002 0.000000 0.000000 -1.535574
 40   13.466397 0.000001 0.000000 1.163672 0.125320 0.307864
 41   6.635591 -0.843576 1.110600 0.070167 -0.169348 -0.389802
 42   3.530613 0.000000 0.000001 0.000000 0.000000 0.113358
 43   3.530613 0.000000 -0.000001 0.000000 0.000000 0.366368
 44   6.681006 -0.762752 -1.054662 0.013910 0.182656 0.071133
 45   3.608304 0.000000 0.000001 0.000000 0.000000 0.113374
 46   3.608303 -0.000002 0.000001 0.000000 0.000000 0.776257
 47   3.408091 -0.002195 0.000000 -0.000028 -0.034890 0.258260
 48   2.848662 -0.000001 0.000000 -0.047696 0.433877 -0.684924
 49   4.138183 10.107881 0.022334 -0.000003 0.000000 -2.767220
 50   0.764266 -7.386538 0.000000 0.000000 0.000000 -0.248867
 51   -1.787973 -5.405400 0.000000 0.000000 0.000000 0.000000
 52   -2.396415 -1.946006 0.000000 0.000000 0.000000 0.000000
 53   -1.586110 -0.662290 0.000000 0.000000 0.000000 0.000000
 54   -0.345082 -0.363678 -1.764821 -0.086341 -1.570791 0.000000
 55   -0.928988 -2.186643 1.619594 -0.058241 0.000000 0.000000
 56   -0.342124 -0.350002 1.486638 -0.111667 -1.570795 0.000000
 57   1.132204 -2.150734 1.641999 -0.092690 0.000000 0.000000
 58   0.635405 -1.366848 -0.110061 0.000000 -1.570451 0.000000
 59   -0.087093 -3.210854 -0.787715 0.093697 0.000000 0.000000
time 10
  0   -0.018562 -0.040179 35.359627 0.000000 -0.244215 -1.570836
  1   -0.851108 -2.078188 0.000000 -0.000017 -1.562086 -1.570801
  2   -0.000009 0.000010 6.353377 -0.040784 -0.034202 -2.090038
  3   18.507666 -0.000001 0.000000 0.000000 0.000000 -0.798000
  4   13.411350 -0.000001 0.000000 2.895801 0.048804 0.011006
  5   8.701365 6.675649 0.000000 0.000000 0.000000 1.614392
  6   2.657023 0.000000 0.000000 0.000000 0.000000 -0.043611
  7   2.657024 0.000000 -0.000001 0.000000 0.000000 -0.043611
  8   6.248515 -0.893520 -3.345191 3.141592 0.078501 -1.570796
  9   5.692028 -3.146075 2.191403 0.000000 0.000000 0.000000
 10   6.262098 -1.288316 1.407515 -1.570796 1.492295 1.570796
 11   -0.950702 5.642267 -3.162059 0.000000 0.000000 0.000000
 12   0.000009 -0.000007 -6.353377 -0.001591 -0.018715 -3.083973
 13   18.507666 0.000000 0.000001 0.000000 0.000000 -0.773423
 14   13.411351 0.000000 0.000000 -2.934621 0.031909 0.934848
 15   8.701365 6.675650 0.000000 0.000000 0.000000 1.527185
 16   2.639102 0.000000 0.000001 0.000000 0.000000 -0.043611
 17   2.639103 0.000000 -0.000001 0.000000 0.000000 -0.043611
 18   6.262098 -1.271893 -1.655766 1.570795 1.492298 -1.570797
 19   0.660782 5.698953 -3.162059 0.000000 0.000000 0.000000
 20   6.280027 -0.875930 3.588309 1.570795 1.492298 -1.570797
 21   -1.268985 5.650652 -3.144119 0.000000 0.000000 0.000000
 22   3.416504 -0.970598 0.027351 0.148127 -0.148703 0.740751
 23   6.150888 -0.004769 0.000000 0.000000 -0.000001 0.305267
 24   6.181765 -0.006274 0.000000 0.016479 -0.005682 0.331385
 25   8.035381 -0.006658 0.000000 -0.045760 0.025380 0.505288
 26   9.041865 -0.002307 0.000000 0.000000 -0.000002 0.527171
 27   -5.186878 6.436396 3.525343 -0.000012 -1.370798 2.613622
 28   8.356072 -0.000002 0.000001 -1.093455 0.501594 -0.963115
 29   22.314192 -0.000001 -0.000002 0.000000 0.000000 -2.190916
 30   13.466396 0.000001 0.000001 -0.601406 -0.123836 -0.277171
 31   6.645414 -0.843860 -1.119305 -0.045897 0.131846 -0.334600
 32   3.530614 0.000002 -0.000001 0.000000 0.000000 -0.357609
 33   3.530616 0.000000 0.000001 0.000000 0.000000 0.828573
 34   6.690088 -0.762450 1.047433 0.062281 -0.172366 -0.354159
 35   3.608304 0.000000 0.000000 0.000000 0.000000 -0.357609
 36   3.608303 -0.000001 0.000000 0.000000 0.000000 0.828573
 37   -4.972171 6.347238 -3.100415 -0.000012 1.309458 2.613529
 38   8.356072 -0.000002 0.000000 1.098859 0.396456 -1.163079
 39   22.314194 -0.000001 0.000002 0.000000 0.000000 -1.313179
 40   13.466397 0.000001 0.000000 1.012313 -0.226560 0.603991
 41   6.635591 -0.843576 1.110600 0.070167 -0.169348 -0.389802
 42   3.530613 0.000000 0.000001 0.000000 0.000000 0.113358
 43   3.530613 0.000000 -0.000001 0.000000 0.000000 0.366368
 44   6.681006 -0.762752 -1.054662 0.013910 0.182656 0.071133
 45   3.608304 0.000000 0.000001 0.000000 0.000000 0.113374
 46   3.608303 -0.000002 0.000001 0.000000 0.000000 0.776257
 47   3.408091 -0.002195 0.000000 -0.000028 -0.034890 0.213179
 48   2.848662 -0.000001 0.000000 0.053233 0.219141 -0.848146
 49   4.138183 10.107881 0.022334 -0.000003 0.000000 -2.666067
 50   0.764266 -7.386538 0.000000 0.000000 0.000000 0.000000
 51   -2.209861 -5.858539 0.000000 0.000000 0.000000 0.000000
 52   -2.501887 -2.293673 0.000000 0.000000 0.000000 0.000000
 53   -1.605642 -0.865421 0.000000 0.000000 0.000000 0.000000
 54   -0.368520 -0.410555 -1.764821 0.000000 -1.570451 0.000000
 55   -0.928988 -2.565560 1.783661 0.000000 0.000000 0.000000
 56   -0.361656 -0.396879 1.486638 0.000000 -1.570451 0.000000
 57   1.132204 -2.564809 1.806066 0.000000 0.000000 0.000000
 58   0.498682 -1.366848 -0.110061 0.000000 -1.570451 0.000000
 59   -0.087093 -3.285075 -0.490831 0.000000 0.000000 0.000000
end
