version 1
nodes
  0 "Bip01" -1
  1 "Bip01 Pelvis" 0
  2 "Bip01 L Thigh" 1
  3 "Bip01 L Calf" 2
  4 "Bip01 L Foot" 3
  5 "Bip01 R Thigh" 1
  6 "Bip01 R Calf" 5
  7 "Bip01 R Foot" 6
  8 "Bip01 Spine" 1
  9 "Bip01 Spine1" 8
 10 "Bip01 Neck" 9
 11 "Bip01 L Clavicle" 10
 12 "Bip01 L UpperArm" 11
 13 "Bip01 L Forearm" 12
 14 "Bip01 L Hand" 13
 15 "Bip01 L Finger0" 14
 16 "Bip01 L Finger01" 15
 17 "Bip01 L Finger02" 16
 18 "Bip01 L Finger1" 14
 19 "Bip01 L Finger11" 18
 20 "Bip01 L Finger12" 19
 21 "Bip01 L Finger2" 14
 22 "Bip01 L Finger21" 21
 23 "Bip01 L Finger22" 22
 24 "Bip01 R Clavicle" 10
 25 "Bip01 R UpperArm" 24
 26 "Bip01 R Forearm" 25
 27 "Bip01 R Hand" 26
 28 "Bip01 R Finger0" 27
 29 "Bip01 R Finger01" 28
 30 "Bip01 R Finger02" 29
 31 "Bip01 R Finger1" 27
 32 "Bip01 R Finger11" 31
 33 "Bip01 R Finger12" 32
 34 "Bip01 R Finger2" 27
 35 "Bip01 R Finger21" 34
 36 "Bip01 R Finger22" 35
 37 "Bip01 Head" 10
 38 "Bone05" 37
 39 "Bone08" 9
 40 "Bone16" 8
 41 "Bone01" 8
 42 "Bone03" 1
 43 "Bip01 R Finger4" 27
end
skeleton
time 0
  0   1.708652 6.792152 38.409325 0.000000 0.000000 -1.701715
  1   0.164395 -0.125004 0.000000 -1.570795 -1.570451 0.000000
  2   -0.000007 0.000008 4.427393 -0.170796 -3.152960 0.000882
  3   18.465939 0.000000 0.000000 0.000000 0.000000 -0.416557
  4   14.875443 0.000000 -0.000001 0.018451 0.017437 0.402071
  5   0.000006 -0.000004 -4.427393 0.106024 3.095677 -0.362237
  6   18.465939 0.000000 0.000000 0.000000 0.000000 -0.394334
  7   14.875442 0.000000 0.000000 -0.002065 0.005199 0.029344
  8   2.255207 -0.007574 0.000003 0.122100 -0.017403 -0.001322
  9   9.514219 -0.009357 0.000000 -0.008787 0.002361 -0.095902
 10   11.751820 -0.001633 0.000000 0.000024 0.043599 0.439975
 11   -2.117496 0.858748 2.563789 0.697276 -1.395375 2.006330
 12   4.640941 0.000000 -0.000001 0.738474 1.089884 0.724820
 13   10.828049 0.000000 0.000000 0.000000 0.000000 -0.470452
 14   9.393337 -0.000001 0.000000 -1.569611 0.034172 0.000037
 15   1.442245 0.107454 -1.746177 1.686435 0.539209 0.325885
 16   1.063452 0.000000 0.000001 0.000000 0.000000 0.199056
 17   1.376307 -0.000001 0.000001 0.000000 0.000000 0.199049
 18   4.172846 -0.251366 -1.312744 0.008050 0.095731 0.148659
 19   1.215374 0.000002 0.000000 0.000000 0.000000 0.645758
 20   1.215371 -0.000002 0.000001 0.000000 0.000000 0.645758
 21   4.220534 -0.244854 -0.431465 0.001333 0.026242 0.148339
 22   1.350417 0.000000 0.000001 0.000000 0.000000 0.863926
 23   1.350410 -0.000001 -0.000001 0.000000 0.000000 0.863926
 24   -1.887021 0.858761 -2.731760 -0.942471 1.461434 1.764317
 25   4.640942 0.000000 0.000001 -0.601473 -1.183875 0.506934
 26   10.828047 0.000000 0.000001 0.000000 0.000000 -0.234266
 27   9.393339 0.000000 0.000000 1.569611 -0.034192 0.000001
 28   1.442245 0.107455 1.746178 -1.686405 -0.539236 0.325898
 29   1.063450 -0.000001 0.000000 0.000000 0.000000 0.199056
 30   1.376307 0.000000 0.000000 0.000000 0.000000 0.199059
 31   4.172847 -0.251365 1.312745 -0.008050 -0.095731 0.148659
 32   1.215373 -0.000001 0.000000 0.000000 0.000000 0.645746
 33   1.215372 0.000000 0.000000 0.000000 0.000000 0.645746
 34   4.220534 -0.244853 0.431466 -0.001333 -0.026242 0.148339
 35   1.350416 0.000000 -0.000001 0.000000 0.000000 0.863937
 36   1.350410 0.000000 0.000001 0.000000 0.000000 0.863925
 37   2.110540 -0.000001 0.000000 0.002432 -0.010503 -0.153668
 38   0.891923 2.373051 -0.014527 -3.141592 -0.000001 1.413797
 39   7.228122 5.709445 3.726568 3.140796 -1.570796 0.000000
 40   2.450426 5.076128 0.001325 3.140791 -1.570796 0.000000
 41   6.312404 -4.528058 0.001311 3.140791 -1.570796 0.000000
 42   2.233309 1.152535 -7.309138 -1.142342 -1.553379 -0.873535
 43   4.262825 -0.232720 -1.392178 0.016840 0.076668 0.253759
time 1
  0   1.708652 6.764625 31.920845 0.000000 -0.011250 -1.701715
  1   -1.741913 -0.378918 0.000000 -1.570795 -1.570451 0.000000
  2   -0.000007 0.000008 4.427393 -0.125738 -2.963359 -0.910493
  3   18.465939 0.000000 0.000000 0.000000 0.000000 -0.715932
  4   14.875443 0.000000 -0.000001 -0.230506 -0.081215 0.421230
  5   0.000006 -0.000004 -4.427393 0.075791 3.062867 -0.877618
  6   18.465939 0.000000 0.000000 0.000000 0.000000 -0.547792
  7   14.875442 0.000000 0.000000 0.239643 0.104586 0.277186
  8   2.255207 -0.007574 0.000003 0.121932 -0.024258 0.049236
  9   9.514219 -0.009357 0.000000 -0.008959 -0.000467 0.243544
 10   11.751820 -0.001633 0.000000 0.000024 0.043599 0.603522
 11   -1.949523 1.175164 2.567695 0.684907 -1.471840 1.852095
 12   4.640941 0.000000 -0.000001 0.217653 0.667935 0.596622
 13   10.828049 0.000000 0.000000 0.000000 0.000000 -1.194057
 14   9.393337 -0.000001 0.000000 -1.569611 0.034172 0.000037
 15   1.442245 0.107454 -1.746177 1.686435 0.539209 0.325885
 16   1.063452 0.000000 0.000001 0.000000 0.000000 0.199056
 17   1.376307 -0.000001 0.000001 0.000000 0.000000 0.199049
 18   4.172846 -0.251366 -1.312744 0.008050 0.095731 0.148659
 19   1.215374 0.000002 0.000000 0.000000 0.000000 0.645758
 20   1.215371 -0.000002 0.000001 0.000000 0.000000 0.645758
 21   4.220534 -0.244854 -0.431465 0.001333 0.026242 0.148339
 22   1.350417 0.000000 0.000001 0.000000 0.000000 0.863926
 23   1.350410 -0.000001 -0.000001 0.000000 0.000000 0.863926
 24   -1.719047 1.175177 -2.723947 -0.950680 1.422205 1.595764
 25   4.640942 0.000000 0.000001 -0.454528 -0.772135 0.736163
 26   10.828047 0.000000 0.000001 0.000000 0.000000 -1.418435
 27   9.393339 0.000000 0.000000 1.569611 -0.034192 0.000001
 28   1.442245 0.107455 1.746178 -1.686405 -0.539236 0.325898
 29   1.063450 -0.000001 0.000000 0.000000 0.000000 0.199056
 30   1.376307 0.000000 0.000000 0.000000 0.000000 0.199059
 31   4.172847 -0.251365 1.312745 -0.008050 -0.095731 0.148659
 32   1.215373 -0.000001 0.000000 0.000000 0.000000 0.645746
 33   1.215372 0.000000 0.000000 0.000000 0.000000 0.645746
 34   4.220534 -0.244853 0.431466 -0.001333 -0.026242 0.148339
 35   1.350416 0.000000 -0.000001 0.000000 0.000000 0.863937
 36   1.350410 0.000000 0.000001 0.000000 0.000000 0.863925
 37   2.110540 -0.000001 0.000000 -0.417006 -0.016592 0.262829
 38   0.891923 2.373051 -0.014527 -3.141592 -0.000001 1.413797
 39   7.228122 5.709445 3.726568 2.750226 -1.570796 0.000000
 40   2.450426 5.076128 0.001325 2.756895 -1.570796 0.000000
 41   6.312404 -4.528058 0.001311 3.140791 -1.570796 0.000000
 42   2.233309 1.152535 -7.309138 -1.206576 -1.596979 -1.263007
 43   4.262825 -0.232720 -1.392178 0.016840 0.076668 0.253759
time 2
  0   1.708652 6.764625 25.303455 0.000000 -0.023394 -1.701715
  1   -1.210647 -0.332041 0.000000 -1.570795 -1.570451 0.000000
  2   -0.000007 0.000008 4.427393 -0.092899 -2.906610 -1.097815
  3   18.465939 0.000000 0.000000 0.000000 0.000000 -0.618991
  4   14.875443 0.000000 -0.000001 -0.414086 0.008157 0.644701
  5   0.000006 -0.000004 -4.427393 0.055699 3.050843 -1.052625
  6   18.465939 0.000000 0.000000 0.000000 0.000000 -0.374643
  7   14.875442 0.000000 0.000000 0.420529 0.036826 0.378108
  8   2.255207 -0.007574 0.000003 0.121995 -0.025612 0.058633
  9   9.514219 -0.009357 0.000000 -0.008814 -0.004542 0.085489
 10   11.751820 -0.001633 0.000000 0.000024 0.043599 0.498329
 11   -2.062807 0.975939 2.563789 0.872411 -1.422475 1.770684
 12   4.640941 0.000000 -0.000001 0.354993 0.458407 0.783241
 13   10.828049 0.000000 0.000000 0.000000 0.000000 -1.333653
 14   9.393337 -0.000001 0.000000 -1.569611 0.034172 0.000037
 15   1.442245 0.107454 -1.746177 1.686435 0.539209 0.325885
 16   1.063452 0.000000 0.000001 0.000000 0.000000 0.199056
 17   1.376307 -0.000001 0.000001 0.000000 0.000000 0.199049
 18   4.172846 -0.251366 -1.312744 0.008050 0.095731 0.148659
 19   1.215374 0.000002 0.000000 0.000000 0.000000 0.645758
 20   1.215371 -0.000002 0.000001 0.000000 0.000000 0.645758
 21   4.220534 -0.244854 -0.431465 0.001333 0.026242 0.148339
 22   1.350417 0.000000 0.000001 0.000000 0.000000 0.863926
 23   1.350410 -0.000001 -0.000001 0.000000 0.000000 0.863926
 24   -1.832332 0.975952 -2.731760 -1.047524 1.356271 1.611794
 25   4.640942 0.000000 0.000001 -0.599672 -0.563546 0.976801
 26   10.828047 0.000000 0.000001 0.000000 0.000000 -1.624218
 27   9.393339 0.000000 0.000000 1.569611 -0.034192 0.000001
 28   1.442245 0.107455 1.746178 -1.686405 -0.539236 0.325898
 29   1.063450 -0.000001 0.000000 0.000000 0.000000 0.199056
 30   1.376307 0.000000 0.000000 0.000000 0.000000 0.199059
 31   4.172847 -0.251365 1.312745 -0.008050 -0.095731 0.148659
 32   1.215373 -0.000001 0.000000 0.000000 0.000000 0.645746
 33   1.215372 0.000000 0.000000 0.000000 0.000000 0.645746
 34   4.220534 -0.244853 0.431466 -0.001333 -0.026242 0.148339
 35   1.350416 0.000000 -0.000001 0.000000 0.000000 0.863937
 36   1.350410 0.000000 0.000001 0.000000 0.000000 0.863925
 37   2.110540 -0.000001 0.000000 -0.266781 -0.128492 0.161167
 38   0.891923 2.373051 -0.014527 -3.141592 -0.000001 1.413797
 39   7.228122 5.709445 3.726568 2.318908 -1.570796 0.000000
 40   2.450426 5.076128 0.001325 2.495961 -1.570796 0.000000
 41   6.312404 -4.528058 0.001311 3.140791 -1.570796 0.000000
 42   2.233309 1.152535 -7.309138 -1.282603 -1.605688 -1.352812
 43   4.262825 -0.232720 -1.392178 0.016840 0.076668 0.253759
time 3
  0   1.708652 6.764625 18.713409 0.000000 -0.035155 -1.701715
  1   -0.234055 -0.226569 0.000000 -1.570795 -1.570451 0.000000
  2   -0.000007 0.000008 4.427393 -0.046982 -2.865117 -1.291122
  3   18.465939 0.000000 0.000000 0.000000 0.000000 -0.549101
  4   14.875443 0.000000 -0.000001 -0.548569 0.040594 0.528996
  5   0.000006 -0.000004 -4.427393 0.025561 3.032109 -1.270776
  6   18.465939 0.000000 0.000000 0.000000 0.000000 -0.442774
  7   14.875442 0.000000 0.000000 0.571899 0.044091 0.340928
  8   2.255207 -0.007574 0.000003 0.122121 -0.025828 0.059626
  9   9.514219 -0.009357 0.000000 -0.007679 -0.007718 -0.158206
 10   11.751820 -0.001633 0.000000 0.000024 0.043599 0.346914
 11   -2.183905 0.667336 2.559883 0.951480 -1.347967 1.846462
 12   4.640941 0.000000 -0.000001 0.540716 0.273606 0.919927
 13   10.828049 0.000000 0.000000 0.000000 0.000000 -1.352628
 14   9.393337 -0.000001 0.000000 -1.569611 0.034172 0.000037
 15   1.442245 0.107454 -1.746177 1.686435 0.539209 0.325885
 16   1.063452 0.000000 0.000001 0.000000 0.000000 0.199056
 17   1.376307 -0.000001 0.000001 0.000000 0.000000 0.199049
 18   4.172846 -0.251366 -1.312744 0.008050 0.095731 0.148659
 19   1.215374 0.000002 0.000000 0.000000 0.000000 0.645758
 20   1.215371 -0.000002 0.000001 0.000000 0.000000 0.645758
 21   4.220534 -0.244854 -0.431465 0.001333 0.026242 0.148339
 22   1.350417 0.000000 0.000001 0.000000 0.000000 0.863926
 23   1.350410 -0.000001 -0.000001 0.000000 0.000000 0.863926
 24   -1.957335 0.667349 -2.735666 -1.103452 1.286722 1.717398
 25   4.640942 0.000000 0.000001 -0.747955 -0.377621 1.145626
 26   10.828047 0.000000 0.000001 0.000000 0.000000 -1.632582
 27   9.393339 0.000000 0.000000 1.569611 -0.034192 0.000001
 28   1.442245 0.107455 1.746178 -1.686405 -0.539236 0.325898
 29   1.063450 -0.000001 0.000000 0.000000 0.000000 0.199056
 30   1.376307 0.000000 0.000000 0.000000 0.000000 0.199059
 31   4.172847 -0.251365 1.312745 -0.008050 -0.095731 0.148659
 32   1.215373 -0.000001 0.000000 0.000000 0.000000 0.645746
 33   1.215372 0.000000 0.000000 0.000000 0.000000 0.645746
 34   4.220534 -0.244853 0.431466 -0.001333 -0.026242 0.148339
 35   1.350416 0.000000 -0.000001 0.000000 0.000000 0.863937
 36   1.350410 0.000000 0.000001 0.000000 0.000000 0.863925
 37   2.110540 -0.000001 0.000000 0.031667 -0.142850 -0.054930
 38   0.891923 2.373051 -0.014527 -3.141592 -0.000001 1.413797
 39   7.228122 5.709445 3.726568 1.969085 -1.570796 0.000000
 40   2.450426 5.076128 0.001325 2.213174 -1.570796 0.000000
 41   6.312404 -4.528058 0.001311 3.140791 -1.570796 0.000000
 42   2.233309 1.152535 -7.309138 -1.410689 -1.623163 -1.460424
 43   4.262825 -0.232720 -1.392178 0.016840 0.076668 0.253759
time 4
  0   1.708652 6.764625 12.357747 0.000000 -0.045190 -1.701715
  1   0.363620 -0.105472 0.000000 -1.570795 -1.570451 0.000000
  2   -0.000007 0.000008 4.427393 0.025092 -2.827718 -1.540436
  3   18.465939 0.000000 0.000000 0.000000 0.000000 -0.732673
  4   14.875443 0.000000 -0.000001 -0.667796 0.078373 0.598087
  5   0.000006 -0.000004 -4.427393 0.000399 3.019152 -1.426878
  6   18.465939 0.000000 0.000000 0.000000 0.000000 -0.380353
  7   14.875442 0.000000 0.000000 0.721269 0.036388 0.233102
  8   2.255207 -0.007574 0.000003 0.121932 -0.024258 0.049236
  9   9.514219 -0.009357 0.000000 -0.009328 0.003080 -0.279718
 10   11.751820 -0.001633 0.000000 0.000024 0.043599 0.261665
 11   -2.234688 0.491549 2.555976 0.819218 -1.285991 2.071321
 12   4.640941 0.000000 -0.000001 0.600053 0.295165 0.959557
 13   10.828049 0.000000 0.000000 0.000000 0.000000 -1.194057
 14   9.393337 -0.000001 0.000000 -1.569611 0.034172 0.000037
 15   1.442245 0.107454 -1.746177 1.686435 0.539209 0.325885
 16   1.063452 0.000000 0.000001 0.000000 0.000000 0.199056
 17   1.376307 -0.000001 0.000001 0.000000 0.000000 0.199049
 18   4.172846 -0.251366 -1.312744 0.008050 0.095731 0.148659
 19   1.215374 0.000002 0.000000 0.000000 0.000000 0.645758
 20   1.215371 -0.000002 0.000001 0.000000 0.000000 0.645758
 21   4.220534 -0.244854 -0.431465 0.001333 0.026242 0.148339
 22   1.350417 0.000000 0.000001 0.000000 0.000000 0.863926
 23   1.350410 -0.000001 -0.000001 0.000000 0.000000 0.863926
 24   -2.008118 0.491562 -2.739573 -1.059289 1.256548 1.853134
 25   4.640942 0.000000 0.000001 -0.793284 -0.378737 1.173834
 26   10.828047 0.000000 0.000001 0.000000 0.000000 -1.418435
 27   9.393339 0.000000 0.000000 1.569611 -0.034192 0.000001
 28   1.442245 0.107455 1.746178 -1.686405 -0.539236 0.325898
 29   1.063450 -0.000001 0.000000 0.000000 0.000000 0.199056
 30   1.376307 0.000000 0.000000 0.000000 0.000000 0.199059
 31   4.172847 -0.251365 1.312745 -0.008050 -0.095731 0.148659
 32   1.215373 -0.000001 0.000000 0.000000 0.000000 0.645746
 33   1.215372 0.000000 0.000000 0.000000 0.000000 0.645746
 34   4.220534 -0.244853 0.431466 -0.001333 -0.026242 0.148339
 35   1.350416 0.000000 -0.000001 0.000000 0.000000 0.863937
 36   1.350410 0.000000 0.000001 0.000000 0.000000 0.863925
 37   2.110540 -0.000001 0.000000 0.213606 -0.061425 -0.140810
 38   0.891923 2.373051 -0.014527 -3.141592 -0.000001 1.413797
 39   7.228122 5.709445 3.726568 1.823096 -1.570796 0.000000
 40   2.450426 5.076128 0.001325 2.053787 -1.570796 0.000000
 41   6.312404 -4.528058 0.001311 3.140791 -1.570796 0.000000
 42   2.233309 1.152535 -7.309138 -1.513273 -1.640608 -1.532325
 43   4.262825 -0.232720 -1.392178 0.016840 0.076668 0.253759
time 5
  0   1.708652 6.764625 6.513819 0.000000 -0.052285 -1.701715
  1   -1.198928 0.074221 0.000000 -1.570795 -1.570451 0.000000
  2   -0.000007 0.000008 4.427393 -0.016434 -2.820182 -1.423385
  3   18.465939 0.000000 0.000000 0.000000 0.000000 -0.065422
  4   14.875443 0.000000 -0.000001 -0.742025 0.126646 0.118318
  5   0.000006 -0.000004 -4.427393 0.010445 3.033507 -1.436237
  6   18.465939 0.000000 0.000000 0.000000 0.000000 -0.062804
  7   14.875442 0.000000 0.000000 0.824873 -0.003910 -0.013651
  8   2.255207 -0.007574 0.000003 0.119685 -0.013615 -0.019023
  9   9.514219 -0.009357 0.000000 -0.002177 0.086756 0.279696
 10   11.751820 -0.001633 0.000000 0.000024 0.043599 0.544658
 11   -2.015931 1.061879 2.567695 0.008798 -1.141603 2.587680
 12   4.640941 0.000000 -0.000001 -0.618274 1.033542 -0.459693
 13   10.828049 0.000000 0.000000 0.000000 0.000000 -0.128540
 14   9.393337 -0.000001 0.000000 -1.569611 0.034172 0.000037
 15   1.442245 0.107454 -1.746177 1.686435 0.539209 0.325885
 16   1.063452 0.000000 0.000001 0.000000 0.000000 0.199056
 17   1.376307 -0.000001 0.000001 0.000000 0.000000 0.199049
 18   4.172846 -0.251366 -1.312744 0.008050 0.095731 0.148659
 19   1.215374 0.000002 0.000000 0.000000 0.000000 0.645758
 20   1.215371 -0.000002 0.000001 0.000000 0.000000 0.645758
 21   4.220534 -0.244854 -0.431465 0.001333 0.026242 0.148339
 22   1.350417 0.000000 0.000001 0.000000 0.000000 0.863926
 23   1.350410 -0.000001 -0.000001 0.000000 0.000000 0.863926
 24   -1.785455 1.061892 -2.727853 -0.193494 1.360715 2.407914
 25   4.640942 0.000000 0.000001 0.305359 -1.040771 -0.283434
 26   10.828047 0.000000 0.000001 0.000000 0.000000 -0.083776
 27   9.393339 0.000000 0.000000 1.569611 -0.034192 0.000001
 28   1.442245 0.107455 1.746178 -1.686405 -0.539236 0.325898
 29   1.063450 -0.000001 0.000000 0.000000 0.000000 0.199056
 30   1.376307 0.000000 0.000000 0.000000 0.000000 0.199059
 31   4.172847 -0.251365 1.312745 -0.008050 -0.095731 0.148659
 32   1.215373 -0.000001 0.000000 0.000000 0.000000 0.645746
 33   1.215372 0.000000 0.000000 0.000000 0.000000 0.645746
 34   4.220534 -0.244853 0.431466 -0.001333 -0.026242 0.148339
 35   1.350416 0.000000 -0.000001 0.000000 0.000000 0.863937
 36   1.350410 0.000000 0.000001 0.000000 0.000000 0.863925
 37   2.110540 -0.000001 0.000000 -0.200491 -0.066285 0.396745
 38   0.891923 2.373051 -0.014527 -3.141592 -0.000001 1.413797
 39   7.228122 5.709445 3.726568 2.429088 -1.570796 0.000000
 40   2.450426 5.076128 0.001325 2.071955 -1.570796 0.000000
 41   6.312404 -4.528058 0.001311 3.140791 -1.570796 0.000000
 42   2.233309 1.152535 -7.309138 1.564907 -1.521750 1.553292
 43   4.262825 -0.232720 -1.392178 0.016840 0.076668 0.253759
time 6
  0   1.708652 6.764625 4.564541 0.000000 -0.037712 -1.701715
  1   -2.417715 -0.117191 0.000000 -1.570795 -1.570451 0.000000
  2   -0.000007 0.000008 4.427393 -3.090116 -0.327652 1.476469
  3   18.465939 0.000000 0.000000 0.000000 0.000000 -0.407638
  4   14.875443 0.000000 -0.000001 -0.754747 0.159125 0.245440
  5   0.000006 -0.000004 -4.427393 -3.119666 0.127362 1.492930
  6   18.465939 0.000000 0.000000 0.000000 0.000000 -0.384817
  7   14.875442 0.000000 0.000000 0.846316 -0.037533 0.130979
  8   2.255207 -0.007574 0.000003 0.117122 -0.041096 0.088809
  9   9.514219 -0.009357 0.000000 -0.001940 0.111756 0.298595
 10   11.751820 -0.001633 0.000000 0.000024 0.043599 0.469581
 11   -2.090152 0.917344 2.563789 0.017145 -1.180439 2.654801
 12   4.640941 0.000000 -0.000001 -0.331953 1.095808 -0.040796
 13   10.828049 0.000000 0.000000 0.000000 0.000000 -0.632196
 14   9.393337 -0.000001 0.000000 -1.569611 0.034172 0.000037
 15   1.442245 0.107454 -1.746177 1.686435 0.539209 0.325885
 16   1.063452 0.000000 0.000001 0.000000 0.000000 0.199056
 17   1.376307 -0.000001 0.000001 0.000000 0.000000 0.199049
 18   4.172846 -0.251366 -1.312744 0.008050 0.095731 0.148659
 19   1.215374 0.000002 0.000000 0.000000 0.000000 0.645758
 20   1.215371 -0.000002 0.000001 0.000000 0.000000 0.645758
 21   4.220534 -0.244854 -0.431465 0.001333 0.026242 0.148339
 22   1.350417 0.000000 0.000001 0.000000 0.000000 0.863926
 23   1.350410 -0.000001 -0.000001 0.000000 0.000000 0.863926
 24   -1.859676 0.917357 -2.731760 -0.190026 1.372323 2.485930
 25   4.640942 0.000000 0.000001 -0.012096 -0.954503 0.168725
 26   10.828047 0.000000 0.000001 0.000000 0.000000 -0.637991
 27   9.393339 0.000000 0.000000 1.569611 -0.034192 0.000001
 28   1.442245 0.107455 1.746178 -1.686405 -0.539236 0.325898
 29   1.063450 -0.000001 0.000000 0.000000 0.000000 0.199056
 30   1.376307 0.000000 0.000000 0.000000 0.000000 0.199059
 31   4.172847 -0.251365 1.312745 -0.008050 -0.095731 0.148659
 32   1.215373 -0.000001 0.000000 0.000000 0.000000 0.645746
 33   1.215372 0.000000 0.000000 0.000000 0.000000 0.645746
 34   4.220534 -0.244853 0.431466 -0.001333 -0.026242 0.148339
 35   1.350416 0.000000 -0.000001 0.000000 0.000000 0.863937
 36   1.350410 0.000000 0.000001 0.000000 0.000000 0.863925
 37   2.110540 -0.000001 0.000000 -0.144646 -0.080503 0.128871
 38   0.891923 2.373051 -0.014527 -3.141592 -0.000001 1.413797
 39   7.228122 5.709445 3.726568 3.120944 -1.570796 0.000000
 40   2.450426 5.076128 0.001325 2.090387 -1.570796 0.000000
 41   6.312404 -4.528058 0.001311 3.140791 -1.570796 0.000000
 42   2.233309 1.152535 -7.309138 1.499138 -1.475645 1.511262
 43   4.262825 -0.232720 -1.392178 0.016840 0.076668 0.253759
time 7
  0   1.708652 6.764625 6.615385 0.000000 -0.002365 -1.701715
  1   -0.659849 -0.003906 0.000000 -1.570795 -1.570451 0.000000
  2   -0.000007 0.000008 4.427393 -3.062623 -0.327652 1.349742
  3   18.465939 0.000000 0.000000 0.000000 0.000000 -0.716370
  4   14.875443 0.000000 -0.000001 -0.769633 0.116983 0.429091
  5   0.000006 -0.000004 -4.427393 -3.092207 0.149172 1.403649
  6   18.465939 0.000000 0.000000 0.000000 0.000000 -0.627409
  7   14.875442 0.000000 0.000000 0.850668 -0.004443 0.290767
  8   2.255207 -0.007574 0.000003 0.119874 -0.049485 0.009730
  9   9.514219 -0.009357 0.000000 -0.003787 0.136049 0.063018
 10   11.751820 -0.001633 0.000000 0.000024 0.043611 0.183314
 11   -2.265939 0.327482 2.555976 0.121559 -1.419469 2.836310
 12   4.640941 0.000000 -0.000001 0.790050 0.978784 1.092965
 13   10.828049 0.000000 0.000000 0.000000 0.000000 -0.961174
 14   9.393337 -0.000001 0.000000 -1.569611 0.034172 0.000037
 15   1.442245 0.107454 -1.746177 1.686435 0.539209 0.325885
 16   1.063452 0.000000 0.000001 0.000000 0.000000 0.199056
 17   1.376307 -0.000001 0.000001 0.000000 0.000000 0.199049
 18   4.172846 -0.251366 -1.312744 0.008050 0.095731 0.148659
 19   1.215374 0.000002 0.000000 0.000000 0.000000 0.645758
 20   1.215371 -0.000002 0.000001 0.000000 0.000000 0.645758
 21   4.220534 -0.244854 -0.431465 0.001333 0.026242 0.148339
 22   1.350417 0.000000 0.000001 0.000000 0.000000 0.863926
 23   1.350410 -0.000001 -0.000001 0.000000 0.000000 0.863926
 24   -2.039369 0.327495 -2.739573 -1.177599 1.420419 1.789772
 25   4.640942 0.000000 0.000001 -0.687551 -0.725829 1.018448
 26   10.828047 0.000000 0.000001 0.000000 0.000000 -1.027022
 27   9.393339 0.000000 0.000000 1.569611 -0.034192 0.000001
 28   1.442245 0.107455 1.746178 -1.686405 -0.539236 0.325898
 29   1.063450 -0.000001 0.000000 0.000000 0.000000 0.199056
 30   1.376307 0.000000 0.000000 0.000000 0.000000 0.199059
 31   4.172847 -0.251365 1.312745 -0.008050 -0.095731 0.148659
 32   1.215373 -0.000001 0.000000 0.000000 0.000000 0.645746
 33   1.215372 0.000000 0.000000 0.000000 0.000000 0.645746
 34   4.220534 -0.244853 0.431466 -0.001333 -0.026242 0.148339
 35   1.350416 0.000000 -0.000001 0.000000 0.000000 0.863937
 36   1.350410 0.000000 0.000001 0.000000 0.000000 0.863925
 37   2.110540 -0.000001 0.000000 -0.016501 -0.111649 -0.039535
 38   0.891923 2.373051 -0.014527 -3.141592 -0.000001 1.413797
 39   7.228122 5.709445 3.726568 2.869524 -1.570796 0.000000
 40   2.450426 5.076128 0.001325 2.111012 -1.570796 0.000000
 41   6.312404 -4.528058 0.001311 3.140791 -1.570796 0.000000
 42   2.233309 1.152535 -7.309138 1.437300 -1.440491 1.467987
 43   4.262825 -0.232720 -1.392178 0.016840 0.076668 0.253759
time 8
  0   1.708652 6.737097 5.818485 0.000000 0.025695 -1.701715
  1   -2.308337 -0.359386 0.000000 -1.570795 -1.570451 0.000000
  2   -0.000007 0.000008 4.427393 -3.074460 -0.328583 1.318073
  3   18.465939 0.000000 0.000000 0.000000 0.000000 -0.674626
  4   14.875443 0.000000 -0.000001 -0.822259 -0.104074 0.349808
  5   0.000006 -0.000004 -4.427393 -3.057477 0.155604 1.365185
  6   18.465939 0.000000 0.000000 0.000000 0.000000 -0.591769
  7   14.875442 0.000000 0.000000 0.855266 0.190375 0.182566
  8   2.255207 -0.007574 0.000003 0.117731 -0.087692 0.096188
  9   9.514219 -0.009357 0.000000 -0.000264 0.168515 0.245297
 10   11.751820 -0.001633 0.000000 0.000024 0.043599 0.433747
 11   -2.121403 0.847029 2.559883 -0.549542 -1.308303 3.246251
 12   4.640941 0.000000 -0.000001 -0.012082 1.232601 0.148925
 13   10.828049 0.000000 0.000000 0.000000 0.000000 -0.883200
 14   9.393337 -0.000001 0.000000 -1.569611 0.034172 0.000037
 15   1.442245 0.107454 -1.746177 1.686435 0.539209 0.325885
 16   1.063452 0.000000 0.000001 0.000000 0.000000 0.199056
 17   1.376307 -0.000001 0.000001 0.000000 0.000000 0.199049
 18   4.172846 -0.251366 -1.312744 0.008050 0.095731 0.148659
 19   1.215374 0.000002 0.000000 0.000000 0.000000 0.645758
 20   1.215371 -0.000002 0.000001 0.000000 0.000000 0.645758
 21   4.220534 -0.244854 -0.431465 0.001333 0.026242 0.148339
 22   1.350417 0.000000 0.000001 0.000000 0.000000 0.863926
 23   1.350410 -0.000001 -0.000001 0.000000 0.000000 0.863926
 24   -1.890927 0.847042 -2.731760 0.200640 1.491712 2.906074
 25   4.640942 0.000000 0.000001 -0.202467 -1.014897 0.304582
 26   10.828047 0.000000 0.000001 0.000000 0.000000 -0.985029
 27   9.393339 0.000000 0.000000 1.569611 -0.034192 0.000001
 28   1.442245 0.107455 1.746178 -1.686405 -0.539236 0.325898
 29   1.063450 -0.000001 0.000000 0.000000 0.000000 0.199056
 30   1.376307 0.000000 0.000000 0.000000 0.000000 0.199059
 31   4.172847 -0.251365 1.312745 -0.008050 -0.095731 0.148659
 32   1.215373 -0.000001 0.000000 0.000000 0.000000 0.645746
 33   1.215372 0.000000 0.000000 0.000000 0.000000 0.645746
 34   4.220534 -0.244853 0.431466 -0.001333 -0.026242 0.148339
 35   1.350416 0.000000 -0.000001 0.000000 0.000000 0.863937
 36   1.350410 0.000000 0.000001 0.000000 0.000000 0.863925
 37   2.110540 -0.000001 0.000000 0.217278 -0.113827 -0.153754
 38   0.891923 2.373051 -0.014527 -3.141592 -0.000001 1.413797
 39   7.228122 5.709445 3.726568 2.496716 -1.570796 0.000000
 40   2.450426 5.076128 0.001325 2.136114 -1.570796 0.000000
 41   6.312404 -4.528058 0.001311 3.140791 -1.570796 0.000000
 42   2.233309 1.152535 -7.309138 1.455037 -1.432715 1.484072
 43   4.262825 -0.232720 -1.392178 0.016840 0.076668 0.253759
time 9
  0   1.708652 6.709569 4.939552 0.000000 0.018409 -1.701715
  1   -4.331836 -0.722678 0.000000 -1.570795 -1.570451 0.000000
  2   -0.000007 0.000008 4.427393 -3.115986 -0.333327 1.373282
  3   18.465939 0.000000 0.000000 0.000000 0.000000 -0.537184
  4   14.875443 0.000000 -0.000001 -0.881830 -0.356013 0.264480
  5   0.000006 -0.000004 -4.427393 -3.011840 0.157468 1.405895
  6   18.465939 0.000000 0.000000 0.000000 0.000000 -0.464434
  7   14.875442 0.000000 0.000000 0.849791 0.416420 0.042926
  8   2.255207 -0.007574 0.000003 0.110108 -0.129854 0.210505
  9   9.518126 -0.009357 0.000000 0.012587 0.199723 0.500055
 10   11.751820 -0.001633 0.000000 0.000024 0.043599 0.663728
 11   -1.879208 1.280636 2.571602 -0.727333 -1.128753 3.164290
 12   4.640941 0.000000 -0.000001 -1.090418 0.967970 -1.118537
 13   10.828049 0.000000 0.000000 0.000000 0.000000 -0.745190
 14   9.393337 -0.000001 0.000000 -1.569611 0.034172 0.000037
 15   1.442245 0.107454 -1.746177 1.686435 0.539209 0.325885
 16   1.063452 0.000000 0.000001 0.000000 0.000000 0.199056
 17   1.376307 -0.000001 0.000001 0.000000 0.000000 0.199049
 18   4.172846 -0.251366 -1.312744 0.008050 0.095731 0.148659
 19   1.215374 0.000002 0.000000 0.000000 0.000000 0.645758
 20   1.215371 -0.000002 0.000001 0.000000 0.000000 0.645758
 21   4.220534 -0.244854 -0.431465 0.001333 0.026242 0.148339
 22   1.350417 0.000000 0.000001 0.000000 0.000000 0.863926
 23   1.350410 -0.000001 -0.000001 0.000000 0.000000 0.863926
 24   -1.644826 1.280649 -2.723947 1.016697 1.345555 3.475163
 25   4.640942 0.000000 0.000001 0.740227 -0.929885 -0.940115
 26   10.828047 0.000000 0.000001 0.000000 0.000000 -0.869853
 27   9.393339 0.000000 0.000000 1.569611 -0.034192 0.000001
 28   1.442245 0.107455 1.746178 -1.686405 -0.539236 0.325898
 29   1.063450 -0.000001 0.000000 0.000000 0.000000 0.199056
 30   1.376307 0.000000 0.000000 0.000000 0.000000 0.199059
 31   4.172847 -0.251365 1.312745 -0.008050 -0.095731 0.148659
 32   1.215373 -0.000001 0.000000 0.000000 0.000000 0.645746
 33   1.215372 0.000000 0.000000 0.000000 0.000000 0.645746
 34   4.220534 -0.244853 0.431466 -0.001333 -0.026242 0.148339
 35   1.350416 0.000000 -0.000001 0.000000 0.000000 0.863937
 36   1.350410 0.000000 0.000001 0.000000 0.000000 0.863925
 37   2.110540 -0.000001 0.000000 0.114791 -0.178772 -0.108041
 38   0.891923 2.373051 -0.014527 -3.141592 -0.000001 1.413797
 39   7.228122 5.709445 3.726568 2.897544 -1.570796 0.000000
 40   2.450426 5.076128 0.001325 2.167622 -1.570796 0.000000
 41   6.312404 -4.528058 0.001311 3.140791 -1.570796 0.000000
 42   2.233309 1.152535 -7.309138 1.489455 -1.462714 1.509251
 43   4.262825 -0.232720 -1.392178 0.016840 0.076668 0.253759
time 10
  0   1.708652 6.792152 5.408317 0.000000 -0.052285 -1.701715
  1   -5.183424 -0.886746 0.000000 -1.570795 -1.570451 0.000000
  2   -0.000007 0.000008 4.427393 3.097915 -0.336397 1.533473
  3   18.465939 0.000000 0.000000 0.000000 0.000000 -0.384536
  4   14.875443 0.000000 -0.000001 -0.931497 -0.573685 0.244176
  5   0.000006 -0.000004 -4.427393 -2.961132 0.153087 1.550767
  6   18.465939 0.000000 0.000000 0.000000 0.000000 -0.315570
  7   14.875442 0.000000 0.000000 0.827961 0.618407 -0.050306
  8   2.255207 -0.007574 0.000003 0.103786 -0.154566 0.263578
  9   9.518126 -0.009357 0.000000 0.024251 0.219222 0.634275
 10   11.751820 -0.001633 0.000000 0.000024 0.043599 0.788864
 11   -1.703421 1.491580 2.579414 -0.740081 -1.128928 3.050796
 12   4.640941 0.000000 -0.000001 -1.264156 0.798322 -1.256101
 13   10.828049 0.000000 0.000000 0.000000 0.000000 -0.713708
 14   9.393337 -0.000001 0.000000 -1.569611 0.034172 0.000037
 15   1.442245 0.107454 -1.746177 1.686435 0.539209 0.325885
 16   1.063452 0.000000 0.000001 0.000000 0.000000 0.199056
 17   1.376307 -0.000001 0.000001 0.000000 0.000000 0.199049
 18   4.172846 -0.251366 -1.312744 0.008050 0.095731 0.148659
 19   1.215374 0.000002 0.000000 0.000000 0.000000 0.645758
 20   1.215371 -0.000002 0.000001 0.000000 0.000000 0.645758
 21   4.220534 -0.244854 -0.431465 0.001333 0.026242 0.148339
 22   1.350417 0.000000 0.000001 0.000000 0.000000 0.863926
 23   1.350410 -0.000001 -0.000001 0.000000 0.000000 0.863926
 24   -1.472946 1.491593 -2.716134 0.993034 1.346967 3.327043
 25   4.640942 0.000000 0.000001 0.918969 -0.758815 -1.119858
 26   10.828047 0.000000 0.000001 0.000000 0.000000 -0.819729
 27   9.393339 0.000000 0.000000 1.569611 -0.034192 0.000001
 28   1.442245 0.107455 1.746178 -1.686405 -0.539236 0.325898
 29   1.063450 -0.000001 0.000000 0.000000 0.000000 0.199056
 30   1.376307 0.000000 0.000000 0.000000 0.000000 0.199059
 31   4.172847 -0.251365 1.312745 -0.008050 -0.095731 0.148659
 32   1.215373 -0.000001 0.000000 0.000000 0.000000 0.645746
 33   1.215372 0.000000 0.000000 0.000000 0.000000 0.645746
 34   4.220534 -0.244853 0.431466 -0.001333 -0.026242 0.148339
 35   1.350416 0.000000 -0.000001 0.000000 0.000000 0.863937
 36   1.350410 0.000000 0.000001 0.000000 0.000000 0.863925
 37   2.110540 -0.000001 0.000000 -0.024990 -0.161733 -0.032998
 38   0.891923 2.373051 -0.014527 -3.141592 -0.000001 1.413797
 39   7.228122 5.709445 3.726568 2.771217 -1.570796 0.000000
 40   2.450426 5.076128 0.001325 2.207908 -1.570796 0.000000
 41   6.312404 -4.528058 0.001311 3.140791 -1.570796 0.000000
 42   2.233309 1.152535 -7.309138 1.543623 -1.450452 1.545441
 43   4.262825 -0.232720 -1.392178 0.016840 0.076668 0.253759
time 11
  0   1.708652 6.957318 6.197403 0.000000 -0.197573 -1.701715
  1   -4.659971 -0.863308 0.000000 -1.570795 -1.570451 0.000000
  2   -0.000007 0.000008 4.427393 -0.083544 -2.802599 -1.427125
  3   18.465939 0.000000 0.000000 0.000000 0.000000 -0.330802
  4   14.875443 0.000000 -0.000001 -0.894211 -0.573621 0.195547
  5   0.000006 -0.000004 -4.427393 0.194619 2.994079 -1.405821
  6   18.465939 0.000000 0.000000 0.000000 0.000000 -0.249409
  7   14.875442 0.000000 0.000000 0.816800 0.615307 -0.091838
  8   2.255207 -0.007574 0.000003 0.105403 -0.155681 0.223873
  9   9.518126 -0.009357 0.000000 0.024066 0.227923 0.571819
 10   11.751820 -0.001633 0.000000 0.000024 0.043599 0.732416
 11   -1.785455 1.397827 2.575508 -0.751691 -1.143797 3.122451
 12   4.640941 0.000000 -0.000001 -1.266022 0.786062 -1.235320
 13   10.828049 0.000000 0.000000 0.000000 0.000000 -0.697174
 14   9.393337 -0.000001 0.000000 -1.569611 0.034172 0.000037
 15   1.442245 0.107454 -1.746177 1.686435 0.539209 0.325885
 16   1.063452 0.000000 0.000001 0.000000 0.000000 0.199056
 17   1.376307 -0.000001 0.000001 0.000000 0.000000 0.199049
 18   4.172846 -0.251366 -1.312744 0.008050 0.095731 0.148659
 19   1.215374 0.000002 0.000000 0.000000 0.000000 0.645758
 20   1.215371 -0.000002 0.000001 0.000000 0.000000 0.645758
 21   4.220534 -0.244854 -0.431465 0.001333 0.026242 0.148339
 22   1.350417 0.000000 0.000001 0.000000 0.000000 0.863926
 23   1.350410 -0.000001 -0.000001 0.000000 0.000000 0.863926
 24   -1.554979 1.397840 -2.716134 1.005063 1.335171 3.393639
 25   4.640942 0.000000 0.000001 0.889488 -0.740474 -1.083112
 26   10.828047 0.000000 0.000001 0.000000 0.000000 -0.786913
 27   9.393339 0.000000 0.000000 1.569611 -0.034192 0.000001
 28   1.442245 0.107455 1.746178 -1.686405 -0.539236 0.325898
 29   1.063450 -0.000001 0.000000 0.000000 0.000000 0.199056
 30   1.376307 0.000000 0.000000 0.000000 0.000000 0.199059
 31   4.172847 -0.251365 1.312745 -0.008050 -0.095731 0.148659
 32   1.215373 -0.000001 0.000000 0.000000 0.000000 0.645746
 33   1.215372 0.000000 0.000000 0.000000 0.000000 0.645746
 34   4.220534 -0.244853 0.431466 -0.001333 -0.026242 0.148339
 35   1.350416 0.000000 -0.000001 0.000000 0.000000 0.863937
 36   1.350410 0.000000 0.000001 0.000000 0.000000 0.863925
 37   2.110540 -0.000001 0.000000 -0.042683 -0.149414 -0.059188
 38   0.891923 2.373051 -0.014527 -3.141592 -0.000001 1.413797
 39   7.228122 5.709445 3.726568 2.553136 -1.570796 0.000000
 40   2.450426 5.076128 0.001325 2.258813 -1.570796 0.000000
 41   6.312404 -4.528058 0.001311 3.140791 -1.570796 0.000000
 42   2.233309 1.152535 -7.309138 -1.472431 -1.690470 -1.503028
 43   4.262825 -0.232720 -1.392178 0.016840 0.076668 0.253759
time 12
  0   1.708652 7.150012 6.732575 0.000000 -0.394825 -1.701715
  1   -3.366963 -0.738304 0.000000 -1.570795 -1.570451 0.000000
  2   -0.000007 0.000008 4.427393 -0.092135 -2.777852 -1.294514
  3   18.465939 0.000000 0.000000 0.000000 0.000000 -0.417288
  4   14.875443 0.000000 -0.000001 -0.898765 -0.600269 0.184367
  5   0.000006 -0.000004 -4.427393 0.184765 2.969100 -1.253182
  6   18.465939 0.000000 0.000000 0.000000 0.000000 -0.374971
  7   14.875442 0.000000 0.000000 0.901909 0.621488 -0.017778
  8   2.255207 -0.007574 0.000003 0.110465 -0.144727 0.139665
  9   9.514219 -0.009357 0.000000 0.016954 0.230404 0.415778
 10   11.751820 -0.001633 0.000000 0.000024 0.043599 0.612621
 11   -1.941710 1.190789 2.567695 -0.762618 -1.158524 3.257037
 12   4.640941 0.000000 -0.000001 -1.158007 0.878290 -1.132000
 13   10.828049 0.000000 0.000000 0.000000 0.000000 -0.678992
 14   9.393337 -0.000001 0.000000 -1.569611 0.034172 0.000037
 15   1.442245 0.107454 -1.746177 1.686435 0.539209 0.325885
 16   1.063452 0.000000 0.000001 0.000000 0.000000 0.199056
 17   1.376307 -0.000001 0.000001 0.000000 0.000000 0.199049
 18   4.172846 -0.251366 -1.312744 0.008050 0.095731 0.148659
 19   1.215374 0.000002 0.000000 0.000000 0.000000 0.645758
 20   1.215371 -0.000002 0.000001 0.000000 0.000000 0.645758
 21   4.220534 -0.244854 -0.431465 0.001333 0.026242 0.148339
 22   1.350417 0.000000 0.000001 0.000000 0.000000 0.863926
 23   1.350410 -0.000001 -0.000001 0.000000 0.000000 0.863926
 24   -1.711234 1.190803 -2.723947 1.033027 1.318433 3.538663
 25   4.640942 0.000000 0.000001 0.733435 -0.807981 -0.922826
 26   10.828047 0.000000 0.000001 0.000000 0.000000 -0.756246
 27   9.393339 0.000000 0.000000 1.569611 -0.034192 0.000001
 28   1.442245 0.107455 1.746178 -1.686405 -0.539236 0.325898
 29   1.063450 -0.000001 0.000000 0.000000 0.000000 0.199056
 30   1.376307 0.000000 0.000000 0.000000 0.000000 0.199059
 31   4.172847 -0.251365 1.312745 -0.008050 -0.095731 0.148659
 32   1.215373 -0.000001 0.000000 0.000000 0.000000 0.645746
 33   1.215372 0.000000 0.000000 0.000000 0.000000 0.645746
 34   4.220534 -0.244853 0.431466 -0.001333 -0.026242 0.148339
 35   1.350416 0.000000 -0.000001 0.000000 0.000000 0.863937
 36   1.350410 0.000000 0.000001 0.000000 0.000000 0.863925
 37   2.110540 -0.000001 0.000000 -0.043255 -0.140001 -0.073465
 38   0.891923 2.373051 -0.014527 -3.141592 -0.000001 1.413797
 39   7.228122 5.709445 3.726568 2.447705 -1.570796 0.000000
 40   2.450426 5.076128 0.001325 2.322620 -1.570796 0.000000
 41   6.312404 -4.528058 0.001311 3.140791 -1.570796 0.000000
 42   2.233309 1.152535 -7.309138 -1.377900 -1.717003 -1.431223
 43   4.262825 -0.232720 -1.392178 0.016840 0.076668 0.253759
time 13
  0   1.708652 7.370233 6.591947 0.000000 -0.622248 -1.701715
  1   -1.714569 -0.542985 0.000000 -1.570795 -1.570796 0.000000
  2   -0.000007 0.000008 4.427393 -0.159818 -2.780364 -1.036921
  3   18.465939 0.000000 0.000000 0.000000 0.000000 -0.428693
  4   14.875443 0.000000 -0.000001 -0.782555 -0.572728 0.186382
  5   0.000006 -0.000004 -4.427393 0.202752 2.977302 -1.034095
  6   18.465939 0.000000 0.000000 0.000000 0.000000 -0.391709
  7   14.875442 0.000000 0.000000 0.794339 0.611960 -0.029033
  8   2.255207 -0.007574 0.000003 0.115232 -0.128739 0.040269
  9   9.514219 -0.009357 0.000000 0.008062 0.228594 0.239993
 10   11.751820 -0.001633 0.000000 0.000024 0.043599 0.480452
 11   -2.082339 0.940782 2.563789 -0.775139 -1.174332 3.405638
 12   4.640941 0.000000 -0.000001 -0.980830 0.982021 -0.972016
 13   10.828049 0.000000 0.000000 0.000000 0.000000 -0.660810
 14   9.393337 -0.000001 0.000000 -1.569611 0.034172 0.000037
 15   1.442245 0.107454 -1.746177 1.686435 0.539209 0.325885
 16   1.063452 0.000000 0.000001 0.000000 0.000000 0.199056
 17   1.376307 -0.000001 0.000001 0.000000 0.000000 0.199049
 18   4.172846 -0.251366 -1.312744 0.008050 0.095731 0.148659
 19   1.215374 0.000002 0.000000 0.000000 0.000000 0.645758
 20   1.215371 -0.000002 0.000001 0.000000 0.000000 0.645758
 21   4.220534 -0.244854 -0.431465 0.001333 0.026242 0.148339
 22   1.350417 0.000000 0.000001 0.000000 0.000000 0.863926
 23   1.350410 -0.000001 -0.000001 0.000000 0.000000 0.863926
 24   -1.851863 0.940795 -2.731760 1.059850 1.299494 3.694420
 25   4.640942 0.000000 0.000001 0.506277 -0.865795 -0.699476
 26   10.828047 0.000000 0.000001 0.000000 0.000000 -0.726624
 27   9.393339 0.000000 0.000000 1.569611 -0.034192 0.000001
 28   1.442245 0.107455 1.746178 -1.686405 -0.539236 0.325898
 29   1.063450 -0.000001 0.000000 0.000000 0.000000 0.199056
 30   1.376307 0.000000 0.000000 0.000000 0.000000 0.199059
 31   4.172847 -0.251365 1.312745 -0.008050 -0.095731 0.148659
 32   1.215373 -0.000001 0.000000 0.000000 0.000000 0.645746
 33   1.215372 0.000000 0.000000 0.000000 0.000000 0.645746
 34   4.220534 -0.244853 0.431466 -0.001333 -0.026242 0.148339
 35   1.350416 0.000000 -0.000001 0.000000 0.000000 0.863937
 36   1.350410 0.000000 0.000001 0.000000 0.000000 0.863925
 37   2.110540 -0.000001 0.000000 -0.038725 -0.135420 -0.076432
 38   0.891923 2.373051 -0.014527 -3.141592 -0.000001 1.413797
 39   7.228122 5.709445 3.726568 2.477244 -1.570796 0.000000
 40   2.450426 5.076128 0.001325 2.401436 -1.570796 0.000000
 41   6.312404 -4.528058 0.001311 3.140791 -1.570796 0.000000
 42   2.233309 1.152535 -7.309138 -1.254896 -1.700722 -1.326962
 43   4.262825 -0.232720 -1.392178 0.016840 0.076668 0.253759
time 14
  0   1.708652 7.590454 5.998178 0.000000 -0.857980 -1.701715
  1   -0.327808 -0.367199 0.000000 -1.570795 -1.570796 0.000000
  2   -0.000007 0.000008 4.427393 -0.219195 -2.817670 -0.835784
  3   18.465939 0.000000 0.000000 0.000000 0.000000 -0.455450
  4   14.875443 0.000000 -0.000001 -0.581328 -0.433232 0.189345
  5   0.000006 -0.000004 -4.427393 0.212032 3.001443 -0.968865
  6   18.465939 0.000000 0.000000 0.000000 0.000000 -0.441002
  7   14.875442 0.000000 0.000000 0.635107 0.565157 -0.061298
  8   2.255207 -0.007574 0.000003 0.117752 -0.115449 -0.045361
  9   9.514219 -0.009357 0.000000 0.001966 0.226808 0.118178
 10   11.751820 -0.001633 0.000000 0.000024 0.043599 0.386882
 11   -2.156560 0.753276 2.559883 -0.792061 -1.191349 3.519819
 12   4.640941 0.000000 -0.000001 -0.852921 1.025828 -0.855819
 13   10.828049 0.000000 0.000000 0.000000 0.000000 -0.644520
 14   9.393337 -0.000001 0.000000 -1.569611 0.034172 0.000037
 15   1.442245 0.107454 -1.746177 1.686435 0.539209 0.325885
 16   1.063452 0.000000 0.000001 0.000000 0.000000 0.199056
 17   1.376307 -0.000001 0.000001 0.000000 0.000000 0.199049
 18   4.172846 -0.251366 -1.312744 0.008050 0.095731 0.148659
 19   1.215374 0.000002 0.000000 0.000000 0.000000 0.645758
 20   1.215371 -0.000002 0.000001 0.000000 0.000000 0.645758
 21   4.220534 -0.244854 -0.431465 0.001333 0.026242 0.148339
 22   1.350417 0.000000 0.000001 0.000000 0.000000 0.863926
 23   1.350410 -0.000001 -0.000001 0.000000 0.000000 0.863926
 24   -1.929991 0.749383 -2.735666 1.074557 1.282299 3.799817
 25   4.640942 0.000000 0.000001 0.347909 -0.866004 -0.551510
 26   10.828047 0.000000 0.000001 0.000000 0.000000 -0.696886
 27   9.393339 0.000000 0.000000 1.569611 -0.034192 0.000001
 28   1.442245 0.107455 1.746178 -1.686405 -0.539236 0.325898
 29   1.063450 -0.000001 0.000000 0.000000 0.000000 0.199056
 30   1.376307 0.000000 0.000000 0.000000 0.000000 0.199059
 31   4.172847 -0.251365 1.312745 -0.008050 -0.095731 0.148659
 32   1.215373 -0.000001 0.000000 0.000000 0.000000 0.645746
 33   1.215372 0.000000 0.000000 0.000000 0.000000 0.645746
 34   4.220534 -0.244853 0.431466 -0.001333 -0.026242 0.148339
 35   1.350416 0.000000 -0.000001 0.000000 0.000000 0.863937
 36   1.350410 0.000000 0.000001 0.000000 0.000000 0.863925
 37   2.110540 -0.000001 0.000000 -0.038200 -0.134861 -0.069208
 38   0.891923 2.373051 -0.014527 -3.141592 -0.000001 1.413797
 39   7.228122 5.709445 3.726568 2.524736 -1.570796 0.000000
 40   2.450426 5.076128 0.001325 2.923390 -1.570796 0.000000
 41   6.312404 -4.528058 0.001311 3.140791 -1.570796 0.000000
 42   2.233309 1.152535 -7.309138 -1.226326 -1.675121 -1.303410
 43   4.262825 -0.232720 -1.392178 0.016840 0.076668 0.253759
time 15
  0   1.708652 7.838202 5.439568 0.000000 -1.079969 -1.701715
  1   0.508155 -0.253914 0.000000 -1.570795 -1.570451 0.000000
  2   -0.000007 0.000008 4.427393 -0.268931 -2.868280 -0.644322
  3   18.465939 0.000000 0.000000 0.000000 0.000000 -0.481550
  4   14.875443 0.000000 -0.000001 -0.410898 -0.245144 0.233944
  5   0.000006 -0.000004 -4.427393 0.219495 3.027169 -0.912526
  6   18.465939 0.000000 0.000000 0.000000 0.000000 -0.497055
  7   14.875442 0.000000 0.000000 0.480649 0.495705 -0.083584
  8   2.255207 -0.007574 0.000003 0.118193 -0.105549 -0.118683
  9   9.514219 -0.009357 0.000000 0.000660 0.226581 0.103717
 10   11.751820 -0.001633 0.000000 0.000024 0.043599 0.370857
 11   -2.168279 0.718119 2.559883 -0.814522 -1.209193 3.561521
 12   4.640941 0.000000 -0.000001 -0.885979 0.993317 -0.881107
 13   10.828049 0.000000 0.000000 0.000000 0.000000 -0.631891
 14   9.393337 -0.000001 0.000000 -1.569611 0.034172 0.000037
 15   1.442245 0.107454 -1.746177 1.686435 0.539209 0.325885
 16   1.063452 0.000000 0.000001 0.000000 0.000000 0.199056
 17   1.376307 -0.000001 0.000001 0.000000 0.000000 0.199049
 18   4.172846 -0.251366 -1.312744 0.008050 0.095731 0.148659
 19   1.215374 0.000002 0.000000 0.000000 0.000000 0.645758
 20   1.215371 -0.000002 0.000001 0.000000 0.000000 0.645758
 21   4.220534 -0.244854 -0.431465 0.001333 0.026242 0.148339
 22   1.350417 0.000000 0.000001 0.000000 0.000000 0.863926
 23   1.350410 -0.000001 -0.000001 0.000000 0.000000 0.863926
 24   -1.941710 0.718132 -2.735666 1.071835 1.271085 3.811100
 25   4.640942 0.000000 0.000001 0.353209 -0.821999 -0.568238
 26   10.828047 0.000000 0.000001 0.000000 0.000000 -0.665871
 27   9.393339 0.000000 0.000000 1.569611 -0.034192 0.000001
 28   1.442245 0.107455 1.746178 -1.686405 -0.539236 0.325898
 29   1.063450 -0.000001 0.000000 0.000000 0.000000 0.199056
 30   1.376307 0.000000 0.000000 0.000000 0.000000 0.199059
 31   4.172847 -0.251365 1.312745 -0.008050 -0.095731 0.148659
 32   1.215373 -0.000001 0.000000 0.000000 0.000000 0.645746
 33   1.215372 0.000000 0.000000 0.000000 0.000000 0.645746
 34   4.220534 -0.244853 0.431466 -0.001333 -0.026242 0.148339
 35   1.350416 0.000000 -0.000001 0.000000 0.000000 0.863937
 36   1.350410 0.000000 0.000001 0.000000 0.000000 0.863925
 37   2.110540 -0.000001 0.000000 -0.041920 -0.134079 -0.034202
 38   0.891923 2.373051 -0.014527 -3.141592 -0.000001 1.413797
 39   7.228122 5.709445 3.726568 2.586665 -1.570796 0.000000
 40   2.450426 5.076128 0.001325 3.163874 -1.570796 0.000000
 41   6.312404 -4.528058 0.001311 3.140791 -1.570796 0.000000
 42   2.233309 1.152535 -7.309138 -1.195934 -1.632016 -1.290963
 43   4.262825 -0.232720 -1.392178 0.016840 0.076668 0.253759
time 16
  0   1.708652 8.058424 4.998148 0.000000 -1.266484 -1.701715
  1   1.066766 -0.175787 0.000000 -1.570795 -1.570451 0.000000
  2   -0.000007 0.000008 4.427393 -0.305588 -2.925774 -0.469917
  3   18.465939 0.000000 0.000000 0.000000 0.000000 -0.516129
  4   14.875443 0.000000 -0.000001 -0.279802 -0.038795 0.321405
  5   0.000006 -0.000004 -4.427393 0.225331 3.053733 -0.862738
  6   18.465939 0.000000 0.000000 0.000000 0.000000 -0.556325
  7   14.875442 0.000000 0.000000 0.339106 0.407500 -0.091200
  8   2.255207 -0.007574 0.000003 0.117458 -0.096549 -0.185090
  9   9.514219 -0.009357 0.000000 0.001451 0.226137 0.141472
 10   11.751820 -0.001633 0.000000 0.000024 0.043599 0.393243
 11   -2.152654 0.764995 2.559883 -0.834934 -1.229199 3.562757
 12   4.640941 0.000000 -0.000001 -0.966340 0.918446 -0.941284
 13   10.828049 0.000000 0.000000 0.000000 0.000000 -0.624691
 14   9.393337 -0.000001 0.000000 -1.569611 0.034172 0.000037
 15   1.442245 0.107454 -1.746177 1.686435 0.539209 0.325885
 16   1.063452 0.000000 0.000001 0.000000 0.000000 0.199056
 17   1.376307 -0.000001 0.000001 0.000000 0.000000 0.199049
 18   4.172846 -0.251366 -1.312744 0.008050 0.095731 0.148659
 19   1.215374 0.000002 0.000000 0.000000 0.000000 0.645758
 20   1.215371 -0.000002 0.000001 0.000000 0.000000 0.645758
 21   4.220534 -0.244854 -0.431465 0.001333 0.026242 0.148339
 22   1.350417 0.000000 0.000001 0.000000 0.000000 0.863926
 23   1.350410 -0.000001 -0.000001 0.000000 0.000000 0.863926
 24   -1.926084 0.765008 -2.735666 1.054231 1.267554 3.770303
 25   4.640942 0.000000 0.000001 0.426836 -0.751772 -0.645931
 26   10.828047 0.000000 0.000001 0.000000 0.000000 -0.632474
 27   9.393339 0.000000 0.000000 1.569611 -0.034192 0.000001
 28   1.442245 0.107455 1.746178 -1.686405 -0.539236 0.325898
 29   1.063450 -0.000001 0.000000 0.000000 0.000000 0.199056
 30   1.376307 0.000000 0.000000 0.000000 0.000000 0.199059
 31   4.172847 -0.251365 1.312745 -0.008050 -0.095731 0.148659
 32   1.215373 -0.000001 0.000000 0.000000 0.000000 0.645746
 33   1.215372 0.000000 0.000000 0.000000 0.000000 0.645746
 34   4.220534 -0.244853 0.431466 -0.001333 -0.026242 0.148339
 35   1.350416 0.000000 -0.000001 0.000000 0.000000 0.863937
 36   1.350410 0.000000 0.000001 0.000000 0.000000 0.863925
 37   2.110540 -0.000001 0.000000 -0.043398 -0.130867 0.019037
 38   0.891923 2.373051 -0.014527 -3.141592 -0.000001 1.413797
 39   7.228122 5.709445 3.726568 2.659327 -1.570796 0.000000
 40   2.450426 5.076128 0.001325 3.175547 -1.570796 0.000000
 41   6.312404 -4.528058 0.001311 3.140791 -1.570796 0.000000
 42   2.233309 1.152535 -7.309138 -1.169186 -1.632599 -1.274017
 43   4.262825 -0.232720 -1.392178 0.016840 0.076668 0.253759
time 17
  0   1.708652 8.278645 4.685638 0.000000 -1.395536 -1.701715
  1   1.453497 -0.125004 0.000000 -1.570795 -1.570451 0.000000
  2   -0.000007 0.000008 4.427393 -0.329167 -2.982431 -0.318004
  3   18.465939 0.000000 0.000000 0.000000 0.000000 -0.568255
  4   14.875443 0.000000 -0.000001 -0.187357 0.153506 0.441693
  5   0.000006 -0.000004 -4.427393 0.229924 3.080857 -0.816974
  6   18.465939 0.000000 0.000000 0.000000 0.000000 -0.615267
  7   14.875442 0.000000 0.000000 0.214269 0.306459 -0.083471
  8   2.255207 -0.007574 0.000003 0.117038 -0.091647 -0.221983
  9   9.514219 -0.009357 0.000000 0.000633 0.226197 0.141926
 10   11.751820 -0.001633 0.000000 0.000024 0.043599 0.387660
 11   -2.156560 0.753276 2.559883 -0.841080 -1.253627 3.578078
 12   4.640941 0.000000 -0.000001 -0.990163 0.842129 -0.949304
 13   10.828049 0.000000 0.000000 0.000000 0.000000 -0.624813
 14   9.393337 -0.000001 0.000000 -1.569611 0.034172 0.000037
 15   1.442245 0.107454 -1.746177 1.686435 0.539209 0.325885
 16   1.063452 0.000000 0.000001 0.000000 0.000000 0.199056
 17   1.376307 -0.000001 0.000001 0.000000 0.000000 0.199049
 18   4.172846 -0.251366 -1.312744 0.008050 0.095731 0.148659
 19   1.215374 0.000002 0.000000 0.000000 0.000000 0.645758
 20   1.215371 -0.000002 0.000001 0.000000 0.000000 0.645758
 21   4.220534 -0.244854 -0.431465 0.001333 0.026242 0.148339
 22   1.350417 0.000000 0.000001 0.000000 0.000000 0.863926
 23   1.350410 -0.000001 -0.000001 0.000000 0.000000 0.863926
 24   -1.929991 0.753289 -2.735666 1.024379 1.272393 3.746430
 25   4.640942 0.000000 0.000001 0.477979 -0.668294 -0.686318
 26   10.828047 0.000000 0.000001 0.000000 0.000000 -0.595417
 27   9.393339 0.000000 0.000000 1.569611 -0.034192 0.000001
 28   1.442245 0.107455 1.746178 -1.686405 -0.539236 0.325898
 29   1.063450 -0.000001 0.000000 0.000000 0.000000 0.199056
 30   1.376307 0.000000 0.000000 0.000000 0.000000 0.199059
 31   4.172847 -0.251365 1.312745 -0.008050 -0.095731 0.148659
 32   1.215373 -0.000001 0.000000 0.000000 0.000000 0.645746
 33   1.215372 0.000000 0.000000 0.000000 0.000000 0.645746
 34   4.220534 -0.244853 0.431466 -0.001333 -0.026242 0.148339
 35   1.350416 0.000000 -0.000001 0.000000 0.000000 0.863937
 36   1.350410 0.000000 0.000001 0.000000 0.000000 0.863925
 37   2.110540 -0.000001 0.000000 -0.042969 -0.128632 0.048624
 38   0.891923 2.373051 -0.014527 -3.141592 -0.000001 1.413797
 39   7.228122 5.709445 3.726568 2.739303 -1.570796 0.000000
 40   2.450426 5.076128 0.001325 3.183534 -1.570796 0.000000
 41   6.312404 -4.528058 0.001311 3.140791 -1.570796 0.000000
 42   2.233309 1.152535 -7.309138 -1.065164 -1.589552 -1.344099
 43   4.262825 -0.232720 -1.392178 0.016840 0.076668 0.253759
time 18
  0   1.708652 8.526394 4.564541 0.000000 -1.468275 -1.701715
  1   1.473028 -0.132817 0.000000 -1.570795 -1.570451 0.000000
  2   -0.000007 0.000008 4.427393 -0.332317 -3.000572 -0.307581
  3   18.465939 0.000000 0.000000 0.000000 0.000000 -0.748684
  4   14.875443 0.000000 -0.000001 -0.187443 0.167383 0.637749
  5   0.000006 -0.000004 -4.427393 0.233176 3.107887 -0.772989
  6   18.465939 0.000000 0.000000 0.000000 0.000000 -0.670467
  7   14.875442 0.000000 0.000000 0.106979 0.199199 -0.062536
  8   2.255207 -0.007574 0.000003 0.119475 -0.097711 -0.180557
  9   9.514219 -0.009357 0.000000 -0.004908 0.227348 0.025502
 10   11.751820 -0.001633 0.000000 0.000024 0.043599 0.290010
 11   -2.219062 0.550145 2.555976 -0.539601 -1.340445 3.383310
 12   4.640941 0.000000 -0.000001 -0.558200 0.649338 -0.538075
 13   10.828049 0.000000 0.000000 0.000000 0.000000 -0.748302
 14   9.393337 -0.000001 0.000000 -1.569611 0.034172 0.000037
 15   1.442245 0.107454 -1.746177 1.686435 0.539209 0.325885
 16   1.063452 0.000000 0.000001 0.000000 0.000000 0.199056
 17   1.376307 -0.000001 0.000001 0.000000 0.000000 0.199049
 18   4.172846 -0.251366 -1.312744 0.008050 0.095731 0.148659
 19   1.215374 0.000002 0.000000 0.000000 0.000000 0.645758
 20   1.215371 -0.000002 0.000001 0.000000 0.000000 0.645758
 21   4.220534 -0.244854 -0.431465 0.001333 0.026242 0.148339
 22   1.350417 0.000000 0.000001 0.000000 0.000000 0.863926
 23   1.350410 -0.000001 -0.000001 0.000000 0.000000 0.863926
 24   -1.992493 0.550158 -2.735666 0.518081 1.399071 3.358690
 25   4.640942 0.000000 0.000001 0.466402 -0.380620 -0.423562
 26   10.828047 0.000000 0.000001 0.000000 0.000000 -0.506146
 27   9.393339 0.000000 0.000000 1.569611 -0.034192 0.000001
 28   1.442245 0.107455 1.746178 -1.686405 -0.539236 0.325898
 29   1.063450 -0.000001 0.000000 0.000000 0.000000 0.199056
 30   1.376307 0.000000 0.000000 0.000000 0.000000 0.199059
 31   4.172847 -0.251365 1.312745 -0.008050 -0.095731 0.148659
 32   1.215373 -0.000001 0.000000 0.000000 0.000000 0.645746
 33   1.215372 0.000000 0.000000 0.000000 0.000000 0.645746
 34   4.220534 -0.244853 0.431466 -0.001333 -0.026242 0.148339
 35   1.350416 0.000000 -0.000001 0.000000 0.000000 0.863937
 36   1.350410 0.000000 0.000001 0.000000 0.000000 0.863925
 37   2.110540 -0.000001 0.000000 -0.035053 -0.131090 -0.018849
 38   0.891923 2.373051 -0.014527 -3.141592 -0.000001 1.413797
 39   7.228122 5.709445 3.726568 2.822793 -1.570796 0.000000
 40   2.450426 5.076128 0.001325 3.188273 -1.570796 0.000000
 41   6.312404 -4.528058 0.001311 3.140791 -1.570796 0.000000
 42   2.233309 1.152535 -7.309138 -1.581246 -1.563253 -0.785071
 43   4.262825 -0.232720 -1.392178 0.016840 0.076668 0.253759
time 19
  0   1.708652 8.746614 4.560635 0.000000 -1.505923 -1.701715
  1   1.394901 -0.148442 0.000000 -1.570795 -1.570451 0.000000
  2   -0.000007 0.000008 4.427393 -0.331172 -2.998619 -0.340347
  3   18.465939 0.000000 0.000000 0.000000 0.000000 -0.878742
  4   14.875443 0.000000 -0.000001 -0.185052 0.176472 0.736902
  5   0.000006 -0.000004 -4.427393 0.235281 3.134544 -0.728254
  6   18.465939 0.000000 0.000000 0.000000 0.000000 -0.718316
  7   14.875442 0.000000 0.000000 0.016852 0.092320 -0.031809
  8   2.255207 -0.007574 0.000003 0.120735 -0.106316 -0.118749
  9   9.514219 -0.009357 0.000000 -0.012468 0.227911 -0.121988
 10   11.751820 -0.001633 0.000000 0.000024 0.043611 0.178348
 11   -2.265939 0.315763 2.555976 -0.168993 -1.397331 3.130077
 12   4.640941 0.000000 -0.000001 -0.075939 0.592375 -0.102261
 13   10.828049 0.000000 0.000000 0.000000 0.000000 -0.688754
 14   9.393337 -0.000001 0.000000 -1.569611 0.034172 0.000037
 15   1.442245 0.107454 -1.746177 1.686435 0.539209 0.325885
 16   1.063452 0.000000 0.000001 0.000000 0.000000 0.199056
 17   1.376307 -0.000001 0.000001 0.000000 0.000000 0.199049
 18   4.172846 -0.251366 -1.312744 0.008050 0.095731 0.148659
 19   1.215374 0.000002 0.000000 0.000000 0.000000 0.645758
 20   1.215371 -0.000002 0.000001 0.000000 0.000000 0.645758
 21   4.220534 -0.244854 -0.431465 0.001333 0.026242 0.148339
 22   1.350417 0.000000 0.000001 0.000000 0.000000 0.863926
 23   1.350410 -0.000001 -0.000001 0.000000 0.000000 0.863926
 24   -2.039369 0.315776 -2.739573 0.632089 1.402788 3.583312
 25   4.640942 0.000000 0.000001 0.279067 -0.463819 -0.156046
 26   10.828047 0.000000 0.000001 0.000000 0.000000 -0.548778
 27   9.393339 0.000000 0.000000 1.569611 -0.034192 0.000001
 28   1.442245 0.107455 1.746178 -1.686405 -0.539236 0.325898
 29   1.063450 -0.000001 0.000000 0.000000 0.000000 0.199056
 30   1.376307 0.000000 0.000000 0.000000 0.000000 0.199059
 31   4.172847 -0.251365 1.312745 -0.008050 -0.095731 0.148659
 32   1.215373 -0.000001 0.000000 0.000000 0.000000 0.645746
 33   1.215372 0.000000 0.000000 0.000000 0.000000 0.645746
 34   4.220534 -0.244853 0.431466 -0.001333 -0.026242 0.148339
 35   1.350416 0.000000 -0.000001 0.000000 0.000000 0.863937
 36   1.350410 0.000000 0.000001 0.000000 0.000000 0.863925
 37   2.110540 -0.000001 0.000000 -0.032859 -0.136174 -0.050157
 38   0.891923 2.373051 -0.014527 -3.141592 -0.000001 1.413797
 39   7.228122 5.709445 3.726568 2.906188 -1.570796 0.000000
 40   2.450426 5.076128 0.001325 3.190292 -1.570796 0.000000
 41   6.312404 -4.528058 0.001311 3.140791 -1.570796 0.000000
 42   2.233309 1.152535 -7.309138 -1.316446 -1.546651 -1.015614
 43   4.262825 -0.232720 -1.392178 0.016840 0.076668 0.253759
time 20
  0   1.708652 8.939308 4.521571 0.000000 -1.516534 -1.701715
  1   1.777725 -0.082034 0.000000 -1.570795 -1.570451 0.000000
  2   -0.000007 0.000008 4.427393 -0.343296 -2.986338 -0.234417
  3   18.465939 0.000000 0.000000 0.000000 0.000000 -0.632297
  4   14.875443 0.000000 -0.000001 -0.203752 0.096401 0.413092
  5   0.000006 -0.000004 -4.427393 0.236142 3.160550 -0.680525
  6   18.465939 0.000000 0.000000 0.000000 0.000000 -0.755335
  7   14.875442 0.000000 0.000000 -0.056709 -0.007999 0.004995
  8   2.255207 -0.007574 0.000003 0.116450 -0.109288 -0.112827
  9   9.514219 -0.009357 0.000000 -0.022271 0.237295 -0.239712
 10   11.751820 -0.001633 0.000000 0.000024 0.043611 0.178348
 11   -2.265939 0.315763 2.555976 0.240466 -1.419437 2.722884
 12   4.640941 0.000000 -0.000001 0.346593 0.475902 0.235795
 13   10.828049 0.000000 0.000000 0.000000 0.000000 -0.534759
 14   9.393337 -0.000001 0.000000 -1.569611 0.034172 0.000037
 15   1.442245 0.107454 -1.746177 1.686435 0.539209 0.325885
 16   1.063452 0.000000 0.000001 0.000000 0.000000 0.199056
 17   1.376307 -0.000001 0.000001 0.000000 0.000000 0.199049
 18   4.172846 -0.251366 -1.312744 0.008050 0.095731 0.148659
 19   1.215374 0.000002 0.000000 0.000000 0.000000 0.645758
 20   1.215371 -0.000002 0.000001 0.000000 0.000000 0.645758
 21   4.220534 -0.244854 -0.431465 0.001333 0.026242 0.148339
 22   1.350417 0.000000 0.000001 0.000000 0.000000 0.863926
 23   1.350410 -0.000001 -0.000001 0.000000 0.000000 0.863926
 24   -2.039369 0.315776 -2.739573 0.791709 1.410119 3.742578
 25   4.640942 0.000000 0.000001 -0.000829 -0.507475 0.188043
 26   10.828047 0.000000 0.000001 0.000000 0.000000 -0.538672
 27   9.393339 0.000000 0.000000 1.569611 -0.034192 0.000001
 28   1.442245 0.107455 1.746178 -1.686405 -0.539236 0.325898
 29   1.063450 -0.000001 0.000000 0.000000 0.000000 0.199056
 30   1.376307 0.000000 0.000000 0.000000 0.000000 0.199059
 31   4.172847 -0.251365 1.312745 -0.008050 -0.095731 0.148659
 32   1.215373 -0.000001 0.000000 0.000000 0.000000 0.645746
 33   1.215372 0.000000 0.000000 0.000000 0.000000 0.645746
 34   4.220534 -0.244853 0.431466 -0.001333 -0.026242 0.148339
 35   1.350416 0.000000 -0.000001 0.000000 0.000000 0.863937
 36   1.350410 0.000000 0.000001 0.000000 0.000000 0.863925
 37   2.110540 -0.000001 0.000000 -0.083363 -0.126258 0.294868
 38   0.891923 2.373051 -0.014527 -3.141592 -0.000001 1.413797
 39   7.228122 5.709445 3.726568 2.985879 -1.570796 0.000000
 40   2.450426 5.076128 0.001325 3.189765 -1.570796 0.000000
 41   6.312404 -4.528058 0.001311 3.140791 -1.570796 0.000000
 42   2.233309 1.152535 -7.309138 -1.218656 -1.503576 -1.088568
 43   4.262825 -0.232720 -1.392178 0.016840 0.076668 0.253759
time 21
  0   1.708652 9.132002 4.486413 0.000000 -1.508160 -1.701715
  1   2.058984 -0.039064 0.000000 -1.570795 -1.570451 0.000000
  2   -0.000007 0.000008 4.427393 -0.356278 -2.976291 -0.128089
  3   18.465939 0.000000 0.000000 0.000000 0.000000 -0.366332
  4   14.875443 0.000000 -0.000001 -0.205715 0.015734 0.071743
  5   0.000006 -0.000004 -4.427393 0.235473 3.185250 -0.627461
  6   18.465939 0.000000 0.000000 0.000000 0.000000 -0.778045
  7   14.875442 0.000000 0.000000 -0.113846 -0.096051 0.044351
  8   2.255207 -0.007574 0.000003 0.112334 -0.103632 -0.117658
  9   9.514219 -0.009357 0.000000 -0.025821 0.226473 -0.298725
 10   11.751820 -0.001633 0.000000 0.000024 0.043611 0.178348
 11   -2.265939 0.315763 2.555976 0.227566 -1.410961 2.735937
 12   4.640941 0.000000 -0.000001 0.362557 0.504280 0.190955
 13   10.828049 0.000000 0.000000 0.000000 0.000000 -0.091627
 14   9.393337 -0.000001 0.000000 -1.569611 0.034172 0.000037
 15   1.442245 0.107454 -1.746177 1.686435 0.539209 0.325885
 16   1.063452 0.000000 0.000001 0.000000 0.000000 0.199056
 17   1.376307 -0.000001 0.000001 0.000000 0.000000 0.199049
 18   4.172846 -0.251366 -1.312744 0.008050 0.095731 0.148659
 19   1.215374 0.000002 0.000000 0.000000 0.000000 0.645758
 20   1.215371 -0.000002 0.000001 0.000000 0.000000 0.645758
 21   4.220534 -0.244854 -0.431465 0.001333 0.026242 0.148339
 22   1.350417 0.000000 0.000001 0.000000 0.000000 0.863926
 23   1.350410 -0.000001 -0.000001 0.000000 0.000000 0.863926
 24   -2.039369 0.315776 -2.739573 -0.525816 1.520121 2.438185
 25   4.640942 0.000000 0.000001 -0.136763 -0.424556 0.557469
 26   10.828047 0.000000 0.000001 0.000000 0.000000 -0.132681
 27   9.393339 0.000000 0.000000 1.569611 -0.034192 0.000001
 28   1.442245 0.107455 1.746178 -1.686405 -0.539236 0.325898
 29   1.063450 -0.000001 0.000000 0.000000 0.000000 0.199056
 30   1.376307 0.000000 0.000000 0.000000 0.000000 0.199059
 31   4.172847 -0.251365 1.312745 -0.008050 -0.095731 0.148659
 32   1.215373 -0.000001 0.000000 0.000000 0.000000 0.645746
 33   1.215372 0.000000 0.000000 0.000000 0.000000 0.645746
 34   4.220534 -0.244853 0.431466 -0.001333 -0.026242 0.148339
 35   1.350416 0.000000 -0.000001 0.000000 0.000000 0.863937
 36   1.350410 0.000000 0.000001 0.000000 0.000000 0.863925
 37   2.110540 -0.000001 0.000000 -0.107638 -0.100308 0.537283
 38   0.891923 2.373051 -0.014527 -3.141592 -0.000001 1.413797
 39   7.228122 5.709445 3.726568 3.058351 -1.570796 0.000000
 40   2.450426 5.076128 0.001325 3.187308 -1.570796 0.000000
 41   6.312404 -4.528058 0.001311 3.140791 -1.570796 0.000000
 42   2.233309 1.152535 -7.309138 -1.213767 -1.486916 -1.033326
 43   4.262825 -0.232720 -1.392178 0.016840 0.076668 0.253759
time 22
  0   1.708652 9.407278 4.439537 0.000000 -1.489049 -1.701715
  1   1.914448 -0.070315 0.000000 -1.570795 -1.570451 0.000000
  2   -0.000007 0.000008 4.427393 -0.351792 -2.979175 -0.160356
  3   18.465939 0.000000 0.000000 0.000000 0.000000 -0.379565
  4   14.875443 0.000000 -0.000001 -0.209159 0.029122 0.055981
  5   0.000006 -0.000004 -4.427393 0.233081 3.207900 -0.567566
  6   18.465939 0.000000 0.000000 0.000000 0.000000 -0.765771
  7   14.875442 0.000000 0.000000 -0.140309 -0.144679 0.066974
  8   2.255207 -0.007574 0.000003 0.112145 -0.084373 -0.111437
  9   9.514219 -0.009357 0.000000 -0.015688 0.171835 -0.266816
 10   11.751820 -0.001633 0.000000 0.000024 0.043611 0.105687
 11   -2.285470 0.159508 2.555976 0.260423 -1.420471 2.775716
 12   4.640941 0.000000 -0.000001 0.339716 0.494361 0.206467
 13   10.828049 0.000000 0.000000 0.000000 0.000000 -0.163683
 14   9.393337 -0.000001 0.000000 -1.569611 0.034172 0.000037
 15   1.442245 0.107454 -1.746177 1.686435 0.539209 0.325885
 16   1.063452 0.000000 0.000001 0.000000 0.000000 0.199056
 17   1.376307 -0.000001 0.000001 0.000000 0.000000 0.199049
 18   4.172846 -0.251366 -1.312744 0.008050 0.095731 0.148659
 19   1.215374 0.000002 0.000000 0.000000 0.000000 0.645758
 20   1.215371 -0.000002 0.000001 0.000000 0.000000 0.645758
 21   4.220534 -0.244854 -0.431465 0.001333 0.026242 0.148339
 22   1.350417 0.000000 0.000001 0.000000 0.000000 0.863926
 23   1.350410 -0.000001 -0.000001 0.000000 0.000000 0.863926
 24   -2.058901 0.159521 -2.739573 0.518651 1.454332 3.548226
 25   4.640942 0.000000 0.000001 -0.114073 -0.525538 0.436520
 26   10.828047 0.000000 0.000001 0.000000 0.000000 -0.137792
 27   9.393339 0.000000 0.000000 1.569611 -0.034192 0.000001
 28   1.442245 0.107455 1.746178 -1.686405 -0.539236 0.325898
 29   1.063450 -0.000001 0.000000 0.000000 0.000000 0.199056
 30   1.376307 0.000000 0.000000 0.000000 0.000000 0.199059
 31   4.172847 -0.251365 1.312745 -0.008050 -0.095731 0.148659
 32   1.215373 -0.000001 0.000000 0.000000 0.000000 0.645746
 33   1.215372 0.000000 0.000000 0.000000 0.000000 0.645746
 34   4.220534 -0.244853 0.431466 -0.001333 -0.026242 0.148339
 35   1.350416 0.000000 -0.000001 0.000000 0.000000 0.863937
 36   1.350410 0.000000 0.000001 0.000000 0.000000 0.863925
 37   2.110540 -0.000001 0.000000 -0.074493 -0.082878 0.450157
 38   0.891923 2.373051 -0.014527 -3.141592 -0.000001 1.413797
 39   7.228122 5.709445 3.726568 3.119900 -1.570796 0.000000
 40   2.450426 5.076128 0.001325 3.183183 -1.570796 0.000000
 41   6.312404 -4.528058 0.001311 3.140791 -1.570796 0.000000
 42   2.233309 1.152535 -7.309138 -1.204755 -1.461345 -0.999913
 43   4.262825 -0.232720 -1.392178 0.016840 0.076668 0.253759
time 23
  0   1.708652 9.655027 4.404380 0.000000 -1.467188 -1.701715
  1   1.637096 -0.132817 0.000000 -1.570795 -1.570451 0.000000
  2   -0.000007 0.000008 4.427393 -0.346828 -2.988571 -0.194719
  3   18.465939 0.000000 0.000000 0.000000 0.000000 -0.374082
  4   14.875443 0.000000 -0.000001 -0.215478 0.048554 0.021574
  5   0.000006 -0.000004 -4.427393 0.228967 3.227753 -0.501307
  6   18.465939 0.000000 0.000000 0.000000 0.000000 -0.712999
  7   14.875442 0.000000 0.000000 -0.136483 -0.145801 0.071927
  8   2.255207 -0.007574 0.000003 0.113216 -0.059648 -0.103430
  9   9.514219 -0.009357 0.000000 -0.005040 0.100299 -0.203927
 10   11.751820 -0.001633 0.000000 0.000024 0.043611 0.034422
 11   -2.289377 0.003253 2.555976 0.295480 -1.425576 2.811990
 12   4.640941 0.000000 -0.000001 0.283081 0.464744 0.212614
 13   10.828049 0.000000 0.000000 0.000000 0.000000 -0.283816
 14   9.393337 -0.000001 0.000000 -1.569611 0.034172 0.000037
 15   1.442245 0.107454 -1.746177 1.686435 0.539209 0.325885
 16   1.063452 0.000000 0.000001 0.000000 0.000000 0.199056
 17   1.376307 -0.000001 0.000001 0.000000 0.000000 0.199049
 18   4.172846 -0.251366 -1.312744 0.008050 0.095731 0.148659
 19   1.215374 0.000002 0.000000 0.000000 0.000000 0.645758
 20   1.215371 -0.000002 0.000001 0.000000 0.000000 0.645758
 21   4.220534 -0.244854 -0.431465 0.001333 0.026242 0.148339
 22   1.350417 0.000000 0.000001 0.000000 0.000000 0.863926
 23   1.350410 -0.000001 -0.000001 0.000000 0.000000 0.863926
 24   -2.062807 0.003266 -2.739573 0.759004 1.357122 3.847424
 25   4.640942 0.000000 0.000001 -0.064474 -0.643048 0.274625
 26   10.828047 0.000000 0.000001 0.000000 0.000000 -0.206154
 27   9.393339 0.000000 0.000000 1.569611 -0.034192 0.000001
 28   1.442245 0.107455 1.746178 -1.686405 -0.539236 0.325898
 29   1.063450 -0.000001 0.000000 0.000000 0.000000 0.199056
 30   1.376307 0.000000 0.000000 0.000000 0.000000 0.199059
 31   4.172847 -0.251365 1.312745 -0.008050 -0.095731 0.148659
 32   1.215373 -0.000001 0.000000 0.000000 0.000000 0.645746
 33   1.215372 0.000000 0.000000 0.000000 0.000000 0.645746
 34   4.220534 -0.244853 0.431466 -0.001333 -0.026242 0.148339
 35   1.350416 0.000000 -0.000001 0.000000 0.000000 0.863937
 36   1.350410 0.000000 0.000001 0.000000 0.000000 0.863925
 37   2.110540 -0.000001 0.000000 -0.036865 -0.053827 0.212385
 38   0.891923 2.373051 -0.014527 -3.141592 -0.000001 1.413797
 39   7.228122 5.709445 3.726568 3.166726 -1.570796 0.000000
 40   2.450426 5.076128 0.001325 3.177917 -1.570796 0.000000
 41   6.312404 -4.528058 0.001311 3.140791 -1.570796 0.000000
 42   2.233309 1.152535 -7.309138 -1.207631 -1.435861 -0.937681
 43   4.262825 -0.232720 -1.392178 0.016840 0.076668 0.253759
time 24
  0   1.708652 9.957831 4.349690 0.000000 -1.450761 -1.701715
  1   1.320680 -0.191412 0.000000 -1.570795 -1.570451 0.000000
  2   -0.000007 0.000008 4.427393 -0.342150 -2.995642 -0.229181
  3   18.465939 0.000000 0.000000 0.000000 0.000000 -0.366332
  4   14.875443 0.000000 -0.000001 -0.221597 0.065624 -0.016152
  5   0.000006 -0.000004 -4.427393 0.223705 3.244997 -0.428777
  6   18.465939 0.000000 0.000000 0.000000 0.000000 -0.639355
  7   14.875442 0.000000 0.000000 -0.121918 -0.124121 0.085696
  8   2.255207 -0.007574 0.000003 0.114707 -0.036182 -0.095820
  9   9.514219 -0.009357 0.000000 0.000831 0.031627 -0.135302
 10   11.751820 -0.001633 0.000000 0.000024 0.043611 -0.023959
 11   -2.285470 -0.125657 2.555976 0.311416 -1.417577 2.854653
 12   4.640941 0.000000 -0.000001 0.202229 0.422590 0.189667
 13   10.828049 0.000000 0.000000 0.000000 0.000000 -0.289856
 14   9.393337 -0.000001 0.000000 -1.569611 0.034172 0.000037
 15   1.442245 0.107454 -1.746177 1.686435 0.539209 0.325885
 16   1.063452 0.000000 0.000001 0.000000 0.000000 0.199056
 17   1.376307 -0.000001 0.000001 0.000000 0.000000 0.199049
 18   4.172846 -0.251366 -1.312744 0.008050 0.095731 0.148659
 19   1.215374 0.000002 0.000000 0.000000 0.000000 0.645758
 20   1.215371 -0.000002 0.000001 0.000000 0.000000 0.645758
 21   4.220534 -0.244854 -0.431465 0.001333 0.026242 0.148339
 22   1.350417 0.000000 0.000001 0.000000 0.000000 0.863926
 23   1.350410 -0.000001 -0.000001 0.000000 0.000000 0.863926
 24   -2.058901 -0.125644 -2.739573 0.799655 1.340259 3.943809
 25   4.640942 0.000000 0.000001 -0.026812 -0.717321 0.237459
 26   10.828047 0.000000 0.000001 0.000000 0.000000 -0.220152
 27   9.393339 0.000000 0.000000 1.569611 -0.034192 0.000001
 28   1.442245 0.107455 1.746178 -1.686405 -0.539236 0.325898
 29   1.063450 -0.000001 0.000000 0.000000 0.000000 0.199056
 30   1.376307 0.000000 0.000000 0.000000 0.000000 0.199059
 31   4.172847 -0.251365 1.312745 -0.008050 -0.095731 0.148659
 32   1.215373 -0.000001 0.000000 0.000000 0.000000 0.645746
 33   1.215372 0.000000 0.000000 0.000000 0.000000 0.645746
 34   4.220534 -0.244853 0.431466 -0.001333 -0.026242 0.148339
 35   1.350416 0.000000 -0.000001 0.000000 0.000000 0.863937
 36   1.350410 0.000000 0.000001 0.000000 0.000000 0.863925
 37   2.110540 -0.000001 0.000000 0.004531 -0.015335 0.026477
 38   0.891923 2.373051 -0.014527 -3.141592 -0.000001 1.413797
 39   7.228122 5.709445 3.726568 3.194082 -1.570796 0.000000
 40   2.450426 5.076128 0.001325 3.171773 -1.570796 0.000000
 41   6.312404 -4.528058 0.001311 3.140791 -1.570796 0.000000
 42   2.233309 1.152535 -7.309138 -1.224121 -1.418910 -0.861759
 43   4.262825 -0.232720 -1.392178 0.016840 0.076668 0.253759
time 25
  0   1.708652 10.233108 4.240312 0.000000 -1.447885 -1.701715
  1   1.086298 -0.234382 0.000000 -1.570795 -1.570451 0.000000
  2   -0.000007 0.000008 4.427393 -0.337091 -2.984013 -0.262446
  3   18.465939 0.000000 0.000000 0.000000 0.000000 -0.366332
  4   14.875443 0.000000 -0.000001 -0.221597 0.065624 -0.051034
  5   0.000006 -0.000004 -4.427393 0.217773 3.259537 -0.350071
  6   18.465939 0.000000 0.000000 0.000000 0.000000 -0.564333
  7   14.875442 0.000000 0.000000 -0.114337 -0.104799 0.134431
  8   2.255207 -0.007574 0.000003 0.115589 -0.020674 -0.090790
  9   9.514219 -0.009357 0.000000 0.002401 -0.013782 -0.085056
 10   11.751820 -0.001633 0.000000 0.000024 0.043611 -0.065886
 11   -2.277658 -0.215503 2.555976 0.319611 -1.408019 2.888798
 12   4.640941 0.000000 -0.000001 0.144955 0.389322 0.177433
 13   10.828049 0.000000 0.000000 0.000000 0.000000 -0.285158
 14   9.393337 -0.000001 0.000000 -1.569611 0.034172 0.000037
 15   1.442245 0.107454 -1.746177 1.686435 0.539209 0.325885
 16   1.063452 0.000000 0.000001 0.000000 0.000000 0.199056
 17   1.376307 -0.000001 0.000001 0.000000 0.000000 0.199049
 18   4.172846 -0.251366 -1.312744 0.008050 0.095731 0.148659
 19   1.215374 0.000002 0.000000 0.000000 0.000000 0.645758
 20   1.215371 -0.000002 0.000001 0.000000 0.000000 0.645758
 21   4.220534 -0.244854 -0.431465 0.001333 0.026242 0.148339
 22   1.350417 0.000000 0.000001 0.000000 0.000000 0.863926
 23   1.350410 -0.000001 -0.000001 0.000000 0.000000 0.863926
 24   -2.051088 -0.215490 -2.739573 0.827663 1.333427 4.012537
 25   4.640942 0.000000 0.000001 -0.006385 -0.765510 0.228079
 26   10.828047 0.000000 0.000001 0.000000 0.000000 -0.231420
 27   9.393339 0.000000 0.000000 1.569611 -0.034192 0.000001
 28   1.442245 0.107455 1.746178 -1.686405 -0.539236 0.325898
 29   1.063450 -0.000001 0.000000 0.000000 0.000000 0.199056
 30   1.376307 0.000000 0.000000 0.000000 0.000000 0.199059
 31   4.172847 -0.251365 1.312745 -0.008050 -0.095731 0.148659
 32   1.215373 -0.000001 0.000000 0.000000 0.000000 0.645746
 33   1.215372 0.000000 0.000000 0.000000 0.000000 0.645746
 34   4.220534 -0.244853 0.431466 -0.001333 -0.026242 0.148339
 35   1.350416 0.000000 -0.000001 0.000000 0.000000 0.863937
 36   1.350410 0.000000 0.000001 0.000000 0.000000 0.863925
 37   2.110540 -0.000001 0.000000 -0.025562 0.011760 -0.093978
 38   0.891923 2.373051 -0.014527 -3.141592 -0.000001 1.413797
 39   7.228122 5.709445 3.726568 3.202440 -1.570796 0.000000
 40   2.450426 5.076128 0.001325 3.165278 -1.570796 0.000000
 41   6.312404 -4.528058 0.001311 3.140791 -1.570796 0.000000
 42   2.233309 1.152535 -7.309138 -1.250582 -1.401639 -0.776167
 43   4.262825 -0.232720 -1.392178 0.016840 0.076668 0.253759
time 26
  0   1.708652 10.233108 4.361410 0.000000 -1.447885 -1.701715
  1   0.965200 -0.253914 0.000000 -1.570795 -1.570451 0.000000
  2   -0.000007 0.000008 4.427393 -0.393604 -2.949404 -0.204344
  3   18.465939 0.000000 0.000000 0.000000 0.000000 -0.291763
  4   14.875443 0.000000 -0.000001 -0.202129 0.034805 -0.081372
  5   0.000006 -0.000004 -4.427393 0.215764 3.254504 -0.220079
  6   18.465939 0.000000 0.000000 0.000000 0.000000 -0.431747
  7   14.875442 0.000000 0.000000 -0.106932 -0.041432 0.415738
  8   2.255207 -0.007574 0.000003 0.115568 -0.014658 -0.088838
  9   9.514219 -0.009357 0.000000 0.002876 -0.031160 -0.057714
 10   11.751820 -0.001633 0.000000 0.000024 0.043611 -0.086447
 11   -2.273751 -0.258473 2.555976 0.320294 -1.397395 2.909133
 12   4.640941 0.000000 -0.000001 0.116121 0.368658 0.178194
 13   10.828049 0.000000 0.000000 0.000000 0.000000 -0.272651
 14   9.393337 -0.000001 0.000000 -1.569611 0.034172 0.000037
 15   1.442245 0.107454 -1.746177 1.686435 0.539209 0.325885
 16   1.063452 0.000000 0.000001 0.000000 0.000000 0.199056
 17   1.376307 -0.000001 0.000001 0.000000 0.000000 0.199049
 18   4.172846 -0.251366 -1.312744 0.008050 0.095731 0.148659
 19   1.215374 0.000002 0.000000 0.000000 0.000000 0.645758
 20   1.215371 -0.000002 0.000001 0.000000 0.000000 0.645758
 21   4.220534 -0.244854 -0.431465 0.001333 0.026242 0.148339
 22   1.350417 0.000000 0.000001 0.000000 0.000000 0.863926
 23   1.350410 -0.000001 -0.000001 0.000000 0.000000 0.863926
 24   -2.047182 -0.258460 -2.739573 0.848384 1.334320 4.053953
 25   4.640942 0.000000 0.000001 -0.010913 -0.784549 0.250337
 26   10.828047 0.000000 0.000001 0.000000 0.000000 -0.240713
 27   9.393339 0.000000 0.000000 1.569611 -0.034192 0.000001
 28   1.442245 0.107455 1.746178 -1.686405 -0.539236 0.325898
 29   1.063450 -0.000001 0.000000 0.000000 0.000000 0.199056
 30   1.376307 0.000000 0.000000 0.000000 0.000000 0.199059
 31   4.172847 -0.251365 1.312745 -0.008050 -0.095731 0.148659
 32   1.215373 -0.000001 0.000000 0.000000 0.000000 0.645746
 33   1.215372 0.000000 0.000000 0.000000 0.000000 0.645746
 34   4.220534 -0.244853 0.431466 -0.001333 -0.026242 0.148339
 35   1.350416 0.000000 -0.000001 0.000000 0.000000 0.863937
 36   1.350410 0.000000 0.000001 0.000000 0.000000 0.863925
 37   2.110540 -0.000001 0.000000 -0.156807 0.014777 -0.138273
 38   0.891923 2.373051 -0.014527 -3.141592 -0.000001 1.413797
 39   7.228122 5.709445 3.726568 3.196931 -1.570796 0.000000
 40   2.450426 5.076128 0.001325 3.158783 -1.570796 0.000000
 41   6.312404 -4.528058 0.001311 3.140791 -1.570796 0.000000
 42   2.233309 1.152535 -7.309138 -1.371573 -1.417279 -0.543231
 43   4.262825 -0.232720 -1.392178 0.016840 0.076668 0.253759
time 27
  0   1.708652 10.233108 4.439537 0.000000 -1.447885 -1.701715
  1   0.887073 -0.261727 0.000000 -1.570795 -1.570451 0.000000
  2   -0.000007 0.000008 4.427393 -0.454604 -2.913215 -0.170730
  3   18.465939 0.000000 0.000000 0.000000 0.000000 -0.219094
  4   14.875443 0.000000 -0.000001 -0.184454 0.010584 -0.137467
  5   0.000006 -0.000004 -4.427393 0.238726 3.222254 -0.244224
  6   18.465939 0.000000 0.000000 0.000000 0.000000 -0.391512
  7   14.875442 0.000000 0.000000 -0.063658 -0.022757 0.221134
  8   2.255207 -0.007574 0.000003 0.115148 -0.013759 -0.088607
  9   9.514219 -0.009357 0.000000 0.003430 -0.033509 -0.039075
 10   11.751820 -0.001633 0.000000 0.000024 0.043611 -0.101236
 11   -2.269845 -0.289724 2.555976 0.318700 -1.385992 2.925896
 12   4.640941 0.000000 -0.000001 0.098291 0.355227 0.183638
 13   10.828049 0.000000 0.000000 0.000000 0.000000 -0.255262
 14   9.393337 -0.000001 0.000000 -1.569611 0.034172 0.000037
 15   1.442245 0.107454 -1.746177 1.686435 0.539209 0.325885
 16   1.063452 0.000000 0.000001 0.000000 0.000000 0.199056
 17   1.376307 -0.000001 0.000001 0.000000 0.000000 0.199049
 18   4.172846 -0.251366 -1.312744 0.008050 0.095731 0.148659
 19   1.215374 0.000002 0.000000 0.000000 0.000000 0.645758
 20   1.215371 -0.000002 0.000001 0.000000 0.000000 0.645758
 21   4.220534 -0.244854 -0.431465 0.001333 0.026242 0.148339
 22   1.350417 0.000000 0.000001 0.000000 0.000000 0.863926
 23   1.350410 -0.000001 -0.000001 0.000000 0.000000 0.863926
 24   -2.043275 -0.289711 -2.739573 0.866954 1.339802 4.088077
 25   4.640942 0.000000 0.000001 -0.025217 -0.788803 0.287504
 26   10.828047 0.000000 0.000001 0.000000 0.000000 -0.248786
 27   9.393339 0.000000 0.000000 1.569611 -0.034192 0.000001
 28   1.442245 0.107455 1.746178 -1.686405 -0.539236 0.325898
 29   1.063450 -0.000001 0.000000 0.000000 0.000000 0.199056
 30   1.376307 0.000000 0.000000 0.000000 0.000000 0.199059
 31   4.172847 -0.251365 1.312745 -0.008050 -0.095731 0.148659
 32   1.215373 -0.000001 0.000000 0.000000 0.000000 0.645746
 33   1.215372 0.000000 0.000000 0.000000 0.000000 0.645746
 34   4.220534 -0.244853 0.431466 -0.001333 -0.026242 0.148339
 35   1.350416 0.000000 -0.000001 0.000000 0.000000 0.863937
 36   1.350410 0.000000 0.000001 0.000000 0.000000 0.863925
 37   2.110540 -0.000001 0.000000 -0.311038 0.005223 -0.156851
 38   0.891923 2.373051 -0.014527 -3.141592 -0.000001 1.413797
 39   7.228122 5.709445 3.726568 3.182873 -1.570796 0.000000
 40   2.450426 5.076128 0.001325 3.152640 -1.570796 0.000000
 41   6.312404 -4.528058 0.001311 3.140791 -1.570796 0.000000
 42   2.233309 1.152535 -7.309138 -1.421810 -1.451064 -0.495074
 43   4.262825 -0.232720 -1.392178 0.016840 0.076668 0.253759
time 28
  0   1.708652 10.233108 4.490320 0.000000 -1.447885 -1.701715
  1   0.836290 -0.265633 0.000000 -1.570795 -1.570451 0.000000
  2   -0.000007 0.000008 4.427393 -0.517704 -2.878235 -0.138313
  3   18.465939 0.000000 0.000000 0.000000 0.000000 -0.146645
  4   14.875443 0.000000 -0.000001 -0.167178 -0.013212 -0.198540
  5   0.000006 -0.000004 -4.427393 0.252790 3.199790 -0.197244
  6   18.465939 0.000000 0.000000 0.000000 0.000000 -0.271594
  7   14.875442 0.000000 0.000000 -0.030387 0.012635 0.057970
  8   2.255207 -0.007574 0.000003 0.114518 -0.015785 -0.089302
  9   9.514219 -0.009357 0.000000 0.004262 -0.027277 -0.025415
 10   11.751820 -0.001633 0.000000 0.000024 0.043611 -0.112698
 11   -2.265939 -0.317069 2.555976 0.316348 -1.374303 2.940255
 12   4.640941 0.000000 -0.000001 0.086649 0.346204 0.191716
 13   10.828049 0.000000 0.000000 0.000000 0.000000 -0.235921
 14   9.393337 -0.000001 0.000000 -1.569611 0.034172 0.000037
 15   1.442245 0.107454 -1.746177 1.686435 0.539209 0.325885
 16   1.063452 0.000000 0.000001 0.000000 0.000000 0.199056
 17   1.376307 -0.000001 0.000001 0.000000 0.000000 0.199049
 18   4.172846 -0.251366 -1.312744 0.008050 0.095731 0.148659
 19   1.215374 0.000002 0.000000 0.000000 0.000000 0.645758
 20   1.215371 -0.000002 0.000001 0.000000 0.000000 0.645758
 21   4.220534 -0.244854 -0.431465 0.001333 0.026242 0.148339
 22   1.350417 0.000000 0.000001 0.000000 0.000000 0.863926
 23   1.350410 -0.000001 -0.000001 0.000000 0.000000 0.863926
 24   -2.039369 -0.317056 -2.739573 0.885480 1.347112 4.119173
 25   4.640942 0.000000 0.000001 -0.044357 -0.784619 0.331460
 26   10.828047 0.000000 0.000001 0.000000 0.000000 -0.256337
 27   9.393339 0.000000 0.000000 1.569611 -0.034192 0.000001
 28   1.442245 0.107455 1.746178 -1.686405 -0.539236 0.325898
 29   1.063450 -0.000001 0.000000 0.000000 0.000000 0.199056
 30   1.376307 0.000000 0.000000 0.000000 0.000000 0.199059
 31   4.172847 -0.251365 1.312745 -0.008050 -0.095731 0.148659
 32   1.215373 -0.000001 0.000000 0.000000 0.000000 0.645746
 33   1.215372 0.000000 0.000000 0.000000 0.000000 0.645746
 34   4.220534 -0.244853 0.431466 -0.001333 -0.026242 0.148339
 35   1.350416 0.000000 -0.000001 0.000000 0.000000 0.863937
 36   1.350410 0.000000 0.000001 0.000000 0.000000 0.863925
 37   2.110540 -0.000001 0.000000 -0.478003 -0.009721 -0.159474
 38   0.891923 2.373051 -0.014527 -3.141592 -0.000001 1.413797
 39   7.228122 5.709445 3.726568 3.165396 -1.570796 0.000000
 40   2.450426 5.076128 0.001325 3.147373 -1.570796 0.000000
 41   6.312404 -4.528058 0.001311 3.140791 -1.570796 0.000000
 42   2.233309 1.152535 -7.309138 -1.677310 -1.478762 -0.179226
 43   4.262825 -0.232720 -1.392178 0.016840 0.076668 0.253759
time 29
  0   1.708652 10.233108 4.533290 0.000000 -1.447885 -1.701715
  1   0.793320 -0.269539 0.000000 -1.570795 -1.570451 0.000000
  2   -0.000007 0.000008 4.427393 -0.582714 -2.845022 -0.104898
  3   18.465939 0.000000 0.000000 0.000000 0.000000 -0.074342
  4   14.875443 0.000000 -0.000001 -0.150101 -0.037135 -0.262575
  5   0.000006 -0.000004 -4.427393 0.266280 3.179844 -0.136787
  6   18.465939 0.000000 0.000000 0.000000 0.000000 -0.136842
  7   14.875442 0.000000 0.000000 -0.001714 0.052649 -0.099941
  8   2.255207 -0.007574 0.000003 0.113804 -0.018529 -0.090228
  9   9.514219 -0.009357 0.000000 0.005278 -0.018912 -0.013011
 10   11.751820 -0.001633 0.000000 0.000024 0.043611 -0.123354
 11   -2.262032 -0.340507 2.555976 0.314299 -1.362805 2.953514
 12   4.640941 0.000000 -0.000001 0.076727 0.338903 0.200789
 13   10.828049 0.000000 0.000000 0.000000 0.000000 -0.217618
 14   9.393337 -0.000001 0.000000 -1.569611 0.034172 0.000037
 15   1.442245 0.107454 -1.746177 1.686435 0.539209 0.325885
 16   1.063452 0.000000 0.000001 0.000000 0.000000 0.199056
 17   1.376307 -0.000001 0.000001 0.000000 0.000000 0.199049
 18   4.172846 -0.251366 -1.312744 0.008050 0.095731 0.148659
 19   1.215374 0.000002 0.000000 0.000000 0.000000 0.645758
 20   1.215371 -0.000002 0.000001 0.000000 0.000000 0.645758
 21   4.220534 -0.244854 -0.431465 0.001333 0.026242 0.148339
 22   1.350417 0.000000 0.000001 0.000000 0.000000 0.863926
 23   1.350410 -0.000001 -0.000001 0.000000 0.000000 0.863926
 24   -2.035463 -0.340494 -2.739573 0.905410 1.353467 4.150613
 25   4.640942 0.000000 0.000001 -0.063857 -0.778691 0.374576
 26   10.828047 0.000000 0.000001 0.000000 0.000000 -0.264178
 27   9.393339 0.000000 0.000000 1.569611 -0.034192 0.000001
 28   1.442245 0.107455 1.746178 -1.686405 -0.539236 0.325898
 29   1.063450 -0.000001 0.000000 0.000000 0.000000 0.199056
 30   1.376307 0.000000 0.000000 0.000000 0.000000 0.199059
 31   4.172847 -0.251365 1.312745 -0.008050 -0.095731 0.148659
 32   1.215373 -0.000001 0.000000 0.000000 0.000000 0.645746
 33   1.215372 0.000000 0.000000 0.000000 0.000000 0.645746
 34   4.220534 -0.244853 0.431466 -0.001333 -0.026242 0.148339
 35   1.350416 0.000000 -0.000001 0.000000 0.000000 0.863937
 36   1.350410 0.000000 0.000001 0.000000 0.000000 0.863925
 37   2.110540 -0.000001 0.000000 -0.648115 -0.025252 -0.156765
 38   0.891923 2.373051 -0.014527 -3.141592 -0.000001 1.413797
 39   7.228122 5.709445 3.726568 3.149629 -1.570796 0.000000
 40   2.450426 5.076128 0.001325 3.143248 -1.570796 0.000000
 41   6.312404 -4.528058 0.001311 3.140791 -1.570796 0.000000
 42   2.233309 1.152535 -7.309138 -2.002798 -1.503663 0.189949
 43   4.262825 -0.232720 -1.392178 0.016840 0.076668 0.253759
time 30
  0   1.708652 10.233108 4.591886 0.000000 -1.447885 -1.701715
  1   0.734725 -0.273446 0.000000 -1.570795 -1.570451 0.000000
  2   -0.000007 0.000008 4.427393 -0.649442 -2.814228 -0.068191
  3   18.465939 0.000000 0.000000 0.000000 0.000000 -0.001965
  4   14.875443 0.000000 -0.000001 -0.133194 -0.061889 -0.327558
  5   0.000006 -0.000004 -4.427393 0.281014 3.160829 -0.076236
  6   18.465939 0.000000 0.000000 0.000000 0.000000 -0.001959
  7   14.875442 0.000000 0.000000 0.023099 0.094126 -0.258791
  8   2.255207 -0.007574 0.000003 0.113237 -0.019824 -0.090691
  9   9.514219 -0.009357 0.000000 0.006188 -0.014849 0.001862
 10   11.751820 -0.001633 0.000000 0.000024 0.043611 -0.135648
 11   -2.258126 -0.363945 2.555976 0.313389 -1.351959 2.967255
 12   4.640941 0.000000 -0.000001 0.063907 0.330775 0.209102
 13   10.828049 0.000000 0.000000 0.000000 0.000000 -0.203158
 14   9.393337 -0.000001 0.000000 -1.569611 0.034172 0.000037
 15   1.442245 0.107454 -1.746177 1.686435 0.539209 0.325885
 16   1.063452 0.000000 0.000001 0.000000 0.000000 0.199056
 17   1.376307 -0.000001 0.000001 0.000000 0.000000 0.199049
 18   4.172846 -0.251366 -1.312744 0.008050 0.095731 0.148659
 19   1.215374 0.000002 0.000000 0.000000 0.000000 0.645758
 20   1.215371 -0.000002 0.000001 0.000000 0.000000 0.645758
 21   4.220534 -0.244854 -0.431465 0.001333 0.026242 0.148339
 22   1.350417 0.000000 0.000001 0.000000 0.000000 0.863926
 23   1.350410 -0.000001 -0.000001 0.000000 0.000000 0.863926
 24   -2.031556 -0.363932 -2.739573 0.927053 1.356042 4.184943
 25   4.640942 0.000000 0.000001 -0.080578 -0.778063 0.409993
 26   10.828047 0.000000 0.000001 0.000000 0.000000 -0.272948
 27   9.393339 0.000000 0.000000 1.569611 -0.034192 0.000001
 28   1.442245 0.107455 1.746178 -1.686405 -0.539236 0.325898
 29   1.063450 -0.000001 0.000000 0.000000 0.000000 0.199056
 30   1.376307 0.000000 0.000000 0.000000 0.000000 0.199059
 31   4.172847 -0.251365 1.312745 -0.008050 -0.095731 0.148659
 32   1.215373 -0.000001 0.000000 0.000000 0.000000 0.645746
 33   1.215372 0.000000 0.000000 0.000000 0.000000 0.645746
 34   4.220534 -0.244853 0.431466 -0.001333 -0.026242 0.148339
 35   1.350416 0.000000 -0.000001 0.000000 0.000000 0.863937
 36   1.350410 0.000000 0.000001 0.000000 0.000000 0.863925
 37   2.110540 -0.000001 0.000000 -0.811741 -0.039386 -0.159345
 38   0.891923 2.373051 -0.014527 -3.141592 -0.000001 1.413797
 39   7.228122 5.709445 3.726568 3.140796 -1.570796 0.000000
 40   2.450426 5.076128 0.001325 3.140791 -1.570796 0.000000
 41   6.312404 -4.528058 0.001311 3.140791 -1.570796 0.000000
 42   2.233309 1.152535 -7.309138 -2.193967 -1.502003 0.443852
 43   4.262825 -0.232720 -1.392178 0.016840 0.076668 0.253759
end
