version 1
nodes
  0 "Bip01" -1
  1 "Bip01 Pelvis" 0
  2 "Bip01 L Thigh" 1
  3 "Bip01 L Calf" 2
  4 "Bip01 L Foot" 3
  5 "Bip01 R Thigh" 1
  6 "Bip01 R Calf" 5
  7 "Bip01 R Foot" 6
  8 "Bip01 Spine" 1
  9 "Bip01 Spine1" 8
 10 "Bip01 Neck" 9
 11 "Bip01 L Clavicle" 10
 12 "Bip01 L UpperArm" 11
 13 "Bip01 L Forearm" 12
 14 "Bip01 L Hand" 13
 15 "Bip01 L Finger0" 14
 16 "Bip01 L Finger01" 15
 17 "Bip01 L Finger02" 16
 18 "Bip01 L Finger1" 14
 19 "Bip01 L Finger11" 18
 20 "Bip01 L Finger12" 19
 21 "Bip01 L Finger2" 14
 22 "Bip01 L Finger21" 21
 23 "Bip01 L Finger22" 22
 24 "Bip01 R Clavicle" 10
 25 "Bip01 R UpperArm" 24
 26 "Bip01 R Forearm" 25
 27 "Bip01 R Hand" 26
 28 "Bip01 R Finger0" 27
 29 "Bip01 R Finger01" 28
 30 "Bip01 R Finger02" 29
 31 "Bip01 R Finger1" 27
 32 "Bip01 R Finger11" 31
 33 "Bip01 R Finger12" 32
 34 "Bip01 R Finger2" 27
 35 "Bip01 R Finger21" 34
 36 "Bip01 R Finger22" 35
 37 "Bip01 Head" 10
 38 "Bone05" 37
 39 "Bone08" 9
 40 "Bone16" 8
 41 "Bone01" 8
 42 "Bone03" 1
 43 "Bip01 R Finger4" 27
end
skeleton
time 0
  0   1.708652 6.792152 38.413231 0.000000 0.000000 -1.701715
  1   0.164395 -0.125004 0.000000 -1.570795 -1.570451 0.000000
  2   -0.000007 0.000008 4.427393 -0.170796 -3.152960 0.000882
  3   18.465939 0.000000 0.000000 0.000000 0.000000 -0.416557
  4   14.875443 0.000000 -0.000001 0.018451 0.017437 0.402071
  5   0.000006 -0.000004 -4.427393 0.106024 3.095677 -0.362237
  6   18.465939 0.000000 0.000000 0.000000 0.000000 -0.394334
  7   14.875442 0.000000 0.000000 -0.002065 0.005199 0.029344
  8   2.255207 -0.007574 0.000003 0.122100 -0.017403 -0.001322
  9   9.514219 -0.009357 0.000000 -0.008787 0.002361 -0.095902
 10   11.751820 -0.001633 0.000000 0.000024 0.043599 0.439975
 11   -2.117496 0.858748 2.563789 0.697276 -1.395375 2.006330
 12   4.640941 0.000000 -0.000001 0.738474 1.089884 0.724820
 13   10.828049 0.000000 0.000000 0.000000 0.000000 -0.470452
 14   9.393337 -0.000001 0.000000 -1.569611 0.034172 0.000037
 15   1.442245 0.107454 -1.746177 1.686435 0.539209 0.325885
 16   1.063452 0.000000 0.000001 0.000000 0.000000 0.199056
 17   1.376307 -0.000001 0.000001 0.000000 0.000000 0.199049
 18   4.172846 -0.251366 -1.312744 0.008050 0.095731 0.148659
 19   1.215374 0.000002 0.000000 0.000000 0.000000 0.645758
 20   1.215371 -0.000002 0.000001 0.000000 0.000000 0.645758
 21   4.220534 -0.244854 -0.431465 0.001333 0.026242 0.148339
 22   1.350417 0.000000 0.000001 0.000000 0.000000 0.863926
 23   1.350410 -0.000001 -0.000001 0.000000 0.000000 0.863926
 24   -1.887021 0.858761 -2.731760 -0.942471 1.461434 1.764317
 25   4.640942 0.000000 0.000001 -0.601473 -1.183875 0.506934
 26   10.828047 0.000000 0.000001 0.000000 0.000000 -0.234266
 27   9.393339 0.000000 0.000000 1.569611 -0.034192 0.000001
 28   1.442245 0.107455 1.746178 -1.686405 -0.539236 0.325898
 29   1.063450 -0.000001 0.000000 0.000000 0.000000 0.199056
 30   1.376307 0.000000 0.000000 0.000000 0.000000 0.199059
 31   4.172847 -0.251365 1.312745 -0.008050 -0.095731 0.148659
 32   1.215373 -0.000001 0.000000 0.000000 0.000000 0.645746
 33   1.215372 0.000000 0.000000 0.000000 0.000000 0.645746
 34   4.220534 -0.244853 0.431466 -0.001333 -0.026242 0.148339
 35   1.350416 0.000000 -0.000001 0.000000 0.000000 0.863937
 36   1.350410 0.000000 0.000001 0.000000 0.000000 0.863925
 37   2.110540 -0.000001 0.000000 0.002432 -0.010503 -0.153668
 38   0.891923 2.373051 -0.014527 -3.141592 -0.000001 1.413797
 39   7.228122 5.709445 3.726568 3.140796 -1.570796 0.000000
 40   2.450426 5.076128 0.001325 3.140791 -1.570796 0.000000
 41   6.312404 -4.528058 0.001311 3.140791 -1.570796 0.000000
 42   2.233309 1.152535 -7.309138 -1.147327 -1.562088 -0.851036
 43   4.262825 -0.232720 -1.392178 0.016840 0.076668 0.253759
time 1
  0   -0.421082 7.507871 37.155380 0.034802 0.000000 -1.780142
  1   0.097986 1.824274 0.000000 -0.000030 -1.466142 -1.570772
  2   -0.000007 0.000008 4.427393 -0.294992 -3.257063 -0.056820
  3   18.465939 0.000000 0.000000 0.000000 0.000000 -0.562333
  4   14.875443 0.000000 -0.000001 0.057444 0.000154 0.484357
  5   0.000006 -0.000004 -4.427393 0.067371 3.037701 -0.539396
  6   18.465939 0.000000 0.000000 0.000000 0.000000 -0.723239
  7   14.875442 0.000000 0.000000 0.298289 -0.084450 0.192846
  8   2.243488 -0.007574 0.234385 0.051681 0.051425 0.015752
  9   9.514219 -0.009357 0.000000 0.000805 0.031735 -0.125690
 10   11.751820 -0.001633 0.000000 -0.118815 0.098992 0.431493
 11   -2.258126 0.546239 2.520819 0.632928 -1.350209 2.074000
 12   4.640941 0.000000 -0.000001 1.232721 0.587623 1.310140
 13   10.828049 0.000000 0.000000 0.000000 0.000000 -1.595579
 14   9.393337 -0.000001 0.000000 -1.569611 0.034172 0.000037
 15   1.442245 0.107454 -1.746177 1.686435 0.539209 0.325885
 16   1.063452 0.000000 0.000001 0.000000 0.000000 0.199056
 17   1.376307 -0.000001 0.000001 0.000000 0.000000 0.199049
 18   4.172846 -0.251366 -1.312744 0.008050 0.095731 0.148659
 19   1.215374 0.000002 0.000000 0.000000 0.000000 0.645758
 20   1.215371 -0.000002 0.000001 0.000000 0.000000 0.645758
 21   4.220534 -0.244854 -0.431465 0.001333 0.026242 0.148339
 22   1.350417 0.000000 0.000001 0.000000 0.000000 0.863926
 23   1.350410 -0.000001 -0.000001 0.000000 0.000000 0.863926
 24   -1.738579 1.171271 -2.712228 -1.183131 1.134023 1.569828
 25   4.640942 0.000000 0.000001 -0.878127 -0.201111 1.269865
 26   10.828047 0.000000 0.000001 0.000000 0.000000 -0.355017
 27   9.393339 0.000000 0.000000 1.569611 -0.034192 0.000001
 28   1.442245 0.107455 1.746178 -1.686405 -0.539236 0.325898
 29   1.063450 -0.000001 0.000000 0.000000 0.000000 0.199056
 30   1.376307 0.000000 0.000000 0.000000 0.000000 0.199059
 31   4.172847 -0.251365 1.312745 -0.008050 -0.095731 0.148659
 32   1.215373 -0.000001 0.000000 0.000000 0.000000 0.645746
 33   1.215372 0.000000 0.000000 0.000000 0.000000 0.645746
 34   4.220534 -0.244853 0.431466 -0.001333 -0.026242 0.148339
 35   1.350416 0.000000 -0.000001 0.000000 0.000000 0.863937
 36   1.350410 0.000000 0.000001 0.000000 0.000000 0.863925
 37   2.110540 -0.000001 0.000000 -0.303074 0.109107 -0.336394
 38   0.891923 2.373051 -0.014527 -3.141592 -0.000001 1.413797
 39   7.228122 5.709445 3.726568 2.775396 -1.570796 0.000000
 40   2.450426 5.076128 0.001325 3.140791 -1.570796 0.000000
 41   6.312404 -4.528058 0.001311 3.167173 -1.570796 0.000000
 42   2.233309 1.152535 -7.309138 -1.128248 -1.614425 -1.036007
 43   4.262825 -0.232720 -1.392178 0.016840 0.076668 0.253759
time 2
  0   -0.522498 8.361228 36.866306 0.038829 0.003516 -1.881004
  1   0.949575 2.109439 0.000000 -0.000030 -1.470108 -1.570772
  2   -0.000007 0.000008 4.427393 0.057453 -3.364516 -0.066994
  3   18.465939 0.000000 0.000000 0.000000 0.000000 -0.592527
  4   14.875443 0.000000 -0.000001 -0.405006 0.077905 0.506439
  5   0.000006 -0.000004 -4.427393 0.206674 3.029499 -0.563448
  6   18.465939 0.000000 0.000000 0.000000 0.000000 -0.725470
  7   14.875442 0.000000 0.000000 0.211706 -0.151507 0.187181
  8   2.243488 -0.007574 0.222666 0.046872 0.082261 -0.043277
  9   9.514219 -0.009357 0.000000 0.013431 0.032706 -0.180352
 10   11.751820 -0.001633 0.000000 -0.293551 0.176556 0.407416
 11   -2.461257 0.112632 2.388002 -0.411664 -1.333797 3.105550
 12   4.640941 0.000000 -0.000001 1.088161 0.462540 1.170937
 13   10.828049 0.000000 0.000000 0.000000 0.000000 -1.824985
 14   9.393337 -0.000001 0.000000 -1.569611 0.034172 0.000037
 15   1.442245 0.107454 -1.746177 1.686435 0.539209 0.325885
 16   1.063452 0.000000 0.000001 0.000000 0.000000 0.199056
 17   1.376307 -0.000001 0.000001 0.000000 0.000000 0.199049
 18   4.172846 -0.251366 -1.312744 0.008050 0.095731 0.148659
 19   1.215374 0.000002 0.000000 0.000000 0.000000 0.645758
 20   1.215371 -0.000002 0.000001 0.000000 0.000000 0.645758
 21   4.220534 -0.244854 -0.431465 0.001333 0.026242 0.148339
 22   1.350417 0.000000 0.000001 0.000000 0.000000 0.863926
 23   1.350410 -0.000001 -0.000001 0.000000 0.000000 0.863926
 24   -1.535447 1.616597 -2.610662 -1.106262 1.021571 1.681692
 25   4.640942 0.000000 0.000001 -0.832902 0.126663 1.403833
 26   10.828047 0.000000 0.000001 0.000000 0.000000 -0.631428
 27   9.393339 0.000000 0.000000 1.569611 -0.034192 0.000001
 28   1.442245 0.107455 1.746178 -1.686405 -0.539236 0.325898
 29   1.063450 -0.000001 0.000000 0.000000 0.000000 0.199056
 30   1.376307 0.000000 0.000000 0.000000 0.000000 0.199059
 31   4.172847 -0.251365 1.312745 -0.008050 -0.095731 0.148659
 32   1.215373 -0.000001 0.000000 0.000000 0.000000 0.645746
 33   1.215372 0.000000 0.000000 0.000000 0.000000 0.645746
 34   4.220534 -0.244853 0.431466 -0.001333 -0.026242 0.148339
 35   1.350416 0.000000 -0.000001 0.000000 0.000000 0.863937
 36   1.350410 0.000000 0.000001 0.000000 0.000000 0.863925
 37   2.110540 -0.000001 0.000000 -0.366979 0.343689 -0.366669
 38   0.891923 2.373051 -0.014527 -3.141592 -0.000001 1.413797
 39   7.228122 5.709445 3.726568 2.556175 -1.570796 0.000000
 40   2.450426 5.076128 0.001325 3.140791 -1.570796 0.000000
 41   6.312404 -4.528058 0.001311 3.193147 -1.570796 0.000000
 42   2.233309 1.152535 -7.309138 -1.127098 -1.649317 -1.027582
 43   4.262825 -0.232720 -1.392178 0.016840 0.076668 0.253759
time 3
  0   -0.157401 8.801670 36.932716 0.034419 0.005433 -1.937092
  1   1.547249 1.910215 0.000000 -0.000030 -1.480787 -1.570772
  2   -0.000007 0.000008 4.427393 0.046762 -3.351957 -0.058067
  3   18.465939 0.000000 0.000000 0.000000 0.000000 -0.581268
  4   14.875443 0.000000 -0.000001 -0.419693 0.081140 0.505570
  5   0.000006 -0.000004 -4.427393 0.311343 3.026796 -0.557365
  6   18.465939 0.000000 0.000000 0.000000 0.000000 -0.674011
  7   14.875442 0.000000 0.000000 0.114665 -0.185701 0.155516
  8   2.247394 -0.007574 0.199228 0.057373 0.077120 -0.087581
  9   9.514219 -0.009357 0.000000 -0.006505 0.023514 -0.212478
 10   11.751820 -0.001633 0.000000 -0.203067 0.098884 0.427466
 11   -2.262032 0.327482 2.559883 0.075271 -1.435850 2.628214
 12   4.640941 0.000000 -0.000001 0.983240 0.507793 1.095189
 13   10.828049 0.000000 0.000000 0.000000 0.000000 -1.760678
 14   9.393337 -0.000001 0.000000 -1.569611 0.034172 0.000037
 15   1.442245 0.107454 -1.746177 1.686435 0.539209 0.325885
 16   1.063452 0.000000 0.000001 0.000000 0.000000 0.199056
 17   1.376307 -0.000001 0.000001 0.000000 0.000000 0.199049
 18   4.172846 -0.251366 -1.312744 0.008050 0.095731 0.148659
 19   1.215374 0.000002 0.000000 0.000000 0.000000 0.645758
 20   1.215371 -0.000002 0.000001 0.000000 0.000000 0.645758
 21   4.220534 -0.244854 -0.431465 0.001333 0.026242 0.148339
 22   1.350417 0.000000 0.000001 0.000000 0.000000 0.863926
 23   1.350410 -0.000001 -0.000001 0.000000 0.000000 0.863926
 24   -1.742485 1.390027 -2.610662 -1.000112 1.057664 1.768927
 25   4.640942 0.000000 0.000001 -0.900920 0.073103 1.416222
 26   10.828047 0.000000 0.000001 0.000000 0.000000 -0.796961
 27   9.393339 0.000000 0.000000 1.569611 -0.034192 0.000001
 28   1.442245 0.107455 1.746178 -1.686405 -0.539236 0.325898
 29   1.063450 -0.000001 0.000000 0.000000 0.000000 0.199056
 30   1.376307 0.000000 0.000000 0.000000 0.000000 0.199059
 31   4.172847 -0.251365 1.312745 -0.008050 -0.095731 0.148659
 32   1.215373 -0.000001 0.000000 0.000000 0.000000 0.645746
 33   1.215372 0.000000 0.000000 0.000000 0.000000 0.645746
 34   4.220534 -0.244853 0.431466 -0.001333 -0.026242 0.148339
 35   1.350416 0.000000 -0.000001 0.000000 0.000000 0.863937
 36   1.350410 0.000000 0.000001 0.000000 0.000000 0.863925
 37   2.110540 -0.000001 0.000000 -0.242030 0.187878 -0.157410
 38   0.891923 2.373051 -0.014527 -3.141592 -0.000001 1.413797
 39   7.228122 5.709445 3.726568 2.824122 -1.570796 0.000000
 40   2.450426 5.076128 0.001325 3.140791 -1.570796 0.000000
 41   6.312404 -4.528058 0.001311 3.216620 -1.570796 0.000000
 42   2.233309 1.152535 -7.309138 -1.127481 -1.658054 -0.996083
 43   4.262825 -0.232720 -1.392178 0.016840 0.076668 0.253759
time 4
  0   0.187413 8.581449 37.163193 0.028858 0.004410 -1.912931
  1   1.359744 1.539109 0.000000 -0.000030 -1.496351 -1.570772
  2   -0.000007 0.000008 4.427393 -0.042400 -3.309720 -0.048791
  3   18.465939 0.000000 0.000000 0.000000 0.000000 -0.560579
  4   14.875443 0.000000 -0.000001 -0.330037 0.066539 0.500751
  5   0.000006 -0.000004 -4.427393 0.241787 3.045531 -0.536308
  6   18.465939 0.000000 0.000000 0.000000 0.000000 -0.641062
  7   14.875442 0.000000 0.000000 0.148182 -0.139240 0.129441
  8   2.251301 -0.007574 0.164071 0.070226 0.058460 -0.076100
  9   9.514219 -0.009357 0.000000 -0.008853 0.018720 -0.195051
 10   11.751820 -0.001633 0.000000 -0.051929 -0.017235 0.441505
 11   -1.957335 0.722025 2.723950 1.146118 -1.377166 1.568153
 12   4.640941 0.000000 -0.000001 0.943698 0.618618 1.046602
 13   10.828049 0.000000 0.000000 0.000000 0.000000 -1.523340
 14   9.393337 -0.000001 0.000000 -1.569611 0.034172 0.000037
 15   1.442245 0.107454 -1.746177 1.686435 0.539209 0.325885
 16   1.063452 0.000000 0.000001 0.000000 0.000000 0.199056
 17   1.376307 -0.000001 0.000001 0.000000 0.000000 0.199049
 18   4.172846 -0.251366 -1.312744 0.008050 0.095731 0.148659
 19   1.215374 0.000002 0.000000 0.000000 0.000000 0.645758
 20   1.215371 -0.000002 0.000001 0.000000 0.000000 0.645758
 21   4.220534 -0.244854 -0.431465 0.001333 0.026242 0.148339
 22   1.350417 0.000000 0.000001 0.000000 0.000000 0.863926
 23   1.350410 -0.000001 -0.000001 0.000000 0.000000 0.863926
 24   -2.047182 0.995484 -2.567692 -0.822668 1.153731 1.910855
 25   4.640942 0.000000 0.000001 -0.963794 -0.172170 1.370096
 26   10.828047 0.000000 0.000001 0.000000 0.000000 -0.905980
 27   9.393339 0.000000 0.000000 1.569611 -0.034192 0.000001
 28   1.442245 0.107455 1.746178 -1.686405 -0.539236 0.325898
 29   1.063450 -0.000001 0.000000 0.000000 0.000000 0.199056
 30   1.376307 0.000000 0.000000 0.000000 0.000000 0.199059
 31   4.172847 -0.251365 1.312745 -0.008050 -0.095731 0.148659
 32   1.215373 -0.000001 0.000000 0.000000 0.000000 0.645746
 33   1.215372 0.000000 0.000000 0.000000 0.000000 0.645746
 34   4.220534 -0.244853 0.431466 -0.001333 -0.026242 0.148339
 35   1.350416 0.000000 -0.000001 0.000000 0.000000 0.863937
 36   1.350410 0.000000 0.000001 0.000000 0.000000 0.863925
 37   2.110540 -0.000001 0.000000 -0.105587 0.025671 -0.037728
 38   0.891923 2.373051 -0.014527 -3.141592 -0.000001 1.413797
 39   7.228122 5.709445 3.726568 3.140796 -1.570796 0.000000
 40   2.450426 5.076128 0.001325 3.140791 -1.570796 0.000000
 41   6.312404 -4.528058 0.001311 3.205598 -1.570796 0.000000
 42   2.233309 1.152535 -7.309138 -2.151688 -1.570796 0.000000
 43   4.262825 -0.232720 -1.392178 0.016840 0.076668 0.253759
time 5
  0   0.552511 8.196062 37.452263 0.022147 0.003004 -1.868732
  1   1.090204 1.144566 0.000000 -0.000030 -1.514962 -1.570772
  2   -0.000007 0.000008 4.427393 -0.157527 -3.252226 -0.038916
  3   18.465939 0.000000 0.000000 0.000000 0.000000 -0.534406
  4   14.875443 0.000000 -0.000001 -0.166552 0.040828 0.485976
  5   0.000006 -0.000004 -4.427393 0.153096 3.065011 -0.507858
  6   18.465939 0.000000 0.000000 0.000000 0.000000 -0.606603
  7   14.875442 0.000000 0.000000 0.174820 -0.081426 0.109932
  8   2.251301 -0.007574 0.125007 0.083121 0.040687 -0.059192
  9   9.514219 -0.009357 0.000000 -0.009460 0.014429 -0.172472
 10   11.751820 -0.001633 0.000000 0.154314 -0.157898 0.421051
 11   -1.578418 1.261104 2.770826 1.509820 -1.170229 1.228150
 12   4.640941 0.000000 -0.000001 0.906760 0.736056 0.991343
 13   10.828049 0.000000 0.000000 0.000000 0.000000 -1.267821
 14   9.393337 -0.000001 0.000000 -1.569611 0.034172 0.000037
 15   1.442245 0.107454 -1.746177 1.686435 0.539209 0.325885
 16   1.063452 0.000000 0.000001 0.000000 0.000000 0.199056
 17   1.376307 -0.000001 0.000001 0.000000 0.000000 0.199049
 18   4.172846 -0.251366 -1.312744 0.008050 0.095731 0.148659
 19   1.215374 0.000002 0.000000 0.000000 0.000000 0.645758
 20   1.215371 -0.000002 0.000001 0.000000 0.000000 0.645758
 21   4.220534 -0.244854 -0.431465 0.001333 0.026242 0.148339
 22   1.350417 0.000000 0.000001 0.000000 0.000000 0.863926
 23   1.350410 -0.000001 -0.000001 0.000000 0.000000 0.863926
 24   -2.406568 0.456405 -2.399718 -0.224882 1.323708 2.476780
 25   4.640942 0.000000 0.000001 -1.019413 -0.489971 1.242637
 26   10.828047 0.000000 0.000001 0.000000 0.000000 -0.969754
 27   9.393339 0.000000 0.000000 1.569611 -0.034192 0.000001
 28   1.442245 0.107455 1.746178 -1.686405 -0.539236 0.325898
 29   1.063450 -0.000001 0.000000 0.000000 0.000000 0.199056
 30   1.376307 0.000000 0.000000 0.000000 0.000000 0.199059
 31   4.172847 -0.251365 1.312745 -0.008050 -0.095731 0.148659
 32   1.215373 -0.000001 0.000000 0.000000 0.000000 0.645746
 33   1.215372 0.000000 0.000000 0.000000 0.000000 0.645746
 34   4.220534 -0.244853 0.431466 -0.001333 -0.026242 0.148339
 35   1.350416 0.000000 -0.000001 0.000000 0.000000 0.863937
 36   1.350410 0.000000 0.000001 0.000000 0.000000 0.863925
 37   2.110540 -0.000001 0.000000 0.028710 0.045838 -0.046544
 38   0.891923 2.373051 -0.014527 -3.141592 -0.000001 1.413797
 39   7.228122 5.709445 3.726568 3.195601 -1.570796 0.000000
 40   2.450426 5.076128 0.001325 3.140791 -1.570796 0.000000
 41   6.312404 -4.528058 0.001311 3.190902 -1.570796 0.000000
 42   2.233309 1.152535 -7.309138 -1.128248 -1.595873 -0.992828
 43   4.262825 -0.232720 -1.392178 0.016840 0.076668 0.253759
time 6
  0   0.958174 7.728092 37.776493 0.014765 0.001598 -1.813124
  1   0.777695 0.726585 0.000000 -0.000030 -1.534795 -1.570772
  2   -0.000007 0.000008 4.427393 -0.126406 -3.226735 -0.030438
  3   18.465939 0.000000 0.000000 0.000000 0.000000 -0.501435
  4   14.875443 0.000000 -0.000001 -0.140224 0.041169 0.459114
  5   0.000006 -0.000004 -4.427393 0.140563 3.069205 -0.459941
  6   18.465939 0.000000 0.000000 0.000000 0.000000 -0.545561
  7   14.875442 0.000000 0.000000 0.039946 -0.044741 0.090160
  8   2.255207 -0.007574 0.078130 0.096079 0.022782 -0.039405
  9   9.514219 -0.009357 0.000000 -0.009130 0.010415 -0.146949
 10   11.751820 -0.001633 0.000000 0.130980 -0.113974 0.426769
 11   -1.699515 1.198602 2.727856 1.417472 -1.226671 1.311553
 12   4.640941 0.000000 -0.000001 0.867267 0.856455 0.924961
 13   10.828049 0.000000 0.000000 0.000000 0.000000 -1.002052
 14   9.393337 -0.000001 0.000000 -1.569611 0.034172 0.000037
 15   1.442245 0.107454 -1.746177 1.686435 0.539209 0.325885
 16   1.063452 0.000000 0.000001 0.000000 0.000000 0.199056
 17   1.376307 -0.000001 0.000001 0.000000 0.000000 0.199049
 18   4.172846 -0.251366 -1.312744 0.008050 0.095731 0.148659
 19   1.215374 0.000002 0.000000 0.000000 0.000000 0.645758
 20   1.215371 -0.000002 0.000001 0.000000 0.000000 0.645758
 21   4.220534 -0.244854 -0.431465 0.001333 0.026242 0.148339
 22   1.350417 0.000000 0.000001 0.000000 0.000000 0.863926
 23   1.350410 -0.000001 -0.000001 0.000000 0.000000 0.863926
 24   -2.301096 0.511094 -2.493471 -0.426603 1.428332 2.276856
 25   4.640942 0.000000 0.000001 -1.002280 -0.822208 1.082772
 26   10.828047 0.000000 0.000001 0.000000 0.000000 -0.914170
 27   9.393339 0.000000 0.000000 1.569611 -0.034192 0.000001
 28   1.442245 0.107455 1.746178 -1.686405 -0.539236 0.325898
 29   1.063450 -0.000001 0.000000 0.000000 0.000000 0.199056
 30   1.376307 0.000000 0.000000 0.000000 0.000000 0.199059
 31   4.172847 -0.251365 1.312745 -0.008050 -0.095731 0.148659
 32   1.215373 -0.000001 0.000000 0.000000 0.000000 0.645746
 33   1.215372 0.000000 0.000000 0.000000 0.000000 0.645746
 34   4.220534 -0.244853 0.431466 -0.001333 -0.026242 0.148339
 35   1.350416 0.000000 -0.000001 0.000000 0.000000 0.863937
 36   1.350410 0.000000 0.000001 0.000000 0.000000 0.863925
 37   2.110540 -0.000001 0.000000 0.030331 0.024749 -0.082195
 38   0.891923 2.373051 -0.014527 -3.141592 -0.000001 1.413797
 39   7.228122 5.709445 3.726568 3.189427 -1.570796 0.000000
 40   2.450426 5.076128 0.001325 3.140791 -1.570796 0.000000
 41   6.312404 -4.528058 0.001311 3.174215 -1.570796 0.000000
 42   2.233309 1.152535 -7.309138 -1.111087 -1.592115 -0.970233
 43   4.262825 -0.232720 -1.392178 0.016840 0.076668 0.253759
time 7
  0   1.323272 7.232594 38.108532 0.007286 0.000511 -1.754543
  1   0.457372 0.300790 0.000000 -0.000030 -1.554010 -1.570772
  2   -0.000007 0.000008 4.427393 -0.153517 -3.186917 -0.016573
  3   18.465939 0.000000 0.000000 0.000000 0.000000 -0.461957
  4   14.875443 0.000000 -0.000001 -0.052504 0.028611 0.431659
  5   0.000006 -0.000004 -4.427393 0.115305 3.079738 -0.405474
  6   18.465939 0.000000 0.000000 0.000000 0.000000 -0.467519
  7   14.875442 0.000000 0.000000 -0.051831 -0.010281 0.060897
  8   2.255207 -0.007574 0.035160 0.109121 0.003726 -0.019288
  9   9.514219 -0.009357 0.000000 -0.008642 0.006448 -0.120689
 10   11.751820 -0.001633 0.000000 0.065148 -0.035380 0.435841
 11   -1.914365 1.026722 2.657542 1.173663 -1.325114 1.541978
 12   4.640941 0.000000 -0.000001 0.816379 0.975891 0.840257
 13   10.828049 0.000000 0.000000 0.000000 0.000000 -0.733659
 14   9.393337 -0.000001 0.000000 -1.569611 0.034172 0.000037
 15   1.442245 0.107454 -1.746177 1.686435 0.539209 0.325885
 16   1.063452 0.000000 0.000001 0.000000 0.000000 0.199056
 17   1.376307 -0.000001 0.000001 0.000000 0.000000 0.199049
 18   4.172846 -0.251366 -1.312744 0.008050 0.095731 0.148659
 19   1.215374 0.000002 0.000000 0.000000 0.000000 0.645758
 20   1.215371 -0.000002 0.000001 0.000000 0.000000 0.645758
 21   4.220534 -0.244854 -0.431465 0.001333 0.026242 0.148339
 22   1.350417 0.000000 0.000001 0.000000 0.000000 0.863926
 23   1.350410 -0.000001 -0.000001 0.000000 0.000000 0.863926
 24   -2.101871 0.679068 -2.630194 -0.763710 1.453397 1.942983
 25   4.640942 0.000000 0.000001 -0.865728 -1.034145 0.859002
 26   10.828047 0.000000 0.000001 0.000000 0.000000 -0.617198
 27   9.393339 0.000000 0.000000 1.569611 -0.034192 0.000001
 28   1.442245 0.107455 1.746178 -1.686405 -0.539236 0.325898
 29   1.063450 -0.000001 0.000000 0.000000 0.000000 0.199056
 30   1.376307 0.000000 0.000000 0.000000 0.000000 0.199059
 31   4.172847 -0.251365 1.312745 -0.008050 -0.095731 0.148659
 32   1.215373 -0.000001 0.000000 0.000000 0.000000 0.645746
 33   1.215372 0.000000 0.000000 0.000000 0.000000 0.645746
 34   4.220534 -0.244853 0.431466 -0.001333 -0.026242 0.148339
 35   1.350416 0.000000 -0.000001 0.000000 0.000000 0.863937
 36   1.350410 0.000000 0.000001 0.000000 0.000000 0.863925
 37   2.110540 -0.000001 0.000000 0.013401 0.003911 -0.119910
 38   0.891923 2.373051 -0.014527 -3.141592 -0.000001 1.413797
 39   7.228122 5.709445 3.726568 3.159033 -1.570796 0.000000
 40   2.450426 5.076128 0.001325 3.140791 -1.570796 0.000000
 41   6.312404 -4.528058 0.001311 3.156967 -1.570796 0.000000
 42   2.233309 1.152535 -7.309138 -1.087694 -1.581019 -0.952234
 43   4.262825 -0.232720 -1.392178 0.016840 0.076668 0.253759
time 8
  0   1.708652 6.792152 38.413231 0.000000 0.000000 -1.701715
  1   0.164395 -0.125004 0.000000 -1.570795 -1.570451 0.000000
  2   -0.000007 0.000008 4.427393 -0.170796 -3.152960 0.000882
  3   18.465939 0.000000 0.000000 0.000000 0.000000 -0.416557
  4   14.875443 0.000000 -0.000001 0.018451 0.017437 0.402071
  5   0.000006 -0.000004 -4.427393 0.106024 3.095677 -0.362237
  6   18.465939 0.000000 0.000000 0.000000 0.000000 -0.394334
  7   14.875442 0.000000 0.000000 -0.002065 0.005199 0.029344
  8   2.255207 -0.007574 0.000003 0.122100 -0.017403 -0.001322
  9   9.514219 -0.009357 0.000000 -0.008787 0.002361 -0.095902
 10   11.751820 -0.001633 0.000000 0.000024 0.043599 0.439975
 11   -2.117496 0.858748 2.563789 0.697276 -1.395375 2.006330
 12   4.640941 0.000000 -0.000001 0.738474 1.089884 0.724820
 13   10.828049 0.000000 0.000000 0.000000 0.000000 -0.470452
 14   9.393337 -0.000001 0.000000 -1.569611 0.034172 0.000037
 15   1.442245 0.107454 -1.746177 1.686435 0.539209 0.325885
 16   1.063452 0.000000 0.000001 0.000000 0.000000 0.199056
 17   1.376307 -0.000001 0.000001 0.000000 0.000000 0.199049
 18   4.172846 -0.251366 -1.312744 0.008050 0.095731 0.148659
 19   1.215374 0.000002 0.000000 0.000000 0.000000 0.645758
 20   1.215371 -0.000002 0.000001 0.000000 0.000000 0.645758
 21   4.220534 -0.244854 -0.431465 0.001333 0.026242 0.148339
 22   1.350417 0.000000 0.000001 0.000000 0.000000 0.863926
 23   1.350410 -0.000001 -0.000001 0.000000 0.000000 0.863926
 24   -1.887021 0.858761 -2.731760 -0.942471 1.461434 1.764317
 25   4.640942 0.000000 0.000001 -0.601473 -1.183875 0.506934
 26   10.828047 0.000000 0.000001 0.000000 0.000000 -0.234266
 27   9.393339 0.000000 0.000000 1.569611 -0.034192 0.000001
 28   1.442245 0.107455 1.746178 -1.686405 -0.539236 0.325898
 29   1.063450 -0.000001 0.000000 0.000000 0.000000 0.199056
 30   1.376307 0.000000 0.000000 0.000000 0.000000 0.199059
 31   4.172847 -0.251365 1.312745 -0.008050 -0.095731 0.148659
 32   1.215373 -0.000001 0.000000 0.000000 0.000000 0.645746
 33   1.215372 0.000000 0.000000 0.000000 0.000000 0.645746
 34   4.220534 -0.244853 0.431466 -0.001333 -0.026242 0.148339
 35   1.350416 0.000000 -0.000001 0.000000 0.000000 0.863937
 36   1.350410 0.000000 0.000001 0.000000 0.000000 0.863925
 37   2.110540 -0.000001 0.000000 0.002432 -0.010503 -0.153668
 38   0.891923 2.373051 -0.014527 -3.141592 -0.000001 1.413797
 39   7.228122 5.709445 3.726568 3.140796 -1.570796 0.000000
 40   2.450426 5.076128 0.001325 3.140791 -1.570796 0.000000
 41   6.312404 -4.528058 0.001311 3.140791 -1.570796 0.000000
 42   2.233309 1.152535 -7.309138 -1.147327 -1.562088 -0.851036
 43   4.262825 -0.232720 -1.392178 0.016840 0.076668 0.253759
end
