version 1
nodes
  0 "Bip01" -1
  1 "Bip01 Pelvis" 0
  2 "Bip01 L Thigh" 1
  3 "Bip01 L Calf" 2
  4 "Bip01 L Foot" 3
  5 "Bip01 R Thigh" 1
  6 "Bip01 R Calf" 5
  7 "Bip01 R Foot" 6
  8 "Bip01 Spine" 1
  9 "Bip01 Spine1" 8
 10 "Bip01 Neck" 9
 11 "Bip01 L Clavicle" 10
 12 "Bip01 L UpperArm" 11
 13 "Bip01 L Forearm" 12
 14 "Bip01 L Hand" 13
 15 "Bip01 L Finger0" 14
 16 "Bip01 L Finger01" 15
 17 "Bip01 L Finger02" 16
 18 "Bip01 L Finger1" 14
 19 "Bip01 L Finger11" 18
 20 "Bip01 L Finger12" 19
 21 "Bip01 L Finger2" 14
 22 "Bip01 L Finger21" 21
 23 "Bip01 L Finger22" 22
 24 "Bip01 R Clavicle" 10
 25 "Bip01 R UpperArm" 24
 26 "Bip01 R Forearm" 25
 27 "Bip01 R Hand" 26
 28 "Bip01 R Finger0" 27
 29 "Bip01 R Finger01" 28
 30 "Bip01 R Finger02" 29
 31 "Bip01 R Finger1" 27
 32 "Bip01 R Finger11" 31
 33 "Bip01 R Finger12" 32
 34 "Bip01 R Finger2" 27
 35 "Bip01 R Finger21" 34
 36 "Bip01 R Finger22" 35
 37 "Bip01 Head" 10
 38 "Bone05" 37
 39 "Bone08" 9
 40 "Bone16" 8
 41 "Bone01" 8
 42 "Bone03" 1
 43 "Bip01 R Finger4" 27
end
skeleton
time 0
  0   1.708652 6.792152 38.374165 0.000000 0.000000 -1.701715
  1   0.164395 -0.125004 0.000000 -1.570795 -1.570451 0.000000
  2   -0.000007 0.000008 4.427393 -0.170796 -3.152960 0.000882
  3   18.465939 0.000000 0.000000 0.000000 0.000000 -0.416557
  4   14.875443 0.000000 -0.000001 0.018451 0.017437 0.402071
  5   0.000006 -0.000004 -4.427393 0.106024 3.095677 -0.362237
  6   18.465939 0.000000 0.000000 0.000000 0.000000 -0.394334
  7   14.875442 0.000000 0.000000 -0.002065 0.005199 0.029344
  8   2.255207 -0.007574 0.000003 0.122100 -0.017403 -0.001322
  9   9.514219 -0.009357 0.000000 -0.008787 0.002361 -0.095902
 10   11.751820 -0.001633 0.000000 0.000024 0.043599 0.439975
 11   -2.117496 0.858748 2.563789 0.697276 -1.395375 2.006330
 12   4.640941 0.000000 -0.000001 0.738474 1.089884 0.724820
 13   10.828049 0.000000 0.000000 0.000000 0.000000 -0.470452
 14   9.393337 -0.000001 0.000000 -1.569611 0.034172 0.000037
 15   1.442245 0.107454 -1.746177 1.686435 0.539209 0.325885
 16   1.063452 0.000000 0.000001 0.000000 0.000000 0.199056
 17   1.376307 -0.000001 0.000001 0.000000 0.000000 0.199049
 18   4.172846 -0.251366 -1.312744 0.008050 0.095731 0.148659
 19   1.215374 0.000002 0.000000 0.000000 0.000000 0.645758
 20   1.215371 -0.000002 0.000001 0.000000 0.000000 0.645758
 21   4.220534 -0.244854 -0.431465 0.001333 0.026242 0.148339
 22   1.350417 0.000000 0.000001 0.000000 0.000000 0.863926
 23   1.350410 -0.000001 -0.000001 0.000000 0.000000 0.863926
 24   -1.887021 0.858761 -2.731760 -0.942471 1.461434 1.764317
 25   4.640942 0.000000 0.000001 -0.601473 -1.183875 0.506934
 26   10.828047 0.000000 0.000001 0.000000 0.000000 -0.234266
 27   9.393339 0.000000 0.000000 1.569611 -0.034192 0.000001
 28   1.442245 0.107455 1.746178 -1.686405 -0.539236 0.325898
 29   1.063450 -0.000001 0.000000 0.000000 0.000000 0.199056
 30   1.376307 0.000000 0.000000 0.000000 0.000000 0.199059
 31   4.172847 -0.251365 1.312745 -0.008050 -0.095731 0.148659
 32   1.215373 -0.000001 0.000000 0.000000 0.000000 0.645746
 33   1.215372 0.000000 0.000000 0.000000 0.000000 0.645746
 34   4.220534 -0.244853 0.431466 -0.001333 -0.026242 0.148339
 35   1.350416 0.000000 -0.000001 0.000000 0.000000 0.863937
 36   1.350410 0.000000 0.000001 0.000000 0.000000 0.863925
 37   2.110540 -0.000001 0.000000 0.002432 -0.010503 -0.153668
 38   0.891923 2.373051 -0.014527 -3.141592 -0.000001 1.413797
 39   7.228122 5.709445 3.726568 3.140796 -1.570796 0.000000
 40   2.450426 5.076128 0.001325 3.132102 -1.570796 0.000000
 41   6.312404 -4.528058 0.001311 3.140791 -1.570796 0.000000
 42   2.233309 1.152535 -7.309138 -1.954765 -1.570796 0.000000
 43   4.262825 -0.232720 -1.392178 0.016840 0.076668 0.253759
time 1
  0   1.019024 5.388242 38.452293 0.005465 -0.001087 -1.779950
  1   -0.214523 -0.140629 0.000000 -0.000030 -1.542829 -1.570772
  2   -0.000007 0.000008 4.427393 -0.170223 -3.195290 0.041828
  3   18.465939 0.000000 0.000000 0.000000 0.000000 -0.354562
  4   14.875443 0.000000 -0.000001 -0.031329 0.020332 0.381134
  5   0.000006 -0.000004 -4.427393 0.096457 3.078060 -0.366168
  6   18.465939 0.000000 0.000000 0.000000 0.000000 -0.408183
  7   14.875442 0.000000 0.000000 -0.050743 -0.006934 0.040299
  8   2.255207 -0.007574 0.058599 0.079592 -0.044751 0.021840
  9   9.514219 -0.009357 0.000000 -0.007415 0.004410 -0.063906
 10   11.751820 -0.001633 0.000000 0.000024 0.043599 0.439975
 11   -2.117496 0.858748 2.563789 0.721179 -1.391781 1.982559
 12   4.640941 0.000000 -0.000001 0.584286 1.137273 0.590593
 13   10.828049 0.000000 0.000000 0.000000 0.000000 -0.634575
 14   9.393337 -0.000001 0.000000 -1.569611 0.034172 0.000037
 15   1.442245 0.107454 -1.746177 1.686435 0.539209 0.325885
 16   1.063452 0.000000 0.000001 0.000000 0.000000 0.199056
 17   1.376307 -0.000001 0.000001 0.000000 0.000000 0.199049
 18   4.172846 -0.251366 -1.312744 0.008050 0.095731 0.148659
 19   1.215374 0.000002 0.000000 0.000000 0.000000 0.645758
 20   1.215371 -0.000002 0.000001 0.000000 0.000000 0.645758
 21   4.220534 -0.244854 -0.431465 0.001333 0.026242 0.148339
 22   1.350417 0.000000 0.000001 0.000000 0.000000 0.863926
 23   1.350410 -0.000001 -0.000001 0.000000 0.000000 0.863926
 24   -1.887021 0.858761 -2.731760 -0.613046 1.491899 2.090622
 25   4.640942 0.000000 0.000001 -0.583979 -1.126689 0.534792
 26   10.828047 0.000000 0.000001 0.000000 0.000000 -0.432150
 27   9.393339 0.000000 0.000000 1.569611 -0.034192 0.000001
 28   1.442245 0.107455 1.746178 -1.686405 -0.539236 0.325898
 29   1.063450 -0.000001 0.000000 0.000000 0.000000 0.199056
 30   1.376307 0.000000 0.000000 0.000000 0.000000 0.199059
 31   4.172847 -0.251365 1.312745 -0.008050 -0.095731 0.148659
 32   1.215373 -0.000001 0.000000 0.000000 0.000000 0.645746
 33   1.215372 0.000000 0.000000 0.000000 0.000000 0.645746
 34   4.220534 -0.244853 0.431466 -0.001333 -0.026242 0.148339
 35   1.350416 0.000000 -0.000001 0.000000 0.000000 0.863937
 36   1.350410 0.000000 0.000001 0.000000 0.000000 0.863925
 37   2.110540 -0.000001 0.000000 0.043494 -0.021648 -0.207553
 38   0.891923 2.373051 -0.014527 -3.141592 -0.000001 1.413797
 39   7.228122 5.709445 3.726568 3.140796 -1.570796 0.000000
 40   2.450426 5.076128 0.001325 3.136051 -1.570796 0.000000
 41   6.312404 -4.528058 0.001311 3.140791 -1.570796 0.000000
 42   2.233309 1.152535 -7.309138 -1.140328 -1.587485 -0.834952
 43   4.262825 -0.232720 -1.392178 0.016840 0.076668 0.253759
time 2
  0   0.187413 3.819166 38.542141 0.011888 -0.001918 -1.869691
  1   -0.644224 -0.125004 0.000000 -0.000030 -1.510795 -1.570772
  2   -0.000007 0.000008 4.427393 -0.159054 -3.253249 0.153393
  3   18.465939 0.000000 0.000000 0.000000 0.000000 -0.175157
  4   14.875443 0.000000 -0.000001 -0.104533 0.021204 0.313267
  5   0.000006 -0.000004 -4.427393 0.086411 3.061003 -0.368975
  6   18.465939 0.000000 0.000000 0.000000 0.000000 -0.454260
  7   14.875442 0.000000 0.000000 -0.122725 -0.025020 0.085321
  8   2.255207 -0.007574 0.132820 0.029356 -0.074821 0.048409
  9   9.514219 -0.009357 0.000000 -0.005766 0.006699 -0.027255
 10   11.751820 -0.001633 0.000000 0.000024 0.043599 0.439975
 11   -2.117496 0.858748 2.563789 0.744171 -1.388092 1.959750
 12   4.640941 0.000000 -0.000001 0.377244 1.174949 0.410179
 13   10.828049 0.000000 0.000000 0.000000 0.000000 -0.798759
 14   9.393337 -0.000001 0.000000 -1.569611 0.034172 0.000037
 15   1.442245 0.107454 -1.746177 1.686435 0.539209 0.325885
 16   1.063452 0.000000 0.000001 0.000000 0.000000 0.199056
 17   1.376307 -0.000001 0.000001 0.000000 0.000000 0.199049
 18   4.172846 -0.251366 -1.312744 0.008050 0.095731 0.148659
 19   1.215374 0.000002 0.000000 0.000000 0.000000 0.645758
 20   1.215371 -0.000002 0.000001 0.000000 0.000000 0.645758
 21   4.220534 -0.244854 -0.431465 0.001333 0.026242 0.148339
 22   1.350417 0.000000 0.000001 0.000000 0.000000 0.863926
 23   1.350410 -0.000001 -0.000001 0.000000 0.000000 0.863926
 24   -1.887021 0.858761 -2.731760 -0.035629 1.506145 2.665009
 25   4.640942 0.000000 0.000001 -0.544105 -1.076826 0.538991
 26   10.828047 0.000000 0.000001 0.000000 0.000000 -0.630092
 27   9.393339 0.000000 0.000000 1.569611 -0.034192 0.000001
 28   1.442245 0.107455 1.746178 -1.686405 -0.539236 0.325898
 29   1.063450 -0.000001 0.000000 0.000000 0.000000 0.199056
 30   1.376307 0.000000 0.000000 0.000000 0.000000 0.199059
 31   4.172847 -0.251365 1.312745 -0.008050 -0.095731 0.148659
 32   1.215373 -0.000001 0.000000 0.000000 0.000000 0.645746
 33   1.215372 0.000000 0.000000 0.000000 0.000000 0.645746
 34   4.220534 -0.244853 0.431466 -0.001333 -0.026242 0.148339
 35   1.350416 0.000000 -0.000001 0.000000 0.000000 0.863937
 36   1.350410 0.000000 0.000001 0.000000 0.000000 0.863925
 37   2.110540 -0.000001 0.000000 0.090898 -0.033324 -0.269737
 38   0.891923 2.373051 -0.014527 -3.141592 -0.000001 1.413797
 39   7.228122 5.709445 3.726568 3.140796 -1.570796 0.000000
 40   2.450426 5.076128 0.001325 3.140001 -1.570796 0.000000
 41   6.312404 -4.528058 0.001311 3.140791 -1.570796 0.000000
 42   2.233309 1.152535 -7.309138 -1.150299 -1.605688 -0.839452
 43   4.262825 -0.232720 -1.392178 0.016840 0.076668 0.253759
time 3
  0   -0.644198 2.167508 38.635895 0.018600 -0.002109 -1.962308
  1   -1.089550 -0.085940 0.000000 -0.000030 -1.477725 -1.570772
  2   -0.000007 0.000008 4.427393 -0.136525 -3.315488 0.275981
  3   18.465939 0.000000 0.000000 0.000000 0.000000 -0.001965
  4   14.875443 0.000000 -0.000001 -0.189435 0.014734 0.210282
  5   0.000006 -0.000004 -4.427393 0.077896 3.041150 -0.362986
  6   18.465939 0.000000 0.000000 0.000000 0.000000 -0.511101
  7   14.875442 0.000000 0.000000 -0.209694 -0.042079 0.150264
  8   2.247394 -0.007574 0.207041 -0.024156 -0.104387 0.075872
  9   9.514219 -0.009357 0.000000 -0.003971 0.009012 0.010521
 10   11.751820 -0.001633 0.000000 0.000024 0.043599 0.439975
 11   -2.117496 0.858748 2.563789 0.714956 -1.392735 1.988742
 12   4.640941 0.000000 -0.000001 0.138029 1.193684 0.187033
 13   10.828049 0.000000 0.000000 0.000000 0.000000 -0.911388
 14   9.393337 -0.000001 0.000000 -1.569611 0.034172 0.000037
 15   1.442245 0.107454 -1.746177 1.686435 0.539209 0.325885
 16   1.063452 0.000000 0.000001 0.000000 0.000000 0.199056
 17   1.376307 -0.000001 0.000001 0.000000 0.000000 0.199049
 18   4.172846 -0.251366 -1.312744 0.008050 0.095731 0.148659
 19   1.215374 0.000002 0.000000 0.000000 0.000000 0.645758
 20   1.215371 -0.000002 0.000001 0.000000 0.000000 0.645758
 21   4.220534 -0.244854 -0.431465 0.001333 0.026242 0.148339
 22   1.350417 0.000000 0.000001 0.000000 0.000000 0.863926
 23   1.350410 -0.000001 -0.000001 0.000000 0.000000 0.863926
 24   -1.887021 0.858761 -2.731760 0.470669 1.498358 3.168741
 25   4.640942 0.000000 0.000001 -0.498210 -1.030449 0.553200
 26   10.828047 0.000000 0.000001 0.000000 0.000000 -0.783195
 27   9.393339 0.000000 0.000000 1.569611 -0.034192 0.000001
 28   1.442245 0.107455 1.746178 -1.686405 -0.539236 0.325898
 29   1.063450 -0.000001 0.000000 0.000000 0.000000 0.199056
 30   1.376307 0.000000 0.000000 0.000000 0.000000 0.199059
 31   4.172847 -0.251365 1.312745 -0.008050 -0.095731 0.148659
 32   1.215373 -0.000001 0.000000 0.000000 0.000000 0.645746
 33   1.215372 0.000000 0.000000 0.000000 0.000000 0.645746
 34   4.220534 -0.244853 0.431466 -0.001333 -0.026242 0.148339
 35   1.350416 0.000000 -0.000001 0.000000 0.000000 0.863937
 36   1.350410 0.000000 0.000001 0.000000 0.000000 0.863925
 37   2.110540 -0.000001 0.000000 0.140258 -0.044106 -0.334416
 38   0.891923 2.373051 -0.014527 -3.141592 -0.000001 1.413797
 39   7.228122 5.709445 3.726568 3.140796 -1.570796 0.000000
 40   2.450426 5.076128 0.001325 3.133067 -1.570796 0.000000
 41   6.312404 -4.528058 0.001311 3.140791 -1.570796 0.000000
 42   2.233309 1.152535 -7.309138 -1.150491 -1.628929 -0.835909
 43   4.262825 -0.232720 -1.392178 0.016840 0.076668 0.253759
time 4
  0   -1.455525 0.625960 38.721832 0.024831 -0.001726 -2.049172
  1   -1.503625 -0.019532 0.000000 -0.000030 -1.446711 -1.570772
  2   -0.000007 0.000008 4.427393 -0.154376 -3.348701 0.166310
  3   18.465939 0.000000 0.000000 0.000000 0.000000 -0.479868
  4   14.875443 0.000000 -0.000001 -0.128299 -0.057887 0.260530
  5   0.000006 -0.000004 -4.427393 0.069572 3.016543 -0.350071
  6   18.465939 0.000000 0.000000 0.000000 0.000000 -0.576082
  7   14.875442 0.000000 0.000000 -0.301576 -0.052177 0.230364
  8   2.239582 -0.007574 0.277355 -0.075946 -0.130741 0.101647
  9   9.514219 -0.009357 0.000000 -0.002217 0.011110 0.046024
 10   11.751820 -0.001633 0.000000 0.000024 0.043599 0.439975
 11   -2.117496 0.858748 2.563789 0.605079 -1.407160 2.097977
 12   4.640941 0.000000 -0.000001 -0.103102 1.189552 -0.062046
 13   10.828049 0.000000 0.000000 0.000000 0.000000 -0.962577
 14   9.393337 -0.000001 0.000000 -1.569611 0.034172 0.000037
 15   1.442245 0.107454 -1.746177 1.686435 0.539209 0.325885
 16   1.063452 0.000000 0.000001 0.000000 0.000000 0.199056
 17   1.376307 -0.000001 0.000001 0.000000 0.000000 0.199049
 18   4.172846 -0.251366 -1.312744 0.008050 0.095731 0.148659
 19   1.215374 0.000002 0.000000 0.000000 0.000000 0.645758
 20   1.215371 -0.000002 0.000001 0.000000 0.000000 0.645758
 21   4.220534 -0.244854 -0.431465 0.001333 0.026242 0.148339
 22   1.350417 0.000000 0.000001 0.000000 0.000000 0.863926
 23   1.350410 -0.000001 -0.000001 0.000000 0.000000 0.863926
 24   -1.887021 0.858761 -2.731760 0.686042 1.487434 3.382700
 25   4.640942 0.000000 0.000001 -0.458438 -0.979400 0.615284
 26   10.828047 0.000000 0.000001 0.000000 0.000000 -0.830300
 27   9.393339 0.000000 0.000000 1.569611 -0.034192 0.000001
 28   1.442245 0.107455 1.746178 -1.686405 -0.539236 0.325898
 29   1.063450 -0.000001 0.000000 0.000000 0.000000 0.199056
 30   1.376307 0.000000 0.000000 0.000000 0.000000 0.199059
 31   4.172847 -0.251365 1.312745 -0.008050 -0.095731 0.148659
 32   1.215373 -0.000001 0.000000 0.000000 0.000000 0.645746
 33   1.215372 0.000000 0.000000 0.000000 0.000000 0.645746
 34   4.220534 -0.244853 0.431466 -0.001333 -0.026242 0.148339
 35   1.350416 0.000000 -0.000001 0.000000 0.000000 0.863937
 36   1.350410 0.000000 0.000001 0.000000 0.000000 0.863925
 37   2.110540 -0.000001 0.000000 0.186899 -0.053017 -0.395525
 38   0.891923 2.373051 -0.014527 -3.141592 -0.000001 1.413797
 39   7.228122 5.709445 3.726568 3.140796 -1.570796 0.000000
 40   2.450426 5.076128 0.001325 3.100857 -1.570796 0.000000
 41   6.312404 -4.528058 0.001311 3.140791 -1.570796 0.000000
 42   2.233309 1.152535 -7.309138 -1.151833 -1.652812 -0.823367
 43   4.262825 -0.232720 -1.392178 0.016840 0.076668 0.253759
time 5
  0   -2.124871 -0.612784 38.788242 0.030008 -0.001023 -2.121751
  1   -1.843479 0.050783 0.000000 -0.000030 -1.420771 -1.570772
  2   -0.000007 0.000008 4.427393 -0.204208 -3.311953 -0.126144
  3   18.465939 0.000000 0.000000 0.000000 0.000000 -0.967202
  4   14.875443 0.000000 -0.000001 -0.144522 -0.097199 -0.069363
  5   0.000006 -0.000004 -4.427393 0.065075 2.987834 -0.317877
  6   18.465939 0.000000 0.000000 0.000000 0.000000 -0.612969
  7   14.875442 0.000000 0.000000 -0.389387 -0.052063 0.301384
  8   2.231769 -0.007574 0.335951 -0.120344 -0.151690 0.123220
  9   9.514219 -0.009357 0.000000 -0.000686 0.012812 0.075704
 10   11.751820 -0.001633 0.000000 0.000024 0.043599 0.439975
 11   -2.117496 0.858748 2.563789 0.422962 -1.423079 2.279211
 12   4.640941 0.000000 -0.000001 -0.302432 1.165582 -0.289055
 13   10.828049 0.000000 0.000000 0.000000 0.000000 -0.982162
 14   9.393337 -0.000001 0.000000 -1.569611 0.034172 0.000037
 15   1.442245 0.107454 -1.746177 1.686435 0.539209 0.325885
 16   1.063452 0.000000 0.000001 0.000000 0.000000 0.199056
 17   1.376307 -0.000001 0.000001 0.000000 0.000000 0.199049
 18   4.172846 -0.251366 -1.312744 0.008050 0.095731 0.148659
 19   1.215374 0.000002 0.000000 0.000000 0.000000 0.645758
 20   1.215371 -0.000002 0.000001 0.000000 0.000000 0.645758
 21   4.220534 -0.244854 -0.431465 0.001333 0.026242 0.148339
 22   1.350417 0.000000 0.000001 0.000000 0.000000 0.863926
 23   1.350410 -0.000001 -0.000001 0.000000 0.000000 0.863926
 24   -1.887021 0.858761 -2.731760 0.699080 1.486541 3.395634
 25   4.640942 0.000000 0.000001 -0.423502 -0.934418 0.704666
 26   10.828047 0.000000 0.000001 0.000000 0.000000 -0.812817
 27   9.393339 0.000000 0.000000 1.569611 -0.034192 0.000001
 28   1.442245 0.107455 1.746178 -1.686405 -0.539236 0.325898
 29   1.063450 -0.000001 0.000000 0.000000 0.000000 0.199056
 30   1.376307 0.000000 0.000000 0.000000 0.000000 0.199059
 31   4.172847 -0.251365 1.312745 -0.008050 -0.095731 0.148659
 32   1.215373 -0.000001 0.000000 0.000000 0.000000 0.645746
 33   1.215372 0.000000 0.000000 0.000000 0.000000 0.645746
 34   4.220534 -0.244853 0.431466 -0.001333 -0.026242 0.148339
 35   1.350416 0.000000 -0.000001 0.000000 0.000000 0.863937
 36   1.350410 0.000000 0.000001 0.000000 0.000000 0.863925
 37   2.110540 -0.000001 0.000000 0.226101 -0.059525 -0.446872
 38   0.891923 2.373051 -0.014527 -3.141592 -0.000001 1.413797
 39   7.228122 5.709445 3.726568 3.140796 -1.570796 0.000000
 40   2.450426 5.076128 0.001325 3.057675 -1.570796 0.000000
 41   6.312404 -4.528058 0.001311 3.140791 -1.570796 0.000000
 42   2.233309 1.152535 -7.309138 -1.158640 -1.674277 -0.805272
 43   4.262825 -0.232720 -1.392178 0.016840 0.076668 0.253759
time 6
  0   -2.571101 -1.493669 38.835117 0.033556 -0.000256 -2.171607
  1   -2.073955 0.113285 0.000000 -0.000030 -1.402964 -1.570772
  2   -0.000007 0.000008 4.427393 -0.213372 -3.255110 -0.299302
  3   18.465939 0.000000 0.000000 0.000000 0.000000 -1.122555
  4   14.875443 0.000000 -0.000001 -0.049146 -0.044649 0.107415
  5   0.000006 -0.000004 -4.427393 0.063831 2.959686 -0.273891
  6   18.465939 0.000000 0.000000 0.000000 0.000000 -0.628919
  7   14.875442 0.000000 0.000000 -0.457298 -0.042326 0.362125
  8   2.227862 -0.007574 0.375014 -0.151363 -0.165496 0.138010
  9   9.514219 -0.009357 0.000000 0.000369 0.013950 0.096075
 10   11.751820 -0.001633 0.000000 0.000024 0.043599 0.439975
 11   -2.117496 0.858748 2.563789 0.180064 -1.433798 2.521108
 12   4.640941 0.000000 -0.000001 -0.426116 1.137273 -0.450678
 13   10.828049 0.000000 0.000000 0.000000 0.000000 -0.977952
 14   9.393337 -0.000001 0.000000 -1.569611 0.034172 0.000037
 15   1.442245 0.107454 -1.746177 1.686435 0.539209 0.325885
 16   1.063452 0.000000 0.000001 0.000000 0.000000 0.199056
 17   1.376307 -0.000001 0.000001 0.000000 0.000000 0.199049
 18   4.172846 -0.251366 -1.312744 0.008050 0.095731 0.148659
 19   1.215374 0.000002 0.000000 0.000000 0.000000 0.645758
 20   1.215371 -0.000002 0.000001 0.000000 0.000000 0.645758
 21   4.220534 -0.244854 -0.431465 0.001333 0.026242 0.148339
 22   1.350417 0.000000 0.000001 0.000000 0.000000 0.863926
 23   1.350410 -0.000001 -0.000001 0.000000 0.000000 0.863926
 24   -1.887021 0.858761 -2.731760 0.536299 1.495699 3.233961
 25   4.640942 0.000000 0.000001 -0.400658 -0.890832 0.829465
 26   10.828047 0.000000 0.000001 0.000000 0.000000 -0.785403
 27   9.393339 0.000000 0.000000 1.569611 -0.034192 0.000001
 28   1.442245 0.107455 1.746178 -1.686405 -0.539236 0.325898
 29   1.063450 -0.000001 0.000000 0.000000 0.000000 0.199056
 30   1.376307 0.000000 0.000000 0.000000 0.000000 0.199059
 31   4.172847 -0.251365 1.312745 -0.008050 -0.095731 0.148659
 32   1.215373 -0.000001 0.000000 0.000000 0.000000 0.645746
 33   1.215372 0.000000 0.000000 0.000000 0.000000 0.645746
 34   4.220534 -0.244853 0.431466 -0.001333 -0.026242 0.148339
 35   1.350416 0.000000 -0.000001 0.000000 0.000000 0.863937
 36   1.350410 0.000000 0.000001 0.000000 0.000000 0.863925
 37   2.110540 -0.000001 0.000000 0.253142 -0.063520 -0.482222
 38   0.891923 2.373051 -0.014527 -3.141592 -0.000001 1.413797
 39   7.228122 5.709445 3.726568 3.140796 -1.570796 0.000000
 40   2.450426 5.076128 0.001325 3.035996 -1.570796 0.000000
 41   6.312404 -4.528058 0.001311 3.140791 -1.570796 0.000000
 42   2.233309 1.152535 -7.309138 -1.167748 -1.692946 -0.778274
 43   4.262825 -0.232720 -1.392178 0.016840 0.076668 0.253759
time 7
  0   -2.753649 -1.824001 38.850742 0.034802 0.000000 -2.190111
  1   -2.159895 0.136723 0.000000 -0.000030 -1.396353 -1.570772
  2   -0.000007 0.000008 4.427393 -0.206117 -3.206547 -0.399546
  3   18.465939 0.000000 0.000000 0.000000 0.000000 -1.152456
  4   14.875443 0.000000 -0.000001 0.021981 -0.020640 0.358736
  5   0.000006 -0.000004 -4.427393 0.067850 2.942069 -0.217458
  6   18.465939 0.000000 0.000000 0.000000 0.000000 -0.616842
  7   14.875442 0.000000 0.000000 -0.484216 -0.028614 0.405533
  8   2.223956 -0.007574 0.390640 -0.162998 -0.170494 0.143503
  9   9.514219 -0.009357 0.000000 0.000778 0.014382 0.103631
 10   11.751820 -0.001633 0.000000 0.000024 0.043599 0.439975
 11   -2.117496 0.858748 2.563789 -0.074520 -1.435627 2.774754
 12   4.640941 0.000000 -0.000001 -0.467476 1.123359 -0.531285
 13   10.828049 0.000000 0.000000 0.000000 0.000000 -0.957940
 14   9.393337 -0.000001 0.000000 -1.569611 0.034172 0.000037
 15   1.442245 0.107454 -1.746177 1.686435 0.539209 0.325885
 16   1.063452 0.000000 0.000001 0.000000 0.000000 0.199056
 17   1.376307 -0.000001 0.000001 0.000000 0.000000 0.199049
 18   4.172846 -0.251366 -1.312744 0.008050 0.095731 0.148659
 19   1.215374 0.000002 0.000000 0.000000 0.000000 0.645758
 20   1.215371 -0.000002 0.000001 0.000000 0.000000 0.645758
 21   4.220534 -0.244854 -0.431465 0.001333 0.026242 0.148339
 22   1.350417 0.000000 0.000001 0.000000 0.000000 0.863926
 23   1.350410 -0.000001 -0.000001 0.000000 0.000000 0.863926
 24   -1.887021 0.858761 -2.731760 -0.020045 1.506166 2.680557
 25   4.640942 0.000000 0.000001 -0.388567 -0.873955 0.919057
 26   10.828047 0.000000 0.000001 0.000000 0.000000 -0.729412
 27   9.393339 0.000000 0.000000 1.569611 -0.034192 0.000001
 28   1.442245 0.107455 1.746178 -1.686405 -0.539236 0.325898
 29   1.063450 -0.000001 0.000000 0.000000 0.000000 0.199056
 30   1.376307 0.000000 0.000000 0.000000 0.000000 0.199059
 31   4.172847 -0.251365 1.312745 -0.008050 -0.095731 0.148659
 32   1.215373 -0.000001 0.000000 0.000000 0.000000 0.645746
 33   1.215372 0.000000 0.000000 0.000000 0.000000 0.645746
 34   4.220534 -0.244853 0.431466 -0.001333 -0.026242 0.148339
 35   1.350416 0.000000 -0.000001 0.000000 0.000000 0.863937
 36   1.350410 0.000000 0.000001 0.000000 0.000000 0.863925
 37   2.110540 -0.000001 0.000000 0.263204 -0.064889 -0.495381
 38   0.891923 2.373051 -0.014527 -3.141592 -0.000001 1.413797
 39   7.228122 5.709445 3.726568 3.140796 -1.570796 0.000000
 40   2.450426 5.076128 0.001325 3.040823 -1.570796 0.000000
 41   6.312404 -4.528058 0.001311 3.140791 -1.570796 0.000000
 42   2.233309 1.152535 -7.309138 -1.191141 -1.701683 -0.711255
 43   4.262825 -0.232720 -1.392178 0.016840 0.076668 0.253759
time 8
  0   -2.429118 -1.218393 38.819492 0.032405 -0.000511 -2.154924
  1   -1.999734 0.089846 0.000000 -0.000030 -1.408914 -1.570772
  2   -0.000007 0.000008 4.427393 -0.192370 -3.237992 -0.256362
  3   18.465939 0.000000 0.000000 0.000000 0.000000 -0.887515
  4   14.875443 0.000000 -0.000001 -0.156704 -0.013851 0.425575
  5   0.000006 -0.000004 -4.427393 0.065745 2.967701 -0.276886
  6   18.465939 0.000000 0.000000 0.000000 0.000000 -0.615070
  7   14.875442 0.000000 0.000000 -0.450980 -0.044456 0.345092
  8   2.227862 -0.007574 0.363295 -0.140946 -0.160930 0.133047
  9   9.514219 -0.009357 0.000000 0.000013 0.013579 0.089256
 10   11.751820 -0.001633 0.000000 0.000024 0.043599 0.439975
 11   -2.117496 0.858748 2.563789 -0.401799 -1.424431 3.100604
 12   4.640941 0.000000 -0.000001 -0.353664 1.156972 -0.451088
 13   10.828049 0.000000 0.000000 0.000000 0.000000 -0.876794
 14   9.393337 -0.000001 0.000000 -1.569611 0.034172 0.000037
 15   1.442245 0.107454 -1.746177 1.686435 0.539209 0.325885
 16   1.063452 0.000000 0.000001 0.000000 0.000000 0.199056
 17   1.376307 -0.000001 0.000001 0.000000 0.000000 0.199049
 18   4.172846 -0.251366 -1.312744 0.008050 0.095731 0.148659
 19   1.215374 0.000002 0.000000 0.000000 0.000000 0.645758
 20   1.215371 -0.000002 0.000001 0.000000 0.000000 0.645758
 21   4.220534 -0.244854 -0.431465 0.001333 0.026242 0.148339
 22   1.350417 0.000000 0.000001 0.000000 0.000000 0.863926
 23   1.350410 -0.000001 -0.000001 0.000000 0.000000 0.863926
 24   -1.887021 0.858761 -2.731760 -0.978952 1.455661 1.728336
 25   4.640942 0.000000 0.000001 -0.391191 -0.921377 0.898409
 26   10.828047 0.000000 0.000001 0.000000 0.000000 -0.636597
 27   9.393339 0.000000 0.000000 1.569611 -0.034192 0.000001
 28   1.442245 0.107455 1.746178 -1.686405 -0.539236 0.325898
 29   1.063450 -0.000001 0.000000 0.000000 0.000000 0.199056
 30   1.376307 0.000000 0.000000 0.000000 0.000000 0.199059
 31   4.172847 -0.251365 1.312745 -0.008050 -0.095731 0.148659
 32   1.215373 -0.000001 0.000000 0.000000 0.000000 0.645746
 33   1.215372 0.000000 0.000000 0.000000 0.000000 0.645746
 34   4.220534 -0.244853 0.431466 -0.001333 -0.026242 0.148339
 35   1.350416 0.000000 -0.000001 0.000000 0.000000 0.863937
 36   1.350410 0.000000 0.000001 0.000000 0.000000 0.863925
 37   2.110540 -0.000001 0.000000 0.244080 -0.062235 -0.470396
 38   0.891923 2.373051 -0.014527 -3.141592 -0.000001 1.413797
 39   7.228122 5.709445 3.726568 3.140796 -1.570796 0.000000
 40   2.450426 5.076128 0.001325 3.053638 -1.570796 0.000000
 41   6.312404 -4.528058 0.001311 3.140791 -1.570796 0.000000
 42   2.233309 1.152535 -7.309138 -1.167748 -1.675500 -0.778274
 43   4.262825 -0.232720 -1.392178 0.016840 0.076668 0.253759
time 9
  0   -1.597508 0.350683 38.737457 0.025982 -0.001598 -2.065088
  1   -1.577846 -0.003906 0.000000 -0.000030 -1.441020 -1.570772
  2   -0.000007 0.000008 4.427393 -0.165927 -3.284787 -0.000015
  3   18.465939 0.000000 0.000000 0.000000 0.000000 -0.473654
  4   14.875443 0.000000 -0.000001 -0.230961 0.013351 0.416964
  5   0.000006 -0.000004 -4.427393 0.071485 3.010018 -0.335097
  6   18.465939 0.000000 0.000000 0.000000 0.000000 -0.590325
  7   14.875442 0.000000 0.000000 -0.352185 -0.054079 0.260415
  8   2.239582 -0.007574 0.289074 -0.085607 -0.135415 0.106379
  9   9.514219 -0.009357 0.000000 -0.001887 0.011481 0.052541
 10   11.751820 -0.001633 0.000000 0.000024 0.043599 0.439975
 11   -2.117496 0.858748 2.563789 -0.514332 -1.416129 3.212587
 12   4.640941 0.000000 -0.000001 -0.073483 1.194166 -0.184565
 13   10.828049 0.000000 0.000000 0.000000 0.000000 -0.759528
 14   9.393337 -0.000001 0.000000 -1.569611 0.034172 0.000037
 15   1.442245 0.107454 -1.746177 1.686435 0.539209 0.325885
 16   1.063452 0.000000 0.000001 0.000000 0.000000 0.199056
 17   1.376307 -0.000001 0.000001 0.000000 0.000000 0.199049
 18   4.172846 -0.251366 -1.312744 0.008050 0.095731 0.148659
 19   1.215374 0.000002 0.000000 0.000000 0.000000 0.645758
 20   1.215371 -0.000002 0.000001 0.000000 0.000000 0.645758
 21   4.220534 -0.244854 -0.431465 0.001333 0.026242 0.148339
 22   1.350417 0.000000 0.000001 0.000000 0.000000 0.863926
 23   1.350410 -0.000001 -0.000001 0.000000 0.000000 0.863926
 24   -1.887021 0.858761 -2.731760 -1.214607 1.388958 1.498073
 25   4.640942 0.000000 0.000001 -0.419849 -0.985328 0.829255
 26   10.828047 0.000000 0.000001 0.000000 0.000000 -0.529669
 27   9.393339 0.000000 0.000000 1.569611 -0.034192 0.000001
 28   1.442245 0.107455 1.746178 -1.686405 -0.539236 0.325898
 29   1.063450 -0.000001 0.000000 0.000000 0.000000 0.199056
 30   1.376307 0.000000 0.000000 0.000000 0.000000 0.199059
 31   4.172847 -0.251365 1.312745 -0.008050 -0.095731 0.148659
 32   1.215373 -0.000001 0.000000 0.000000 0.000000 0.645746
 33   1.215372 0.000000 0.000000 0.000000 0.000000 0.645746
 34   4.220534 -0.244853 0.431466 -0.001333 -0.026242 0.148339
 35   1.350416 0.000000 -0.000001 0.000000 0.000000 0.863937
 36   1.350410 0.000000 0.000001 0.000000 0.000000 0.863925
 37   2.110540 -0.000001 0.000000 0.195484 -0.054497 -0.406792
 38   0.891923 2.373051 -0.014527 -3.141592 -0.000001 1.413797
 39   7.228122 5.709445 3.726568 3.140796 -1.570796 0.000000
 40   2.450426 5.076128 0.001325 3.071893 -1.570796 0.000000
 41   6.312404 -4.528058 0.001311 3.140791 -1.570796 0.000000
 42   2.233309 1.152535 -7.309138 -1.153271 -1.649317 -0.827676
 43   4.262825 -0.232720 -1.392178 0.016840 0.076668 0.253759
time 10
  0   -0.481932 2.497839 38.616360 0.017257 -0.002109 -1.943899
  1   -1.003610 -0.097659 0.000000 -0.000030 -1.484279 -1.570772
  2   -0.000007 0.000008 4.427393 -0.135857 -3.310185 0.276080
  3   18.465939 0.000000 0.000000 0.000000 0.000000 -0.001965
  4   14.875443 0.000000 -0.000001 -0.195156 0.012350 0.193651
  5   0.000006 -0.000004 -4.427393 0.082966 3.046835 -0.363266
  6   18.465939 0.000000 0.000000 0.000000 0.000000 -0.512152
  7   14.875442 0.000000 0.000000 -0.215765 -0.042915 0.150939
  8   2.247394 -0.007574 0.191415 -0.013424 -0.098646 0.070412
  9   9.514219 -0.009357 0.000000 -0.004341 0.008557 0.003052
 10   11.751820 -0.001633 0.000000 0.000024 0.043599 0.439975
 11   -2.117496 0.858748 2.563789 -0.220593 -1.432669 2.920194
 12   4.640941 0.000000 -0.000001 0.243686 1.188794 0.148983
 13   10.828049 0.000000 0.000000 0.000000 0.000000 -0.662702
 14   9.393337 -0.000001 0.000000 -1.569611 0.034172 0.000037
 15   1.442245 0.107454 -1.746177 1.686435 0.539209 0.325885
 16   1.063452 0.000000 0.000001 0.000000 0.000000 0.199056
 17   1.376307 -0.000001 0.000001 0.000000 0.000000 0.199049
 18   4.172846 -0.251366 -1.312744 0.008050 0.095731 0.148659
 19   1.215374 0.000002 0.000000 0.000000 0.000000 0.645758
 20   1.215371 -0.000002 0.000001 0.000000 0.000000 0.645758
 21   4.220534 -0.244854 -0.431465 0.001333 0.026242 0.148339
 22   1.350417 0.000000 0.000001 0.000000 0.000000 0.863926
 23   1.350410 -0.000001 -0.000001 0.000000 0.000000 0.863926
 24   -1.887021 0.858761 -2.731760 -1.199286 1.395852 1.512933
 25   4.640942 0.000000 0.000001 -0.485707 -1.038609 0.744772
 26   10.828047 0.000000 0.000001 0.000000 0.000000 -0.430930
 27   9.393339 0.000000 0.000000 1.569611 -0.034192 0.000001
 28   1.442245 0.107455 1.746178 -1.686405 -0.539236 0.325898
 29   1.063450 -0.000001 0.000000 0.000000 0.000000 0.199056
 30   1.376307 0.000000 0.000000 0.000000 0.000000 0.199059
 31   4.172847 -0.251365 1.312745 -0.008050 -0.095731 0.148659
 32   1.215373 -0.000001 0.000000 0.000000 0.000000 0.645746
 33   1.215372 0.000000 0.000000 0.000000 0.000000 0.645746
 34   4.220534 -0.244853 0.431466 -0.001333 -0.026242 0.148339
 35   1.350416 0.000000 -0.000001 0.000000 0.000000 0.863937
 36   1.350410 0.000000 0.000001 0.000000 0.000000 0.863925
 37   2.110540 -0.000001 0.000000 0.130434 -0.042067 -0.321600
 38   0.891923 2.373051 -0.014527 -3.141592 -0.000001 1.413797
 39   7.228122 5.709445 3.726568 3.140796 -1.570796 0.000000
 40   2.450426 5.076128 0.001325 3.092870 -1.570796 0.000000
 41   6.312404 -4.528058 0.001311 3.140791 -1.570796 0.000000
 42   2.233309 1.152535 -7.309138 -1.146752 -1.611513 -0.830644
 43   4.262825 -0.232720 -1.392178 0.016840 0.076668 0.253759
time 11
  0   0.694493 4.782634 38.487450 0.007958 -0.001470 -1.814945
  1   -0.378591 -0.136723 0.000000 -0.000030 -1.530326 -1.570772
  2   -0.000007 0.000008 4.427393 -0.163923 -3.223106 0.116138
  3   18.465939 0.000000 0.000000 0.000000 0.000000 -0.216755
  4   14.875443 0.000000 -0.000001 -0.065085 0.020289 0.317849
  5   0.000006 -0.000004 -4.427393 0.094734 3.071815 -0.371408
  6   18.465939 0.000000 0.000000 0.000000 0.000000 -0.437326
  7   14.875442 0.000000 0.000000 -0.085243 -0.015910 0.064911
  8   2.255207 -0.007574 0.089849 0.060187 -0.056640 0.032196
  9   9.514219 -0.009357 0.000000 -0.006782 0.005309 -0.049618
 10   11.751820 -0.001633 0.000000 0.000024 0.043599 0.439975
 11   -2.117496 0.858748 2.563789 0.296770 -1.429886 2.404866
 12   4.640941 0.000000 -0.000001 0.531629 1.148707 0.472990
 13   10.828049 0.000000 0.000000 0.000000 0.000000 -0.566546
 14   9.393337 -0.000001 0.000000 -1.569611 0.034172 0.000037
 15   1.442245 0.107454 -1.746177 1.686435 0.539209 0.325885
 16   1.063452 0.000000 0.000001 0.000000 0.000000 0.199056
 17   1.376307 -0.000001 0.000001 0.000000 0.000000 0.199049
 18   4.172846 -0.251366 -1.312744 0.008050 0.095731 0.148659
 19   1.215374 0.000002 0.000000 0.000000 0.000000 0.645758
 20   1.215371 -0.000002 0.000001 0.000000 0.000000 0.645758
 21   4.220534 -0.244854 -0.431465 0.001333 0.026242 0.148339
 22   1.350417 0.000000 0.000001 0.000000 0.000000 0.863926
 23   1.350410 -0.000001 -0.000001 0.000000 0.000000 0.863926
 24   -1.887021 0.858761 -2.731760 -1.100291 1.429723 1.609180
 25   4.640942 0.000000 0.000001 -0.558048 -1.103606 0.639292
 26   10.828047 0.000000 0.000001 0.000000 0.000000 -0.332656
 27   9.393339 0.000000 0.000000 1.569611 -0.034192 0.000001
 28   1.442245 0.107455 1.746178 -1.686405 -0.539236 0.325898
 29   1.063450 -0.000001 0.000000 0.000000 0.000000 0.199056
 30   1.376307 0.000000 0.000000 0.000000 0.000000 0.199059
 31   4.172847 -0.251365 1.312745 -0.008050 -0.095731 0.148659
 32   1.215373 -0.000001 0.000000 0.000000 0.000000 0.645746
 33   1.215372 0.000000 0.000000 0.000000 0.000000 0.645746
 34   4.220534 -0.244853 0.431466 -0.001333 -0.026242 0.148339
 35   1.350416 0.000000 -0.000001 0.000000 0.000000 0.863937
 36   1.350410 0.000000 0.000001 0.000000 0.000000 0.863925
 37   2.110540 -0.000001 0.000000 0.061950 -0.026341 -0.231764
 38   0.891923 2.373051 -0.014527 -3.141592 -0.000001 1.413797
 39   7.228122 5.709445 3.726568 3.140796 -1.570796 0.000000
 40   2.450426 5.076128 0.001325 3.113759 -1.570796 0.000000
 41   6.312404 -4.528058 0.001311 3.140791 -1.570796 0.000000
 42   2.233309 1.152535 -7.309138 -1.139753 -1.589698 -0.826910
 43   4.262825 -0.232720 -1.392178 0.016840 0.076668 0.253759
time 12
  0   1.708652 6.792152 38.374165 0.000000 0.000000 -1.701715
  1   0.164395 -0.125004 0.000000 -1.570795 -1.570451 0.000000
  2   -0.000007 0.000008 4.427393 -0.170796 -3.152960 0.000882
  3   18.465939 0.000000 0.000000 0.000000 0.000000 -0.416557
  4   14.875443 0.000000 -0.000001 0.018451 0.017437 0.402071
  5   0.000006 -0.000004 -4.427393 0.106024 3.095677 -0.362237
  6   18.465939 0.000000 0.000000 0.000000 0.000000 -0.394334
  7   14.875442 0.000000 0.000000 -0.002065 0.005199 0.029344
  8   2.255207 -0.007574 0.000003 0.122100 -0.017403 -0.001322
  9   9.514219 -0.009357 0.000000 -0.008787 0.002361 -0.095902
 10   11.751820 -0.001633 0.000000 0.000024 0.043599 0.439975
 11   -2.117496 0.858748 2.563789 0.697276 -1.395375 2.006330
 12   4.640941 0.000000 -0.000001 0.738474 1.089884 0.724820
 13   10.828049 0.000000 0.000000 0.000000 0.000000 -0.470452
 14   9.393337 -0.000001 0.000000 -1.569611 0.034172 0.000037
 15   1.442245 0.107454 -1.746177 1.686435 0.539209 0.325885
 16   1.063452 0.000000 0.000001 0.000000 0.000000 0.199056
 17   1.376307 -0.000001 0.000001 0.000000 0.000000 0.199049
 18   4.172846 -0.251366 -1.312744 0.008050 0.095731 0.148659
 19   1.215374 0.000002 0.000000 0.000000 0.000000 0.645758
 20   1.215371 -0.000002 0.000001 0.000000 0.000000 0.645758
 21   4.220534 -0.244854 -0.431465 0.001333 0.026242 0.148339
 22   1.350417 0.000000 0.000001 0.000000 0.000000 0.863926
 23   1.350410 -0.000001 -0.000001 0.000000 0.000000 0.863926
 24   -1.887021 0.858761 -2.731760 -0.942471 1.461434 1.764317
 25   4.640942 0.000000 0.000001 -0.601473 -1.183875 0.506934
 26   10.828047 0.000000 0.000001 0.000000 0.000000 -0.234266
 27   9.393339 0.000000 0.000000 1.569611 -0.034192 0.000001
 28   1.442245 0.107455 1.746178 -1.686405 -0.539236 0.325898
 29   1.063450 -0.000001 0.000000 0.000000 0.000000 0.199056
 30   1.376307 0.000000 0.000000 0.000000 0.000000 0.199059
 31   4.172847 -0.251365 1.312745 -0.008050 -0.095731 0.148659
 32   1.215373 -0.000001 0.000000 0.000000 0.000000 0.645746
 33   1.215372 0.000000 0.000000 0.000000 0.000000 0.645746
 34   4.220534 -0.244853 0.431466 -0.001333 -0.026242 0.148339
 35   1.350416 0.000000 -0.000001 0.000000 0.000000 0.863937
 36   1.350410 0.000000 0.000001 0.000000 0.000000 0.863925
 37   2.110540 -0.000001 0.000000 0.002432 -0.010503 -0.153668
 38   0.891923 2.373051 -0.014527 -3.141592 -0.000001 1.413797
 39   7.228122 5.709445 3.726568 3.140796 -1.570796 0.000000
 40   2.450426 5.076128 0.001325 3.132014 -1.570796 0.000000
 41   6.312404 -4.528058 0.001311 3.140791 -1.570796 0.000000
 42   2.233309 1.152535 -7.309138 -1.954670 -1.570796 0.000000
 43   4.262825 -0.232720 -1.392178 0.016840 0.076668 0.253759
end
